20091112_RATP_SCD_0244	1	1	NNAAMMEE	NULL	np	B_HU	B_GN	ROOT	0	idtext0000	ANONYM	NULL	spk1	4.78	4.97	0.04	_
20091112_RATP_SCD_0244	1	2	bonjour	NULL	adv	NULL	B_GADV	NOLINK	0	idtext0001	bonjour	#####	spk1	5.01	6.09	?	//

20091112_RATP_SCD_0244	2	1	bonjour	NULL	adv	NULL	B_GADV	NOLINK	0	idtext0002	bonjour	#####	spk2	6.31	6.63	0.01	_
20091112_RATP_SCD_0244	2	2	excusez	NULL	v	NULL	B_GVf	ROOT	0	idtext0002	excuser	P#2##p##	spk2	6.64	6.85	0.01	_
20091112_RATP_SCD_0244	2	3	-moi	NULL	clo	NULL	B_GN	OBJ	2	idtext0002	cla	#1##s##	spk2	6.86	6.97	0.01	_
20091112_RATP_SCD_0244	2	4	de	NULL	prep	NULL	B_GP	DE_OBJ	3	idtext0002	de	#####	spk2	6.98	7.0	0.01	_
20091112_RATP_SCD_0244	2	5	vous	NULL	clo	NULL	I_GP	OBJ	6	idtext0002	cln	#2##p##	spk2	7.01	7.07	0.01	_
20091112_RATP_SCD_0244	2	6	déranger	NULL	vinf	NULL	B_GVi	OBJ	4	idtext0002	déranger	W#####	spk2	7.08	7.79	0.08	_
20091112_RATP_SCD_0244	2	7	euh	DISF_M	pres	NULL	NULL	NOLINK	0	idtext0003	euh	#####	spk2	7.87	8.55	0.01	_
20091112_RATP_SCD_0244	2	8	j'	NULL	cln	NULL	B_GN	SUJ	10	idtext0003	cln	#1##s##	spk2	8.56	8.76	0.01	_
20091112_RATP_SCD_0244	2	9	ai	NULL	v	NULL	B_GVf	AUX	10	idtext0003	avoir	P#1##s##	spk2	8.77	8.99	0.01	_
20091112_RATP_SCD_0244	2	10	perdu	NULL	vppart	NULL	I_GVf	ROOT	0	idtext0003	perdre	K##m#s##	spk2	9.0	9.31	0.01	_
20091112_RATP_SCD_0244	2	11	mon	NULL	det	NULL	B_GN	DET	12	idtext0003	mon	###s##o	spk2	9.32	9.49	0.01	_
20091112_RATP_SCD_0244	2	12	porte-monnaie	NULL	nc	NULL	I_GN	OBJ	10	idtext0003	porte-monnaie	##m###	spk2	9.5	10.25	0.01	_
20091112_RATP_SCD_0244	2	13	hier	NULL	adv	NULL	B_GADV	MOD	10	idtext0004	hier	#####	spk2	10.26	10.68	?	//

20091112_RATP_SCD_0244	3	1	oui	NULL	adv	NULL	B_GADV	NOLINK	0	idtext0005	oui	#####	spk1	11.17	11.6	?	//

20091112_RATP_SCD_0244	4	1	euh	DISF_M	pres	NULL	NULL	NOLINK	0	idtext0006	euh	#####	spk2	11.88	11.9	0.01	_
20091112_RATP_SCD_0244	4	2	donc	NULL	coo	NULL	B_NULL	ROOT	0	idtext0006	donc	#####	spk2	11.91	11.99	0.01	_
20091112_RATP_SCD_0244	4	3	je	NULL	cln	NULL	B_GN	SUJ	4	idtext0006	cln	#1##s##	spk2	12.0	12.58	0.01	_
20091112_RATP_SCD_0244	4	4	voulais	NULL	v	NULL	B_GVf	DEP_COORD	2	idtext0006	vouloir	I#12##s##	spk2	12.59	13.15	0.01	_
20091112_RATP_SCD_0244	4	5	savoir	NULL	vinf	NULL	I_GVf	OBJ	4	idtext0006	savoir	W#####	spk2	13.16	13.7	0.01	_
20091112_RATP_SCD_0244	4	6	si	NULL	csu	NULL	B_NULL	OBJ	5	idtext0006	si	#####	spk2	13.71	13.8	0.01	_
20091112_RATP_SCD_0244	4	7	éventuellement	NULL	adv	NULL	B_GADV	MOD	12	idtext0006	éventuellement	#####	spk2	13.81	14.27	0.01	_
20091112_RATP_SCD_0244	4	8	quelqu'un	NULL	pro	NULL	B_GN	SUJ	12	idtext0006	quelqu'un	#####	spk2	14.28	14.46	0.01	_
20091112_RATP_SCD_0244	4	9	l()	DISF_T	tronc	NULL	NULL	NOLINK	0	idtext0006	l()	#####	spk2	14.47	14.49	0.01	_
20091112_RATP_SCD_0244	4	10	l'	NULL	clo	NULL	B_GN	OBJ	12	idtext0006	cla	#3##s##	spk2	14.5	14.62	0.01	_
20091112_RATP_SCD_0244	4	11	aurait	NULL	v	NULL	B_GVf	AUX	12	idtext0006	avoir	C#3##s##	spk2	14.63	14.71	0.01	_
20091112_RATP_SCD_0244	4	12	ramené	NULL	vppart	NULL	I_GVf	OBJ	6	idtext0006	ramener	K##m#s##	spk2	14.72	16.17	0.01	_
20091112_RATP_SCD_0244	4	13	euh	DISF_M	pres	NULL	NULL	NOLINK	0	idtext0006	euh	#####	spk2	16.18	16.37	?	//

20091112_RATP_SCD_0244	5	1	c'	NULL	cln	NULL	B_GN	SUJ_IMP	2	idtext0007	ce	###s##	spk1	16.41	16.43	0.01	_
20091112_RATP_SCD_0244	5	2	est	NULL	v	NULL	B_GVf	ROOT	0	idtext0007	être	P#3##s##	spk1	16.44	16.46	0.01	_
20091112_RATP_SCD_0244	5	3	un	NULL	det	NULL	B_GN	DET	4	idtext0007	un	##m#s##i	spk1	16.47	16.49	0.01	_
20091112_RATP_SCD_0244	5	4	porte-monnaie	NULL	nc	NULL	I_GN	ATS	2	idtext0007	porte-monnaie	##m###	spk1	16.5	16.94	0.01	_
20091112_RATP_SCD_0244	5	5	de	NULL	prep	NULL	B_GP	DEP	4	idtext0007	de	#####	spk1	16.95	17.06	0.01	_
20091112_RATP_SCD_0244	5	6	quelle	NULL	det	NULL	I_GP	DET	7	idtext0007	quel	##f#s##	spk1	17.07	17.24	0.01	_
20091112_RATP_SCD_0244	5	7	couleur	NULL	nc	NULL	I_GP	OBJ	5	idtext0007	couleur	##f#s##	spk1	17.25	18.23	?	//

20091112_RATP_SCD_0244	6	1	il	NULL	cln	NULL	B_GN	SUJ	2	idtext0008	cln	#3#m#s##	spk2	18.31	18.48	0.01	_
20091112_RATP_SCD_0244	6	2	est	NULL	v	NULL	B_GVf	ROOT	0	idtext0008	être	P#3##s##	spk2	18.49	18.85	0.01	_
20091112_RATP_SCD_0244	6	3	gris	NULL	adj	NULL	B_GADJ	ATS	2	idtext0008	gris	##m###	spk2	18.86	19.43	0.04	_
20091112_RATP_SCD_0244	6	4	euh	DISF_M	pres	NULL	NULL	NOLINK	0	idtext0009	euh	#####	spk2	19.47	20.47	0.01	_
20091112_RATP_SCD_0244	6	5	d()	DISF_T	tronc	NULL	NULL	NOLINK	0	idtext0009	d()	#####	spk2	20.48	20.5	0.01	_
20091112_RATP_SCD_0244	6	6	la	NULL	det	NULL	B_GN	DET	7	idtext0009	le	##m#s##d	spk2	20.51	20.74	0.01	_
20091112_RATP_SCD_0244	6	7	taille	NULL	nc	NULL	I_GN	ROOT	0	idtext0009	taille	##f#s##	spk2	20.75	20.95	0.01	_
20091112_RATP_SCD_0244	6	8	d'	DISF_R	prep	NULL	NULL	NOLINK	0	idtext0009	d'	#####	spk2	20.96	21.09	0.01	_
20091112_RATP_SCD_0244	6	9	une	DISF_R	det	NULL	NULL	NOLINK	0	idtext0009	un	##f#s##i	spk2	21.1	21.44	0.01	_
20091112_RATP_SCD_0244	6	10	d'	NULL	prep	NULL	B_GP	DEP	7	idtext0009	d'	#####	spk2	21.45	21.47	0.01	_
20091112_RATP_SCD_0244	6	11	une	NULL	det	NULL	I_GP	DET	12	idtext0009	un	##f#s##i	spk2	21.48	21.64	0.01	_
20091112_RATP_SCD_0244	6	12	carte	NULL	nc	NULL	I_GP	OBJ	10	idtext0009	carte	##f#s##	spk2	21.65	21.94	0.01	_
20091112_RATP_SCD_0244	6	13	bleue	NULL	adj	NULL	I_GP	MOD	12	idtext0009	bleu	##f#s##	spk2	21.95	22.11	0.01	_
20091112_RATP_SCD_0244	6	14	à+peu+près	NULL	adv	NULL	B_GADV	MOD	7	idtext0009	à+peu+près	#####	spk2	22.12	22.54	?	_

20091112_RATP_SCD_0244	7	1	hum	DISF_M	pres	NULL	NULL	NOLINK	0	idtext0010	hum	#####	spk1	22.82	23.06	0.01	_
20091112_RATP_SCD_0244	7	2	d'accord	NULL	adv	NULL	B_GADV	NOLINK	0	idtext0010	d'accord	#####	spk1	23.07	24.09	0.01	_
20091112_RATP_SCD_0244	7	3	sur	NULL	prep	NULL	B_GP	ROOT	0	idtext0010	sur	#####	spk1	24.1	24.46	0.01	_
20091112_RATP_SCD_0244	7	4	quelle	NULL	det	NULL	I_GP	DET	5	idtext0010	quel	##f#s##	spk1	24.47	24.72	0.01	_
20091112_RATP_SCD_0244	7	5	ligne	NULL	nc	NULL	I_GP	OBJ	3	idtext0010	ligne	##f#s##	spk1	24.73	25.22	?	//

20091112_RATP_SCD_0244	8	1	j'	NULL	cln	NULL	B_GN	SUJ	3	idtext0011	cln	#1##s##	spk2	25.76	25.84	0.01	_
20091112_RATP_SCD_0244	8	2	avais	NULL	v	NULL	B_GVf	AUX	3	idtext0011	avoir	I#12##s##	spk2	25.85	26.03	0.01	_
20091112_RATP_SCD_0244	8	3	pris	NULL	vppart	NULL	I_GVf	ROOT	0	idtext0011	prendre	K##m###	spk2	26.04	26.22	0.01	_
20091112_RATP_SCD_0244	8	4	euh	DISF_M	pres	NULL	NULL	NOLINK	0	idtext0011	euh	#####	spk2	26.23	26.25	0.01	_
20091112_RATP_SCD_0244	8	5	sur	NULL	prep	NULL	B_GP	P_OBJ	3	idtext0011	sur	#####	spk2	26.26	26.43	0.01	_
20091112_RATP_SCD_0244	8	6	le	NULL	det	NULL	I_GP	DET	7	idtext0011	le	##m#s##d	spk2	26.44	27.08	0.01	_
20091112_RATP_SCD_0244	8	7	TVM	NULL	nc	B_T	I_GP	OBJ	5	idtext0012	TVM	#####	spk2	27.09	27.58	?	//

20091112_RATP_SCD_0244	9	1	hum	DISF_M	pres	NULL	NULL	NOLINK	0	idtext0013	hum	#####	spk1	28.71	29.14	0.01	_
20091112_RATP_SCD_0244	9	2	donc	NULL	coo	NULL	B_NULL	ROOT	0	idtext0013	donc	#####	spk1	29.15	29.61	0.01	_
20091112_RATP_SCD_0244	9	3	il	NULL	cln	NULL	B_GN	SUJ_IMP	5	idtext0013	cln	#3#m#s##	spk1	29.62	29.72	0.01	_
20091112_RATP_SCD_0244	9	4	y	NULL	clo	NULL	B_GN	AFF	5	idtext0013	y	#####	spk1	29.73	29.76	0.01	_
20091112_RATP_SCD_0244	9	5	avait	NULL	v	NULL	B_GVf	DEP_COORD	2	idtext0013	avoir	I#3##s##	spk1	29.77	29.91	0.01	_
20091112_RATP_SCD_0244	9	6	quoi	NULL	pri	NULL	B_NULL	OBJ	5	idtext0013	quoi	#####	spk1	29.92	30.07	0.01	_
20091112_RATP_SCD_0244	9	7	dedans	NULL	adv	NULL	B_GADV	MOD	5	idtext0013	dedans	#####	spk1	30.08	30.65	0.01	_
20091112_RATP_SCD_0244	9	8	de	NULL	prep	NULL	B_GP	DEP	7	idtext0013	de	#####	spk1	30.66	30.77	0.01	_
20091112_RATP_SCD_0244	9	9	l'	NULL	det	NULL	I_GP	DET	10	idtext0013	le	###s##d	spk1	30.78	30.82	0.01	_
20091112_RATP_SCD_0244	9	10	argent	NULL	nc	NULL	I_GP	OBJ	8	idtext0013	argent	##m#s##	spk1	30.83	31.33	?	//

20091112_RATP_SCD_0244	10	1	euh	DISF_M	pres	NULL	NULL	NOLINK	0	idtext0014	euh	#####	spk2	31.72	31.74	0.01	_
20091112_RATP_SCD_0244	10	2	il	NULL	cln	NULL	B_GN	SUJ_IMP	4	idtext0014	cln	#3#m#s##	spk2	31.75	31.8	0.01	_
20091112_RATP_SCD_0244	10	3	y	NULL	clo	NULL	B_GN	AFF	4	idtext0014	y	#####	spk2	31.81	32.27	0.01	_
20091112_RATP_SCD_0244	10	4	avait	NULL	v	NULL	B_GVf	ROOT	0	idtext0014	avoir	I#3##s##	spk2	32.28	32.55	0.01	_
20091112_RATP_SCD_0244	10	5	de	NULL	prep	NULL	B_GP	OBJ	4	idtext0014	de	#####	spk2	32.56	32.58	0.01	_
20091112_RATP_SCD_0244	10	6	l'	NULL	det	NULL	I_GP	DET	7	idtext0014	le	###s##d	spk2	32.59	32.61	0.01	_
20091112_RATP_SCD_0244	10	7	argent	NULL	nc	NULL	I_GP	OBJ	5	idtext0014	argent	##m#s##	spk2	32.62	33.05	0.01	//
20091112_RATP_SCD_0244	10	8	mais	NULL	coo	NULL	B_NULL	COORD	7	idtext0014	mais	#####	spk2	33.06	33.74	0.01	_
20091112_RATP_SCD_0244	10	9	euh	DISF_M	pres	NULL	NULL	NOLINK	0	idtext0014	euh	#####	spk2	33.75	34.08	0.01	_
20091112_RATP_SCD_0244	10	10	enfin	NULL	adv	NULL	B_GADV	NOLINK	0	idtext0014	enfin	#####	spk2	34.09	34.33	0.01	_
20091112_RATP_SCD_0244	10	11	dix	NULL	det	B_P	B_GN	DET	12	idtext0015	dix	#####	spk2	34.34	34.52	0.01	_
20091112_RATP_SCD_0244	10	12	euros	NULL	nc	I_P	I_GN	NOLINK	0	idtext0015	euro	##m#p##	spk2	34.53	34.63	0.17	/
20091112_RATP_SCD_0244	10	13	un	NULL	det	NULL	B_GN	DET	14	idtext0016	un	##m#s##i	spk2	34.8	35.12	0.01	_
20091112_RATP_SCD_0244	10	14	passe+Navigo	NULL	np	B_PRD	I_GN	ROOT	0	idtext0016	passe+Navigo	#####	spk2	35.13	36.23	0.01	_
20091112_RATP_SCD_0244	10	15	ma	NULL	det	NULL	B_GN	DET	16	idtext0016	mon	##f#s##o	spk2	36.24	36.77	0.01	_
20091112_RATP_SCD_0244	10	16	carte	NULL	nc	NULL	I_GN	ROOT	0	idtext0016	carte	##f#s##	spk2	36.78	37.18	0.01	_
20091112_RATP_SCD_0244	10	17	bleue	NULL	adj	NULL	I_GN	MOD	16	idtext0016	bleu	##f#s##	spk2	37.19	37.84	0.01	/
20091112_RATP_SCD_0244	10	18	un	NULL	det	NULL	B_GN	DET	19	idtext0016	un	##m#s##i	spk2	37.85	37.99	0.01	_
20091112_RATP_SCD_0244	10	19	passe	NULL	nc	NULL	I_GN	ROOT	0	idtext0016	passe	###s##	spk2	38.0	38.27	0.01	_
20091112_RATP_SCD_0244	10	20	cinéma	NULL	nc	NULL	I_GN	MOD	19	idtext0016	cinéma	##m#s##	spk2	38.28	38.63	0.01	_
20091112_RATP_SCD_0244	10	21	et	NULL	coo	NULL	B_NULL	COORD	19	idtext0016	et	#####	spk2	38.64	38.74	0.01	_
20091112_RATP_SCD_0244	10	22	ma	NULL	det	NULL	B_GN	DET	23	idtext0016	mon	##f#s##o	spk2	38.75	38.83	0.01	_
20091112_RATP_SCD_0244	10	23	carte	NULL	nc	B_PRD	I_GN	DEP_COORD	21	idtext0016	carte	##f#s##	spk2	38.84	39.04	0.01	_
20091112_RATP_SCD_0244	10	24	Vitale	NULL	np	I_PRD	I_GN	MOD	23	idtext0016	Vitale	##m#s##	spk2	39.05	39.43	?	//

20091112_RATP_SCD_0244	11	1	d'accord	NULL	adv	NULL	B_GADV	NOLINK	0	idtext0017	d'accord	#####	spk1	40.13	40.51	0.01	_
20091112_RATP_SCD_0244	11	2	à	NULL	prep	NULL	B_GP	ROOT	0	idtext0017	à	#####	spk1	40.52	40.57	0.01	_
20091112_RATP_SCD_0244	11	3	quel	NULL	det	NULL	I_GP	DET	4	idtext0017	quel	##m#s##	spk1	40.58	40.74	0.01	_
20091112_RATP_SCD_0244	11	4	nom	NULL	nc	NULL	I_GP	OBJ	2	idtext0017	nom	##m#s##	spk1	40.75	41.07	?	//

20091112_RATP_SCD_0244	12	1	NNAAMMEE	NULL	np	B_HU	B_GN	ROOT	0	idtext0018	ANONYM	NULL	spk2	41.92	42.11	0.33	_
20091112_RATP_SCD_0244	12	2	NNAAMMEE	NULL	np	B_HU	B_GN	ROOT	0	idtext0019	ANONYM	NULL	spk2	42.44	42.63	?	_

20091112_RATP_SCD_0244	13	1	NNAAMMEE	NULL	np	B_HU	B_GN	ROOT	0	idtext0020	ANONYM	NULL	spk1	43.2	43.64	0.04	_
20091112_RATP_SCD_0244	13	2	donc	NULL	coo	NULL	B_NULL	ROOT	0	idtext0021	donc	#####	spk1	43.68	43.76	0.01	_
20091112_RATP_SCD_0244	13	3	c'	NULL	cln	NULL	B_GN	SUJ_IMP	4	idtext0021	ce	###s##	spk1	43.77	43.86	0.01	_
20091112_RATP_SCD_0244	13	4	est	NULL	v	NULL	B_GVf	DEP_COORD	2	idtext0021	être	P#3##s##	spk1	43.87	44.02	0.01	_
20091112_RATP_SCD_0244	13	5	hier	NULL	adv	NULL	B_GADV	ATS	4	idtext0021	hier	#####	spk1	44.03	44.41	0.01	_
20091112_RATP_SCD_0244	13	6	hein	DISF_M	pres	NULL	NULL	NOLINK	0	idtext0021	hein	#####	spk1	44.42	44.54	0.01	_
20091112_RATP_SCD_0244	13	7	sur	NULL	prep	NULL	B_GP	MOD	5	idtext0021	sur	#####	spk1	44.55	44.8	0.01	_
20091112_RATP_SCD_0244	13	8	le	NULL	det	NULL	I_GP	DET	9	idtext0021	le	##m#s##d	spk1	44.81	44.95	0.01	_
20091112_RATP_SCD_0244	13	9	TVM	NULL	nc	B_T	I_GP	OBJ	7	idtext0022	TVM	#####	spk1	44.96	45.71	?	//

20091112_RATP_SCD_0244	14	1	oui	NULL	adv	NULL	B_GADV	NOLINK	0	idtext0023	oui	#####	spk2	45.96	46.21	?	//

20091112_RATP_SCD_0244	15	1	un	NULL	det	NULL	B_GN	DET	2	idtext0024	un	##m#s##i	spk1	46.34	46.44	0.01	_
20091112_RATP_SCD_0244	15	2	porte-monnaie	NULL	nc	NULL	I_GN	ROOT	0	idtext0024	porte-monnaie	##m###	spk1	46.45	47.06	0.01	_
20091112_RATP_SCD_0244	15	3	gris	NULL	adj	NULL	I_GN	MOD	2	idtext0024	gris	##m###	spk1	47.07	47.59	0.01	_
20091112_RATP_SCD_0244	15	4	avec	NULL	prep	NULL	B_GP	ROOT	0	idtext0024	avec	#####	spk1	47.6	48.38	0.01	_
20091112_RATP_SCD_0244	15	5	carte	NULL	nc	NULL	I_GP	OBJ	4	idtext0024	carte	##f#s##	spk1	48.39	48.77	0.01	_
20091112_RATP_SCD_0244	15	6	bleue	NULL	adj	NULL	I_GP	MOD	5	idtext0024	bleu	##f#s##	spk1	48.78	49.28	0.01	_
20091112_RATP_SCD_0244	15	7	passe+Navigo	NULL	np	B_PRD	B_GN	MOD	5	idtext0024	passe+Navigo	#####	spk1	49.29	50.67	0.64	_
20091112_RATP_SCD_0244	15	8	carte	NULL	nc	B_PRD	B_GN	NOLINK	0	idtext0025	carte	##f#s##	spk1	51.31	51.73	0.01	_
20091112_RATP_SCD_0244	15	9	Vitale	NULL	np	I_PRD	I_GN	MOD	8	idtext0025	Vitale	##m#s##	spk1	51.74	52.63	?	//

20091112_RATP_SCD_0244	16	1	au+nom+de	NULL	prep	NULL	B_NULL	NOLINK	0	idtext0026	au+nom+de	#####	spk1	53.14	53.42	?	_

20091112_RATP_SCD_0244	17	1	NNAAMMEE	NULL	np	B_HU	B_GN	ROOT	0	idtext0027	ANONYM	NULL	spk1	53.87	54.06	0.08	_
20091112_RATP_SCD_0244	17	2	NNAAMMEE	NULL	np	B_HU	B_GN	ROOT	0	idtext0028	ANONYM	NULL	spk1	54.14	54.73	?	//

20091112_RATP_SCD_0244	18	1	et	NULL	coo	NULL	B_NULL	ROOT	0	idtext0029	et	#####	spk2	54.78	54.81	0.01	_
20091112_RATP_SCD_0244	18	2	un	NULL	det	NULL	B_GN	DET	3	idtext0029	un	##m#s##i	spk2	54.82	55.01	0.01	_
20091112_RATP_SCD_0244	18	3	passe	NULL	nc	NULL	I_GN	DEP_COORD	1	idtext0029	passe	###s##	spk2	55.02	55.3	0.01	_
20091112_RATP_SCD_0244	18	4	cinéma	NULL	nc	NULL	I_GN	MOD	3	idtext0029	cinéma	##m#s##	spk2	55.31	55.72	0.01	_
20091112_RATP_SCD_0244	18	5	aussi	NULL	adv	NULL	B_GADV	NOLINK	0	idtext0029	aussi	#####	spk2	55.73	56.07	?	//

20091112_RATP_SCD_0244	19	1	et	NULL	coo	NULL	B_NULL	ROOT	0	idtext0030	et	#####	spk1	56.19	56.25	0.01	_
20091112_RATP_SCD_0244	19	2	un	NULL	det	NULL	B_GN	DET	3	idtext0030	un	##m#s##i	spk1	56.26	56.34	0.01	_
20091112_RATP_SCD_0244	19	3	passe	NULL	nc	NULL	I_GN	DEP_COORD	1	idtext0030	passe	###s##	spk1	56.35	56.62	0.01	_
20091112_RATP_SCD_0244	19	4	cinéma	NULL	nc	NULL	I_GN	MOD	3	idtext0030	cinéma	##m#s##	spk1	56.63	57.04	0.01	_
20091112_RATP_SCD_0244	19	5	d'accord	NULL	adv	NULL	B_GADV	NOLINK	0	idtext0030	d'accord	#####	spk1	57.05	57.48	0.11	_
20091112_RATP_SCD_0244	19	6	vous	NULL	cln	NULL	B_GN	SUJ	7	idtext0031	cln	#2##p##	spk1	57.59	57.69	0.01	_
20091112_RATP_SCD_0244	19	7	patientez	NULL	v	NULL	B_GVf	ROOT	0	idtext0031	patienter	P#2##p##	spk1	57.7	58.07	0.01	_
20091112_RATP_SCD_0244	19	8	un	NULL	det	NULL	B_GN	DET	9	idtext0031	un	##m#s##i	spk1	58.08	58.17	0.01	_
20091112_RATP_SCD_0244	19	9	instant	NULL	nc	NULL	I_GN	MOD	7	idtext0031	instant	##m#s##	spk1	58.18	58.52	?	//

20091112_RATP_SCD_0244	20	1	merci	NULL	adv	NULL	B_GADV	NOLINK	0	idtext0032	merci	#####	spk2	58.89	59.37	?	//

20091112_RATP_SCD_0244	21	1	Centre+Bus	NULL	np	B_ORG	B_GN	ROOT	0	idtext0033	Centre+Bus	#####	spk3	119.56	133.72	0.01	_
20091112_RATP_SCD_0244	21	2	d'	NULL	prep	NULL	B_GP	DEP	1	idtext0033	d'	#####	spk3	133.73	134.48	0.01	_
20091112_RATP_SCD_0244	21	3	été	NULL	nc	NULL	I_GP	OBJ	2	idtext0033	été	##m#s##	spk3	134.49	136.82	0.01	_
20091112_RATP_SCD_0244	21	4	bonjour	NULL	adv	NULL	B_GADV	NOLINK	0	idtext0033	bonjour	#####	spk3	136.83	141.7	?	//

20091112_RATP_SCD_0244	22	1	NNAAMMEE	NULL	np	B_HU	B_GN	ROOT	0	idtext0034	ANONYM	NULL	spk1	142.03	142.22	0.31	_
20091112_RATP_SCD_0244	22	2	NNAAMMEE	NULL	np	B_HU	B_GN	ROOT	0	idtext0035	ANONYM	NULL	spk1	142.53	142.74	?	_

