20091112_RATP_SCD_0850	1	1	NNAAMMEE	NULL	np	B_HU	B_GN	ROOT	0	idtext0000	ANONYM	NULL	spk1	3.48	3.73	0.04	_
20091112_RATP_SCD_0850	1	2	bonjour	NULL	adv	NULL	B_GADV	NOLINK	0	idtext0001	bonjour	#####	spk1	3.77	4.61	?	//

20091112_RATP_SCD_0850	2	1	bonjour	NULL	adv	NULL	B_GADV	NOLINK	0	idtext0002	bonjour	#####	spk2	4.65	4.94	0.01	_
20091112_RATP_SCD_0850	2	2	madame	DISF_R	nc	NULL	NULL	NOLINK	0	idtext0002	Monsieur	##f#s##	spk2	4.95	5.84	0.01	_
20091112_RATP_SCD_0850	2	3	euh	DISF_M	pres	NULL	NULL	NOLINK	0	idtext0002	euh	#####	spk2	5.85	5.94	0.01	_
20091112_RATP_SCD_0850	2	4	monsieur	NULL	nc	NULL	B_GN	NOLINK	0	idtext0002	Monsieur	##m#s##	spk2	5.95	6.26	0.31	_
20091112_RATP_SCD_0850	2	5	NNAAMMEE	NULL	np	B_HU	B_GN	ROOT	0	idtext0003	ANONYM	NULL	spk2	6.57	6.76	0.04	_
20091112_RATP_SCD_0850	2	6	là	NULL	adv	NULL	B_GADV	NOLINK	0	idtext0004	là	#####	spk2	6.8	7.03	?	//

20091112_RATP_SCD_0850	3	1	oui	NULL	adv	NULL	B_GADV	NOLINK	0	idtext0005	oui	#####	spk2	7.16	7.43	?	//

20091112_RATP_SCD_0850	4	1	voilà	DISF_M	pres	NULL	NULL	NOLINK	0	idtext0006	voilà	#####	spk2	7.47	7.74	0.01	_
20091112_RATP_SCD_0850	4	2	j'	NULL	cln	NULL	B_GN	SUJ	4	idtext0006	cln	#1##s##	spk2	7.75	7.78	0.01	_
20091112_RATP_SCD_0850	4	3	ai	NULL	v	NULL	B_GVf	AUX	4	idtext0006	avoir	P#1##s##	spk2	7.79	7.89	0.01	_
20091112_RATP_SCD_0850	4	4	reçu	NULL	vppart	NULL	I_GVf	ROOT	0	idtext0006	recevoir	K##m#s##	spk2	7.9	8.24	0.01	_
20091112_RATP_SCD_0850	4	5	ma	NULL	det	NULL	B_NULL	NOLINK	0	idtext0006	mon	##f#s##o	spk2	8.25	8.93	0.04	_
20091112_RATP_SCD_0850	4	6	ma	NULL	det	NULL	B_GN	DET	8	idtext0007	mon	##f#s##o	spk2	8.97	9.08	0.01	_
20091112_RATP_SCD_0850	4	7	nouvelle	NULL	adj	NULL	I_GN	MOD	8	idtext0007	nouveau	##f#s##	spk2	9.09	9.36	0.01	_
20091112_RATP_SCD_0850	4	8	carte	NULL	nc	NULL	I_GN	ROOT	0	idtext0007	carte	##f#s##	spk2	9.37	9.72	0.01	_
20091112_RATP_SCD_0850	4	9	euh	DISF_M	pres	NULL	NULL	NOLINK	0	idtext0007	euh	#####	spk2	9.73	9.81	0.01	_
20091112_RATP_SCD_0850	4	10	de	NULL	prep	NULL	B_NULL	NOLINK	0	idtext0007	de	#####	spk2	9.82	10.44	0.01	_
20091112_RATP_SCD_0850	4	11	enfin	NULL	adv	NULL	B_GADV	NOLINK	0	idtext0007	enfin	#####	spk2	10.45	10.71	?	//

20091112_RATP_SCD_0850	5	1	j'	NULL	cln	NULL	B_GN	SUJ	3	idtext0008	cln	#1##s##	spk2	11.11	11.14	0.01	_
20091112_RATP_SCD_0850	5	2	avais	NULL	v	NULL	B_GVf	AUX	3	idtext0008	avoir	I#12##s##	spk2	11.15	11.27	0.01	_
20091112_RATP_SCD_0850	5	3	demandé	NULL	vppart	NULL	I_GVf	ROOT	0	idtext0008	demander	K##m#s##	spk2	11.28	11.56	0.01	_
20091112_RATP_SCD_0850	5	4	le	NULL	det	NULL	B_GN	DET	5	idtext0008	le	##m#s##d	spk2	11.57	11.6	0.01	_
20091112_RATP_SCD_0850	5	5	renouvellement	NULL	nc	NULL	I_GN	OBJ	3	idtext0008	renouvellement	##m#s##	spk2	11.61	12.14	0.01	_
20091112_RATP_SCD_0850	5	6	de	NULL	prep	NULL	B_GP	DEP	5	idtext0008	de	#####	spk2	12.15	12.26	0.01	_
20091112_RATP_SCD_0850	5	7	carte	NULL	nc	NULL	I_GP	OBJ	6	idtext0008	carte	##f#s##	spk2	12.27	12.56	0.01	_
20091112_RATP_SCD_0850	5	8	euh	DISF_M	pres	NULL	NULL	NOLINK	0	idtext0008	euh	#####	spk2	12.57	12.61	0.01	_
20091112_RATP_SCD_0850	5	9	de	DISF_R	prep	NULL	NULL	NOLINK	0	idtext0008	de	#####	spk2	12.62	13.12	0.01	_
20091112_RATP_SCD_0850	5	10	de	NULL	prep	NULL	B_NULL	DEP	7	idtext0008	de	#####	spk2	13.13	13.22	0.01	_
20091112_RATP_SCD_0850	5	11	retraité	NULL	adj	NULL	B_GADJ	OBJ	10	idtext0008	retraiter	K##m#s##	spk2	13.23	13.74	?	//

20091112_RATP_SCD_0850	6	1	oui	NULL	adv	NULL	B_GADV	NOLINK	0	idtext0009	oui	#####	spk1	14.14	14.44	?	//

20091112_RATP_SCD_0850	7	1	et	NULL	coo	NULL	B_NULL	NOLINK	0	idtext0010	et	#####	spk2	14.59	15.51	0.13	_
20091112_RATP_SCD_0850	7	2	ça	NULL	pro	NULL	B_GN	SUJ_IMP	5	idtext0011	ça	#####	spk2	15.64	15.78	0.01	_
20091112_RATP_SCD_0850	7	3	m'	NULL	clo	NULL	B_GN	A_OBJ	5	idtext0011	cla	#1##s##	spk2	15.79	15.85	0.01	_
20091112_RATP_SCD_0850	7	4	a	NULL	v	NULL	B_GVf	AUX	5	idtext0011	avoir	P#3##s##	spk2	15.86	15.93	0.01	_
20091112_RATP_SCD_0850	7	5	déçu	NULL	vppart	NULL	I_GVf	ROOT	0	idtext0011	décevoir	K##m#s##	spk2	15.94	16.25	0.01	/
20091112_RATP_SCD_0850	7	6	c'	NULL	cln	NULL	B_GN	SUJ_IMP	7	idtext0011	ce	###s##	spk2	16.26	16.38	0.01	_
20091112_RATP_SCD_0850	7	7	est	NULL	v	NULL	B_GVf	ROOT	0	idtext0011	être	P#3##s##	spk2	16.39	16.57	0.04	_
20091112_RATP_SCD_0850	7	8	j'	DISF_R	cln	NULL	NULL	NOLINK	0	idtext0012	cln	#1##s##	spk2	16.61	16.63	0.01	_
20091112_RATP_SCD_0850	7	9	ai	DISF_R	v	NULL	NULL	NOLINK	0	idtext0012	avoir	P#1##s##	spk2	16.64	17.0	0.01	_
20091112_RATP_SCD_0850	7	10	j'	NULL	cln	NULL	B_GN	SUJ	11	idtext0012	cln	#1##s##	spk2	17.01	17.09	0.01	_
20091112_RATP_SCD_0850	7	11	ai	NULL	v	NULL	B_GVf	ROOT	0	idtext0012	avoir	P#1##s##	spk2	17.1	17.17	0.01	_
20091112_RATP_SCD_0850	7	12	mon	NULL	det	NULL	B_GN	DET	14	idtext0012	mon	###s##o	spk2	17.18	17.35	0.01	_
20091112_RATP_SCD_0850	7	13	ancien	NULL	adj	NULL	I_GN	MOD	14	idtext0012	ancien	##m#s##	spk2	17.36	17.67	0.01	_
20091112_RATP_SCD_0850	7	14	matricule	NULL	nc	NULL	I_GN	OBJ	11	idtext0012	matricule	###s##	spk2	17.68	18.27	0.01	_
20091112_RATP_SCD_0850	7	15	au+lieu+de	NULL	prep	NULL	B_GP	MOD	14	idtext0012	au+lieu+de	#####	spk2	18.28	18.85	0.01	_
20091112_RATP_SCD_0850	7	16	mon	NULL	det	NULL	I_GP	DET	17	idtext0012	mon	###s##o	spk2	18.86	18.98	0.01	_
20091112_RATP_SCD_0850	7	17	matricule	NULL	nc	NULL	I_GP	OBJ	15	idtext0012	matricule	###s##	spk2	18.99	19.44	0.01	_
20091112_RATP_SCD_0850	7	18	de	NULL	prep	NULL	B_GP	DEP	17	idtext0012	de	#####	spk2	19.45	19.54	0.01	_
20091112_RATP_SCD_0850	7	19	pension	NULL	nc	NULL	I_GP	OBJ	18	idtext0012	pension	##f#s##	spk2	19.55	20.07	?	//

20091112_RATP_SCD_0850	8	1	oui	NULL	adv	NULL	B_GADV	MOD	2	idtext0013	oui	#####	spk1	20.21	20.51	0.01	_
20091112_RATP_SCD_0850	8	2	alors	NULL	adv	NULL	I_GADV	ROOT	0	idtext0013	alors	#####	spk1	20.52	20.72	0.01	_
20091112_RATP_SCD_0850	8	3	c'	NULL	cln	NULL	B_GN	SUJ_IMP	4	idtext0013	ce	###s##	spk1	20.73	20.76	0.01	_
20091112_RATP_SCD_0850	8	4	est	NULL	v	NULL	B_GVf	ROOT	0	idtext0013	être	P#3##s##	spk1	20.77	20.81	0.01	_
20091112_RATP_SCD_0850	8	5	normal	NULL	adj	NULL	B_GADJ	ATS	4	idtext0013	normal	##m#s##	spk1	20.82	21.22	0.01	_
20091112_RATP_SCD_0850	8	6	hein	DISF_M	pres	NULL	NULL	NOLINK	0	idtext0013	hein	#####	spk1	21.23	21.35	?	//

20091112_RATP_SCD_0850	9	1	ah+bon	DISF_M	pres	NULL	NULL	NOLINK	0	idtext0014	ah+bon	#####	spk2	21.39	21.67	0.01	_
20091112_RATP_SCD_0850	9	2	d'accord	NULL	adv	NULL	B_GADV	NOLINK	0	idtext0014	d'accord	#####	spk2	21.68	21.88	?	_

20091112_RATP_SCD_0850	10	1	c'	NULL	cln	NULL	B_GN	SUJ_IMP	2	idtext0015	ce	###s##	spk1	21.92	21.94	0.01	_
20091112_RATP_SCD_0850	10	2	est	NULL	v	NULL	B_GVf	ROOT	0	idtext0015	être	P#3##s##	spk1	21.95	22.0	0.01	_
20091112_RATP_SCD_0850	10	3	tout+à+fait	NULL	adv	NULL	B_GN	MOD	4	idtext0015	tout+à+fait	#####	spk1	22.01	22.37	0.01	_
20091112_RATP_SCD_0850	10	4	normal	NULL	adj	NULL	I_GN	ATS	2	idtext0015	normal	##m#s##	spk1	22.38	22.71	0.01	_
20091112_RATP_SCD_0850	10	5	monsieur	NULL	nc	NULL	I_GN	NOLINK	0	idtext0015	Monsieur	##m#s##	spk1	22.72	22.95	0.01	//
20091112_RATP_SCD_0850	10	6	hein	DISF_M	pres	NULL	NULL	NOLINK	0	idtext0015	hein	#####	spk1	22.96	23.08	0.04	_
20091112_RATP_SCD_0850	10	7	que	NULL	csu	NULL	B_NULL	ROOT	0	idtext0016	que	#####	spk1	23.12	23.19	0.01	_
20091112_RATP_SCD_0850	10	8	vous	NULL	cln	NULL	B_GN	SUJ	9	idtext0016	cln	#2##p##	spk1	23.2	23.34	0.01	_
20091112_RATP_SCD_0850	10	9	ayez	NULL	v	NULL	B_GVf	OBJ	7	idtext0016	avoir	S#2##p##	spk1	23.35	23.52	0.01	_
20091112_RATP_SCD_0850	10	10	ce	NULL	det	NULL	B_GN	DET	11	idtext0016	ce	##m#s##e	spk1	23.53	23.62	0.01	_
20091112_RATP_SCD_0850	10	11	ce	NULL	pro	NULL	I_GN	OBJ	9	idtext0016	ce	#####	spk1	23.63	23.91	0.04	_
20091112_RATP_SCD_0850	10	12	votre	NULL	det	NULL	B_GN	DET	14	idtext0017	votre	###s##o	spk1	23.95	24.16	0.01	_
20091112_RATP_SCD_0850	10	13	ancien	NULL	adj	NULL	I_GN	MOD	14	idtext0017	ancien	##m#s##	spk1	24.17	24.36	0.01	_
20091112_RATP_SCD_0850	10	14	matricule	NULL	nc	NULL	I_GN	ROOT	0	idtext0017	matricule	###s##	spk1	24.37	24.8	0.01	_
20091112_RATP_SCD_0850	10	15	sur	NULL	prep	NULL	B_NULL	NOLINK	0	idtext0017	sur	#####	spk1	24.81	24.99	0.01	_
20091112_RATP_SCD_0850	10	16	votre	NULL	det	NULL	B_NULL	NOLINK	0	idtext0017	votre	###s##o	spk1	25.0	25.43	0.01	_
20091112_RATP_SCD_0850	10	17	euh	DISF_M	pres	NULL	NULL	NOLINK	0	idtext0017	euh	#####	spk1	25.44	25.5	0.04	_
20091112_RATP_SCD_0850	10	18	numéro	NULL	nc	NULL	B_GN	ROOT	0	idtext0018	numéro	##m#s##	spk1	25.54	25.91	0.01	_
20091112_RATP_SCD_0850	10	19	de	NULL	prep	NULL	B_GP	DEP	18	idtext0018	de	#####	spk1	25.92	26.05	0.01	_
20091112_RATP_SCD_0850	10	20	ça	NULL	pro	NULL	I_GP	OBJ	19	idtext0018	ça	#####	spk1	26.06	26.11	0.01	_
20091112_RATP_SCD_0850	10	21	sur	NULL	prep	NULL	B_GP	P_OBJ	20	idtext0018	sur	#####	spk1	26.12	26.21	0.01	_
20091112_RATP_SCD_0850	10	22	votre	NULL	det	NULL	I_GP	DET	23	idtext0018	votre	###s##o	spk1	26.22	26.36	0.01	_
20091112_RATP_SCD_0850	10	23	carte	NULL	nc	NULL	I_GP	OBJ	21	idtext0018	carte	##f#s##	spk1	26.37	26.65	0.01	_
20091112_RATP_SCD_0850	10	24	hein	DISF_M	pres	NULL	NULL	NOLINK	0	idtext0018	hein	#####	spk1	26.66	26.81	?	//

20091112_RATP_SCD_0850	11	1	bon	DISF_M	pres	NULL	NULL	NOLINK	0	idtext0019	bon	#####	spk2	26.85	26.93	0.01	/
20091112_RATP_SCD_0850	11	2	bon+ben	DISF_M	pres	NULL	NULL	NOLINK	0	idtext0019	bon+ben	#####	spk2	26.94	27.22	0.01	_
20091112_RATP_SCD_0850	11	3	alors	NULL	adv	NULL	B_GADV	MOD	4	idtext0019	alors	#####	spk2	27.23	27.42	0.01	_
20091112_RATP_SCD_0850	11	4	d'accord	NULL	adv	NULL	I_GADV	ROOT	0	idtext0019	d'accord	#####	spk2	27.43	27.83	?	_

20091112_RATP_SCD_0850	12	1	d'accord	NULL	adv	NULL	B_GADV	NOLINK	0	idtext0020	d'accord	#####	spk1	27.9	28.48	?	//

20091112_RATP_SCD_0850	13	1	bon+ben	DISF_M	pres	NULL	NULL	NOLINK	0	idtext0021	bon+ben	#####	spk2	28.52	28.75	0.01	_
20091112_RATP_SCD_0850	13	2	je	NULL	cln	NULL	B_GN	SUJ	4	idtext0021	cln	#1##s##	spk2	28.76	28.88	0.01	_
20091112_RATP_SCD_0850	13	3	vous	NULL	clo	NULL	B_GN	OBJ	4	idtext0021	cln	#2##p##	spk2	28.89	29.06	0.01	_
20091112_RATP_SCD_0850	13	4	remercie	NULL	v	NULL	B_GVf	ROOT	0	idtext0021	remercier	PS#13##s##	spk2	29.07	29.46	?	//

20091112_RATP_SCD_0850	14	1	très	NULL	adv	NULL	B_GN	NOLINK	0	idtext0022	très	#####	spk1	29.53	29.68	0.01	_
20091112_RATP_SCD_0850	14	2	bonne	NULL	adj	NULL	I_GN	MOD	3	idtext0022	bon	##f#s##	spk1	29.69	29.77	0.01	_
20091112_RATP_SCD_0850	14	3	journée	NULL	nc	NULL	I_GN	ROOT	0	idtext0022	journée	##f#s##	spk1	29.78	30.09	0.01	_
20091112_RATP_SCD_0850	14	4	monsieur	NULL	nc	NULL	B_GN	NOLINK	0	idtext0022	Monsieur	##m#s##	spk1	30.1	30.4	?	//

20091112_RATP_SCD_0850	15	1	au+revoir	NULL	adv	NULL	B_GADV	NOLINK	0	idtext0023	au+revoir	#####	spk2	30.44	30.79	0.01	_
20091112_RATP_SCD_0850	15	2	madame	NULL	nc	NULL	B_GN	NOLINK	0	idtext0023	Monsieur	##f#s##	spk2	30.8	31.28	?	//

20091112_RATP_SCD_0850	16	1	au+revoir	NULL	adv	NULL	B_GADV	NOLINK	0	idtext0024	au+revoir	#####	spk1	30.44	31.28	?	//

