20091112_RATP_SCD_0598	1	1	je	NULL	cln	NULL	B_GN	SUJ	2	idtext0000	cln	#1##s##	spk2	2.17	2.22	0.01	_
20091112_RATP_SCD_0598	1	2	décroche	NULL	v	NULL	B_GVfn	ROOT	0	idtext0000	décrocher	PS#13##s##	spk2	2.23	2.79	0.01	_
20091112_RATP_SCD_0598	1	3	pas	NULL	advneg	NULL	I_GVfn	MOD	2	idtext0000	pas	#####	spk2	2.8	2.85	0.01	_
20091112_RATP_SCD_0598	1	4	moi	NULL	pro	NULL	B_GN	SUJ	2	idtext0000	moi	#####	spk2	2.86	2.99	?	_

20091112_RATP_SCD_0598	2	1	un	NULL	det	NULL	B_GN	DET	2	idtext0001	un	##m#s##i	spk1	4.35	4.53	0.01	_
20091112_RATP_SCD_0598	2	2	instant	NULL	nc	NULL	I_GN	ROOT	0	idtext0001	instant	##m#s##	spk1	4.54	4.99	0.31	_
20091112_RATP_SCD_0598	2	3	NNAAMMEE	NULL	np	B_HU	B_GN	ROOT	0	idtext0002	ANONYM	NULL	spk1	5.3	5.49	0.04	_
20091112_RATP_SCD_0598	2	4	va	NULL	v	NULL	B_GVf	ROOT	0	idtext0003	aller	P#3##s##	spk1	5.53	5.62	0.01	_
20091112_RATP_SCD_0598	2	5	vous	NULL	clo	NULL	B_GN	A_OBJ	6	idtext0003	cln	#2##p##	spk1	5.63	5.79	0.01	_
20091112_RATP_SCD_0598	2	6	répondre	NULL	vinf	NULL	B_GVi	OBJ	4	idtext0003	répondre	W#####	spk1	5.8	6.35	?	//

20091112_RATP_SCD_0598	3	1	NNAAMMEE	NULL	np	B_HU	B_GN	ROOT	0	idtext0004	ANONYM	NULL	spk2	6.68	6.87	0.04	_
20091112_RATP_SCD_0598	3	2	bonjour	NULL	adv	NULL	B_GADV	NOLINK	0	idtext0005	bonjour	#####	spk2	6.91	7.54	?	//

20091112_RATP_SCD_0598	4	1	oui	NULL	adv	NULL	B_GADV	MOD	2	idtext0006	oui	#####	spk3	7.71	7.86	0.01	_
20091112_RATP_SCD_0598	4	2	bonjour	NULL	adv	NULL	I_GADV	ROOT	0	idtext0006	bonjour	#####	spk3	7.87	8.11	0.01	_
20091112_RATP_SCD_0598	4	3	excusez	NULL	v	NULL	B_GVf	ROOT	0	idtext0006	excuser	P#2##p##	spk3	8.12	8.44	0.01	_
20091112_RATP_SCD_0598	4	4	-moi	NULL	clo	NULL	B_GN	OBJ	3	idtext0006	cla	#1##s##	spk3	8.45	8.61	?	_

20091112_RATP_SCD_0598	5	1	juste	NULL	adv	NULL	B_GADV	NOLINK	0	idtext0007	juste	###s##	spk3	8.65	9.04	0.01	_
20091112_RATP_SCD_0598	5	2	une	NULL	det	NULL	B_NULL	NOLINK	0	idtext0007	un	##f#s##i	spk3	9.05	9.78	0.04	_
20091112_RATP_SCD_0598	5	3	juste	NULL	adv	NULL	B_GADV	NOLINK	0	idtext0008	juste	###s##	spk3	9.82	10.0	0.01	_
20091112_RATP_SCD_0598	5	4	une	NULL	det	NULL	B_GN	DET	6	idtext0008	un	##f#s##i	spk3	10.01	10.2	0.01	_
20091112_RATP_SCD_0598	5	5	petite	NULL	adj	NULL	I_GN	MOD	6	idtext0008	petit	##f#s##	spk3	10.21	10.37	0.01	_
20091112_RATP_SCD_0598	5	6	question	NULL	nc	NULL	I_GN	ROOT	0	idtext0008	question	##f#s##	spk3	10.38	10.74	0.04	_
20091112_RATP_SCD_0598	5	7	parce+que	NULL	csu	NULL	B_NULL	ROOT	0	idtext0009	parce+que	#####	spk3	10.78	10.92	0.01	_
20091112_RATP_SCD_0598	5	8	j'	NULL	cln	NULL	B_GN	SUJ	10	idtext0009	cln	#1##s##	spk3	10.93	10.95	0.01	_
20091112_RATP_SCD_0598	5	9	ai	NULL	v	NULL	B_GVf	AUX	10	idtext0009	avoir	P#1##s##	spk3	10.96	10.98	0.01	_
20091112_RATP_SCD_0598	5	10	appelé	NULL	vppart	NULL	I_GVf	OBJ	7	idtext0009	appeler	K##m#s##	spk3	10.99	11.22	0.01	_
20091112_RATP_SCD_0598	5	11	tout	NULL	adv	NULL	B_GADV	MOD	10	idtext0009	tout	##m#s##	spk3	11.23	11.38	0.01	_
20091112_RATP_SCD_0598	5	12	à	NULL	prep	NULL	B_GP	MOD	10	idtext0009	à	#####	spk3	11.39	11.45	0.01	_
20091112_RATP_SCD_0598	5	13	l'	NULL	det	NULL	I_GP	DET	14	idtext0009	le	###s##d	spk3	11.46	11.48	0.01	_
20091112_RATP_SCD_0598	5	14	heure	NULL	nc	NULL	I_GP	OBJ	12	idtext0009	heure	##f#s##	spk3	11.49	11.59	0.01	_
20091112_RATP_SCD_0598	5	15	j'	NULL	cln	NULL	B_GN	SUJ	17	idtext0009	cln	#1##s##	spk3	11.6	11.69	0.01	_
20091112_RATP_SCD_0598	5	16	ai	NULL	v	NULL	B_GVf	AUX	17	idtext0009	avoir	P#1##s##	spk3	11.7	11.73	0.01	_
20091112_RATP_SCD_0598	5	17	oublié	NULL	vppart	NULL	I_GVf	ROOT	0	idtext0009	oublier	K##m#s##	spk3	11.74	12.16	0.01	_
20091112_RATP_SCD_0598	5	18	de	NULL	prep	NULL	B_GP	OBJ	17	idtext0009	de	#####	spk3	12.17	12.25	0.01	_
20091112_RATP_SCD_0598	5	19	demander	NULL	vinf	NULL	I_GP	OBJ	18	idtext0009	demander	W#####	spk3	12.26	12.65	0.01	_
20091112_RATP_SCD_0598	5	20	l'	NULL	det	NULL	B_GN	DET	21	idtext0009	le	###s##d	spk3	12.66	12.7	0.01	_
20091112_RATP_SCD_0598	5	21	identifiant	NULL	nc	NULL	I_GN	OBJ	19	idtext0009	identifiant	#####	spk3	12.71	13.25	0.01	_
20091112_RATP_SCD_0598	5	22	de	NULL	prep	NULL	B_GP	DEP	21	idtext0009	de	#####	spk3	13.26	13.28	0.01	_
20091112_RATP_SCD_0598	5	23	la	NULL	det	NULL	I_GP	DET	24	idtext0009	le	##m#s##d	spk3	13.29	13.39	0.01	_
20091112_RATP_SCD_0598	5	24	personne	NULL	nc	NULL	I_GP	OBJ	22	idtext0009	personne	##f#s##	spk3	13.4	13.79	0.04	_
20091112_RATP_SCD_0598	5	25	et	NULL	coo	NULL	B_NULL	ROOT	0	idtext0010	et	#####	spk3	13.83	13.92	0.01	_
20091112_RATP_SCD_0598	5	26	c'	NULL	cln	NULL	B_GN	SUJ_IMP	27	idtext0010	ce	###s##	spk3	13.93	13.95	0.01	_
20091112_RATP_SCD_0598	5	27	était	NULL	v	NULL	B_GVf	DEP_COORD	25	idtext0010	être	I#3##s##	spk3	13.96	14.13	0.30	_
20091112_RATP_SCD_0598	5	28	NNAAMMEE	NULL	np	B_HU	B_GN	ROOT	0	idtext0011	ANONYM	NULL	spk3	14.43	14.62	0.04	_
20091112_RATP_SCD_0598	5	29	c'	NULL	cln	NULL	B_GN	SUJ_IMP	30	idtext0012	ce	###s##	spk3	14.66	14.68	0.01	_
20091112_RATP_SCD_0598	5	30	est	NULL	v	NULL	B_GVf	ROOT	0	idtext0012	être	P#3##s##	spk3	14.69	14.75	0.01	_
20091112_RATP_SCD_0598	5	31	ce+qui	NULL	prorel	NULL	B_NULL	SUJ	33	idtext0012	ce+qui	#####	spk3	14.76	14.95	0.01	_
20091112_RATP_SCD_0598	5	32	s'	NULL	clr	NULL	B_GVf	AFF	33	idtext0012	se	#3##p##	spk3	14.96	15.0	0.01	_
20091112_RATP_SCD_0598	5	33	annonce	NULL	v	NULL	I_GVf	ATS	30	idtext0012	annoncer	PS#13##s##	spk3	15.01	15.3	0.01	_
20091112_RATP_SCD_0598	5	34	au	NULL	prep	NULL	B_GP	P_OBJ_LOC	33	idtext0012	au	#####	spk3	15.31	15.37	0.01	_
20091112_RATP_SCD_0598	5	35	départ	NULL	nc	NULL	I_GP	OBJ	34	idtext0012	départ	##m#s##	spk3	15.38	15.8	0.04	_
20091112_RATP_SCD_0598	5	36	c'	NULL	cln	NULL	B_GN	SUJ_IMP	37	idtext0013	ce	###s##	spk3	15.84	15.86	0.01	_
20091112_RATP_SCD_0598	5	37	est	NULL	v	NULL	B_GVf	ROOT	0	idtext0013	être	P#3##s##	spk3	15.87	15.95	0.01	_
20091112_RATP_SCD_0598	5	38	ça	NULL	pro	NULL	B_GN	ATS	37	idtext0013	ça	#####	spk3	15.96	16.15	?	_

20091112_RATP_SCD_0598	6	1	NNAAMMEE	NULL	np	B_HU	B_GN	ROOT	0	idtext0014	ANONYM	NULL	spk2	16.45	16.64	0.04	_
20091112_RATP_SCD_0598	6	2	oui	NULL	adv	NULL	B_GADV	NOLINK	0	idtext0015	oui	#####	spk2	16.68	16.92	0.01	_
20091112_RATP_SCD_0598	6	3	mais	NULL	coo	NULL	B_NULL	ROOT	0	idtext0015	mais	#####	spk2	16.93	16.99	0.01	_
20091112_RATP_SCD_0598	6	4	on	NULL	cln	NULL	B_GN	SUJ_IMP	5	idtext0015	cln	#3##s##	spk2	17.0	17.06	0.01	_
20091112_RATP_SCD_0598	6	5	donne	NULL	v	NULL	B_GVfn	DEP_COORD	3	idtext0015	donner	PS#13##s##	spk2	17.07	17.27	0.01	_
20091112_RATP_SCD_0598	6	6	plus	NULL	advneg	NULL	I_GVfn	MOD	5	idtext0015	plus	#####	spk2	17.28	17.36	0.01	_
20091112_RATP_SCD_0598	6	7	l'	NULL	det	NULL	B_GN	DET	8	idtext0015	le	###s##d	spk2	17.37	17.39	0.01	_
20091112_RATP_SCD_0598	6	8	identifiant	NULL	nc	NULL	I_GN	OBJ	5	idtext0015	identifiant	#####	spk2	17.4	17.88	0.04	_
20091112_RATP_SCD_0598	6	9	on	NULL	cln	NULL	B_GN	SUJ_IMP	10	idtext0016	cln	#3##s##	spk2	17.92	17.98	0.01	_
20091112_RATP_SCD_0598	6	10	donne	NULL	v	NULL	B_GVfn	ROOT	0	idtext0016	donner	PS#13##s##	spk2	17.99	18.2	0.01	_
20091112_RATP_SCD_0598	6	11	plus	NULL	advneg	NULL	I_GVfn	MOD	10	idtext0016	plus	#####	spk2	18.21	18.3	0.01	_
20091112_RATP_SCD_0598	6	12	notre	NULL	det	NULL	B_GN	DET	13	idtext0016	notre	###s##o	spk2	18.31	18.53	0.01	_
20091112_RATP_SCD_0598	6	13	identifiant	NULL	nc	NULL	I_GN	OBJ	10	idtext0016	identifiant	#####	spk2	18.54	19.1	0.01	_
20091112_RATP_SCD_0598	6	14	non	NULL	adv	NULL	B_GADV	NOLINK	0	idtext0016	non	#####	spk2	19.11	19.33	?	_

20091112_RATP_SCD_0598	7	1	ah	DISF_M	pres	NULL	NULL	NOLINK	0	idtext0017	ah	#####	spk3	19.83	19.93	0.01	_
20091112_RATP_SCD_0598	7	2	vous	NULL	cln	NULL	B_GN	SUJ	4	idtext0017	cln	#2##p##	spk3	19.94	20.06	0.01	_
20091112_RATP_SCD_0598	7	3	ne	NULL	clneg	NULL	B_GVfn	MOD	4	idtext0017	ne	#####	spk3	20.07	20.12	0.01	_
20091112_RATP_SCD_0598	7	4	donnez	NULL	v	NULL	I_GVfn	ROOT	0	idtext0017	donner	P#2##p##	spk3	20.13	20.3	0.01	_
20091112_RATP_SCD_0598	7	5	plus	NULL	advneg	NULL	I_GVfn	MOD	4	idtext0017	plus	#####	spk3	20.31	20.42	0.01	_
20091112_RATP_SCD_0598	7	6	d'	NULL	prep	NULL	B_GP	OBJ	4	idtext0017	d'	#####	spk3	20.43	20.45	0.01	_
20091112_RATP_SCD_0598	7	7	identifiant	NULL	nc	NULL	I_GP	OBJ	6	idtext0017	identifiant	#####	spk3	20.46	20.83	0.09	_
20091112_RATP_SCD_0598	7	8	mais	NULL	coo	NULL	B_NULL	ROOT	0	idtext0019	mais	#####	spk3	20.92	21.04	0.01	_
20091112_RATP_SCD_0598	7	9	parce+que	NULL	csu	NULL	B_NULL	DEP_COORD	8	idtext0019	parce+que	#####	spk3	21.05	21.29	0.01	_
20091112_RATP_SCD_0598	7	10	j'	NULL	cln	NULL	B_GN	SUJ	12	idtext0019	cln	#1##s##	spk3	21.3	21.42	0.01	_
20091112_RATP_SCD_0598	7	11	ai	NULL	v	NULL	B_GVf	AUX	12	idtext0019	avoir	P#1##s##	spk3	21.43	21.5	0.01	_
20091112_RATP_SCD_0598	7	12	eu	NULL	vppart	NULL	I_GVf	OBJ	9	idtext0019	avoir	K##m#s##	spk3	21.51	21.66	?	//

20091112_RATP_SCD_0598	8	1	ouais	NULL	adv	NULL	B_GADV	NOLINK	0	idtext0018	ouais	#####	spk2	19.99	20.83	0.09	_
20091112_RATP_SCD_0598	8	2	non	NULL	adv	NULL	B_GADV	NOLINK	0	idtext0020	non	#####	spk2	20.92	21.66	?	_

20091112_RATP_SCD_0598	9	1	NNAAMMEE	NULL	np	B_HU	B_GN	ROOT	0	idtext0021	ANONYM	NULL	spk3	21.71	22.14	0.08	//
20091112_RATP_SCD_0598	9	2	euh	DISF_M	pres	NULL	NULL	NOLINK	0	idtext0022	euh	#####	spk3	22.22	22.24	0.01	_
20091112_RATP_SCD_0598	9	3	c'	NULL	cln	NULL	B_GN	SUJ_IMP	4	idtext0022	ce	###s##	spk3	22.25	22.27	0.01	_
20091112_RATP_SCD_0598	9	4	était	NULL	v	NULL	B_GVf	ROOT	0	idtext0022	être	I#3##s##	spk3	22.28	22.46	0.01	_
20091112_RATP_SCD_0598	9	5	ça	NULL	pro	NULL	B_GN	ATS	4	idtext0022	ça	#####	spk3	22.47	23.33	0.01	_
20091112_RATP_SCD_0598	9	6	euh	DISF_M	pres	NULL	NULL	NOLINK	0	idtext0022	euh	#####	spk3	23.34	23.39	0.04	/
20091112_RATP_SCD_0598	9	7	l'	NULL	det	NULL	B_GN	DET	8	idtext0023	le	###s##d	spk3	23.43	23.45	0.01	_
20091112_RATP_SCD_0598	9	8	identifiant	NULL	nc	NULL	I_GN	SUJ	10	idtext0023	identifiant	#####	spk3	23.46	23.89	0.01	_
20091112_RATP_SCD_0598	9	9	c'	NULL	cln	NULL	B_GN	SUJ_IMP	10	idtext0023	ce	###s##	spk3	23.9	23.92	0.01	_
20091112_RATP_SCD_0598	9	10	était	NULL	v	NULL	B_GVf	ROOT	0	idtext0023	être	I#3##s##	spk3	23.93	24.11	0.30	_
20091112_RATP_SCD_0598	9	11	NNAAMMEE	NULL	np	B_HU	B_GN	ROOT	0	idtext0024	ANONYM	NULL	spk3	24.41	24.6	?	//

20091112_RATP_SCD_0598	10	1	ben	DISF_M	pres	NULL	NULL	NOLINK	0	idtext0025	ben	#####	spk2	24.65	24.7	0.01	_
20091112_RATP_SCD_0598	10	2	c'	NULL	cln	NULL	B_GN	SUJ_IMP	3	idtext0025	ce	###s##	spk2	24.71	24.73	0.01	_
20091112_RATP_SCD_0598	10	3	est	NULL	v	NULL	B_GVf	ROOT	0	idtext0025	être	P#3##s##	spk2	24.74	24.76	0.01	_
20091112_RATP_SCD_0598	10	4	la	NULL	det	NULL	B_GN	DET	5	idtext0025	le	##m#s##d	spk2	24.77	24.86	0.01	_
20091112_RATP_SCD_0598	10	5	personne	NULL	nc	NULL	I_GN	ATS	3	idtext0025	personne	##f#s##	spk2	24.87	25.12	0.01	_
20091112_RATP_SCD_0598	10	6	que	NULL	prorel	NULL	B_NULL	OBJ	9	idtext0025	que	#####	spk2	25.13	25.15	0.01	_
20091112_RATP_SCD_0598	10	7	vous	NULL	cln	NULL	B_GN	SUJ	9	idtext0025	cln	#2##p##	spk2	25.16	25.21	0.01	_
20091112_RATP_SCD_0598	10	8	avez	NULL	v	NULL	B_GVf	AUX	9	idtext0025	avoir	P#2##p##	spk2	25.22	25.45	0.01	_
20091112_RATP_SCD_0598	10	9	eu	NULL	vppart	NULL	I_GVf	MOD_REL	5	idtext0025	avoir	K##m#s##	spk2	25.46	25.48	0.01	_
20091112_RATP_SCD_0598	10	10	au	NULL	prep	NULL	B_GP	MOD	9	idtext0025	au	#####	spk2	25.49	25.53	0.01	_
20091112_RATP_SCD_0598	10	11	téléphone	NULL	nc	NULL	I_GP	OBJ	10	idtext0025	téléphone	##m#s##	spk2	25.54	25.92	0.01	_
20091112_RATP_SCD_0598	10	12	oui	NULL	adv	NULL	B_GADV	NOLINK	0	idtext0025	oui	#####	spk2	25.93	26.12	?	//

20091112_RATP_SCD_0598	11	1	o()	DISF_T	tronc	NULL	NULL	NOLINK	0	idtext0026	o()	#####	spk3	26.28	26.35	0.01	_
20091112_RATP_SCD_0598	11	2	oui	NULL	adv	NULL	B_GADV	MOD	3	idtext0026	oui	#####	spk3	26.36	26.55	0.01	_
20091112_RATP_SCD_0598	11	3	enfin	NULL	adv	NULL	I_GADV	ROOT	0	idtext0026	enfin	#####	spk3	26.56	26.88	0.01	_
20091112_RATP_SCD_0598	11	4	parce+que	NULL	csu	NULL	B_NULL	ROOT	0	idtext0026	parce+que	#####	spk3	26.89	27.14	0.01	_
20091112_RATP_SCD_0598	11	5	j'	NULL	cln	NULL	B_GN	SUJ	6	idtext0026	cln	#1##s##	spk3	27.15	27.32	0.01	_
20091112_RATP_SCD_0598	11	6	ai	NULL	v	NULL	B_GVf	OBJ	4	idtext0026	avoir	P#1##s##	spk3	27.33	27.36	0.01	_
20091112_RATP_SCD_0598	11	7	oubli	NULL	nc	NULL	B_GN	OBJ	6	idtext0026	oubli	##m#s##	spk3	27.37	27.69	0.06	_
20091112_RATP_SCD_0598	11	8	justement	NULL	adv	NULL	B_GADV	NOLINK	0	idtext0027	justement	#####	spk3	27.75	28.08	0.01	_
20091112_RATP_SCD_0598	11	9	j'	NULL	cln	NULL	B_GN	SUJ	11	idtext0027	cln	#1##s##	spk3	28.09	28.12	0.01	_
20091112_RATP_SCD_0598	11	10	ai	NULL	v	NULL	B_GVf	AUX	11	idtext0027	avoir	P#1##s##	spk3	28.13	28.15	0.01	_
20091112_RATP_SCD_0598	11	11	oublié	NULL	vppart	NULL	I_GVf	ROOT	0	idtext0027	oublier	K##m#s##	spk3	28.16	28.35	0.01	_
20091112_RATP_SCD_0598	11	12	de	NULL	prep	NULL	B_GP	OBJ	11	idtext0027	de	#####	spk3	28.36	28.42	0.01	_
20091112_RATP_SCD_0598	11	13	lui	NULL	clo	NULL	I_GP	A_OBJ	14	idtext0027	lui	#####	spk3	28.43	28.56	0.01	_
20091112_RATP_SCD_0598	11	14	poser	NULL	vinf	NULL	B_GVi	OBJ	12	idtext0027	poser	W#####	spk3	28.57	28.82	0.01	_
20091112_RATP_SCD_0598	11	15	la	NULL	det	NULL	B_GN	DET	16	idtext0027	le	##m#s##d	spk3	28.83	28.91	0.01	_
20091112_RATP_SCD_0598	11	16	question	NULL	nc	NULL	I_GN	OBJ	14	idtext0027	question	##f#s##	spk3	28.92	29.27	0.04	_
20091112_RATP_SCD_0598	11	17	c'	NULL	cln	NULL	B_GN	SUJ_IMP	18	idtext0028	ce	###s##	spk3	29.31	29.33	0.01	_
20091112_RATP_SCD_0598	11	18	est	NULL	v	NULL	B_GVf	ROOT	0	idtext0028	être	P#3##s##	spk3	29.34	29.36	0.01	_
20091112_RATP_SCD_0598	11	19	quoi	NULL	pri	NULL	B_NULL	ATS	18	idtext0028	quoi	#####	spk3	29.37	29.53	0.01	_
20091112_RATP_SCD_0598	11	20	votre	NULL	det	NULL	B_GN	DET	21	idtext0028	votre	###s##o	spk3	29.54	29.77	0.01	_
20091112_RATP_SCD_0598	11	21	identifiant	NULL	nc	NULL	I_GN	SUJ	18	idtext0028	identifiant	#####	spk3	29.78	30.35	?	_

20091112_RATP_SCD_0598	12	1	mais	NULL	coo	NULL	B_NULL	ROOT	0	idtext0029	mais	#####	spk2	30.45	30.56	0.01	_
20091112_RATP_SCD_0598	12	2	on	NULL	cln	NULL	B_GN	SUJ_IMP	5	idtext0029	cln	#3##s##	spk2	30.57	30.63	0.01	_
20091112_RATP_SCD_0598	12	3	n'	NULL	clneg	NULL	B_NULL	MOD	5	idtext0029	n'	#####	spk2	30.64	30.67	0.01	_
20091112_RATP_SCD_0598	12	4	en	NULL	clo	NULL	B_GN	OBJ	5	idtext0029	en	#####	spk2	30.68	30.72	0.01	_
20091112_RATP_SCD_0598	12	5	donne	NULL	v	NULL	B_GVfn	DEP_COORD	1	idtext0029	donner	PS#13##s##	spk2	30.73	30.89	0.01	_
20091112_RATP_SCD_0598	12	6	pas	NULL	advneg	NULL	I_GVfn	MOD	5	idtext0029	pas	#####	spk2	30.9	31.16	?	_

20091112_RATP_SCD_0598	13	1	donc	NULL	coo	NULL	B_NULL	NOLINK	0	idtext0030	donc	#####	spk3	30.5	31.16	?	//

20091112_RATP_SCD_0598	14	1	mais	NULL	coo	NULL	B_NULL	ROOT	0	idtext0031	mais	#####	spk3	31.29	31.48	0.01	_
20091112_RATP_SCD_0598	14	2	au	NULL	prep	NULL	B_GP	DEP_COORD	1	idtext0031	au	#####	spk3	31.49	31.62	0.01	_
20091112_RATP_SCD_0598	14	3	départ	NULL	nc	NULL	I_GP	OBJ	2	idtext0031	départ	##m#s##	spk3	31.63	32.39	?	//

20091112_RATP_SCD_0598	15	1	ben	DISF_M	pres	NULL	NULL	NOLINK	0	idtext0032	ben	#####	spk2	32.43	32.57	0.01	_
20091112_RATP_SCD_0598	15	2	nous	NULL	pro	NULL	B_GN	NOLINK	0	idtext0032	nous	#####	spk2	32.58	32.66	0.01	_
20091112_RATP_SCD_0598	15	3	enfin	NULL	adv	NULL	B_GADV	NOLINK	0	idtext0032	enfin	#####	spk2	32.67	32.96	0.04	_
20091112_RATP_SCD_0598	15	4	c'	NULL	cln	NULL	B_GN	SUJ_IMP	5	idtext0033	ce	###s##	spk2	33.0	33.02	0.01	_
20091112_RATP_SCD_0598	15	5	est	NULL	v	NULL	B_GVf	ROOT	0	idtext0033	être	P#3##s##	spk2	33.03	33.05	0.01	_
20091112_RATP_SCD_0598	15	6	la	NULL	det	NULL	B_GN	DET	7	idtext0033	le	##m#s##d	spk2	33.06	33.11	0.01	_
20091112_RATP_SCD_0598	15	7	personne	NULL	nc	NULL	I_GN	ATS	5	idtext0033	personne	##f#s##	spk2	33.12	33.29	0.01	_
20091112_RATP_SCD_0598	15	8	que	NULL	prorel	NULL	B_NULL	OBJ	11	idtext0033	que	#####	spk2	33.3	33.32	0.01	_
20091112_RATP_SCD_0598	15	9	vous	NULL	cln	NULL	B_GN	SUJ	11	idtext0033	cln	#2##p##	spk2	33.33	33.38	0.01	_
20091112_RATP_SCD_0598	15	10	avez	NULL	v	NULL	B_GVf	AUX	11	idtext0033	avoir	P#2##p##	spk2	33.39	33.57	0.01	_
20091112_RATP_SCD_0598	15	11	eu	NULL	vppart	NULL	I_GVf	MOD_REL	7	idtext0033	avoir	K##m#s##	spk2	33.58	33.6	0.01	_
20091112_RATP_SCD_0598	15	12	au	NULL	prep	NULL	B_GP	MOD	11	idtext0033	au	#####	spk2	33.61	33.63	0.01	_
20091112_RATP_SCD_0598	15	13	téléphone	NULL	nc	NULL	I_GP	OBJ	12	idtext0033	téléphone	##m#s##	spk2	33.64	34.05	0.32	_
20091112_RATP_SCD_0598	15	14	NNAAMMEE	NULL	np	B_HU	B_GN	ROOT	0	idtext0034	ANONYM	NULL	spk2	34.37	34.56	?	_

20091112_RATP_SCD_0598	16	1	euh	DISF_M	pres	NULL	NULL	NOLINK	0	idtext0035	euh	#####	spk3	34.73	34.84	0.01	_
20091112_RATP_SCD_0598	16	2	d'accord	NULL	adv	NULL	B_GADV	MOD	3	idtext0035	d'accord	#####	spk3	34.85	35.3	0.01	_
20091112_RATP_SCD_0598	16	3	OK	NULL	adv	NULL	I_GADV	ROOT	0	idtext0035	ok	#####	spk3	35.31	35.46	?	//

20091112_RATP_SCD_0598	17	1	hm+hm	DISF_M	pres	NULL	NULL	NOLINK	0	idtext0036	hm+hm	#####	spk2	34.71	35.46	?	//

20091112_RATP_SCD_0598	18	1	donc	NULL	coo	NULL	B_NULL	ROOT	0	idtext0037	donc	#####	spk3	35.96	35.96	0.00	_
20091112_RATP_SCD_0598	18	2	c'	NULL	cln	NULL	B_GN	SUJ_IMP	3	idtext0037	ce	###s##	spk3	35.96	35.96	0.00	_
20091112_RATP_SCD_0598	18	3	est	NULL	v	NULL	B_GVf	DEP_COORD	1	idtext0037	être	P#3##s##	spk3	35.96	35.96	0.00	_
20091112_RATP_SCD_0598	18	4	ça	NULL	pro	NULL	B_GN	ATS	3	idtext0037	ça	#####	spk3	35.96	35.96	0.00	_
20091112_RATP_SCD_0598	18	5	alors	NULL	adv	NULL	B_GADV	NOLINK	0	idtext0037	alors	#####	spk3	35.96	36.06	?	/

20091112_RATP_SCD_0598	19	1	non	DISF_R	adv	NULL	NULL	NOLINK	0	idtext0038	non	#####	spk2	36.1	36.2	0.01	_
20091112_RATP_SCD_0598	19	2	ben	DISF_M	pres	NULL	NULL	NOLINK	0	idtext0038	ben	#####	spk2	36.21	36.3	0.01	_
20091112_RATP_SCD_0598	19	3	non	NULL	adv	NULL	B_GADV	NOLINK	0	idtext0038	non	#####	spk2	36.31	36.39	0.01	_
20091112_RATP_SCD_0598	19	4	parce+que	NULL	csu	NULL	B_NULL	ROOT	0	idtext0038	parce+que	#####	spk2	36.4	36.56	0.01	_
20091112_RATP_SCD_0598	19	5	là	NULL	adv	NULL	B_GADV	OBJ	4	idtext0038	là	#####	spk2	36.57	36.66	0.01	/
20091112_RATP_SCD_0598	19	6	s'	NULL	csu	NULL	B_NULL	OBJ	5	idtext0038	se	#3##p##	spk2	36.67	36.69	0.01	_
20091112_RATP_SCD_0598	19	7	il	NULL	cln	NULL	B_GN	SUJ_IMP	9	idtext0038	cln	#3#m#s##	spk2	36.7	36.75	0.01	_
20091112_RATP_SCD_0598	19	8	y	NULL	clo	NULL	B_GN	AFF	9	idtext0038	y	#####	spk2	36.76	36.78	0.01	_
20091112_RATP_SCD_0598	19	9	avait	NULL	v	NULL	B_GVf	OBJ	6	idtext0038	avoir	I#3##s##	spk2	36.79	36.91	0.01	_
20091112_RATP_SCD_0598	19	10	une	NULL	det	NULL	B_GN	DET	11	idtext0038	un	##f#s##i	spk2	36.92	36.99	0.01	_
20091112_RATP_SCD_0598	19	11	bande-annonce	NULL	nc	NULL	I_GN	OBJ	9	idtext0038	bande-annonce	#####	spk2	37.0	37.46	0.01	_
20091112_RATP_SCD_0598	19	12	euh	DISF_M	pres	NULL	NULL	NOLINK	0	idtext0038	euh	#####	spk2	37.47	37.5	0.01	_
20091112_RATP_SCD_0598	19	13	qui	NULL	prorel	NULL	B_NULL	SUJ	14	idtext0038	qui	#####	spk2	37.51	37.62	0.01	_
20091112_RATP_SCD_0598	19	14	disait	NULL	v	NULL	B_GVf	MOD_REL	11	idtext0038	dire	I#3##s##	spk2	37.63	37.85	0.32	_
20091112_RATP_SCD_0598	19	15	NNAAMMEE	NULL	np	B_HU	B_GN	ROOT	0	idtext0039	ANONYM	NULL	spk2	38.17	38.36	?	//

20091112_RATP_SCD_0598	20	1	donc	NULL	coo	NULL	B_NULL	NOLINK	0	idtext0040	donc	#####	spk2	38.42	38.67	0.01	_
20091112_RATP_SCD_0598	20	2	euh	DISF_M	pres	NULL	NULL	NOLINK	0	idtext0040	euh	#####	spk2	38.68	39.12	?	//

20091112_RATP_SCD_0598	21	1	oui	DISF_R	adv	NULL	NULL	NOLINK	0	idtext0041	oui	#####	spk3	38.43	38.88	0.01	_
20091112_RATP_SCD_0598	21	2	oui	NULL	adv	NULL	B_GADV	NOLINK	0	idtext0041	oui	#####	spk3	38.89	39.12	?	_

20091112_RATP_SCD_0598	22	1	je	NULL	cln	NULL	B_GN	SUJ	2	idtext0042	cln	#1##s##	spk2	39.16	39.18	0.01	_
20091112_RATP_SCD_0598	22	2	suppose	NULL	v	NULL	B_GVf	ROOT	0	idtext0042	supposer	PS#13##s##	spk2	39.19	39.39	0.01	_
20091112_RATP_SCD_0598	22	3	que	NULL	csu	NULL	B_NULL	OBJ	2	idtext0042	que	#####	spk2	39.4	39.5	0.01	_
20091112_RATP_SCD_0598	22	4	c'	NULL	cln	NULL	B_GN	SUJ_IMP	5	idtext0042	ce	###s##	spk2	39.51	39.55	0.01	_
20091112_RATP_SCD_0598	22	5	est	NULL	v	NULL	B_GVf	OBJ	3	idtext0042	être	P#3##s##	spk2	39.56	39.64	0.01	_
20091112_RATP_SCD_0598	22	6	ça	NULL	pro	NULL	B_GN	ATS	5	idtext0042	ça	#####	spk2	39.65	39.88	0.09	_
20091112_RATP_SCD_0598	22	7	hm	DISF_M	pres	NULL	NULL	NOLINK	0	idtext0043	hm	#####	spk2	39.97	40.28	?	_

20091112_RATP_SCD_0598	23	1	OK	NULL	adv	NULL	B_GADV	MOD	2	idtext0044	ok	#####	spk3	40.42	40.75	0.01	_
20091112_RATP_SCD_0598	23	2	merci	NULL	adv	NULL	I_GADV	ROOT	0	idtext0044	merci	#####	spk3	40.76	41.04	?	//

20091112_RATP_SCD_0598	24	1	bien	NULL	adv	NULL	B_GADV	NOLINK	0	idtext0045	bien	#####	spk3	41.25	41.65	?	//

20091112_RATP_SCD_0598	25	1	je	NULL	cln	NULL	B_GN	SUJ	4	idtext0046	cln	#1##s##	spk2	41.08	41.15	0.01	_
20091112_RATP_SCD_0598	25	2	vous	NULL	clo	NULL	B_GN	OBJ	4	idtext0046	cln	#2##p##	spk2	41.16	41.36	0.01	_
20091112_RATP_SCD_0598	25	3	en	NULL	clo	NULL	B_GN	DE_OBJ	4	idtext0046	en	#####	spk2	41.37	41.47	0.01	_
20091112_RATP_SCD_0598	25	4	prie	NULL	v	NULL	B_GVf	ROOT	0	idtext0046	prier	PS#13##s##	spk2	41.48	41.65	?	//

20091112_RATP_SCD_0598	26	1	bonne	NULL	adj	NULL	B_GN	MOD	2	idtext0047	bon	##f#s##	spk2	41.69	41.8	0.01	_
20091112_RATP_SCD_0598	26	2	journée	NULL	nc	NULL	I_GN	ROOT	0	idtext0047	journée	##f#s##	spk2	41.81	42.11	?	//

20091112_RATP_SCD_0598	27	1	au+revoir	NULL	adv	NULL	B_GADV	NOLINK	0	idtext0048	au+revoir	#####	spk3	41.69	42.11	?	//

20091112_RATP_SCD_0598	28	1	au+revoir	NULL	adv	NULL	B_GADV	NOLINK	0	idtext0049	au+revoir	#####	spk2	42.19	42.62	?	//

