20091112_RATP_SCD_1240	1	1	NNAAMMEE	NULL	np	B_HU	B_GN	ROOT	0	idtext0000	ANONYM	NULL	spk1	4.55	4.74	0.04	_
20091112_RATP_SCD_1240	1	2	va	NULL	v	NULL	B_GVf	ROOT	0	idtext0001	aller	P#3##s##	spk1	4.78	4.97	0.01	_
20091112_RATP_SCD_1240	1	3	vous	NULL	clo	NULL	B_GN	A_OBJ	4	idtext0001	cln	#2##p##	spk1	4.98	5.03	0.01	_
20091112_RATP_SCD_1240	1	4	répondre	NULL	vinf	NULL	B_GVi	OBJ	2	idtext0001	répondre	W#####	spk1	5.04	5.36	?	//

20091112_RATP_SCD_1240	2	1	NNAAMMEE	NULL	np	B_HU	B_GN	ROOT	0	idtext0002	ANONYM	NULL	spk2	7.04	7.19	0.04	_
20091112_RATP_SCD_1240	2	2	bonsoir	NULL	nc	NULL	B_GN	NOLINK	0	idtext0003	bonsoir	##m#s##	spk2	7.23	7.86	?	//

20091112_RATP_SCD_1240	3	1	oui	NULL	adv	NULL	B_GADV	NOLINK	0	idtext0004	oui	#####	spk3	7.91	8.22	0.01	_
20091112_RATP_SCD_1240	3	2	bonsoir	NULL	nc	NULL	B_GN	ROOT	0	idtext0004	bonsoir	##m#s##	spk3	8.23	8.56	0.01	_
20091112_RATP_SCD_1240	3	3	monsieur	NULL	nc	NULL	I_GN	MOD	2	idtext0004	Monsieur	##m#s##	spk3	8.57	9.03	?	//

20091112_RATP_SCD_1240	4	1	j'	NULL	cln	NULL	B_GN	SUJ	3	idtext0005	cln	#1##s##	spk3	9.07	9.18	0.01	_
20091112_RATP_SCD_1240	4	2	aurais	NULL	v	NULL	B_GVf	AUX	3	idtext0005	avoir	C#12##s##	spk3	9.19	9.36	0.01	_
20091112_RATP_SCD_1240	4	3	aimé	NULL	vppart	NULL	I_GVf	ROOT	0	idtext0005	aimer	K##m#s##	spk3	9.37	9.71	0.01	_
20091112_RATP_SCD_1240	4	4	connaître	NULL	vinf	NULL	B_GVi	OBJ	3	idtext0005	connaître	W#####	spk3	9.72	10.2	0.01	_
20091112_RATP_SCD_1240	4	5	les	NULL	det	NULL	B_GN	DET	6	idtext0005	le	###p##d	spk3	10.21	10.4	0.01	_
20091112_RATP_SCD_1240	4	6	heures	NULL	nc	NULL	I_GN	OBJ	4	idtext0005	heure	##f#p##	spk3	10.41	10.59	0.01	_
20091112_RATP_SCD_1240	4	7	de	NULL	prep	NULL	B_GP	DEP	6	idtext0005	de	#####	spk3	10.6	10.79	0.01	_
20091112_RATP_SCD_1240	4	8	passage	NULL	nc	NULL	I_GP	OBJ	7	idtext0005	passage	##m#s##	spk3	10.8	12.21	0.04	_
20091112_RATP_SCD_1240	4	9	de	DISF_R	prep	NULL	NULL	NOLINK	0	idtext0006	de	#####	spk3	12.25	13.16	0.01	_
20091112_RATP_SCD_1240	4	10	euh	DISF_M	pres	NULL	NULL	NOLINK	0	idtext0006	euh	#####	spk3	13.17	13.2	0.01	_
20091112_RATP_SCD_1240	4	11	du	NULL	prep	NULL	B_GP	ROOT	0	idtext0006	du	#####	spk3	13.21	13.75	0.01	_
20091112_RATP_SCD_1240	4	12	bus	NULL	nc	B_T	I_GP	OBJ	11	idtext0006	bus	##m###	spk3	13.76	14.07	0.01	_
20091112_RATP_SCD_1240	4	13	soixante-dix	NULL	adj	I_T	I_GP	MOD	12	idtext0006	soixante-dix	#####	spk3	14.08	15.14	0.01	_
20091112_RATP_SCD_1240	4	14	euh	DISF_M	pres	I_T	NULL	NOLINK	0	idtext0007	euh	#####	spk3	15.15	15.19	0.01	_
20091112_RATP_SCD_1240	4	15	au+niveau+de	NULL	prep	NULL	B_GP	MOD	12	idtext0008	au+niveau+de	#####	spk3	15.2	17.13	0.01	_
20091112_RATP_SCD_1240	4	16	la	NULL	det	NULL	I_GP	DET	17	idtext0008	le	##m#s##d	spk3	17.14	17.61	0.01	_
20091112_RATP_SCD_1240	4	17	mairie	NULL	nc	NULL	I_GP	OBJ	15	idtext0008	mairie	##f#s##	spk3	17.62	17.91	0.01	_
20091112_RATP_SCD_1240	4	18	du	NULL	prep	NULL	B_GP	DEP	17	idtext0008	du	#####	spk3	17.92	18.07	0.01	_
20091112_RATP_SCD_1240	4	19	quinzième	NULL	nc	NULL	I_GP	OBJ	18	idtext0008	quinzième	###s##	spk3	18.08	18.99	0.01	//
20091112_RATP_SCD_1240	4	20	en	NULL	prep	NULL	B_GP	MOD	19	idtext0008	en	#####	spk3	19.0	19.14	0.01	_
20091112_RATP_SCD_1240	4	21	direction	NULL	nc	NULL	I_GP	OBJ	20	idtext0008	direction	##f#s##	spk3	19.15	19.73	0.01	_
20091112_RATP_SCD_1240	4	22	de	NULL	prep	NULL	B_GP	DEP	21	idtext0008	de	#####	spk3	19.74	19.85	0.01	_
20091112_RATP_SCD_1240	4	23	la	NULL	det	NULL	I_GP	DET	24	idtext0008	le	##m#s##d	spk3	19.86	19.96	0.01	_
20091112_RATP_SCD_1240	4	24	maison	NULL	nc	NULL	I_GP	OBJ	22	idtext0008	maison	##f#s##	spk3	19.97	20.25	0.01	_
20091112_RATP_SCD_1240	4	25	de	NULL	prep	NULL	B_GP	DEP	24	idtext0008	de	#####	spk3	20.26	20.33	0.01	_
20091112_RATP_SCD_1240	4	26	la	NULL	det	NULL	I_GP	DET	28	idtext0008	le	##m#s##d	spk3	20.34	20.97	0.01	_
20091112_RATP_SCD_1240	4	27	euh	DISF_M	pres	NULL	NULL	NOLINK	0	idtext0008	euh	#####	spk3	20.98	21.0	0.01	_
20091112_RATP_SCD_1240	4	28	radio	NULL	adj	NULL	I_GP	OBJ	25	idtext0008	radio	#####	spk3	21.01	21.79	?	_

20091112_RATP_SCD_1240	5	1	d'accord	NULL	adv	NULL	B_GADV	NOLINK	0	idtext0009	d'accord	#####	spk2	22.54	22.95	0.01	_
20091112_RATP_SCD_1240	5	2	c'	NULL	cln	NULL	B_GN	SUJ_IMP	3	idtext0009	ce	###s##	spk2	22.96	22.98	0.01	_
20091112_RATP_SCD_1240	5	3	est	NULL	v	NULL	B_GVf	ROOT	0	idtext0009	être	P#3##s##	spk2	22.99	23.03	0.01	_
20091112_RATP_SCD_1240	5	4	pour	NULL	prep	NULL	B_NULL	ATS	3	idtext0009	pour	#####	spk2	23.04	23.16	0.01	_
20091112_RATP_SCD_1240	5	5	quand	NULL	adv	NULL	B_GADV	MOD	3	idtext0009	quand	#####	spk2	23.17	23.32	0.01	_
20091112_RATP_SCD_1240	5	6	pour	NULL	prep	NULL	B_NULL	ATS	3	idtext0009	pour	#####	spk2	23.33	23.47	0.01	_
20091112_RATP_SCD_1240	5	7	demain	NULL	adv	NULL	B_GADV	OBJ	6	idtext0009	demain	#####	spk2	23.48	23.9	?	_

20091112_RATP_SCD_1240	6	1	non	NULL	adv	NULL	B_GADV	NOLINK	0	idtext0010	non	#####	spk3	23.94	24.12	0.01	_
20091112_RATP_SCD_1240	6	2	pour	NULL	prep	NULL	B_GP	ROOT	0	idtext0010	pour	#####	spk3	24.13	24.28	0.01	_
20091112_RATP_SCD_1240	6	3	ce	NULL	det	NULL	I_GP	DET	4	idtext0010	ce	##m#s##e	spk3	24.29	24.39	0.01	_
20091112_RATP_SCD_1240	6	4	soir	NULL	nc	NULL	I_GP	OBJ	2	idtext0010	soir	##m#s##	spk3	24.4	24.75	?	//

20091112_RATP_SCD_1240	7	1	d'accord	NULL	adv	NULL	B_GADV	NOLINK	0	idtext0011	d'accord	#####	spk2	24.79	25.14	0.01	_
20091112_RATP_SCD_1240	7	2	vous	NULL	cln	NULL	B_GN	SUJ	3	idtext0011	cln	#2##p##	spk2	25.15	25.26	0.01	_
20091112_RATP_SCD_1240	7	3	patientez	NULL	v	NULL	B_GVf	ROOT	0	idtext0011	patienter	P#2##p##	spk2	25.27	25.65	0.01	/
20091112_RATP_SCD_1240	7	4	je	NULL	cln	NULL	B_GN	SUJ	5	idtext0011	cln	#1##s##	spk2	25.66	25.75	0.01	_
20091112_RATP_SCD_1240	7	5	vais	NULL	v	NULL	B_GVf	ROOT	0	idtext0011	aller	P#1##s##	spk2	25.76	25.83	0.01	_
20091112_RATP_SCD_1240	7	6	regarder	NULL	vinf	NULL	I_GVf	OBJ	5	idtext0011	regarder	W#####	spk2	25.84	26.12	0.01	_
20091112_RATP_SCD_1240	7	7	donc	NULL	coo	NULL	B_NULL	NOLINK	0	idtext0011	donc	#####	spk2	26.13	26.3	0.01	_
20091112_RATP_SCD_1240	7	8	les	NULL	det	NULL	B_NULL	NOLINK	0	idtext0011	le	###p##d	spk2	26.31	26.95	0.04	_
20091112_RATP_SCD_1240	7	9	les	NULL	det	NULL	B_GN	DET	10	idtext0012	le	###p##d	spk2	26.99	27.04	0.01	_
20091112_RATP_SCD_1240	7	10	fréquences	NULL	nc	NULL	I_GN	ROOT	0	idtext0012	fréquence	##f#p##	spk2	27.05	27.37	0.01	_
20091112_RATP_SCD_1240	7	11	du	NULL	prep	NULL	B_GP	DEP	10	idtext0012	du	#####	spk2	27.38	27.51	0.01	_
20091112_RATP_SCD_1240	7	12	bus	NULL	nc	B_T	I_GP	OBJ	11	idtext0012	bus	##m###	spk2	27.52	27.66	0.01	//
20091112_RATP_SCD_1240	7	13	soixante-dix	NULL	adj	I_T	I_GP	MOD	12	idtext0013	soixante-dix	#####	spk2	27.67	28.51	0.01	_
20091112_RATP_SCD_1240	7	14	à	NULL	prep	NULL	B_GP	MOD	12	idtext0013	à	#####	spk2	28.52	28.55	0.01	_
20091112_RATP_SCD_1240	7	15	la	NULL	det	NULL	I_GP	DET	16	idtext0013	le	##m#s##d	spk2	28.56	28.61	0.01	_
20091112_RATP_SCD_1240	7	16	mairie	NULL	nc	NULL	I_GP	OBJ	14	idtext0013	mairie	##f#s##	spk2	28.62	28.81	0.01	_
20091112_RATP_SCD_1240	7	17	du	NULL	prep	NULL	B_GP	DEP	16	idtext0013	du	#####	spk2	28.82	28.91	0.01	_
20091112_RATP_SCD_1240	7	18	quinzième	NULL	adj	NULL	I_GP	MOD	19	idtext0013	quinzième	###s##	spk2	28.92	29.42	0.01	_
20091112_RATP_SCD_1240	7	19	direction	NULL	nc	NULL	I_GP	OBJ	17	idtext0013	direction	##f#s##	spk2	29.43	29.84	0.01	_
20091112_RATP_SCD_1240	7	20	radio	NULL	adj	NULL	I_GP	MOD	19	idtext0013	radio	#####	spk2	29.85	30.11	?	//

20091112_RATP_SCD_1240	8	1	d'accord	NULL	adv	NULL	B_GADV	NOLINK	0	idtext0014	d'accord	#####	spk3	30.6	31.18	0.01	_
20091112_RATP_SCD_1240	8	2	merci	NULL	adv	NULL	B_GADV	NOLINK	0	idtext0015	merci	#####	spk3	31.19	31.33	?	//

20091112_RATP_SCD_1240	9	1	s'il+vous+plaît	NULL	adv	NULL	B_GADV	NOLINK	0	idtext0016	s'il+vous+plaît	#####	spk2	77.43	77.71	0.01	_
20091112_RATP_SCD_1240	9	2	madame	NULL	nc	NULL	B_GN	NOLINK	0	idtext0016	Monsieur	##f#s##	spk2	77.72	77.94	?	//

20091112_RATP_SCD_1240	10	1	oui	NULL	adv	NULL	B_GADV	NOLINK	0	idtext0017	oui	#####	spk3	78.03	78.73	?	//

20091112_RATP_SCD_1240	11	1	alors	NULL	adv	NULL	B_GADV	NOLINK	0	idtext0018	alors	#####	spk2	78.77	78.92	0.01	_
20091112_RATP_SCD_1240	11	2	vers	NULL	prep	NULL	B_GP	MOD	6	idtext0018	vers	#####	spk2	78.93	79.08	0.01	_
20091112_RATP_SCD_1240	11	3	quelle	NULL	det	NULL	I_GP	DET	4	idtext0018	quel	##f#s##	spk2	79.09	79.27	0.01	_
20091112_RATP_SCD_1240	11	4	heure	NULL	nc	NULL	I_GP	OBJ	2	idtext0018	heure	##f#s##	spk2	79.28	79.41	0.01	_
20091112_RATP_SCD_1240	11	5	vous	NULL	cln	NULL	B_GN	SUJ	6	idtext0018	cln	#2##p##	spk2	79.42	79.48	0.01	_
20091112_RATP_SCD_1240	11	6	voulez	NULL	v	NULL	B_GVf	ROOT	0	idtext0018	vouloir	P#2##p##	spk2	79.49	80.22	?	//

20091112_RATP_SCD_1240	12	1	bah	DISF_M	pres	NULL	NULL	NOLINK	0	idtext0019	bah	#####	spk3	80.45	80.62	0.01	_
20091112_RATP_SCD_1240	12	2	euh	DISF_M	pres	NULL	NULL	NOLINK	0	idtext0019	euh	#####	spk3	80.63	80.7	0.01	_
20091112_RATP_SCD_1240	12	3	à+partir+de	NULL	prep	NULL	B_GP	ROOT	0	idtext0019	à+partir+de	#####	spk3	80.71	81.63	0.01	_
20091112_RATP_SCD_1240	12	4	vingt	NULL	det	B_H	I_GP	DET	5	idtext0019	vingt	#####	spk3	81.64	81.92	0.01	_
20091112_RATP_SCD_1240	12	5	heures	NULL	nc	I_H	I_GP	OBJ	3	idtext0019	heure	##f#p##	spk3	81.93	82.19	0.01	_
20091112_RATP_SCD_1240	12	6	à+peu+près	NULL	adv	NULL	B_GADV	MOD	5	idtext0019	à+peu+près	#####	spk3	82.2	82.74	?	_

20091112_RATP_SCD_1240	13	1	donc	NULL	coo	NULL	B_NULL	ROOT	0	idtext0020	donc	#####	spk2	83.44	83.77	0.01	//
20091112_RATP_SCD_1240	13	2	vingt	NULL	det	B_H	B_GN	DET	3	idtext0020	vingt	#####	spk2	83.78	83.91	0.01	_
20091112_RATP_SCD_1240	13	3	heures	NULL	nc	I_H	I_GN	SUJ	5	idtext0020	heure	##f#p##	spk2	83.92	84.02	0.01	_
20091112_RATP_SCD_1240	13	4	il	NULL	cln	NULL	B_GN	SUJ_IMP	5	idtext0020	cln	#3#m#s##	spk2	84.03	84.08	0.01	_
20091112_RATP_SCD_1240	13	5	faut	NULL	v	NULL	B_GVf	DEP_COORD	1	idtext0020	falloir	P#3##s##	spk2	84.09	84.18	0.01	_
20091112_RATP_SCD_1240	13	6	compter	NULL	vinf	NULL	I_GVf	OBJ	5	idtext0020	compter	W#####	spk2	84.19	84.52	0.01	_
20091112_RATP_SCD_1240	13	7	un	NULL	det	NULL	B_GN	DET	8	idtext0020	un	##m#s##i	spk2	84.53	84.7	0.01	_
20091112_RATP_SCD_1240	13	8	bus	NULL	nc	NULL	I_GN	OBJ	6	idtext0020	bus	##m###	spk2	84.71	84.91	0.01	_
20091112_RATP_SCD_1240	13	9	tous+les	NULL	det	NULL	B_GN	DET	11	idtext0020	tous+les	#####	spk2	84.92	85.24	0.01	_
20091112_RATP_SCD_1240	13	10	dix	NULL	adj	NULL	I_GN	MOD	11	idtext0020	dix	#####	spk2	85.25	85.42	0.01	_
20091112_RATP_SCD_1240	13	11	minutes	NULL	nc	NULL	I_GN	OBJ	5	idtext0020	minute	##f#p##	spk2	85.43	85.69	0.01	_
20091112_RATP_SCD_1240	13	12	environ	NULL	adv	NULL	B_GADV	MOD	11	idtext0020	environ	#####	spk2	85.7	86.19	0.01	_
20091112_RATP_SCD_1240	13	13	à	NULL	prep	NULL	B_GP	MOD	11	idtext0020	à	#####	spk2	86.2	86.29	0.01	_
20091112_RATP_SCD_1240	13	14	cette	NULL	det	NULL	I_GP	DET	15	idtext0020	cet	##f#s##e	spk2	86.3	86.4	0.01	_
20091112_RATP_SCD_1240	13	15	heure	NULL	nc	NULL	I_GP	OBJ	13	idtext0020	heure	##f#s##	spk2	86.41	86.49	0.01	_
20091112_RATP_SCD_1240	13	16	là	NULL	adv	NULL	B_GADV	NOLINK	0	idtext0020	là	#####	spk2	86.5	86.66	?	//

20091112_RATP_SCD_1240	14	1	jusqu'à	NULL	prep	NULL	B_GP	ROOT	0	idtext0021	jusqu'à	#####	spk3	87.37	87.67	0.01	_
20091112_RATP_SCD_1240	14	2	quelle	NULL	det	NULL	I_GP	DET	3	idtext0021	quel	##f#s##	spk3	87.68	87.9	0.01	_
20091112_RATP_SCD_1240	14	3	heure	NULL	nc	NULL	I_GP	OBJ	1	idtext0021	heure	##f#s##	spk3	87.91	88.24	?	//

20091112_RATP_SCD_1240	15	1	jusqu'à	NULL	prep	NULL	B_GP	ROOT	0	idtext0022	jusqu'à	#####	spk2	88.28	88.61	0.01	_
20091112_RATP_SCD_1240	15	2	vingt-et-une	NULL	det	B_H	I_GP	DET	3	idtext0022	vingt-et-une	#####	spk2	88.62	89.01	0.01	_
20091112_RATP_SCD_1240	15	3	heures	NULL	nc	I_H	I_GP	OBJ	1	idtext0022	heure	##f#p##	spk2	89.02	89.17	0.01	_
20091112_RATP_SCD_1240	15	4	vingt	NULL	adj	I_H	I_GP	MOD	3	idtext0022	vingt	#####	spk2	89.18	89.45	0.01	_
20091112_RATP_SCD_1240	15	5	dernier	NULL	adj	NULL	B_GN	MOD	6	idtext0022	dernier	##m#s##	spk2	89.46	89.85	0.01	/
20091112_RATP_SCD_1240	15	6	passage	NULL	nc	NULL	I_GN	MOD	3	idtext0022	passage	##m#s##	spk2	89.86	90.24	0.01	_
20091112_RATP_SCD_1240	15	7	à	NULL	prep	NULL	B_GP	MOD	3	idtext0022	à	#####	spk2	90.25	90.35	0.01	_
20091112_RATP_SCD_1240	15	8	la	NULL	det	NULL	I_GP	DET	9	idtext0022	le	##m#s##d	spk2	90.36	90.44	0.01	_
20091112_RATP_SCD_1240	15	9	mairie	NULL	nc	NULL	I_GP	OBJ	7	idtext0022	mairie	##f#s##	spk2	90.45	90.58	0.01	_
20091112_RATP_SCD_1240	15	10	du	NULL	prep	NULL	B_GP	DEP	9	idtext0022	du	#####	spk2	90.59	90.67	0.01	_
20091112_RATP_SCD_1240	15	11	quinzième	NULL	nc	NULL	I_GP	OBJ	10	idtext0022	quinzième	###s##	spk2	90.68	91.04	?	//

20091112_RATP_SCD_1240	16	1	jusqu'à	NULL	prep	NULL	B_NULL	NOLINK	0	idtext0023	jusqu'à	#####	spk3	95.67	96.16	?	_

20091112_RATP_SCD_1240	17	1	vingt-et-une	NULL	det	B_H	B_GN	DET	2	idtext0024	vingt-et-une	#####	spk3	97.32	98.37	0.01	_
20091112_RATP_SCD_1240	17	2	heures	NULL	nc	I_H	I_GN	NOLINK	0	idtext0024	heure	##f#p##	spk3	98.38	98.6	0.01	_
20091112_RATP_SCD_1240	17	3	vingt	NULL	adj	I_H	I_GN	MOD	2	idtext0024	vingt	#####	spk3	98.61	99.28	0.12	_
20091112_RATP_SCD_1240	17	4	et	NULL	coo	NULL	B_NULL	ROOT	0	idtext0025	et	#####	spk3	99.4	99.67	0.01	_
20091112_RATP_SCD_1240	17	5	c'	NULL	cln	NULL	B_GN	SUJ_IMP	6	idtext0025	ce	###s##	spk3	99.68	99.74	0.01	_
20091112_RATP_SCD_1240	17	6	est	NULL	v	NULL	B_GVf	DEP_COORD	4	idtext0025	être	P#3##s##	spk3	99.75	99.82	0.01	_
20091112_RATP_SCD_1240	17	7	bien	NULL	adv	NULL	B_GADV	MOD	6	idtext0025	bien	#####	spk3	99.83	100.01	0.01	_
20091112_RATP_SCD_1240	17	8	en	NULL	prep	NULL	B_GP	ROOT	0	idtext0025	en	#####	spk3	100.02	100.04	0.01	_
20091112_RATP_SCD_1240	17	9	direction	NULL	nc	NULL	I_GP	OBJ	8	idtext0025	direction	##f#s##	spk3	100.05	100.42	0.01	_
20091112_RATP_SCD_1240	17	10	de	NULL	prep	NULL	B_GP	DEP	9	idtext0025	de	#####	spk3	100.43	100.45	0.01	_
20091112_RATP_SCD_1240	17	11	la	NULL	det	NULL	I_GP	DET	12	idtext0025	le	##m#s##d	spk3	100.46	100.56	0.01	_
20091112_RATP_SCD_1240	17	12	maison	NULL	nc	NULL	I_GP	OBJ	10	idtext0025	maison	##f#s##	spk3	100.57	100.76	0.01	_
20091112_RATP_SCD_1240	17	13	de	NULL	prep	NULL	B_GP	DEP	12	idtext0025	de	#####	spk3	100.77	100.79	0.01	_
20091112_RATP_SCD_1240	17	14	la	NULL	det	NULL	I_GP	DET	15	idtext0025	le	##m#s##d	spk3	100.8	100.88	0.01	_
20091112_RATP_SCD_1240	17	15	radio	NULL	nc	NULL	I_GP	OBJ	13	idtext0025	radio	###s##	spk3	100.89	101.37	?	//

20091112_RATP_SCD_1240	18	1	oui	NULL	adv	NULL	B_GADV	NOLINK	0	idtext0026	oui	#####	spk2	101.41	101.49	0.01	_
20091112_RATP_SCD_1240	18	2	Radio+France	NULL	nc	B_A	B_GN	NOLINK	0	idtext0026	Radio+France	#####	spk2	101.5	102.39	?	//

20091112_RATP_SCD_1240	19	1	d'accord	NULL	adv	NULL	B_GADV	NOLINK	0	idtext0027	d'accord	#####	spk3	102.43	102.74	?	//

20091112_RATP_SCD_1240	20	1	Kennedy	NULL	nc	B_A	B_GN	NOLINK	0	idtext0028	Kennedy	###s##	spk2	102.46	102.74	?	//

20091112_RATP_SCD_1240	21	1	Radio+France	NULL	nc	B_A	B_GN	NOLINK	0	idtext0029	Radio+France	#####	spk2	102.78	103.43	?	//

20091112_RATP_SCD_1240	22	1	d'accord	NULL	adv	NULL	B_GADV	NOLINK	0	idtext0030	d'accord	#####	spk3	103.47	104.13	0.04	_
20091112_RATP_SCD_1240	22	2	parfait	NULL	adj	NULL	B_GADJ	NOLINK	0	idtext0031	parfait	##m#s##	spk3	104.17	104.72	?	//

20091112_RATP_SCD_1240	23	1	je	NULL	cln	NULL	B_GN	SUJ	4	idtext0032	cln	#1##s##	spk2	104.78	104.84	0.01	_
20091112_RATP_SCD_1240	23	2	vous	NULL	clo	NULL	B_GN	OBJ	4	idtext0032	cln	#2##p##	spk2	104.85	104.9	0.01	_
20091112_RATP_SCD_1240	23	3	en	NULL	clo	NULL	B_GN	DE_OBJ	4	idtext0032	en	#####	spk2	104.91	105.02	0.01	_
20091112_RATP_SCD_1240	23	4	prie	NULL	v	NULL	B_GVf	ROOT	0	idtext0032	prier	PS#13##s##	spk2	105.03	105.24	?	//

20091112_RATP_SCD_1240	24	1	bah	DISF_M	pres	NULL	NULL	NOLINK	0	idtext0033	bah	#####	spk3	104.76	104.84	0.01	_
20091112_RATP_SCD_1240	24	2	écoutez	DISF_M	pres	NULL	NULL	NOLINK	0	idtext0033	écoutez	#####	spk3	104.85	105.24	?	//

20091112_RATP_SCD_1240	25	1	merci	NULL	adv	NULL	B_GADV	MOD	2	idtext0034	merci	#####	spk3	105.28	105.65	0.01	_
20091112_RATP_SCD_1240	25	2	beaucoup	NULL	adv	NULL	I_GADV	ROOT	0	idtext0034	beaucoup	#####	spk3	105.66	106.07	?	//

20091112_RATP_SCD_1240	26	1	je	NULL	cln	NULL	B_GN	SUJ	4	idtext0035	cln	#1##s##	spk2	106.11	106.13	0.01	_
20091112_RATP_SCD_1240	26	2	vous	NULL	clo	NULL	B_GN	OBJ	4	idtext0035	cln	#2##p##	spk2	106.14	106.19	0.01	_
20091112_RATP_SCD_1240	26	3	en	NULL	clo	NULL	B_GN	DE_OBJ	4	idtext0035	en	#####	spk2	106.2	106.22	0.01	_
20091112_RATP_SCD_1240	26	4	prie	NULL	v	NULL	B_GVf	ROOT	0	idtext0035	prier	PS#13##s##	spk2	106.23	106.35	0.01	_
20091112_RATP_SCD_1240	26	5	bonne	NULL	adj	NULL	B_GN	MOD	6	idtext0035	bon	##f#s##	spk2	106.36	106.53	0.01	_
20091112_RATP_SCD_1240	26	6	soirée	NULL	nc	NULL	I_GN	ROOT	0	idtext0035	soirée	##f#s##	spk2	106.54	106.69	0.01	_
20091112_RATP_SCD_1240	26	7	madame	NULL	nc	NULL	B_GN	NOLINK	0	idtext0035	Monsieur	##f#s##	spk2	106.7	106.99	?	//

20091112_RATP_SCD_1240	27	1	bonne	NULL	adj	NULL	B_GN	MOD	2	idtext0036	bon	##f#s##	spk3	107.03	107.13	0.01	_
20091112_RATP_SCD_1240	27	2	soirée	NULL	nc	NULL	I_GN	ROOT	0	idtext0036	soirée	##f#s##	spk3	107.14	107.3	?	//

20091112_RATP_SCD_1240	28	1	au+revoir	NULL	adv	NULL	B_GADV	NOLINK	0	idtext0037	au+revoir	#####	spk2	107.39	107.74	?	//

20091112_RATP_SCD_1240	29	1	au+revoir	NULL	adv	NULL	B_GADV	NOLINK	0	idtext0038	au+revoir	#####	spk3	107.39	107.74	?	//

20091112_RATP_SCD_1240	30	1	monsieur	NULL	nc	NULL	B_GN	NOLINK	0	idtext0039	Monsieur	##m#s##	spk3	107.81	108.05	?	//

