20091112_RATP_SCD_0983	1	1	NNAAMMEE	NULL	np	B_HU	B_GN	ROOT	0	idtext0000	ANONYM	NULL	spk1	8.17	8.36	0.04	_
20091112_RATP_SCD_0983	1	2	bonjour	NULL	adv	NULL	B_GADV	NOLINK	0	idtext0001	bonjour	#####	spk1	8.4	8.86	?	//

20091112_RATP_SCD_0983	2	1	bonjour	NULL	adv	NULL	B_GADV	NOLINK	0	idtext0002	bonjour	#####	spk2	9.1	9.8	0.01	_
20091112_RATP_SCD_0983	2	2	euh	DISF_M	pres	NULL	NULL	NOLINK	0	idtext0002	euh	#####	spk2	9.81	10.02	?	//

20091112_RATP_SCD_0983	3	1	j'	NULL	cln	NULL	B_GN	SUJ	3	idtext0003	cln	#1##s##	spk2	10.06	10.09	0.01	_
20091112_RATP_SCD_0983	3	2	aurais	NULL	v	NULL	B_GVf	AUX	3	idtext0003	avoir	C#12##s##	spk2	10.1	10.39	0.01	_
20091112_RATP_SCD_0983	3	3	souhaité	NULL	vppart	NULL	I_GVf	ROOT	0	idtext0003	souhaiter	K##m#s##	spk2	10.4	10.71	0.01	_
20091112_RATP_SCD_0983	3	4	avoir	NULL	vinf	NULL	B_GVi	OBJ	3	idtext0003	avoir	W#####	spk2	10.72	10.92	0.01	_
20091112_RATP_SCD_0983	3	5	des	NULL	det	NULL	B_GN	DET	6	idtext0003	des	###p##i	spk2	10.93	11.0	0.01	_
20091112_RATP_SCD_0983	3	6	renseignements	NULL	nc	NULL	I_GN	OBJ	4	idtext0003	renseignement	##m#p##	spk2	11.01	11.73	0.01	_
20091112_RATP_SCD_0983	3	7	b()	DISF_T	tronc	NULL	NULL	NOLINK	0	idtext0003	b()	#####	spk2	11.74	11.93	0.01	_
20091112_RATP_SCD_0983	3	8	sur	NULL	prep	NULL	B_GP	P_OBJ	6	idtext0003	sur	#####	spk2	11.94	12.16	0.01	_
20091112_RATP_SCD_0983	3	9	la	NULL	det	NULL	I_GP	DET	10	idtext0003	le	##m#s##d	spk2	12.17	12.3	0.01	_
20091112_RATP_SCD_0983	3	10	ligne	NULL	nc	B_T	I_GP	OBJ	8	idtext0004	ligne	##f#s##	spk2	12.31	12.67	0.01	_
20091112_RATP_SCD_0983	3	11	B	NULL	adj	I_T	I_GP	MOD	10	idtext0004	B	#####	spk2	12.68	12.87	0.01	_
20091112_RATP_SCD_0983	3	12	du	NULL	prep	NULL	B_GP	DEP	10	idtext0005	du	#####	spk2	12.88	13.03	0.01	_
20091112_RATP_SCD_0983	3	13	RER	NULL	nc	B_T	I_GP	OBJ	12	idtext0006	RER	#####	spk2	13.04	13.53	0.35	_
20091112_RATP_SCD_0983	3	14	savoir	NULL	vinf	NULL	B_GVi	ROOT	0	idtext0007	savoir	W#####	spk2	13.88	14.11	0.01	_
20091112_RATP_SCD_0983	3	15	comment	NULL	adv	NULL	B_GADV	MOD	17	idtext0007	comment	#####	spk2	14.12	14.35	0.01	_
20091112_RATP_SCD_0983	3	16	ça	NULL	pro	NULL	B_GN	SUJ_IMP	17	idtext0007	ça	#####	spk2	14.36	14.45	0.01	_
20091112_RATP_SCD_0983	3	17	fonctionne	NULL	v	NULL	B_GVf	OBJ	14	idtext0007	fonctionner	PS#13##s##	spk2	14.46	14.94	0.01	_
20091112_RATP_SCD_0983	3	18	maintenant	NULL	adv	NULL	B_GADV	MOD	17	idtext0007	maintenant	#####	spk2	14.95	15.35	?	_

20091112_RATP_SCD_0983	4	1	maintenant	NULL	adv	NULL	B_GADV	MOD	7	idtext0008	maintenant	#####	spk1	15.39	15.71	0.01	_
20091112_RATP_SCD_0983	4	2	ben	DISF_M	pres	NULL	NULL	NOLINK	0	idtext0008	ben	#####	spk1	15.72	15.86	0.01	_
20091112_RATP_SCD_0983	4	3	c'	NULL	cln	NULL	B_GN	SUJ_IMP	7	idtext0008	ce	###s##	spk1	15.87	15.94	0.01	_
20091112_RATP_SCD_0983	4	4	est	NULL	v	NULL	B_GVf	AUX	7	idtext0008	être	P#3##s##	spk1	15.95	16.01	0.01	_
20091112_RATP_SCD_0983	4	5	toujours	NULL	adv	NULL	I_GVf	MOD	6	idtext0008	toujours	#####	spk1	16.02	16.32	0.01	_
20091112_RATP_SCD_0983	4	6	aussi	NULL	adv	NULL	I_GVf	MOD	7	idtext0008	aussi	#####	spk1	16.33	16.51	0.01	_
20091112_RATP_SCD_0983	4	7	perturbé	NULL	vppart	NULL	I_GVf	ROOT	0	idtext0008	perturber	K##m#s##	spk1	16.52	16.98	0.01	_
20091112_RATP_SCD_0983	4	8	madame	NULL	nc	NULL	B_GN	NOLINK	0	idtext0008	Monsieur	##f#s##	spk1	16.99	17.2	?	//

20091112_RATP_SCD_0983	5	1	malheureusement	NULL	adv	NULL	B_GADV	NOLINK	0	idtext0009	malheureusement	#####	spk1	17.24	18.08	?	//

20091112_RATP_SCD_0983	6	1	c'	NULL	cln	NULL	B_GN	SUJ_IMP	2	idtext0010	ce	###s##	spk2	17.45	17.53	0.01	_
20091112_RATP_SCD_0983	6	2	est	NULL	v	NULL	B_GVf	ROOT	0	idtext0010	être	P#3##s##	spk2	17.54	17.69	0.01	_
20091112_RATP_SCD_0983	6	3	pareil	NULL	adj	NULL	B_GADJ	ATS	2	idtext0010	pareil	##m#s##	spk2	17.7	18.08	?	//

20091112_RATP_SCD_0983	7	1	ouais	NULL	adv	NULL	B_GADV	NOLINK	0	idtext0011	ouais	#####	spk1	18.15	18.27	0.01	/
20091112_RATP_SCD_0983	7	2	ça	NULL	pro	NULL	B_GN	SUJ_IMP	5	idtext0011	ça	#####	spk1	18.28	18.36	0.01	_
20091112_RATP_SCD_0983	7	3	a	NULL	v	NULL	B_GVfn	AUX	5	idtext0011	avoir	P#3##s##	spk1	18.37	18.48	0.01	_
20091112_RATP_SCD_0983	7	4	pas	NULL	advneg	NULL	I_GVfn	MOD	5	idtext0011	pas	#####	spk1	18.49	18.59	0.01	_
20091112_RATP_SCD_0983	7	5	bougé	NULL	vppart	NULL	I_GVfn	ROOT	0	idtext0011	bouger	K##m#s##	spk1	18.6	19.05	?	//

20091112_RATP_SCD_0983	8	1	euh	DISF_M	pres	NULL	NULL	NOLINK	0	idtext0012	euh	#####	spk2	19.15	19.34	0.01	_
20091112_RATP_SCD_0983	8	2	il	NULL	cln	NULL	B_GN	SUJ_IMP	4	idtext0012	cln	#3#m#s##	spk2	19.35	19.49	0.01	_
20091112_RATP_SCD_0983	8	3	y	NULL	clo	NULL	B_GN	AFF	4	idtext0012	y	#####	spk2	19.5	19.54	0.01	_
20091112_RATP_SCD_0983	8	4	a	NULL	v	NULL	B_GVf	ROOT	0	idtext0012	avoir	P#3##s##	spk2	19.55	19.57	0.01	_
20091112_RATP_SCD_0983	8	5	une	NULL	det	NULL	B_GN	DET	6	idtext0012	un	##f#s##i	spk2	19.58	19.66	0.01	_
20091112_RATP_SCD_0983	8	6	interconnexion	NULL	nc	NULL	I_GN	OBJ	4	idtext0012	interconnexion	##f#s##	spk2	19.67	20.4	0.01	_
20091112_RATP_SCD_0983	8	7	sur	NULL	prep	NULL	B_GP	P_OBJ_LOC	6	idtext0012	sur	#####	spk2	20.41	20.55	0.01	_
20091112_RATP_SCD_0983	8	8	la	NULL	det	NULL	I_GP	DET	9	idtext0012	le	##m#s##d	spk2	20.56	20.64	0.01	_
20091112_RATP_SCD_0983	8	9	Gare+du+Nord	NULL	nc	B_A	I_GP	OBJ	7	idtext0013	Gare+du+Nord	#####	spk2	20.65	21.13	0.01	/
20091112_RATP_SCD_0983	8	10	ou	NULL	coo	NULL	B_NULL	COORD	9	idtext0014	ou	#####	spk2	21.14	21.24	0.01	_
20091112_RATP_SCD_0983	8	11	pas	NULL	advneg	NULL	B_NULL	DEP_COORD	10	idtext0014	pas	#####	spk2	21.25	21.35	?	_

20091112_RATP_SCD_0983	9	1	ah	DISF_M	pres	NULL	NULL	NOLINK	0	idtext0015	ah	#####	spk1	21.39	21.48	0.01	_
20091112_RATP_SCD_0983	9	2	oui	NULL	adv	NULL	B_GADV	NOLINK	0	idtext0015	oui	#####	spk1	21.49	21.72	0.01	_
20091112_RATP_SCD_0983	9	3	entre	NULL	prep	NULL	B_GP	ROOT	0	idtext0015	entre	#####	spk1	21.73	21.92	0.01	_
20091112_RATP_SCD_0983	9	4	Denfert	NULL	nc	B_A	I_GP	OBJ	3	idtext0016	Denfert	#####	spk1	21.93	22.26	0.01	_
20091112_RATP_SCD_0983	9	5	et	NULL	coo	NULL	B_NULL	COORD	4	idtext0017	et	#####	spk1	22.27	22.29	0.01	_
20091112_RATP_SCD_0983	9	6	Gare+du+Nord	NULL	nc	B_A	B_GN	NOLINK	0	idtext0018	Gare+du+Nord	#####	spk1	22.3	22.79	0.01	_
20091112_RATP_SCD_0983	9	7	oui	NULL	adv	NULL	B_GADV	NOLINK	0	idtext0019	oui	#####	spk1	22.8	22.87	0.01	_
20091112_RATP_SCD_0983	9	8	l'	NULL	det	NULL	B_GN	DET	9	idtext0019	le	###s##d	spk1	22.88	22.9	0.01	_
20091112_RATP_SCD_0983	9	9	interconnexion	NULL	nc	NULL	I_GN	SUJ	11	idtext0019	interconnexion	##f#s##	spk1	22.91	23.5	0.01	_
20091112_RATP_SCD_0983	9	10	a	NULL	v	NULL	B_GVf	AUX	11	idtext0019	avoir	P#3##s##	spk1	23.51	23.55	0.01	_
20091112_RATP_SCD_0983	9	11	repris	NULL	vppart	NULL	I_GVf	DEP_COORD	5	idtext0019	reprendre	K##m###	spk1	23.56	24.01	0.01	_
20091112_RATP_SCD_0983	9	12	mais	NULL	coo	NULL	B_NULL	COORD	11	idtext0019	mais	#####	spk1	24.02	24.11	0.01	_
20091112_RATP_SCD_0983	9	13	sinon	NULL	coo	NULL	B_NULL	NOLINK	0	idtext0019	sinon	#####	spk1	24.12	24.34	0.01	_
20091112_RATP_SCD_0983	9	14	le	NULL	det	NULL	B_GN	DET	15	idtext0019	le	##m#s##d	spk1	24.35	24.37	0.01	_
20091112_RATP_SCD_0983	9	15	trafic	NULL	nc	NULL	I_GN	SUJ	16	idtext0019	trafic	##m#s##	spk1	24.38	24.68	0.01	_
20091112_RATP_SCD_0983	9	16	est	NULL	v	NULL	B_GVf	DEP_COORD	12	idtext0019	être	P#3##s##	spk1	24.69	24.75	?	//

20091112_RATP_SCD_0983	10	1	toujours	NULL	adv	NULL	B_GADV	MOD	2	idtext0020	toujours	#####	spk1	24.79	25.0	0.01	_
20091112_RATP_SCD_0983	10	2	aussi	NULL	adv	NULL	I_GADV	MOD	3	idtext0020	aussi	#####	spk1	25.01	25.22	0.01	_
20091112_RATP_SCD_0983	10	3	perturbé	NULL	vppart	NULL	B_GVf	ROOT	0	idtext0020	perturber	K##m#s##	spk1	25.23	25.8	?	//

20091112_RATP_SCD_0983	11	1	mais	NULL	coo	NULL	B_NULL	ROOT	0	idtext0021	mais	#####	spk2	24.83	25.32	0.01	_
20091112_RATP_SCD_0983	11	2	ça	NULL	pro	NULL	B_GN	SUJ	3	idtext0021	ça	#####	spk2	25.33	25.41	0.01	_
20091112_RATP_SCD_0983	11	3	peut	NULL	v	NULL	B_GVf	DEP_COORD	1	idtext0021	pouvoir	P#3##s##	spk2	25.42	25.6	0.01	_
20091112_RATP_SCD_0983	11	4	être	NULL	vinf	NULL	I_GVf	OBJ	3	idtext0021	être	W#####	spk2	25.61	25.8	?	//

20091112_RATP_SCD_0983	12	1	comme	NULL	adv	NULL	B_GADV	MOD	2	idtext0022	comme	#####	spk2	25.84	25.98	0.01	_
20091112_RATP_SCD_0983	12	2	tout	NULL	adv	NULL	I_GADV	ROOT	0	idtext0022	tout	##m#s##	spk2	25.99	26.19	0.01	_
20091112_RATP_SCD_0983	12	3	à	NULL	prep	NULL	B_GP	ROOT	0	idtext0022	à	#####	spk2	26.2	26.26	0.01	_
20091112_RATP_SCD_0983	12	4	l'	NULL	det	NULL	I_GP	DET	5	idtext0022	le	###s##d	spk2	26.27	26.32	0.01	_
20091112_RATP_SCD_0983	12	5	heure	NULL	nc	NULL	I_GP	OBJ	3	idtext0022	heure	##f#s##	spk2	26.33	26.43	0.01	//
20091112_RATP_SCD_0983	12	6	c'est-à-dire	NULL	coo	NULL	B_NULL	COORD	5	idtext0022	c'est-à-dire	#####	spk2	26.44	26.8	0.01	_
20091112_RATP_SCD_0983	12	7	une	NULL	nc	NULL	B_GN	DEP_COORD	6	idtext0022	une	##f#s##	spk2	26.81	26.93	0.01	_
20091112_RATP_SCD_0983	12	8	heure	NULL	nc	NULL	I_GN	MOD	7	idtext0022	heure	##f#s##	spk2	26.94	27.08	0.01	_
20091112_RATP_SCD_0983	12	9	sans	NULL	prep	NULL	B_GP	ROOT	0	idtext0022	sans	#####	spk2	27.09	27.24	0.01	_
20091112_RATP_SCD_0983	12	10	rien	NULL	pro	NULL	I_GP	OBJ	9	idtext0022	rien	#####	spk2	27.25	27.55	0.01	_
20091112_RATP_SCD_0983	12	11	et	NULL	coo	NULL	B_NULL	NOLINK	0	idtext0022	et	#####	spk2	27.56	27.69	?	_

20091112_RATP_SCD_0983	13	1	puis	NULL	coo	NULL	B_NULL	NOLINK	0	idtext0023	puis	#####	spk2	27.73	27.81	0.01	_
20091112_RATP_SCD_0983	13	2	après	NULL	prep	NULL	B_NULL	NOLINK	0	idtext0023	après	#####	spk2	27.82	28.48	?	_

20091112_RATP_SCD_0983	14	1	voilà	DISF_M	pres	NULL	NULL	NOLINK	0	idtext0024	voilà	#####	spk1	28.52	28.76	0.01	_
20091112_RATP_SCD_0983	14	2	il	NULL	cln	NULL	B_GN	SUJ_IMP	4	idtext0024	cln	#3#m#s##	spk1	28.77	28.82	0.01	_
20091112_RATP_SCD_0983	14	3	y	NULL	clo	NULL	B_GN	AFF	4	idtext0024	y	#####	spk1	28.83	28.85	0.01	_
20091112_RATP_SCD_0983	14	4	a	NULL	v	NULL	B_GVf	ROOT	0	idtext0024	avoir	P#3##s##	spk1	28.86	28.91	0.01	_
20091112_RATP_SCD_0983	14	5	pas	NULL	advneg	NULL	B_NULL	MOD	4	idtext0024	pas	#####	spk1	28.92	29.07	0.01	_
20091112_RATP_SCD_0983	14	6	grand	NULL	adj	NULL	B_GN	MOD	7	idtext0024	grand	##m#s##	spk1	29.08	29.36	0.01	_
20091112_RATP_SCD_0983	14	7	chose	NULL	nc	NULL	I_GN	OBJ	4	idtext0024	chose	##f#s##	spk1	29.37	29.56	0.01	_
20091112_RATP_SCD_0983	14	8	en+fait	GREF	adv	NULL	B_GADV	NOLINK	0	idtext0024	en+fait	#####	spk1	29.57	30.06	0.01	_
20091112_RATP_SCD_0983	14	9	quoi	DISF_M	pres	NULL	NULL	NOLINK	0	idtext0024	quoi	#####	spk1	30.07	30.28	?	_

20091112_RATP_SCD_0983	15	1	d'accord	NULL	adv	NULL	B_GADV	NOLINK	0	idtext0025	d'accord	#####	spk2	30.42	31.02	0.27	_
20091112_RATP_SCD_0983	15	2	bon+ben	DISF_M	pres	NULL	NULL	NOLINK	0	idtext0026	bon+ben	#####	spk2	31.29	31.93	0.01	_
20091112_RATP_SCD_0983	15	3	écoutez	DISF_M	pres	NULL	NULL	NOLINK	0	idtext0026	écoutez	#####	spk2	31.94	32.5	0.01	_
20091112_RATP_SCD_0983	15	4	euh	DISF_M	pres	NULL	NULL	NOLINK	0	idtext0026	euh	#####	spk2	32.51	32.65	0.39	_
20091112_RATP_SCD_0983	15	5	euh	DISF_M	pres	NULL	NULL	NOLINK	0	idtext0027	euh	#####	spk2	33.04	34.3	0.01	_
20091112_RATP_SCD_0983	15	6	o()	DISF_T	tronc	NULL	NULL	NOLINK	0	idtext0027	o()	#####	spk2	34.31	34.59	0.01	_
20091112_RATP_SCD_0983	15	7	ils	NULL	cln	NULL	B_GN	SUJ	8	idtext0027	cln	#3#m#p##	spk2	34.6	34.76	0.01	_
20091112_RATP_SCD_0983	15	8	arrivent	NULL	v	NULL	B_GVf	ROOT	0	idtext0027	arriver	PS#3##p##	spk2	34.77	34.95	0.01	_
20091112_RATP_SCD_0983	15	9	bien	NULL	adv	NULL	B_GADV	MOD	8	idtext0027	bien	#####	spk2	34.96	35.14	0.01	_
20091112_RATP_SCD_0983	15	10	d'	NULL	prep	NULL	B_GP	DE_OBJ	8	idtext0027	d'	#####	spk2	35.15	35.17	0.01	_
20091112_RATP_SCD_0983	15	11	Denfert	NULL	nc	B_A	I_GP	OBJ	10	idtext0028	Denfert	#####	spk2	35.18	35.48	0.01	/
20091112_RATP_SCD_0983	15	12	parce+que	NULL	csu	NULL	B_NULL	MOD	8	idtext0029	parce+que	#####	spk2	35.49	35.71	0.01	_
20091112_RATP_SCD_0983	15	13	j'	NULL	cln	NULL	B_GN	SUJ	14	idtext0029	cln	#1##s##	spk2	35.72	35.78	0.01	_
20091112_RATP_SCD_0983	15	14	ai	NULL	v	NULL	B_GVf	OBJ	12	idtext0029	avoir	P#1##s##	spk2	35.79	35.81	0.01	_
20091112_RATP_SCD_0983	15	15	une	NULL	pro	NULL	B_GN	OBJ	14	idtext0029	une	#####	spk2	35.82	35.94	0.01	_
20091112_RATP_SCD_0983	15	16	de	NULL	prep	NULL	B_NULL	DEP	15	idtext0029	de	#####	spk2	35.95	36.03	0.01	_
20091112_RATP_SCD_0983	15	17	mes	NULL	det	NULL	B_NULL	NOLINK	0	idtext0029	mon	###p##o	spk2	36.04	36.21	0.01	_
20091112_RATP_SCD_0983	15	18	l()	DISF_T	tronc	NULL	NULL	NOLINK	0	idtext0029	l()	#####	spk2	36.22	36.26	?	//

20091112_RATP_SCD_0983	16	1	mes	NULL	det	NULL	B_GN	DET	2	idtext0030	mon	###p##o	spk2	36.3	36.48	0.01	_
20091112_RATP_SCD_0983	16	2	filles	NULL	nc	NULL	I_GN	ROOT	0	idtext0030	fille	##f#p##	spk2	36.49	36.94	?	//

20091112_RATP_SCD_0983	17	1	ah	DISF_M	pres	NULL	NULL	NOLINK	0	idtext0031	ah	#####	spk1	36.36	36.49	0.01	_
20091112_RATP_SCD_0983	17	2	oui	NULL	adv	NULL	B_GADV	MOD	3	idtext0031	oui	#####	spk1	36.5	36.62	0.01	_
20091112_RATP_SCD_0983	17	3	tout+à+fait	NULL	adv	NULL	I_GADV	ROOT	0	idtext0031	tout+à+fait	#####	spk1	36.63	36.94	?	_

20091112_RATP_SCD_0983	18	1	ben	DISF_M	pres	NULL	NULL	NOLINK	0	idtext0032	ben	#####	spk1	37.04	37.22	0.01	_
20091112_RATP_SCD_0983	18	2	ça	NULL	pro	NULL	B_GN	SUJ_IMP	3	idtext0032	ça	#####	spk1	37.23	37.33	0.01	_
20091112_RATP_SCD_0983	18	3	va	NULL	v	NULL	B_GVf	ROOT	0	idtext0032	aller	P#3##s##	spk1	37.34	37.44	0.01	_
20091112_RATP_SCD_0983	18	4	jusqu'à	NULL	prep	NULL	B_GP	P_OBJ_LOC	3	idtext0032	jusqu'à	#####	spk1	37.45	37.73	0.01	_
20091112_RATP_SCD_0983	18	5	Denfert	NULL	nc	B_A	I_GP	OBJ	4	idtext0033	Denfert	#####	spk1	37.74	38.02	0.01	_
20091112_RATP_SCD_0983	18	6	et	NULL	coo	NULL	B_NULL	COORD	3	idtext0034	et	#####	spk1	38.03	38.05	0.01	_
20091112_RATP_SCD_0983	18	7	jusqu'à	NULL	prep	NULL	B_GP	DEP_COORD	6	idtext0034	jusqu'à	#####	spk1	38.06	38.22	0.01	_
20091112_RATP_SCD_0983	18	8	la	NULL	det	NULL	I_GP	DET	9	idtext0034	le	##m#s##d	spk1	38.23	38.29	0.01	_
20091112_RATP_SCD_0983	18	9	Gare+du+Nord	NULL	nc	B_A	I_GP	OBJ	7	idtext0035	Gare+du+Nord	#####	spk1	38.3	38.77	0.01	_
20091112_RATP_SCD_0983	18	10	ouais	NULL	adv	NULL	B_GADV	NOLINK	0	idtext0036	ouais	#####	spk1	38.78	38.94	?	//

20091112_RATP_SCD_0983	19	1	non	NULL	adv	NULL	B_GADV	NOLINK	0	idtext0037	non	#####	spk2	38.98	39.19	0.01	_
20091112_RATP_SCD_0983	19	2	mais	NULL	coo	NULL	B_NULL	ROOT	0	idtext0037	mais	#####	spk2	39.2	39.29	0.01	_
20091112_RATP_SCD_0983	19	3	j'	NULL	cln	NULL	B_GN	SUJ	4	idtext0037	cln	#1##s##	spk2	39.3	39.4	0.01	_
20091112_RATP_SCD_0983	19	4	ai	NULL	v	NULL	B_GVf	DEP_COORD	2	idtext0037	avoir	P#1##s##	spk2	39.41	39.43	0.01	_
20091112_RATP_SCD_0983	19	5	une	NULL	pro	NULL	B_GN	OBJ	4	idtext0037	une	#####	spk2	39.44	39.55	0.01	_
20091112_RATP_SCD_0983	19	6	de	NULL	prep	NULL	B_GP	DEP	5	idtext0037	de	#####	spk2	39.56	39.63	0.01	_
20091112_RATP_SCD_0983	19	7	mes	NULL	det	NULL	I_GP	DET	8	idtext0037	mon	###p##o	spk2	39.64	39.74	0.01	_
20091112_RATP_SCD_0983	19	8	filles	NULL	nc	NULL	I_GP	OBJ	6	idtext0037	fille	##f#p##	spk2	39.75	39.89	0.01	_
20091112_RATP_SCD_0983	19	9	qui	NULL	prorel	NULL	B_NULL	SUJ	11	idtext0038	qui	#####	spk2	39.9	40.01	0.01	_
20091112_RATP_SCD_0983	19	10	n'	NULL	clneg	NULL	B_GVfn	MOD	11	idtext0038	n'	#####	spk2	40.02	40.05	0.01	_
20091112_RATP_SCD_0983	19	11	est	NULL	v	NULL	I_GVfn	MOD_REL	8	idtext0038	être	P#3##s##	spk2	40.06	40.15	0.01	_
20091112_RATP_SCD_0983	19	12	pas	NULL	advneg	NULL	I_GVfn	MOD	11	idtext0038	pas	#####	spk2	40.16	40.23	0.01	_
20091112_RATP_SCD_0983	19	13	très	NULL	adv	NULL	B_GADJ	MOD	14	idtext0038	très	#####	spk2	40.24	40.54	0.01	_
20091112_RATP_SCD_0983	19	14	autonome	NULL	adj	NULL	I_GADJ	ATS	11	idtext0038	autonome	###s##	spk2	40.55	41.05	0.01	_
20091112_RATP_SCD_0983	19	15	et	NULL	coo	NULL	B_NULL	NOLINK	0	idtext0038	et	#####	spk2	41.06	41.31	?	_

20091112_RATP_SCD_0983	20	1	bon	DISF_M	pres	NULL	NULL	NOLINK	0	idtext0039	bon	#####	spk1	41.35	42.09	0.01	_
20091112_RATP_SCD_0983	20	2	euh	DISF_M	pres	NULL	NULL	NOLINK	0	idtext0039	euh	#####	spk1	42.1	42.12	0.01	_
20091112_RATP_SCD_0983	20	3	en+dehors+de	NULL	prep	NULL	B_GP	MOD	8	idtext0039	en+dehors+de	#####	spk1	42.13	42.8	0.01	_
20091112_RATP_SCD_0983	20	4	ça	NULL	pro	NULL	I_GP	OBJ	3	idtext0039	ça	#####	spk1	42.81	43.11	0.01	_
20091112_RATP_SCD_0983	20	5	est-ce+qu'	NULL	pri	NULL	B_NULL	NOLINK	0	idtext0039	est-ce+qu'	#####	spk1	43.12	43.23	0.01	_
20091112_RATP_SCD_0983	20	6	il	NULL	cln	NULL	B_GN	SUJ_IMP	8	idtext0039	cln	#3#m#s##	spk1	43.24	43.34	0.01	_
20091112_RATP_SCD_0983	20	7	y	NULL	clo	NULL	B_GN	AFF	8	idtext0039	y	#####	spk1	43.35	43.41	0.01	_
20091112_RATP_SCD_0983	20	8	aura	NULL	v	NULL	B_GVf	ROOT	0	idtext0039	avoir	F#3##s##	spk1	43.42	43.61	0.01	_
20091112_RATP_SCD_0983	20	9	beaucoup+de	NULL	det	NULL	B_GN	DET	10	idtext0039	beaucoup+de	#####	spk1	43.62	43.95	0.01	_
20091112_RATP_SCD_0983	20	10	rames	NULL	nc	NULL	I_GN	OBJ	8	idtext0039	rame	##f#p##	spk1	43.96	44.17	0.01	_
20091112_RATP_SCD_0983	20	11	je	NULL	cln	NULL	B_GN	SUJ	12	idtext0039	cln	#1##s##	spk1	44.18	44.38	0.01	_
20091112_RATP_SCD_0983	20	12	sais	NULL	v	NULL	B_GVfn	ROOT	0	idtext0039	savoir	P#12##s##	spk1	44.39	44.61	0.01	_
20091112_RATP_SCD_0983	20	13	pas	NULL	advneg	NULL	I_GVfn	MOD	12	idtext0039	pas	#####	spk1	44.62	44.74	0.01	_
20091112_RATP_SCD_0983	20	14	c'	NULL	cln	NULL	B_GN	SUJ_IMP	15	idtext0039	ce	###s##	spk1	44.75	44.86	0.01	_
20091112_RATP_SCD_0983	20	15	est	NULL	v	NULL	B_GVfn	ROOT	0	idtext0039	être	P#3##s##	spk1	44.87	44.99	0.01	_
20091112_RATP_SCD_0983	20	16	pas	NULL	advneg	NULL	I_GVfn	MOD	15	idtext0039	pas	#####	spk1	45.0	45.24	0.81	_
20091112_RATP_SCD_0983	20	17	c'	DISF_R	cln	NULL	NULL	NOLINK	0	idtext0040	ce	###s##	spk1	46.05	46.07	0.01	_
20091112_RATP_SCD_0983	20	18	est	DISF_R	v	NULL	NULL	NOLINK	0	idtext0040	être	P#3##s##	spk1	46.08	46.1	0.01	_
20091112_RATP_SCD_0983	20	19	pas	DISF_R	advneg	NULL	NULL	NOLINK	0	idtext0040	pas	#####	spk1	46.11	46.35	0.01	_
20091112_RATP_SCD_0983	20	20	c'	NULL	cln	NULL	B_GN	SUJ_IMP	21	idtext0040	ce	###s##	spk1	46.36	46.41	0.01	_
20091112_RATP_SCD_0983	20	21	est	NULL	v	NULL	B_GVfn	ROOT	0	idtext0040	être	P#3##s##	spk1	46.42	46.44	0.01	_
20091112_RATP_SCD_0983	20	22	pas	NULL	advneg	NULL	I_GVfn	MOD	21	idtext0040	pas	#####	spk1	46.45	46.54	0.01	_
20091112_RATP_SCD_0983	20	23	terrible	NULL	adj	NULL	B_GADJ	ATS	21	idtext0040	terrible	###s##	spk1	46.55	46.93	?	//

20091112_RATP_SCD_0983	21	1	bon	DISF_M	pres	NULL	NULL	NOLINK	0	idtext0041	bon	#####	spk2	46.99	47.23	0.10	_
20091112_RATP_SCD_0983	21	2	je	NULL	cln	NULL	B_GN	SUJ	3	idtext0042	cln	#1##s##	spk2	47.33	47.55	0.01	_
20091112_RATP_SCD_0983	21	3	suppose	NULL	v	NULL	B_GVf	ROOT	0	idtext0042	supposer	PS#13##s##	spk2	47.56	47.88	0.01	_
20091112_RATP_SCD_0983	21	4	que	NULL	csu	NULL	B_NULL	OBJ	3	idtext0042	que	#####	spk2	47.89	48.01	0.01	_
20091112_RATP_SCD_0983	21	5	ça	NULL	pro	NULL	B_GN	SUJ_IMP	6	idtext0042	ça	#####	spk2	48.02	48.14	0.01	_
20091112_RATP_SCD_0983	21	6	va	NULL	v	NULL	B_GVf	OBJ	4	idtext0042	aller	P#3##s##	spk2	48.15	48.22	0.01	_
20091112_RATP_SCD_0983	21	7	aller	NULL	vinf	NULL	I_GVf	OBJ	6	idtext0042	aller	W#####	spk2	48.23	48.36	0.01	_
20091112_RATP_SCD_0983	21	8	en	NULL	prep	NULL	B_GP	MOD	6	idtext0042	en	#####	spk2	48.37	48.59	0.01	_
20091112_RATP_SCD_0983	21	9	s'	NULL	clr	NULL	I_GP	AFF	10	idtext0042	se	#3##p##	spk2	48.6	48.63	0.01	_
20091112_RATP_SCD_0983	21	10	arrangeant	NULL	vprespart	NULL	I_GP	OBJ	8	idtext0042	arranger	G#####	spk2	48.64	48.89	0.01	_
20091112_RATP_SCD_0983	21	11	pas	NULL	advneg	NULL	I_GP	MOD	12	idtext0042	pas	#####	spk2	48.9	49.05	0.01	_
20091112_RATP_SCD_0983	21	12	aller	NULL	vinf	NULL	B_GVi	OBJ	10	idtext0042	aller	W#####	spk2	49.06	49.22	0.01	_
20091112_RATP_SCD_0983	21	13	en	NULL	prep	NULL	B_GP	P_OBJ	12	idtext0042	en	#####	spk2	49.23	49.3	0.01	_
20091112_RATP_SCD_0983	21	14	s'	NULL	clr	NULL	I_GP	AFF	15	idtext0042	se	#3##p##	spk2	49.31	49.41	0.01	_
20091112_RATP_SCD_0983	21	15	arrangeant	NULL	vprespart	NULL	I_GP	OBJ	13	idtext0042	arranger	G#####	spk2	49.42	50.0	?	//

20091112_RATP_SCD_0983	22	1	ben	DISF_M	pres	NULL	NULL	NOLINK	0	idtext0043	ben	#####	spk1	50.04	50.32	0.01	_
20091112_RATP_SCD_0983	22	2	on	NULL	cln	NULL	B_GN	SUJ_IMP	3	idtext0043	cln	#3##s##	spk1	50.33	50.39	0.01	_
20091112_RATP_SCD_0983	22	3	espère	NULL	v	NULL	B_GVf	ROOT	0	idtext0043	espérer	PS#13##s##	spk1	50.4	50.72	0.01	_
20091112_RATP_SCD_0983	22	4	que	NULL	csu	NULL	B_NULL	OBJ	3	idtext0043	que	#####	spk1	50.73	50.75	0.01	_
20091112_RATP_SCD_0983	22	5	ça	NULL	pro	NULL	B_GN	SUJ_IMP	6	idtext0043	ça	#####	spk1	50.76	50.85	0.01	_
20091112_RATP_SCD_0983	22	6	reprenne	NULL	v	NULL	B_GVf	OBJ	4	idtext0043	reprendre	S#13##s##	spk1	50.86	51.17	0.01	_
20091112_RATP_SCD_0983	22	7	vite	NULL	adv	NULL	B_GADV	MOD	6	idtext0043	vite	#####	spk1	51.18	51.27	0.01	_
20091112_RATP_SCD_0983	22	8	c'	NULL	cln	NULL	B_GN	SUJ_IMP	9	idtext0043	ce	###s##	spk1	51.28	51.3	0.01	_
20091112_RATP_SCD_0983	22	9	est	NULL	v	NULL	B_GVf	ROOT	0	idtext0043	être	P#3##s##	spk1	51.31	51.35	0.01	_
20091112_RATP_SCD_0983	22	10	que	NULL	csu	NULL	B_NULL	ATS	9	idtext0043	que	#####	spk1	51.36	51.42	0.01	_
20091112_RATP_SCD_0983	22	11	là	NULL	adv	NULL	B_GADV	MOD	13	idtext0043	là	#####	spk1	51.43	51.53	0.01	_
20091112_RATP_SCD_0983	22	12	ça	NULL	pro	NULL	B_GN	SUJ_IMP	13	idtext0043	ça	#####	spk1	51.54	51.66	0.01	_
20091112_RATP_SCD_0983	22	13	commence	NULL	v	NULL	B_GVf	OBJ	10	idtext0043	commencer	PS#13##s##	spk1	51.67	51.95	0.01	_
20091112_RATP_SCD_0983	22	14	à	NULL	prep	NULL	B_GP	A_OBJ	13	idtext0043	à	#####	spk1	51.96	52.0	0.01	_
20091112_RATP_SCD_0983	22	15	faire	NULL	vinf	NULL	I_GP	OBJ	14	idtext0043	faire	W#####	spk1	52.01	52.15	0.01	_
20091112_RATP_SCD_0983	22	16	un+petit+peu	NULL	adv	NULL	B_GADJ	MOD	17	idtext0043	un+petit+peu	#####	spk1	52.16	52.47	0.01	_
20091112_RATP_SCD_0983	22	17	long	NULL	adj	NULL	I_GADJ	MOD	15	idtext0043	long	##m#s##	spk1	52.48	52.78	?	//

20091112_RATP_SCD_0983	23	1	oui	NULL	adv	NULL	B_GADV	NOLINK	0	idtext0044	oui	#####	spk2	52.87	53.12	?	//

20091112_RATP_SCD_0983	24	1	donc	NULL	coo	NULL	B_NULL	NOLINK	0	idtext0045	donc	#####	spk1	53.33	53.85	0.01	_
20091112_RATP_SCD_0983	24	2	maintenant	NULL	adv	NULL	B_GADV	NOLINK	0	idtext0045	maintenant	#####	spk1	53.86	54.53	0.01	_
20091112_RATP_SCD_0983	24	3	euh	DISF_M	pres	NULL	NULL	NOLINK	0	idtext0045	euh	#####	spk1	54.54	54.7	?	//

20091112_RATP_SCD_0983	25	1	vous	NULL	cln	NULL	B_GN	SUJ	3	idtext0046	cln	#2##p##	spk2	54.74	54.79	0.01	_
20091112_RATP_SCD_0983	25	2	n'	NULL	clneg	NULL	B_GVfn	MOD	3	idtext0046	n'	#####	spk2	54.8	54.83	0.01	_
20091112_RATP_SCD_0983	25	3	avez	NULL	v	NULL	I_GVfn	ROOT	0	idtext0046	avoir	P#2##p##	spk2	54.84	54.99	0.01	_
20091112_RATP_SCD_0983	25	4	pas	NULL	advneg	NULL	I_GVfn	MOD	3	idtext0046	pas	#####	spk2	55.0	55.1	0.01	_
20091112_RATP_SCD_0983	25	5	de+nouveau	NULL	adv	NULL	B_GADV	NOLINK	0	idtext0046	de+nouveau	#####	spk2	55.11	55.51	?	_

20091112_RATP_SCD_0983	26	1	ben	DISF_M	pres	NULL	NULL	NOLINK	0	idtext0047	ben	#####	spk1	55.65	56.08	0.01	_
20091112_RATP_SCD_0983	26	2	mais	NULL	coo	NULL	B_NULL	ROOT	0	idtext0047	mais	#####	spk1	56.09	56.33	0.01	_
20091112_RATP_SCD_0983	26	3	c'	NULL	cln	NULL	B_GN	SUJ_IMP	4	idtext0047	ce	###s##	spk1	56.34	56.37	0.01	_
20091112_RATP_SCD_0983	26	4	est	NULL	v	NULL	B_GVf	DEP_COORD	2	idtext0047	être	P#3##s##	spk1	56.38	56.41	0.01	_
20091112_RATP_SCD_0983	26	5	au	NULL	prep	NULL	B_GP	ATS	4	idtext0047	au	#####	spk1	56.42	56.48	0.01	_
20091112_RATP_SCD_0983	26	6	jour	NULL	nc	NULL	I_GP	OBJ	5	idtext0047	jour	##m#s##	spk1	56.49	56.73	0.01	_
20091112_RATP_SCD_0983	26	7	le	NULL	det	NULL	B_GN	DET	8	idtext0047	le	##m#s##d	spk1	56.74	56.8	0.01	_
20091112_RATP_SCD_0983	26	8	jour	NULL	nc	NULL	I_GN	ATS	11	idtext0047	jour	##m#s##	spk1	56.81	57.08	0.01	_
20091112_RATP_SCD_0983	26	9	hein	DISF_M	pres	NULL	NULL	NOLINK	0	idtext0047	hein	#####	spk1	57.09	57.17	0.01	_
20091112_RATP_SCD_0983	26	10	on	NULL	cln	NULL	B_GN	SUJ	11	idtext0047	cln	#3##s##	spk1	57.18	57.3	0.01	_
20091112_RATP_SCD_0983	26	11	est	NULL	v	NULL	B_GVf	ROOT	0	idtext0047	être	P#3##s##	spk1	57.31	57.33	0.01	_
20091112_RATP_SCD_0983	26	12	un+petit+peu	NULL	adv	NULL	B_GADV	MOD	13	idtext0047	un+petit+peu	#####	spk1	57.34	57.71	0.01	_
20091112_RATP_SCD_0983	26	13	comme	NULL	adv	NULL	I_GADV	ATS	11	idtext0047	comme	#####	spk1	57.72	57.94	0.01	_
20091112_RATP_SCD_0983	26	14	vous	NULL	pro	NULL	B_GN	NOLINK	0	idtext0047	vous	#####	spk1	57.95	58.07	0.01	_
20091112_RATP_SCD_0983	26	15	on	NULL	cln	NULL	B_GN	NOLINK	0	idtext0047	cln	#3##s##	spk1	58.08	58.18	?	_

20091112_RATP_SCD_0983	27	1	subit	NULL	v	NULL	B_GVf	ROOT	0	idtext0048	subir	J#3##s##	spk1	58.26	58.59	0.01	_
20091112_RATP_SCD_0983	27	2	euh	DISF_M	pres	NULL	NULL	NOLINK	0	idtext0048	euh	#####	spk1	58.6	58.83	0.01	_
20091112_RATP_SCD_0983	27	3	un+petit+peu	NULL	adv	NULL	B_GADV	MOD	1	idtext0048	un+petit+peu	#####	spk1	58.84	59.48	0.01	_
20091112_RATP_SCD_0983	27	4	et	NULL	coo	NULL	B_NULL	NOLINK	0	idtext0048	et	#####	spk1	59.49	59.69	0.01	_
20091112_RATP_SCD_0983	27	5	euh	DISF_M	pres	NULL	NULL	NOLINK	0	idtext0048	euh	#####	spk1	59.7	59.76	?	_

20091112_RATP_SCD_0983	28	1	bien+sûr	NULL	adv	NULL	B_GADV	MOD	2	idtext0049	bien+sûr	#####	spk2	58.43	58.94	0.01	_
20091112_RATP_SCD_0983	28	2	enfin	NULL	adv	NULL	I_GADV	ROOT	0	idtext0049	enfin	#####	spk2	58.95	59.24	0.01	_
20091112_RATP_SCD_0983	28	3	je	NULL	cln	NULL	B_GN	NOLINK	0	idtext0049	cln	#1##s##	spk2	59.25	59.48	0.01	_
20091112_RATP_SCD_0983	28	4	me	NULL	clr	NULL	B_GNr	OBJ	0	idtext0049	cla	#1##s##	spk2	59.49	59.76	?	_

20091112_RATP_SCD_0983	29	1	je	DISF_R	cln	NULL	NULL	NOLINK	0	idtext0050	cln	#1##s##	spk2	59.8	59.97	0.01	_
20091112_RATP_SCD_0983	29	2	je	NULL	cln	NULL	B_GN	SUJ	4	idtext0050	cln	#1##s##	spk2	59.98	60.07	0.01	_
20091112_RATP_SCD_0983	29	3	me	NULL	clr	NULL	B_GVf	AFF	4	idtext0050	cla	#1##s##	spk2	60.08	60.22	0.01	_
20091112_RATP_SCD_0983	29	4	doute	NULL	v	NULL	I_GVf	ROOT	0	idtext0050	douter	PS#13##s##	spk2	60.23	60.45	?	//

20091112_RATP_SCD_0983	30	1	depuis	NULL	prep	NULL	B_GP	MOD	5	idtext0051	depuis	#####	spk1	60.49	60.69	0.01	_
20091112_RATP_SCD_0983	30	2	onze	NULL	det	B_H	I_GP	DET	3	idtext0051	onze	#####	spk1	60.7	60.75	0.01	_
20091112_RATP_SCD_0983	30	3	heures	NULL	nc	I_H	I_GP	OBJ	1	idtext0051	heure	##f#p##	spk1	60.76	60.82	0.01	_
20091112_RATP_SCD_0983	30	4	on	NULL	cln	NULL	B_GN	SUJ	5	idtext0052	cln	#3##s##	spk1	60.83	60.96	0.01	_
20091112_RATP_SCD_0983	30	5	est	NULL	v	NULL	B_GVf	ROOT	0	idtext0052	être	P#3##s##	spk1	60.97	61.08	0.01	_
20091112_RATP_SCD_0983	30	6	sur	NULL	prep	NULL	B_GP	ATS	5	idtext0052	sur	#####	spk1	61.09	61.21	0.01	_
20091112_RATP_SCD_0983	30	7	le	NULL	det	NULL	I_GP	DET	8	idtext0052	le	##m#s##d	spk1	61.22	61.31	0.01	_
20091112_RATP_SCD_0983	30	8	tas	NULL	nc	NULL	I_GP	OBJ	6	idtext0052	tas	##m###	spk1	61.32	61.74	0.01	_
20091112_RATP_SCD_0983	30	9	euh	DISF_M	pres	NULL	NULL	NOLINK	0	idtext0052	euh	#####	spk1	61.75	61.93	?	//

20091112_RATP_SCD_0983	31	1	hein	DISF_M	pres	NULL	NULL	NOLINK	0	idtext0053	hein	#####	spk2	60.73	60.97	0.01	_
20091112_RATP_SCD_0983	31	2	c'	NULL	cln	NULL	B_GN	SUJ_IMP	3	idtext0053	ce	###s##	spk2	60.98	61.07	0.01	_
20091112_RATP_SCD_0983	31	3	est	NULL	v	NULL	B_GVfn	ROOT	0	idtext0053	être	P#3##s##	spk2	61.08	61.3	0.01	_
20091112_RATP_SCD_0983	31	4	pas	NULL	advneg	NULL	I_GVfn	MOD	3	idtext0053	pas	#####	spk2	61.31	61.65	0.01	_
20091112_RATP_SCD_0983	31	5	non	NULL	adv	NULL	B_GADV	NOLINK	0	idtext0053	non	#####	spk2	61.66	61.93	?	_

20091112_RATP_SCD_0983	32	1	maintenant	NULL	adv	NULL	B_GADV	NOLINK	0	idtext0054	maintenant	#####	spk1	61.97	62.57	0.01	_
20091112_RATP_SCD_0983	32	2	euh	DISF_M	pres	NULL	NULL	NOLINK	0	idtext0054	euh	#####	spk1	62.58	62.73	0.01	_
20091112_RATP_SCD_0983	32	3	pour	NULL	prep	NULL	B_GP	ROOT	0	idtext0054	pour	#####	spk1	62.74	62.88	0.01	_
20091112_RATP_SCD_0983	32	4	les	NULL	det	NULL	I_GP	DET	5	idtext0054	le	###p##d	spk1	62.89	62.98	0.01	_
20091112_RATP_SCD_0983	32	5	conditions	NULL	nc	NULL	I_GP	OBJ	3	idtext0054	condition	##f#p##	spk1	62.99	63.28	0.01	_
20091112_RATP_SCD_0983	32	6	de	NULL	prep	NULL	B_GP	DEP	5	idtext0054	de	#####	spk1	63.29	63.31	0.01	_
20091112_RATP_SCD_0983	32	7	travail	NULL	nc	NULL	I_GP	OBJ	6	idtext0054	travail	##m#s##	spk1	63.32	63.57	0.01	_
20091112_RATP_SCD_0983	32	8	pour	NULL	prep	NULL	B_GP	P_OBJ	7	idtext0054	pour	#####	spk1	63.58	63.66	0.01	_
20091112_RATP_SCD_0983	32	9	nous	NULL	pro	NULL	I_GP	OBJ	8	idtext0054	nous	#####	spk1	63.67	63.73	0.01	_
20091112_RATP_SCD_0983	32	10	aussi	NULL	adv	NULL	B_GADV	NOLINK	0	idtext0054	aussi	#####	spk1	63.74	63.88	0.01	_
20091112_RATP_SCD_0983	32	11	c'	NULL	cln	NULL	B_GN	SUJ_IMP	12	idtext0054	ce	###s##	spk1	63.89	63.92	0.01	_
20091112_RATP_SCD_0983	32	12	est	NULL	v	NULL	B_GVf	ROOT	0	idtext0054	être	P#3##s##	spk1	63.93	63.97	0.01	_
20091112_RATP_SCD_0983	32	13	pareil	NULL	adj	NULL	B_GADJ	ATS	12	idtext0054	pareil	##m#s##	spk1	63.98	64.39	0.01	_
20091112_RATP_SCD_0983	32	14	euh	DISF_M	pres	NULL	NULL	NOLINK	0	idtext0054	euh	#####	spk1	64.4	64.67	?	//

20091112_RATP_SCD_0983	33	1	le	NULL	det	NULL	B_GN	DET	2	idtext0055	le	##m#s##d	spk1	65.01	65.08	0.01	_
20091112_RATP_SCD_0983	33	2	parcours	NULL	nc	NULL	I_GN	ROOT	0	idtext0055	parcours	##m###	spk1	65.09	65.37	0.01	_
20091112_RATP_SCD_0983	33	3	du	NULL	prep	NULL	B_GP	DEP	2	idtext0055	du	#####	spk1	65.38	65.46	0.01	_
20091112_RATP_SCD_0983	33	4	combattant	NULL	nc	NULL	I_GP	OBJ	3	idtext0055	combattant	##m#s##	spk1	65.47	65.88	0.01	_
20091112_RATP_SCD_0983	33	5	tous+les	NULL	det	NULL	B_GN	DET	6	idtext0055	tous+les	#####	spk1	65.89	66.12	0.01	_
20091112_RATP_SCD_0983	33	6	matins	NULL	nc	NULL	I_GN	ROOT	0	idtext0055	matin	##m#p##	spk1	66.13	66.63	?	//

20091112_RATP_SCD_0983	34	1	je	DISF_R	cln	NULL	NULL	NOLINK	0	idtext0056	cln	#1##s##	spk2	64.73	64.98	0.01	_
20091112_RATP_SCD_0983	34	2	sais	DISF_R	v	NULL	NULL	NOLINK	0	idtext0056	savoir	P#12##s##	spk2	64.99	65.28	0.01	_
20091112_RATP_SCD_0983	34	3	bien	DISF_R	adv	NULL	NULL	NOLINK	0	idtext0056	bien	#####	spk2	65.29	66.06	0.01	_
20091112_RATP_SCD_0983	34	4	je	NULL	cln	NULL	B_GN	SUJ	5	idtext0056	cln	#1##s##	spk2	66.07	66.23	0.01	_
20091112_RATP_SCD_0983	34	5	sais	NULL	v	NULL	B_GVf	ROOT	0	idtext0056	savoir	P#12##s##	spk2	66.24	66.35	0.01	_
20091112_RATP_SCD_0983	34	6	bien	NULL	adv	NULL	B_GADV	MOD	5	idtext0056	bien	#####	spk2	66.36	66.58	0.01	_
20091112_RATP_SCD_0983	34	7	que	NULL	csu	NULL	B_NULL	OBJ	5	idtext0056	que	#####	spk2	66.59	66.63	?	_

20091112_RATP_SCD_0983	35	1	c'	NULL	cln	NULL	B_GN	SUJ_IMP	2	idtext0057	ce	###s##	spk2	66.69	66.71	0.01	_
20091112_RATP_SCD_0983	35	2	est	NULL	v	NULL	B_GVfn	ROOT	0	idtext0057	être	P#3##s##	spk2	66.72	66.79	0.01	_
20091112_RATP_SCD_0983	35	3	pas	NULL	advneg	NULL	I_GVfn	MOD	2	idtext0057	pas	#####	spk2	66.8	66.93	0.01	_
20091112_RATP_SCD_0983	35	4	simple	NULL	adj	NULL	B_GADJ	ATS	2	idtext0057	simple	###s##	spk2	66.94	67.34	0.01	_
20091112_RATP_SCD_0983	35	5	je	NULL	cln	NULL	B_GN	SUJ	7	idtext0057	cln	#1##s##	spk2	67.35	67.4	0.01	_
20091112_RATP_SCD_0983	35	6	suis	NULL	v	NULL	B_GVf	AUX	7	idtext0057	être	P#1##s##	spk2	67.41	67.51	0.01	_
20091112_RATP_SCD_0983	35	7	passée	NULL	vppart	NULL	I_GVf	ROOT	0	idtext0057	passer	K##f#s##	spk2	67.52	67.75	0.01	_
20091112_RATP_SCD_0983	35	8	à	NULL	prep	NULL	B_GP	P_OBJ_LOC	7	idtext0057	à	#####	spk2	67.76	67.79	0.01	_
20091112_RATP_SCD_0983	35	9	la	NULL	det	NULL	I_GP	DET	10	idtext0057	le	##m#s##d	spk2	67.8	67.87	0.01	_
20091112_RATP_SCD_0983	35	10	gare	NULL	nc	B_A	I_GP	OBJ	8	idtext0058	gare	##f#s##	spk2	67.88	68.06	0.01	_
20091112_RATP_SCD_0983	35	11	Arcueil-Cachan	NULL	np	I_A	I_GP	MOD	10	idtext0058	Arcueil-Cachan	#####	spk2	68.07	68.67	0.01	/
20091112_RATP_SCD_0983	35	12	tout	NULL	adv	NULL	B_GADV	MOD	7	idtext0059	tout	##m#s##	spk2	68.68	68.88	0.01	_
20091112_RATP_SCD_0983	35	13	à	NULL	prep	NULL	B_GP	MOD	7	idtext0059	à	#####	spk2	68.89	68.92	0.01	_
20091112_RATP_SCD_0983	35	14	l'	NULL	det	NULL	I_GP	DET	15	idtext0060	le	###s##d	spk2	68.93	68.96	0.01	_
20091112_RATP_SCD_0983	35	15	heure	NULL	nc	NULL	I_GP	OBJ	13	idtext0060	heure	##f#s##	spk2	68.97	69.28	0.01	_
20091112_RATP_SCD_0983	35	16	parce+que	NULL	csu	NULL	B_NULL	MOD	7	idtext0060	parce+que	#####	spk2	69.29	69.82	?	_

20091112_RATP_SCD_0983	36	1	oh+là+là	DISF_M	pres	NULL	NULL	NOLINK	0	idtext0061	oh+là+là	#####	spk1	67.56	69.41	0.01	//
20091112_RATP_SCD_0983	36	2	ouais	NULL	adv	NULL	B_GADV	NOLINK	0	idtext0061	ouais	#####	spk1	69.42	69.82	?	//

20091112_RATP_SCD_0983	37	1	je	NULL	cln	NULL	B_GN	SUJ	3	idtext0062	cln	#1##s##	spk2	69.86	69.93	0.01	_
20091112_RATP_SCD_0983	37	2	vous	NULL	clo	NULL	B_GN	A_OBJ	3	idtext0062	cln	#2##p##	spk2	69.94	70.05	0.01	_
20091112_RATP_SCD_0983	37	3	dit	NULL	v	NULL	B_GVf	ROOT	0	idtext0062	dire	J#3##s##	spk2	70.06	70.24	0.01	_
20091112_RATP_SCD_0983	37	4	ma	NULL	det	NULL	B_GN	DET	5	idtext0062	mon	##f#s##o	spk2	70.25	70.38	0.01	_
20091112_RATP_SCD_0983	37	5	fille	NULL	nc	NULL	I_GN	OBJ	3	idtext0062	fille	##f#s##	spk2	70.39	70.96	0.01	_
20091112_RATP_SCD_0983	37	6	et	NULL	coo	NULL	B_NULL	COORD	3	idtext0062	et	#####	spk2	70.97	71.01	0.01	_
20091112_RATP_SCD_0983	37	7	n'	NULL	clneg	NULL	B_GVfn	MOD	8	idtext0063	n'	#####	spk2	71.02	71.09	0.01	_
20091112_RATP_SCD_0983	37	8	est	NULL	v	NULL	I_GVfn	DEP_COORD	6	idtext0063	être	P#3##s##	spk2	71.1	71.17	0.01	_
20091112_RATP_SCD_0983	37	9	pas	NULL	advneg	NULL	I_GVfn	MOD	8	idtext0063	pas	#####	spk2	71.18	71.26	0.01	_
20091112_RATP_SCD_0983	37	10	autonome	NULL	adj	NULL	B_GADJ	ATS	8	idtext0063	autonome	###s##	spk2	71.27	71.64	0.01	//
20091112_RATP_SCD_0983	37	11	du+tout	NULL	adv	NULL	B_GADV	MOD	10	idtext0063	du+tout	#####	spk2	71.65	71.98	0.01	_
20091112_RATP_SCD_0983	37	12	donc	NULL	coo	NULL	B_NULL	COORD	8	idtext0063	donc	#####	spk2	71.99	72.2	0.01	_
20091112_RATP_SCD_0983	37	13	c'	NULL	cln	NULL	B_GN	SUJ_IMP	15	idtext0063	ce	###s##	spk2	72.21	72.24	0.01	_
20091112_RATP_SCD_0983	37	14	est	NULL	v	NULL	B_GVf	AUX	15	idtext0063	être	P#3##s##	spk2	72.25	72.28	0.01	_
20091112_RATP_SCD_0983	37	15	compliqué	NULL	vppart	NULL	I_GVf	DEP_COORD	12	idtext0063	compliquer	K##m#s##	spk2	72.29	72.78	?	//

20091112_RATP_SCD_0983	38	1	ouais	NULL	adv	NULL	B_GADV	NOLINK	0	idtext0064	ouais	#####	spk1	72.89	73.11	?	//

20091112_RATP_SCD_0983	39	1	et	NULL	coo	NULL	B_NULL	ROOT	0	idtext0065	et	#####	spk2	73.26	73.51	0.01	_
20091112_RATP_SCD_0983	39	2	ils	NULL	cln	NULL	B_GN	SUJ	5	idtext0065	cln	#3#m#p##	spk2	73.52	73.69	0.01	_
20091112_RATP_SCD_0983	39	3	étaient	NULL	v	NULL	B_GVf	AUX	5	idtext0065	étayer	PS#3##p##	spk2	73.7	73.9	0.01	_
20091112_RATP_SCD_0983	39	4	aussi	NULL	adv	NULL	I_GVf	MOD	5	idtext0065	aussi	#####	spk2	73.91	74.1	0.01	_
20091112_RATP_SCD_0983	39	5	embêtés	NULL	vppart	NULL	I_GVf	DEP_COORD	1	idtext0065	embêter	K##m#p##	spk2	74.11	74.57	0.01	_
20091112_RATP_SCD_0983	39	6	que	NULL	csu	NULL	B_NULL	OBJ	5	idtext0065	que	#####	spk2	74.58	74.98	0.01	_
20091112_RATP_SCD_0983	39	7	nous	NULL	pro	NULL	B_GN	DET	9	idtext0065	nous	#####	spk2	74.99	75.08	0.01	_
20091112_RATP_SCD_0983	39	8	les	NULL	det	NULL	B_GN	DET	9	idtext0065	le	###p##d	spk2	75.09	75.21	0.01	_
20091112_RATP_SCD_0983	39	9	gens	NULL	nc	NULL	I_GN	OBJ	6	idtext0065	gens	##m#p##	spk2	75.22	75.42	0.01	_
20091112_RATP_SCD_0983	39	10	évidemment	NULL	adv	NULL	B_GADV	NOLINK	0	idtext0065	évidemment	#####	spk2	75.43	75.88	0.01	_
20091112_RATP_SCD_0983	39	11	hein	DISF_M	pres	NULL	NULL	NOLINK	0	idtext0065	hein	#####	spk2	75.89	76.03	0.08	_
20091112_RATP_SCD_0983	39	12	ceux	NULL	pro	NULL	B_GN	ROOT	0	idtext0066	ceux	#####	spk2	76.11	76.3	0.01	_
20091112_RATP_SCD_0983	39	13	qui	NULL	prorel	NULL	B_NULL	SUJ	14	idtext0066	qui	#####	spk2	76.31	76.36	0.01	_
20091112_RATP_SCD_0983	39	14	travaillent	NULL	v	NULL	B_GVf	MOD_REL	12	idtext0066	travailler	PS#3##p##	spk2	76.37	76.73	0.01	_
20091112_RATP_SCD_0983	39	15	c'	NULL	cln	NULL	B_GN	SUJ_IMP	16	idtext0066	ce	###s##	spk2	76.74	76.8	0.01	_
20091112_RATP_SCD_0983	39	16	est	NULL	v	NULL	B_GVf	ROOT	0	idtext0066	être	P#3##s##	spk2	76.81	76.85	0.01	_
20091112_RATP_SCD_0983	39	17	toujours	NULL	adv	NULL	B_GADJ	MOD	18	idtext0066	toujours	#####	spk2	76.86	77.09	0.01	_
20091112_RATP_SCD_0983	39	18	pareil	NULL	adj	NULL	I_GADJ	ATS	16	idtext0066	pareil	##m#s##	spk2	77.1	77.34	0.01	_
20091112_RATP_SCD_0983	39	19	hein	DISF_M	pres	NULL	NULL	NOLINK	0	idtext0066	hein	#####	spk2	77.35	77.53	?	//

20091112_RATP_SCD_0983	40	1	c'	NULL	cln	NULL	B_GN	SUJ_IMP	2	idtext0067	ce	###s##	spk1	77.87	77.89	0.01	_
20091112_RATP_SCD_0983	40	2	est	NULL	v	NULL	B_GVf	ROOT	0	idtext0067	être	P#3##s##	spk1	77.9	77.97	0.01	_
20091112_RATP_SCD_0983	40	3	très	NULL	adv	NULL	B_GADJ	MOD	5	idtext0067	très	#####	spk1	77.98	78.14	0.01	_
20091112_RATP_SCD_0983	40	4	très	NULL	adv	NULL	I_GADJ	MOD	5	idtext0067	très	#####	spk1	78.15	78.35	0.01	_
20091112_RATP_SCD_0983	40	5	dur	NULL	adj	NULL	I_GADJ	ATS	2	idtext0067	dur	##m#s##	spk1	78.36	78.58	0.01	_
20091112_RATP_SCD_0983	40	6	quoi	DISF_M	pres	NULL	NULL	NOLINK	0	idtext0067	quoi	#####	spk1	78.59	78.72	0.01	_
20091112_RATP_SCD_0983	40	7	et	NULL	coo	NULL	B_NULL	COORD	5	idtext0067	et	#####	spk1	78.73	78.93	0.01	_
20091112_RATP_SCD_0983	40	8	bon	DISF_M	pres	NULL	NULL	NOLINK	0	idtext0067	bon	#####	spk1	78.94	79.11	0.01	_
20091112_RATP_SCD_0983	40	9	en	NULL	prep	NULL	B_GP	DEP_COORD	7	idtext0067	en	#####	spk1	79.12	79.23	0.01	_
20091112_RATP_SCD_0983	40	10	espérant	NULL	vprespart	NULL	I_GP	OBJ	9	idtext0067	espérer	G#####	spk1	79.24	79.63	0.01	_
20091112_RATP_SCD_0983	40	11	que	NULL	csu	NULL	B_NULL	OBJ	10	idtext0067	que	#####	spk1	79.64	79.68	0.01	_
20091112_RATP_SCD_0983	40	12	ça	NULL	pro	NULL	B_GN	SUJ_IMP	13	idtext0067	ça	#####	spk1	79.69	79.89	0.01	_
20091112_RATP_SCD_0983	40	13	tarde	NULL	v	NULL	B_GVfn	OBJ	11	idtext0067	tarder	PS#13##s##	spk1	79.9	80.18	0.01	_
20091112_RATP_SCD_0983	40	14	pas	NULL	advneg	NULL	I_GVfn	MOD	13	idtext0067	pas	#####	spk1	80.19	80.33	0.01	_
20091112_RATP_SCD_0983	40	15	trop	NULL	adv	NULL	B_GADV	MOD	13	idtext0067	trop	#####	spk1	80.34	80.55	0.01	_
20091112_RATP_SCD_0983	40	16	parce+qu'	NULL	csu	NULL	B_NULL	MOD	13	idtext0067	parce+qu'	#####	spk1	80.56	80.81	0.01	_
20091112_RATP_SCD_0983	40	17	honnêtement	NULL	adv	NULL	B_GADV	NOLINK	0	idtext0067	honnêtement	#####	spk1	80.82	81.16	0.01	_
20091112_RATP_SCD_0983	40	18	on	NULL	cln	NULL	B_GN	SUJ	19	idtext0067	cln	#3##s##	spk1	81.17	81.19	0.01	_
20091112_RATP_SCD_0983	40	19	pensait	NULL	v	NULL	B_GVfn	ROOT	0	idtext0067	penser	I#3##s##	spk1	81.2	81.45	0.01	_
20091112_RATP_SCD_0983	40	20	pas	NULL	advneg	NULL	I_GVfn	MOD	19	idtext0067	pas	#####	spk1	81.46	81.56	0.01	_
20091112_RATP_SCD_0983	40	21	que	NULL	csu	NULL	B_NULL	OBJ	19	idtext0067	que	#####	spk1	81.57	81.63	0.01	_
20091112_RATP_SCD_0983	40	22	ça	NULL	pro	NULL	B_GN	SUJ_IMP	23	idtext0067	ça	#####	spk1	81.64	81.7	0.01	_
20091112_RATP_SCD_0983	40	23	allait	NULL	v	NULL	B_GVf	OBJ	21	idtext0067	aller	I#3##s##	spk1	81.71	81.82	0.01	_
20091112_RATP_SCD_0983	40	24	durer	NULL	vinf	NULL	I_GVf	OBJ	23	idtext0067	durer	W#####	spk1	81.83	82.1	0.01	_
20091112_RATP_SCD_0983	40	25	aussi	NULL	adv	NULL	B_GADV	MOD	26	idtext0067	aussi	#####	spk1	82.11	82.32	0.01	_
20091112_RATP_SCD_0983	40	26	longtemps	NULL	adv	NULL	I_GADV	MOD	23	idtext0067	longtemps	#####	spk1	82.33	82.65	?	_

20091112_RATP_SCD_0983	41	1	oui	NULL	adv	NULL	B_GADV	MOD	3	idtext0068	oui	#####	spk2	82.7	82.86	0.01	//
20091112_RATP_SCD_0983	41	2	ben	DISF_M	pres	NULL	NULL	NOLINK	0	idtext0068	ben	#####	spk2	82.87	83.01	0.01	_
20091112_RATP_SCD_0983	41	3	oui	NULL	adv	NULL	I_GADV	ROOT	0	idtext0068	oui	#####	spk2	83.02	83.15	0.01	_
20091112_RATP_SCD_0983	41	4	je	NULL	cln	NULL	B_GN	NOLINK	0	idtext0068	cln	#1##s##	spk2	83.16	83.38	?	_

20091112_RATP_SCD_0983	42	1	je	NULL	cln	NULL	B_GN	SUJ	2	idtext0069	cln	#1##s##	spk2	83.44	83.47	0.01	_
20091112_RATP_SCD_0983	42	2	sais	NULL	v	NULL	B_GVf	ROOT	0	idtext0069	savoir	P#12##s##	spk2	83.48	83.54	0.01	_
20091112_RATP_SCD_0983	42	3	bien	NULL	adv	NULL	B_GADV	MOD	2	idtext0069	bien	#####	spk2	83.55	84.26	?	_

20091112_RATP_SCD_0983	43	1	donc	NULL	coo	NULL	B_NULL	NOLINK	0	idtext0070	donc	#####	spk1	83.52	84.21	0.01	//
20091112_RATP_SCD_0983	43	2	euh	DISF_M	pres	NULL	NULL	NOLINK	0	idtext0070	euh	#####	spk1	84.22	84.26	?	//

20091112_RATP_SCD_0983	44	1	c'	NULL	cln	NULL	B_GN	SUJ_IMP	3	idtext0071	ce	###s##	spk1	84.31	84.34	0.01	_
20091112_RATP_SCD_0983	44	2	était	NULL	v	NULL	B_GVf	AUX	3	idtext0071	être	I#3##s##	spk1	84.35	84.51	0.01	_
20091112_RATP_SCD_0983	44	3	illimité	NULL	vppart	NULL	I_GVf	ROOT	0	idtext0071	illimiter	K##m#s##	spk1	84.52	84.94	0.01	_
20091112_RATP_SCD_0983	44	4	d'accord	NULL	adv	NULL	B_GADV	NOLINK	0	idtext0071	d'accord	#####	spk1	84.95	85.42	0.01	_
20091112_RATP_SCD_0983	44	5	mais	NULL	coo	NULL	B_NULL	COORD	3	idtext0071	mais	#####	spk1	85.43	85.56	0.01	_
20091112_RATP_SCD_0983	44	6	bon	DISF_M	pres	NULL	NULL	NOLINK	0	idtext0071	bon	#####	spk1	85.57	85.69	0.01	_
20091112_RATP_SCD_0983	44	7	jusqu'à	NULL	prep	NULL	B_NULL	ROOT	0	idtext0071	jusqu'à	#####	spk1	85.7	86.04	0.01	_
20091112_RATP_SCD_0983	44	8	quand	NULL	csu	NULL	B_NULL	OBJ	7	idtext0071	quand	#####	spk1	86.05	86.19	0.01	_
20091112_RATP_SCD_0983	44	9	on	NULL	cln	NULL	B_GN	SUJ	12	idtext0071	cln	#3##s##	spk1	86.2	86.37	0.01	_
20091112_RATP_SCD_0983	44	10	s'	NULL	clr	NULL	B_GVf	AFF	12	idtext0071	se	#3##p##	spk1	86.38	86.41	0.01	_
20091112_RATP_SCD_0983	44	11	est	NULL	v	NULL	I_GVf	AUX	12	idtext0071	être	P#3##s##	spk1	86.42	86.49	0.01	_
20091112_RATP_SCD_0983	44	12	dit	NULL	vppart	NULL	I_GVf	OBJ	8	idtext0071	dire	J#3##s##	spk1	86.5	86.56	0.01	_
20091112_RATP_SCD_0983	44	13	bon+ben	DISF_M	pres	NULL	NULL	NOLINK	0	idtext0071	bon+ben	#####	spk1	86.57	86.84	0.01	/
20091112_RATP_SCD_0983	44	14	on	NULL	cln	NULL	B_GN	SUJ_IMP	15	idtext0071	cln	#3##s##	spk1	86.85	86.87	0.01	_
20091112_RATP_SCD_0983	44	15	sait	NULL	v	NULL	B_GVf	DEP_COORD	5	idtext0071	savoir	P#3##s##	spk1	86.88	86.95	0.01	_
20091112_RATP_SCD_0983	44	16	qu'	NULL	csu	NULL	B_NULL	OBJ	15	idtext0071	qu'	#####	spk1	86.96	87.02	0.01	_
20091112_RATP_SCD_0983	44	17	il	NULL	cln	NULL	B_GN	SUJ	25	idtext0071	cln	#3#m#s##	spk1	87.03	87.1	0.01	_
20091112_RATP_SCD_0983	44	18	y	NULL	clo	NULL	B_GN	AFF	25	idtext0071	y	#####	spk1	87.11	87.14	0.01	_
20091112_RATP_SCD_0983	44	19	pas	NULL	advneg	NULL	B_NULL	NOLINK	0	idtext0071	pas	#####	spk1	87.15	87.23	0.01	_
20091112_RATP_SCD_0983	44	20	de	NULL	det	NULL	B_GN	DET	21	idtext0071	de	###p##i	spk1	87.24	87.27	0.01	_
20091112_RATP_SCD_0983	44	21	jour	NULL	nc	NULL	I_GN	MOD	24	idtext0071	jour	##m#s##	spk1	87.28	87.5	0.01	_
20091112_RATP_SCD_0983	44	22	férié	NULL	adj	NULL	I_GN	MOD	21	idtext0071	férié	##m#s##	spk1	87.51	87.85	0.01	//
20091112_RATP_SCD_0983	44	23	ce	NULL	cln	NULL	B_GN	SUJ_IMP	24	idtext0071	ce	#####	spk1	87.86	88.09	0.01	_
20091112_RATP_SCD_0983	44	24	serait	NULL	v	NULL	B_GVf	AUX	25	idtext0071	être	C#3##s##	spk1	88.1	88.26	0.01	_
20091112_RATP_SCD_0983	44	25	arrêté	NULL	vppart	NULL	I_GVf	OBJ	16	idtext0071	arrêter	K##m#s##	spk1	88.27	88.74	0.04	_
20091112_RATP_SCD_0983	44	26	ben	DISF_M	pres	NULL	NULL	NOLINK	0	idtext0073	ben	#####	spk1	88.78	88.83	0.01	_
20091112_RATP_SCD_0983	44	27	écoutez	DISF_M	pres	NULL	NULL	NOLINK	0	idtext0073	écoutez	#####	spk1	88.84	89.14	0.01	_
20091112_RATP_SCD_0983	44	28	donc	NULL	coo	NULL	B_NULL	NOLINK	0	idtext0073	donc	#####	spk1	89.15	89.4	0.01	_
20091112_RATP_SCD_0983	44	29	voilà	DISF_M	pres	NULL	NULL	NOLINK	0	idtext0073	voilà	#####	spk1	89.41	89.74	0.62	_
20091112_RATP_SCD_0983	44	30	donc	NULL	coo	NULL	B_NULL	ROOT	0	idtext0075	donc	#####	spk1	90.36	90.56	0.01	_
20091112_RATP_SCD_0983	44	31	ça	NULL	pro	NULL	B_GN	SUJ_IMP	33	idtext0075	ça	#####	spk1	90.57	90.62	0.01	_
20091112_RATP_SCD_0983	44	32	a	NULL	v	NULL	B_GVf	AUX	33	idtext0075	avoir	P#3##s##	spk1	90.63	90.65	0.01	_
20091112_RATP_SCD_0983	44	33	repris	NULL	vppart	NULL	I_GVf	DEP_COORD	30	idtext0075	reprendre	K##m###	spk1	90.66	90.93	?	//

20091112_RATP_SCD_0983	45	1	hm+hm+hm	DISF_M	pres	NULL	NULL	NOLINK	0	idtext0072	hm+hm+hm	#####	spk2	84.58	88.74	0.40	//
20091112_RATP_SCD_0983	45	2	non	NULL	adv	NULL	B_GADV	NOLINK	0	idtext0074	non	#####	spk2	89.14	89.74	?	_

20091112_RATP_SCD_0983	46	1	bon+ben	DISF_M	pres	NULL	NULL	NOLINK	0	idtext0076	bon+ben	#####	spk2	90.98	91.37	0.01	_
20091112_RATP_SCD_0983	46	2	écoutez	DISF_M	pres	NULL	NULL	NOLINK	0	idtext0076	écoutez	#####	spk2	91.38	91.98	0.01	_
20091112_RATP_SCD_0983	46	3	merci	NULL	adv	NULL	B_GADV	MOD	4	idtext0077	merci	#####	spk2	91.99	92.28	0.01	_
20091112_RATP_SCD_0983	46	4	beaucoup	NULL	adv	NULL	I_GADV	ROOT	0	idtext0077	beaucoup	#####	spk2	92.29	92.78	?	//

20091112_RATP_SCD_0983	47	1	je	NULL	cln	NULL	B_GN	SUJ	3	idtext0078	cln	#1##s##	spk1	92.82	92.84	0.01	_
20091112_RATP_SCD_0983	47	2	suis	NULL	v	NULL	B_GVf	AUX	3	idtext0078	être	P#1##s##	spk1	92.85	92.93	0.01	_
20091112_RATP_SCD_0983	47	3	navrée	NULL	vppart	NULL	I_GVf	ROOT	0	idtext0078	navrer	K##f#s##	spk1	92.94	93.08	0.01	_
20091112_RATP_SCD_0983	47	4	bonne	NULL	adj	NULL	B_GN	MOD	5	idtext0078	bon	##f#s##	spk1	93.09	93.18	0.01	_
20091112_RATP_SCD_0983	47	5	journée	NULL	nc	NULL	I_GN	ATS	3	idtext0078	journée	##f#s##	spk1	93.19	93.41	?	//

20091112_RATP_SCD_0983	48	1	merci	NULL	adv	NULL	B_GADV	NOLINK	0	idtext0079	merci	#####	spk2	93.5	93.9	0.01	/
20091112_RATP_SCD_0983	48	2	vous	NULL	pro	NULL	B_GN	NOLINK	0	idtext0079	vous	#####	spk2	93.91	94.07	0.01	_
20091112_RATP_SCD_0983	48	3	aussi	NULL	adv	NULL	B_GADV	MOD	4	idtext0079	aussi	#####	spk2	94.08	94.16	0.01	_
20091112_RATP_SCD_0983	48	4	au+revoir	NULL	adv	NULL	I_GADV	ROOT	0	idtext0079	au+revoir	#####	spk2	94.17	94.43	?	_

20091112_RATP_SCD_0983	49	1	au+revoir	NULL	adv	NULL	B_GADV	NOLINK	0	idtext0080	au+revoir	#####	spk1	93.49	94.43	?	//

