20091112_RATP_SCD_1204	1	1	NNAAMMEE	NULL	np	B_HU	B_GN	ROOT	0	idtext0000	ANONYM	NULL	spk1	2.3	2.68	0.10	_
20091112_RATP_SCD_1204	1	2	va	NULL	v	NULL	B_GVf	ROOT	0	idtext0001	aller	P#3##s##	spk1	2.78	2.91	0.01	_
20091112_RATP_SCD_1204	1	3	vous	NULL	clo	NULL	B_GN	A_OBJ	4	idtext0001	cln	#2##p##	spk1	2.92	3.17	0.01	_
20091112_RATP_SCD_1204	1	4	répondre	NULL	vinf	NULL	B_GVi	OBJ	2	idtext0001	répondre	W#####	spk1	3.18	3.62	?	//

20091112_RATP_SCD_1204	2	1	NNAAMMEE	NULL	np	B_HU	B_GN	ROOT	0	idtext0002	ANONYM	NULL	spk2	7.18	7.53	0.04	_
20091112_RATP_SCD_1204	2	2	bonsoir	NULL	nc	NULL	B_GN	NOLINK	0	idtext0003	bonsoir	##m#s##	spk2	7.57	8.38	?	//

20091112_RATP_SCD_1204	3	1	oui	NULL	adv	NULL	B_GADV	NOLINK	0	idtext0004	oui	#####	spk3	8.42	8.55	0.01	_
20091112_RATP_SCD_1204	3	2	bonsoir	NULL	nc	NULL	B_GN	NOLINK	0	idtext0004	bonsoir	##m#s##	spk3	8.56	9.02	?	//

20091112_RATP_SCD_1204	4	1	bonsoir	NULL	nc	NULL	B_GN	NOLINK	0	idtext0005	bonsoir	##m#s##	spk2	9.06	9.58	?	//

20091112_RATP_SCD_1204	5	1	voilà	DISF_M	pres	NULL	NULL	NOLINK	0	idtext0006	voilà	#####	spk3	9.62	9.76	0.01	_
20091112_RATP_SCD_1204	5	2	j'	NULL	cln	NULL	B_GN	SUJ	4	idtext0006	cln	#1##s##	spk3	9.77	9.84	0.01	_
20091112_RATP_SCD_1204	5	3	aurais	NULL	v	NULL	B_GVf	AUX	4	idtext0006	avoir	C#12##s##	spk3	9.85	9.95	0.01	_
20091112_RATP_SCD_1204	5	4	voulu	NULL	vppart	NULL	I_GVf	ROOT	0	idtext0006	vouloir	K##m#s##	spk3	9.96	10.07	0.01	_
20091112_RATP_SCD_1204	5	5	un	NULL	det	NULL	B_GN	DET	6	idtext0006	un	##m#s##i	spk3	10.08	10.12	0.01	_
20091112_RATP_SCD_1204	5	6	renseignement	NULL	nc	NULL	I_GN	OBJ	4	idtext0006	renseignement	##m#s##	spk3	10.13	11.24	0.04	_
20091112_RATP_SCD_1204	5	7	euh	DISF_M	pres	NULL	NULL	NOLINK	0	idtext0007	euh	#####	spk3	11.28	12.19	0.01	_
20091112_RATP_SCD_1204	5	8	pour	NULL	prep	NULL	B_GP	MOD	12	idtext0007	pour	#####	spk3	12.2	12.59	0.01	_
20091112_RATP_SCD_1204	5	9	euh	DISF_M	pres	NULL	NULL	NOLINK	0	idtext0007	euh	#####	spk3	12.6	13.42	0.01	_
20091112_RATP_SCD_1204	5	10	euh	DISF_M	pres	NULL	NULL	NOLINK	0	idtext0008	euh	#####	spk3	13.43	13.54	0.01	_
20091112_RATP_SCD_1204	5	11	je	NULL	cln	NULL	I_GP	SUJ	12	idtext0008	cln	#1##s##	spk3	13.55	13.67	0.01	_
20091112_RATP_SCD_1204	5	12	suis	NULL	v	NULL	B_GVf	ROOT	0	idtext0008	être	P#1##s##	spk3	13.68	13.97	0.01	_
20091112_RATP_SCD_1204	5	13	euh	DISF_M	pres	NULL	NULL	NOLINK	0	idtext0008	euh	#####	spk3	13.98	14.12	0.01	_
20091112_RATP_SCD_1204	5	14	actuellement	NULL	adv	NULL	B_GADV	MOD	12	idtext0008	actuellement	#####	spk3	14.13	14.81	0.01	_
20091112_RATP_SCD_1204	5	15	en	DISF_R	prep	NULL	NULL	NOLINK	0	idtext0008	en	#####	spk3	14.82	15.1	0.01	_
20091112_RATP_SCD_1204	5	16	en	NULL	prep	NULL	B_GP	P_OBJ	12	idtext0008	en	#####	spk3	15.11	15.28	0.01	_
20091112_RATP_SCD_1204	5	17	province	NULL	nc	NULL	I_GP	OBJ	16	idtext0008	province	##f#s##	spk3	15.29	15.89	0.04	_
20091112_RATP_SCD_1204	5	18	et	NULL	coo	NULL	B_NULL	ROOT	0	idtext0009	et	#####	spk3	15.93	16.1	0.01	_
20091112_RATP_SCD_1204	5	19	je	NULL	cln	NULL	B_GN	SUJ	20	idtext0009	cln	#1##s##	spk3	16.11	16.44	0.01	_
20091112_RATP_SCD_1204	5	20	vais	NULL	v	NULL	B_GVf	DEP_COORD	18	idtext0009	aller	P#1##s##	spk3	16.45	16.59	0.01	_
20091112_RATP_SCD_1204	5	21	aller	NULL	vinf	NULL	I_GVf	OBJ	20	idtext0009	aller	W#####	spk3	16.6	16.74	0.01	_
20091112_RATP_SCD_1204	5	22	à	DISF_R	prep	NULL	NULL	NOLINK	0	idtext0009	à	#####	spk3	16.75	16.81	0.01	_
20091112_RATP_SCD_1204	5	23	Paris	DISF_R	nc	NULL	NULL	NOLINK	0	idtext0009	Paris	##m#s##	spk3	16.82	17.01	0.01	_
20091112_RATP_SCD_1204	5	24	à	NULL	prep	NULL	B_GP	P_OBJ_LOC	21	idtext0009	à	#####	spk3	17.02	17.12	0.01	_
20091112_RATP_SCD_1204	5	25	Paris	NULL	nc	B_A	I_GP	OBJ	24	idtext0009	Paris	##m#s##	spk3	17.13	17.61	0.01	_
20091112_RATP_SCD_1204	5	26	pour	NULL	prep	NULL	B_GP	MOD	25	idtext0009	pour	#####	spk3	17.62	17.8	0.01	_
20091112_RATP_SCD_1204	5	27	aller	NULL	vinf	NULL	I_GP	OBJ	26	idtext0009	aller	W#####	spk3	17.81	17.96	0.01	_
20091112_RATP_SCD_1204	5	28	au	NULL	prep	NULL	B_GP	P_OBJ_LOC	27	idtext0009	au	#####	spk3	17.97	18.08	0.01	_
20091112_RATP_SCD_1204	5	29	parc	NULL	nc	NULL	I_GP	OBJ	28	idtext0009	parc	##m#s##	spk3	18.09	18.3	0.01	_
20091112_RATP_SCD_1204	5	30	Disney	NULL	nc	B_A	I_GP	MOD	29	idtext0009	Disney	#####	spk3	18.31	19.01	?	//

20091112_RATP_SCD_1204	6	1	oui	NULL	adv	NULL	B_GADV	NOLINK	0	idtext0010	oui	#####	spk2	19.06	19.27	?	//

20091112_RATP_SCD_1204	7	1	euh	DISF_M	pres	NULL	NULL	NOLINK	0	idtext0011	euh	#####	spk3	19.84	20.26	0.01	_
20091112_RATP_SCD_1204	7	2	donc	NULL	coo	NULL	B_NULL	ROOT	0	idtext0011	donc	#####	spk3	20.27	20.54	0.01	_
20091112_RATP_SCD_1204	7	3	j'	NULL	cln	NULL	B_GN	SUJ	5	idtext0011	cln	#1##s##	spk3	20.55	20.58	0.01	_
20091112_RATP_SCD_1204	7	4	aurais	NULL	v	NULL	B_GVf	AUX	5	idtext0011	avoir	C#12##s##	spk3	20.59	20.73	0.01	_
20091112_RATP_SCD_1204	7	5	voulu	NULL	vppart	NULL	I_GVf	DEP_COORD	2	idtext0011	vouloir	K##m#s##	spk3	20.74	20.99	0.01	_
20091112_RATP_SCD_1204	7	6	savoir	NULL	vinf	NULL	B_GVi	OBJ	5	idtext0011	savoir	W#####	spk3	21.0	21.56	0.01	_
20091112_RATP_SCD_1204	7	7	au+niveau+du	NULL	prep	NULL	B_NULL	MOD	6	idtext0011	au+niveau+du	#####	spk3	21.57	23.07	0.01	_
20091112_RATP_SCD_1204	7	8	euh	DISF_M	pres	NULL	NULL	NOLINK	0	idtext0011	euh	#####	spk3	23.08	23.15	0.04	_
20091112_RATP_SCD_1204	7	9	comment	NULL	adv	NULL	B_GADV	MOD	12	idtext0012	comment	#####	spk3	23.19	23.35	0.01	_
20091112_RATP_SCD_1204	7	10	ça	NULL	pro	NULL	B_GN	SUJ_IMP	12	idtext0012	ça	#####	spk3	23.36	23.52	0.01	_
20091112_RATP_SCD_1204	7	11	se	NULL	clr	NULL	B_GVf	AFF	12	idtext0012	se	#####	spk3	23.53	23.6	0.01	_
20091112_RATP_SCD_1204	7	12	passait	NULL	v	NULL	I_GVf	ROOT	0	idtext0012	passer	I#3##s##	spk3	23.61	23.87	0.01	_
20091112_RATP_SCD_1204	7	13	est-ce+qu'	NULL	pri	NULL	B_NULL	OBJ	12	idtext0012	est-ce+qu'	#####	spk3	23.88	24.08	0.01	_
20091112_RATP_SCD_1204	7	14	on	NULL	cln	NULL	B_GN	SUJ	15	idtext0012	cln	#3##s##	spk3	24.09	24.18	0.01	_
20091112_RATP_SCD_1204	7	15	pouvait	NULL	v	NULL	B_GVf	OBJ	13	idtext0012	pouvoir	I#3##s##	spk3	24.19	24.64	0.01	_
20091112_RATP_SCD_1204	7	16	euh	DISF_M	pres	NULL	NULL	NOLINK	0	idtext0012	euh	#####	spk3	24.65	25.04	0.01	_
20091112_RATP_SCD_1204	7	17	acheter	NULL	vinf	NULL	I_GVf	OBJ	15	idtext0012	acheter	W#####	spk3	25.05	25.61	0.01	_
20091112_RATP_SCD_1204	7	18	euh	DISF_M	pres	NULL	NULL	NOLINK	0	idtext0012	euh	#####	spk3	25.62	25.7	0.01	_
20091112_RATP_SCD_1204	7	19	les	DISF_R	det	NULL	NULL	NOLINK	0	idtext0012	le	###p##d	spk3	25.71	26.23	0.01	_
20091112_RATP_SCD_1204	7	20	les	DISF_R	det	NULL	NULL	NOLINK	0	idtext0012	le	###p##d	spk3	26.24	26.51	0.01	_
20091112_RATP_SCD_1204	7	21	les	NULL	det	NULL	B_GN	DET	22	idtext0012	le	###p##d	spk3	26.52	26.62	0.01	_
20091112_RATP_SCD_1204	7	22	transports	NULL	nc	NULL	I_GN	OBJ	15	idtext0012	transport	##m#p##	spk3	26.63	27.46	0.04	_
20091112_RATP_SCD_1204	7	23	pour	NULL	prep	NULL	B_GP	ROOT	0	idtext0013	pour	#####	spk3	27.5	27.65	0.01	_
20091112_RATP_SCD_1204	7	24	aller	NULL	vinf	NULL	I_GP	OBJ	23	idtext0013	aller	W#####	spk3	27.66	27.9	0.01	_
20091112_RATP_SCD_1204	7	25	de	NULL	prep	NULL	B_GP	P_OBJ_LOC	24	idtext0013	de	#####	spk3	27.91	28.51	0.01	_
20091112_RATP_SCD_1204	7	26	euh	DISF_M	pres	NULL	NULL	NOLINK	0	idtext0013	euh	#####	spk3	28.52	28.55	0.01	_
20091112_RATP_SCD_1204	7	27	la	NULL	det	NULL	I_GP	DET	28	idtext0013	le	##m#s##d	spk3	28.56	28.69	0.01	_
20091112_RATP_SCD_1204	7	28	gare	NULL	nc	B_A	I_GP	OBJ	25	idtext0013	gare	##f#s##	spk3	28.7	28.9	0.01	_
20091112_RATP_SCD_1204	7	29	d'	NULL	prep	I_A	I_GP	DEP	28	idtext0013	d'	#####	spk3	28.91	28.98	0.01	_
20091112_RATP_SCD_1204	7	30	Austerlitz	NULL	np	I_A	I_GP	OBJ	29	idtext0013	Austerlitz	#####	spk3	28.99	29.6	0.01	_
20091112_RATP_SCD_1204	7	31	à	DISF_R	prep	I_A	NULL	NOLINK	0	idtext0013	à	#####	spk3	29.61	30.4	0.01	_
20091112_RATP_SCD_1204	7	32	à	NULL	prep	NULL	B_GP	ROOT	0	idtext0014	à	#####	spk3	30.41	30.48	0.01	_
20091112_RATP_SCD_1204	7	33	Marne-la-Vallée	NULL	nc	B_A	I_GP	OBJ	32	idtext0014	Marne-la-Vallée	#####	spk3	30.49	31.53	0.08	_
20091112_RATP_SCD_1204	7	34	et	NULL	coo	NULL	B_NULL	ROOT	0	idtext0015	et	#####	spk3	31.61	31.63	0.01	_
20091112_RATP_SCD_1204	7	35	savoir	NULL	vinf	NULL	B_GVi	DEP_COORD	34	idtext0015	savoir	W#####	spk3	31.64	31.93	0.01	_
20091112_RATP_SCD_1204	7	36	ce+qui	NULL	prorel	NULL	B_NULL	SUJ	38	idtext0015	ce+qui	#####	spk3	31.94	32.12	0.01	_
20091112_RATP_SCD_1204	7	37	me	NULL	clo	NULL	B_GN	A_OBJ	38	idtext0015	cla	#1##s##	spk3	32.13	32.22	0.01	_
20091112_RATP_SCD_1204	7	38	fallait	NULL	v	NULL	B_GVf	OBJ	35	idtext0015	falloir	I#3##s##	spk3	32.23	32.5	0.01	_
20091112_RATP_SCD_1204	7	39	comme	NULL	adv	NULL	B_GADV	MOD	38	idtext0015	comme	#####	spk3	32.51	32.77	0.01	_
20091112_RATP_SCD_1204	7	40	billet	NULL	nc	NULL	B_GN	OBJ	39	idtext0015	billet	##m#s##	spk3	32.78	33.52	0.01	_
20091112_RATP_SCD_1204	7	41	et	NULL	coo	NULL	B_NULL	NOLINK	0	idtext0015	et	#####	spk3	33.53	33.55	0.01	_
20091112_RATP_SCD_1204	7	42	euh	DISF_M	pres	NULL	NULL	NOLINK	0	idtext0015	euh	#####	spk3	33.56	34.08	?	_

20091112_RATP_SCD_1204	8	1	alors	NULL	adv	NULL	B_GADV	NOLINK	0	idtext0016	alors	#####	spk2	34.61	35.01	?	//

20091112_RATP_SCD_1204	9	1	si	NULL	csu	NULL	B_NULL	ROOT	0	idtext0017	si	#####	spk3	34.45	34.5	0.01	_
20091112_RATP_SCD_1204	9	2	je	NULL	cln	NULL	B_GN	SUJ	3	idtext0017	cln	#1##s##	spk3	34.51	34.81	0.01	_
20091112_RATP_SCD_1204	9	3	pouvais	NULL	v	NULL	B_GVf	OBJ	1	idtext0017	pouvoir	I#12##s##	spk3	34.82	35.01	?	//

20091112_RATP_SCD_1204	10	1	éventuellement	NULL	adv	NULL	B_GADV	NOLINK	0	idtext0018	éventuellement	#####	spk3	35.06	35.53	0.01	_
20091112_RATP_SCD_1204	10	2	les	NULL	clo	NULL	B_GN	OBJ	3	idtext0018	cla	#3##p##	spk3	35.54	35.66	0.01	_
20091112_RATP_SCD_1204	10	3	prendre	NULL	vinf	NULL	B_GVi	ROOT	0	idtext0018	prendre	W#####	spk3	35.67	36.64	0.01	_
20091112_RATP_SCD_1204	10	4	euh	DISF_M	pres	NULL	NULL	NOLINK	0	idtext0018	euh	#####	spk3	36.65	36.88	?	//

20091112_RATP_SCD_1204	11	1	alors	NULL	adv	NULL	B_GADV	NOLINK	0	idtext0019	alors	#####	spk2	37.44	37.64	0.01	_
20091112_RATP_SCD_1204	11	2	c'	NULL	cln	NULL	B_GN	SUJ_IMP	3	idtext0019	ce	###s##	spk2	37.65	37.73	0.01	_
20091112_RATP_SCD_1204	11	3	est	NULL	v	NULL	B_GVf	ROOT	0	idtext0019	être	P#3##s##	spk2	37.74	37.77	0.01	_
20091112_RATP_SCD_1204	11	4	sûr	NULL	adj	NULL	B_GADJ	ATS	3	idtext0019	sûr	##m#s##	spk2	37.78	37.92	0.01	_
20091112_RATP_SCD_1204	11	5	que	NULL	csu	NULL	B_NULL	OBJ	4	idtext0019	que	#####	spk2	37.93	38.04	0.01	_
20091112_RATP_SCD_1204	11	6	les	NULL	det	NULL	B_GN	DET	7	idtext0019	le	###p##d	spk2	38.05	38.12	0.01	_
20091112_RATP_SCD_1204	11	7	billets	NULL	nc	NULL	I_GN	OBJ	11	idtext0019	billet	##m#p##	spk2	38.13	38.33	0.01	_
20091112_RATP_SCD_1204	11	8	on	NULL	cln	NULL	B_GN	SUJ_IMP	9	idtext0019	cln	#3##s##	spk2	38.34	38.52	0.01	_
20091112_RATP_SCD_1204	11	9	peut	NULL	v	NULL	B_GVf	ROOT	0	idtext0019	pouvoir	P#3##s##	spk2	38.53	38.59	0.01	_
20091112_RATP_SCD_1204	11	10	les	NULL	clo	NULL	B_GN	OBJ	11	idtext0019	cla	#3##p##	spk2	38.6	38.74	0.01	_
20091112_RATP_SCD_1204	11	11	prendre	NULL	vinf	NULL	B_GVi	OBJ	9	idtext0019	prendre	W#####	spk2	38.75	39.0	0.01	_
20091112_RATP_SCD_1204	11	12	à	NULL	prep	NULL	B_GP	MOD	11	idtext0019	à	#####	spk2	39.01	39.04	0.01	_
20091112_RATP_SCD_1204	11	13	l'	NULL	det	NULL	I_GP	DET	14	idtext0019	le	###s##d	spk2	39.05	39.07	0.01	_
20091112_RATP_SCD_1204	11	14	avance	NULL	nc	NULL	I_GP	OBJ	12	idtext0019	avance	##f#s##	spk2	39.08	39.74	?	//

20091112_RATP_SCD_1204	12	1	oui	NULL	adv	NULL	B_GADV	NOLINK	0	idtext0020	oui	#####	spk3	39.78	40.02	?	//

20091112_RATP_SCD_1204	13	1	bon	DISF_M	pres	NULL	NULL	NOLINK	0	idtext0021	bon	#####	spk2	40.7	40.88	0.01	_
20091112_RATP_SCD_1204	13	2	je	NULL	cln	NULL	B_GN	SUJ	3	idtext0021	cln	#1##s##	spk2	40.89	40.98	0.01	_
20091112_RATP_SCD_1204	13	3	sais	NULL	v	NULL	B_GVfn	ROOT	0	idtext0021	savoir	P#12##s##	spk2	40.99	41.04	0.01	_
20091112_RATP_SCD_1204	13	4	pas	NULL	advneg	NULL	I_GVfn	MOD	3	idtext0021	pas	#####	spk2	41.05	41.25	0.01	_
20091112_RATP_SCD_1204	13	5	si	NULL	csu	NULL	B_NULL	OBJ	3	idtext0021	si	#####	spk2	41.26	41.37	0.01	_
20091112_RATP_SCD_1204	13	6	c'	NULL	cln	NULL	B_GN	SUJ_IMP	7	idtext0021	ce	###s##	spk2	41.38	41.4	0.01	_
20091112_RATP_SCD_1204	13	7	était	NULL	v	NULL	B_GVf	OBJ	5	idtext0021	être	I#3##s##	spk2	41.41	41.81	0.01	_
20091112_RATP_SCD_1204	13	8	votre	NULL	det	NULL	B_GN	DET	9	idtext0021	votre	###s##o	spk2	41.82	42.02	0.01	_
20091112_RATP_SCD_1204	13	9	question	NULL	nc	NULL	I_GN	ATS	7	idtext0021	question	##f#s##	spk2	42.03	42.75	0.33	/
20091112_RATP_SCD_1204	13	10	on	NULL	cln	NULL	B_GN	SUJ_IMP	11	idtext0022	cln	#3##s##	spk2	43.08	43.17	0.01	_
20091112_RATP_SCD_1204	13	11	peut	NULL	v	NULL	B_GVf	ROOT	0	idtext0022	pouvoir	P#3##s##	spk2	43.18	43.32	0.01	_
20091112_RATP_SCD_1204	13	12	les	NULL	clo	NULL	B_GN	OBJ	13	idtext0022	cla	#3##p##	spk2	43.33	43.58	0.01	_
20091112_RATP_SCD_1204	13	13	acheter	NULL	vinf	NULL	B_GVi	OBJ	11	idtext0022	acheter	W#####	spk2	43.59	44.07	0.01	_
20091112_RATP_SCD_1204	13	14	aussi	NULL	adv	NULL	B_GADV	MOD	13	idtext0022	aussi	#####	spk2	44.08	44.65	0.01	_
20091112_RATP_SCD_1204	13	15	euh	DISF_M	pres	NULL	NULL	NOLINK	0	idtext0022	euh	#####	spk2	44.66	44.95	0.01	_
20091112_RATP_SCD_1204	13	16	dans	NULL	prep	NULL	B_GP	P_OBJ_LOC	13	idtext0022	dans	#####	spk2	44.96	45.14	0.01	_
20091112_RATP_SCD_1204	13	17	n'+importe+quelle	NULL	det	NULL	I_GP	DET	18	idtext0022	n'+importe+quelle	#####	spk2	45.15	45.66	0.01	_
20091112_RATP_SCD_1204	13	18	station	NULL	nc	NULL	I_GP	OBJ	16	idtext0022	station	##f#s##	spk2	45.67	45.99	0.01	_
20091112_RATP_SCD_1204	13	19	de	NULL	prep	NULL	B_GP	DEP	18	idtext0022	de	#####	spk2	46.0	46.02	0.01	_
20091112_RATP_SCD_1204	13	20	métro	NULL	nc	NULL	I_GP	OBJ	19	idtext0022	métro	##m#s##	spk2	46.03	46.72	?	//

20091112_RATP_SCD_1204	14	1	oui	NULL	adv	NULL	B_GADV	NOLINK	0	idtext0023	oui	#####	spk3	46.79	47.04	?	//

20091112_RATP_SCD_1204	15	1	les	NULL	det	NULL	B_GN	DET	2	idtext0024	le	###p##d	spk2	47.41	47.62	0.01	_
20091112_RATP_SCD_1204	15	2	billets	NULL	nc	NULL	I_GN	ROOT	0	idtext0024	billet	##m#p##	spk2	47.63	48.24	0.01	_
20091112_RATP_SCD_1204	15	3	de	NULL	prep	NULL	B_GP	DEP	2	idtext0024	de	#####	spk2	48.25	48.39	0.01	_
20091112_RATP_SCD_1204	15	4	transport	NULL	nc	NULL	I_GP	OBJ	3	idtext0024	transport	##m#s##	spk2	48.4	48.88	0.01	_
20091112_RATP_SCD_1204	15	5	hein	DISF_M	pres	NULL	NULL	NOLINK	0	idtext0024	hein	#####	spk2	48.89	49.02	0.01	_
20091112_RATP_SCD_1204	15	6	pas	NULL	advneg	NULL	B_NULL	NOLINK	0	idtext0024	pas	#####	spk2	49.03	49.14	0.01	_
20091112_RATP_SCD_1204	15	7	les	NULL	det	NULL	B_GN	DET	8	idtext0024	le	###p##d	spk2	49.15	49.47	0.01	_
20091112_RATP_SCD_1204	15	8	billets	NULL	nc	NULL	I_GN	ROOT	0	idtext0024	billet	##m#p##	spk2	49.48	49.67	0.01	_
20091112_RATP_SCD_1204	15	9	d'	NULL	prep	NULL	B_GP	DEP	8	idtext0024	d'	#####	spk2	49.68	49.73	0.01	_
20091112_RATP_SCD_1204	15	10	entrée	NULL	nc	NULL	I_GP	OBJ	9	idtext0024	entrée	##f#s##	spk2	49.74	50.15	?	//

20091112_RATP_SCD_1204	16	1	non	DISF_R	adv	NULL	NULL	NOLINK	0	idtext0025	non	#####	spk3	50.19	50.3	0.01	_
20091112_RATP_SCD_1204	16	2	non	DISF_R	adv	NULL	NULL	NOLINK	0	idtext0025	non	#####	spk3	50.31	50.43	0.01	_
20091112_RATP_SCD_1204	16	3	non	NULL	adv	NULL	B_GADV	NOLINK	0	idtext0025	non	#####	spk3	50.44	50.59	0.01	_
20091112_RATP_SCD_1204	16	4	les	NULL	det	NULL	B_GN	DET	5	idtext0025	le	###p##d	spk3	50.6	50.71	0.01	_
20091112_RATP_SCD_1204	16	5	billets	NULL	nc	NULL	I_GN	SUJ	9	idtext0025	billet	##m#p##	spk3	50.72	50.88	0.01	_
20091112_RATP_SCD_1204	16	6	d'	NULL	prep	NULL	B_GP	DEP	5	idtext0025	d'	#####	spk3	50.89	50.95	0.01	_
20091112_RATP_SCD_1204	16	7	entrée	NULL	nc	NULL	I_GP	OBJ	6	idtext0025	entrée	##f#s##	spk3	50.96	51.19	0.01	//
20091112_RATP_SCD_1204	16	8	j'	NULL	cln	NULL	B_GN	SUJ	9	idtext0025	cln	#1##s##	spk3	51.2	51.28	0.01	_
20091112_RATP_SCD_1204	16	9	ai	NULL	v	NULL	B_GVf	ROOT	0	idtext0025	avoir	P#1##s##	spk3	51.29	51.34	0.01	_
20091112_RATP_SCD_1204	16	10	déjà	NULL	adv	NULL	B_GADV	NOLINK	0	idtext0025	déjà	#####	spk3	51.35	51.67	?	_

20091112_RATP_SCD_1204	17	1	ah	DISF_M	pres	NULL	NULL	NOLINK	0	idtext0026	ah	#####	spk2	51.73	52.07	0.01	_
20091112_RATP_SCD_1204	17	2	très+bien	NULL	adv	NULL	B_GADV	NOLINK	0	idtext0026	très+bien	#####	spk2	52.08	52.82	?	_

20091112_RATP_SCD_1204	18	1	c'	NULL	cln	NULL	B_GN	SUJ_IMP	2	idtext0027	ce	###s##	spk3	51.72	51.74	0.01	_
20091112_RATP_SCD_1204	18	2	est	NULL	v	NULL	B_GVf	ROOT	0	idtext0027	être	P#3##s##	spk3	51.75	51.77	0.01	_
20091112_RATP_SCD_1204	18	3	que	NULL	advneg	NULL	B_NULL	MOD	2	idtext0027	que	#####	spk3	51.78	52.06	0.01	_
20091112_RATP_SCD_1204	18	4	le	NULL	det	NULL	B_GN	DET	5	idtext0027	le	##m#s##d	spk3	52.07	52.09	0.01	_
20091112_RATP_SCD_1204	18	5	transport	NULL	nc	NULL	I_GN	ATS	2	idtext0027	transport	##m#s##	spk3	52.1	52.82	?	//

20091112_RATP_SCD_1204	19	1	donc	NULL	coo	NULL	B_NULL	ROOT	0	idtext0028	donc	#####	spk2	52.86	53.17	0.01	_
20091112_RATP_SCD_1204	19	2	les	NULL	det	NULL	B_GN	DET	3	idtext0028	le	###p##d	spk2	53.18	53.29	0.01	_
20091112_RATP_SCD_1204	19	3	transports	NULL	nc	NULL	I_GN	SUJ	5	idtext0028	transport	##m#p##	spk2	53.3	53.78	0.01	_
20091112_RATP_SCD_1204	19	4	on	NULL	cln	NULL	B_GN	SUJ_IMP	5	idtext0028	cln	#3##s##	spk2	53.79	54.07	0.01	_
20091112_RATP_SCD_1204	19	5	peut	NULL	v	NULL	B_GVf	DEP_COORD	1	idtext0028	pouvoir	P#3##s##	spk2	54.08	54.18	0.01	_
20091112_RATP_SCD_1204	19	6	les	NULL	clo	NULL	B_GN	OBJ	7	idtext0028	cla	#3##p##	spk2	54.19	54.33	0.01	_
20091112_RATP_SCD_1204	19	7	acheter	NULL	vinf	NULL	B_GVi	OBJ	5	idtext0028	acheter	W#####	spk2	54.34	54.56	0.01	_
20091112_RATP_SCD_1204	19	8	partout	NULL	adv	NULL	B_GADV	MOD	5	idtext0028	partout	#####	spk2	54.57	55.52	?	//

20091112_RATP_SCD_1204	20	1	d'accord	NULL	adv	NULL	B_GADV	NOLINK	0	idtext0029	d'accord	#####	spk3	55.56	56.17	0.01	_
20091112_RATP_SCD_1204	20	2	et	NULL	coo	NULL	B_NULL	ROOT	0	idtext0029	et	#####	spk3	56.18	56.47	0.01	_
20091112_RATP_SCD_1204	20	3	qu'est-ce+qu'	NULL	pri	NULL	B_NULL	OBJ	8	idtext0029	qu'est-ce+qu'	#####	spk3	56.48	56.79	0.01	_
20091112_RATP_SCD_1204	20	4	il	NULL	cln	NULL	B_GN	SUJ_IMP	5	idtext0029	cln	#3#m#s##	spk3	56.8	56.86	0.01	_
20091112_RATP_SCD_1204	20	5	faudrait	NULL	v	NULL	B_GVf	DEP_COORD	2	idtext0029	falloir	C#3##s##	spk3	56.87	57.13	0.01	_
20091112_RATP_SCD_1204	20	6	que	NULL	csu	NULL	B_NULL	OBJ	5	idtext0029	que	#####	spk3	57.14	57.16	0.01	_
20091112_RATP_SCD_1204	20	7	je	NULL	cln	NULL	B_GN	SUJ	8	idtext0029	cln	#1##s##	spk3	57.17	57.29	0.01	_
20091112_RATP_SCD_1204	20	8	prenne	NULL	v	NULL	B_GVf	OBJ	6	idtext0029	prendre	S#13##s##	spk3	57.3	58.14	?	//

20091112_RATP_SCD_1204	21	1	alors	NULL	adv	NULL	B_GADV	NOLINK	0	idtext0030	alors	#####	spk2	58.26	58.74	0.01	_
20091112_RATP_SCD_1204	21	2	vous	NULL	cln	NULL	B_GN	SUJ	3	idtext0030	cln	#2##p##	spk2	58.75	58.96	0.01	_
20091112_RATP_SCD_1204	21	3	êtes	NULL	v	NULL	B_GVf	ROOT	0	idtext0030	être	P#2##p##	spk2	58.97	59.33	0.01	_
20091112_RATP_SCD_1204	21	4	des	NULL	det	NULL	B_GN	DET	5	idtext0030	des	###p##i	spk2	59.34	59.53	0.01	_
20091112_RATP_SCD_1204	21	5	adultes	NULL	nc	NULL	I_GN	ATS	3	idtext0030	adulte	###p##	spk2	59.54	60.43	?	//

20091112_RATP_SCD_1204	22	1	alors	NULL	adv	NULL	B_GADV	NOLINK	0	idtext0031	alors	#####	spk3	60.47	60.81	0.01	_
20091112_RATP_SCD_1204	22	2	il	NULL	cln	NULL	B_GN	SUJ_IMP	4	idtext0031	cln	#3#m#s##	spk3	60.82	61.01	0.01	_
20091112_RATP_SCD_1204	22	3	y	NULL	clo	NULL	B_GN	AFF	4	idtext0031	y	#####	spk3	61.02	61.06	0.01	_
20091112_RATP_SCD_1204	22	4	a	NULL	v	NULL	B_GVf	ROOT	0	idtext0031	avoir	P#3##s##	spk3	61.07	61.39	0.01	_
20091112_RATP_SCD_1204	22	5	deux	NULL	adj	NULL	I_GP	MOD	6	idtext0031	deux	#####	spk3	61.4	61.81	0.01	_
20091112_RATP_SCD_1204	22	6	adultes	NULL	nc	NULL	I_GP	OBJ	4	idtext0031	adulte	###p##	spk3	61.82	63.01	0.04	_
20091112_RATP_SCD_1204	22	7	un	NULL	det	NULL	B_GN	DET	8	idtext0032	un	##m#s##i	spk3	63.05	63.23	0.01	_
20091112_RATP_SCD_1204	22	8	enfant	NULL	nc	NULL	I_GN	ROOT	0	idtext0032	enfant	###s##	spk3	63.24	63.57	0.01	_
20091112_RATP_SCD_1204	22	9	de	NULL	prep	NULL	B_GP	DEP	8	idtext0032	de	#####	spk3	63.58	63.73	0.01	_
20091112_RATP_SCD_1204	22	10	seize	NULL	nc	NULL	I_GP	OBJ	9	idtext0032	seize	##m###	spk3	63.74	64.16	0.01	_
20091112_RATP_SCD_1204	22	11	ans	NULL	nc	NULL	I_GP	MOD	8	idtext0032	an	##m#p##	spk3	64.17	64.32	0.01	_
20091112_RATP_SCD_1204	22	12	et	NULL	coo	NULL	B_NULL	COORD	11	idtext0032	et	#####	spk3	64.33	64.51	0.01	_
20091112_RATP_SCD_1204	22	13	un	NULL	det	NULL	B_GN	DET	14	idtext0032	un	##m#s##i	spk3	64.52	64.65	0.01	_
20091112_RATP_SCD_1204	22	14	enfant	NULL	nc	NULL	I_GN	DEP_COORD	12	idtext0032	enfant	###s##	spk3	64.66	65.08	0.01	_
20091112_RATP_SCD_1204	22	15	de	NULL	prep	NULL	B_GP	DEP	14	idtext0032	de	#####	spk3	65.09	65.31	0.01	_
20091112_RATP_SCD_1204	22	16	cinq	NULL	nc	NULL	I_GP	OBJ	15	idtext0032	cinq	##m###	spk3	65.32	65.57	0.01	_
20091112_RATP_SCD_1204	22	17	ans	NULL	nc	NULL	I_GP	DEP	8	idtext0032	an	##m#p##	spk3	65.58	66.11	?	//

20091112_RATP_SCD_1204	23	1	d'accord	NULL	adv	NULL	B_GADV	NOLINK	0	idtext0033	d'accord	#####	spk2	66.57	66.82	0.01	_
20091112_RATP_SCD_1204	23	2	donc	NULL	coo	NULL	B_NULL	ROOT	0	idtext0033	donc	#####	spk2	66.83	67.05	0.01	_
20091112_RATP_SCD_1204	23	3	pour	NULL	prep	NULL	B_GP	MOD	7	idtext0033	pour	#####	spk2	67.06	67.17	0.01	_
20091112_RATP_SCD_1204	23	4	le	NULL	det	NULL	I_GP	DET	5	idtext0033	le	##m#s##d	spk2	67.18	67.3	0.01	_
20091112_RATP_SCD_1204	23	5	petit	NULL	adj	NULL	I_GP	OBJ	3	idtext0033	petit	##m#s##	spk2	67.31	67.85	0.01	_
20091112_RATP_SCD_1204	23	6	ça	NULL	pro	NULL	I_GP	SUJ_IMP	7	idtext0033	ça	#####	spk2	67.86	67.96	0.01	_
20091112_RATP_SCD_1204	23	7	sera	NULL	v	NULL	B_GVf	DEP_COORD	2	idtext0033	être	F#3##s##	spk2	67.97	68.12	0.01	_
20091112_RATP_SCD_1204	23	8	demi-tarif	NULL	nc	NULL	B_GN	ATS	7	idtext0033	demi-tarif	##m#s##	spk2	68.13	68.94	?	//

20091112_RATP_SCD_1204	24	1	d'accord	NULL	adv	NULL	B_GADV	NOLINK	0	idtext0034	d'accord	#####	spk3	69.2	69.7	?	//

20091112_RATP_SCD_1204	25	1	et	NULL	coo	NULL	B_NULL	ROOT	0	idtext0035	et	#####	spk2	70.04	70.16	0.01	_
20091112_RATP_SCD_1204	25	2	pour	NULL	prep	NULL	B_GP	ROOT	0	idtext0035	pour	#####	spk2	70.17	70.35	0.01	_
20091112_RATP_SCD_1204	25	3	vous	NULL	pro	NULL	I_GP	OBJ	2	idtext0035	vous	#####	spk2	70.36	70.5	0.01	_
20091112_RATP_SCD_1204	25	4	trois	NULL	adj	NULL	I_GP	NOLINK	0	idtext0035	trois	#####	spk2	70.51	71.12	0.01	/
20091112_RATP_SCD_1204	25	5	c'	NULL	cln	NULL	B_GN	SUJ_IMP	6	idtext0035	ce	###s##	spk2	71.13	71.28	0.01	_
20091112_RATP_SCD_1204	25	6	est	NULL	v	NULL	B_GVf	DEP_COORD	1	idtext0035	être	P#3##s##	spk2	71.29	71.36	0.01	_
20091112_RATP_SCD_1204	25	7	du	NULL	prep	NULL	B_GP	ATS	6	idtext0035	du	#####	spk2	71.37	71.46	0.01	_
20091112_RATP_SCD_1204	25	8	plein	NULL	adj	NULL	I_GP	MOD	9	idtext0035	plein	##m#s##	spk2	71.47	71.67	0.01	_
20091112_RATP_SCD_1204	25	9	tarif	NULL	nc	NULL	I_GP	OBJ	7	idtext0035	tarif	##m#s##	spk2	71.68	72.33	?	//

20091112_RATP_SCD_1204	26	1	d'accord	NULL	adv	NULL	B_GADV	NOLINK	0	idtext0036	d'accord	#####	spk3	72.37	72.7	?	//

20091112_RATP_SCD_1204	27	1	euh	DISF_M	pres	NULL	NULL	NOLINK	0	idtext0037	euh	#####	spk2	73.47	73.72	0.01	_
20091112_RATP_SCD_1204	27	2	vous	NULL	cln	NULL	B_GN	SUJ	3	idtext0037	cln	#2##p##	spk2	73.73	73.83	0.01	_
20091112_RATP_SCD_1204	27	3	comptiez	NULL	v	NULL	B_GVf	ROOT	0	idtext0037	compter	I#2##p##	spk2	73.84	74.18	0.01	_
20091112_RATP_SCD_1204	27	4	faire	NULL	vinf	NULL	I_GVf	OBJ	3	idtext0037	faire	W#####	spk2	74.19	75.05	0.01	_
20091112_RATP_SCD_1204	27	5	la	DISF_R	det	NULL	NULL	NOLINK	0	idtext0037	le	##m#s##d	spk2	75.06	75.12	0.01	_
20091112_RATP_SCD_1204	27	6	l'	NULL	det	NULL	B_GN	DET	7	idtext0037	le	###s##d	spk2	75.13	75.2	0.01	_
20091112_RATP_SCD_1204	27	7	aller-retour	NULL	nc	NULL	I_GN	OBJ	3	idtext0037	aller-retour	##m#p##	spk2	75.21	75.54	0.01	_
20091112_RATP_SCD_1204	27	8	dans	NULL	prep	NULL	B_GP	MOD	7	idtext0037	dans	#####	spk2	75.55	75.64	0.01	_
20091112_RATP_SCD_1204	27	9	la	NULL	det	NULL	I_GP	DET	10	idtext0037	le	##m#s##d	spk2	75.65	75.7	0.01	_
20091112_RATP_SCD_1204	27	10	journée	NULL	nc	NULL	I_GP	OBJ	8	idtext0037	journée	##f#s##	spk2	75.71	76.55	?	//

20091112_RATP_SCD_1204	28	1	euh	DISF_M	pres	NULL	NULL	NOLINK	0	idtext0038	euh	#####	spk3	76.6	76.74	0.01	_
20091112_RATP_SCD_1204	28	2	non	NULL	adv	NULL	B_GADV	NOLINK	0	idtext0038	non	#####	spk3	76.75	77.01	0.01	_
20091112_RATP_SCD_1204	28	3	j'	NULL	cln	NULL	B_GN	SUJ	4	idtext0038	cln	#1##s##	spk3	77.02	77.11	0.01	_
20091112_RATP_SCD_1204	28	4	aurais	NULL	v	NULL	B_GVf	ROOT	0	idtext0038	avoir	C#12##s##	spk3	77.12	77.96	0.01	_
20091112_RATP_SCD_1204	28	5	euh	DISF_M	pres	NULL	NULL	NOLINK	0	idtext0038	euh	#####	spk3	77.97	78.03	0.01	_
20091112_RATP_SCD_1204	28	6	on	DISF_R	cln	NULL	NULL	NOLINK	0	idtext0038	cln	#3##s##	spk3	78.04	78.53	0.01	_
20091112_RATP_SCD_1204	28	7	on	NULL	cln	NULL	B_GN	SUJ_IMP	8	idtext0038	cln	#3##s##	spk3	78.54	78.65	0.01	_
20091112_RATP_SCD_1204	28	8	passe	NULL	v	NULL	B_GVf	ROOT	0	idtext0038	passer	PS#13##s##	spk3	78.66	78.91	0.01	_
20091112_RATP_SCD_1204	28	9	une	NULL	det	NULL	B_GN	DET	10	idtext0038	un	##f#s##i	spk3	78.92	79.11	0.01	_
20091112_RATP_SCD_1204	28	10	nuit	NULL	nc	NULL	I_GN	OBJ	8	idtext0038	nuit	##f#s##	spk3	79.12	79.46	0.01	_
20091112_RATP_SCD_1204	28	11	sur	NULL	prep	NULL	B_NULL	NOLINK	0	idtext0038	sur	#####	spk3	79.47	79.75	0.01	_
20091112_RATP_SCD_1204	28	12	euh	DISF_M	pres	NULL	NULL	NOLINK	0	idtext0038	euh	#####	spk3	79.76	80.39	?	//

20091112_RATP_SCD_1204	29	1	à	NULL	prep	NULL	B_GP	ROOT	0	idtext0039	à	#####	spk2	80.43	80.45	0.01	_
20091112_RATP_SCD_1204	29	2	Disney	NULL	nc	B_A	I_GP	OBJ	1	idtext0039	Disney	#####	spk2	80.46	81.17	?	//

20091112_RATP_SCD_1204	30	1	sur	NULL	prep	NULL	B_GP	MOD	6	idtext0040	sur	#####	spk3	81.24	81.44	0.01	_
20091112_RATP_SCD_1204	30	2	place	NULL	nc	NULL	I_GP	OBJ	1	idtext0040	place	##f#s##	spk3	81.45	81.86	0.01	_
20091112_RATP_SCD_1204	30	3	donc	NULL	coo	NULL	B_NULL	ROOT	0	idtext0040	donc	#####	spk3	81.87	82.23	0.01	_
20091112_RATP_SCD_1204	30	4	j'	NULL	cln	NULL	B_GN	SUJ	6	idtext0040	cln	#1##s##	spk3	82.24	82.36	0.01	_
20091112_RATP_SCD_1204	30	5	aurais	NULL	v	NULL	B_GVf	AUX	6	idtext0040	avoir	C#12##s##	spk3	82.37	82.53	0.01	_
20091112_RATP_SCD_1204	30	6	voulu	NULL	vppart	NULL	I_GVf	DEP_COORD	3	idtext0040	vouloir	K##m#s##	spk3	82.54	82.92	0.01	_
20091112_RATP_SCD_1204	30	7	euh	DISF_M	pres	NULL	NULL	NOLINK	0	idtext0040	euh	#####	spk3	82.93	83.37	?	//

20091112_RATP_SCD_1204	31	1	d'accord	NULL	adv	NULL	B_GADV	NOLINK	0	idtext0041	d'accord	#####	spk2	83.98	84.42	?	//

20091112_RATP_SCD_1204	32	1	avoir	NULL	vinf	NULL	B_GVi	ROOT	0	idtext0042	avoir	W#####	spk3	84.5	84.74	0.01	_
20091112_RATP_SCD_1204	32	2	euh	DISF_M	pres	NULL	NULL	NOLINK	0	idtext0042	euh	#####	spk3	84.75	85.3	0.01	_
20091112_RATP_SCD_1204	32	3	quelque+chose	NULL	pro	NULL	B_GN	OBJ	1	idtext0042	quelque+chose	#####	spk3	85.31	85.87	0.01	_
20091112_RATP_SCD_1204	32	4	qui	NULL	prorel	NULL	B_NULL	SUJ	5	idtext0042	qui	#####	spk3	85.88	86.1	0.01	_
20091112_RATP_SCD_1204	32	5	puisse	NULL	v	NULL	B_GVf	MOD_REL	3	idtext0042	pouvoir	S#1##s##	spk3	86.11	86.4	0.01	_
20091112_RATP_SCD_1204	32	6	se	NULL	clr	NULL	B_GVi	AFF	7	idtext0042	se	#####	spk3	86.41	86.54	0.01	_
20091112_RATP_SCD_1204	32	7	faire	NULL	vinf	NULL	I_GVi	OBJ	5	idtext0042	faire	W#####	spk3	86.55	86.74	0.01	_
20091112_RATP_SCD_1204	32	8	sur	NULL	prep	NULL	B_GP	P_OBJ	7	idtext0042	sur	#####	spk3	86.75	86.94	0.01	_
20091112_RATP_SCD_1204	32	9	deux	NULL	adj	NULL	I_GP	MOD	10	idtext0042	deux	#####	spk3	86.95	87.09	0.01	_
20091112_RATP_SCD_1204	32	10	jours	NULL	nc	NULL	I_GP	OBJ	8	idtext0042	jour	##m#p##	spk3	87.1	87.3	?	//

20091112_RATP_SCD_1204	33	1	hm	DISF_M	pres	NULL	NULL	NOLINK	0	idtext0043	hm	#####	spk2	88.37	89.19	0.01	//
20091112_RATP_SCD_1204	33	2	euh	DISF_M	pres	NULL	NULL	NOLINK	0	idtext0043	euh	#####	spk2	89.2	89.61	0.01	_
20091112_RATP_SCD_1204	33	3	vous	NULL	cln	NULL	B_GN	SUJ	4	idtext0044	cln	#2##p##	spk2	89.62	89.73	0.01	_
20091112_RATP_SCD_1204	33	4	allez	NULL	v	NULL	B_GVf	ROOT	0	idtext0044	aller	P#2##p##	spk2	89.74	89.9	0.01	_
20091112_RATP_SCD_1204	33	5	faire	NULL	vinf	NULL	I_GVf	OBJ	4	idtext0044	faire	W#####	spk2	89.91	90.08	0.01	_
20091112_RATP_SCD_1204	33	6	uniquement	NULL	adv	NULL	B_GADV	MOD	4	idtext0044	uniquement	#####	spk2	90.09	90.53	0.01	_
20091112_RATP_SCD_1204	33	7	ce	NULL	det	NULL	B_GN	DET	8	idtext0044	ce	##m#s##e	spk2	90.54	90.66	0.01	_
20091112_RATP_SCD_1204	33	8	trajet	NULL	nc	NULL	I_GN	MOD	4	idtext0044	trajet	##m#s##	spk2	90.67	91.75	0.01	_
20091112_RATP_SCD_1204	33	9	un	NULL	det	NULL	B_GN	DET	10	idtext0044	un	##m#s##i	spk2	91.76	91.9	0.01	_
20091112_RATP_SCD_1204	33	10	jour	NULL	nc	NULL	I_GN	MOD	4	idtext0044	jour	##m#s##	spk2	91.91	92.47	0.04	_
20091112_RATP_SCD_1204	33	11	et	NULL	coo	NULL	B_NULL	ROOT	0	idtext0045	et	#####	spk2	92.51	93.01	0.01	_
20091112_RATP_SCD_1204	33	12	euh	DISF_M	pres	NULL	NULL	NOLINK	0	idtext0045	euh	#####	spk2	93.02	93.15	0.01	_
20091112_RATP_SCD_1204	33	13	le	NULL	det	NULL	B_GN	DET	14	idtext0045	le	##m#s##d	spk2	93.16	93.23	0.01	_
20091112_RATP_SCD_1204	33	14	retour	NULL	nc	NULL	I_GN	DEP_COORD	11	idtext0045	retour	##m#s##	spk2	93.24	93.98	0.01	_
20091112_RATP_SCD_1204	33	15	euh	DISF_M	pres	NULL	NULL	NOLINK	0	idtext0045	euh	#####	spk2	93.99	94.1	?	//

20091112_RATP_SCD_1204	34	1	retour	DISF_R	nc	NULL	NULL	NOLINK	0	idtext0046	retour	##m#s##	spk3	94.14	94.3	0.01	_
20091112_RATP_SCD_1204	34	2	en+plus	NULL	adv	NULL	B_GADV	NOLINK	0	idtext0046	en+plus	#####	spk3	94.31	94.74	0.01	_
20091112_RATP_SCD_1204	34	3	le	NULL	det	NULL	B_GN	DET	4	idtext0046	le	##m#s##d	spk3	94.75	94.84	0.01	_
20091112_RATP_SCD_1204	34	4	retour	NULL	nc	NULL	I_GN	ROOT	0	idtext0046	retour	##m#s##	spk3	94.85	95.29	0.01	_
20091112_RATP_SCD_1204	34	5	je	GREF	cln	NULL	B_GN	SUJ	6	idtext0046	cln	#1##s##	spk3	95.3	95.41	0.01	_
20091112_RATP_SCD_1204	34	6	crois	GREF	v	NULL	B_GVf	ROOT	0	idtext0046	croire	P#12##s##	spk3	95.42	95.63	0.01	//
20091112_RATP_SCD_1204	34	7	qui	NULL	prorel	NULL	B_NULL	SUJ	8	idtext0046	qui	#####	spk3	95.64	95.79	0.01	_
20091112_RATP_SCD_1204	34	8	va	NULL	v	NULL	B_GVf	MOD_REL	4	idtext0046	aller	P#3##s##	spk3	95.8	95.93	0.01	_
20091112_RATP_SCD_1204	34	9	être	NULL	vinf	NULL	I_GVf	OBJ	8	idtext0046	être	W#####	spk3	95.94	96.31	0.01	_
20091112_RATP_SCD_1204	34	10	jusqu'à	NULL	prep	NULL	B_GP	P_OBJ_LOC	8	idtext0046	jusqu'à	#####	spk3	96.32	97.53	0.01	_
20091112_RATP_SCD_1204	34	11	euh	DISF_M	pres	NULL	NULL	NOLINK	0	idtext0046	euh	#####	spk3	97.54	97.56	0.01	_
20091112_RATP_SCD_1204	34	12	Montparnasse	NULL	nc	B_A	I_GP	OBJ	10	idtext0046	Montparnasse	#####	spk3	97.57	99.01	?	//

20091112_RATP_SCD_1204	35	1	d'accord	NULL	adv	NULL	B_GADV	NOLINK	0	idtext0047	d'accord	#####	spk2	99.71	100.11	?	//

20091112_RATP_SCD_1204	36	1	si	NULL	csu	NULL	B_NULL	NOLINK	0	idtext0048	si	#####	spk3	99.66	99.71	0.01	_
20091112_RATP_SCD_1204	36	2	mes	NULL	det	NULL	B_GN	DET	3	idtext0048	mon	###p##o	spk3	99.72	99.79	0.01	_
20091112_RATP_SCD_1204	36	3	souvenirs	NULL	nc	NULL	I_GN	ROOT	0	idtext0048	souvenir	##m#p##	spk3	99.8	100.11	?	//

20091112_RATP_SCD_1204	37	1	sont	NULL	v	NULL	B_GVf	ROOT	0	idtext0049	être	P#3##p##	spk3	100.16	100.24	0.01	_
20091112_RATP_SCD_1204	37	2	bons	NULL	adj	NULL	B_GADJ	ATS	1	idtext0049	bon	##m#p##	spk3	100.25	100.77	?	//

20091112_RATP_SCD_1204	38	1	donc	NULL	coo	NULL	B_NULL	ROOT	0	idtext0050	donc	#####	spk2	100.81	100.95	0.01	/
20091112_RATP_SCD_1204	38	2	ça	NULL	pro	NULL	B_GN	SUJ_IMP	3	idtext0050	ça	#####	spk2	100.96	101.07	0.01	_
20091112_RATP_SCD_1204	38	3	changera	NULL	v	NULL	B_GVf	DEP_COORD	1	idtext0050	changer	F#3##s##	spk2	101.08	101.53	0.01	_
20091112_RATP_SCD_1204	38	4	rien	NULL	pro	NULL	B_GN	OBJ	3	idtext0050	rien	#####	spk2	101.54	101.8	0.01	_
20091112_RATP_SCD_1204	38	5	hein	DISF_M	pres	NULL	NULL	NOLINK	0	idtext0050	hein	#####	spk2	101.81	102.18	?	//

20091112_RATP_SCD_1204	39	1	oui	NULL	adv	NULL	B_GADV	NOLINK	0	idtext0051	oui	#####	spk3	102.22	102.46	?	//

20091112_RATP_SCD_1204	40	1	enfin	NULL	adv	NULL	B_GADV	NOLINK	0	idtext0052	enfin	#####	spk2	102.95	103.07	0.01	_
20091112_RATP_SCD_1204	40	2	à	NULL	prep	NULL	B_GP	ROOT	0	idtext0052	à	#####	spk2	103.08	103.1	0.01	_
20091112_RATP_SCD_1204	40	3	partir	NULL	vinf	NULL	I_GP	OBJ	2	idtext0052	partir	W#####	spk2	103.11	103.35	0.01	_
20091112_RATP_SCD_1204	40	4	du	NULL	prep	NULL	B_GP	MOD	3	idtext0052	du	#####	spk2	103.36	103.43	0.01	_
20091112_RATP_SCD_1204	40	5	moment	NULL	nc	NULL	I_GP	OBJ	4	idtext0052	moment	##m#s##	spk2	103.44	103.55	0.01	//
20091112_RATP_SCD_1204	40	6	où	NULL	prorel	NULL	B_NULL	P_OBJ_LOC	8	idtext0052	où	#####	spk2	103.56	103.59	0.01	_
20091112_RATP_SCD_1204	40	7	vous	NULL	cln	NULL	B_GN	SUJ	8	idtext0052	cln	#2##p##	spk2	103.6	103.75	0.01	_
20091112_RATP_SCD_1204	40	8	prenez	NULL	v	NULL	B_GVf	MOD_REL	5	idtext0052	prendre	P#2##p##	spk2	103.76	103.98	0.01	_
20091112_RATP_SCD_1204	40	9	le	NULL	det	NULL	B_GN	DET	10	idtext0052	le	##m#s##d	spk2	103.99	104.03	0.01	_
20091112_RATP_SCD_1204	40	10	RER	NULL	nc	B_T	I_GN	OBJ	8	idtext0052	RER	#####	spk2	104.04	104.65	0.01	_
20091112_RATP_SCD_1204	40	11	forcément	NULL	adv	NULL	B_GADV	MOD	8	idtext0052	forcément	#####	spk2	104.66	104.99	0.01	_
20091112_RATP_SCD_1204	40	12	vous	NULL	cln	NULL	B_GN	SUJ	13	idtext0052	cln	#2##p##	spk2	105.0	105.07	0.01	_
20091112_RATP_SCD_1204	40	13	avez	NULL	v	NULL	B_GVf	ROOT	0	idtext0052	avoir	P#2##p##	spk2	105.08	105.3	0.01	_
20091112_RATP_SCD_1204	40	14	le	NULL	det	NULL	B_GN	DET	15	idtext0052	le	##m#s##d	spk2	105.31	105.37	0.01	_
20091112_RATP_SCD_1204	40	15	métro	NULL	nc	NULL	I_GN	OBJ	13	idtext0052	métro	##m#s##	spk2	105.38	105.98	0.01	_
20091112_RATP_SCD_1204	40	16	euh	DISF_M	pres	NULL	NULL	NOLINK	0	idtext0052	euh	#####	spk2	105.99	106.64	?	//

20091112_RATP_SCD_1204	41	1	le	NULL	det	NULL	B_GN	DET	2	idtext0053	le	##m#s##d	spk3	106.68	106.76	0.01	_
20091112_RATP_SCD_1204	41	2	métro	NULL	nc	NULL	I_GN	ROOT	0	idtext0053	métro	##m#s##	spk3	106.77	107.11	0.01	_
20091112_RATP_SCD_1204	41	3	oui	NULL	adv	NULL	B_GADV	NOLINK	0	idtext0053	oui	#####	spk3	107.12	107.37	?	//

20091112_RATP_SCD_1204	42	1	qui	NULL	prorel	NULL	B_NULL	SUJ	2	idtext0054	qui	#####	spk2	106.68	106.99	0.01	_
20091112_RATP_SCD_1204	42	2	suit	NULL	v	NULL	B_GVf	ROOT	0	idtext0054	suivre	P#3##s##	spk2	107.0	107.37	?	_

20091112_RATP_SCD_1204	43	1	en	NULL	prep	NULL	B_GP	MOD	5	idtext0055	en	#####	spk2	107.41	107.44	0.01	_
20091112_RATP_SCD_1204	43	2	correspondance	NULL	nc	NULL	I_GP	OBJ	1	idtext0055	correspondance	##f#s##	spk2	107.45	108.15	0.01	_
20091112_RATP_SCD_1204	43	3	c'	NULL	cln	NULL	B_GN	SUJ_IMP	5	idtext0055	ce	###s##	spk2	108.16	108.2	0.01	_
20091112_RATP_SCD_1204	43	4	est	NULL	v	NULL	B_GVf	AUX	5	idtext0055	être	P#3##s##	spk2	108.21	108.26	0.01	_
20091112_RATP_SCD_1204	43	5	compris	NULL	vppart	NULL	I_GVf	ROOT	0	idtext0055	comprendre	J#12##s##	spk2	108.27	108.89	0.52	_
20091112_RATP_SCD_1204	43	6	alors	NULL	adv	NULL	B_GADV	NOLINK	0	idtext0056	alors	#####	spk2	109.41	109.59	0.01	_
20091112_RATP_SCD_1204	43	7	le	NULL	det	NULL	B_GN	DET	8	idtext0056	le	##m#s##d	spk2	109.6	109.68	0.01	_
20091112_RATP_SCD_1204	43	8	prix	NULL	nc	NULL	I_GN	SUJ	17	idtext0056	prix	##m###	spk2	109.69	109.83	0.01	_
20091112_RATP_SCD_1204	43	9	du	NULL	prep	NULL	B_GP	DEP	8	idtext0056	du	#####	spk2	109.84	109.93	0.01	_
20091112_RATP_SCD_1204	43	10	billet	NULL	nc	NULL	I_GP	OBJ	9	idtext0056	billet	##m#s##	spk2	109.94	110.16	0.01	/
20091112_RATP_SCD_1204	43	11	pour	NULL	prep	NULL	B_GP	MOD	8	idtext0056	pour	#####	spk2	110.17	110.28	0.01	_
20091112_RATP_SCD_1204	43	12	Mickey	NULL	np	B_HU	I_GP	OBJ	11	idtext0056	Mickey	##m#s##	spk2	110.29	110.55	0.01	//
20091112_RATP_SCD_1204	43	13	je	NULL	cln	NULL	B_GN	SUJ	14	idtext0056	cln	#1##s##	spk2	110.56	110.62	0.01	_
20091112_RATP_SCD_1204	43	14	crois	NULL	v	NULL	B_GVf	ROOT	0	idtext0056	croire	P#12##s##	spk2	110.63	110.76	0.01	_
20091112_RATP_SCD_1204	43	15	que	NULL	csu	NULL	B_NULL	OBJ	14	idtext0056	que	#####	spk2	110.77	110.85	0.01	_
20091112_RATP_SCD_1204	43	16	c'	NULL	cln	NULL	B_GN	SUJ_IMP	17	idtext0056	ce	###s##	spk2	110.86	110.88	0.01	_
20091112_RATP_SCD_1204	43	17	est	NULL	v	NULL	B_GVf	OBJ	15	idtext0056	être	P#3##s##	spk2	110.89	111.04	0.01	_
20091112_RATP_SCD_1204	43	18	cinq	NULL	det	B_P	B_GN	DET	19	idtext0056	cinq	#####	spk2	111.05	111.23	0.01	_
20091112_RATP_SCD_1204	43	19	euros	NULL	nc	I_P	I_GN	ATS	17	idtext0056	euro	##m#p##	spk2	111.24	111.48	0.01	_
20091112_RATP_SCD_1204	43	20	soixante-cinq	NULL	adj	I_P	I_GN	MOD	19	idtext0056	soixante-cinq	#####	spk2	111.49	112.2	0.01	_
20091112_RATP_SCD_1204	43	21	il	NULL	cln	NULL	B_GN	SUJ_IMP	23	idtext0056	cln	#3#m#s##	spk2	112.21	112.26	0.01	_
20091112_RATP_SCD_1204	43	22	me	NULL	clo	NULL	B_GN	A_OBJ	23	idtext0056	cla	#1##s##	spk2	112.27	112.39	0.01	_
20091112_RATP_SCD_1204	43	23	semble	NULL	v	NULL	B_GVf	ROOT	0	idtext0056	sembler	PS#13##s##	spk2	112.4	112.62	0.01	_
20091112_RATP_SCD_1204	43	24	bien	NULL	adv	NULL	B_GADV	MOD	23	idtext0056	bien	#####	spk2	112.63	112.77	0.01	_
20091112_RATP_SCD_1204	43	25	je	NULL	cln	NULL	B_GN	SUJ	26	idtext0056	cln	#1##s##	spk2	112.78	112.86	0.01	_
20091112_RATP_SCD_1204	43	26	vais	NULL	v	NULL	B_GVf	ROOT	0	idtext0056	aller	P#1##s##	spk2	112.87	112.92	0.01	_
20091112_RATP_SCD_1204	43	27	vérifier	NULL	vinf	NULL	I_GVf	OBJ	26	idtext0056	vérifier	W#####	spk2	112.93	113.47	?	//

20091112_RATP_SCD_1204	44	1	hum	DISF_M	pres	NULL	NULL	NOLINK	0	idtext0057	hum	#####	spk2	120.15	120.89	0.01	//
20091112_RATP_SCD_1204	44	2	euh	DISF_M	pres	NULL	NULL	NOLINK	0	idtext0057	euh	#####	spk2	120.9	121.04	0.01	_
20091112_RATP_SCD_1204	44	3	alors	NULL	adv	NULL	B_GADV	NOLINK	0	idtext0057	alors	#####	spk2	121.05	121.19	0.01	_
20091112_RATP_SCD_1204	44	4	cinq+cent+soixante-cinq	NULL	nc	NULL	B_GN	NOLINK	0	idtext0057	cinq+cent+soixante-cinq	#####	spk2	121.2	121.79	0.01	_
20091112_RATP_SCD_1204	44	5	alors	NULL	adv	NULL	B_GADV	NOLINK	0	idtext0057	alors	#####	spk2	121.8	121.92	0.01	_
20091112_RATP_SCD_1204	44	6	il	NULL	cln	NULL	B_GN	SUJ_IMP	8	idtext0057	cln	#3#m#s##	spk2	121.93	121.98	0.01	_
20091112_RATP_SCD_1204	44	7	y	NULL	clo	NULL	B_GN	AFF	8	idtext0057	y	#####	spk2	121.99	122.01	0.01	_
20091112_RATP_SCD_1204	44	8	a	NULL	v	NULL	B_GVf	ROOT	0	idtext0057	avoir	P#3##s##	spk2	122.02	122.04	0.01	_
20091112_RATP_SCD_1204	44	9	peut-être	NULL	adv	NULL	B_GADV	MOD	8	idtext0057	peut-être	#####	spk2	122.05	122.37	0.01	_
20091112_RATP_SCD_1204	44	10	un	NULL	det	NULL	B_GN	DET	11	idtext0057	un	##m#s##i	spk2	122.38	122.4	0.01	_
20091112_RATP_SCD_1204	44	11	intérêt	NULL	nc	NULL	I_GN	OBJ	8	idtext0057	intérêt	##m#s##	spk2	122.41	122.93	?	//

20091112_RATP_SCD_1204	45	1	euh	DISF_M	pres	NULL	NULL	NOLINK	0	idtext0058	euh	#####	spk2	125.2	125.78	0.01	//
20091112_RATP_SCD_1204	45	2	ouais	NULL	adv	NULL	B_GADV	NOLINK	0	idtext0058	ouais	#####	spk2	125.79	126.12	0.01	_
20091112_RATP_SCD_1204	45	3	ah	DISF_M	pres	NULL	NULL	NOLINK	0	idtext0058	ah	#####	spk2	126.13	126.44	0.01	_
20091112_RATP_SCD_1204	45	4	six+cent+cinquante-cinq	NULL	nc	NULL	B_GN	NOLINK	0	idtext0058	six+cent+cinquante-cinq	#####	spk2	126.45	127.14	0.01	_
20091112_RATP_SCD_1204	45	5	pardon	DISF_M	pres	NULL	NULL	NOLINK	0	idtext0058	pardon	#####	spk2	127.15	128.08	0.04	_
20091112_RATP_SCD_1204	45	6	prix	NULL	nc	NULL	B_GN	ROOT	0	idtext0059	prix	##m###	spk2	128.12	128.3	0.01	_
20091112_RATP_SCD_1204	45	7	du	NULL	prep	NULL	B_GP	DEP	6	idtext0059	du	#####	spk2	128.31	128.36	0.01	_
20091112_RATP_SCD_1204	45	8	trajet	NULL	nc	NULL	I_GP	OBJ	7	idtext0059	trajet	##m#s##	spk2	128.37	128.95	0.01	_
20091112_RATP_SCD_1204	45	9	six+cent+cinquante+cinq	NULL	nc	NULL	I_GP	MOD	8	idtext0059	six+cent+cinquante+cinq	#####	spk2	128.96	130.41	?	//

20091112_RATP_SCD_1204	46	1	d'accord	NULL	adv	NULL	B_GADV	NOLINK	0	idtext0060	d'accord	#####	spk3	130.45	131.43	?	//

20091112_RATP_SCD_1204	47	1	donc	NULL	coo	NULL	B_NULL	ROOT	0	idtext0061	donc	#####	spk2	131.91	132.12	0.01	_
20091112_RATP_SCD_1204	47	2	il	NULL	cln	NULL	B_GN	SUJ_IMP	5	idtext0061	cln	#3#m#s##	spk2	132.13	132.21	0.01	_
20091112_RATP_SCD_1204	47	3	vous	NULL	clo	NULL	B_GN	A_OBJ	5	idtext0061	cln	#2##p##	spk2	132.22	132.41	0.01	_
20091112_RATP_SCD_1204	47	4	en	NULL	clo	NULL	B_GN	DE_OBJ	5	idtext0061	en	#####	spk2	132.42	132.48	0.01	_
20091112_RATP_SCD_1204	47	5	faut	NULL	v	NULL	B_GVf	DEP_COORD	1	idtext0061	falloir	P#3##s##	spk2	132.49	132.96	0.01	_
20091112_RATP_SCD_1204	47	6	au+moins	NULL	adv	NULL	B_GADV	MOD	5	idtext0061	au+moins	#####	spk2	132.97	133.53	0.01	_
20091112_RATP_SCD_1204	47	7	six	NULL	nc	NULL	B_GN	OBJ	5	idtext0061	six	##m###	spk2	133.54	133.84	0.01	_
20091112_RATP_SCD_1204	47	8	tickets	NULL	nc	NULL	I_GN	MOD	7	idtext0061	ticket	##m#p##	spk2	133.85	134.11	?	//

20091112_RATP_SCD_1204	48	1	oui	NULL	adv	NULL	B_GADV	NOLINK	0	idtext0062	oui	#####	spk3	134.76	134.89	?	//

20091112_RATP_SCD_1204	49	1	c'	NULL	cln	NULL	B_GN	SUJ_IMP	2	idtext0063	ce	###s##	spk2	135.93	136.02	0.01	_
20091112_RATP_SCD_1204	49	2	est	NULL	v	NULL	B_GVf	ROOT	0	idtext0063	être	P#3##s##	spk2	136.03	136.05	0.01	_
20091112_RATP_SCD_1204	49	3	ça	NULL	pro	NULL	B_GN	ATS	2	idtext0063	ça	#####	spk2	136.06	136.13	0.01	_
20091112_RATP_SCD_1204	49	4	hein	DISF_M	pres	NULL	NULL	NOLINK	0	idtext0063	hein	#####	spk2	136.14	136.86	?	//

20091112_RATP_SCD_1204	50	1	euh	DISF_M	pres	NULL	NULL	NOLINK	0	idtext0064	euh	#####	spk3	136.93	136.95	0.01	_
20091112_RATP_SCD_1204	50	2	six	NULL	nc	NULL	B_GN	NOLINK	0	idtext0064	six	##m###	spk3	136.96	137.45	0.01	//
20091112_RATP_SCD_1204	50	3	euh	DISF_M	pres	NULL	NULL	NOLINK	0	idtext0064	euh	#####	spk3	137.46	137.93	0.01	_
20091112_RATP_SCD_1204	50	4	oui	NULL	adv	NULL	B_GADV	MOD	5	idtext0064	oui	#####	spk3	137.94	138.13	0.01	_
20091112_RATP_SCD_1204	50	5	plus	NULL	adv	NULL	I_GADV	ROOT	0	idtext0064	plus	#####	spk3	138.14	138.38	0.01	_
20091112_RATP_SCD_1204	50	6	deux	NULL	nc	NULL	B_GN	ROOT	0	idtext0064	deux	##m###	spk3	138.39	138.54	0.01	_
20091112_RATP_SCD_1204	50	7	demis	NULL	nc	NULL	I_GN	MOD	6	idtext0064	demi	##m#p##	spk3	138.55	138.98	?	//

20091112_RATP_SCD_1204	51	1	voilà	DISF_M	pres	NULL	NULL	NOLINK	0	idtext0065	voilà	#####	spk2	139.78	140.21	0.01	_
20091112_RATP_SCD_1204	51	2	le	NULL	det	NULL	B_GN	DET	3	idtext0065	le	##m#s##d	spk2	140.22	140.42	0.01	_
20091112_RATP_SCD_1204	51	3	demi	NULL	nc	NULL	I_GN	SUJ	5	idtext0065	demi	##m#s##	spk2	140.43	140.66	0.01	_
20091112_RATP_SCD_1204	51	4	c'	NULL	cln	NULL	B_GN	SUJ_IMP	5	idtext0065	ce	###s##	spk2	140.67	140.77	0.01	_
20091112_RATP_SCD_1204	51	5	est	NULL	v	NULL	B_GVf	ROOT	0	idtext0065	être	P#3##s##	spk2	140.78	140.83	0.01	_
20091112_RATP_SCD_1204	51	6	trois+cent+vingt-cinq	NULL	nc	NULL	B_GN	ATS	5	idtext0065	trois+cent+vingt-cinq	#####	spk2	140.84	141.78	?	//

20091112_RATP_SCD_1204	52	1	ouais	NULL	adv	NULL	B_GADV	NOLINK	0	idtext0066	ouais	#####	spk3	141.85	142.38	?	//

20091112_RATP_SCD_1204	53	1	alors	NULL	adv	NULL	B_GADV	NOLINK	0	idtext0067	alors	#####	spk2	142.45	142.94	0.01	_
20091112_RATP_SCD_1204	53	2	vous	NULL	cln	NULL	B_GN	SUJ	3	idtext0067	cln	#2##p##	spk2	142.95	143.01	0.01	_
20091112_RATP_SCD_1204	53	3	avez	NULL	v	NULL	B_GVf	ROOT	0	idtext0067	avoir	P#2##p##	spk2	143.02	143.16	0.01	_
20091112_RATP_SCD_1204	53	4	une	NULL	det	NULL	B_GN	DET	5	idtext0067	un	##f#s##i	spk2	143.17	143.24	0.01	_
20091112_RATP_SCD_1204	53	5	calculette	NULL	nc	NULL	I_GN	OBJ	3	idtext0067	calculette	##f#s##	spk2	143.25	143.71	0.01	_
20091112_RATP_SCD_1204	53	6	non	NULL	adv	NULL	B_GADV	NOLINK	0	idtext0067	non	#####	spk2	143.72	143.82	?	_

20091112_RATP_SCD_1204	54	1	non	NULL	adv	NULL	B_GADV	NOLINK	0	idtext0068	non	#####	spk3	145.33	145.89	0.01	_
20091112_RATP_SCD_1204	54	2	mais	NULL	coo	NULL	B_NULL	NOLINK	0	idtext0068	mais	#####	spk3	145.9	146.1	0.01	_
20091112_RATP_SCD_1204	54	3	bon	DISF_M	pres	NULL	NULL	NOLINK	0	idtext0068	bon	#####	spk3	146.11	146.79	0.01	_
20091112_RATP_SCD_1204	54	4	euh	DISF_M	pres	NULL	NULL	NOLINK	0	idtext0068	euh	#####	spk3	146.8	147.01	?	//

20091112_RATP_SCD_1204	55	1	trois+mille+neuf+cent+trente	NULL	nc	NULL	B_GN	NOLINK	0	idtext0069	trois+mille+neuf+cent+trente	#####	spk2	156.9	157.94	?	_

20091112_RATP_SCD_1204	56	1	oui	NULL	adv	NULL	B_GADV	NOLINK	0	idtext0070	oui	#####	spk3	157.98	158.82	?	//

20091112_RATP_SCD_1204	57	1	plus	NULL	adv	NULL	B_GADV	NOLINK	0	idtext0071	plus	#####	spk3	159.16	159.44	?	//

20091112_RATP_SCD_1204	58	1	pour	NULL	prep	NULL	B_GP	ROOT	0	idtext0072	pour	#####	spk2	159.48	159.62	0.01	_
20091112_RATP_SCD_1204	58	2	vous	NULL	clo	NULL	I_GP	OBJ	1	idtext0072	cln	#2##p##	spk2	159.63	160.17	?	_

20091112_RATP_SCD_1204	59	1	oui	NULL	adv	NULL	B_GADV	NOLINK	0	idtext0073	oui	#####	spk3	160.21	160.33	?	//

20091112_RATP_SCD_1204	60	1	plus	NULL	adv	NULL	B_GADV	NOLINK	0	idtext0074	plus	#####	spk2	161.19	161.68	0.01	_
20091112_RATP_SCD_1204	60	2	euh	DISF_M	pres	NULL	NULL	NOLINK	0	idtext0074	euh	#####	spk2	161.69	162.37	?	//

20091112_RATP_SCD_1204	61	1	six+cent+cinquante	NULL	nc	NULL	B_GN	NOLINK	0	idtext0075	six+cent+cinquante	#####	spk3	162.41	163.37	?	_

20091112_RATP_SCD_1204	62	1	six+cent+cinquante	NULL	nc	NULL	B_GN	NOLINK	0	idtext0076	six+cent+cinquante	#####	spk2	162.41	163.37	?	_

20091112_RATP_SCD_1204	63	1	ça	NULL	pro	NULL	B_GN	SUJ_IMP	2	idtext0077	ça	#####	spk2	164.5	164.58	0.01	_
20091112_RATP_SCD_1204	63	2	fait	NULL	v	NULL	B_GVf	ROOT	0	idtext0077	faire	P#3##s##	spk2	164.59	164.78	0.01	_
20091112_RATP_SCD_1204	63	3	cinq+mille+cinq+cent+quatre-vingts	NULL	nc	NULL	B_GN	OBJ	2	idtext0077	cinq+mille+cinq+cent+quatre-vingts	#####	spk2	164.79	166.16	?	_

20091112_RATP_SCD_1204	64	1	c'	NULL	cln	NULL	B_GN	SUJ_IMP	2	idtext0078	ce	###s##	spk2	167.17	167.19	0.01	_
20091112_RATP_SCD_1204	64	2	est	NULL	v	NULL	B_GVf	ROOT	0	idtext0078	être	P#3##s##	spk2	167.2	167.22	0.01	_
20091112_RATP_SCD_1204	64	3	ça	NULL	pro	NULL	B_GN	ATS	2	idtext0078	ça	#####	spk2	167.23	167.32	0.01	_
20091112_RATP_SCD_1204	64	4	hein	DISF_M	pres	NULL	NULL	NOLINK	0	idtext0078	hein	#####	spk2	167.33	167.91	?	//

20091112_RATP_SCD_1204	65	1	euh	DISF_M	pres	NULL	NULL	NOLINK	0	idtext0079	euh	#####	spk3	167.95	168.12	0.01	_
20091112_RATP_SCD_1204	65	2	oui	NULL	adv	NULL	B_GADV	NOLINK	0	idtext0079	oui	#####	spk3	168.13	169.04	?	_

20091112_RATP_SCD_1204	66	1	et	NULL	coo	NULL	B_NULL	ROOT	0	idtext0080	et	#####	spk2	170.01	170.13	0.01	_
20091112_RATP_SCD_1204	66	2	si	NULL	csu	NULL	B_NULL	DEP_COORD	1	idtext0080	si	#####	spk2	170.14	170.3	0.01	_
20091112_RATP_SCD_1204	66	3	on	NULL	cln	NULL	B_GN	SUJ_IMP	4	idtext0080	cln	#3##s##	spk2	170.31	170.46	0.01	_
20091112_RATP_SCD_1204	66	4	prend	NULL	v	NULL	B_GVf	OBJ	2	idtext0080	prendre	P#3##s##	spk2	170.47	170.78	0.01	_
20091112_RATP_SCD_1204	66	5	six+cent+cinquante-cinq	NULL	nc	NULL	B_GN	OBJ	4	idtext0080	six+cent+cinquante-cinq	#####	spk2	170.79	171.74	0.01	_
20091112_RATP_SCD_1204	66	6	en	NULL	prep	NULL	B_GP	MOD	4	idtext0080	en	#####	spk2	171.75	171.82	0.01	_
20091112_RATP_SCD_1204	66	7	carnet	NULL	nc	NULL	I_GP	OBJ	6	idtext0080	carnet	##m#s##	spk2	171.83	172.54	0.04	_
20091112_RATP_SCD_1204	66	8	six	NULL	nc	NULL	B_GN	ROOT	0	idtext0081	six	##m###	spk2	172.58	172.66	0.01	_
20091112_RATP_SCD_1204	66	9	fois	NULL	nc	NULL	I_GN	MOD	8	idtext0081	foi	##f#p##	spk2	172.67	172.87	0.01	_
20091112_RATP_SCD_1204	66	10	huit	NULL	nc	NULL	B_GN	ROOT	0	idtext0081	huit	##m###	spk2	172.88	173.22	0.01	_
20091112_RATP_SCD_1204	66	11	sur	NULL	prep	NULL	B_GP	ROOT	0	idtext0081	sur	#####	spk2	173.23	173.34	0.01	_
20091112_RATP_SCD_1204	66	12	cinquante	NULL	nc	NULL	I_GP	OBJ	11	idtext0081	cinquante	##m###	spk2	173.35	173.61	0.01	_
20091112_RATP_SCD_1204	66	13	six	NULL	nc	NULL	I_GP	P_OBJ	10	idtext0081	six	##m###	spk2	173.62	173.7	0.01	_
20091112_RATP_SCD_1204	66	14	fois	NULL	nc	NULL	B_GN	NOLINK	0	idtext0081	foi	##f#p##	spk2	173.71	173.8	0.01	_
20091112_RATP_SCD_1204	66	15	cinq	NULL	nc	NULL	B_GN	ROOT	0	idtext0081	cinq	##m###	spk2	173.81	174.07	0.01	/
20091112_RATP_SCD_1204	66	16	quarante-quatre	NULL	nc	NULL	I_GN	MOD	15	idtext0081	quarante-quatre	#####	spk2	174.08	174.51	0.01	_
20091112_RATP_SCD_1204	66	17	six	NULL	nc	NULL	B_GN	ROOT	0	idtext0081	six	##m###	spk2	174.52	174.64	0.01	_
20091112_RATP_SCD_1204	66	18	fois	NULL	nc	NULL	I_GN	MOD	17	idtext0081	foi	##f#p##	spk2	174.65	174.77	0.01	_
20091112_RATP_SCD_1204	66	19	six	NULL	nc	NULL	B_GN	ROOT	0	idtext0081	six	##m###	spk2	174.78	175.32	0.01	_
20091112_RATP_SCD_1204	66	20	quarante-huit	NULL	nc	NULL	I_GN	MOD	19	idtext0081	quarante-huit	#####	spk2	175.33	176.27	?	//

20091112_RATP_SCD_1204	67	1	quatre+mille+huit+cent+cinquante-deux	NULL	nc	NULL	B_GN	NOLINK	0	idtext0082	quatre+mille+huit+cent+cinquante-deux	#####	spk2	178.6	179.72	?	_

20091112_RATP_SCD_1204	68	1	cinq+mille+deux+cent+quarante	NULL	nc	NULL	B_GN	NOLINK	0	idtext0083	cinq+mille+deux+cent+quarante	#####	spk2	180.62	181.39	0.04	_
20091112_RATP_SCD_1204	68	2	oui	NULL	adv	NULL	B_GADV	NOLINK	0	idtext0084	oui	#####	spk2	181.43	181.85	0.01	_
20091112_RATP_SCD_1204	68	3	donc	NULL	coo	NULL	B_NULL	NOLINK	0	idtext0084	donc	#####	spk2	181.86	182.03	0.01	_
20091112_RATP_SCD_1204	68	4	autant	NULL	adv	NULL	B_GVi	MOD	5	idtext0084	autant	#####	spk2	182.04	182.28	0.01	_
20091112_RATP_SCD_1204	68	5	acheter	NULL	vinf	NULL	I_GVi	ROOT	0	idtext0084	acheter	W#####	spk2	182.29	182.72	0.01	_
20091112_RATP_SCD_1204	68	6	euh	DISF_M	pres	NULL	NULL	NOLINK	0	idtext0084	euh	#####	spk2	182.73	183.59	0.01	_
20091112_RATP_SCD_1204	68	7	un	NULL	det	NULL	B_GN	DET	8	idtext0085	un	##m#s##i	spk2	183.6	183.68	0.01	_
20091112_RATP_SCD_1204	68	8	carnet	NULL	nc	NULL	I_GN	OBJ	5	idtext0085	carnet	##m#s##	spk2	183.69	184.05	?	//

20091112_RATP_SCD_1204	69	1	euh	DISF_M	pres	NULL	NULL	NOLINK	0	idtext0086	euh	#####	spk2	186.01	186.25	0.01	/
20091112_RATP_SCD_1204	69	2	parce+que	NULL	csu	NULL	B_NULL	ROOT	0	idtext0086	parce+que	#####	spk2	186.26	186.51	0.01	_
20091112_RATP_SCD_1204	69	3	quand	DISF_R	csu	NULL	NULL	NOLINK	0	idtext0086	quand	#####	spk2	186.52	186.62	0.01	_
20091112_RATP_SCD_1204	69	4	vous	DISF_R	cln	NULL	NULL	NOLINK	0	idtext0086	cln	#2##p##	spk2	186.63	186.68	0.01	_
20091112_RATP_SCD_1204	69	5	allez	DISF_R	v	NULL	NULL	NOLINK	0	idtext0086	aller	P#2##p##	spk2	186.69	186.99	0.01	_
20091112_RATP_SCD_1204	69	6	quand	NULL	csu	NULL	B_NULL	OBJ	2	idtext0086	quand	#####	spk2	187.0	187.13	0.01	_
20091112_RATP_SCD_1204	69	7	vous	NULL	cln	NULL	B_GN	SUJ	8	idtext0086	cln	#2##p##	spk2	187.14	187.19	0.01	_
20091112_RATP_SCD_1204	69	8	allez	NULL	v	NULL	B_GVf	OBJ	6	idtext0086	aller	P#2##p##	spk2	187.2	187.35	0.01	_
20091112_RATP_SCD_1204	69	9	acheter	NULL	vinf	NULL	I_GVf	OBJ	8	idtext0086	acheter	W#####	spk2	187.36	188.01	?	//

20091112_RATP_SCD_1204	70	1	oui	NULL	adv	NULL	B_GADV	NOLINK	0	idtext0087	oui	#####	spk3	188.08	188.19	?	//

20091112_RATP_SCD_1204	71	1	ce	NULL	det	NULL	B_NULL	NOLINK	0	idtext0088	ce	##m#s##e	spk2	188.05	188.19	?	//

20091112_RATP_SCD_1204	72	1	titre	NULL	nc	NULL	B_GN	ROOT	0	idtext0089	titre	##m#s##	spk2	188.23	188.34	0.01	_
20091112_RATP_SCD_1204	72	2	de	NULL	prep	NULL	B_GP	DEP	1	idtext0089	de	#####	spk2	188.35	188.37	0.01	_
20091112_RATP_SCD_1204	72	3	transport	NULL	nc	NULL	I_GP	OBJ	2	idtext0089	transport	##m#s##	spk2	188.38	188.78	0.01	_
20091112_RATP_SCD_1204	72	4	en	NULL	prep	NULL	B_GP	ROOT	0	idtext0089	en	#####	spk2	188.79	188.91	0.01	_
20091112_RATP_SCD_1204	72	5	carnet	NULL	nc	NULL	I_GP	OBJ	4	idtext0089	carnet	##m#s##	spk2	188.92	189.68	?	//

20091112_RATP_SCD_1204	73	1	oui	NULL	adv	NULL	B_GADV	NOLINK	0	idtext0090	oui	#####	spk3	189.72	189.88	?	//

20091112_RATP_SCD_1204	74	1	ça	NULL	pro	NULL	B_GN	SUJ_IMP	2	idtext0091	ça	#####	spk2	190.36	190.43	0.01	_
20091112_RATP_SCD_1204	74	2	fait	NULL	v	NULL	B_GVf	ROOT	0	idtext0091	faire	P#3##s##	spk2	190.44	190.58	0.01	_
20091112_RATP_SCD_1204	74	3	six+cent+cinquante-cinq	NULL	nc	NULL	B_GN	OBJ	2	idtext0091	six+cent+cinquante-cinq	#####	spk2	190.59	192.54	0.11	//
20091112_RATP_SCD_1204	74	4	euh	DISF_M	pres	NULL	NULL	NOLINK	0	idtext0092	euh	#####	spk2	192.65	193.65	0.01	_
20091112_RATP_SCD_1204	74	5	là	NULL	adv	NULL	B_GADV	NOLINK	0	idtext0092	là	#####	spk2	193.66	193.81	0.01	_
20091112_RATP_SCD_1204	74	6	vous	NULL	cln	NULL	B_GN	SUJ	7	idtext0092	cln	#2##p##	spk2	193.82	194.05	0.01	_
20091112_RATP_SCD_1204	74	7	aurez	NULL	v	NULL	B_GVf	ROOT	0	idtext0092	avoir	F#2##p##	spk2	194.06	194.33	0.01	_
20091112_RATP_SCD_1204	74	8	dix	NULL	adj	NULL	B_GN	MOD	9	idtext0092	dix	#####	spk2	194.34	194.67	0.01	_
20091112_RATP_SCD_1204	74	9	tickets	NULL	nc	NULL	I_GN	OBJ	7	idtext0092	ticket	##m#p##	spk2	194.68	194.98	0.01	_
20091112_RATP_SCD_1204	74	10	et	NULL	coo	NULL	B_NULL	COORD	7	idtext0092	et	#####	spk2	194.99	195.04	0.01	_
20091112_RATP_SCD_1204	74	11	ça	NULL	pro	NULL	B_GN	SUJ_IMP	13	idtext0092	ça	#####	spk2	195.05	195.17	0.01	_
20091112_RATP_SCD_1204	74	12	vous	NULL	clo	NULL	B_GN	A_OBJ	13	idtext0092	cln	#2##p##	spk2	195.18	195.25	0.01	_
20091112_RATP_SCD_1204	74	13	coûtera	NULL	v	NULL	B_GVfn	DEP_COORD	10	idtext0092	coûter	F#3##s##	spk2	195.26	195.63	0.01	_
20091112_RATP_SCD_1204	74	14	que	NULL	advneg	NULL	I_GVfn	MOD	13	idtext0092	que	#####	spk2	195.64	195.99	0.01	_
20091112_RATP_SCD_1204	74	15	cinquante-deux	NULL	det	B_P	B_GN	DET	16	idtext0092	cinquante-deux	#####	spk2	196.0	196.7	0.01	_
20091112_RATP_SCD_1204	74	16	euros	NULL	nc	I_P	I_GN	OBJ	13	idtext0092	euro	##m#p##	spk2	196.71	196.83	0.01	_
20091112_RATP_SCD_1204	74	17	quarante	NULL	adj	I_P	I_GN	MOD	16	idtext0092	quarante	#####	spk2	196.84	197.19	?	//

20091112_RATP_SCD_1204	75	1	oui	NULL	adv	NULL	B_GADV	NOLINK	0	idtext0093	oui	#####	spk3	198.78	199.06	?	//

20091112_RATP_SCD_1204	76	1	c'	NULL	cln	NULL	B_GN	SUJ_IMP	2	idtext0094	ce	###s##	spk2	199.1	199.5	0.01	_
20091112_RATP_SCD_1204	76	2	est	NULL	v	NULL	B_GVf	ROOT	0	idtext0094	être	P#3##s##	spk2	199.51	199.55	0.01	_
20091112_RATP_SCD_1204	76	3	pour	NULL	prep	NULL	B_GP	ATS	2	idtext0094	pour	#####	spk2	199.56	199.67	0.01	_
20091112_RATP_SCD_1204	76	4	vous	NULL	clo	NULL	I_GP	A_OBJ	5	idtext0094	cln	#2##p##	spk2	199.68	199.77	0.01	_
20091112_RATP_SCD_1204	76	5	dire	NULL	vinf	NULL	B_GVi	OBJ	3	idtext0094	dire	W#####	spk2	199.78	199.94	0.01	_
20091112_RATP_SCD_1204	76	6	que	NULL	csu	NULL	B_NULL	OBJ	3	idtext0094	que	#####	spk2	199.95	200.16	0.01	_
20091112_RATP_SCD_1204	76	7	autant	NULL	adv	NULL	B_GVi	MOD	8	idtext0094	autant	#####	spk2	200.17	200.41	0.01	_
20091112_RATP_SCD_1204	76	8	acheter	NULL	vinf	NULL	I_GVi	OBJ	6	idtext0094	acheter	W#####	spk2	200.42	200.63	0.01	_
20091112_RATP_SCD_1204	76	9	un	NULL	det	NULL	B_GN	DET	10	idtext0094	un	##m#s##i	spk2	200.64	200.71	0.01	_
20091112_RATP_SCD_1204	76	10	carnet	NULL	nc	NULL	I_GN	OBJ	8	idtext0094	carnet	##m#s##	spk2	200.72	201.6	0.04	_
20091112_RATP_SCD_1204	76	11	et	NULL	coo	NULL	B_NULL	ROOT	0	idtext0095	et	#####	spk2	201.64	201.71	0.01	_
20091112_RATP_SCD_1204	76	12	que	NULL	csu	NULL	B_NULL	DEP_COORD	11	idtext0095	que	#####	spk2	201.72	201.84	0.01	_
20091112_RATP_SCD_1204	76	13	tout+le+monde	NULL	pro	NULL	B_GN	SUJ	14	idtext0095	tout+le+monde	#####	spk2	201.85	202.16	0.01	_
20091112_RATP_SCD_1204	76	14	puisse	NULL	v	NULL	B_GVf	OBJ	12	idtext0095	pouvoir	S#1##s##	spk2	202.17	202.41	0.01	_
20091112_RATP_SCD_1204	76	15	utiliser	NULL	vinf	NULL	I_GVf	OBJ	14	idtext0095	utiliser	W#####	spk2	202.42	202.85	0.01	_
20091112_RATP_SCD_1204	76	16	ce	NULL	det	NULL	B_GN	DET	17	idtext0095	ce	##m#s##e	spk2	202.86	202.97	0.01	_
20091112_RATP_SCD_1204	76	17	carnet	NULL	nc	NULL	I_GN	OBJ	15	idtext0095	carnet	##m#s##	spk2	202.98	203.32	0.01	/
20091112_RATP_SCD_1204	76	18	tant+pis	NULL	adv	NULL	B_GADV	MOD	19	idtext0095	tant+pis	#####	spk2	203.33	203.57	0.01	_
20091112_RATP_SCD_1204	76	19	même	NULL	adv	NULL	I_GADV	MOD	17	idtext0095	même	###s##	spk2	203.58	203.75	0.01	_
20091112_RATP_SCD_1204	76	20	le	NULL	det	NULL	B_GN	DET	21	idtext0095	le	##m#s##d	spk2	203.76	203.86	0.01	_
20091112_RATP_SCD_1204	76	21	petit	NULL	adj	NULL	I_GN	SUJ	23	idtext0095	petit	##m#s##	spk2	203.87	203.99	0.01	_
20091112_RATP_SCD_1204	76	22	il	NULL	cln	NULL	B_GN	SUJ	23	idtext0095	cln	#3#m#s##	spk2	204.0	204.06	0.01	_
20091112_RATP_SCD_1204	76	23	aura	NULL	v	NULL	B_GVf	ROOT	0	idtext0095	avoir	F#3##s##	spk2	204.07	204.23	0.01	_
20091112_RATP_SCD_1204	76	24	un	NULL	det	NULL	B_GN	DET	25	idtext0095	un	##m#s##i	spk2	204.24	204.28	0.01	_
20091112_RATP_SCD_1204	76	25	billet	NULL	nc	NULL	I_GN	OBJ	23	idtext0095	billet	##m#s##	spk2	204.29	204.45	0.01	_
20091112_RATP_SCD_1204	76	26	plein	NULL	adj	NULL	I_GN	MOD	25	idtext0095	plein	##m#s##	spk2	204.46	204.6	0.01	_
20091112_RATP_SCD_1204	76	27	tarif	NULL	nc	NULL	B_GN	NOLINK	0	idtext0095	tarif	##m#s##	spk2	204.61	205.13	?	//

20091112_RATP_SCD_1204	77	1	ah	DISF_M	pres	NULL	NULL	NOLINK	0	idtext0096	ah	#####	spk3	205.22	205.33	0.01	_
20091112_RATP_SCD_1204	77	2	oui	NULL	adv	NULL	B_GADV	MOD	3	idtext0096	oui	#####	spk3	205.34	205.39	0.01	_
20091112_RATP_SCD_1204	77	3	d'accord	NULL	adv	NULL	I_GADV	ROOT	0	idtext0096	d'accord	#####	spk3	205.4	205.56	?	_

20091112_RATP_SCD_1204	78	1	mais	NULL	coo	NULL	B_NULL	ROOT	0	idtext0097	mais	#####	spk2	205.6	205.65	0.01	_
20091112_RATP_SCD_1204	78	2	ça	NULL	pro	NULL	B_GN	SUJ_IMP	3	idtext0097	ça	#####	spk2	205.66	205.72	0.01	_
20091112_RATP_SCD_1204	78	3	va	NULL	v	NULL	B_GVf	DEP_COORD	1	idtext0097	aller	P#3##s##	spk2	205.73	205.84	0.01	_
20091112_RATP_SCD_1204	78	4	vous	NULL	clo	NULL	B_GN	OBJ	5	idtext0097	cln	#2##p##	spk2	205.85	205.97	0.01	_
20091112_RATP_SCD_1204	78	5	coûter	NULL	vinf	NULL	B_GVi	OBJ	3	idtext0097	coûter	W#####	spk2	205.98	206.18	0.01	_
20091112_RATP_SCD_1204	78	6	moins	NULL	adv	NULL	B_GADJ	MOD	7	idtext0097	moins	#####	spk2	206.19	206.31	0.01	_
20091112_RATP_SCD_1204	78	7	cher	NULL	adj	NULL	I_GADJ	MOD	5	idtext0097	cher	##m#s##	spk2	206.32	206.57	0.01	_
20091112_RATP_SCD_1204	78	8	que	NULL	csu	NULL	B_NULL	ARG_COMP	6	idtext0097	que	#####	spk2	206.58	206.74	0.01	_
20091112_RATP_SCD_1204	78	9	d'	NULL	prep	NULL	B_GP	OBJ	8	idtext0097	d'	#####	spk2	206.75	206.8	0.01	_
20091112_RATP_SCD_1204	78	10	acheter	NULL	vinf	NULL	I_GP	OBJ	9	idtext0097	acheter	W#####	spk2	206.81	207.27	0.01	_
20091112_RATP_SCD_1204	78	11	six	NULL	det	NULL	B_GN	DET	12	idtext0097	six	#####	spk2	207.28	207.39	0.01	_
20091112_RATP_SCD_1204	78	12	tickets	NULL	nc	NULL	I_GN	OBJ	10	idtext0097	ticket	##m#p##	spk2	207.4	207.71	0.01	_
20091112_RATP_SCD_1204	78	13	à	NULL	prep	NULL	B_GP	MOD	12	idtext0097	à	#####	spk2	207.72	207.83	0.01	_
20091112_RATP_SCD_1204	78	14	six	NULL	det	B_P	I_GP	DET	15	idtext0097	six	#####	spk2	207.84	207.96	0.01	_
20091112_RATP_SCD_1204	78	15	euros	NULL	nc	I_P	I_GP	OBJ	13	idtext0097	euro	##m#p##	spk2	207.97	208.13	0.01	_
20091112_RATP_SCD_1204	78	16	cinquante-cinq	NULL	adj	I_P	I_GP	MOD	15	idtext0097	cinquante-cinq	#####	spk2	208.14	209.13	?	//

20091112_RATP_SCD_1204	79	1	oui	NULL	adv	NULL	B_GADV	NOLINK	0	idtext0098	oui	#####	spk3	209.17	209.41	?	//

20091112_RATP_SCD_1204	80	1	plus	NULL	adv	NULL	B_GADV	NOLINK	0	idtext0099	plus	#####	spk2	209.49	209.87	0.01	_
20091112_RATP_SCD_1204	80	2	euh	DISF_M	pres	NULL	NULL	NOLINK	0	idtext0099	euh	#####	spk2	209.88	210.07	0.01	_
20091112_RATP_SCD_1204	80	3	les	NULL	det	NULL	B_GN	DET	4	idtext0099	le	###p##d	spk2	210.08	210.38	0.01	_
20091112_RATP_SCD_1204	80	4	cinq	NULL	nc	NULL	I_GN	ROOT	0	idtext0099	cinq	##m###	spk2	210.39	210.68	0.01	_
20091112_RATP_SCD_1204	80	5	euh	DISF_M	pres	NULL	NULL	NOLINK	0	idtext0099	euh	#####	spk2	210.69	210.88	0.01	_
20091112_RATP_SCD_1204	80	6	les	NULL	det	NULL	B_GN	DET	7	idtext0099	le	###p##d	spk2	210.89	211.07	0.01	_
20091112_RATP_SCD_1204	80	7	six+cent+cinquante	NULL	nc	NULL	I_GN	ROOT	0	idtext0099	six+cent+cinquante	#####	spk2	211.08	212.68	?	_

20091112_RATP_SCD_1204	81	1	d'accord	NULL	adv	NULL	B_GADV	NOLINK	0	idtext0100	d'accord	#####	spk3	209.88	212.68	?	//

20091112_RATP_SCD_1204	82	1	d'accord	NULL	adv	NULL	B_GADV	NOLINK	0	idtext0101	d'accord	#####	spk3	212.77	213.51	0.01	_
20091112_RATP_SCD_1204	82	2	bon+bah	DISF_M	pres	NULL	NULL	NOLINK	0	idtext0101	bon+bah	#####	spk3	213.52	214.1	?	//

20091112_RATP_SCD_1204	83	1	donc	NULL	coo	NULL	B_NULL	ROOT	0	idtext0102	donc	#####	spk2	214.14	214.29	0.01	_
20091112_RATP_SCD_1204	83	2	vous	NULL	cln	NULL	B_GN	SUJ	3	idtext0102	cln	#2##p##	spk2	214.3	214.41	0.01	_
20091112_RATP_SCD_1204	83	3	prenez	NULL	v	NULL	B_GVf	DEP_COORD	1	idtext0102	prendre	P#2##p##	spk2	214.42	214.79	0.01	_
20091112_RATP_SCD_1204	83	4	un	NULL	det	NULL	B_GN	DET	5	idtext0102	un	##m#s##i	spk2	214.8	215.19	0.01	_
20091112_RATP_SCD_1204	83	5	carnet	NULL	nc	NULL	I_GN	OBJ	3	idtext0102	carnet	##m#s##	spk2	215.2	216.02	0.04	_
20091112_RATP_SCD_1204	83	6	vous	NULL	cln	NULL	B_GN	SUJ	7	idtext0103	cln	#2##p##	spk2	216.06	216.21	0.01	_
20091112_RATP_SCD_1204	83	7	aurez	NULL	v	NULL	B_GVf	ROOT	0	idtext0103	avoir	F#2##p##	spk2	216.22	216.47	0.01	_
20091112_RATP_SCD_1204	83	8	dix	NULL	adj	NULL	B_GN	MOD	9	idtext0103	dix	#####	spk2	216.48	216.64	0.01	_
20091112_RATP_SCD_1204	83	9	tickets	NULL	nc	NULL	I_GN	OBJ	7	idtext0103	ticket	##m#p##	spk2	216.65	217.38	?	//

20091112_RATP_SCD_1204	84	1	oui	NULL	adv	NULL	B_GADV	NOLINK	0	idtext0104	oui	#####	spk3	217.42	217.78	?	//

20091112_RATP_SCD_1204	85	1	et	NULL	coo	NULL	B_NULL	ROOT	0	idtext0105	et	#####	spk2	217.82	217.84	0.01	_
20091112_RATP_SCD_1204	85	2	il	NULL	cln	NULL	B_GN	SUJ_IMP	5	idtext0105	cln	#3#m#s##	spk2	217.85	217.91	0.01	_
20091112_RATP_SCD_1204	85	3	vous	NULL	clo	NULL	B_GN	A_OBJ	5	idtext0105	cln	#2##p##	spk2	217.92	218.07	0.01	_
20091112_RATP_SCD_1204	85	4	en	NULL	clo	NULL	B_GN	OBJ	5	idtext0105	en	#####	spk2	218.08	218.16	0.01	_
20091112_RATP_SCD_1204	85	5	restera	NULL	v	NULL	B_GVf	DEP_COORD	1	idtext0105	rester	F#3##s##	spk2	218.17	218.61	0.01	_
20091112_RATP_SCD_1204	85	6	quand	NULL	csu	NULL	B_NULL	MOD	5	idtext0105	quand	#####	spk2	218.62	218.8	0.01	_
20091112_RATP_SCD_1204	85	7	vous	NULL	cln	NULL	B_GN	SUJ	8	idtext0105	cln	#2##p##	spk2	218.81	218.88	0.01	_
20091112_RATP_SCD_1204	85	8	allez	NULL	v	NULL	B_GVf	OBJ	6	idtext0105	aller	P#2##p##	spk2	218.89	218.99	0.01	_
20091112_RATP_SCD_1204	85	9	revenir	NULL	vinf	NULL	I_GVf	OBJ	8	idtext0105	revenir	W#####	spk2	219.0	219.4	0.01	/
20091112_RATP_SCD_1204	85	10	mais	NULL	coo	NULL	B_NULL	COORD	8	idtext0105	mais	#####	spk2	219.41	219.64	0.01	_
20091112_RATP_SCD_1204	85	11	ça	NULL	pro	NULL	B_GN	SUJ_IMP	13	idtext0105	ça	#####	spk2	219.65	219.78	0.01	_
20091112_RATP_SCD_1204	85	12	vous	NULL	clo	NULL	B_GN	A_OBJ	13	idtext0105	cln	#2##p##	spk2	219.79	219.87	0.01	_
20091112_RATP_SCD_1204	85	13	coûtera	NULL	v	NULL	B_GVf	DEP_COORD	10	idtext0105	coûter	F#3##s##	spk2	219.88	220.11	0.01	_
20091112_RATP_SCD_1204	85	14	moins	NULL	adv	NULL	B_GADJ	MOD	15	idtext0105	moins	#####	spk2	220.12	220.26	0.01	_
20091112_RATP_SCD_1204	85	15	cher	NULL	adj	NULL	I_GADJ	OBJ	13	idtext0105	cher	##m#s##	spk2	220.27	220.52	0.01	_
20091112_RATP_SCD_1204	85	16	que	NULL	csu	NULL	B_NULL	ARG_COMP	14	idtext0105	que	#####	spk2	220.53	220.7	0.01	_
20091112_RATP_SCD_1204	85	17	d'	NULL	prep	NULL	B_GP	OBJ	16	idtext0105	d'	#####	spk2	220.71	220.74	0.01	_
20091112_RATP_SCD_1204	85	18	acheter	NULL	vinf	NULL	I_GP	OBJ	17	idtext0105	acheter	W#####	spk2	220.75	220.98	0.01	_
20091112_RATP_SCD_1204	85	19	au	NULL	prep	NULL	B_GP	MOD	18	idtext0105	au	#####	spk2	220.99	221.04	0.01	_
20091112_RATP_SCD_1204	85	20	détail	NULL	nc	NULL	I_GP	OBJ	19	idtext0105	détail	##m#s##	spk2	221.05	221.64	?	//

20091112_RATP_SCD_1204	86	1	d'accord	NULL	adv	NULL	B_GADV	MOD	2	idtext0106	d'accord	#####	spk3	221.8	222.15	0.01	_
20091112_RATP_SCD_1204	86	2	oui	NULL	adv	NULL	I_GADV	ROOT	0	idtext0106	oui	#####	spk3	222.16	222.38	0.01	_
20091112_RATP_SCD_1204	86	3	bon+bah	DISF_M	pres	NULL	NULL	NOLINK	0	idtext0106	bon+bah	#####	spk3	222.39	222.63	0.01	_
20091112_RATP_SCD_1204	86	4	c'	DISF_R	cln	NULL	NULL	NOLINK	0	idtext0106	ce	###s##	spk3	222.64	222.8	0.01	_
20091112_RATP_SCD_1204	86	5	est	DISF_R	v	NULL	NULL	NOLINK	0	idtext0106	être	P#3##s##	spk3	222.81	223.0	0.01	_
20091112_RATP_SCD_1204	86	6	c'	NULL	cln	NULL	B_GN	SUJ_IMP	7	idtext0106	ce	###s##	spk3	223.01	223.04	0.01	_
20091112_RATP_SCD_1204	86	7	est	NULL	v	NULL	B_GVf	ROOT	0	idtext0106	être	P#3##s##	spk3	223.05	223.1	0.01	_
20091112_RATP_SCD_1204	86	8	bon	NULL	adj	NULL	B_GADJ	ATS	7	idtext0106	bon	##m#s##	spk3	223.11	223.25	0.01	_
20091112_RATP_SCD_1204	86	9	à	NULL	prep	NULL	B_GP	DEP	8	idtext0106	à	#####	spk3	223.26	223.29	0.01	_
20091112_RATP_SCD_1204	86	10	savoir	NULL	vinf	NULL	I_GP	OBJ	9	idtext0106	savoir	W#####	spk3	223.3	223.66	0.06	_
20091112_RATP_SCD_1204	86	11	et+donc	NULL	coo	NULL	B_NULL	ROOT	0	idtext0107	et+donc	#####	spk3	223.72	224.04	0.01	_
20091112_RATP_SCD_1204	86	12	après	NULL	adv	NULL	B_GADV	NOLINK	0	idtext0107	après	#####	spk3	224.05	224.33	0.01	_
20091112_RATP_SCD_1204	86	13	je	NULL	cln	NULL	B_GN	SUJ	14	idtext0107	cln	#1##s##	spk3	224.34	224.45	0.01	_
20091112_RATP_SCD_1204	86	14	demande	NULL	v	NULL	B_GVf	DEP_COORD	11	idtext0107	demander	PS#13##s##	spk3	224.46	225.32	0.01	_
20091112_RATP_SCD_1204	86	15	euh	DISF_M	pres	NULL	NULL	NOLINK	0	idtext0107	euh	#####	spk3	225.33	225.78	?	//

20091112_RATP_SCD_1204	87	1	vous	NULL	cln	NULL	B_GN	SUJ	2	idtext0108	cln	#2##p##	spk2	225.82	225.87	0.01	_
20091112_RATP_SCD_1204	87	2	demandez	NULL	v	NULL	B_GVf	ROOT	0	idtext0108	demander	P#2##p##	spk2	225.88	226.08	0.01	_
20091112_RATP_SCD_1204	87	3	un	NULL	det	NULL	B_GN	DET	4	idtext0108	un	##m#s##i	spk2	226.09	226.15	0.01	_
20091112_RATP_SCD_1204	87	4	carnet	NULL	nc	NULL	I_GN	OBJ	2	idtext0108	carnet	##m#s##	spk2	226.16	226.72	0.01	_
20091112_RATP_SCD_1204	87	5	pour	NULL	prep	NULL	B_GP	P_OBJ	4	idtext0108	pour	#####	spk2	226.73	226.96	0.01	_
20091112_RATP_SCD_1204	87	6	Marne-la-Vallée	NULL	nc	B_A	I_GP	OBJ	5	idtext0108	Marne-la-Vallée	#####	spk2	226.97	227.73	?	//

20091112_RATP_SCD_1204	88	1	d'accord	NULL	adv	NULL	B_GADV	NOLINK	0	idtext0109	d'accord	#####	spk3	227.77	228.08	?	//

20091112_RATP_SCD_1204	89	1	Chessy	NULL	nc	B_A	B_GN	NOLINK	0	idtext0110	Chessy	##m#s##	spk2	228.12	228.72	?	//

20091112_RATP_SCD_1204	90	1	hm	DISF_M	pres	NULL	NULL	NOLINK	0	idtext0111	hm	#####	spk3	228.81	229.48	0.01	_
20091112_RATP_SCD_1204	90	2	bon	DISF_M	pres	NULL	NULL	NOLINK	0	idtext0112	bon	#####	spk3	229.49	229.64	?	//

20091112_RATP_SCD_1204	91	1	ça	NULL	pro	NULL	B_GN	SUJ_IMP	2	idtext0113	ça	#####	spk2	230.12	230.17	0.01	_
20091112_RATP_SCD_1204	91	2	devrait	NULL	v	NULL	B_GVf	ROOT	0	idtext0113	devoir	C#3##s##	spk2	230.18	230.34	0.01	_
20091112_RATP_SCD_1204	91	3	vous	NULL	clo	NULL	B_GN	A_OBJ	4	idtext0113	cln	#2##p##	spk2	230.35	230.45	0.01	_
20091112_RATP_SCD_1204	91	4	coûter	NULL	vinf	NULL	B_GVi	OBJ	2	idtext0113	coûter	W#####	spk2	230.46	230.68	0.01	_
20091112_RATP_SCD_1204	91	5	dans	NULL	prep	NULL	B_GP	P_OBJ_LOC	4	idtext0113	dans	#####	spk2	230.69	230.77	0.01	_
20091112_RATP_SCD_1204	91	6	les	NULL	det	NULL	I_GP	DET	8	idtext0113	le	###p##d	spk2	230.78	230.95	0.01	_
20091112_RATP_SCD_1204	91	7	cinquante-deux	NULL	det	B_P	I_GP	DET	8	idtext0113	cinquante-deux	#####	spk2	230.96	231.61	0.01	_
20091112_RATP_SCD_1204	91	8	euros	NULL	nc	I_P	I_GP	OBJ	5	idtext0113	euro	##m#p##	spk2	231.62	231.77	0.01	_
20091112_RATP_SCD_1204	91	9	quarante	NULL	adj	I_P	I_GP	MOD	8	idtext0113	quarante	#####	spk2	231.78	232.05	?	//

20091112_RATP_SCD_1204	92	1	d'accord	NULL	adv	NULL	B_GADV	NOLINK	0	idtext0114	d'accord	#####	spk3	232.72	233.57	0.01	_
20091112_RATP_SCD_1204	92	2	bon	DISF_R	adj	NULL	NULL	NOLINK	0	idtext0114	bon	##m#s##	spk3	233.58	233.68	0.01	_
20091112_RATP_SCD_1204	92	3	c'	NULL	cln	NULL	B_GN	SUJ_IMP	4	idtext0114	ce	###s##	spk3	233.69	234.13	0.01	_
20091112_RATP_SCD_1204	92	4	est	NULL	v	NULL	B_GVf	ROOT	0	idtext0114	être	P#3##s##	spk3	234.14	234.19	0.01	_
20091112_RATP_SCD_1204	92	5	bon	NULL	adj	NULL	B_GADJ	ATS	4	idtext0114	bon	##m#s##	spk3	234.2	234.66	?	//

20091112_RATP_SCD_1204	93	1	bon+bah	DISF_M	pres	NULL	NULL	NOLINK	0	idtext0115	bon+bah	#####	spk3	235.34	235.57	0.01	_
20091112_RATP_SCD_1204	93	2	je	NULL	cln	NULL	B_GN	SUJ	4	idtext0115	cln	#1##s##	spk3	235.58	235.7	0.01	_
20091112_RATP_SCD_1204	93	3	vous	NULL	clo	NULL	B_GN	OBJ	4	idtext0115	cln	#2##p##	spk3	235.71	235.79	0.01	_
20091112_RATP_SCD_1204	93	4	remercie	NULL	v	NULL	B_GVf	ROOT	0	idtext0115	remercier	PS#13##s##	spk3	235.8	236.04	0.01	_
20091112_RATP_SCD_1204	93	5	beaucoup	NULL	adv	NULL	B_GADV	MOD	4	idtext0115	beaucoup	#####	spk3	236.05	236.37	?	_

20091112_RATP_SCD_1204	94	1	je	NULL	cln	NULL	B_GN	SUJ	4	idtext0116	cln	#1##s##	spk2	236.41	236.45	0.01	_
20091112_RATP_SCD_1204	94	2	vous	NULL	clo	NULL	B_GN	OBJ	4	idtext0116	cln	#2##p##	spk2	236.46	236.66	0.01	_
20091112_RATP_SCD_1204	94	3	en	NULL	clo	NULL	B_GN	DE_OBJ	4	idtext0116	en	#####	spk2	236.67	236.71	0.01	_
20091112_RATP_SCD_1204	94	4	prie	NULL	v	NULL	B_GVf	ROOT	0	idtext0116	prier	PS#13##s##	spk2	236.72	236.89	0.01	_
20091112_RATP_SCD_1204	94	5	monsieur	NULL	nc	NULL	B_GN	NOLINK	0	idtext0116	Monsieur	##m#s##	spk2	236.9	237.21	0.01	_
20091112_RATP_SCD_1204	94	6	bonne	NULL	adj	NULL	B_GN	MOD	7	idtext0116	bon	##f#s##	spk2	237.22	237.38	0.01	_
20091112_RATP_SCD_1204	94	7	soirée	NULL	nc	NULL	I_GN	ROOT	0	idtext0116	soirée	##f#s##	spk2	237.39	237.86	?	//

20091112_RATP_SCD_1204	95	1	merci	NULL	adv	NULL	B_GADV	NOLINK	0	idtext0117	merci	#####	spk3	237.9	238.19	0.01	/
20091112_RATP_SCD_1204	95	2	vous	NULL	pro	NULL	B_GN	NOLINK	0	idtext0117	vous	#####	spk3	238.2	238.29	0.01	_
20091112_RATP_SCD_1204	95	3	aussi	NULL	adv	NULL	B_GADV	MOD	4	idtext0117	aussi	#####	spk3	238.3	238.56	0.01	_
20091112_RATP_SCD_1204	95	4	au+revoir	NULL	adv	NULL	I_GADV	ROOT	0	idtext0117	au+revoir	#####	spk3	238.57	239.17	?	_

20091112_RATP_SCD_1204	96	1	à+bientôt	NULL	adv	NULL	B_GADV	MOD	2	idtext0118	à+bientôt	#####	spk2	238.0	238.41	0.01	_
20091112_RATP_SCD_1204	96	2	merci	NULL	adv	NULL	I_GADV	MOD	3	idtext0118	merci	#####	spk2	238.42	238.93	0.01	_
20091112_RATP_SCD_1204	96	3	oui	NULL	adv	NULL	I_GADV	ROOT	0	idtext0118	oui	#####	spk2	238.94	239.17	?	//

20091112_RATP_SCD_1204	97	1	au+revoir	NULL	adv	NULL	B_GADV	NOLINK	0	idtext0119	au+revoir	#####	spk2	239.22	239.47	?	//

