20091112_RATP_SCD_0877	1	1	allo	NULL	adv	NULL	B_GADV	MOD	2	idtext0000	allo	#####	spk2	5.32	5.55	0.01	_
20091112_RATP_SCD_0877	1	2	oui	NULL	adv	NULL	I_GADV	MOD	3	idtext0000	oui	#####	spk2	5.56	6.35	0.01	_
20091112_RATP_SCD_0877	1	3	bonjour	NULL	adv	NULL	I_GADV	ROOT	0	idtext0000	bonjour	#####	spk2	6.36	6.73	0.01	_
20091112_RATP_SCD_0877	1	4	monsieur	NULL	nc	NULL	B_GN	NOLINK	0	idtext0000	Monsieur	##m#s##	spk2	6.74	7.03	?	//

20091112_RATP_SCD_0877	2	1	NNAAMMEE	NULL	np	B_HU	B_GN	ROOT	0	idtext0001	ANONYM	NULL	spk1	7.07	7.54	0.04	_
20091112_RATP_SCD_0877	2	2	bonjour	NULL	adv	NULL	B_GADV	NOLINK	0	idtext0002	bonjour	#####	spk1	7.58	8.31	?	//

20091112_RATP_SCD_0877	3	1	euh	DISF_M	pres	NULL	NULL	NOLINK	0	idtext0003	euh	#####	spk2	8.63	8.82	0.01	_
20091112_RATP_SCD_0877	3	2	j'	NULL	cln	NULL	B_GN	SUJ	3	idtext0003	cln	#1##s##	spk2	8.83	9.0	0.01	_
20091112_RATP_SCD_0877	3	3	appelle	NULL	v	NULL	B_GVf	ROOT	0	idtext0004	appeler	PS#13##s##	spk2	9.01	9.36	0.01	_
20091112_RATP_SCD_0877	3	4	à+propos	NULL	adv	NULL	B_GADV	MOD	3	idtext0005	à+propos	#####	spk2	9.37	9.85	0.04	_
20091112_RATP_SCD_0877	3	5	parce+que	NULL	csu	NULL	B_NULL	NOLINK	0	idtext0006	parce+que	#####	spk2	9.89	11.2	0.01	_
20091112_RATP_SCD_0877	3	6	euh	DISF_M	pres	NULL	NULL	NOLINK	0	idtext0006	euh	#####	spk2	11.21	11.33	0.04	_
20091112_RATP_SCD_0877	3	7	pour	NULL	prep	NULL	B_GP	ROOT	0	idtext0007	pour	#####	spk2	11.37	11.64	0.01	_
20091112_RATP_SCD_0877	3	8	un	NULL	det	NULL	I_GP	DET	9	idtext0007	un	##m#s##i	spk2	11.65	11.76	0.01	_
20091112_RATP_SCD_0877	3	9	billet	NULL	nc	NULL	I_GP	OBJ	7	idtext0007	billet	##m#s##	spk2	11.77	12.11	0.01	_
20091112_RATP_SCD_0877	3	10	pour	NULL	prep	NULL	B_GP	ROOT	0	idtext0007	pour	#####	spk2	12.12	12.32	0.01	_
20091112_RATP_SCD_0877	3	11	aller-retour	NULL	nc	NULL	I_GP	OBJ	10	idtext0007	aller-retour	##m#p##	spk2	12.33	13.15	0.01	_
20091112_RATP_SCD_0877	3	12	à	NULL	prep	NULL	B_GP	ROOT	0	idtext0007	à	#####	spk2	13.16	13.39	0.01	_
20091112_RATP_SCD_0877	3	13	Barcelone	NULL	np	B_L	I_GP	OBJ	12	idtext0007	Barcelone	##f#s##	spk2	13.4	14.0	0.01	_
20091112_RATP_SCD_0877	3	14	c'	NULL	cln	NULL	B_GN	SUJ_IMP	15	idtext0007	ce	###s##	spk2	14.01	14.04	0.01	_
20091112_RATP_SCD_0877	3	15	est	NULL	v	NULL	B_GVf	ROOT	0	idtext0007	être	P#3##s##	spk2	14.05	14.13	0.01	_
20091112_RATP_SCD_0877	3	16	combien	NULL	adv	NULL	B_GADV	ATS	15	idtext0007	combien	#####	spk2	14.14	14.85	?	_

20091112_RATP_SCD_0877	4	1	pour	NULL	prep	NULL	B_GP	ROOT	0	idtext0008	pour	#####	spk1	15.12	15.29	0.01	_
20091112_RATP_SCD_0877	4	2	aller	NULL	vinf	NULL	I_GP	OBJ	1	idtext0008	aller	W#####	spk1	15.3	15.4	0.01	_
20091112_RATP_SCD_0877	4	3	à	NULL	prep	NULL	B_GP	P_OBJ_LOC	2	idtext0008	à	#####	spk1	15.41	15.45	0.01	_
20091112_RATP_SCD_0877	4	4	Barcelone	NULL	np	B_L	I_GP	OBJ	3	idtext0008	Barcelone	##f#s##	spk1	15.46	15.82	0.01	_
20091112_RATP_SCD_0877	4	5	madame	NULL	nc	NULL	I_GP	NOLINK	0	idtext0008	Monsieur	##f#s##	spk1	15.83	16.24	?	//

20091112_RATP_SCD_0877	5	1	oui	NULL	adv	NULL	B_GADV	NOLINK	0	idtext0009	oui	#####	spk2	16.29	16.59	?	//

20091112_RATP_SCD_0877	6	1	ah+ben	DISF_M	pres	NULL	NULL	NOLINK	0	idtext0010	ah+ben	#####	spk1	16.63	17.05	0.01	_
20091112_RATP_SCD_0877	6	2	vous	NULL	cln	NULL	B_GN	SUJ	3	idtext0010	cln	#2##p##	spk1	17.06	17.13	0.01	_
20091112_RATP_SCD_0877	6	3	avez	NULL	v	NULL	B_GVf	ROOT	0	idtext0010	avoir	P#2##p##	spk1	17.14	17.37	?	//

20091112_RATP_SCD_0877	7	1	pas	NULL	advneg	NULL	B_NULL	MOD	2	idtext0011	pas	#####	spk1	17.68	17.75	0.01	_
20091112_RATP_SCD_0877	7	2	fait	NULL	vppart	NULL	B_GVf	ROOT	0	idtext0011	faire	P#3##s##	spk1	17.76	17.88	0.01	_
20091112_RATP_SCD_0877	7	3	le	NULL	det	NULL	B_GN	DET	5	idtext0011	le	##m#s##d	spk1	17.89	17.91	0.01	_
20091112_RATP_SCD_0877	7	4	bon	NULL	adj	NULL	I_GN	MOD	5	idtext0011	bon	##m#s##	spk1	17.92	18.03	0.01	_
20091112_RATP_SCD_0877	7	5	numéro	NULL	nc	NULL	I_GN	OBJ	2	idtext0011	numéro	##m#s##	spk1	18.04	18.37	0.04	_
20091112_RATP_SCD_0877	7	6	vous	NULL	cln	NULL	B_GN	SUJ	7	idtext0012	cln	#2##p##	spk1	18.41	18.46	0.01	_
20091112_RATP_SCD_0877	7	7	êtes	NULL	v	NULL	B_GVf	ROOT	0	idtext0012	être	P#2##p##	spk1	18.47	18.64	0.01	_
20091112_RATP_SCD_0877	7	8	à	NULL	prep	NULL	B_GP	P_OBJ_LOC	7	idtext0012	à	#####	spk1	18.65	18.68	0.01	_
20091112_RATP_SCD_0877	7	9	la	NULL	det	NULL	I_GP	DET	10	idtext0012	le	##m#s##d	spk1	18.69	18.74	0.01	_
20091112_RATP_SCD_0877	7	10	RATP	NULL	np	B_ORG	I_GP	OBJ	8	idtext0012	RATP	##f#s##	spk1	18.75	19.27	?	//

20091112_RATP_SCD_0877	8	1	ah	DISF_M	pres	NULL	NULL	NOLINK	0	idtext0013	ah	#####	spk2	19.72	20.04	?	//

20091112_RATP_SCD_0877	9	1	au+niveau+de	NULL	prep	NULL	B_GP	ROOT	0	idtext0014	au+niveau+de	#####	spk1	20.1	20.62	0.01	_
20091112_RATP_SCD_0877	9	2	Paris	NULL	nc	B_A	I_GP	OBJ	1	idtext0015	Paris	##m#s##	spk1	20.63	20.94	0.01	_
20091112_RATP_SCD_0877	9	3	Île-de-France	NULL	nc	B_A	I_GP	MOD	2	idtext0015	Île-de-France	#####	spk1	20.95	21.62	?	//

20091112_RATP_SCD_0877	10	1	c'	NULL	cln	NULL	B_GN	SUJ_IMP	2	idtext0016	ce	###s##	spk1	22.01	22.03	0.01	_
20091112_RATP_SCD_0877	10	2	est	NULL	v	NULL	B_GVf	ROOT	0	idtext0016	être	P#3##s##	spk1	22.04	22.11	0.01	_
20091112_RATP_SCD_0877	10	3	pour	NULL	prep	NULL	B_GP	ATS	2	idtext0016	pour	#####	spk1	22.12	22.41	0.01	_
20091112_RATP_SCD_0877	10	4	euh	DISF_M	pres	NULL	NULL	NOLINK	0	idtext0016	euh	#####	spk1	22.42	22.45	0.01	_
20091112_RATP_SCD_0877	10	5	le	NULL	det	NULL	I_GP	DET	6	idtext0016	le	##m#s##d	spk1	22.46	22.63	0.01	_
20091112_RATP_SCD_0877	10	6	train	NULL	nc	NULL	I_GP	OBJ	3	idtext0016	train	##m#s##	spk1	22.64	23.06	0.14	//
20091112_RATP_SCD_0877	10	7	c'	NULL	cln	NULL	B_GN	SUJ_IMP	8	idtext0018	ce	###s##	spk1	23.2	23.22	0.01	_
20091112_RATP_SCD_0877	10	8	est	NULL	v	NULL	B_GVf	ROOT	0	idtext0018	être	P#3##s##	spk1	23.23	23.27	0.01	_
20091112_RATP_SCD_0877	10	9	pour	NULL	prep	NULL	B_GP	ATS	8	idtext0018	pour	#####	spk1	23.28	23.5	0.01	_
20091112_RATP_SCD_0877	10	10	la	NULL	det	NULL	I_GP	DET	11	idtext0018	le	##m#s##d	spk1	23.51	23.57	0.01	_
20091112_RATP_SCD_0877	10	11	SNCF	NULL	np	B_ORG	I_GP	OBJ	9	idtext0018	SNCF	##f#s##	spk1	23.58	24.1	?	//

20091112_RATP_SCD_0877	11	1	et	NULL	coo	NULL	B_NULL	ROOT	0	idtext0017	et	#####	spk2	21.99	22.01	0.01	_
20091112_RATP_SCD_0877	11	2	c'	NULL	cln	NULL	B_GN	SUJ_IMP	3	idtext0017	ce	###s##	spk2	22.02	22.04	0.01	_
20091112_RATP_SCD_0877	11	3	est	NULL	v	NULL	B_GVf	DEP_COORD	1	idtext0017	être	P#3##s##	spk2	22.05	22.1	0.01	_
20091112_RATP_SCD_0877	11	4	quoi	NULL	pri	NULL	B_NULL	ATS	3	idtext0017	quoi	#####	spk2	22.11	22.47	0.01	_
20091112_RATP_SCD_0877	11	5	le	NULL	det	NULL	B_GN	DET	6	idtext0017	le	##m#s##d	spk2	22.48	22.63	0.01	_
20091112_RATP_SCD_0877	11	6	numéro	NULL	nc	NULL	I_GN	SUJ	3	idtext0017	numéro	##m#s##	spk2	22.64	23.06	0.27	_
20091112_RATP_SCD_0877	11	7	oui	NULL	adv	NULL	B_GADV	NOLINK	0	idtext0019	oui	#####	spk2	23.33	24.1	?	//

20091112_RATP_SCD_0877	12	1	oui	NULL	adv	NULL	B_GADV	NOLINK	0	idtext0020	oui	#####	spk2	24.51	26.45	?	//

20091112_RATP_SCD_0877	13	1	alors	NULL	adv	NULL	B_GADV	NOLINK	0	idtext0021	alors	#####	spk1	24.51	24.72	0.01	_
20091112_RATP_SCD_0877	13	2	vous	NULL	cln	NULL	B_GN	SUJ	3	idtext0021	cln	#2##p##	spk1	24.73	24.85	0.01	_
20091112_RATP_SCD_0877	13	3	allez	NULL	v	NULL	B_GVf	ROOT	0	idtext0021	aller	P#2##p##	spk1	24.86	24.99	0.01	_
20091112_RATP_SCD_0877	13	4	faire	NULL	vinf	NULL	I_GVf	OBJ	3	idtext0021	faire	W#####	spk1	25.0	25.15	0.01	_
20091112_RATP_SCD_0877	13	5	le	NULL	det	NULL	B_GN	DET	6	idtext0021	le	##m#s##d	spk1	25.16	25.18	0.01	_
20091112_RATP_SCD_0877	13	6	trente-six+trente-cinq	NULL	nc	B_TEL	I_GN	OBJ	4	idtext0021	trente-six+trente-cinq	#####	spk1	25.19	26.11	0.01	_
20091112_RATP_SCD_0877	13	7	madame	NULL	nc	NULL	I_GN	NOLINK	0	idtext0021	Monsieur	##f#s##	spk1	26.12	26.45	?	//

20091112_RATP_SCD_0877	14	1	trente-six+trente-cinq	NULL	nc	NULL	B_GN	ROOT	0	idtext0022	trente-six+trente-cinq	#####	spk2	26.84	28.31	?	_

20091112_RATP_SCD_0877	15	1	exactement	NULL	adv	NULL	B_GADV	NOLINK	0	idtext0023	exactement	#####	spk1	27.18	28.31	?	//

20091112_RATP_SCD_0877	16	1	d'accord	NULL	adv	NULL	B_GADV	NOLINK	0	idtext0024	d'accord	#####	spk2	28.72	29.09	?	//

20091112_RATP_SCD_0877	17	1	merci	NULL	adv	NULL	B_GADV	MOD	2	idtext0025	merci	#####	spk2	29.15	29.56	0.01	_
20091112_RATP_SCD_0877	17	2	infiniment	NULL	adv	NULL	I_GADV	ROOT	0	idtext0025	infiniment	#####	spk2	29.57	30.14	?	//

20091112_RATP_SCD_0877	18	1	au+revoir	NULL	adv	NULL	B_GADV	NOLINK	0	idtext0026	au+revoir	#####	spk1	29.38	30.14	?	//

20091112_RATP_SCD_0877	19	1	au+revoir	NULL	adv	NULL	B_GADV	NOLINK	0	idtext0027	au+revoir	#####	spk2	30.19	30.65	?	//

