20091112_RATP_SCD_0756	1	1	NNAAMMEE	NULL	np	B_HU	B_GN	ROOT	0	idtext0000	ANONYM	NULL	spk1	3.14	3.33	0.19	_
20091112_RATP_SCD_0756	1	2	va	NULL	v	NULL	B_GVf	ROOT	0	idtext0001	aller	P#3##s##	spk1	3.52	3.68	0.01	_
20091112_RATP_SCD_0756	1	3	vous	NULL	clo	NULL	B_GN	A_OBJ	4	idtext0001	cln	#2##p##	spk1	3.69	3.95	0.01	_
20091112_RATP_SCD_0756	1	4	répondre	NULL	vinf	NULL	B_GVi	OBJ	2	idtext0001	répondre	W#####	spk1	3.96	4.43	?	//

20091112_RATP_SCD_0756	2	1	NNAAMMEE	NULL	np	B_HU	B_GN	ROOT	0	idtext0002	ANONYM	NULL	spk2	7.81	8.0	0.04	_
20091112_RATP_SCD_0756	2	2	bonjour	NULL	adv	NULL	B_GADV	NOLINK	0	idtext0003	bonjour	#####	spk2	8.04	8.73	?	//

20091112_RATP_SCD_0756	3	1	oui	NULL	adv	NULL	B_GADV	MOD	2	idtext0004	oui	#####	spk3	8.78	8.98	0.01	_
20091112_RATP_SCD_0756	3	2	bonjour	NULL	adv	NULL	I_GADV	ROOT	0	idtext0004	bonjour	#####	spk3	8.99	9.43	?	//

20091112_RATP_SCD_0756	4	1	euh	DISF_M	pres	NULL	NULL	NOLINK	0	idtext0005	euh	#####	spk3	9.48	9.79	?	//

20091112_RATP_SCD_0756	5	1	bonjour	NULL	adv	NULL	B_GADV	NOLINK	0	idtext0006	bonjour	#####	spk2	9.47	9.79	?	//

20091112_RATP_SCD_0756	6	1	j'	NULL	cln	NULL	B_GN	SUJ	3	idtext0007	cln	#1##s##	spk3	9.83	9.85	0.01	_
20091112_RATP_SCD_0756	6	2	ai	NULL	v	NULL	B_GVf	AUX	3	idtext0007	avoir	P#1##s##	spk3	9.86	9.88	0.01	_
20091112_RATP_SCD_0756	6	3	été	NULL	vppart	NULL	I_GVf	ROOT	0	idtext0007	être	K#####	spk3	9.89	10.16	0.01	_
20091112_RATP_SCD_0756	6	4	victime	NULL	nc	NULL	B_GN	P_OBJ_LOC	3	idtext0007	victime	##f#s##	spk3	10.17	10.57	0.01	_
20091112_RATP_SCD_0756	6	5	des	NULL	prep	NULL	B_GP	DEP	4	idtext0007	des	#####	spk3	10.58	10.84	0.01	_
20091112_RATP_SCD_0756	6	6	grèves	NULL	nc	NULL	I_GP	OBJ	5	idtext0007	grève	##f#p##	spk3	10.85	11.37	0.01	//
20091112_RATP_SCD_0756	6	7	euh	DISF_M	pres	NULL	NULL	NOLINK	0	idtext0007	euh	#####	spk3	11.38	11.6	0.01	_
20091112_RATP_SCD_0756	6	8	qui	NULL	prorel	NULL	B_NULL	SUJ	10	idtext0007	qui	#####	spk3	11.61	11.7	0.01	_
20091112_RATP_SCD_0756	6	9	ont	NULL	v	NULL	B_GVf	AUX	10	idtext0007	avoir	P#3##p##	spk3	11.71	11.8	0.01	_
20091112_RATP_SCD_0756	6	10	eu	NULL	vppart	NULL	I_GVf	MOD_REL	6	idtext0007	avoir	K##m#s##	spk3	11.81	11.94	0.01	_
20091112_RATP_SCD_0756	6	11	lieu	NULL	nc	NULL	B_GN	OBJ	10	idtext0007	lieu	##m#s##	spk3	11.95	12.26	0.01	_
20091112_RATP_SCD_0756	6	12	c()	DISF_T	tronc	NULL	NULL	NOLINK	0	idtext0007	c()	#####	spk3	12.27	12.29	0.01	_
20091112_RATP_SCD_0756	6	13	les	NULL	det	NULL	B_GN	DET	14	idtext0007	le	###p##d	spk3	12.3	12.42	0.01	_
20091112_RATP_SCD_0756	6	14	jours-ci	NULL	nc	NULL	I_GN	MOD	10	idtext0007	jours-ci	#####	spk3	12.43	13.03	?	//

20091112_RATP_SCD_0756	7	1	oui	NULL	adv	NULL	B_GADV	NOLINK	0	idtext0008	oui	#####	spk2	13.12	13.33	?	//

20091112_RATP_SCD_0756	8	1	il	NULL	cln	NULL	B_GN	SUJ	2	idtext0009	cln	#3#m#s##	spk3	13.09	13.21	0.01	_
20091112_RATP_SCD_0756	8	2	était	NULL	v	NULL	B_GVf	ROOT	0	idtext0009	être	I#3##s##	spk3	13.22	13.33	?	//

20091112_RATP_SCD_0756	9	1	question	NULL	nc	NULL	B_GN	ROOT	0	idtext0010	question	##f#s##	spk3	13.37	13.68	0.01	_
20091112_RATP_SCD_0756	9	2	d'	DISF_R	prep	NULL	NULL	NOLINK	0	idtext0010	d'	#####	spk3	13.69	13.73	0.01	_
20091112_RATP_SCD_0756	9	3	une	DISF_R	det	NULL	NULL	NOLINK	0	idtext0010	un	##f#s##i	spk3	13.74	14.74	0.01	_
20091112_RATP_SCD_0756	9	4	euh	DISF_M	pres	NULL	NULL	NOLINK	0	idtext0010	euh	#####	spk3	14.75	14.78	0.01	_
20091112_RATP_SCD_0756	9	5	d'	NULL	prep	NULL	B_GP	DEP	1	idtext0011	d'	#####	spk3	14.79	14.81	0.01	_
20091112_RATP_SCD_0756	9	6	une	NULL	det	NULL	I_GP	DET	7	idtext0011	un	##f#s##i	spk3	14.82	14.87	0.01	_
20091112_RATP_SCD_0756	9	7	compensation	NULL	nc	NULL	I_GP	OBJ	5	idtext0011	compensation	##f#s##	spk3	14.88	15.84	0.01	_
20091112_RATP_SCD_0756	9	8	et	NULL	coo	NULL	B_NULL	COORD	7	idtext0011	et	#####	spk3	15.85	16.02	0.01	_
20091112_RATP_SCD_0756	9	9	d'	NULL	prep	NULL	B_GP	DEP_COORD	8	idtext0011	d'	#####	spk3	16.03	16.06	0.01	_
20091112_RATP_SCD_0756	9	10	une	NULL	det	NULL	I_GP	DET	11	idtext0011	un	##f#s##i	spk3	16.07	16.31	0.01	_
20091112_RATP_SCD_0756	9	11	indemnisation	NULL	nc	NULL	I_GP	OBJ	9	idtext0011	indemnisation	##f#s##	spk3	16.32	16.92	0.01	_
20091112_RATP_SCD_0756	9	12	pour	NULL	prep	NULL	B_GP	P_OBJ	11	idtext0011	pour	#####	spk3	16.93	17.12	0.01	_
20091112_RATP_SCD_0756	9	13	les	NULL	det	NULL	I_GP	DET	14	idtext0011	le	###p##d	spk3	17.13	17.31	0.01	_
20091112_RATP_SCD_0756	9	14	voyageurs	NULL	nc	NULL	I_GP	OBJ	12	idtext0011	voyageur	##m#p##	spk3	17.32	17.72	0.01	_
20091112_RATP_SCD_0756	9	15	je	NULL	cln	NULL	B_GN	SUJ	16	idtext0011	cln	#1##s##	spk3	17.73	17.75	0.01	_
20091112_RATP_SCD_0756	9	16	voulais	NULL	v	NULL	B_GVf	ROOT	0	idtext0011	vouloir	I#12##s##	spk3	17.76	17.87	0.01	_
20091112_RATP_SCD_0756	9	17	savoir	NULL	vinf	NULL	I_GVf	OBJ	16	idtext0011	savoir	W#####	spk3	17.88	18.1	0.01	_
20091112_RATP_SCD_0756	9	18	comment	NULL	adv	NULL	B_GADV	OBJ	16	idtext0011	comment	#####	spk3	18.11	18.34	0.01	/
20091112_RATP_SCD_0756	9	19	ça	NULL	pro	NULL	B_GN	SUJ_IMP	21	idtext0011	ça	#####	spk3	18.35	18.43	0.01	_
20091112_RATP_SCD_0756	9	20	se	NULL	clr	NULL	B_GVf	AFF	21	idtext0011	se	#####	spk3	18.44	18.54	0.01	_
20091112_RATP_SCD_0756	9	21	passait	NULL	v	NULL	I_GVf	OBJ	18	idtext0011	passer	I#3##s##	spk3	18.55	19.01	?	//

20091112_RATP_SCD_0756	10	1	alors	NULL	adv	NULL	B_GADV	NOLINK	0	idtext0012	alors	#####	spk2	19.08	19.22	0.01	_
20091112_RATP_SCD_0756	10	2	on	DISF_R	cln	NULL	NULL	NOLINK	0	idtext0012	cln	#3##s##	spk2	19.23	19.26	0.01	_
20091112_RATP_SCD_0756	10	3	n'	DISF_R	clneg	NULL	NULL	NOLINK	0	idtext0012	n'	#####	spk2	19.27	19.33	0.01	_
20091112_RATP_SCD_0756	10	4	a	DISF_R	v	NULL	NULL	NOLINK	0	idtext0012	avoir	P#3##s##	spk2	19.34	19.57	0.01	_
20091112_RATP_SCD_0756	10	5	on	NULL	cln	NULL	B_GN	SUJ	7	idtext0012	cln	#3##s##	spk2	19.58	19.63	0.01	_
20091112_RATP_SCD_0756	10	6	n'	NULL	clneg	NULL	B_GVfn	MOD	7	idtext0012	n'	#####	spk2	19.64	19.71	0.01	_
20091112_RATP_SCD_0756	10	7	a	NULL	v	NULL	I_GVfn	ROOT	0	idtext0012	avoir	P#3##s##	spk2	19.72	19.75	0.01	_
20091112_RATP_SCD_0756	10	8	pas+encore	NULL	adv	NULL	B_GADV	MOD	7	idtext0012	pas+encore	#####	spk2	19.76	20.92	0.01	_
20091112_RATP_SCD_0756	10	9	euh	DISF_M	pres	NULL	NULL	NOLINK	0	idtext0012	euh	#####	spk2	20.93	20.96	0.01	_
20091112_RATP_SCD_0756	10	10	on	NULL	cln	NULL	B_GN	SUJ_IMP	13	idtext0012	cln	#3##s##	spk2	20.97	20.99	0.01	_
20091112_RATP_SCD_0756	10	11	n()	DISF_T	tronc	NULL	NULL	NOLINK	0	idtext0012	n()	#####	spk2	21.0	21.82	0.01	_
20091112_RATP_SCD_0756	10	12	la	NULL	det	NULL	B_GN	DET	13	idtext0013	le	##m#s##d	spk2	21.83	21.97	0.01	_
20091112_RATP_SCD_0756	10	13	note	NULL	nc	NULL	I_GN	OBJ	7	idtext0013	note	##f#s##	spk2	21.98	22.57	0.01	_
20091112_RATP_SCD_0756	10	14	officielle	NULL	adj	NULL	I_GN	MOD	13	idtext0013	officiel	##f#s##	spk2	22.58	23.02	0.01	/
20091112_RATP_SCD_0756	10	15	qui	NULL	prorel	NULL	B_NULL	SUJ	16	idtext0013	qui	#####	spk2	23.03	23.18	0.01	_
20091112_RATP_SCD_0756	10	16	va	NULL	v	NULL	B_GVf	MOD_REL	13	idtext0013	aller	P#3##s##	spk2	23.19	23.25	0.01	_
20091112_RATP_SCD_0756	10	17	permettre	NULL	vinf	NULL	I_GVf	OBJ	16	idtext0013	permettre	W#####	spk2	23.26	23.59	0.01	_
20091112_RATP_SCD_0756	10	18	ce	NULL	det	NULL	B_GN	DET	19	idtext0013	ce	##m#s##e	spk2	23.6	23.67	0.01	_
20091112_RATP_SCD_0756	10	19	remboursement	NULL	nc	NULL	I_GN	OBJ	17	idtext0013	remboursement	##m#s##	spk2	23.68	24.54	0.01	/
20091112_RATP_SCD_0756	10	20	ou	NULL	coo	NULL	B_NULL	COORD	19	idtext0013	ou	#####	spk2	24.55	24.66	0.01	_
20091112_RATP_SCD_0756	10	21	cette	NULL	det	NULL	B_GN	DET	22	idtext0013	cet	##f#s##e	spk2	24.67	24.81	0.01	_
20091112_RATP_SCD_0756	10	22	compensation	NULL	nc	NULL	I_GN	DEP_COORD	20	idtext0013	compensation	##f#s##	spk2	24.82	25.58	0.48	//
20091112_RATP_SCD_0756	10	23	euh	DISF_M	pres	NULL	NULL	NOLINK	0	idtext0014	euh	#####	spk2	26.06	26.08	0.01	_
20091112_RATP_SCD_0756	10	24	je	NULL	cln	NULL	B_GN	SUJ	25	idtext0014	cln	#1##s##	spk2	26.09	26.65	0.01	_
20091112_RATP_SCD_0756	10	25	pense	NULL	v	NULL	B_GVf	ROOT	0	idtext0014	penser	PS#13##s##	spk2	26.66	26.81	0.01	_
20091112_RATP_SCD_0756	10	26	qu'	NULL	csu	NULL	B_NULL	OBJ	25	idtext0014	qu'	#####	spk2	26.82	26.88	0.01	_
20091112_RATP_SCD_0756	10	27	il	NULL	cln	NULL	B_GN	SUJ_IMP	28	idtext0014	cln	#3#m#s##	spk2	26.89	26.94	0.01	_
20091112_RATP_SCD_0756	10	28	faudrait	NULL	v	NULL	B_GVf	OBJ	26	idtext0014	falloir	C#3##s##	spk2	26.95	27.84	0.01	_
20091112_RATP_SCD_0756	10	29	peut-être	NULL	adv	NULL	B_GVi	MOD	30	idtext0014	peut-être	#####	spk2	27.85	28.12	0.01	_
20091112_RATP_SCD_0756	10	30	rappeler	NULL	vinf	NULL	I_GVi	OBJ	28	idtext0014	rappeler	W#####	spk2	28.13	29.54	0.01	_
20091112_RATP_SCD_0756	10	31	hum	DISF_M	pres	NULL	NULL	NOLINK	0	idtext0014	hum	#####	spk2	29.55	29.83	0.01	_
20091112_RATP_SCD_0756	10	32	au+moins	NULL	adv	NULL	B_GADV	MOD	28	idtext0014	au+moins	#####	spk2	29.84	30.05	0.01	_
20091112_RATP_SCD_0756	10	33	la	NULL	det	NULL	B_GN	DET	34	idtext0014	le	##m#s##d	spk2	30.06	30.16	0.01	_
20091112_RATP_SCD_0756	10	34	semaine	NULL	nc	NULL	I_GN	OBJ	28	idtext0014	semaine	##f#s##	spk2	30.17	30.33	0.01	_
20091112_RATP_SCD_0756	10	35	prochaine	NULL	adj	NULL	I_GN	MOD	34	idtext0014	prochain	##f#s##	spk2	30.34	30.7	0.01	_
20091112_RATP_SCD_0756	10	36	voire	NULL	adv	NULL	B_GADV	MOD	28	idtext0014	voire	#####	spk2	30.71	30.86	0.01	_
20091112_RATP_SCD_0756	10	37	la	NULL	det	NULL	B_GN	DET	38	idtext0014	le	##m#s##d	spk2	30.87	30.95	0.01	_
20091112_RATP_SCD_0756	10	38	fin	NULL	nc	NULL	I_GN	OBJ	28	idtext0014	fin	###s##	spk2	30.96	31.12	0.01	_
20091112_RATP_SCD_0756	10	39	du	NULL	prep	NULL	B_GP	DEP	38	idtext0014	du	#####	spk2	31.13	31.21	0.01	_
20091112_RATP_SCD_0756	10	40	mois	NULL	nc	NULL	I_GP	OBJ	39	idtext0014	mois	##m###	spk2	31.22	31.65	?	//

20091112_RATP_SCD_0756	11	1	d'accord	NULL	adv	NULL	B_GADV	NOLINK	0	idtext0015	d'accord	#####	spk3	31.93	32.43	0.01	_
20091112_RATP_SCD_0756	11	2	bon	DISF_M	pres	NULL	NULL	NOLINK	0	idtext0015	bon	#####	spk3	32.44	32.63	?	//

20091112_RATP_SCD_0756	12	1	mais	NULL	coo	NULL	B_NULL	NOLINK	0	idtext0016	mais	#####	spk2	32.67	32.78	0.01	_
20091112_RATP_SCD_0756	12	2	pour	NULL	prep	NULL	B_NULL	NOLINK	0	idtext0016	pour	#####	spk2	32.79	32.92	?	_

20091112_RATP_SCD_0756	13	1	ben	DISF_M	pres	NULL	NULL	NOLINK	0	idtext0017	ben	#####	spk3	32.75	32.92	?	//

20091112_RATP_SCD_0756	14	1	l'	NULL	det	NULL	B_GN	DET	2	idtext0018	le	###s##d	spk2	32.96	32.98	0.01	_
20091112_RATP_SCD_0756	14	2	instant	NULL	nc	NULL	I_GN	ROOT	0	idtext0018	instant	##m#s##	spk2	32.99	33.18	0.01	_
20091112_RATP_SCD_0756	14	3	c'	NULL	cln	NULL	B_GN	SUJ_IMP	4	idtext0018	ce	###s##	spk2	33.19	33.27	0.01	_
20091112_RATP_SCD_0756	14	4	est	NULL	v	NULL	B_GVf	ROOT	0	idtext0018	être	P#3##s##	spk2	33.28	33.32	0.01	_
20091112_RATP_SCD_0756	14	5	vrai	NULL	adj	NULL	B_GADJ	ATS	4	idtext0018	vrai	##m#s##	spk2	33.33	33.5	0.01	_
20091112_RATP_SCD_0756	14	6	qu'	NULL	csu	NULL	B_NULL	OBJ	5	idtext0018	qu'	#####	spk2	33.51	33.6	0.01	_
20091112_RATP_SCD_0756	14	7	ils	NULL	cln	NULL	B_GN	SUJ	10	idtext0018	cln	#3#m#p##	spk2	33.61	33.7	0.01	_
20091112_RATP_SCD_0756	14	8	en	NULL	clo	NULL	B_GN	DE_OBJ	10	idtext0018	en	#####	spk2	33.71	33.81	0.01	_
20091112_RATP_SCD_0756	14	9	ont	NULL	v	NULL	B_GVf	AUX	10	idtext0018	avoir	P#3##p##	spk2	33.82	33.88	0.01	_
20091112_RATP_SCD_0756	14	10	parlé	NULL	vppart	NULL	I_GVf	OBJ	6	idtext0018	parler	K##m#s##	spk2	33.89	34.3	0.01	/
20091112_RATP_SCD_0756	14	11	mais	NULL	coo	NULL	B_NULL	COORD	10	idtext0018	mais	#####	spk2	34.31	34.41	0.01	_
20091112_RATP_SCD_0756	14	12	il	NULL	cln	NULL	B_GN	SUJ_IMP	14	idtext0018	cln	#3#m#s##	spk2	34.42	34.47	0.01	_
20091112_RATP_SCD_0756	14	13	y	NULL	clo	NULL	B_GN	AFF	14	idtext0018	y	#####	spk2	34.48	34.51	0.01	_
20091112_RATP_SCD_0756	14	14	a	NULL	v	NULL	B_GVf	DEP_COORD	11	idtext0018	avoir	P#3##s##	spk2	34.52	34.55	0.01	_
20091112_RATP_SCD_0756	14	15	rien	NULL	pro	NULL	I_GP	OBJ	14	idtext0018	rien	#####	spk2	34.56	34.69	0.01	_
20091112_RATP_SCD_0756	14	16	d'	NULL	prep	NULL	B_NULL	DEP	15	idtext0018	d'	#####	spk2	34.7	34.73	0.01	_
20091112_RATP_SCD_0756	14	17	officiel	NULL	adj	NULL	B_GADJ	OBJ	16	idtext0018	officiel	##m#s##	spk2	34.74	35.41	?	//

20091112_RATP_SCD_0756	15	1	d'accord	NULL	adv	NULL	B_GADV	NOLINK	0	idtext0019	d'accord	#####	spk3	35.56	35.92	0.01	_
20091112_RATP_SCD_0756	15	2	ben	DISF_M	pres	NULL	NULL	NOLINK	0	idtext0019	ben	#####	spk3	35.93	36.04	0.01	_
20091112_RATP_SCD_0756	15	3	j'	NULL	cln	NULL	B_GN	SUJ	4	idtext0019	cln	#1##s##	spk3	36.05	36.12	0.01	_
20091112_RATP_SCD_0756	15	4	attendrai	NULL	v	NULL	B_GVf	ROOT	0	idtext0019	attendre	F#1##s##	spk3	36.13	36.59	?	//

20091112_RATP_SCD_0756	16	1	merci	NULL	adv	NULL	B_GADV	MOD	2	idtext0020	merci	#####	spk3	36.63	36.86	0.01	_
20091112_RATP_SCD_0756	16	2	beaucoup	NULL	adv	NULL	I_GADV	MOD	3	idtext0020	beaucoup	#####	spk3	36.87	37.21	0.01	_
20091112_RATP_SCD_0756	16	3	au+revoir	NULL	adv	NULL	I_GADV	ROOT	0	idtext0020	au+revoir	#####	spk3	37.22	38.41	?	_

20091112_RATP_SCD_0756	17	1	je	NULL	cln	NULL	B_GN	SUJ	4	idtext0021	cln	#1##s##	spk2	36.8	36.98	0.01	_
20091112_RATP_SCD_0756	17	2	vous	NULL	clo	NULL	B_GN	OBJ	4	idtext0021	cln	#2##p##	spk2	36.99	37.2	0.01	_
20091112_RATP_SCD_0756	17	3	en	NULL	clo	NULL	B_GN	DE_OBJ	4	idtext0021	en	#####	spk2	37.21	37.27	0.01	_
20091112_RATP_SCD_0756	17	4	prie	NULL	v	NULL	B_GVf	ROOT	0	idtext0021	prier	PS#13##s##	spk2	37.28	37.42	0.01	_
20091112_RATP_SCD_0756	17	5	monsieur	NULL	nc	NULL	B_GN	OBJ	4	idtext0021	Monsieur	##m#s##	spk2	37.43	37.9	0.01	_
20091112_RATP_SCD_0756	17	6	à	NULL	prep	NULL	B_NULL	MOD	5	idtext0021	à	#####	spk2	37.91	38.0	0.01	_
20091112_RATP_SCD_0756	17	7	bientôt	NULL	adv	NULL	B_GADV	OBJ	6	idtext0021	bientôt	#####	spk2	38.01	38.41	?	//

20091112_RATP_SCD_0756	18	1	au+revoir	NULL	adv	NULL	B_GADV	NOLINK	0	idtext0022	au+revoir	#####	spk2	38.45	39.28	?	//

