20091112_RATP_SCD_1334	1	1	NNAAMMEE	NULL	np	B_HU	B_GN	ROOT	0	idtext0000	ANONYM	NULL	spk1	7.98	8.34	0.05	_
20091112_RATP_SCD_1334	1	2	bonsoir	NULL	nc	NULL	B_GN	NOLINK	0	idtext0001	bonsoir	##m#s##	spk1	8.39	8.93	?	//

20091112_RATP_SCD_1334	2	1	oui	NULL	adv	NULL	B_GADV	NOLINK	0	idtext0002	oui	#####	spk2	9.25	9.47	0.01	_
20091112_RATP_SCD_1334	2	2	bonsoir	NULL	nc	NULL	B_GN	NOLINK	0	idtext0002	bonsoir	##m#s##	spk2	9.48	10.37	?	//

20091112_RATP_SCD_1334	3	1	euh	DISF_M	pres	NULL	NULL	NOLINK	0	idtext0003	euh	#####	spk2	10.54	10.74	0.01	_
20091112_RATP_SCD_1334	3	2	j'	NULL	cln	NULL	B_GN	SUJ	3	idtext0003	cln	#1##s##	spk2	10.75	10.91	0.01	_
20091112_RATP_SCD_1334	3	3	aimerais	NULL	v	NULL	B_GVf	ROOT	0	idtext0003	aimer	C#12##s##	spk2	10.92	12.51	0.01	_
20091112_RATP_SCD_1334	3	4	savoir	NULL	vinf	NULL	I_GVf	OBJ	3	idtext0003	savoir	W#####	spk2	12.52	13.26	0.01	_
20091112_RATP_SCD_1334	3	5	si	NULL	csu	NULL	B_NULL	OBJ	4	idtext0003	si	#####	spk2	13.27	13.36	0.01	_
20091112_RATP_SCD_1334	3	6	il	NULL	cln	NULL	B_GN	SUJ_IMP	9	idtext0003	cln	#3#m#s##	spk2	13.37	13.45	0.01	_
20091112_RATP_SCD_1334	3	7	y	NULL	clo	NULL	B_GN	AFF	9	idtext0003	y	#####	spk2	13.46	13.49	0.01	_
20091112_RATP_SCD_1334	3	8	a	NULL	v	NULL	B_GVf	AUX	9	idtext0003	avoir	P#3##s##	spk2	13.5	13.52	0.01	_
20091112_RATP_SCD_1334	3	9	eu	NULL	vppart	NULL	I_GVf	ROOT	0	idtext0003	avoir	K##m#s##	spk2	13.53	13.56	0.01	_
20091112_RATP_SCD_1334	3	10	des	NULL	det	NULL	B_GN	DET	11	idtext0003	des	###p##i	spk2	13.57	13.82	0.01	_
20091112_RATP_SCD_1334	3	11	problèmes	NULL	nc	NULL	I_GN	OBJ	9	idtext0003	problème	##m#p##	spk2	13.83	15.07	0.01	_
20091112_RATP_SCD_1334	3	12	euh	DISF_M	pres	NULL	NULL	NOLINK	0	idtext0003	euh	#####	spk2	15.08	15.25	0.01	_
20091112_RATP_SCD_1334	3	13	sur	NULL	prep	NULL	B_GP	P_OBJ	11	idtext0003	sur	#####	spk2	15.26	15.39	0.01	_
20091112_RATP_SCD_1334	3	14	la	NULL	det	NULL	I_GP	DET	15	idtext0003	le	##m#s##d	spk2	15.4	15.53	0.01	_
20091112_RATP_SCD_1334	3	15	ligne	NULL	nc	B_T	I_GP	OBJ	13	idtext0003	ligne	##f#s##	spk2	15.54	15.76	0.01	_
20091112_RATP_SCD_1334	3	16	trois	NULL	adj	I_T	I_GP	MOD	15	idtext0003	trois	#####	spk2	15.77	16.11	0.01	_
20091112_RATP_SCD_1334	3	17	au+niveau+de	NULL	prep	NULL	B_GP	P_OBJ_LOC	15	idtext0003	au+niveau+de	#####	spk2	16.12	16.55	0.01	_
20091112_RATP_SCD_1334	3	18	Quatre+Septembre	NULL	nc	B_A	I_GP	OBJ	17	idtext0003	Quatre+Septembre	#####	spk2	16.56	17.29	0.01	/
20091112_RATP_SCD_1334	3	19	à+partir+de	NULL	prep	NULL	B_GP	MOD	15	idtext0003	à+partir+de	#####	spk2	17.3	17.91	0.01	_
20091112_RATP_SCD_1334	3	20	dix-huit	NULL	det	B_H	I_GP	DET	21	idtext0003	dix-huit	#####	spk2	17.92	18.34	0.01	_
20091112_RATP_SCD_1334	3	21	heures	NULL	nc	I_H	I_GP	OBJ	19	idtext0003	heure	##f#p##	spk2	18.35	18.48	0.01	_
20091112_RATP_SCD_1334	3	22	trente	NULL	adj	I_H	I_GP	MOD	21	idtext0003	trente	#####	spk2	18.49	19.18	?	//

20091112_RATP_SCD_1334	4	1	alors	NULL	adv	NULL	B_GADV	NOLINK	0	idtext0004	alors	#####	spk1	19.42	19.59	0.01	_
20091112_RATP_SCD_1334	4	2	vous	NULL	cln	NULL	B_GN	SUJ	3	idtext0004	cln	#2##p##	spk1	19.6	19.65	0.01	_
20091112_RATP_SCD_1334	4	3	voulez	NULL	v	NULL	B_GVf	ROOT	0	idtext0004	vouloir	P#2##p##	spk1	19.66	19.87	0.01	_
20091112_RATP_SCD_1334	4	4	savoir	NULL	vinf	NULL	I_GVf	OBJ	3	idtext0004	savoir	W#####	spk1	19.88	20.16	0.01	_
20091112_RATP_SCD_1334	4	5	si	NULL	csu	NULL	B_NULL	OBJ	4	idtext0004	si	#####	spk1	20.17	20.29	0.01	_
20091112_RATP_SCD_1334	4	6	il	NULL	cln	NULL	B_GN	SUJ_IMP	9	idtext0004	cln	#3#m#s##	spk1	20.3	20.35	0.01	_
20091112_RATP_SCD_1334	4	7	y	NULL	clo	NULL	B_GN	AFF	9	idtext0004	y	#####	spk1	20.36	20.38	0.01	_
20091112_RATP_SCD_1334	4	8	a	NULL	v	NULL	B_GVf	AUX	9	idtext0004	avoir	P#3##s##	spk1	20.39	20.41	0.01	_
20091112_RATP_SCD_1334	4	9	eu	NULL	vppart	NULL	I_GVf	ROOT	0	idtext0004	avoir	K##m#s##	spk1	20.42	20.47	0.01	_
20091112_RATP_SCD_1334	4	10	des	NULL	det	NULL	B_GN	DET	11	idtext0004	des	###p##i	spk1	20.48	20.57	0.01	_
20091112_RATP_SCD_1334	4	11	soucis	NULL	nc	NULL	I_GN	OBJ	9	idtext0004	souci	##m#p##	spk1	20.58	20.88	0.01	/
20091112_RATP_SCD_1334	4	12	sur	NULL	prep	NULL	B_GP	P_OBJ	11	idtext0004	sur	#####	spk1	20.89	21.04	0.01	_
20091112_RATP_SCD_1334	4	13	la	NULL	det	NULL	I_GP	DET	14	idtext0004	le	##m#s##d	spk1	21.05	21.12	0.01	_
20091112_RATP_SCD_1334	4	14	ligne	NULL	nc	NULL	I_GP	OBJ	12	idtext0004	ligne	##f#s##	spk1	21.13	21.3	?	//

20091112_RATP_SCD_1334	5	1	trois	NULL	adj	NULL	B_GADJ	NOLINK	0	idtext0005	trois	#####	spk1	21.34	21.68	0.01	//
20091112_RATP_SCD_1334	5	2	euh	DISF_M	pres	NULL	NULL	NOLINK	0	idtext0005	euh	#####	spk1	21.69	21.9	?	//

20091112_RATP_SCD_1334	6	1	oui	NULL	adv	NULL	B_GADV	NOLINK	0	idtext0006	oui	#####	spk2	21.34	21.9	?	//

20091112_RATP_SCD_1334	7	1	euh	DISF_M	pres	NULL	NULL	NOLINK	0	idtext0007	euh	#####	spk1	22.03	22.07	0.01	_
20091112_RATP_SCD_1334	7	2	à	NULL	prep	NULL	B_GP	ROOT	0	idtext0007	à	#####	spk1	22.08	22.24	0.01	_
20091112_RATP_SCD_1334	7	3	l'	NULL	det	NULL	I_GP	DET	4	idtext0007	le	###s##d	spk1	22.25	22.29	0.01	_
20091112_RATP_SCD_1334	7	4	arrêt	NULL	nc	NULL	I_GP	OBJ	2	idtext0007	arrêt	##m#s##	spk1	22.3	22.63	0.01	_
20091112_RATP_SCD_1334	7	5	au	NULL	prep	NULL	B_GP	MOD	4	idtext0007	au	#####	spk1	22.64	22.73	0.01	_
20091112_RATP_SCD_1334	7	6	métro	NULL	nc	B_T	I_GP	OBJ	5	idtext0007	métro	##m#s##	spk1	22.74	23.02	0.01	_
20091112_RATP_SCD_1334	7	7	Quatre+Septembre	NULL	np	I_T	I_GP	MOD	6	idtext0007	Quatre+Septembre	#####	spk1	23.03	23.61	?	//

20091112_RATP_SCD_1334	8	1	c'	NULL	cln	NULL	B_GN	SUJ_IMP	2	idtext0008	ce	###s##	spk1	23.65	23.67	0.01	_
20091112_RATP_SCD_1334	8	2	est	NULL	v	NULL	B_GVf	ROOT	0	idtext0008	être	P#3##s##	spk1	23.68	23.76	0.01	_
20091112_RATP_SCD_1334	8	3	ça	NULL	pro	NULL	B_GN	ATS	2	idtext0008	ça	#####	spk1	23.77	23.84	0.01	_
20091112_RATP_SCD_1334	8	4	à+partir+de	NULL	prep	NULL	B_NULL	NOLINK	0	idtext0008	à+partir+de	#####	spk1	23.85	24.31	?	_

20091112_RATP_SCD_1334	9	1	ouais	NULL	adv	NULL	B_GADV	NOLINK	0	idtext0009	ouais	#####	spk2	23.65	24.04	0.01	_
20091112_RATP_SCD_1334	9	2	voilà	DISF_M	pres	NULL	NULL	NOLINK	0	idtext0009	voilà	#####	spk2	24.05	24.31	?	//

20091112_RATP_SCD_1334	10	1	dix-huit	NULL	det	B_H	B_GN	DET	2	idtext0010	dix-huit	#####	spk1	24.35	24.7	0.01	_
20091112_RATP_SCD_1334	10	2	heures	NULL	nc	I_H	I_GN	NOLINK	0	idtext0010	heure	##f#p##	spk1	24.71	25.1	?	//

20091112_RATP_SCD_1334	11	1	ben	DISF_M	pres	NULL	NULL	NOLINK	0	idtext0011	ben	#####	spk2	25.52	25.68	0.01	_
20091112_RATP_SCD_1334	11	2	dix-huit	NULL	det	B_H	B_GN	DET	3	idtext0011	dix-huit	#####	spk2	25.69	26.11	0.01	_
20091112_RATP_SCD_1334	11	3	heures	NULL	nc	I_H	I_GN	ROOT	0	idtext0011	heure	##f#p##	spk2	26.12	26.21	0.01	_
20091112_RATP_SCD_1334	11	4	trente	NULL	adj	I_H	I_GN	MOD	3	idtext0011	trente	#####	spk2	26.22	26.48	0.01	_
20091112_RATP_SCD_1334	11	5	plutôt	NULL	adv	NULL	B_GADV	MOD	3	idtext0011	plutôt	#####	spk2	26.49	26.88	?	//

20091112_RATP_SCD_1334	12	1	d'accord	NULL	adv	NULL	B_GADV	NOLINK	0	idtext0012	d'accord	#####	spk1	26.92	27.73	0.01	/
20091112_RATP_SCD_1334	12	2	ne	NULL	clneg	NULL	B_GVfn	MOD	3	idtext0013	ne	#####	spk1	27.74	27.77	0.01	_
20091112_RATP_SCD_1334	12	3	quittez	NULL	v	NULL	I_GVfn	ROOT	0	idtext0013	quitter	P#2##p##	spk1	27.78	28.09	0.01	_
20091112_RATP_SCD_1334	12	4	pas	NULL	advneg	NULL	I_GVfn	MOD	3	idtext0013	pas	#####	spk1	28.1	28.22	0.01	_
20091112_RATP_SCD_1334	12	5	je	NULL	cln	NULL	B_GN	SUJ	6	idtext0013	cln	#1##s##	spk1	28.23	28.29	0.01	_
20091112_RATP_SCD_1334	12	6	vais	NULL	v	NULL	B_GVf	ROOT	0	idtext0013	aller	P#1##s##	spk1	28.3	28.37	?	//

20091112_RATP_SCD_1334	13	1	m'	NULL	clo	NULL	B_GN	OBJ	2	idtext0014	cla	#1##s##	spk1	28.41	28.44	0.01	_
20091112_RATP_SCD_1334	13	2	informer	NULL	vinf	NULL	B_GVi	ROOT	0	idtext0014	informer	W#####	spk1	28.45	28.78	0.01	_
20091112_RATP_SCD_1334	13	3	hein	DISF_M	pres	NULL	NULL	NOLINK	0	idtext0014	hein	#####	spk1	28.79	29.1	?	//

20091112_RATP_SCD_1334	14	1	oui	NULL	adv	NULL	B_GADV	NOLINK	0	idtext0015	oui	#####	spk2	28.58	29.1	?	//

20091112_RATP_SCD_1334	15	1	oui	NULL	adv	NULL	B_GADV	MOD	2	idtext0016	oui	#####	spk2	29.21	29.37	0.01	_
20091112_RATP_SCD_1334	15	2	s'il+vous+plaît	NULL	adv	NULL	I_GADV	ROOT	0	idtext0016	s'il+vous+plaît	#####	spk2	29.38	30.03	?	//

20091112_RATP_SCD_1334	16	1	s'il+vous+plaît	NULL	adv	NULL	B_GADV	NOLINK	0	idtext0017	s'il+vous+plaît	#####	spk1	42.77	43.37	?	//

20091112_RATP_SCD_1334	17	1	oui	NULL	adv	NULL	B_GADV	NOLINK	0	idtext0018	oui	#####	spk2	43.6	43.83	?	//

20091112_RATP_SCD_1334	18	1	non	NULL	adv	NULL	B_GADV	NOLINK	0	idtext0019	non	#####	spk1	44.01	44.18	0.01	/
20091112_RATP_SCD_1334	18	2	moi	NULL	pro	NULL	B_GN	SUJ	4	idtext0019	moi	#####	spk1	44.19	44.33	0.01	_
20091112_RATP_SCD_1334	18	3	j'	NULL	cln	NULL	B_GN	SUJ	4	idtext0019	cln	#1##s##	spk1	44.34	44.39	0.01	_
20091112_RATP_SCD_1334	18	4	ai	NULL	v	NULL	B_GVf	ROOT	0	idtext0019	avoir	P#1##s##	spk1	44.4	44.44	0.01	_
20091112_RATP_SCD_1334	18	5	rien	NULL	pro	NULL	B_GN	OBJ	4	idtext0019	rien	#####	spk1	44.45	44.7	0.01	_
20091112_RATP_SCD_1334	18	6	sur	NULL	prep	NULL	B_GP	MOD	5	idtext0019	sur	#####	spk1	44.71	44.88	0.01	_
20091112_RATP_SCD_1334	18	7	la	NULL	det	NULL	I_GP	DET	8	idtext0019	le	##m#s##d	spk1	44.89	44.97	0.01	_
20091112_RATP_SCD_1334	18	8	ligne	NULL	nc	B_T	I_GP	OBJ	6	idtext0019	ligne	##f#s##	spk1	44.98	45.14	0.01	_
20091112_RATP_SCD_1334	18	9	trois	NULL	adj	I_T	I_GP	MOD	8	idtext0019	trois	#####	spk1	45.15	45.33	0.01	_
20091112_RATP_SCD_1334	18	10	hein	DISF_M	pres	I_T	NULL	NOLINK	0	idtext0019	hein	#####	spk1	45.34	45.7	?	//

20091112_RATP_SCD_1334	19	1	il	NULL	cln	NULL	B_GN	SUJ_IMP	3	idtext0020	cln	#3#m#s##	spk2	45.91	45.98	0.01	_
20091112_RATP_SCD_1334	19	2	y	NULL	clo	NULL	B_GN	AFF	3	idtext0020	y	#####	spk2	45.99	46.01	0.01	_
20091112_RATP_SCD_1334	19	3	a	NULL	v	NULL	B_GVf	ROOT	0	idtext0020	avoir	P#3##s##	spk2	46.02	46.08	0.01	_
20091112_RATP_SCD_1334	19	4	rien	NULL	pro	NULL	I_GP	OBJ	3	idtext0020	rien	#####	spk2	46.09	46.29	0.01	_
20091112_RATP_SCD_1334	19	5	eu	NULL	vppart	NULL	B_GVf	NOLINK	0	idtext0020	avoir	K##m#s##	spk2	46.3	46.46	?	//

20091112_RATP_SCD_1334	20	1	cette	NULL	det	NULL	B_GN	DET	2	idtext0021	cet	##f#s##e	spk2	46.51	46.66	0.01	_
20091112_RATP_SCD_1334	20	2	soirée	NULL	nc	NULL	I_GN	ROOT	0	idtext0021	soirée	##f#s##	spk2	46.67	47.01	0.01	_
20091112_RATP_SCD_1334	20	3	sur	NULL	prep	NULL	B_GP	P_OBJ	2	idtext0021	sur	#####	spk2	47.02	47.18	0.01	_
20091112_RATP_SCD_1334	20	4	la	NULL	det	NULL	I_GP	DET	5	idtext0021	le	##m#s##d	spk2	47.19	47.38	0.01	_
20091112_RATP_SCD_1334	20	5	trois	NULL	adj	NULL	I_GP	OBJ	3	idtext0021	trois	#####	spk2	47.39	47.61	?	_

20091112_RATP_SCD_1334	21	1	non	DISF_R	adv	NULL	NULL	NOLINK	0	idtext0022	non	#####	spk1	46.63	47.12	0.01	_
20091112_RATP_SCD_1334	21	2	non	NULL	adv	NULL	B_GADV	NOLINK	0	idtext0022	non	#####	spk1	47.13	47.61	?	_

20091112_RATP_SCD_1334	22	1	non	DISF_R	adv	NULL	NULL	NOLINK	0	idtext0023	non	#####	spk1	47.67	47.9	0.01	_
20091112_RATP_SCD_1334	22	2	non	NULL	adv	NULL	B_GADV	NOLINK	0	idtext0023	non	#####	spk1	47.91	48.14	?	_

20091112_RATP_SCD_1334	23	1	bon	DISF_M	pres	NULL	NULL	NOLINK	0	idtext0024	bon	#####	spk2	48.84	49.17	0.01	_
20091112_RATP_SCD_1334	23	2	d'accord	NULL	adv	NULL	B_GADV	NOLINK	0	idtext0024	d'accord	#####	spk2	49.18	50.02	?	//

20091112_RATP_SCD_1334	24	1	merci	NULL	adv	NULL	B_GADV	NOLINK	0	idtext0025	merci	#####	spk2	50.87	51.32	?	//

20091112_RATP_SCD_1334	25	1	je	NULL	cln	NULL	B_GN	SUJ	4	idtext0026	cln	#1##s##	spk1	51.45	51.49	0.01	_
20091112_RATP_SCD_1334	25	2	vous	NULL	clo	NULL	B_GN	OBJ	4	idtext0026	cln	#2##p##	spk1	51.5	51.61	0.01	_
20091112_RATP_SCD_1334	25	3	en	NULL	clo	NULL	B_GN	DE_OBJ	4	idtext0026	en	#####	spk1	51.62	51.69	0.01	_
20091112_RATP_SCD_1334	25	4	prie	NULL	v	NULL	B_GVf	ROOT	0	idtext0026	prier	PS#13##s##	spk1	51.7	51.97	0.01	_
20091112_RATP_SCD_1334	25	5	bonne	NULL	adj	NULL	B_GADJ	NOLINK	0	idtext0026	bon	##f#s##	spk1	51.98	52.18	?	//

20091112_RATP_SCD_1334	26	1	soirée	NULL	nc	NULL	B_GN	NOLINK	0	idtext0027	soirée	##f#s##	spk1	52.22	52.45	0.01	_
20091112_RATP_SCD_1334	26	2	au+revoir	NULL	adv	NULL	B_GADV	NOLINK	0	idtext0027	au+revoir	#####	spk1	52.46	52.83	?	//

20091112_RATP_SCD_1334	27	1	au+revoir	NULL	adv	NULL	B_GADV	NOLINK	0	idtext0028	au+revoir	#####	spk2	52.25	52.83	?	//

