20091112_RATP_SCD_0604	1	1	NNAAMMEE	NULL	np	B_HU	B_GN	ROOT	0	idtext0000	ANONYM	NULL	spk1	4.58	4.77	0.06	_
20091112_RATP_SCD_0604	1	2	bonjour	NULL	adv	NULL	B_GADV	NOLINK	0	idtext0001	bonjour	#####	spk1	4.83	5.23	?	//

20091112_RATP_SCD_0604	2	1	ah	DISF_M	pres	NULL	NULL	NOLINK	0	idtext0002	ah	#####	spk2	5.66	5.95	?	//

20091112_RATP_SCD_0604	3	1	oui	NULL	adv	NULL	B_GADV	MOD	2	idtext0003	oui	#####	spk2	6.65	6.84	0.01	_
20091112_RATP_SCD_0604	3	2	bonjour	NULL	adv	NULL	I_GADV	ROOT	0	idtext0003	bonjour	#####	spk2	6.85	7.14	0.01	/
20091112_RATP_SCD_0604	3	3	madame	NULL	nc	NULL	B_GN	NOLINK	0	idtext0003	Monsieur	##f#s##	spk2	7.15	7.52	0.01	_
20091112_RATP_SCD_0604	3	4	j'	NULL	cln	NULL	B_GN	SUJ	6	idtext0003	cln	#1##s##	spk2	7.53	7.61	0.01	_
20091112_RATP_SCD_0604	3	5	aurais	NULL	v	NULL	B_GVf	AUX	6	idtext0003	avoir	C#12##s##	spk2	7.62	7.79	0.01	_
20091112_RATP_SCD_0604	3	6	voulu	NULL	vppart	NULL	I_GVf	ROOT	0	idtext0003	vouloir	K##m#s##	spk2	7.8	8.05	0.01	_
20091112_RATP_SCD_0604	3	7	savoir	NULL	vinf	NULL	B_GVi	OBJ	6	idtext0003	savoir	W#####	spk2	8.06	8.35	0.01	_
20091112_RATP_SCD_0604	3	8	l'	NULL	det	NULL	B_GN	DET	9	idtext0003	le	###s##d	spk2	8.36	8.38	0.01	_
20091112_RATP_SCD_0604	3	9	itinéraire	NULL	nc	NULL	I_GN	OBJ	7	idtext0003	itinéraire	##m#s##	spk2	8.39	8.97	0.01	_
20091112_RATP_SCD_0604	3	10	pour	NULL	prep	NULL	B_GP	MOD	9	idtext0003	pour	#####	spk2	8.98	9.17	0.01	_
20091112_RATP_SCD_0604	3	11	aller	NULL	vinf	NULL	I_GP	OBJ	10	idtext0003	aller	W#####	spk2	9.18	9.35	0.01	_
20091112_RATP_SCD_0604	3	12	de	NULL	prep	NULL	B_GP	P_OBJ_LOC	11	idtext0003	de	#####	spk2	9.36	9.47	0.01	_
20091112_RATP_SCD_0604	3	13	Fontenay-sous-Bois	NULL	nc	B_A	I_GP	OBJ	12	idtext0003	Fontenay-sous-Bois	##m#s##	spk2	9.48	11.01	0.01	_
20091112_RATP_SCD_0604	3	14	à	NULL	prep	NULL	B_GP	P_OBJ_LOC	11	idtext0004	à	#####	spk2	11.02	11.12	0.01	_
20091112_RATP_SCD_0604	3	15	la	NULL	det	NULL	I_GP	DET	16	idtext0004	le	##m#s##d	spk2	11.13	11.25	0.01	_
20091112_RATP_SCD_0604	3	16	gare	NULL	nc	B_A	I_GP	OBJ	14	idtext0004	gare	##f#s##	spk2	11.26	11.66	0.01	_
20091112_RATP_SCD_0604	3	17	de	NULL	prep	I_A	I_GP	DEP	16	idtext0004	de	#####	spk2	11.67	11.79	0.01	_
20091112_RATP_SCD_0604	3	18	Chilly-Mazarin	NULL	np	I_A	I_GP	OBJ	17	idtext0004	Chilly-Mazarin	##m#s##	spk2	11.8	12.87	?	//

20091112_RATP_SCD_0604	4	1	aujourd'hui	NULL	adv	NULL	B_GADV	NOLINK	0	idtext0005	aujourd'hui	#####	spk1	13.83	14.22	0.01	_
20091112_RATP_SCD_0604	4	2	madame	NULL	nc	NULL	B_GN	NOLINK	0	idtext0005	Monsieur	##f#s##	spk1	14.23	14.6	?	//

20091112_RATP_SCD_0604	5	1	pas	NULL	advneg	NULL	B_NULL	NOLINK	0	idtext0006	pas	#####	spk2	14.94	15.15	0.01	_
20091112_RATP_SCD_0604	5	2	aujourd'hui	NULL	adv	NULL	B_GADV	MOD	3	idtext0006	aujourd'hui	#####	spk2	15.16	15.7	0.01	_
20091112_RATP_SCD_0604	5	3	non	NULL	adv	NULL	I_GADV	ROOT	0	idtext0006	non	#####	spk2	15.71	15.97	0.01	_
20091112_RATP_SCD_0604	5	4	dans	NULL	prep	NULL	B_GP	ROOT	0	idtext0006	dans	#####	spk2	15.98	16.44	0.01	_
20091112_RATP_SCD_0604	5	5	euh	DISF_M	pres	NULL	NULL	NOLINK	0	idtext0006	euh	#####	spk2	16.45	16.52	0.01	_
20091112_RATP_SCD_0604	5	6	lundi	NULL	nc	NULL	I_GP	OBJ	4	idtext0006	lundi	##m#s##	spk2	16.53	17.01	?	_

20091112_RATP_SCD_0604	6	1	d'accord	NULL	adv	NULL	B_GADV	NOLINK	0	idtext0007	d'accord	#####	spk1	18.23	18.53	?	//

20091112_RATP_SCD_0604	7	1	alors	NULL	adv	NULL	B_GADV	NOLINK	0	idtext0008	alors	#####	spk1	18.93	19.17	0.01	_
20091112_RATP_SCD_0604	7	2	donc	NULL	coo	NULL	B_NULL	ROOT	0	idtext0008	donc	#####	spk1	19.18	19.39	0.01	_
20091112_RATP_SCD_0604	7	3	vous	NULL	cln	NULL	B_GN	SUJ	4	idtext0008	cln	#2##p##	spk1	19.4	19.46	0.01	_
20091112_RATP_SCD_0604	7	4	voulez	NULL	v	NULL	B_GVf	DEP_COORD	2	idtext0008	vouloir	P#2##p##	spk1	19.47	19.7	0.01	_
20091112_RATP_SCD_0604	7	5	aller	NULL	vinf	NULL	I_GVf	OBJ	4	idtext0008	aller	W#####	spk1	19.71	19.93	0.01	_
20091112_RATP_SCD_0604	7	6	à	NULL	prep	NULL	B_GP	P_OBJ_LOC	5	idtext0008	à	#####	spk1	19.94	19.97	0.01	_
20091112_RATP_SCD_0604	7	7	la	NULL	det	NULL	I_GP	DET	8	idtext0008	le	##m#s##d	spk1	19.98	20.08	0.01	_
20091112_RATP_SCD_0604	7	8	gare	NULL	nc	B_A	I_GP	OBJ	6	idtext0008	gare	##f#s##	spk1	20.09	20.4	0.01	_
20091112_RATP_SCD_0604	7	9	de	NULL	prep	I_A	I_GP	DEP	8	idtext0008	de	#####	spk1	20.41	20.67	0.01	_
20091112_RATP_SCD_0604	7	10	Chilly-Mazarin	NULL	np	I_A	I_GP	OBJ	9	idtext0008	Chilly-Mazarin	##m#s##	spk1	20.68	21.73	0.01	_
20091112_RATP_SCD_0604	7	11	en	NULL	prep	NULL	B_NULL	MOD	8	idtext0008	en	#####	spk1	21.74	21.84	?	_

20091112_RATP_SCD_0604	8	1	partant	NULL	vprespart	NULL	B_GVf	NOLINK	0	idtext0009	partir	G#####	spk1	21.93	22.35	?	//

20091112_RATP_SCD_0604	9	1	oui	NULL	adv	NULL	B_GADV	NOLINK	0	idtext0010	oui	#####	spk2	21.88	22.35	?	//

20091112_RATP_SCD_0604	10	1	de	NULL	prep	NULL	B_GP	ROOT	0	idtext0011	de	#####	spk1	22.39	22.41	0.01	_
20091112_RATP_SCD_0604	10	2	la	NULL	det	NULL	I_GP	DET	3	idtext0011	le	##m#s##d	spk1	22.42	22.56	0.01	_
20091112_RATP_SCD_0604	10	3	gare	NULL	nc	NULL	I_GP	OBJ	1	idtext0011	gare	##f#s##	spk1	22.57	22.8	0.01	_
20091112_RATP_SCD_0604	10	4	d()	DISF_T	tronc	NULL	NULL	NOLINK	0	idtext0011	d()	#####	spk1	22.81	22.87	0.01	_
20091112_RATP_SCD_0604	10	5	Fontenay-sous-Bois	NULL	nc	B_A	I_GP	MOD	3	idtext0011	Fontenay-sous-Bois	##m#s##	spk1	22.88	23.68	?	//

20091112_RATP_SCD_0604	11	1	c'	NULL	cln	NULL	B_GN	SUJ_IMP	2	idtext0012	ce	###s##	spk2	23.74	23.76	0.01	_
20091112_RATP_SCD_0604	11	2	est	NULL	v	NULL	B_GVf	ROOT	0	idtext0012	être	P#3##s##	spk2	23.77	23.93	0.01	_
20091112_RATP_SCD_0604	11	3	ça	NULL	pro	NULL	B_GN	ATS	2	idtext0012	ça	#####	spk2	23.94	24.16	?	_

20091112_RATP_SCD_0604	12	1	d'accord	NULL	adv	NULL	B_GADV	MOD	2	idtext0013	d'accord	#####	spk1	24.56	24.88	0.01	_
20091112_RATP_SCD_0604	12	2	alors	NULL	adv	NULL	I_GADV	ROOT	0	idtext0013	alors	#####	spk1	24.89	25.06	0.01	_
20091112_RATP_SCD_0604	12	3	un	NULL	det	NULL	B_GN	DET	4	idtext0013	un	##m#s##i	spk1	25.07	25.18	0.01	_
20091112_RATP_SCD_0604	12	4	instant	NULL	nc	NULL	I_GN	ROOT	0	idtext0013	instant	##m#s##	spk1	25.19	25.48	0.01	_
20091112_RATP_SCD_0604	12	5	s'il+vous+plaît	NULL	adv	NULL	B_GADV	NOLINK	0	idtext0013	s'il+vous+plaît	#####	spk1	25.49	25.78	0.01	_
20091112_RATP_SCD_0604	12	6	je	NULL	cln	NULL	B_GN	SUJ	7	idtext0013	cln	#1##s##	spk1	25.79	25.86	0.01	_
20091112_RATP_SCD_0604	12	7	recherche	NULL	v	NULL	B_GVf	ROOT	0	idtext0013	rechercher	PS#13##s##	spk1	25.87	26.16	0.01	_
20091112_RATP_SCD_0604	12	8	votre	NULL	det	NULL	B_GN	DET	9	idtext0013	votre	###s##o	spk1	26.17	26.37	0.01	_
20091112_RATP_SCD_0604	12	9	itinéraire	NULL	nc	NULL	I_GN	OBJ	7	idtext0013	itinéraire	##m#s##	spk1	26.38	26.9	0.05	_
20091112_RATP_SCD_0604	12	10	parce+que	NULL	csu	NULL	B_NULL	ROOT	0	idtext0014	parce+que	#####	spk1	26.95	27.18	0.01	_
20091112_RATP_SCD_0604	12	11	écoutez	DISF_M	pres	NULL	NULL	NOLINK	0	idtext0014	écoutez	#####	spk1	27.19	27.64	0.01	_
20091112_RATP_SCD_0604	12	12	j'	NULL	cln	NULL	B_GN	SUJ	14	idtext0014	cln	#1##s##	spk1	27.65	27.67	0.01	_
20091112_RATP_SCD_0604	12	13	ai	NULL	v	NULL	B_GVf	AUX	14	idtext0014	avoir	P#1##s##	spk1	27.68	27.8	0.01	_
20091112_RATP_SCD_0604	12	14	essayé	NULL	vppart	NULL	I_GVf	OBJ	10	idtext0014	essayer	K##m#s##	spk1	27.81	28.25	0.01	_
20091112_RATP_SCD_0604	12	15	de	DISF_R	prep	NULL	NULL	NOLINK	0	idtext0014	de	#####	spk1	28.26	28.54	0.01	_
20091112_RATP_SCD_0604	12	16	de	NULL	prep	NULL	B_GP	OBJ	14	idtext0014	de	#####	spk1	28.55	28.99	0.01	_
20091112_RATP_SCD_0604	12	17	faire	NULL	vinf	NULL	I_GP	OBJ	16	idtext0014	faire	W#####	spk1	29.0	29.28	0.01	_
20091112_RATP_SCD_0604	12	18	la	NULL	det	NULL	B_GN	DET	19	idtext0014	le	##m#s##d	spk1	29.29	29.44	0.01	_
20091112_RATP_SCD_0604	12	19	feuille	NULL	nc	NULL	I_GN	OBJ	17	idtext0014	feuille	##f#s##	spk1	29.45	29.65	0.01	_
20091112_RATP_SCD_0604	12	20	de	NULL	prep	NULL	B_GP	DEP	19	idtext0014	de	#####	spk1	29.66	29.77	0.01	_
20091112_RATP_SCD_0604	12	21	route	NULL	nc	NULL	I_GP	OBJ	20	idtext0014	route	##f#s##	spk1	29.78	29.97	0.01	_
20091112_RATP_SCD_0604	12	22	par	NULL	prep	NULL	B_GP	P_OBJ	17	idtext0014	par	#####	spk1	29.98	30.18	0.01	_
20091112_RATP_SCD_0604	12	23	RATP	NULL	np	B_ORG	I_GP	OBJ	22	idtext0014	RATP	##f#s##	spk1	30.19	30.79	0.01	_
20091112_RATP_SCD_0604	12	24	là	NULL	adv	NULL	B_GADV	NOLINK	0	idtext0014	là	#####	spk1	30.8	31.08	?	//

20091112_RATP_SCD_0604	13	1	allo	NULL	adv	NULL	B_GADV	NOLINK	0	idtext0015	allo	#####	spk2	32.67	33.0	?	//

20091112_RATP_SCD_0604	14	1	oui	NULL	adv	NULL	B_GADV	NOLINK	0	idtext0016	oui	#####	spk1	33.12	33.34	0.01	_
20091112_RATP_SCD_0604	14	2	mais	NULL	coo	NULL	B_NULL	ROOT	0	idtext0016	mais	#####	spk1	33.35	33.49	0.01	_
20091112_RATP_SCD_0604	14	3	je	NULL	cln	NULL	B_GN	SUJ	5	idtext0016	cln	#1##s##	spk1	33.5	33.57	0.01	_
20091112_RATP_SCD_0604	14	4	vous	NULL	clo	NULL	B_GN	OBJ	5	idtext0016	cln	#2##p##	spk1	33.58	33.67	0.01	_
20091112_RATP_SCD_0604	14	5	écoute	NULL	v	NULL	B_GVf	DEP_COORD	2	idtext0016	écouter	PS#13##s##	spk1	33.68	33.89	?	//

20091112_RATP_SCD_0604	15	1	oui	NULL	adv	NULL	B_GADV	NOLINK	0	idtext0017	oui	#####	spk2	33.93	34.03	?	//

20091112_RATP_SCD_0604	16	1	et+puis	NULL	coo	NULL	B_NULL	ROOT	0	idtext0018	et+puis	#####	spk2	34.41	34.93	0.01	_
20091112_RATP_SCD_0604	16	2	euh	DISF_M	pres	NULL	NULL	NOLINK	0	idtext0018	euh	#####	spk2	34.94	34.98	0.01	_
20091112_RATP_SCD_0604	16	3	je	NULL	cln	NULL	B_GN	SUJ	4	idtext0018	cln	#1##s##	spk2	34.99	35.12	0.01	_
20091112_RATP_SCD_0604	16	4	sais	NULL	v	NULL	B_GVfn	DEP_COORD	1	idtext0018	savoir	P#12##s##	spk2	35.13	35.18	0.01	_
20091112_RATP_SCD_0604	16	5	pas	NULL	advneg	NULL	I_GVfn	MOD	4	idtext0018	pas	#####	spk2	35.19	35.45	0.01	_
20091112_RATP_SCD_0604	16	6	je	DISF_R	cln	NULL	NULL	NOLINK	0	idtext0018	cln	#1##s##	spk2	35.46	35.61	0.01	_
20091112_RATP_SCD_0604	16	7	j'	NULL	cln	NULL	B_GN	SUJ	8	idtext0018	cln	#1##s##	spk2	35.62	35.67	0.01	_
20091112_RATP_SCD_0604	16	8	ai	NULL	v	NULL	B_GVfn	ROOT	0	idtext0018	avoir	P#1##s##	spk2	35.68	35.72	0.01	_
20091112_RATP_SCD_0604	16	9	pas	NULL	advneg	NULL	I_GVfn	MOD	8	idtext0018	pas	#####	spk2	35.73	35.85	0.01	_
20091112_RATP_SCD_0604	16	10	l'	NULL	det	NULL	B_GN	DET	11	idtext0018	le	###s##d	spk2	35.86	35.88	0.01	_
20091112_RATP_SCD_0604	16	11	impression	NULL	nc	NULL	I_GN	OBJ	8	idtext0018	impression	##f#s##	spk2	35.89	36.35	0.01	_
20091112_RATP_SCD_0604	16	12	que	NULL	csu	NULL	B_NULL	OBJ	11	idtext0018	que	#####	spk2	36.36	36.4	0.01	_
20091112_RATP_SCD_0604	16	13	ce	NULL	cln	NULL	B_GN	SUJ_IMP	14	idtext0018	ce	#####	spk2	36.41	36.53	0.01	_
20091112_RATP_SCD_0604	16	14	soit	NULL	v	NULL	B_GVf	ROOT	0	idtext0018	être	S#3##s##	spk2	36.54	36.68	0.01	_
20091112_RATP_SCD_0604	16	15	très	NULL	adv	NULL	B_GADV	MOD	16	idtext0018	très	#####	spk2	36.69	37.11	0.01	_
20091112_RATP_SCD_0604	16	16	très	NULL	adv	NULL	I_GADV	MOD	17	idtext0018	très	#####	spk2	37.12	37.31	0.01	_
20091112_RATP_SCD_0604	16	17	bien	NULL	adv	NULL	I_GADV	ATS	14	idtext0018	bien	#####	spk2	37.32	37.53	0.01	_
20091112_RATP_SCD_0604	16	18	là	NULL	adv	NULL	B_GADV	P_OBJ_LOC	14	idtext0018	là	#####	spk2	37.54	37.62	0.01	_
20091112_RATP_SCD_0604	16	19	ce+qu'	NULL	prorel	NULL	B_NULL	OBJ	22	idtext0018	ce+qu'	#####	spk2	37.63	37.78	0.01	_
20091112_RATP_SCD_0604	16	20	on	NULL	cln	NULL	B_GN	SUJ_IMP	22	idtext0018	cln	#3##s##	spk2	37.79	37.81	0.01	_
20091112_RATP_SCD_0604	16	21	me	NULL	clo	NULL	B_GN	A_OBJ	22	idtext0018	cla	#1##s##	spk2	37.82	37.84	0.01	_
20091112_RATP_SCD_0604	16	22	dit	NULL	v	NULL	B_GVf	ROOT	0	idtext0018	dire	J#3##s##	spk2	37.85	37.92	?	//

20091112_RATP_SCD_0604	17	1	d'accord	NULL	adv	NULL	B_GADV	MOD	2	idtext0019	d'accord	#####	spk1	37.96	38.2	0.01	_
20091112_RATP_SCD_0604	17	2	alors	NULL	adv	NULL	I_GADV	ROOT	0	idtext0019	alors	#####	spk1	38.21	38.41	0.01	_
20091112_RATP_SCD_0604	17	3	un	NULL	det	NULL	B_GN	DET	4	idtext0019	un	##m#s##i	spk1	38.42	38.51	0.01	_
20091112_RATP_SCD_0604	17	4	instant	NULL	nc	NULL	I_GN	ROOT	0	idtext0019	instant	##m#s##	spk1	38.52	38.82	?	//

20091112_RATP_SCD_0604	18	1	madame	NULL	nc	NULL	B_GN	NOLINK	0	idtext0020	Monsieur	##f#s##	spk1	120.46	120.96	?	//

20091112_RATP_SCD_0604	19	1	oui	NULL	adv	NULL	B_GADV	NOLINK	0	idtext0021	oui	#####	spk2	121.02	121.47	?	//

20091112_RATP_SCD_0604	20	1	oui	NULL	adv	NULL	B_GADV	NOLINK	0	idtext0022	oui	#####	spk1	121.51	121.69	?	//

20091112_RATP_SCD_0604	21	1	alors	NULL	adv	NULL	B_GADV	NOLINK	0	idtext0023	alors	#####	spk1	122.29	122.59	0.01	_
20091112_RATP_SCD_0604	21	2	de	NULL	prep	NULL	B_GP	MOD	8	idtext0023	de	#####	spk1	122.6	122.68	0.01	_
20091112_RATP_SCD_0604	21	3	Fontenay-sous-Bois	NULL	nc	B_A	I_GP	OBJ	2	idtext0023	Fontenay-sous-Bois	##m#s##	spk1	122.69	123.53	0.01	/
20091112_RATP_SCD_0604	21	4	vous	NULL	cln	NULL	B_GN	SUJ	5	idtext0023	cln	#2##p##	spk1	123.54	123.66	0.01	_
20091112_RATP_SCD_0604	21	5	allez	NULL	v	NULL	B_GVf	ROOT	0	idtext0023	aller	P#2##p##	spk1	123.67	123.79	0.01	_
20091112_RATP_SCD_0604	21	6	prendre	NULL	vinf	NULL	I_GVf	OBJ	5	idtext0023	prendre	W#####	spk1	123.8	124.01	0.01	_
20091112_RATP_SCD_0604	21	7	le	NULL	det	NULL	B_GN	DET	8	idtext0023	le	##m#s##d	spk1	124.02	124.1	0.01	_
20091112_RATP_SCD_0604	21	8	RER+A	NULL	nc	B_T	I_GN	OBJ	6	idtext0023	RER+A	#####	spk1	124.11	124.86	?	//

20091112_RATP_SCD_0604	22	1	le	NULL	det	NULL	B_GN	DET	2	idtext0024	le	##m#s##d	spk2	125.59	125.85	0.01	_
20091112_RATP_SCD_0604	22	2	RER+A	NULL	nc	B_T	I_GN	ROOT	0	idtext0024	RER+A	#####	spk2	125.86	127.08	?	//

20091112_RATP_SCD_0604	23	1	en	NULL	prep	NULL	B_GP	ROOT	0	idtext0025	en	#####	spk1	127.12	127.2	0.01	_
20091112_RATP_SCD_0604	23	2	direction	NULL	nc	NULL	I_GP	OBJ	1	idtext0025	direction	##f#s##	spk1	127.21	127.74	0.01	/
20091112_RATP_SCD_0604	23	3	de	NULL	prep	NULL	B_GP	DEP	2	idtext0025	de	#####	spk1	127.75	127.89	0.01	_
20091112_RATP_SCD_0604	23	4	Saint-Germain-en-Laye	NULL	nc	B_A	I_GP	OBJ	3	idtext0025	Saint-Germain-en-Laye	##m#s##	spk1	127.9	128.96	?	//

20091112_RATP_SCD_0604	24	1	direction	NULL	nc	NULL	B_GN	NOLINK	0	idtext0026	direction	##f#s##	spk2	129.73	130.57	?	//

20091112_RATP_SCD_0604	25	1	Saint-Germain-en-Laye	NULL	nc	B_A	B_GN	NOLINK	0	idtext0027	Saint-Germain-en-Laye	##m#s##	spk2	130.98	131.97	?	//

20091112_RATP_SCD_0604	26	1	jusqu'à	NULL	prep	NULL	B_GP	ROOT	0	idtext0028	jusqu'à	#####	spk1	132.34	132.66	0.01	_
20091112_RATP_SCD_0604	26	2	la	NULL	det	NULL	I_GP	DET	3	idtext0028	le	##m#s##d	spk1	132.67	132.74	0.01	_
20091112_RATP_SCD_0604	26	3	Gare+de+Lyon	NULL	nc	B_A	I_GP	OBJ	1	idtext0028	Gare+de+Lyon	#####	spk1	132.75	133.44	?	//

20091112_RATP_SCD_0604	27	1	attendez	NULL	v	NULL	B_GVf	NOLINK	0	idtext0029	attendre	P#2##p##	spk2	135.27	135.77	?	//

20091112_RATP_SCD_0604	28	1	après	NULL	prep	NULL	B_GP	ROOT	0	idtext0030	après	#####	spk2	136.21	136.64	0.01	_
20091112_RATP_SCD_0604	28	2	Gare+de+Lyon	NULL	nc	B_A	I_GP	OBJ	1	idtext0030	Gare+de+Lyon	#####	spk2	136.65	137.37	0.01	_
20091112_RATP_SCD_0604	28	3	oui	NULL	adv	NULL	B_GADV	NOLINK	0	idtext0030	oui	#####	spk2	137.38	137.68	?	//

20091112_RATP_SCD_0604	29	1	donc	NULL	coo	NULL	B_NULL	ROOT	0	idtext0031	donc	#####	spk1	138.81	139.35	0.01	_
20091112_RATP_SCD_0604	29	2	puis	NULL	coo	NULL	B_NULL	NOLINK	0	idtext0031	puis	#####	spk1	139.36	139.55	0.01	_
20091112_RATP_SCD_0604	29	3	vous	NULL	cln	NULL	B_GN	SUJ	4	idtext0031	cln	#2##p##	spk1	139.56	139.65	0.01	_
20091112_RATP_SCD_0604	29	4	prendrez	NULL	v	NULL	B_GVf	DEP_COORD	1	idtext0031	prendre	F#2##p##	spk1	139.66	140.06	0.01	_
20091112_RATP_SCD_0604	29	5	le	NULL	det	NULL	B_GN	DET	6	idtext0031	le	##m#s##d	spk1	140.07	140.18	0.01	_
20091112_RATP_SCD_0604	29	6	métro	NULL	nc	B_T	I_GN	OBJ	4	idtext0031	métro	##m#s##	spk1	140.19	140.71	0.01	_
20091112_RATP_SCD_0604	29	7	ligne	NULL	nc	I_T	I_GN	MOD	6	idtext0031	ligne	##f#s##	spk1	140.72	141.34	0.01	_
20091112_RATP_SCD_0604	29	8	quatorze	NULL	adj	I_T	I_GN	MOD	7	idtext0031	quatorze	#####	spk1	141.35	142.11	?	//

20091112_RATP_SCD_0604	30	1	ligne	NULL	nc	B_T	B_GN	NOLINK	0	idtext0032	ligne	##f#s##	spk2	142.86	143.26	0.01	_
20091112_RATP_SCD_0604	30	2	quatorze	NULL	adj	I_T	I_GN	MOD	1	idtext0032	quatorze	#####	spk2	143.27	144.18	?	//

20091112_RATP_SCD_0604	31	1	en	NULL	prep	NULL	B_GP	ROOT	0	idtext0033	en	#####	spk1	144.25	144.36	0.01	_
20091112_RATP_SCD_0604	31	2	direction	NULL	nc	NULL	I_GP	OBJ	1	idtext0033	direction	##f#s##	spk1	144.37	144.94	0.01	_
20091112_RATP_SCD_0604	31	3	de	NULL	prep	NULL	B_GP	DEP	2	idtext0033	de	#####	spk1	144.95	145.25	0.01	_
20091112_RATP_SCD_0604	31	4	Olympiades	NULL	nc	B_A	I_GP	OBJ	3	idtext0033	Olympiades	#####	spk1	145.26	146.12	?	//

20091112_RATP_SCD_0604	32	1	direction	NULL	nc	NULL	B_GN	ROOT	0	idtext0034	direction	##f#s##	spk2	146.66	147.27	0.01	_
20091112_RATP_SCD_0604	32	2	Olympiades	NULL	nc	B_A	I_GN	MOD	1	idtext0034	Olympiades	#####	spk2	147.28	148.25	?	//

20091112_RATP_SCD_0604	33	1	vous	NULL	cln	NULL	B_GN	SUJ	2	idtext0035	cln	#2##p##	spk1	148.98	149.07	0.01	_
20091112_RATP_SCD_0604	33	2	descendrez	NULL	v	NULL	B_GVf	ROOT	0	idtext0035	descendre	F#2##p##	spk1	149.08	149.55	0.01	_
20091112_RATP_SCD_0604	33	3	à	NULL	prep	NULL	B_GP	P_OBJ_LOC	2	idtext0035	à	#####	spk1	149.56	149.76	0.01	_
20091112_RATP_SCD_0604	33	4	bibliothèque	NULL	nc	NULL	I_GP	OBJ	3	idtext0035	bibliothèque	##f#s##	spk1	149.77	150.72	?	//

20091112_RATP_SCD_0604	34	1	François+Mitterrand	NULL	nc	B_A	B_GN	NOLINK	0	idtext0036	François+Mitterrand	#####	spk1	151.28	152.07	?	_

20091112_RATP_SCD_0604	35	1	bibliothèque	NULL	nc	NULL	B_GN	NOLINK	0	idtext0037	bibliothèque	##f#s##	spk1	152.36	152.91	?	//

20091112_RATP_SCD_0604	36	1	bibliothèque	NULL	nc	NULL	B_GN	NOLINK	0	idtext0038	bibliothèque	##f#s##	spk2	153.68	154.59	0.01	_
20091112_RATP_SCD_0604	36	2	oui	NULL	adv	NULL	B_GADV	NOLINK	0	idtext0038	oui	#####	spk2	154.6	154.83	?	//

20091112_RATP_SCD_0604	37	1	voilà	DISF_M	pres	NULL	NULL	NOLINK	0	idtext0039	voilà	#####	spk1	154.87	155.13	?	//

20091112_RATP_SCD_0604	38	1	puis	NULL	coo	NULL	B_NULL	ROOT	0	idtext0040	puis	#####	spk1	155.91	156.05	0.01	_
20091112_RATP_SCD_0604	38	2	vous	NULL	cln	NULL	B_GN	SUJ	3	idtext0040	cln	#2##p##	spk1	156.06	156.12	0.01	_
20091112_RATP_SCD_0604	38	3	prendrez	NULL	v	NULL	B_GVf	DEP_COORD	1	idtext0040	prendre	F#2##p##	spk1	156.13	156.56	0.01	_
20091112_RATP_SCD_0604	38	4	le	NULL	det	NULL	B_GN	DET	5	idtext0040	le	##m#s##d	spk1	156.57	156.75	0.01	_
20091112_RATP_SCD_0604	38	5	RER+C	NULL	nc	B_T	I_GN	OBJ	3	idtext0040	RER+C	#####	spk1	156.76	157.63	?	//

20091112_RATP_SCD_0604	39	1	RER+C	NULL	nc	B_T	B_GN	NOLINK	0	idtext0041	RER+C	#####	spk2	158.41	159.44	?	//

20091112_RATP_SCD_0604	40	1	en	NULL	prep	NULL	B_GP	ROOT	0	idtext0042	en	#####	spk1	159.83	160.01	0.01	_
20091112_RATP_SCD_0604	40	2	direction	NULL	nc	NULL	I_GP	OBJ	1	idtext0042	direction	##f#s##	spk1	160.02	160.51	0.01	_
20091112_RATP_SCD_0604	40	3	de	NULL	prep	NULL	B_GP	DEP	2	idtext0042	de	#####	spk1	160.52	160.69	0.01	_
20091112_RATP_SCD_0604	40	4	Versailles-Chantiers	NULL	nc	B_A	I_GP	OBJ	3	idtext0042	Versailles-Chantiers	#####	spk1	160.7	162.1	?	//

20091112_RATP_SCD_0604	41	1	Versailles-Chantiers	NULL	nc	B_A	B_GN	NOLINK	0	idtext0043	Versailles-Chantiers	#####	spk2	162.78	164.65	?	_

20091112_RATP_SCD_0604	42	1	jusqu'à	NULL	prep	NULL	B_GP	ROOT	0	idtext0044	jusqu'à	#####	spk1	164.72	165.31	0.01	_
20091112_RATP_SCD_0604	42	2	la	NULL	det	NULL	I_GP	DET	3	idtext0044	le	##m#s##d	spk1	165.32	165.42	0.01	_
20091112_RATP_SCD_0604	42	3	gare	NULL	nc	B_A	I_GP	OBJ	1	idtext0044	gare	##f#s##	spk1	165.43	165.68	0.01	_
20091112_RATP_SCD_0604	42	4	de	NULL	prep	I_A	I_GP	DEP	3	idtext0044	de	#####	spk1	165.69	165.78	0.01	_
20091112_RATP_SCD_0604	42	5	Chilly-Mazarin	NULL	np	I_A	I_GP	OBJ	4	idtext0044	Chilly-Mazarin	##m#s##	spk1	165.79	166.77	?	//

20091112_RATP_SCD_0604	43	1	jusqu'à	NULL	prep	NULL	B_GP	ROOT	0	idtext0045	jusqu'à	#####	spk2	167.48	167.78	0.01	_
20091112_RATP_SCD_0604	43	2	la	NULL	det	NULL	I_GP	DET	3	idtext0045	le	##m#s##d	spk2	167.79	167.89	0.01	_
20091112_RATP_SCD_0604	43	3	gare	NULL	nc	B_A	I_GP	OBJ	1	idtext0045	gare	##f#s##	spk2	167.9	168.25	0.01	_
20091112_RATP_SCD_0604	43	4	de	NULL	prep	I_A	I_GP	DEP	3	idtext0045	de	#####	spk2	168.26	168.37	0.01	_
20091112_RATP_SCD_0604	43	5	Chilly-Mazarin	NULL	np	I_A	I_GP	OBJ	4	idtext0045	Chilly-Mazarin	##m#s##	spk2	168.38	169.36	?	//

20091112_RATP_SCD_0604	44	1	alors	NULL	adv	NULL	B_GADV	NOLINK	0	idtext0046	alors	#####	spk1	169.59	169.74	?	//

20091112_RATP_SCD_0604	45	1	vous	NULL	cln	NULL	B_GN	SUJ	2	idtext0047	cln	#2##p##	spk1	169.78	169.86	0.01	_
20091112_RATP_SCD_0604	45	2	mettrez	NULL	v	NULL	B_GVf	ROOT	0	idtext0047	mettre	F#2##p##	spk1	169.87	170.13	0.01	_
20091112_RATP_SCD_0604	45	3	hein	DISF_M	pres	NULL	NULL	NOLINK	0	idtext0047	hein	#####	spk1	170.14	170.2	0.01	_
20091112_RATP_SCD_0604	45	4	environ	NULL	adv	NULL	B_GADV	MOD	2	idtext0047	environ	#####	spk1	170.21	170.7	?	_

20091112_RATP_SCD_0604	46	1	d'accord	NULL	adv	NULL	B_GADV	NOLINK	0	idtext0048	d'accord	#####	spk2	169.85	170.7	?	//

20091112_RATP_SCD_0604	47	1	une	NULL	nc	NULL	B_GN	ROOT	0	idtext0049	une	##f#s##	spk1	170.75	170.88	0.01	_
20091112_RATP_SCD_0604	47	2	heure	NULL	nc	NULL	I_GN	MOD	1	idtext0049	heure	##f#s##	spk1	170.89	171.06	?	//

20091112_RATP_SCD_0604	48	1	d'accord	NULL	adv	NULL	B_GADV	NOLINK	0	idtext0050	d'accord	#####	spk2	172.59	173.01	0.01	//
20091112_RATP_SCD_0604	48	2	une	NULL	nc	NULL	B_GN	ROOT	0	idtext0050	une	##f#s##	spk2	173.02	173.23	0.01	_
20091112_RATP_SCD_0604	48	3	heure	NULL	nc	NULL	I_GN	MOD	2	idtext0050	heure	##f#s##	spk2	173.24	173.64	?	//

20091112_RATP_SCD_0604	49	1	à+peu+près	NULL	adv	NULL	B_GADV	MOD	2	idtext0051	à+peu+près	#####	spk2	174.25	174.72	0.01	_
20091112_RATP_SCD_0604	49	2	d'accord	NULL	adv	NULL	I_GADV	ROOT	0	idtext0051	d'accord	#####	spk2	174.73	175.12	?	//

20091112_RATP_SCD_0604	50	1	oui	NULL	adv	NULL	B_GADV	NOLINK	0	idtext0052	oui	#####	spk1	175.4	175.49	?	//

20091112_RATP_SCD_0604	51	1	il	NULL	cln	NULL	B_GN	SUJ_IMP	3	idtext0053	cln	#3#m#s##	spk2	175.54	175.6	0.01	_
20091112_RATP_SCD_0604	51	2	y	NULL	clo	NULL	B_GN	AFF	3	idtext0053	y	#####	spk2	175.61	175.63	0.01	_
20091112_RATP_SCD_0604	51	3	a	NULL	v	NULL	B_GVf	ROOT	0	idtext0053	avoir	P#3##s##	spk2	175.64	175.66	0.01	_
20091112_RATP_SCD_0604	51	4	des	NULL	det	NULL	B_GN	DET	5	idtext0053	des	###p##i	spk2	175.67	175.88	0.01	_
20091112_RATP_SCD_0604	51	5	trains	NULL	nc	NULL	I_GN	OBJ	3	idtext0053	train	##m#p##	spk2	175.89	176.06	0.01	_
20091112_RATP_SCD_0604	51	6	assez	NULL	adv	NULL	B_GADV	MOD	7	idtext0053	assez	#####	spk2	176.07	176.28	0.01	_
20091112_RATP_SCD_0604	51	7	fréquemment	NULL	adv	NULL	I_GADV	ROOT	0	idtext0053	fréquemment	#####	spk2	176.29	176.97	?	_

20091112_RATP_SCD_0604	52	1	alors	NULL	adv	NULL	B_GADV	NOLINK	0	idtext0054	alors	#####	spk1	177.98	178.63	0.01	_
20091112_RATP_SCD_0604	52	2	je	NULL	cln	NULL	B_GN	SUJ	3	idtext0054	cln	#1##s##	spk1	178.64	178.68	0.01	_
20091112_RATP_SCD_0604	52	3	vais	NULL	v	NULL	B_GVf	ROOT	0	idtext0054	aller	P#1##s##	spk1	178.69	178.83	0.01	_
20091112_RATP_SCD_0604	52	4	vous	NULL	clo	NULL	B_GN	A_OBJ	5	idtext0054	cln	#2##p##	spk1	178.84	178.97	0.01	_
20091112_RATP_SCD_0604	52	5	dire	NULL	vinf	NULL	B_GVi	OBJ	3	idtext0054	dire	W#####	spk1	178.98	179.2	0.01	//
20091112_RATP_SCD_0604	52	6	ça	NULL	pro	NULL	B_GN	OBJ	5	idtext0054	ça	#####	spk1	179.21	179.45	0.01	_
20091112_RATP_SCD_0604	52	7	tout+de+suite	NULL	adv	NULL	B_GADV	MOD	5	idtext0054	tout+de+suite	#####	spk1	179.46	180.5	?	/

20091112_RATP_SCD_0604	53	1	c'est-à-dire	NULL	coo	NULL	B_NULL	ROOT	0	idtext0055	c'est-à-dire	#####	spk2	181.7	182.08	0.01	_
20091112_RATP_SCD_0604	53	2	le	NULL	det	NULL	B_GN	DET	3	idtext0055	le	##m#s##d	spk2	182.09	182.17	0.01	_
20091112_RATP_SCD_0604	53	3	train	NULL	nc	NULL	I_GN	SUJ	5	idtext0055	train	##m#s##	spk2	182.18	182.44	0.01	_
20091112_RATP_SCD_0604	53	4	c'	NULL	cln	NULL	B_GN	SUJ_IMP	5	idtext0055	ce	###s##	spk2	182.45	182.47	0.01	_
20091112_RATP_SCD_0604	53	5	est	NULL	v	NULL	B_GVf	DEP_COORD	1	idtext0055	être	P#3##s##	spk2	182.48	182.6	0.01	_
20091112_RATP_SCD_0604	53	6	à	DISF_R	prep	NULL	NULL	NOLINK	0	idtext0055	à	#####	spk2	182.61	182.73	0.01	_
20091112_RATP_SCD_0604	53	7	à	NULL	prep	NULL	B_GP	ATS	5	idtext0055	à	#####	spk2	182.74	182.88	0.01	_
20091112_RATP_SCD_0604	53	8	partir	NULL	vinf	NULL	I_GP	OBJ	7	idtext0055	partir	W#####	spk2	182.89	183.31	0.01	_
20091112_RATP_SCD_0604	53	9	de	NULL	prep	NULL	B_NULL	NOLINK	0	idtext0055	de	#####	spk2	183.32	183.78	?	_

20091112_RATP_SCD_0604	54	1	euh	DISF_M	pres	NULL	NULL	NOLINK	0	idtext0056	euh	#####	spk2	184.42	185.03	?	//

20091112_RATP_SCD_0604	55	1	vous	NULL	cln	NULL	B_GN	SUJ	2	idtext0057	cln	#2##p##	spk1	185.07	185.13	0.01	_
20091112_RATP_SCD_0604	55	2	partez	NULL	v	NULL	B_GVf	ROOT	0	idtext0057	partir	P#2##p##	spk1	185.14	185.41	0.01	_
20091112_RATP_SCD_0604	55	3	vers	NULL	prep	NULL	B_GP	MOD	2	idtext0057	vers	#####	spk1	185.42	185.55	0.01	_
20091112_RATP_SCD_0604	55	4	quelle	NULL	det	NULL	I_GP	DET	5	idtext0057	quel	##f#s##	spk1	185.56	185.74	0.01	_
20091112_RATP_SCD_0604	55	5	heure	NULL	nc	NULL	I_GP	OBJ	3	idtext0057	heure	##f#s##	spk1	185.75	185.86	0.01	_
20091112_RATP_SCD_0604	55	6	madame	NULL	nc	NULL	I_GP	NOLINK	0	idtext0057	Monsieur	##f#s##	spk1	185.87	186.15	?	//

20091112_RATP_SCD_0604	56	1	écoutez	DISF_M	pres	NULL	NULL	NOLINK	0	idtext0058	écoutez	#####	spk2	186.89	187.35	0.01	_
20091112_RATP_SCD_0604	56	2	c'	NULL	cln	NULL	B_GN	SUJ_IMP	3	idtext0058	ce	###s##	spk2	187.36	187.38	0.01	_
20091112_RATP_SCD_0604	56	3	est	NULL	v	NULL	B_GVf	ROOT	0	idtext0058	être	P#3##s##	spk2	187.39	187.44	0.01	_
20091112_RATP_SCD_0604	56	4	une	NULL	det	NULL	B_GN	DET	5	idtext0058	un	##f#s##i	spk2	187.45	187.55	0.01	_
20091112_RATP_SCD_0604	56	5	commission	NULL	nc	NULL	I_GN	ATS	3	idtext0058	commission	##f#s##	spk2	187.56	187.99	0.01	_
20091112_RATP_SCD_0604	56	6	c'	NULL	cln	NULL	B_GN	SUJ_IMP	7	idtext0058	ce	###s##	spk2	188.0	188.04	0.01	_
20091112_RATP_SCD_0604	56	7	est	NULL	v	NULL	B_GVfn	ROOT	0	idtext0058	être	P#3##s##	spk2	188.05	188.1	0.01	_
20091112_RATP_SCD_0604	56	8	pas	NULL	advneg	NULL	I_GVfn	MOD	7	idtext0058	pas	#####	spk2	188.11	188.25	0.01	_
20091112_RATP_SCD_0604	56	9	pour	NULL	prep	NULL	B_GP	ATS	7	idtext0058	pour	#####	spk2	188.26	188.5	0.01	_
20091112_RATP_SCD_0604	56	10	moi	NULL	pro	NULL	I_GP	OBJ	9	idtext0058	moi	#####	spk2	188.51	188.66	0.01	_
20091112_RATP_SCD_0604	56	11	hein	DISF_M	pres	NULL	NULL	NOLINK	0	idtext0058	hein	#####	spk2	188.67	189.04	?	//

20091112_RATP_SCD_0604	57	1	mais	NULL	coo	NULL	B_NULL	NOLINK	0	idtext0059	mais	#####	spk2	189.5	189.85	?	_

20091112_RATP_SCD_0604	58	1	d'accord	NULL	adv	NULL	B_GADV	NOLINK	0	idtext0060	d'accord	#####	spk1	189.32	189.85	?	//

20091112_RATP_SCD_0604	59	1	hum	DISF_M	pres	NULL	NULL	NOLINK	0	idtext0061	hum	#####	spk2	190.01	190.33	0.01	_
20091112_RATP_SCD_0604	59	2	la	NULL	det	NULL	B_GN	DET	3	idtext0061	le	##m#s##d	spk2	190.34	190.5	0.01	_
20091112_RATP_SCD_0604	59	3	personne	NULL	nc	NULL	I_GN	ROOT	0	idtext0061	personne	##f#s##	spk2	190.51	191.53	0.01	_
20091112_RATP_SCD_0604	59	4	euh	DISF_M	pres	NULL	NULL	NOLINK	0	idtext0061	euh	#####	spk2	191.54	191.66	?	//

20091112_RATP_SCD_0604	60	1	euh	DISF_M	pres	NULL	NULL	NOLINK	0	idtext0062	euh	#####	spk2	192.15	192.38	0.01	_
20091112_RATP_SCD_0604	60	2	à	NULL	prep	NULL	B_GP	ROOT	0	idtext0062	à	#####	spk2	192.39	192.45	0.01	_
20091112_RATP_SCD_0604	60	3	partir	NULL	vinf	NULL	I_GP	OBJ	2	idtext0062	partir	W#####	spk2	192.46	192.84	0.01	_
20091112_RATP_SCD_0604	60	4	du	NULL	prep	NULL	B_GP	MOD	3	idtext0063	du	#####	spk2	192.85	192.93	0.01	_
20091112_RATP_SCD_0604	60	5	moment	NULL	nc	NULL	I_GP	OBJ	4	idtext0063	moment	##m#s##	spk2	192.94	193.29	0.01	/
20091112_RATP_SCD_0604	60	6	où	NULL	prorel	NULL	B_NULL	P_OBJ_LOC	9	idtext0063	où	#####	spk2	193.3	193.35	0.01	_
20091112_RATP_SCD_0604	60	7	elle	NULL	cln	NULL	B_GN	SUJ	9	idtext0063	cln	#3#f#s##	spk2	193.36	193.48	0.01	_
20091112_RATP_SCD_0604	60	8	a	NULL	v	NULL	B_GVf	AUX	9	idtext0063	avoir	P#3##s##	spk2	193.49	193.58	0.01	_
20091112_RATP_SCD_0604	60	9	pris	NULL	vppart	NULL	I_GVf	MOD_REL	5	idtext0063	prendre	K##m###	spk2	193.59	193.76	0.01	_
20091112_RATP_SCD_0604	60	10	la	NULL	det	NULL	B_GN	DET	11	idtext0063	le	##m#s##d	spk2	193.77	193.87	0.01	_
20091112_RATP_SCD_0604	60	11	direction	NULL	nc	NULL	I_GN	OBJ	9	idtext0063	direction	##f#s##	spk2	193.88	194.35	0.01	_
20091112_RATP_SCD_0604	60	12	Olympiades	NULL	nc	B_A	I_GN	MOD	11	idtext0063	Olympiades	#####	spk2	194.36	194.94	0.01	_
20091112_RATP_SCD_0604	60	13	et	NULL	coo	NULL	B_NULL	COORD	9	idtext0063	et	#####	spk2	194.95	195.11	0.01	_
20091112_RATP_SCD_0604	60	14	qu'	NULL	csu	NULL	B_NULL	DEP_COORD	13	idtext0063	qu'	#####	spk2	195.12	195.14	0.01	_
20091112_RATP_SCD_0604	60	15	elle	NULL	cln	NULL	B_GN	SUJ	16	idtext0063	cln	#3#f#s##	spk2	195.15	195.21	0.01	_
20091112_RATP_SCD_0604	60	16	descend	NULL	v	NULL	B_GVf	OBJ	14	idtext0063	descendre	P#3##s##	spk2	195.22	195.54	0.01	_
20091112_RATP_SCD_0604	60	17	à	NULL	prep	NULL	B_GP	P_OBJ_LOC	16	idtext0063	à	#####	spk2	195.55	195.59	0.01	_
20091112_RATP_SCD_0604	60	18	la	NULL	det	NULL	I_GP	DET	19	idtext0063	le	##m#s##d	spk2	195.6	195.65	0.01	_
20091112_RATP_SCD_0604	60	19	Bibliothèque+Mitterrand	NULL	nc	B_A	I_GP	OBJ	17	idtext0063	Bibliothèque+Mitterrand	#####	spk2	195.66	196.91	?	//

20091112_RATP_SCD_0604	61	1	toutes+les	NULL	det	NULL	B_GN	DET	3	idtext0064	toutes+les	#####	spk1	196.95	197.23	0.01	_
20091112_RATP_SCD_0604	61	2	trente	NULL	adj	NULL	I_GN	MOD	3	idtext0064	trente	#####	spk1	197.24	197.52	0.01	_
20091112_RATP_SCD_0604	61	3	minutes	NULL	nc	NULL	I_GN	ROOT	0	idtext0064	minute	##f#p##	spk1	197.53	197.85	0.01	_
20091112_RATP_SCD_0604	61	4	madame	NULL	nc	NULL	B_GN	NOLINK	0	idtext0064	Monsieur	##f#s##	spk1	197.86	198.16	?	//

20091112_RATP_SCD_0604	62	1	euh	DISF_M	pres	NULL	NULL	NOLINK	0	idtext0065	euh	#####	spk2	198.86	199.24	0.01	_
20091112_RATP_SCD_0604	62	2	c'	NULL	cln	NULL	B_GN	SUJ_IMP	3	idtext0065	ce	###s##	spk2	199.25	199.29	0.01	_
20091112_RATP_SCD_0604	62	3	est	NULL	v	NULL	B_GVf	ROOT	0	idtext0065	être	P#3##s##	spk2	199.3	199.39	0.01	_
20091112_RATP_SCD_0604	62	4	à	DISF_R	prep	NULL	NULL	NOLINK	0	idtext0065	à	#####	spk2	199.4	199.47	0.01	_
20091112_RATP_SCD_0604	62	5	à	NULL	prep	NULL	B_GP	ATS	3	idtext0065	à	#####	spk2	199.48	199.51	0.01	_
20091112_RATP_SCD_0604	62	6	la	NULL	det	NULL	I_GP	DET	7	idtext0065	le	##m#s##d	spk2	199.52	199.63	0.01	_
20091112_RATP_SCD_0604	62	7	Bibliothèque+Mitterrand	NULL	nc	B_A	I_GP	OBJ	5	idtext0065	Bibliothèque+Mitterrand	#####	spk2	199.64	200.61	0.01	_
20091112_RATP_SCD_0604	62	8	qu'	NULL	csu	NULL	B_NULL	OBJ	7	idtext0065	qu'	#####	spk2	200.62	200.64	0.01	_
20091112_RATP_SCD_0604	62	9	il	NULL	cln	NULL	B_GN	SUJ_IMP	11	idtext0065	cln	#3#m#s##	spk2	200.65	200.71	0.01	_
20091112_RATP_SCD_0604	62	10	y	NULL	clo	NULL	B_GN	AFF	11	idtext0065	y	#####	spk2	200.72	200.74	0.01	_
20091112_RATP_SCD_0604	62	11	a	NULL	v	NULL	B_GVf	OBJ	8	idtext0065	avoir	P#3##s##	spk2	200.75	200.79	0.01	_
20091112_RATP_SCD_0604	62	12	le	NULL	det	NULL	B_GN	DET	13	idtext0065	le	##m#s##d	spk2	200.8	200.92	0.01	_
20091112_RATP_SCD_0604	62	13	train	NULL	nc	NULL	I_GN	OBJ	11	idtext0065	train	##m#s##	spk2	200.93	201.23	0.01	_
20091112_RATP_SCD_0604	62	14	pour	NULL	prep	NULL	B_GP	MOD	13	idtext0065	pour	#####	spk2	201.24	201.38	0.01	_
20091112_RATP_SCD_0604	62	15	Versailles-Chantiers	NULL	nc	B_A	I_GP	OBJ	14	idtext0065	Versailles-Chantiers	#####	spk2	201.39	202.36	?	//

20091112_RATP_SCD_0604	63	1	oui	NULL	adv	NULL	B_GADV	NOLINK	0	idtext0066	oui	#####	spk1	203.05	203.2	?	//

20091112_RATP_SCD_0604	64	1	tout+à+fait	NULL	adv	NULL	B_GADV	NOLINK	0	idtext0067	tout+à+fait	#####	spk1	203.31	203.58	?	//

20091112_RATP_SCD_0604	65	1	ah	DISF_M	pres	NULL	NULL	NOLINK	0	idtext0068	ah	#####	spk2	203.25	203.31	0.01	_
20091112_RATP_SCD_0604	65	2	non	NULL	adv	NULL	B_GADV	NOLINK	0	idtext0068	non	#####	spk2	203.32	203.58	?	_

20091112_RATP_SCD_0604	66	1	euh	DISF_M	pres	NULL	NULL	NOLINK	0	idtext0069	euh	#####	spk1	203.89	203.98	0.01	//
20091112_RATP_SCD_0604	66	2	si	DISF_R	adv	NULL	NULL	NOLINK	0	idtext0069	si	#####	spk1	203.99	204.19	0.01	_
20091112_RATP_SCD_0604	66	3	si	DISF_R	adv	NULL	NULL	NOLINK	0	idtext0069	si	#####	spk1	204.2	204.34	0.01	_
20091112_RATP_SCD_0604	66	4	si	NULL	adv	NULL	B_GADV	NOLINK	0	idtext0069	si	#####	spk1	204.35	204.72	0.01	_
20091112_RATP_SCD_0604	66	5	parce+que	NULL	csu	NULL	B_NULL	ROOT	0	idtext0069	parce+que	#####	spk1	204.73	204.97	0.01	_
20091112_RATP_SCD_0604	66	6	à	NULL	prep	NULL	B_GP	MOD	10	idtext0069	à	#####	spk1	204.98	205.0	0.01	_
20091112_RATP_SCD_0604	66	7	la	NULL	det	NULL	I_GP	DET	8	idtext0069	le	##m#s##d	spk1	205.01	205.07	0.01	_
20091112_RATP_SCD_0604	66	8	bibliothèque	NULL	nc	NULL	I_GP	OBJ	6	idtext0069	bibliothèque	##f#s##	spk1	205.08	205.53	0.01	_
20091112_RATP_SCD_0604	66	9	ce	NULL	cln	NULL	B_GN	SUJ_IMP	10	idtext0069	ce	#####	spk1	205.54	205.63	0.01	_
20091112_RATP_SCD_0604	66	10	sera	NULL	v	NULL	B_GVf	OBJ	5	idtext0069	être	F#3##s##	spk1	205.64	205.84	0.01	_
20091112_RATP_SCD_0604	66	11	donc	NULL	coo	NULL	B_NULL	COORD	10	idtext0069	donc	#####	spk1	205.85	205.96	0.01	_
20091112_RATP_SCD_0604	66	12	euh	DISF_M	pres	NULL	NULL	NOLINK	0	idtext0069	euh	#####	spk1	205.97	206.16	0.01	_
20091112_RATP_SCD_0604	66	13	la	NULL	det	NULL	B_GN	DET	14	idtext0069	le	##m#s##d	spk1	206.17	206.31	0.01	_
20091112_RATP_SCD_0604	66	14	ligne	NULL	nc	B_T	I_GN	ROOT	0	idtext0069	ligne	##f#s##	spk1	206.32	206.5	0.01	_
20091112_RATP_SCD_0604	66	15	quatorze	NULL	adj	I_T	I_GN	MOD	14	idtext0069	quatorze	#####	spk1	206.51	207.41	0.01	_
20091112_RATP_SCD_0604	66	16	oui	NULL	adv	NULL	B_GADV	NOLINK	0	idtext0070	oui	#####	spk1	207.42	207.66	0.01	_
20091112_RATP_SCD_0604	66	17	vous	NULL	cln	NULL	B_GN	SUJ	18	idtext0070	cln	#2##p##	spk1	207.67	207.87	0.01	_
20091112_RATP_SCD_0604	66	18	allez	NULL	v	NULL	B_GVf	DEP_COORD	11	idtext0070	aller	P#2##p##	spk1	207.88	208.02	0.01	_
20091112_RATP_SCD_0604	66	19	prendre	NULL	vinf	NULL	I_GVf	OBJ	18	idtext0070	prendre	W#####	spk1	208.03	208.43	0.01	_
20091112_RATP_SCD_0604	66	20	le	NULL	det	NULL	B_GN	DET	21	idtext0070	le	##m#s##d	spk1	208.44	208.54	0.01	_
20091112_RATP_SCD_0604	66	21	train	NULL	nc	NULL	I_GN	OBJ	19	idtext0070	train	##m#s##	spk1	208.55	208.76	0.01	_
20091112_RATP_SCD_0604	66	22	pour	NULL	prep	NULL	B_GP	P_OBJ	21	idtext0070	pour	#####	spk1	208.77	208.87	0.01	_
20091112_RATP_SCD_0604	66	23	Versailles-Chantiers	NULL	nc	B_A	I_GP	OBJ	22	idtext0070	Versailles-Chantiers	#####	spk1	208.88	209.72	0.01	_
20091112_RATP_SCD_0604	66	24	le	NULL	det	NULL	B_GN	DET	25	idtext0070	le	##m#s##d	spk1	209.73	209.78	0.01	_
20091112_RATP_SCD_0604	66	25	RER+C	NULL	nc	B_T	I_GN	ROOT	0	idtext0070	RER+C	#####	spk1	209.79	210.64	?	//

20091112_RATP_SCD_0604	67	1	mais	NULL	coo	NULL	B_NULL	ROOT	0	idtext0071	mais	#####	spk2	210.74	211.16	0.01	_
20091112_RATP_SCD_0604	67	2	de	NULL	prep	NULL	B_GP	MOD	9	idtext0071	de	#####	spk2	211.17	211.37	0.01	_
20091112_RATP_SCD_0604	67	3	la	NULL	det	NULL	I_GP	DET	4	idtext0071	le	##m#s##d	spk2	211.38	211.46	0.01	_
20091112_RATP_SCD_0604	67	4	Bibliothèque+Mitterrand	NULL	nc	B_A	I_GP	OBJ	2	idtext0071	Bibliothèque+Mitterrand	#####	spk2	211.47	212.37	0.01	_
20091112_RATP_SCD_0604	67	5	à	NULL	prep	NULL	B_GP	P_OBJ_LOC	4	idtext0071	à	#####	spk2	212.38	212.71	0.01	_
20091112_RATP_SCD_0604	67	6	RER+C	NULL	nc	B_T	I_GP	OBJ	5	idtext0071	RER+C	#####	spk2	212.72	213.31	0.01	_
20091112_RATP_SCD_0604	67	7	il	NULL	cln	NULL	B_GN	SUJ_IMP	9	idtext0071	cln	#3#m#s##	spk2	213.32	213.37	0.01	_
20091112_RATP_SCD_0604	67	8	y	NULL	clo	NULL	B_GN	AFF	9	idtext0071	y	#####	spk2	213.38	213.41	0.01	_
20091112_RATP_SCD_0604	67	9	a	NULL	v	NULL	B_GVf	DEP_COORD	1	idtext0071	avoir	P#3##s##	spk2	213.42	213.47	0.01	_
20091112_RATP_SCD_0604	67	10	loin	NULL	adv	NULL	B_GADV	MOD	9	idtext0071	loin	#####	spk2	213.48	213.95	?	_

20091112_RATP_SCD_0604	68	1	ou	NULL	coo	NULL	B_NULL	ROOT	0	idtext0072	ou	#####	spk2	214.6	214.76	0.01	_
20091112_RATP_SCD_0604	68	2	si	NULL	csu	NULL	B_NULL	DEP_COORD	1	idtext0072	si	#####	spk2	214.77	214.99	0.01	_
20091112_RATP_SCD_0604	68	3	c'	NULL	cln	NULL	B_GN	SUJ_IMP	4	idtext0072	ce	###s##	spk2	215.0	215.02	0.01	_
20091112_RATP_SCD_0604	68	4	est	NULL	v	NULL	B_GVf	OBJ	2	idtext0072	être	P#3##s##	spk2	215.03	215.14	0.01	_
20091112_RATP_SCD_0604	68	5	changement	NULL	nc	NULL	B_GN	ATS	4	idtext0072	changement	##m#s##	spk2	215.15	215.49	0.01	_
20091112_RATP_SCD_0604	68	6	de	NULL	prep	NULL	B_GP	DEP	5	idtext0072	de	#####	spk2	215.5	215.68	0.01	_
20091112_RATP_SCD_0604	68	7	quai	NULL	nc	NULL	I_GP	OBJ	6	idtext0072	quai	##m#s##	spk2	215.69	215.98	?	//

20091112_RATP_SCD_0604	69	1	c'	NULL	cln	NULL	B_GN	SUJ_IMP	2	idtext0073	ce	###s##	spk1	218.85	218.89	0.01	_
20091112_RATP_SCD_0604	69	2	est	NULL	v	NULL	B_GVf	ROOT	0	idtext0073	être	P#3##s##	spk1	218.9	218.93	0.01	_
20091112_RATP_SCD_0604	69	3	la	NULL	det	NULL	B_GN	DET	5	idtext0073	le	##m#s##d	spk1	218.94	219.03	0.01	_
20091112_RATP_SCD_0604	69	4	même	NULL	adj	NULL	I_GN	MOD	5	idtext0073	même	###s##	spk1	219.04	219.23	0.01	_
20091112_RATP_SCD_0604	69	5	gare	NULL	nc	NULL	I_GN	ATS	2	idtext0073	gare	##f#s##	spk1	219.24	219.44	0.01	_
20091112_RATP_SCD_0604	69	6	hein	DISF_M	pres	NULL	NULL	NOLINK	0	idtext0073	hein	#####	spk1	219.45	219.49	0.01	_
20091112_RATP_SCD_0604	69	7	madame	NULL	nc	NULL	B_GN	NOLINK	0	idtext0073	Monsieur	##f#s##	spk1	219.5	219.8	?	//

20091112_RATP_SCD_0604	70	1	ah	DISF_M	pres	NULL	NULL	NOLINK	0	idtext0074	ah	#####	spk2	220.09	220.12	0.01	_
20091112_RATP_SCD_0604	70	2	c'	NULL	cln	NULL	B_GN	SUJ_IMP	3	idtext0074	ce	###s##	spk2	220.13	220.21	0.01	_
20091112_RATP_SCD_0604	70	3	est	NULL	v	NULL	B_GVf	ROOT	0	idtext0074	être	P#3##s##	spk2	220.22	220.27	0.01	_
20091112_RATP_SCD_0604	70	4	la	NULL	det	NULL	B_GN	DET	6	idtext0074	le	##m#s##d	spk2	220.28	220.35	0.01	_
20091112_RATP_SCD_0604	70	5	même	NULL	adj	NULL	I_GN	MOD	6	idtext0074	même	###s##	spk2	220.36	220.52	0.01	_
20091112_RATP_SCD_0604	70	6	gare	NULL	nc	NULL	I_GN	ATS	3	idtext0074	gare	##f#s##	spk2	220.53	220.85	?	//

20091112_RATP_SCD_0604	71	1	oui	NULL	adv	NULL	B_GADV	MOD	2	idtext0075	oui	#####	spk1	220.89	221.07	0.01	_
20091112_RATP_SCD_0604	71	2	tout+à+fait	NULL	adv	NULL	I_GADV	ROOT	0	idtext0075	tout+à+fait	#####	spk1	221.08	221.59	?	_

20091112_RATP_SCD_0604	72	1	donc	NULL	coo	NULL	B_NULL	ROOT	0	idtext0076	donc	#####	spk2	221.65	222.17	0.01	//
20091112_RATP_SCD_0604	72	2	euh	DISF_M	pres	NULL	NULL	NOLINK	0	idtext0076	euh	#####	spk2	222.18	222.2	0.01	_
20091112_RATP_SCD_0604	72	3	trente	NULL	adj	NULL	B_GN	MOD	4	idtext0076	trente	#####	spk2	222.21	222.45	0.01	_
20091112_RATP_SCD_0604	72	4	minutes	NULL	nc	NULL	I_GN	DEP_COORD	1	idtext0076	minute	##f#p##	spk2	222.46	222.8	0.01	_
20091112_RATP_SCD_0604	72	5	tous+les	NULL	det	NULL	B_GN	DET	6	idtext0076	tous+les	#####	spk2	222.81	223.07	0.01	/
20091112_RATP_SCD_0604	72	6	trains	NULL	nc	NULL	I_GN	MOD	4	idtext0076	train	##m#p##	spk2	223.08	223.39	0.01	_
20091112_RATP_SCD_0604	72	7	d'accord	NULL	adv	NULL	B_GADV	NOLINK	0	idtext0076	d'accord	#####	spk2	223.4	223.85	?	//

20091112_RATP_SCD_0604	73	1	bon+ben	DISF_M	pres	NULL	NULL	NOLINK	0	idtext0077	bon+ben	#####	spk2	225.05	225.54	0.01	_
20091112_RATP_SCD_0604	73	2	écoutez	DISF_M	pres	NULL	NULL	NOLINK	0	idtext0077	écoutez	#####	spk2	225.55	225.98	0.01	_
20091112_RATP_SCD_0604	73	3	alors	NULL	adv	NULL	B_GADV	NOLINK	0	idtext0077	alors	#####	spk2	225.99	226.15	0.01	_
20091112_RATP_SCD_0604	73	4	je	NULL	cln	NULL	B_GN	SUJ	5	idtext0077	cln	#1##s##	spk2	226.16	226.29	0.01	_
20091112_RATP_SCD_0604	73	5	répète	NULL	v	NULL	B_GVf	ROOT	0	idtext0077	répéter	PS#13##s##	spk2	226.3	226.78	0.01	_
20091112_RATP_SCD_0604	73	6	hein	DISF_M	pres	NULL	NULL	NOLINK	0	idtext0077	hein	#####	spk2	226.79	227.42	0.01	_
20091112_RATP_SCD_0604	73	7	de+chez	NULL	prep	NULL	B_NULL	P_OBJ_LOC	5	idtext0078	de+chez	#####	spk2	227.43	227.76	0.01	_
20091112_RATP_SCD_0604	73	8	de	DISF_R	prep	NULL	NULL	NOLINK	0	idtext0078	de	#####	spk2	227.77	228.12	0.01	_
20091112_RATP_SCD_0604	73	9	de	DISF_R	prep	NULL	NULL	NOLINK	0	idtext0078	de	#####	spk2	228.13	228.53	0.01	_
20091112_RATP_SCD_0604	73	10	de	NULL	prep	NULL	B_NULL	OBJ	7	idtext0078	de	#####	spk2	228.54	228.91	0.01	_
20091112_RATP_SCD_0604	73	11	là	NULL	adv	NULL	B_GADV	OBJ	10	idtext0078	là	#####	spk2	228.92	229.1	0.01	_
20091112_RATP_SCD_0604	73	12	où	NULL	prorel	NULL	B_NULL	P_OBJ_LOC	14	idtext0078	où	#####	spk2	229.11	229.18	0.01	_
20091112_RATP_SCD_0604	73	13	elle	NULL	cln	NULL	B_GN	SUJ	14	idtext0078	cln	#3#f#s##	spk2	229.19	229.29	0.01	_
20091112_RATP_SCD_0604	73	14	habite	NULL	v	NULL	B_GVf	MOD_REL	11	idtext0078	habiter	PS#13##s##	spk2	229.3	229.96	?	//

20091112_RATP_SCD_0604	74	1	de	NULL	prep	NULL	B_GP	MOD	4	idtext0079	de	#####	spk2	230.6	230.7	0.01	_
20091112_RATP_SCD_0604	74	2	Fontenay-sous-Bois	NULL	nc	B_A	I_GP	OBJ	1	idtext0079	Fontenay-sous-Bois	##m#s##	spk2	230.71	231.56	0.01	_
20091112_RATP_SCD_0604	74	3	elle	NULL	cln	NULL	B_GN	SUJ	4	idtext0079	cln	#3#f#s##	spk2	231.57	231.71	0.01	_
20091112_RATP_SCD_0604	74	4	prend	NULL	v	NULL	B_GVf	ROOT	0	idtext0079	prendre	P#3##s##	spk2	231.72	231.82	0.01	_
20091112_RATP_SCD_0604	74	5	le	NULL	det	NULL	B_GN	DET	6	idtext0079	le	##m#s##d	spk2	231.83	231.97	0.01	_
20091112_RATP_SCD_0604	74	6	RER+A	NULL	nc	B_T	I_GN	OBJ	4	idtext0079	RER+A	#####	spk2	231.98	232.93	?	//

20091112_RATP_SCD_0604	75	1	direction	NULL	nc	NULL	B_GN	NOLINK	0	idtext0080	direction	##f#s##	spk2	233.27	233.75	?	//

20091112_RATP_SCD_0604	76	1	tout+à+fait	NULL	adv	NULL	B_GADV	NOLINK	0	idtext0081	tout+à+fait	#####	spk1	233.26	233.75	?	//

20091112_RATP_SCD_0604	77	1	Saint-Germain-en-Laye	NULL	nc	B_A	B_GN	NOLINK	0	idtext0082	Saint-Germain-en-Laye	##m#s##	spk2	233.8	234.63	?	//

20091112_RATP_SCD_0604	78	1	descend	NULL	v	NULL	B_GVf	NOLINK	0	idtext0083	descendre	P#3##s##	spk2	234.73	235.02	?	//

20091112_RATP_SCD_0604	79	1	oui	NULL	adv	NULL	B_GADV	NOLINK	0	idtext0084	oui	#####	spk1	234.67	235.02	?	//

20091112_RATP_SCD_0604	80	1	Gare+de+Lyon	NULL	nc	B_A	B_GN	NOLINK	0	idtext0085	Gare+de+Lyon	#####	spk2	235.06	235.57	0.01	//
20091112_RATP_SCD_0604	80	2	elle	NULL	cln	NULL	B_GN	SUJ	3	idtext0085	cln	#3#f#s##	spk2	235.58	235.72	0.01	_
20091112_RATP_SCD_0604	80	3	prend	NULL	v	NULL	B_GVf	ROOT	0	idtext0085	prendre	P#3##s##	spk2	235.73	235.82	0.01	_
20091112_RATP_SCD_0604	80	4	la	NULL	det	NULL	B_GN	DET	5	idtext0085	le	##m#s##d	spk2	235.83	235.92	0.01	_
20091112_RATP_SCD_0604	80	5	ligne	NULL	nc	B_T	I_GN	OBJ	3	idtext0085	ligne	##f#s##	spk2	235.93	236.08	0.01	_
20091112_RATP_SCD_0604	80	6	quatorze	NULL	adj	I_T	I_GN	MOD	5	idtext0085	quatorze	#####	spk2	236.09	236.65	?	//

20091112_RATP_SCD_0604	81	1	elle	NULL	cln	NULL	B_GN	SUJ	2	idtext0086	cln	#3#f#s##	spk2	237.26	237.39	0.01	_
20091112_RATP_SCD_0604	81	2	descend	NULL	v	NULL	B_GVf	ROOT	0	idtext0086	descendre	P#3##s##	spk2	237.4	237.74	0.01	_
20091112_RATP_SCD_0604	81	3	à	NULL	prep	NULL	B_GP	P_OBJ_LOC	2	idtext0086	à	#####	spk2	237.75	237.88	0.01	_
20091112_RATP_SCD_0604	81	4	Olympiades	NULL	nc	B_A	I_GP	OBJ	3	idtext0086	Olympiades	#####	spk2	237.89	238.83	?	//

20091112_RATP_SCD_0604	82	1	non	NULL	adv	NULL	B_GADV	NOLINK	0	idtext0087	non	#####	spk2	239.05	239.34	?	_

20091112_RATP_SCD_0604	83	1	direction	NULL	nc	NULL	B_GN	NOLINK	0	idtext0088	direction	##f#s##	spk2	239.38	239.81	0.01	_
20091112_RATP_SCD_0604	83	2	les	NULL	det	NULL	B_NULL	NOLINK	0	idtext0088	le	###p##d	spk2	239.82	240.05	?	_

20091112_RATP_SCD_0604	84	1	oui	DISF_R	adv	NULL	NULL	NOLINK	0	idtext0089	oui	#####	spk1	239.43	239.65	0.01	_
20091112_RATP_SCD_0604	84	2	oui	NULL	adv	NULL	B_GADV	NOLINK	0	idtext0089	oui	#####	spk1	239.66	240.05	?	_

20091112_RATP_SCD_0604	85	1	c'	NULL	cln	NULL	B_GN	SUJ_IMP	2	idtext0090	ce	###s##	spk1	240.11	240.17	0.01	_
20091112_RATP_SCD_0604	85	2	est	NULL	v	NULL	B_GVf	ROOT	0	idtext0090	être	P#3##s##	spk1	240.18	240.21	0.01	_
20091112_RATP_SCD_0604	85	3	elle	NULL	cln	NULL	B_GN	SUJ	4	idtext0090	cln	#3#f#s##	spk1	240.22	240.61	0.01	_
20091112_RATP_SCD_0604	85	4	descend	NULL	v	NULL	B_GVf	ROOT	0	idtext0090	descendre	P#3##s##	spk1	240.62	240.76	0.01	_
20091112_RATP_SCD_0604	85	5	elle	NULL	pro	NULL	B_GN	OBJ	4	idtext0090	elle	#####	spk1	240.77	241.06	0.01	_
20091112_RATP_SCD_0604	85	6	c'	NULL	cln	NULL	B_GN	SUJ_IMP	7	idtext0090	ce	###s##	spk1	241.07	241.11	0.01	_
20091112_RATP_SCD_0604	85	7	est	NULL	v	NULL	B_GVf	ROOT	0	idtext0090	être	P#3##s##	spk1	241.12	241.14	0.01	_
20091112_RATP_SCD_0604	85	8	en	NULL	prep	NULL	B_GP	ATS	7	idtext0090	en	#####	spk1	241.15	241.22	0.01	_
20091112_RATP_SCD_0604	85	9	direction	NULL	nc	NULL	I_GP	OBJ	8	idtext0090	direction	##f#s##	spk1	241.23	241.68	0.01	_
20091112_RATP_SCD_0604	85	10	d'	NULL	prep	NULL	B_GP	DEP	9	idtext0090	d'	#####	spk1	241.69	241.75	0.01	_
20091112_RATP_SCD_0604	85	11	Olympiades	NULL	nc	B_A	I_GP	OBJ	10	idtext0090	Olympiades	#####	spk1	241.76	242.29	0.01	//
20091112_RATP_SCD_0604	85	12	et	NULL	coo	NULL	B_NULL	COORD	7	idtext0090	et	#####	spk1	242.3	242.58	0.01	_
20091112_RATP_SCD_0604	85	13	elle	NULL	cln	NULL	B_GN	SUJ	14	idtext0090	cln	#3#f#s##	spk1	242.59	242.68	0.01	_
20091112_RATP_SCD_0604	85	14	descend	NULL	v	NULL	B_GVf	DEP_COORD	12	idtext0090	descendre	P#3##s##	spk1	242.69	243.17	0.01	_
20091112_RATP_SCD_0604	85	15	à	NULL	prep	NULL	B_GP	P_OBJ_LOC	14	idtext0090	à	#####	spk1	243.18	243.26	0.01	_
20091112_RATP_SCD_0604	85	16	Bibliothèque+François+Mitterrand	NULL	nc	B_A	I_GP	OBJ	15	idtext0090	Bibliothèque+François+Mitterrand	#####	spk1	243.27	244.55	?	//

20091112_RATP_SCD_0604	86	1	descendre	NULL	vinf	NULL	B_GVi	ROOT	0	idtext0091	descendre	W#####	spk2	244.89	245.35	0.01	_
20091112_RATP_SCD_0604	86	2	François	NULL	np	NULL	B_GN	OBJ	1	idtext0091	François	##m#s##	spk2	245.36	245.68	0.01	_
20091112_RATP_SCD_0604	86	3	bibliothèque	NULL	nc	NULL	I_GN	MOD	2	idtext0091	bibliothèque	##f#s##	spk2	245.69	246.71	0.01	_
20091112_RATP_SCD_0604	86	4	après	NULL	adv	NULL	B_GADV	NOLINK	0	idtext0092	après	#####	spk2	246.72	247.01	0.01	_
20091112_RATP_SCD_0604	86	5	elle	NULL	cln	NULL	B_GN	SUJ	6	idtext0092	cln	#3#f#s##	spk2	247.02	247.07	0.01	_
20091112_RATP_SCD_0604	86	6	reprend	NULL	v	NULL	B_GVf	ROOT	0	idtext0092	reprendre	P#3##s##	spk2	247.08	247.41	0.01	_
20091112_RATP_SCD_0604	86	7	le	NULL	det	NULL	B_GN	DET	8	idtext0092	le	##m#s##d	spk2	247.42	247.46	0.01	_
20091112_RATP_SCD_0604	86	8	RER+C	NULL	nc	B_T	I_GN	OBJ	6	idtext0092	RER+C	#####	spk2	247.47	248.24	0.01	_
20091112_RATP_SCD_0604	86	9	elle	NULL	cln	NULL	B_GN	SUJ	10	idtext0092	cln	#3#f#s##	spk2	248.25	248.33	0.01	_
20091112_RATP_SCD_0604	86	10	va	NULL	v	NULL	B_GVf	ROOT	0	idtext0092	aller	P#3##s##	spk2	248.34	248.45	0.01	_
20091112_RATP_SCD_0604	86	11	vers	NULL	prep	NULL	B_GP	P_OBJ_LOC	10	idtext0092	vers	#####	spk2	248.46	248.66	0.01	_
20091112_RATP_SCD_0604	86	12	Versailles-Chantiers	NULL	nc	B_A	I_GP	OBJ	11	idtext0092	Versailles-Chantiers	#####	spk2	248.67	249.24	0.01	_
20091112_RATP_SCD_0604	86	13	et	NULL	coo	NULL	B_NULL	COORD	10	idtext0092	et	#####	spk2	249.25	249.28	0.01	_
20091112_RATP_SCD_0604	86	14	jusqu'à	NULL	prep	NULL	B_GP	DEP_COORD	13	idtext0092	jusqu'à	#####	spk2	249.29	249.61	0.01	_
20091112_RATP_SCD_0604	86	15	gare	NULL	nc	B_A	I_GP	OBJ	14	idtext0092	gare	##f#s##	spk2	249.62	249.8	0.01	_
20091112_RATP_SCD_0604	86	16	de	NULL	prep	I_A	I_GP	DEP	15	idtext0092	de	#####	spk2	249.81	249.91	0.01	_
20091112_RATP_SCD_0604	86	17	Chilly-Mazarin	NULL	np	I_A	I_GP	OBJ	16	idtext0092	Chilly-Mazarin	##m#s##	spk2	249.92	250.7	?	//

20091112_RATP_SCD_0604	87	1	oui	NULL	adv	NULL	B_GADV	MOD	2	idtext0093	oui	#####	spk1	250.77	250.88	0.01	_
20091112_RATP_SCD_0604	87	2	tout+à+fait	NULL	adv	NULL	I_GADV	ROOT	0	idtext0093	tout+à+fait	#####	spk1	250.89	251.65	?	_

20091112_RATP_SCD_0604	88	1	et	NULL	coo	NULL	B_NULL	ROOT	0	idtext0094	et	#####	spk2	251.93	252.43	0.01	_
20091112_RATP_SCD_0604	88	2	ça	NULL	pro	NULL	B_GN	SUJ_IMP	3	idtext0094	ça	#####	spk2	252.44	252.55	0.01	_
20091112_RATP_SCD_0604	88	3	demande	NULL	v	NULL	B_GVf	DEP_COORD	1	idtext0094	demander	PS#13##s##	spk2	252.56	252.98	0.01	_
20091112_RATP_SCD_0604	88	4	en+tout	NULL	adv	NULL	B_GADV	MOD	5	idtext0094	en+tout	#####	spk2	252.99	253.15	0.01	_
20091112_RATP_SCD_0604	88	5	à+peu+près	NULL	adv	NULL	I_GADV	MOD	3	idtext0094	à+peu+près	#####	spk2	253.16	253.54	0.01	_
20091112_RATP_SCD_0604	88	6	une	NULL	nc	NULL	B_GN	OBJ	3	idtext0094	une	##f#s##	spk2	253.55	253.71	0.01	_
20091112_RATP_SCD_0604	88	7	heure	NULL	nc	NULL	I_GN	MOD	6	idtext0094	heure	##f#s##	spk2	253.72	253.99	?	//

20091112_RATP_SCD_0604	89	1	un+peu	NULL	adv	NULL	B_GADV	NOLINK	0	idtext0095	un+peu	#####	spk1	254.69	254.83	?	//

20091112_RATP_SCD_0604	90	1	exactement	NULL	adv	NULL	B_GADV	NOLINK	0	idtext0096	exactement	#####	spk1	255.19	255.74	?	//

20091112_RATP_SCD_0604	91	1	merci	NULL	adv	NULL	B_GADV	MOD	2	idtext0097	merci	#####	spk2	256.07	256.35	0.01	_
20091112_RATP_SCD_0604	91	2	beaucoup	NULL	adv	NULL	I_GADV	ROOT	0	idtext0097	beaucoup	#####	spk2	256.36	256.59	0.01	_
20091112_RATP_SCD_0604	91	3	madame	NULL	nc	NULL	B_GN	NOLINK	0	idtext0097	Monsieur	##f#s##	spk2	256.6	257.0	?	//

20091112_RATP_SCD_0604	92	1	je	NULL	cln	NULL	B_GN	SUJ	4	idtext0098	cln	#1##s##	spk1	257.04	257.13	0.01	_
20091112_RATP_SCD_0604	92	2	vous	NULL	clo	NULL	B_GN	OBJ	4	idtext0098	cln	#2##p##	spk1	257.14	257.19	0.01	_
20091112_RATP_SCD_0604	92	3	en	NULL	clo	NULL	B_GN	DE_OBJ	4	idtext0098	en	#####	spk1	257.2	257.27	0.01	_
20091112_RATP_SCD_0604	92	4	prie	NULL	v	NULL	B_GVf	ROOT	0	idtext0098	prier	PS#13##s##	spk1	257.28	257.53	?	//

20091112_RATP_SCD_0604	93	1	au+revoir	NULL	adv	NULL	B_GADV	NOLINK	0	idtext0099	au+revoir	#####	spk1	257.57	258.15	?	//

20091112_RATP_SCD_0604	94	1	au+revoir	NULL	adv	NULL	B_GADV	NOLINK	0	idtext0100	au+revoir	#####	spk2	257.57	258.15	?	//

20091112_RATP_SCD_0604	95	1	bonne	NULL	adj	NULL	B_GN	MOD	2	idtext0101	bon	##f#s##	spk1	258.33	258.44	0.01	_
20091112_RATP_SCD_0604	95	2	journée	NULL	nc	NULL	I_GN	ROOT	0	idtext0101	journée	##f#s##	spk1	258.45	258.76	?	//

