20091112_RATP_SCD_0378	1	1	NNAAMMEE	NULL	np	B_HU	B_GN	ROOT	0	idtext0000	ANONYM	NULL	spk1	4.08	4.38	0.01	_
20091112_RATP_SCD_0378	1	2	bonjour	NULL	adv	NULL	B_GADV	NOLINK	0	idtext0001	bonjour	#####	spk1	4.39	5.91	0.58	/
20091112_RATP_SCD_0378	1	3	NNAAMMEE	NULL	np	B_HU	B_GN	ROOT	0	idtext0002	ANONYM	NULL	spk1	6.49	6.74	0.01	_
20091112_RATP_SCD_0378	1	4	bonjour	NULL	adv	NULL	B_GADV	NOLINK	0	idtext0003	bonjour	#####	spk1	6.75	7.44	?	//

20091112_RATP_SCD_0378	2	1	bonjour	NULL	adv	NULL	B_GADV	NOLINK	0	idtext0004	bonjour	#####	spk2	7.48	7.62	0.01	_
20091112_RATP_SCD_0378	2	2	monsieur	NULL	nc	NULL	B_GN	NOLINK	0	idtext0004	Monsieur	##m#s##	spk2	7.63	7.99	0.01	_
20091112_RATP_SCD_0378	2	3	c'	NULL	cln	NULL	B_GN	SUJ_IMP	4	idtext0004	ce	###s##	spk2	8.0	8.14	0.01	_
20091112_RATP_SCD_0378	2	4	est	NULL	v	NULL	B_GVf	ROOT	0	idtext0004	être	P#3##s##	spk2	8.15	8.49	0.01	_
20091112_RATP_SCD_0378	2	5	madame	NULL	nc	NULL	B_GN	ATS	4	idtext0004	Monsieur	##f#s##	spk2	8.5	8.68	0.01	_
20091112_RATP_SCD_0378	2	6	NNAAMMEE	NULL	np	B_HU	B_GN	ROOT	0	idtext0005	ANONYM	NULL	spk2	8.69	9.47	0.01	_
20091112_RATP_SCD_0378	2	7	j'	NULL	cln	NULL	B_GN	SUJ	9	idtext0006	cln	#1##s##	spk2	9.48	9.5	0.01	_
20091112_RATP_SCD_0378	2	8	ai	NULL	v	NULL	B_GVf	AUX	9	idtext0006	avoir	P#1##s##	spk2	9.51	9.8	0.01	_
20091112_RATP_SCD_0378	2	9	oublié	NULL	vppart	NULL	I_GVf	ROOT	0	idtext0006	oublier	K##m#s##	spk2	9.81	10.22	0.01	_
20091112_RATP_SCD_0378	2	10	quelque+chose	NULL	pro	NULL	B_GN	OBJ	9	idtext0006	quelque+chose	#####	spk2	10.23	11.09	0.01	_
20091112_RATP_SCD_0378	2	11	au	DISF_R	prep	NULL	NULL	NOLINK	0	idtext0006	au	#####	spk2	11.1	11.71	0.01	_
20091112_RATP_SCD_0378	2	12	sur	NULL	prep	NULL	B_GP	P_OBJ_LOC	9	idtext0007	sur	#####	spk2	11.72	11.9	0.01	_
20091112_RATP_SCD_0378	2	13	le	NULL	det	NULL	I_GP	DET	14	idtext0007	le	##m#s##d	spk2	11.91	12.08	0.01	_
20091112_RATP_SCD_0378	2	14	bus	NULL	nc	B_T	I_GP	OBJ	12	idtext0007	bus	##m###	spk2	12.09	12.78	0.01	_
20091112_RATP_SCD_0378	2	15	cent	NULL	adj	I_T	I_GP	MOD	14	idtext0007	cent	#####	spk2	12.79	13.1	0.01	_
20091112_RATP_SCD_0378	2	16	quarante	NULL	adj	I_T	I_GP	MOD	15	idtext0007	quarante	#####	spk2	13.11	15.1	0.01	_
20091112_RATP_SCD_0378	2	17	euh	DISF_M	pres	I_T	NULL	NOLINK	0	idtext0007	euh	#####	spk2	15.11	15.14	0.01	_
20091112_RATP_SCD_0378	2	18	euh	DISF_M	pres	I_T	NULL	NOLINK	0	idtext0008	euh	#####	spk2	15.15	15.57	0.01	_
20091112_RATP_SCD_0378	2	19	qui	NULL	prorel	NULL	B_NULL	SUJ	20	idtext0008	qui	#####	spk2	15.58	15.8	0.01	_
20091112_RATP_SCD_0378	2	20	part	NULL	v	NULL	B_GVf	MOD_REL	14	idtext0008	partir	P#3##s##	spk2	15.81	16.08	0.01	_
20091112_RATP_SCD_0378	2	21	à	NULL	prep	NULL	B_GP	P_OBJ_LOC	20	idtext0008	à	#####	spk2	16.09	16.16	0.01	_
20091112_RATP_SCD_0378	2	22	Colombes	NULL	nc	B_A	I_GP	OBJ	21	idtext0008	Colombes	##m#s##	spk2	16.17	17.41	?	//

20091112_RATP_SCD_0378	3	1	qui	NULL	prorel	NULL	B_NULL	SUJ	2	idtext0009	qui	#####	spk1	17.45	17.52	0.01	_
20091112_RATP_SCD_0378	3	2	part	NULL	v	NULL	B_GVf	ROOT	0	idtext0009	partir	P#3##s##	spk1	17.53	17.68	0.01	_
20091112_RATP_SCD_0378	3	3	à	NULL	prep	NULL	B_GP	P_OBJ_LOC	2	idtext0009	à	#####	spk1	17.69	17.75	0.01	_
20091112_RATP_SCD_0378	3	4	Colombes	NULL	nc	B_A	I_GP	OBJ	3	idtext0009	Colombes	##m#s##	spk1	17.76	18.31	0.01	_
20091112_RATP_SCD_0378	3	5	le	NULL	det	NULL	B_NULL	P_OBJ_LOC	2	idtext0009	le	##m#s##d	spk1	18.32	18.35	0.01	_
20091112_RATP_SCD_0378	3	6	sur	NULL	prep	NULL	B_NULL	NOLINK	0	idtext0009	sur	#####	spk1	18.36	18.53	0.01	_
20091112_RATP_SCD_0378	3	7	euh	DISF_M	pres	NULL	NULL	NOLINK	0	idtext0009	euh	#####	spk1	18.54	18.59	?	//

20091112_RATP_SCD_0378	4	1	hier	DISF_R	adv	NULL	NULL	NOLINK	0	idtext0010	hier	#####	spk2	18.67	19.22	0.01	_
20091112_RATP_SCD_0378	4	2	hier	NULL	adv	NULL	B_GADV	NOLINK	0	idtext0010	hier	#####	spk2	19.23	19.62	0.01	_
20091112_RATP_SCD_0378	4	3	soir	NULL	nc	NULL	B_GN	NOLINK	0	idtext0010	soir	##m#s##	spk2	19.63	19.84	0.01	_
20091112_RATP_SCD_0378	4	4	oui	NULL	adv	NULL	B_GADV	NOLINK	0	idtext0010	oui	#####	spk2	19.85	19.92	?	//

20091112_RATP_SCD_0378	5	1	ah	DISF_M	pres	NULL	NULL	NOLINK	0	idtext0011	ah	#####	spk1	20.01	20.08	0.01	_
20091112_RATP_SCD_0378	5	2	c'	NULL	cln	NULL	B_GN	SUJ_IMP	3	idtext0011	ce	###s##	spk1	20.09	20.11	0.01	_
20091112_RATP_SCD_0378	5	3	était	NULL	v	NULL	B_GVf	ROOT	0	idtext0011	être	I#3##s##	spk1	20.12	20.39	0.01	_
20091112_RATP_SCD_0378	5	4	hier	NULL	adv	NULL	B_GADV	MOD	3	idtext0011	hier	#####	spk1	20.4	20.53	0.01	_
20091112_RATP_SCD_0378	5	5	soir	NULL	nc	NULL	B_GN	NOLINK	0	idtext0011	soir	##m#s##	spk1	20.54	20.84	0.01	_
20091112_RATP_SCD_0378	5	6	d'accord	NULL	adv	NULL	B_GADV	NOLINK	0	idtext0011	d'accord	#####	spk1	20.85	21.72	0.01	_
20091112_RATP_SCD_0378	5	7	donc	NULL	coo	NULL	B_NULL	COORD	3	idtext0011	donc	#####	spk1	21.73	21.89	0.01	_
20091112_RATP_SCD_0378	5	8	le	NULL	det	NULL	B_GN	DET	9	idtext0011	le	##m#s##d	spk1	21.9	21.97	0.01	_
20091112_RATP_SCD_0378	5	9	cent+quarante	NULL	nc	B_T	I_GN	DEP_COORD	7	idtext0011	cent+quarante	#####	spk1	21.98	23.06	0.04	_
20091112_RATP_SCD_0378	5	10	et	NULL	coo	NULL	B_NULL	ROOT	0	idtext0012	et	#####	spk1	23.1	23.12	0.01	_
20091112_RATP_SCD_0378	5	11	c'	NULL	cln	NULL	B_GN	SUJ_IMP	12	idtext0012	ce	###s##	spk1	23.13	23.15	0.01	_
20091112_RATP_SCD_0378	5	12	était	NULL	v	NULL	B_GVf	DEP_COORD	10	idtext0012	être	I#3##s##	spk1	23.16	23.33	0.01	_
20091112_RATP_SCD_0378	5	13	quoi	NULL	pri	NULL	B_NULL	ATS	12	idtext0012	quoi	#####	spk1	23.34	23.48	0.01	_
20091112_RATP_SCD_0378	5	14	comme	NULL	adv	NULL	B_GADV	MOD	13	idtext0012	comme	#####	spk1	23.49	23.74	0.01	_
20091112_RATP_SCD_0378	5	15	euh	DISF_M	pres	NULL	NULL	NOLINK	0	idtext0012	euh	#####	spk1	23.75	24.02	0.01	_
20091112_RATP_SCD_0378	5	16	objet	NULL	nc	NULL	B_GN	SUJ	18	idtext0012	objet	##m#s##	spk1	24.03	24.38	0.01	_
20091112_RATP_SCD_0378	5	17	c'	NULL	cln	NULL	B_GN	SUJ_IMP	18	idtext0012	ce	###s##	spk1	24.39	24.56	0.01	_
20091112_RATP_SCD_0378	5	18	était	NULL	v	NULL	B_GVf	OBJ	14	idtext0012	être	I#3##s##	spk1	24.57	24.72	0.01	_
20091112_RATP_SCD_0378	5	19	quoi	NULL	pri	NULL	B_NULL	ATS	18	idtext0012	quoi	#####	spk1	24.73	25.24	?	_

20091112_RATP_SCD_0378	6	1	c'	DISF_R	cln	NULL	NULL	NOLINK	0	idtext0013	ce	###s##	spk2	25.28	25.3	0.01	_
20091112_RATP_SCD_0378	6	2	est	DISF_R	v	NULL	NULL	NOLINK	0	idtext0013	être	P#3##s##	spk2	25.31	26.23	0.01	_
20091112_RATP_SCD_0378	6	3	c'	NULL	cln	NULL	B_GN	SUJ_IMP	4	idtext0013	ce	###s##	spk2	26.24	26.42	0.01	_
20091112_RATP_SCD_0378	6	4	est	NULL	v	NULL	B_GVf	ROOT	0	idtext0013	être	P#3##s##	spk2	26.43	26.89	0.01	_
20091112_RATP_SCD_0378	6	5	la	NULL	det	NULL	B_GN	DET	7	idtext0013	le	##m#s##d	spk2	26.9	26.95	0.01	_
20091112_RATP_SCD_0378	6	6	grande	NULL	adj	NULL	I_GN	MOD	7	idtext0013	grand	##f#s##	spk2	26.96	27.34	0.01	_
20091112_RATP_SCD_0378	6	7	écharpe	NULL	nc	NULL	I_GN	ATS	4	idtext0013	écharpe	##f#s##	spk2	27.35	28.51	?	//

20091112_RATP_SCD_0378	7	1	une	NULL	det	NULL	B_GN	DET	3	idtext0014	un	##f#s##i	spk1	28.81	28.89	0.01	_
20091112_RATP_SCD_0378	7	2	grande	NULL	adj	NULL	I_GN	MOD	3	idtext0014	grand	##f#s##	spk1	28.9	29.13	0.01	_
20091112_RATP_SCD_0378	7	3	écharpe	NULL	nc	NULL	I_GN	ROOT	0	idtext0014	écharpe	##f#s##	spk1	29.14	29.96	?	//

20091112_RATP_SCD_0378	8	1	grande	NULL	adj	NULL	B_GN	MOD	2	idtext0015	grand	##f#s##	spk2	30.01	30.34	0.01	_
20091112_RATP_SCD_0378	8	2	écharpe	NULL	nc	NULL	I_GN	ROOT	0	idtext0015	écharpe	##f#s##	spk2	30.35	30.71	0.01	_
20091112_RATP_SCD_0378	8	3	que	NULL	prorel	NULL	B_NULL	OBJ	6	idtext0015	que	#####	spk2	30.72	30.8	0.01	_
20091112_RATP_SCD_0378	8	4	j'	NULL	cln	NULL	B_GN	SUJ	6	idtext0015	cln	#1##s##	spk2	30.81	30.83	0.01	_
20091112_RATP_SCD_0378	8	5	ai	NULL	v	NULL	B_GVf	AUX	6	idtext0015	avoir	P#1##s##	spk2	30.84	31.06	0.01	_
20091112_RATP_SCD_0378	8	6	couverte	NULL	vppart	NULL	I_GVf	MOD_REL	2	idtext0015	couvrir	K##f#s##	spk2	31.07	31.44	0.01	_
20091112_RATP_SCD_0378	8	7	avec	NULL	prep	NULL	B_GP	MOD	6	idtext0015	avec	#####	spk2	31.45	31.89	0.01	_
20091112_RATP_SCD_0378	8	8	je	NULL	cln	NULL	I_GP	SUJ	10	idtext0015	cln	#1##s##	spk2	31.9	32.21	0.01	_
20091112_RATP_SCD_0378	8	9	ne	NULL	clneg	NULL	B_GVfn	MOD	10	idtext0015	ne	#####	spk2	32.22	32.35	0.01	_
20091112_RATP_SCD_0378	8	10	sais	NULL	v	NULL	I_GVfn	ROOT	0	idtext0015	savoir	P#12##s##	spk2	32.36	32.53	0.01	_
20091112_RATP_SCD_0378	8	11	pas	NULL	advneg	NULL	I_GVfn	MOD	10	idtext0015	pas	#####	spk2	32.54	32.71	0.01	_
20091112_RATP_SCD_0378	8	12	son	NULL	det	NULL	B_GN	DET	13	idtext0015	son	###s##o	spk2	32.72	32.93	0.01	_
20091112_RATP_SCD_0378	8	13	nom	NULL	nc	NULL	I_GN	OBJ	10	idtext0015	nom	##m#s##	spk2	32.94	33.17	0.01	_
20091112_RATP_SCD_0378	8	14	parce+que	NULL	csu	NULL	B_NULL	MOD	6	idtext0015	parce+que	#####	spk2	33.18	33.52	0.01	_
20091112_RATP_SCD_0378	8	15	je	NULL	cln	NULL	B_GN	SUJ	17	idtext0016	cln	#1##s##	spk2	33.53	34.13	0.01	_
20091112_RATP_SCD_0378	8	16	ne	NULL	clneg	NULL	B_GVfn	MOD	17	idtext0016	ne	#####	spk2	34.14	34.25	0.01	_
20091112_RATP_SCD_0378	8	17	comprends	NULL	v	NULL	I_GVfn	OBJ	14	idtext0016	comprendre	P#12##s##	spk2	34.26	34.68	0.01	_
20091112_RATP_SCD_0378	8	18	pas	NULL	advneg	NULL	I_GVfn	MOD	17	idtext0016	pas	#####	spk2	34.69	34.83	0.01	_
20091112_RATP_SCD_0378	8	19	bien	NULL	adv	NULL	B_GADV	MOD	17	idtext0016	bien	#####	spk2	34.84	35.07	0.01	_
20091112_RATP_SCD_0378	8	20	le	NULL	det	NULL	B_GN	DET	21	idtext0016	le	##m#s##d	spk2	35.08	35.1	0.01	_
20091112_RATP_SCD_0378	8	21	français	NULL	adj	NULL	I_GN	OBJ	17	idtext0016	français	##m###	spk2	35.11	35.73	?	_

20091112_RATP_SCD_0378	9	1	ah	DISF_M	pres	NULL	NULL	NOLINK	0	idtext0017	ah	#####	spk1	35.77	36.33	0.01	_
20091112_RATP_SCD_0378	9	2	elle	NULL	cln	NULL	B_GN	SUJ	3	idtext0017	cln	#3#f#s##	spk1	36.34	36.44	0.01	_
20091112_RATP_SCD_0378	9	3	est	NULL	v	NULL	B_GVf	ROOT	0	idtext0017	être	P#3##s##	spk1	36.45	36.49	0.01	_
20091112_RATP_SCD_0378	9	4	de	NULL	prep	NULL	B_GP	ATS	3	idtext0017	de	#####	spk1	36.5	36.55	0.01	_
20091112_RATP_SCD_0378	9	5	quelle	NULL	det	NULL	I_GP	DET	6	idtext0017	quel	##f#s##	spk1	36.56	36.69	0.01	_
20091112_RATP_SCD_0378	9	6	couleur	NULL	nc	NULL	I_GP	OBJ	4	idtext0017	couleur	##f#s##	spk1	36.7	37.0	0.01	_
20091112_RATP_SCD_0378	9	7	l'	NULL	det	NULL	B_GN	DET	8	idtext0017	le	###s##d	spk1	37.01	37.06	0.01	_
20091112_RATP_SCD_0378	9	8	écharpe	NULL	nc	NULL	I_GN	SUJ	3	idtext0017	écharpe	##f#s##	spk1	37.07	38.1	?	//

20091112_RATP_SCD_0378	10	1	l'	NULL	det	NULL	B_GN	DET	2	idtext0018	le	###s##d	spk2	38.14	38.24	0.01	_
20091112_RATP_SCD_0378	10	2	écharpe	NULL	nc	NULL	I_GN	ROOT	0	idtext0018	écharpe	##f#s##	spk2	38.25	38.96	0.01	_
20091112_RATP_SCD_0378	10	3	euh	DISF_M	pres	NULL	NULL	NOLINK	0	idtext0018	euh	#####	spk2	38.97	40.09	0.01	_
20091112_RATP_SCD_0378	10	4	euh	DISF_M	pres	NULL	NULL	NOLINK	0	idtext0019	euh	#####	spk2	40.1	41.12	0.01	_
20091112_RATP_SCD_0378	10	5	en	NULL	prep	NULL	B_GP	P_OBJ	2	idtext0020	en	#####	spk2	41.13	41.25	0.01	_
20091112_RATP_SCD_0378	10	6	couleur	NULL	nc	NULL	I_GP	OBJ	5	idtext0020	couleur	##f#s##	spk2	41.26	41.54	0.01	_
20091112_RATP_SCD_0378	10	7	il	NULL	cln	NULL	B_GN	SUJ_IMP	9	idtext0020	cln	#3#m#s##	spk2	41.55	41.61	0.01	_
20091112_RATP_SCD_0378	10	8	y	NULL	clo	NULL	B_GN	AFF	9	idtext0020	y	#####	spk2	41.62	41.71	0.01	_
20091112_RATP_SCD_0378	10	9	a	NULL	v	NULL	B_GVf	ROOT	0	idtext0020	avoir	P#3##s##	spk2	41.72	41.85	0.01	_
20091112_RATP_SCD_0378	10	10	c'	NULL	cln	NULL	I_GP	SUJ_IMP	11	idtext0020	ce	###s##	spk2	41.86	41.98	0.01	_
20091112_RATP_SCD_0378	10	11	est	NULL	v	NULL	B_GVf	ROOT	0	idtext0020	être	P#3##s##	spk2	41.99	42.19	0.01	_
20091112_RATP_SCD_0378	10	12	elle	NULL	cln	NULL	B_GN	SUJ	13	idtext0020	cln	#3#f#s##	spk2	42.2	42.57	0.01	_
20091112_RATP_SCD_0378	10	13	est	NULL	v	NULL	B_GVf	ROOT	0	idtext0020	être	P#3##s##	spk2	42.58	42.67	0.01	_
20091112_RATP_SCD_0378	10	14	noire	NULL	adj	NULL	B_GADJ	ATS	13	idtext0020	noir	##f#s##	spk2	42.68	43.12	0.01	//
20091112_RATP_SCD_0378	10	15	mais	NULL	coo	NULL	B_NULL	COORD	9	idtext0020	mais	#####	spk2	43.13	43.38	0.01	_
20091112_RATP_SCD_0378	10	16	il	NULL	cln	NULL	B_GN	SUJ_IMP	18	idtext0020	cln	#3#m#s##	spk2	43.39	43.54	0.01	_
20091112_RATP_SCD_0378	10	17	y	NULL	clo	NULL	B_GN	AFF	18	idtext0020	y	#####	spk2	43.55	43.62	0.01	_
20091112_RATP_SCD_0378	10	18	a	NULL	v	NULL	B_GVf	DEP_COORD	15	idtext0020	avoir	P#3##s##	spk2	43.63	43.71	0.01	_
20091112_RATP_SCD_0378	10	19	des	NULL	det	NULL	B_NULL	NOLINK	0	idtext0020	des	###p##i	spk2	43.72	44.62	?	_

20091112_RATP_SCD_0378	11	1	noire	NULL	adj	NULL	B_GADJ	NOLINK	0	idtext0021	noir	##f#s##	spk1	38.15	44.62	?	_

20091112_RATP_SCD_0378	12	1	il	NULL	cln	NULL	B_GN	SUJ_IMP	3	idtext0022	cln	#3#m#s##	spk2	44.67	44.74	0.01	_
20091112_RATP_SCD_0378	12	2	y	NULL	clo	NULL	B_GN	AFF	3	idtext0022	y	#####	spk2	44.75	44.77	0.01	_
20091112_RATP_SCD_0378	12	3	a	NULL	v	NULL	B_GVf	ROOT	0	idtext0022	avoir	P#3##s##	spk2	44.78	44.83	0.01	_
20091112_RATP_SCD_0378	12	4	du	NULL	det	NULL	I_GP	DET	5	idtext0022	du	##m#s##i	spk2	44.84	44.95	0.01	_
20091112_RATP_SCD_0378	12	5	jaune	NULL	adj	NULL	I_GP	OBJ	3	idtext0022	jaune	###s##	spk2	44.96	45.32	0.01	/
20091112_RATP_SCD_0378	12	6	qui	NULL	prorel	NULL	B_NULL	NOLINK	0	idtext0022	qui	#####	spk2	45.33	45.52	0.01	_
20091112_RATP_SCD_0378	12	7	on	NULL	cln	NULL	B_GN	SUJ	9	idtext0022	cln	#3##s##	spk2	45.53	45.73	0.01	_
20091112_RATP_SCD_0378	12	8	a	NULL	v	NULL	B_GVf	AUX	9	idtext0022	avoir	P#3##s##	spk2	45.74	45.8	0.01	_
20091112_RATP_SCD_0378	12	9	fait	NULL	vppart	NULL	I_GVf	ROOT	0	idtext0022	faire	P#3##s##	spk2	45.81	45.97	0.01	_
20091112_RATP_SCD_0378	12	10	des	NULL	det	NULL	B_GN	DET	11	idtext0022	des	###p##i	spk2	45.98	46.15	0.01	_
20091112_RATP_SCD_0378	12	11	zig-zag	NULL	nc	NULL	I_GN	OBJ	9	idtext0022	zig-zag	#####	spk2	46.16	46.75	0.01	_
20091112_RATP_SCD_0378	12	12	avec	NULL	prep	NULL	B_NULL	NOLINK	0	idtext0022	avec	#####	spk2	46.76	47.18	?	_

20091112_RATP_SCD_0378	13	1	d'accord	NULL	adv	NULL	B_GADV	NOLINK	0	idtext0023	d'accord	#####	spk1	47.3	48.28	0.01	_
20091112_RATP_SCD_0378	13	2	une	DISF_R	det	NULL	NULL	NOLINK	0	idtext0023	un	##f#s##i	spk1	48.29	48.53	0.01	_
20091112_RATP_SCD_0378	13	3	une	NULL	det	NULL	B_GN	DET	4	idtext0023	un	##f#s##i	spk1	48.54	48.63	0.01	_
20091112_RATP_SCD_0378	13	4	écharpe	NULL	nc	NULL	I_GN	ROOT	0	idtext0023	écharpe	##f#s##	spk1	48.64	49.01	0.01	_
20091112_RATP_SCD_0378	13	5	de	NULL	prep	NULL	B_GP	DEP	4	idtext0023	de	#####	spk1	49.02	49.04	0.01	_
20091112_RATP_SCD_0378	13	6	couleur	NULL	nc	NULL	I_GP	OBJ	5	idtext0023	couleur	##f#s##	spk1	49.05	49.34	0.01	_
20091112_RATP_SCD_0378	13	7	jaune	NULL	adj	NULL	I_GP	MOD	6	idtext0023	jaune	###s##	spk1	49.35	50.07	0.01	_
20091112_RATP_SCD_0378	13	8	avec	NULL	prep	NULL	B_GP	P_OBJ	6	idtext0023	avec	#####	spk1	50.08	50.3	0.01	_
20091112_RATP_SCD_0378	13	9	des	NULL	det	NULL	I_GP	DET	13	idtext0023	des	###p##i	spk1	50.31	50.44	0.01	_
20091112_RATP_SCD_0378	13	10	petits	DISF_R	adj	NULL	NULL	NOLINK	0	idtext0023	petit	##m#p##	spk1	50.45	50.84	0.01	_
20091112_RATP_SCD_0378	13	11	euh	DISF_M	pres	NULL	NULL	NOLINK	0	idtext0023	euh	#####	spk1	50.85	51.78	0.01	_
20091112_RATP_SCD_0378	13	12	petites	NULL	adj	NULL	I_GP	MOD	13	idtext0023	petit	##f#p##	spk1	51.79	51.93	0.01	_
20091112_RATP_SCD_0378	13	13	décorations	NULL	nc	NULL	I_GP	OBJ	8	idtext0023	décoration	##f#p##	spk1	51.94	52.5	0.01	_
20091112_RATP_SCD_0378	13	14	jaunes	NULL	adj	NULL	I_GP	MOD	13	idtext0023	jaune	###p##	spk1	52.51	52.74	0.01	_
20091112_RATP_SCD_0378	13	15	dessus	NULL	adv	NULL	B_GADV	NOLINK	0	idtext0023	dessus	#####	spk1	52.75	53.31	?	_

20091112_RATP_SCD_0378	14	1	voilà	DISF_M	pres	NULL	NULL	NOLINK	0	idtext0024	voilà	#####	spk2	53.35	53.99	0.01	_
20091112_RATP_SCD_0378	14	2	voilà	DISF_M	pres	NULL	NULL	NOLINK	0	idtext0024	voilà	#####	spk2	54.0	54.6	0.01	_
20091112_RATP_SCD_0378	14	3	des	NULL	det	NULL	B_GN	DET	4	idtext0024	des	###p##i	spk2	54.61	54.79	0.01	_
20091112_RATP_SCD_0378	14	4	croix	NULL	nc	NULL	I_GN	ROOT	0	idtext0024	croix	##f###	spk2	54.8	55.2	0.01	_
20091112_RATP_SCD_0378	14	5	jaunes	NULL	adj	NULL	I_GN	MOD	4	idtext0024	jaune	###p##	spk2	55.21	55.69	0.01	_
20091112_RATP_SCD_0378	14	6	dessus	NULL	adv	NULL	B_GADV	NOLINK	0	idtext0024	dessus	#####	spk2	55.7	56.38	?	_

20091112_RATP_SCD_0378	15	1	brodées	NULL	vppart	NULL	B_GVf	ROOT	0	idtext0025	broder	K##f#p##	spk1	53.35	54.58	0.01	_
20091112_RATP_SCD_0378	15	2	dessus	NULL	adv	NULL	B_GADV	MOD	1	idtext0025	dessus	#####	spk1	54.59	56.17	0.01	_
20091112_RATP_SCD_0378	15	3	quoi	DISF_M	pres	NULL	NULL	NOLINK	0	idtext0025	quoi	#####	spk1	56.18	56.38	?	_

20091112_RATP_SCD_0378	16	1	d'accord	NULL	adv	NULL	B_GADV	NOLINK	0	idtext0026	d'accord	#####	spk1	56.42	56.93	0.01	_
20091112_RATP_SCD_0378	16	2	sur	NULL	prep	NULL	B_GP	ROOT	0	idtext0026	sur	#####	spk1	56.94	57.05	0.01	_
20091112_RATP_SCD_0378	16	3	le	NULL	det	NULL	I_GP	DET	4	idtext0026	le	##m#s##d	spk1	57.06	57.17	0.01	_
20091112_RATP_SCD_0378	16	4	bus	NULL	nc	B_T	I_GP	OBJ	2	idtext0026	bus	##m###	spk1	57.18	57.38	0.01	_
20091112_RATP_SCD_0378	16	5	cent	NULL	adj	I_T	I_GP	MOD	4	idtext0026	cent	#####	spk1	57.39	57.51	0.01	_
20091112_RATP_SCD_0378	16	6	quarante	NULL	adj	I_T	I_GP	MOD	5	idtext0026	quarante	#####	spk1	57.52	57.97	0.01	_
20091112_RATP_SCD_0378	16	7	hein	DISF_M	pres	I_T	NULL	NOLINK	0	idtext0026	hein	#####	spk1	57.98	58.72	?	//

20091112_RATP_SCD_0378	17	1	oui	NULL	adv	NULL	B_GADV	NOLINK	0	idtext0027	oui	#####	spk2	58.76	59.08	?	//

20091112_RATP_SCD_0378	18	1	et	NULL	coo	NULL	B_NULL	ROOT	0	idtext0028	et	#####	spk1	59.12	59.14	0.01	_
20091112_RATP_SCD_0378	18	2	c'	NULL	cln	NULL	B_GN	SUJ_IMP	3	idtext0028	ce	###s##	spk1	59.15	59.22	0.01	_
20091112_RATP_SCD_0378	18	3	était	NULL	v	NULL	B_GVf	DEP_COORD	1	idtext0028	être	I#3##s##	spk1	59.23	59.49	0.01	_
20091112_RATP_SCD_0378	18	4	hier	NULL	adv	NULL	B_GADV	MOD	3	idtext0028	hier	#####	spk1	59.5	59.65	0.01	_
20091112_RATP_SCD_0378	18	5	dans	NULL	prep	NULL	B_GP	P_OBJ	3	idtext0028	dans	#####	spk1	59.66	59.77	0.01	_
20091112_RATP_SCD_0378	18	6	la	NULL	det	NULL	I_GP	DET	7	idtext0028	le	##m#s##d	spk1	59.78	59.86	0.01	_
20091112_RATP_SCD_0378	18	7	soirée	NULL	nc	NULL	I_GP	OBJ	5	idtext0028	soirée	##f#s##	spk1	59.87	60.69	?	//

20091112_RATP_SCD_0378	19	1	oui	NULL	adv	NULL	B_GADV	MOD	2	idtext0029	oui	#####	spk2	60.73	61.01	0.01	_
20091112_RATP_SCD_0378	19	2	hier	NULL	adv	NULL	I_GADV	ROOT	0	idtext0029	hier	#####	spk2	61.02	61.37	0.01	_
20091112_RATP_SCD_0378	19	3	soir	NULL	nc	NULL	B_GN	ROOT	0	idtext0029	soir	##m#s##	spk2	61.38	61.93	0.01	_
20091112_RATP_SCD_0378	19	4	entre	NULL	prep	NULL	B_GP	MOD	3	idtext0029	entre	#####	spk2	61.94	62.47	0.01	_
20091112_RATP_SCD_0378	19	5	dix-huit	NULL	det	B_H	I_GP	DET	6	idtext0029	dix-huit	#####	spk2	62.48	63.01	0.01	_
20091112_RATP_SCD_0378	19	6	heures	NULL	nc	I_H	I_GP	OBJ	4	idtext0029	heure	##f#p##	spk2	63.02	63.21	0.01	_
20091112_RATP_SCD_0378	19	7	dix-neuf	NULL	det	B_H	I_GP	DET	8	idtext0029	dix-neuf	#####	spk2	63.22	63.74	0.01	_
20091112_RATP_SCD_0378	19	8	heures	NULL	nc	I_H	I_GP	MOD	6	idtext0029	heure	##f#p##	spk2	63.75	63.97	?	//

20091112_RATP_SCD_0378	20	1	d'accord	NULL	adv	NULL	B_GADV	MOD	2	idtext0030	d'accord	#####	spk1	64.01	64.3	0.01	_
20091112_RATP_SCD_0378	20	2	très+bien	NULL	adv	NULL	I_GADV	ROOT	0	idtext0030	très+bien	#####	spk1	64.31	64.8	0.01	_
20091112_RATP_SCD_0378	20	3	je	NULL	cln	NULL	B_GN	SUJ	4	idtext0030	cln	#1##s##	spk1	64.81	64.96	0.01	_
20091112_RATP_SCD_0378	20	4	vais	NULL	v	NULL	B_GVf	ROOT	0	idtext0030	aller	P#1##s##	spk1	64.97	65.02	0.01	_
20091112_RATP_SCD_0378	20	5	faire	NULL	vinf	NULL	I_GVf	OBJ	4	idtext0030	faire	W#####	spk1	65.03	65.17	0.01	_
20091112_RATP_SCD_0378	20	6	une	NULL	det	NULL	B_GN	DET	7	idtext0030	un	##f#s##i	spk1	65.18	65.26	0.01	_
20091112_RATP_SCD_0378	20	7	vérification	NULL	nc	NULL	I_GN	OBJ	5	idtext0030	vérification	##f#s##	spk1	65.27	65.9	0.01	_
20091112_RATP_SCD_0378	20	8	hein	DISF_M	pres	NULL	NULL	NOLINK	0	idtext0030	hein	#####	spk1	65.91	65.95	0.01	_
20091112_RATP_SCD_0378	20	9	madame	NULL	nc	NULL	I_GN	NOLINK	0	idtext0030	Monsieur	##f#s##	spk1	65.96	66.25	0.01	_
20091112_RATP_SCD_0378	20	10	hein	DISF_M	pres	NULL	NULL	NOLINK	0	idtext0030	hein	#####	spk1	66.26	66.71	?	//

20091112_RATP_SCD_0378	21	1	d'accord	NULL	adv	NULL	B_GADV	NOLINK	0	idtext0031	d'accord	#####	spk2	66.75	68.63	?	//

20091112_RATP_SCD_0378	22	1	vous	NULL	cln	NULL	B_GN	SUJ	2	idtext0032	cln	#2##p##	spk1	66.75	66.8	0.01	_
20091112_RATP_SCD_0378	22	2	restez	NULL	v	NULL	B_GVf	ROOT	0	idtext0032	rester	P#2##p##	spk1	66.81	67.02	0.01	_
20091112_RATP_SCD_0378	22	3	en	NULL	prep	NULL	B_GP	P_OBJ_LOC	2	idtext0032	en	#####	spk1	67.03	67.11	0.01	_
20091112_RATP_SCD_0378	22	4	ligne	NULL	nc	NULL	I_GP	OBJ	3	idtext0032	ligne	##f#s##	spk1	67.12	67.28	0.01	_
20091112_RATP_SCD_0378	22	5	s'il+vous+plaît	NULL	adv	NULL	B_GADV	MOD	6	idtext0032	s'il+vous+plaît	#####	spk1	67.29	67.71	0.01	_
20091112_RATP_SCD_0378	22	6	merci	NULL	adv	NULL	I_GADV	ROOT	0	idtext0032	merci	#####	spk1	67.72	68.63	?	//

20091112_RATP_SCD_0378	23	1	d'accord	NULL	adv	NULL	B_GADV	NOLINK	0	idtext0033	d'accord	#####	spk2	68.67	69.63	?	//

20091112_RATP_SCD_0378	24	1	madame	NULL	nc	NULL	B_GN	NOLINK	0	idtext0034	Monsieur	##f#s##	spk1	162.53	162.71	0.01	_
20091112_RATP_SCD_0378	24	2	s'il+vous+plaît	NULL	adv	NULL	B_GADV	NOLINK	0	idtext0034	s'il+vous+plaît	#####	spk1	162.72	164.14	?	//

20091112_RATP_SCD_0378	25	1	bah	DISF_M	pres	NULL	NULL	NOLINK	0	idtext0035	bah	#####	spk2	164.27	164.39	0.01	_
20091112_RATP_SCD_0378	25	2	oui	NULL	adv	NULL	B_GADV	NOLINK	0	idtext0035	oui	#####	spk2	164.4	164.63	?	_

20091112_RATP_SCD_0378	26	1	oui	NULL	adv	NULL	B_GADV	MOD	2	idtext0036	oui	#####	spk1	164.67	164.81	0.01	_
20091112_RATP_SCD_0378	26	2	merci	NULL	adv	NULL	I_GADV	ROOT	0	idtext0036	merci	#####	spk1	164.82	165.1	0.01	_
20091112_RATP_SCD_0378	26	3	d'	NULL	prep	NULL	B_GP	MOD	8	idtext0036	d'	#####	spk1	165.11	165.15	0.01	_
20091112_RATP_SCD_0378	26	4	avoir	NULL	vinf	NULL	I_GP	AUX	5	idtext0036	avoir	W#####	spk1	165.16	165.35	0.01	_
20091112_RATP_SCD_0378	26	5	patienté	NULL	vppart	NULL	I_GP	OBJ	3	idtext0036	patienter	K##m#s##	spk1	165.36	166.12	0.01	_
20091112_RATP_SCD_0378	26	6	je	NULL	cln	NULL	B_GN	SUJ	8	idtext0036	cln	#1##s##	spk1	166.13	166.22	0.01	_
20091112_RATP_SCD_0378	26	7	n'	NULL	clneg	NULL	B_GVfn	MOD	8	idtext0036	n'	#####	spk1	166.23	166.25	0.01	_
20091112_RATP_SCD_0378	26	8	ai	NULL	v	NULL	I_GVfn	COORD	2	idtext0036	avoir	P#1##s##	spk1	166.26	166.33	0.01	_
20091112_RATP_SCD_0378	26	9	aucune	NULL	det	NULL	B_GN	DET	10	idtext0036	aucun	##f#s##i	spk1	166.34	166.62	0.01	_
20091112_RATP_SCD_0378	26	10	écharpe	NULL	nc	NULL	I_GN	OBJ	8	idtext0036	écharpe	##f#s##	spk1	166.63	167.01	0.01	_
20091112_RATP_SCD_0378	26	11	sur	NULL	prep	NULL	B_GP	P_OBJ	10	idtext0036	sur	#####	spk1	167.02	167.13	0.01	_
20091112_RATP_SCD_0378	26	12	le	NULL	det	NULL	I_GP	DET	13	idtext0036	le	##m#s##d	spk1	167.14	167.23	0.01	_
20091112_RATP_SCD_0378	26	13	bus	NULL	nc	B_T	I_GP	OBJ	11	idtext0036	bus	##m###	spk1	167.24	167.37	0.01	_
20091112_RATP_SCD_0378	26	14	cent	NULL	adj	I_T	I_GP	MOD	13	idtext0036	cent	#####	spk1	167.38	167.59	0.01	_
20091112_RATP_SCD_0378	26	15	quarante	NULL	adj	I_T	I_GP	MOD	14	idtext0036	quarante	#####	spk1	167.6	168.05	0.01	_
20091112_RATP_SCD_0378	26	16	hein	DISF_M	pres	I_T	NULL	NOLINK	0	idtext0036	hein	#####	spk1	168.06	168.15	0.01	_
20091112_RATP_SCD_0378	26	17	de	DISF_R	prep	I_T	NULL	NOLINK	0	idtext0036	de	#####	spk1	168.16	168.18	0.01	_
20091112_RATP_SCD_0378	26	18	de	NULL	prep	NULL	B_GP	DEP	13	idtext0036	de	#####	spk1	168.19	168.31	0.01	_
20091112_RATP_SCD_0378	26	19	retrouvé	NULL	vppart	NULL	I_GP	OBJ	18	idtext0036	retrouver	K##m#s##	spk1	168.32	169.13	0.01	_
20091112_RATP_SCD_0378	26	20	hein	DISF_M	pres	NULL	NULL	NOLINK	0	idtext0036	hein	#####	spk1	169.14	169.29	0.01	_
20091112_RATP_SCD_0378	26	21	hier	NULL	adv	NULL	B_GADV	MOD	19	idtext0036	hier	#####	spk1	169.3	169.59	0.01	_
20091112_RATP_SCD_0378	26	22	soir	NULL	nc	NULL	B_GN	MOD	19	idtext0036	soir	##m#s##	spk1	169.6	169.89	0.01	/
20091112_RATP_SCD_0378	26	23	et	NULL	coo	NULL	B_NULL	COORD	19	idtext0036	et	#####	spk1	169.9	170.2	0.01	_
20091112_RATP_SCD_0378	26	24	j'	NULL	cln	NULL	B_GN	SUJ	26	idtext0036	cln	#1##s##	spk1	170.21	170.31	0.01	_
20091112_RATP_SCD_0378	26	25	ai	NULL	v	NULL	B_GVf	AUX	26	idtext0036	avoir	P#1##s##	spk1	170.32	170.34	0.01	_
20091112_RATP_SCD_0378	26	26	regardé	NULL	vppart	NULL	I_GVf	DEP_COORD	23	idtext0036	regarder	K##m#s##	spk1	170.35	170.68	0.01	_
20091112_RATP_SCD_0378	26	27	ce	NULL	det	NULL	B_GN	DET	28	idtext0036	ce	##m#s##e	spk1	170.69	171.52	0.01	_
20091112_RATP_SCD_0378	26	28	matin	NULL	nc	NULL	I_GN	MOD	26	idtext0036	matin	##m#s##	spk1	171.53	171.87	0.01	_
20091112_RATP_SCD_0378	26	29	également	NULL	adv	NULL	B_GADV	MOD	26	idtext0036	également	#####	spk1	171.88	172.26	0.01	_
20091112_RATP_SCD_0378	26	30	au+niveau+du	NULL	prep	NULL	B_GP	MOD	34	idtext0036	au+niveau+du	#####	spk1	172.27	172.68	0.01	_
20091112_RATP_SCD_0378	26	31	dépôt	NULL	nc	NULL	I_GP	OBJ	30	idtext0036	dépôt	##m#s##	spk1	172.69	173.12	0.01	_
20091112_RATP_SCD_0378	26	32	ils	NULL	cln	NULL	B_GN	SUJ	34	idtext0036	cln	#3#m#p##	spk1	173.13	173.19	0.01	_
20091112_RATP_SCD_0378	26	33	n'	NULL	clneg	NULL	B_GVfn	MOD	34	idtext0036	n'	#####	spk1	173.2	173.25	0.01	_
20091112_RATP_SCD_0378	26	34	ont	NULL	v	NULL	I_GVfn	ROOT	0	idtext0036	avoir	P#3##p##	spk1	173.26	173.37	0.01	_
20091112_RATP_SCD_0378	26	35	rien	NULL	pro	NULL	B_GN	OBJ	34	idtext0036	rien	#####	spk1	173.38	173.71	?	_

20091112_RATP_SCD_0378	27	1	il	NULL	cln	NULL	B_GN	SUJ_IMP	4	idtext0037	cln	#3#m#s##	spk2	174.63	174.84	0.01	_
20091112_RATP_SCD_0378	27	2	n'	NULL	clneg	NULL	B_NULL	NOLINK	0	idtext0037	n'	#####	spk2	174.85	174.87	0.01	_
20091112_RATP_SCD_0378	27	3	y	NULL	clo	NULL	B_GN	AFF	4	idtext0037	y	#####	spk2	174.88	175.03	0.01	_
20091112_RATP_SCD_0378	27	4	a	NULL	v	NULL	B_GVf	ROOT	0	idtext0037	avoir	P#3##s##	spk2	175.04	175.06	0.01	_
20091112_RATP_SCD_0378	27	5	rien	NULL	pro	NULL	B_GN	OBJ	4	idtext0037	rien	#####	spk2	175.07	175.3	?	_

20091112_RATP_SCD_0378	28	1	pas	NULL	advneg	NULL	B_NULL	NOLINK	0	idtext0038	pas	#####	spk1	175.34	175.39	0.01	/
20091112_RATP_SCD_0378	28	2	d'	NULL	det	NULL	B_GN	DET	3	idtext0038	de	###p##i	spk1	175.4	175.48	0.01	_
20091112_RATP_SCD_0378	28	3	écharpe	NULL	nc	NULL	I_GN	OBJ	1	idtext0038	écharpe	##f#s##	spk1	175.49	175.83	0.01	_
20091112_RATP_SCD_0378	28	4	non	NULL	adv	NULL	B_GADV	NOLINK	0	idtext0038	non	#####	spk1	175.84	176.11	0.01	_
20091112_RATP_SCD_0378	28	5	malheureusement	NULL	adv	NULL	I_GADV	ROOT	0	idtext0038	malheureusement	#####	spk1	176.12	177.39	?	_

20091112_RATP_SCD_0378	29	1	ah	DISF_M	pres	NULL	NULL	NOLINK	0	idtext0039	ah	#####	spk2	177.43	177.53	0.01	_
20091112_RATP_SCD_0378	29	2	d'accord	NULL	adv	NULL	B_GADV	NOLINK	0	idtext0039	d'accord	#####	spk2	177.54	178.5	0.01	_
20091112_RATP_SCD_0378	29	3	et	NULL	coo	NULL	B_NULL	ROOT	0	idtext0039	et	#####	spk2	178.51	178.82	0.01	_
20091112_RATP_SCD_0378	29	4	bus	NULL	nc	NULL	B_GN	SUJ	9	idtext0039	bus	##m###	spk2	178.83	179.05	0.01	_
20091112_RATP_SCD_0378	29	5	euh	DISF_M	pres	NULL	NULL	NOLINK	0	idtext0039	euh	#####	spk2	179.06	179.08	0.01	_
20091112_RATP_SCD_0378	29	6	cinquante	NULL	nc	NULL	I_GN	MOD	4	idtext0039	cinquante	##m###	spk2	179.09	181.89	0.01	//
20091112_RATP_SCD_0378	29	7	euh	DISF_M	pres	NULL	NULL	NOLINK	0	idtext0039	euh	#####	spk2	181.9	182.19	0.01	_
20091112_RATP_SCD_0378	29	8	c'	NULL	cln	NULL	B_GN	SUJ_IMP	9	idtext0039	ce	###s##	spk2	182.2	182.29	0.01	_
20091112_RATP_SCD_0378	29	9	est	NULL	v	NULL	B_GVfn	ROOT	0	idtext0039	être	P#3##s##	spk2	182.3	182.38	0.01	_
20091112_RATP_SCD_0378	29	10	pas	NULL	advneg	NULL	I_GVfn	MOD	9	idtext0039	pas	#####	spk2	182.39	182.56	0.01	_
20091112_RATP_SCD_0378	29	11	vous	NULL	pro	NULL	B_GN	ATS	9	idtext0039	vous	#####	spk2	182.57	182.8	0.01	_
20091112_RATP_SCD_0378	29	12	qui	NULL	prorel	NULL	B_NULL	DEP_COORD	3	idtext0039	qui	#####	spk2	182.81	183.02	0.01	_
20091112_RATP_SCD_0378	29	13	occuper	NULL	vinf	NULL	B_GVi	OBJ	12	idtext0039	occuper	W#####	spk2	183.03	183.36	0.01	_
20091112_RATP_SCD_0378	29	14	non	NULL	adv	NULL	B_GADV	NOLINK	0	idtext0039	non	#####	spk2	183.37	183.44	?	_

20091112_RATP_SCD_0378	30	1	bah	DISF_M	pres	NULL	NULL	NOLINK	0	idtext0040	bah	#####	spk1	183.51	183.56	0.01	_
20091112_RATP_SCD_0378	30	2	je	DISF_R	cln	NULL	NULL	NOLINK	0	idtext0040	cln	#1##s##	spk1	183.57	183.76	0.01	_
20091112_RATP_SCD_0378	30	3	je	NULL	cln	NULL	B_GN	SUJ	4	idtext0040	cln	#1##s##	spk1	183.77	183.94	0.01	_
20091112_RATP_SCD_0378	30	4	peux	NULL	v	NULL	B_GVf	ROOT	0	idtext0040	pouvoir	P#12##s##	spk1	183.95	184.08	0.01	_
20091112_RATP_SCD_0378	30	5	vérifier	NULL	vinf	NULL	I_GVf	OBJ	4	idtext0040	vérifier	W#####	spk1	184.09	184.89	0.01	_
20091112_RATP_SCD_0378	30	6	bus	DISF_R	nc	NULL	NULL	NOLINK	0	idtext0040	bus	##m###	spk1	184.9	185.11	0.01	_
20091112_RATP_SCD_0378	30	7	bus	NULL	nc	NULL	B_GN	OBJ	4	idtext0040	bus	##m###	spk1	185.12	185.27	0.01	_
20091112_RATP_SCD_0378	30	8	numéro	NULL	nc	NULL	I_GN	MOD	7	idtext0040	numéro	##m#s##	spk1	185.28	185.71	0.01	_
20091112_RATP_SCD_0378	30	9	combien	NULL	adv	NULL	B_GADV	MOD	7	idtext0040	combien	#####	spk1	185.72	186.59	?	//

20091112_RATP_SCD_0378	31	1	cinq	NULL	nc	NULL	B_GN	ROOT	0	idtext0041	cinq	##m###	spk2	186.63	187.24	0.01	_
20091112_RATP_SCD_0378	31	2	euh	DISF_M	pres	NULL	NULL	NOLINK	0	idtext0041	euh	#####	spk2	187.25	187.4	0.01	_
20091112_RATP_SCD_0378	31	3	cinquante	NULL	nc	NULL	I_GN	MOD	1	idtext0041	cinquante	##m###	spk2	187.41	187.94	0.01	_
20091112_RATP_SCD_0378	31	4	quatre	NULL	nc	NULL	B_GN	NOLINK	0	idtext0041	quatre	##m###	spk2	187.95	188.44	?	//

20091112_RATP_SCD_0378	32	1	cinquante-quatre	NULL	nc	B_T	B_GN	NOLINK	0	idtext0042	cinquante-quatre	#####	spk1	188.48	189.49	?	//

20091112_RATP_SCD_0378	33	1	oui	NULL	adv	NULL	B_GADV	NOLINK	0	idtext0043	oui	#####	spk2	189.56	189.88	0.01	_
20091112_RATP_SCD_0378	33	2	par	NULL	prep	NULL	B_NULL	NOLINK	0	idtext0043	par	#####	spk2	189.89	190.52	?	_

20091112_RATP_SCD_0378	34	1	je	NULL	cln	NULL	B_GN	SUJ	2	idtext0044	cln	#1##s##	spk1	190.56	190.66	0.01	_
20091112_RATP_SCD_0378	34	2	vais	NULL	v	NULL	B_GVf	ROOT	0	idtext0044	aller	P#1##s##	spk1	190.67	190.74	0.01	_
20091112_RATP_SCD_0378	34	3	regarder	NULL	vinf	NULL	I_GVf	OBJ	2	idtext0044	regarder	W#####	spk1	190.75	191.13	0.01	_
20091112_RATP_SCD_0378	34	4	également	NULL	adv	NULL	B_GADV	NOLINK	0	idtext0044	également	#####	spk1	191.14	191.77	?	//

20091112_RATP_SCD_0378	35	1	d'accord	NULL	adv	NULL	B_GADV	NOLINK	0	idtext0045	d'accord	#####	spk2	192.03	192.7	?	//

20091112_RATP_SCD_0378	36	1	alors	NULL	adv	NULL	B_GADV	NOLINK	0	idtext0046	alors	#####	spk1	192.79	192.98	0.01	//
20091112_RATP_SCD_0378	36	2	le	NULL	det	NULL	B_GN	DET	3	idtext0046	le	##m#s##d	spk1	192.99	193.14	0.01	_
20091112_RATP_SCD_0378	36	3	cinquante-quatre	NULL	nc	B_T	I_GN	ROOT	0	idtext0046	cinquante-quatre	#####	spk1	193.15	200.44	0.05	_
20091112_RATP_SCD_0378	36	4	non	NULL	adv	NULL	B_GADV	NOLINK	0	idtext0047	non	#####	spk1	200.49	200.71	0.01	_
20091112_RATP_SCD_0378	36	5	je	NULL	cln	NULL	B_GN	SUJ	7	idtext0047	cln	#1##s##	spk1	200.72	200.82	0.01	_
20091112_RATP_SCD_0378	36	6	n'	NULL	clneg	NULL	B_GVfn	MOD	7	idtext0047	n'	#####	spk1	200.83	200.85	0.01	_
20091112_RATP_SCD_0378	36	7	ai	NULL	v	NULL	I_GVfn	ROOT	0	idtext0047	avoir	P#1##s##	spk1	200.86	200.89	0.01	_
20091112_RATP_SCD_0378	36	8	rien	NULL	pro	NULL	B_GN	OBJ	7	idtext0047	rien	#####	spk1	200.9	201.07	0.01	_
20091112_RATP_SCD_0378	36	9	non+plus	NULL	adv	NULL	B_GADV	MOD	8	idtext0047	non+plus	#####	spk1	201.08	201.39	0.01	_
20091112_RATP_SCD_0378	36	10	madame	NULL	nc	NULL	B_GN	NOLINK	0	idtext0047	Monsieur	##f#s##	spk1	201.4	201.72	0.01	_
20091112_RATP_SCD_0378	36	11	hein	DISF_M	pres	NULL	NULL	NOLINK	0	idtext0047	hein	#####	spk1	201.73	201.88	0.01	_
20091112_RATP_SCD_0378	36	12	sur	NULL	prep	NULL	B_GP	ROOT	0	idtext0047	sur	#####	spk1	201.89	201.98	0.01	_
20091112_RATP_SCD_0378	36	13	le	NULL	det	NULL	I_GP	DET	14	idtext0047	le	##m#s##d	spk1	201.99	202.01	0.01	_
20091112_RATP_SCD_0378	36	14	cinquante-quatre	NULL	nc	B_T	I_GP	OBJ	12	idtext0047	cinquante-quatre	#####	spk1	202.02	202.64	?	//

20091112_RATP_SCD_0378	37	1	ah	DISF_M	pres	NULL	NULL	NOLINK	0	idtext0048	ah	#####	spk2	203.42	203.44	0.01	_
20091112_RATP_SCD_0378	37	2	d'accord	NULL	adv	NULL	B_GADV	NOLINK	0	idtext0048	d'accord	#####	spk2	203.45	203.91	?	_

20091112_RATP_SCD_0378	38	1	malheureusement	NULL	adv	NULL	B_GADV	MOD	2	idtext0049	malheureusement	#####	spk1	203.95	204.61	0.01	_
20091112_RATP_SCD_0378	38	2	non	NULL	adv	NULL	I_GADV	ROOT	0	idtext0049	non	#####	spk1	204.62	204.89	?	_

20091112_RATP_SCD_0378	39	1	merci	NULL	adv	NULL	B_GADV	NOLINK	0	idtext0050	merci	#####	spk2	205.5	205.92	?	//

20091112_RATP_SCD_0378	40	1	je	NULL	cln	NULL	B_GN	SUJ	3	idtext0051	cln	#1##s##	spk1	206.07	206.12	0.01	_
20091112_RATP_SCD_0378	40	2	suis	NULL	v	NULL	B_GVf	AUX	3	idtext0051	être	P#1##s##	spk1	206.13	206.21	0.01	_
20091112_RATP_SCD_0378	40	3	désolé	NULL	vppart	NULL	I_GVf	ROOT	0	idtext0051	désoler	K##m#s##	spk1	206.22	206.61	0.01	/
20091112_RATP_SCD_0378	40	4	je	NULL	cln	NULL	B_GN	SUJ	7	idtext0051	cln	#1##s##	spk1	206.62	206.68	0.01	_
20091112_RATP_SCD_0378	40	5	vous	NULL	clo	NULL	B_GN	OBJ	7	idtext0051	cln	#2##p##	spk1	206.69	206.78	0.01	_
20091112_RATP_SCD_0378	40	6	en	NULL	clo	NULL	B_GN	DE_OBJ	7	idtext0051	en	#####	spk1	206.79	206.88	0.01	_
20091112_RATP_SCD_0378	40	7	prie	NULL	v	NULL	B_GVf	ROOT	0	idtext0051	prier	PS#13##s##	spk1	206.89	207.22	0.01	_
20091112_RATP_SCD_0378	40	8	je	NULL	cln	NULL	B_GN	SUJ	11	idtext0051	cln	#1##s##	spk1	207.23	207.53	0.01	_
20091112_RATP_SCD_0378	40	9	vous	NULL	clo	NULL	B_GN	OBJ	11	idtext0051	cln	#2##p##	spk1	207.54	207.69	0.01	_
20091112_RATP_SCD_0378	40	10	en	NULL	clo	NULL	B_GN	DE_OBJ	11	idtext0051	en	#####	spk1	207.7	207.83	0.01	_
20091112_RATP_SCD_0378	40	11	prie	NULL	v	NULL	B_GVf	ROOT	0	idtext0051	prier	PS#13##s##	spk1	207.84	207.96	0.01	_
20091112_RATP_SCD_0378	40	12	au+revoir	NULL	adv	NULL	B_GADV	NOLINK	0	idtext0051	au+revoir	#####	spk1	207.97	208.16	0.01	_
20091112_RATP_SCD_0378	40	13	madame	NULL	nc	NULL	B_GN	NOLINK	0	idtext0051	Monsieur	##f#s##	spk1	208.17	208.6	0.01	_
20091112_RATP_SCD_0378	40	14	au+revoir	NULL	adv	NULL	B_GADV	NOLINK	0	idtext0051	au+revoir	#####	spk1	208.61	208.81	?	//

