20091112_RATP_SCD_0495	1	1	NNAAMMEE	NULL	np	B_HU	B_GN	ROOT	0	idtext0000	ANONYM	NULL	spk1	2.11	2.7	0.01	_
20091112_RATP_SCD_0495	1	2	va	NULL	v	NULL	B_GVf	ROOT	0	idtext0001	aller	P#3##s##	spk1	2.71	2.76	0.01	_
20091112_RATP_SCD_0495	1	3	vous	NULL	clo	NULL	B_GN	A_OBJ	4	idtext0001	cln	#2##p##	spk1	2.77	2.84	0.01	_
20091112_RATP_SCD_0495	1	4	répondre	NULL	vinf	NULL	B_GVi	OBJ	2	idtext0001	répondre	W#####	spk1	2.85	4.11	?	//

20091112_RATP_SCD_0495	2	1	NNAAMMEE	NULL	np	B_HU	B_GN	ROOT	0	idtext0002	ANONYM	NULL	spk2	6.51	7.53	0.01	_
20091112_RATP_SCD_0495	2	2	bonjour	NULL	adv	NULL	B_GADV	NOLINK	0	idtext0003	bonjour	#####	spk2	7.54	8.25	?	//

20091112_RATP_SCD_0495	3	1	bonjour	NULL	adv	NULL	B_GADV	NOLINK	0	idtext0004	bonjour	#####	spk3	8.42	8.78	0.01	_
20091112_RATP_SCD_0495	3	2	monsieur	NULL	nc	NULL	B_GN	NOLINK	0	idtext0004	Monsieur	##m#s##	spk3	8.79	9.16	?	//

20091112_RATP_SCD_0495	4	1	bonjour	NULL	adv	NULL	B_GADV	NOLINK	0	idtext0005	bonjour	#####	spk2	9.2	9.83	?	//

20091112_RATP_SCD_0495	5	1	je	NULL	cln	NULL	B_GN	SUJ	3	idtext0006	cln	#1##s##	spk3	9.87	9.9	0.01	_
20091112_RATP_SCD_0495	5	2	vous	NULL	clo	NULL	B_GN	OBJ	3	idtext0006	cln	#2##p##	spk3	9.91	9.96	0.01	_
20091112_RATP_SCD_0495	5	3	appelle	NULL	v	NULL	B_GVf	ROOT	0	idtext0006	appeler	PS#13##s##	spk3	9.97	10.08	0.01	_
20091112_RATP_SCD_0495	5	4	pour	NULL	prep	NULL	B_GP	P_OBJ	3	idtext0006	pour	#####	spk3	10.09	10.17	0.01	_
20091112_RATP_SCD_0495	5	5	un	NULL	det	NULL	I_GP	DET	6	idtext0006	un	##m#s##i	spk3	10.18	10.28	0.01	_
20091112_RATP_SCD_0495	5	6	renseignement	NULL	nc	NULL	I_GP	OBJ	4	idtext0006	renseignement	##m#s##	spk3	10.29	10.83	0.01	_
20091112_RATP_SCD_0495	5	7	s'il+vous+plaît	NULL	adv	NULL	B_GADV	MOD	3	idtext0006	s'il+vous+plaît	#####	spk3	10.84	11.23	?	//

20091112_RATP_SCD_0495	6	1	oui	NULL	adv	NULL	B_GADV	NOLINK	0	idtext0007	oui	#####	spk2	11.27	11.63	?	//

20091112_RATP_SCD_0495	7	1	euh	DISF_M	pres	NULL	NULL	NOLINK	0	idtext0008	euh	#####	spk3	11.77	11.84	0.01	_
20091112_RATP_SCD_0495	7	2	j'	NULL	cln	NULL	B_GN	SUJ	4	idtext0008	cln	#1##s##	spk3	11.85	11.97	0.01	_
20091112_RATP_SCD_0495	7	3	ai	NULL	v	NULL	B_GVf	AUX	4	idtext0008	avoir	P#1##s##	spk3	11.98	12.0	0.01	_
20091112_RATP_SCD_0495	7	4	perdu	NULL	vppart	NULL	I_GVf	ROOT	0	idtext0008	perdre	K##m#s##	spk3	12.01	12.17	0.01	_
20091112_RATP_SCD_0495	7	5	un	NULL	det	NULL	B_GN	DET	6	idtext0008	un	##m#s##i	spk3	12.18	12.27	0.01	_
20091112_RATP_SCD_0495	7	6	portefeuille	NULL	nc	NULL	I_GN	OBJ	4	idtext0008	portefeuille	##m#s##	spk3	12.28	12.65	0.01	_
20091112_RATP_SCD_0495	7	7	dans	NULL	prep	NULL	B_GP	MOD	6	idtext0008	dans	#####	spk3	12.66	12.78	0.01	_
20091112_RATP_SCD_0495	7	8	le	NULL	det	NULL	I_GP	DET	9	idtext0008	le	##m#s##d	spk3	12.79	12.81	0.01	_
20091112_RATP_SCD_0495	7	9	métro	NULL	nc	NULL	I_GP	OBJ	7	idtext0008	métro	##m#s##	spk3	12.82	13.12	0.01	//
20091112_RATP_SCD_0495	7	10	ce	NULL	det	NULL	B_GN	DET	11	idtext0008	ce	##m#s##e	spk3	13.13	13.21	0.01	_
20091112_RATP_SCD_0495	7	11	matin	NULL	nc	NULL	I_GN	MOD	9	idtext0008	matin	##m#s##	spk3	13.22	13.57	0.01	_
20091112_RATP_SCD_0495	7	12	à	NULL	prep	NULL	B_GP	MOD	11	idtext0008	à	#####	spk3	13.58	13.61	0.01	_
20091112_RATP_SCD_0495	7	13	neuf	NULL	det	B_H	I_GP	DET	14	idtext0008	neuf	#####	spk3	13.62	13.79	0.01	_
20091112_RATP_SCD_0495	7	14	heures	NULL	nc	I_H	I_GP	OBJ	12	idtext0008	heure	##f#p##	spk3	13.8	13.97	?	//

20091112_RATP_SCD_0495	8	1	oui	NULL	adv	NULL	B_GADV	NOLINK	0	idtext0009	oui	#####	spk2	14.11	14.66	?	//

20091112_RATP_SCD_0495	9	1	et	NULL	coo	NULL	B_NULL	ROOT	0	idtext0010	et	#####	spk3	14.7	14.72	0.01	_
20091112_RATP_SCD_0495	9	2	je	NULL	cln	NULL	B_GN	SUJ	3	idtext0010	cln	#1##s##	spk3	14.73	14.75	0.01	_
20091112_RATP_SCD_0495	9	3	voulais	NULL	v	NULL	B_GVf	DEP_COORD	1	idtext0010	vouloir	I#12##s##	spk3	14.76	14.87	0.01	_
20091112_RATP_SCD_0495	9	4	savoir	NULL	vinf	NULL	I_GVf	OBJ	3	idtext0010	savoir	W#####	spk3	14.88	15.11	0.01	_
20091112_RATP_SCD_0495	9	5	si	NULL	csu	NULL	B_NULL	OBJ	4	idtext0010	si	#####	spk3	15.12	15.19	0.01	_
20091112_RATP_SCD_0495	9	6	vous	NULL	cln	NULL	B_GN	SUJ	9	idtext0010	cln	#2##p##	spk3	15.2	15.25	0.01	_
20091112_RATP_SCD_0495	9	7	l'	NULL	clo	NULL	B_GN	OBJ	9	idtext0010	cla	#3##s##	spk3	15.26	15.28	0.01	_
20091112_RATP_SCD_0495	9	8	aviez	NULL	v	NULL	B_GVf	AUX	9	idtext0010	avoir	I#2##p##	spk3	15.29	15.47	0.01	_
20091112_RATP_SCD_0495	9	9	retrouvé	NULL	vppart	NULL	I_GVf	OBJ	5	idtext0010	retrouver	K##m#s##	spk3	15.48	15.89	0.01	_
20091112_RATP_SCD_0495	9	10	à	NULL	prep	NULL	B_NULL	MOD	9	idtext0010	à	#####	spk3	15.9	15.92	0.01	_
20091112_RATP_SCD_0495	9	11	tout	NULL	adv	NULL	B_GADV	MOD	9	idtext0010	tout	##m#s##	spk3	15.93	16.08	0.01	_
20091112_RATP_SCD_0495	9	12	hasard	NULL	nc	NULL	B_GN	MOD	9	idtext0010	hasard	##m#s##	spk3	16.09	16.57	0.59	//
20091112_RATP_SCD_0495	9	13	c'	NULL	cln	NULL	B_GN	SUJ_IMP	14	idtext0011	ce	###s##	spk3	17.16	17.18	0.01	_
20091112_RATP_SCD_0495	9	14	est	NULL	v	NULL	B_GVf	ROOT	0	idtext0011	être	P#3##s##	spk3	17.19	17.21	0.01	_
20091112_RATP_SCD_0495	9	15	un	NULL	det	NULL	B_GN	DET	16	idtext0011	un	##m#s##i	spk3	17.22	17.26	0.01	_
20091112_RATP_SCD_0495	9	16	portefeuille	NULL	nc	NULL	I_GN	ATS	14	idtext0011	portefeuille	##m#s##	spk3	17.27	17.72	0.01	_
20091112_RATP_SCD_0495	9	17	noir	NULL	adj	NULL	I_GN	MOD	16	idtext0011	noir	##m#s##	spk3	17.73	18.28	0.01	_
20091112_RATP_SCD_0495	9	18	avec	NULL	prep	NULL	B_GP	MOD	16	idtext0011	avec	#####	spk3	18.29	18.5	0.01	_
20091112_RATP_SCD_0495	9	19	des	NULL	det	NULL	I_GP	DET	20	idtext0011	des	###p##i	spk3	18.51	18.6	0.01	_
20091112_RATP_SCD_0495	9	20	papiers	NULL	nc	NULL	I_GP	OBJ	18	idtext0011	papier	##m#p##	spk3	18.61	18.84	0.01	_
20091112_RATP_SCD_0495	9	21	au+nom+de	NULL	prep	NULL	B_NULL	P_OBJ	20	idtext0011	au+nom+de	#####	spk3	18.85	19.5	0.01	_
20091112_RATP_SCD_0495	9	22	NNAAMMEE	NULL	np	B_HU	B_GN	ROOT	0	idtext0012	ANONYM	NULL	spk3	19.51	19.7	?	//

20091112_RATP_SCD_0495	10	1	alors	NULL	adv	NULL	B_GADV	NOLINK	0	idtext0013	alors	#####	spk2	19.93	20.15	0.01	_
20091112_RATP_SCD_0495	10	2	je	NULL	cln	NULL	B_GN	SUJ	3	idtext0013	cln	#1##s##	spk2	20.16	20.28	0.01	_
20091112_RATP_SCD_0495	10	3	vais	NULL	v	NULL	B_GVf	ROOT	0	idtext0013	aller	P#1##s##	spk2	20.29	20.38	0.01	_
20091112_RATP_SCD_0495	10	4	vérifier	NULL	vinf	NULL	I_GVf	OBJ	3	idtext0013	vérifier	W#####	spk2	20.39	21.15	1.24	_
20091112_RATP_SCD_0495	10	5	ce	NULL	det	NULL	B_GN	DET	6	idtext0014	ce	##m#s##e	spk2	22.39	22.44	0.01	_
20091112_RATP_SCD_0495	10	6	matin	NULL	nc	NULL	I_GN	ROOT	0	idtext0014	matin	##m#s##	spk2	22.45	22.72	0.01	//
20091112_RATP_SCD_0495	10	7	hein	DISF_M	pres	NULL	NULL	NOLINK	0	idtext0014	hein	#####	spk2	22.73	22.77	0.01	_
20091112_RATP_SCD_0495	10	8	NNAAMMEE	NULL	np	B_HU	B_GN	ROOT	0	idtext0015	ANONYM	NULL	spk2	22.78	24.12	?	_

20091112_RATP_SCD_0495	11	1	c'	NULL	cln	NULL	B_GN	SUJ_IMP	2	idtext0016	ce	###s##	spk2	24.18	24.21	0.01	_
20091112_RATP_SCD_0495	11	2	est	NULL	v	NULL	B_GVf	ROOT	0	idtext0016	être	P#3##s##	spk2	24.22	24.47	0.01	_
20091112_RATP_SCD_0495	11	3	ça	NULL	pro	NULL	B_GN	ATS	2	idtext0016	ça	#####	spk2	24.48	24.81	?	_

20091112_RATP_SCD_0495	12	1	exactement	NULL	adv	NULL	B_GADV	NOLINK	0	idtext0017	exactement	#####	spk3	24.18	24.81	?	//

20091112_RATP_SCD_0495	13	1	d'accord	NULL	adv	NULL	B_GADV	NOLINK	0	idtext0018	d'accord	#####	spk2	24.93	25.16	0.01	_
20091112_RATP_SCD_0495	13	2	vous	NULL	cln	NULL	B_GN	SUJ	3	idtext0018	cln	#2##p##	spk2	25.17	25.26	0.01	_
20091112_RATP_SCD_0495	13	3	pouvez	NULL	v	NULL	B_GVf	ROOT	0	idtext0018	pouvoir	P#2##p##	spk2	25.27	25.42	0.01	_
20091112_RATP_SCD_0495	13	4	patienter	NULL	vinf	NULL	I_GVf	OBJ	3	idtext0018	patienter	W#####	spk2	25.43	25.9	?	//

20091112_RATP_SCD_0495	14	1	oui	NULL	adv	NULL	B_GADV	NOLINK	0	idtext0019	oui	#####	spk3	26.01	26.08	0.01	_
20091112_RATP_SCD_0495	14	2	il	NULL	cln	NULL	B_GN	SUJ_IMP	4	idtext0019	cln	#3#m#s##	spk3	26.09	26.15	0.01	_
20091112_RATP_SCD_0495	14	3	y	NULL	clo	NULL	B_GN	AFF	4	idtext0019	y	#####	spk3	26.16	26.18	0.01	_
20091112_RATP_SCD_0495	14	4	a	NULL	v	NULL	B_GVfn	ROOT	0	idtext0019	avoir	P#3##s##	spk3	26.19	26.22	0.01	_
20091112_RATP_SCD_0495	14	5	pas	NULL	advneg	NULL	I_GVfn	MOD	4	idtext0019	pas	#####	spk3	26.23	26.3	0.01	_
20091112_RATP_SCD_0495	14	6	de	NULL	det	NULL	B_GN	DET	7	idtext0019	de	###p##i	spk3	26.31	26.35	0.01	_
20091112_RATP_SCD_0495	14	7	souci	NULL	nc	NULL	I_GN	OBJ	4	idtext0019	souci	##m#s##	spk3	26.36	27.17	?	//

20091112_RATP_SCD_0495	15	1	merci	NULL	adv	NULL	B_GADV	NOLINK	0	idtext0020	merci	#####	spk2	26.02	27.17	?	//

20091112_RATP_SCD_0495	16	1	monsieur	NULL	nc	NULL	B_GN	NOLINK	0	idtext0021	Monsieur	##m#s##	spk2	87.39	87.5	0.01	/
20091112_RATP_SCD_0495	16	2	non	NULL	adv	NULL	I_GN	MOD	3	idtext0021	non	#####	spk2	87.51	87.57	0.01	_
20091112_RATP_SCD_0495	16	3	désolé	NULL	adj	NULL	I_GN	ROOT	0	idtext0021	désolé	##m#s##	spk2	87.58	88.39	0.01	_
20091112_RATP_SCD_0495	16	4	ça	NULL	pro	NULL	B_GN	SUJ	9	idtext0021	ça	#####	spk2	88.4	88.45	0.01	_
20091112_RATP_SCD_0495	16	5	n'	NULL	clneg	NULL	B_NULL	MOD	6	idtext0021	n'	#####	spk2	88.46	88.49	0.01	_
20091112_RATP_SCD_0495	16	6	a	NULL	v	NULL	B_GVf	AUX	8	idtext0021	avoir	P#3##s##	spk2	88.5	88.56	0.01	_
20091112_RATP_SCD_0495	16	7	pas+encore	NULL	adv	NULL	I_GVf	MOD	6	idtext0021	pas+encore	#####	spk2	88.57	89.02	0.01	_
20091112_RATP_SCD_0495	16	8	été	NULL	vppart	NULL	I_GVf	AUX	9	idtext0021	être	K#####	spk2	89.03	89.31	0.01	_
20091112_RATP_SCD_0495	16	9	signalé	NULL	vppart	NULL	B_GVf	ROOT	0	idtext0021	signaler	K##m#s##	spk2	89.32	89.55	0.01	_
20091112_RATP_SCD_0495	16	10	retrouvé	NULL	vppart	NULL	B_GVf	ATO	9	idtext0021	retrouver	K##m#s##	spk2	89.56	90.1	?	//

20091112_RATP_SCD_0495	17	1	d'accord	NULL	adv	NULL	B_GADV	NOLINK	0	idtext0022	d'accord	#####	spk3	90.43	91.01	?	//

20091112_RATP_SCD_0495	18	1	non	NULL	adv	NULL	B_GADV	NOLINK	0	idtext0023	non	#####	spk2	91.07	91.33	?	_

20091112_RATP_SCD_0495	19	1	bon	DISF_M	pres	NULL	NULL	NOLINK	0	idtext0024	bon	#####	spk3	91.38	91.84	0.80	_
20091112_RATP_SCD_0495	19	2	eh+ben	DISF_M	pres	NULL	NULL	NOLINK	0	idtext0025	eh+ben	#####	spk3	92.64	92.84	0.01	_
20091112_RATP_SCD_0495	19	3	c'	NULL	cln	NULL	B_GN	SUJ_IMP	4	idtext0025	ce	###s##	spk3	92.85	92.92	0.01	_
20091112_RATP_SCD_0495	19	4	est	NULL	v	NULL	B_GVfn	ROOT	0	idtext0025	être	P#3##s##	spk3	92.93	92.96	0.01	_
20091112_RATP_SCD_0495	19	5	pas	NULL	advneg	NULL	I_GVfn	MOD	4	idtext0025	pas	#####	spk3	92.97	93.04	0.01	_
20091112_RATP_SCD_0495	19	6	grave	NULL	adj	NULL	B_GADJ	ATS	4	idtext0025	grave	###s##	spk3	93.05	93.21	0.04	_
20091112_RATP_SCD_0495	19	7	merci	NULL	adv	NULL	B_GADV	NOLINK	0	idtext0026	merci	#####	spk3	93.25	93.45	0.01	_
20091112_RATP_SCD_0495	19	8	monsieur	NULL	nc	NULL	B_GN	NOLINK	0	idtext0026	Monsieur	##m#s##	spk3	93.46	93.67	?	//

20091112_RATP_SCD_0495	20	1	je	NULL	cln	NULL	B_GN	SUJ	4	idtext0027	cln	#1##s##	spk2	93.71	93.75	0.01	_
20091112_RATP_SCD_0495	20	2	vous	NULL	clo	NULL	B_GN	OBJ	4	idtext0027	cln	#2##p##	spk2	93.76	93.85	0.01	_
20091112_RATP_SCD_0495	20	3	en	NULL	clo	NULL	B_GN	DE_OBJ	4	idtext0027	en	#####	spk2	93.86	93.92	0.01	_
20091112_RATP_SCD_0495	20	4	prie	NULL	v	NULL	B_GVf	ROOT	0	idtext0027	prier	PS#13##s##	spk2	93.93	94.05	0.01	_
20091112_RATP_SCD_0495	20	5	monsieur	NULL	nc	NULL	B_GN	NOLINK	0	idtext0027	Monsieur	##m#s##	spk2	94.06	94.41	?	//

20091112_RATP_SCD_0495	21	1	à+bientôt	NULL	adv	NULL	B_GADV	NOLINK	0	idtext0028	à+bientôt	#####	spk2	94.45	94.81	?	//

20091112_RATP_SCD_0495	22	1	au+revoir	NULL	adv	NULL	B_GADV	NOLINK	0	idtext0029	au+revoir	#####	spk3	94.5	94.81	?	//

20091112_RATP_SCD_0495	23	1	au+revoir	NULL	adv	NULL	B_GADV	NOLINK	0	idtext0030	au+revoir	#####	spk2	94.86	95.1	?	//

