20091112_RATP_SCD_0216	1	1	bonjour	NULL	adv	NULL	B_GADV	NOLINK	0	idtext0000	bonjour	#####	spk1	5.62	6.14	?	//

20091112_RATP_SCD_0216	2	1	oui	NULL	adv	NULL	B_GADV	MOD	2	idtext0001	oui	#####	spk2	6.61	6.8	0.01	_
20091112_RATP_SCD_0216	2	2	bonjour	NULL	adv	NULL	I_GADV	ROOT	0	idtext0001	bonjour	#####	spk2	6.81	7.21	?	//

20091112_RATP_SCD_0216	3	1	bonjour	NULL	adv	NULL	B_GADV	NOLINK	0	idtext0002	bonjour	#####	spk1	7.34	7.63	0.01	_
20091112_RATP_SCD_0216	3	2	madame	NULL	nc	NULL	B_GN	NOLINK	0	idtext0002	Monsieur	##f#s##	spk1	7.64	8.13	?	//

20091112_RATP_SCD_0216	4	1	euh	DISF_M	pres	NULL	NULL	NOLINK	0	idtext0003	euh	#####	spk2	7.25	7.4	0.01	_
20091112_RATP_SCD_0216	4	2	j'	NULL	cln	NULL	B_GN	SUJ	3	idtext0003	cln	#1##s##	spk2	7.41	7.52	0.01	_
20091112_RATP_SCD_0216	4	3	habite	NULL	v	NULL	B_GVf	ROOT	0	idtext0003	habiter	PS#13##s##	spk2	7.53	8.0	0.01	_
20091112_RATP_SCD_0216	4	4	à	NULL	prep	NULL	B_NULL	NOLINK	0	idtext0003	à	#####	spk2	8.01	8.13	?	_

20091112_RATP_SCD_0216	5	1	je	NULL	cln	NULL	B_GN	SUJ	3	idtext0004	cln	#1##s##	spk2	8.21	8.4	0.01	_
20091112_RATP_SCD_0216	5	2	vous	NULL	clo	NULL	B_GN	OBJ	3	idtext0004	cln	#2##p##	spk2	8.41	8.59	0.01	_
20091112_RATP_SCD_0216	5	3	appelle	NULL	v	NULL	B_GVf	ROOT	0	idtext0004	appeler	PS#13##s##	spk2	8.6	8.96	0.01	_
20091112_RATP_SCD_0216	5	4	pour	NULL	prep	NULL	B_GP	MOD	3	idtext0004	pour	#####	spk2	8.97	9.24	0.01	_
20091112_RATP_SCD_0216	5	5	savoir	NULL	vinf	NULL	I_GP	OBJ	4	idtext0004	savoir	W#####	spk2	9.25	9.93	0.01	_
20091112_RATP_SCD_0216	5	6	de	NULL	prep	NULL	B_GP	P_OBJ_LOC	5	idtext0004	de	#####	spk2	9.94	10.13	0.01	_
20091112_RATP_SCD_0216	5	7	Antony	NULL	nc	B_A	I_GP	OBJ	6	idtext0005	Antony	##m#s##	spk2	10.14	10.89	?	//

20091112_RATP_SCD_0216	6	1	oui	NULL	adv	NULL	B_GADV	NOLINK	0	idtext0006	oui	#####	spk1	11.15	11.4	?	//

20091112_RATP_SCD_0216	7	1	le	NULL	det	NULL	B_GN	DET	2	idtext0007	le	##m#s##d	spk2	11.44	11.66	0.01	_
20091112_RATP_SCD_0216	7	2	RER	NULL	nc	B_T	I_GN	SUJ	4	idtext0008	RER	#####	spk2	11.67	12.86	0.01	_
20091112_RATP_SCD_0216	7	3	euh	DISF_M	pres	I_T	NULL	NOLINK	0	idtext0009	euh	#####	spk2	12.87	13.47	0.01	_
20091112_RATP_SCD_0216	7	4	est	NULL	v	NULL	B_GVf	ROOT	0	idtext0009	être	P#3##s##	spk2	13.48	13.69	0.01	_
20091112_RATP_SCD_0216	7	5	en	NULL	prep	NULL	B_GP	ATS	4	idtext0009	en	#####	spk2	13.7	13.91	0.01	_
20091112_RATP_SCD_0216	7	6	grève	NULL	nc	NULL	I_GP	OBJ	5	idtext0009	grève	##f#s##	spk2	13.92	14.26	0.01	_
20091112_RATP_SCD_0216	7	7	pour	NULL	prep	NULL	B_GP	MOD	6	idtext0009	pour	#####	spk2	14.27	14.45	0.01	_
20091112_RATP_SCD_0216	7	8	aller	NULL	vinf	NULL	I_GP	OBJ	7	idtext0009	aller	W#####	spk2	14.46	14.75	0.01	_
20091112_RATP_SCD_0216	7	9	à	NULL	prep	NULL	B_GP	P_OBJ_LOC	8	idtext0009	à	#####	spk2	14.76	14.84	0.01	_
20091112_RATP_SCD_0216	7	10	Paris	NULL	nc	B_A	I_GP	OBJ	9	idtext0010	Paris	##m#s##	spk2	14.85	15.28	0.01	_
20091112_RATP_SCD_0216	7	11	ou	NULL	coo	NULL	B_NULL	COORD	10	idtext0011	ou	#####	spk2	15.29	15.43	0.01	_
20091112_RATP_SCD_0216	7	12	non	NULL	adv	NULL	B_GADV	DEP_COORD	11	idtext0011	non	#####	spk2	15.44	15.74	?	_

20091112_RATP_SCD_0216	8	1	non	DISF_R	adv	NULL	NULL	NOLINK	0	idtext0012	non	#####	spk1	15.83	15.97	0.01	_
20091112_RATP_SCD_0216	8	2	non	NULL	adv	NULL	B_GADV	NOLINK	0	idtext0012	non	#####	spk1	15.98	16.12	0.01	_
20091112_RATP_SCD_0216	8	3	ça	NULL	pro	NULL	B_GN	SUJ_IMP	4	idtext0012	ça	#####	spk1	16.13	16.28	0.01	_
20091112_RATP_SCD_0216	8	4	fonctionne	NULL	v	NULL	B_GVf	ROOT	0	idtext0012	fonctionner	PS#13##s##	spk1	16.29	16.69	0.01	_
20091112_RATP_SCD_0216	8	5	c'	NULL	cln	NULL	B_GN	SUJ_IMP	6	idtext0012	ce	###s##	spk1	16.7	16.79	0.01	_
20091112_RATP_SCD_0216	8	6	est	NULL	v	NULL	B_GVf	ROOT	0	idtext0012	être	P#3##s##	spk1	16.8	16.85	0.01	_
20091112_RATP_SCD_0216	8	7	quasi	NULL	adv	NULL	B_GN	MOD	8	idtext0012	quasi	#####	spk1	16.86	17.19	0.01	_
20091112_RATP_SCD_0216	8	8	normal	NULL	adj	NULL	I_GN	ATS	6	idtext0012	normal	##m#s##	spk1	17.2	17.6	0.01	_
20091112_RATP_SCD_0216	8	9	madame	NULL	nc	NULL	I_GN	NOLINK	0	idtext0012	Monsieur	##f#s##	spk1	17.61	17.9	0.01	_
20091112_RATP_SCD_0216	8	10	hein	DISF_M	pres	NULL	NULL	NOLINK	0	idtext0012	hein	#####	spk1	17.91	18.06	?	//

20091112_RATP_SCD_0216	9	1	c'	NULL	cln	NULL	B_GN	SUJ_IMP	2	idtext0013	ce	###s##	spk2	18.37	18.51	0.01	_
20091112_RATP_SCD_0216	9	2	est	NULL	v	NULL	B_GVf	ROOT	0	idtext0013	être	P#3##s##	spk2	18.52	18.78	0.01	_
20091112_RATP_SCD_0216	9	3	normal	NULL	adj	NULL	B_GADJ	ATS	2	idtext0013	normal	##m#s##	spk2	18.79	19.41	?	//

20091112_RATP_SCD_0216	10	1	ouais	NULL	adv	NULL	B_GN	NOLINK	0	idtext0014	ouais	#####	spk1	19.45	19.63	0.01	//
20091112_RATP_SCD_0216	10	2	trois	NULL	adj	NULL	I_GN	MOD	3	idtext0014	trois	#####	spk1	19.64	19.87	0.01	_
20091112_RATP_SCD_0216	10	3	trams	NULL	nc	NULL	I_GN	ROOT	0	idtext0014	tram	##m#p##	spk1	19.88	20.06	0.01	_
20091112_RATP_SCD_0216	10	4	sur	NULL	prep	NULL	B_NULL	ROOT	0	idtext0014	sur	#####	spk1	20.07	20.29	0.01	_
20091112_RATP_SCD_0216	10	5	quatre	NULL	adj	NULL	B_GADJ	OBJ	4	idtext0014	quatre	#####	spk1	20.3	20.58	?	_

20091112_RATP_SCD_0216	11	1	les	DISF_R	det	NULL	NULL	NOLINK	0	idtext0015	le	###p##d	spk2	19.47	20.01	0.01	_
20091112_RATP_SCD_0216	11	2	les	NULL	det	NULL	B_NULL	NOLINK	0	idtext0015	le	###p##d	spk2	20.02	20.58	?	//

20091112_RATP_SCD_0216	12	1	les	NULL	det	NULL	B_GN	DET	2	idtext0016	le	###p##d	spk2	20.64	20.87	0.01	_
20091112_RATP_SCD_0216	12	2	autobus	NULL	nc	NULL	I_GN	SUJ	4	idtext0016	autobus	##m###	spk2	20.88	21.38	0.01	/
20091112_RATP_SCD_0216	12	3	aussi	NULL	adv	NULL	B_GADV	NOLINK	0	idtext0016	aussi	#####	spk2	21.39	21.75	0.01	_
20091112_RATP_SCD_0216	12	4	sont	NULL	v	NULL	B_GVf	ROOT	0	idtext0016	être	P#3##p##	spk2	21.76	21.85	0.01	_
20091112_RATP_SCD_0216	12	5	normal	NULL	adj	NULL	B_GADJ	ATS	4	idtext0016	normal	##m#s##	spk2	21.86	22.56	?	//

20091112_RATP_SCD_0216	13	1	euh	DISF_M	pres	NULL	NULL	NOLINK	0	idtext0017	euh	#####	spk1	22.6	22.78	0.01	_
20091112_RATP_SCD_0216	13	2	sur	NULL	prep	NULL	B_GP	ROOT	0	idtext0017	sur	#####	spk1	22.79	22.88	0.01	_
20091112_RATP_SCD_0216	13	3	aéroport	NULL	nc	NULL	I_GP	OBJ	2	idtext0018	aéroport	##m#s##	spk1	22.89	23.15	0.01	_
20091112_RATP_SCD_0216	13	4	Antony	NULL	nc	B_A	I_GP	NOLINK	0	idtext0018	Antony	##m#s##	spk1	23.16	23.58	0.01	_
20091112_RATP_SCD_0216	13	5	tout	NULL	adv	NULL	B_GADV	NOLINK	0	idtext0019	tout	##m#s##	spk1	23.59	23.7	0.01	_
20091112_RATP_SCD_0216	13	6	ça	NULL	pro	NULL	B_GN	NOLINK	0	idtext0019	ça	#####	spk1	23.71	23.95	0.01	_
20091112_RATP_SCD_0216	13	7	oui	NULL	adv	NULL	B_GADV	NOLINK	0	idtext0019	oui	#####	spk1	23.96	24.06	0.01	_
20091112_RATP_SCD_0216	13	8	il	NULL	cln	NULL	B_GN	SUJ_IMP	10	idtext0019	cln	#3#m#s##	spk1	24.07	24.12	0.01	_
20091112_RATP_SCD_0216	13	9	y	NULL	clo	NULL	B_GN	AFF	10	idtext0019	y	#####	spk1	24.13	24.16	0.01	_
20091112_RATP_SCD_0216	13	10	a	NULL	v	NULL	B_GVfn	ROOT	0	idtext0019	avoir	P#3##s##	spk1	24.17	24.21	0.01	_
20091112_RATP_SCD_0216	13	11	pas	NULL	advneg	NULL	I_GVfn	MOD	10	idtext0019	pas	#####	spk1	24.22	24.34	0.01	_
20091112_RATP_SCD_0216	13	12	de	NULL	det	NULL	B_GN	DET	13	idtext0019	de	###p##i	spk1	24.35	24.45	0.01	_
20091112_RATP_SCD_0216	13	13	souci	NULL	nc	NULL	I_GN	OBJ	10	idtext0019	souci	##m#s##	spk1	24.46	24.79	0.01	_
20091112_RATP_SCD_0216	13	14	hein	DISF_M	pres	NULL	NULL	NOLINK	0	idtext0019	hein	#####	spk1	24.8	25.05	?	//

20091112_RATP_SCD_0216	14	1	il	NULL	cln	NULL	B_GN	NOLINK	0	idtext0020	cln	#3#m#s##	spk2	25.42	25.51	0.01	_
20091112_RATP_SCD_0216	14	2	n'	NULL	clneg	NULL	B_NULL	NOLINK	0	idtext0020	n'	#####	spk2	25.52	25.66	0.01	_
20091112_RATP_SCD_0216	14	3	y	NULL	clo	NULL	B_GN	NOLINK	0	idtext0020	y	#####	spk2	25.67	25.76	0.01	_
20091112_RATP_SCD_0216	14	4	pas	NULL	advneg	NULL	B_NULL	MOD	8	idtext0020	pas	#####	spk2	25.77	26.2	0.01	_
20091112_RATP_SCD_0216	14	5	é()	DISF_T	tronc	NULL	NULL	NOLINK	0	idtext0020	é()	#####	spk2	26.21	26.5	0.01	_
20091112_RATP_SCD_0216	14	6	des	NULL	det	NULL	B_GN	DET	8	idtext0020	des	###p##i	spk2	26.51	27.5	0.01	_
20091112_RATP_SCD_0216	14	7	euh	DISF_M	pres	NULL	NULL	NOLINK	0	idtext0020	euh	#####	spk2	27.51	28.0	0.01	_
20091112_RATP_SCD_0216	14	8	Luxembourg	NULL	nc	B_A	I_GN	ROOT	0	idtext0021	Luxembourg	##m#s##	spk2	28.01	28.92	0.01	_
20091112_RATP_SCD_0216	14	9	par+exemple	NULL	adv	NULL	B_GADV	NOLINK	0	idtext0022	par+exemple	#####	spk2	28.93	29.91	0.29	/
20091112_RATP_SCD_0216	14	10	il	NULL	cln	NULL	B_GN	SUJ_IMP	12	idtext0023	cln	#3#m#s##	spk2	30.2	30.42	0.01	_
20091112_RATP_SCD_0216	14	11	y	NULL	clo	NULL	B_GN	AFF	12	idtext0023	y	#####	spk2	30.43	30.45	0.01	_
20091112_RATP_SCD_0216	14	12	a	NULL	v	NULL	B_GVf	ROOT	0	idtext0023	avoir	P#3##s##	spk2	30.46	30.56	0.01	_
20091112_RATP_SCD_0216	14	13	autobus	NULL	nc	NULL	I_GP	OBJ	12	idtext0023	autobus	##m###	spk2	30.57	31.22	0.01	_
20091112_RATP_SCD_0216	14	14	pour	NULL	prep	NULL	B_GP	MOD	13	idtext0023	pour	#####	spk2	31.23	31.46	0.01	_
20091112_RATP_SCD_0216	14	15	aller	NULL	vinf	NULL	I_GP	OBJ	14	idtext0023	aller	W#####	spk2	31.47	31.83	0.01	_
20091112_RATP_SCD_0216	14	16	à	NULL	prep	NULL	B_GP	P_OBJ_LOC	15	idtext0023	à	#####	spk2	31.84	32.0	0.01	_
20091112_RATP_SCD_0216	14	17	Place+d'Italie	NULL	nc	B_A	I_GP	OBJ	16	idtext0024	Place+d'Italie	#####	spk2	32.01	32.98	0.01	_
20091112_RATP_SCD_0216	14	18	et	NULL	coo	NULL	B_NULL	NOLINK	0	idtext0025	et	#####	spk2	32.99	33.09	?	_

20091112_RATP_SCD_0216	15	1	a	DISF_R	v	NULL	NULL	NOLINK	0	idtext0026	avoir	P#3##s##	spk1	33.13	33.23	0.01	_
20091112_RATP_SCD_0216	15	2	sans	DISF_R	prep	NULL	NULL	NOLINK	0	idtext0026	sans	#####	spk1	33.24	33.4	0.01	_
20091112_RATP_SCD_0216	15	3	s()	DISF_T	tronc	NULL	NULL	NOLINK	0	idtext0026	s()	#####	spk1	33.41	33.82	0.01	_
20091112_RATP_SCD_0216	15	4	dans	NULL	prep	NULL	B_GP	MOD	8	idtext0027	dans	#####	spk1	33.83	33.99	0.01	_
20091112_RATP_SCD_0216	15	5	Paris	NULL	nc	B_A	I_GP	OBJ	4	idtext0028	Paris	##m#s##	spk1	34.0	34.28	0.01	_
20091112_RATP_SCD_0216	15	6	il	NULL	cln	NULL	B_GN	SUJ_IMP	8	idtext0029	cln	#3#m#s##	spk1	34.29	34.41	0.01	_
20091112_RATP_SCD_0216	15	7	y	NULL	clo	NULL	B_GN	AFF	8	idtext0029	y	#####	spk1	34.42	34.46	0.01	_
20091112_RATP_SCD_0216	15	8	a	NULL	v	NULL	B_GVf	ROOT	0	idtext0029	avoir	P#3##s##	spk1	34.47	34.51	0.01	_
20091112_RATP_SCD_0216	15	9	aucun	NULL	det	NULL	B_GN	DET	10	idtext0029	aucun	##m#s##i	spk1	34.52	34.78	0.01	_
20091112_RATP_SCD_0216	15	10	souci	NULL	nc	NULL	I_GN	OBJ	8	idtext0029	souci	##m#s##	spk1	34.79	35.15	0.01	_
20091112_RATP_SCD_0216	15	11	madame	NULL	nc	NULL	I_GP	NOLINK	0	idtext0029	Monsieur	##f#s##	spk1	35.16	35.69	0.01	_
20091112_RATP_SCD_0216	15	12	aucun	NULL	det	NULL	B_GN	DET	13	idtext0029	aucun	##m#s##i	spk1	35.7	35.99	0.01	_
20091112_RATP_SCD_0216	15	13	problème	NULL	nc	NULL	I_GN	ROOT	0	idtext0029	problème	##m#s##	spk1	36.0	36.5	?	//

20091112_RATP_SCD_0216	16	1	aucun	NULL	det	NULL	B_GN	DET	2	idtext0030	aucun	##m#s##i	spk1	36.71	37.08	0.01	_
20091112_RATP_SCD_0216	16	2	problème	NULL	nc	NULL	I_GN	ROOT	0	idtext0030	problème	##m#s##	spk1	37.09	37.63	0.01	_
20091112_RATP_SCD_0216	16	3	de	NULL	prep	NULL	B_NULL	DEP	2	idtext0030	de	#####	spk1	37.64	37.74	0.01	_
20091112_RATP_SCD_0216	16	4	et	NULL	coo	NULL	B_NULL	COORD	2	idtext0030	et	#####	spk1	37.75	37.85	0.01	_
20091112_RATP_SCD_0216	16	5	le	NULL	det	NULL	B_GN	DET	6	idtext0030	le	##m#s##d	spk1	37.86	37.88	0.01	_
20091112_RATP_SCD_0216	16	6	RER	NULL	nc	B_T	I_GN	DEP_COORD	4	idtext0031	RER	#####	spk1	37.89	38.83	0.01	_
20091112_RATP_SCD_0216	16	7	de	NULL	prep	NULL	B_NULL	NOLINK	0	idtext0032	de	#####	spk1	38.84	39.47	0.39	_
20091112_RATP_SCD_0216	16	8	Antony	NULL	nc	B_A	B_GN	NOLINK	0	idtext0033	Antony	##m#s##	spk1	39.86	40.62	0.01	_
20091112_RATP_SCD_0216	16	9	aucun	NULL	det	NULL	B_NULL	NOLINK	0	idtext0034	aucun	##m#s##i	spk1	40.63	40.97	?	//

20091112_RATP_SCD_0216	17	1	problème	NULL	nc	NULL	B_GN	NOLINK	0	idtext0035	problème	##m#s##	spk2	41.12	43.19	?	//

20091112_RATP_SCD_0216	18	1	ça	NULL	pro	NULL	B_GN	SUJ_IMP	2	idtext0036	ça	#####	spk1	41.13	41.31	0.01	_
20091112_RATP_SCD_0216	18	2	fonctionne	NULL	v	NULL	B_GVf	ROOT	0	idtext0036	fonctionner	PS#13##s##	spk1	41.32	41.8	0.01	_
20091112_RATP_SCD_0216	18	3	il	NULL	cln	NULL	B_GN	SUJ_IMP	5	idtext0037	cln	#3#m#s##	spk1	41.81	41.86	0.01	_
20091112_RATP_SCD_0216	18	4	y	NULL	clo	NULL	B_GN	AFF	5	idtext0037	y	#####	spk1	41.87	41.9	0.01	_
20091112_RATP_SCD_0216	18	5	a	NULL	v	NULL	B_GVf	ROOT	0	idtext0037	avoir	P#3##s##	spk1	41.91	41.96	0.01	_
20091112_RATP_SCD_0216	18	6	un	NULL	det	NULL	I_GP	DET	8	idtext0037	un	##m#s##i	spk1	41.97	42.0	0.01	_
20091112_RATP_SCD_0216	18	7	léger	NULL	adj	NULL	I_GP	MOD	8	idtext0037	léger	##m#s##	spk1	42.01	42.27	0.01	_
20091112_RATP_SCD_0216	18	8	retard	NULL	nc	NULL	I_GP	OBJ	5	idtext0037	retard	##m#s##	spk1	42.28	42.7	0.01	_
20091112_RATP_SCD_0216	18	9	c'	NULL	cln	NULL	B_GN	SUJ_IMP	10	idtext0037	ce	###s##	spk1	42.71	42.73	0.01	_
20091112_RATP_SCD_0216	18	10	est	NULL	v	NULL	B_GVf	ROOT	0	idtext0037	être	P#3##s##	spk1	42.74	42.81	0.01	_
20091112_RATP_SCD_0216	18	11	tout	NULL	adv	NULL	B_GADV	ATS	10	idtext0037	tout	##m#s##	spk1	42.82	43.19	?	_

20091112_RATP_SCD_0216	19	1	OK	NULL	adv	NULL	B_GADV	MOD	2	idtext0038	ok	#####	spk2	43.41	44.15	0.01	_
20091112_RATP_SCD_0216	19	2	merci	NULL	adv	NULL	I_GADV	ROOT	0	idtext0038	merci	#####	spk2	44.16	44.78	?	//

20091112_RATP_SCD_0216	20	1	bonne	NULL	adj	NULL	B_GN	MOD	2	idtext0039	bon	##f#s##	spk1	44.82	45.03	0.01	_
20091112_RATP_SCD_0216	20	2	journée	NULL	nc	NULL	I_GN	ROOT	0	idtext0039	journée	##f#s##	spk1	45.04	45.5	?	//

20091112_RATP_SCD_0216	21	1	au+revoir	NULL	adv	NULL	B_GADV	NOLINK	0	idtext0040	au+revoir	#####	spk2	45.57	46.04	?	//

20091112_RATP_SCD_0216	22	1	au+revoir	NULL	adv	NULL	B_GADV	NOLINK	0	idtext0041	au+revoir	#####	spk1	46.11	46.51	?	//

20091112_RATP_SCD_0216	23	1	OK	NULL	adv	NULL	B_GADV	NOLINK	0	idtext0042	ok	#####	spk2	46.61	47.24	?	_

