20091112_RATP_SCD_0375	1	1	NNAAMMEE	NULL	np	B_HU	B_GN	ROOT	0	idtext0000	ANONYM	NULL	spk1	1.65	2.16	0.01	_
20091112_RATP_SCD_0375	1	2	bonjour	NULL	adv	NULL	B_GADV	NOLINK	0	idtext0001	bonjour	#####	spk1	2.17	4.12	?	//

20091112_RATP_SCD_0375	2	1	oui	NULL	adv	NULL	B_GADV	MOD	2	idtext0002	oui	#####	spk2	4.16	4.39	0.01	_
20091112_RATP_SCD_0375	2	2	bonjour	NULL	adv	NULL	I_GADV	ROOT	0	idtext0002	bonjour	#####	spk2	4.4	4.68	0.01	_
20091112_RATP_SCD_0375	2	3	madame	NULL	nc	NULL	B_GN	NOLINK	0	idtext0002	Monsieur	##f#s##	spk2	4.69	5.49	0.01	_
20091112_RATP_SCD_0375	2	4	est-ce+que	NULL	pri	NULL	B_NULL	NOLINK	0	idtext0003	est-ce+que	#####	spk2	5.5	5.84	0.01	_
20091112_RATP_SCD_0375	2	5	ça	NULL	pro	NULL	B_GN	SUJ_IMP	6	idtext0003	ça	#####	spk2	5.85	5.93	0.01	_
20091112_RATP_SCD_0375	2	6	serait	NULL	v	NULL	B_GVf	ROOT	0	idtext0003	être	C#3##s##	spk2	5.94	6.05	0.01	_
20091112_RATP_SCD_0375	2	7	possible	NULL	adj	NULL	B_GADJ	ATS	6	idtext0003	possible	###s##	spk2	6.06	6.41	0.01	_
20091112_RATP_SCD_0375	2	8	d'	NULL	prep	NULL	B_GP	DEP	7	idtext0003	d'	#####	spk2	6.42	6.44	0.01	_
20091112_RATP_SCD_0375	2	9	avoir	NULL	vinf	NULL	I_GP	OBJ	8	idtext0003	avoir	W#####	spk2	6.45	6.63	0.01	_
20091112_RATP_SCD_0375	2	10	les	NULL	det	NULL	B_GN	DET	11	idtext0003	le	###p##d	spk2	6.64	6.85	0.01	_
20091112_RATP_SCD_0375	2	11	horaires	NULL	nc	NULL	I_GN	OBJ	9	idtext0003	horaire	##m#p##	spk2	6.86	7.36	0.01	_
20091112_RATP_SCD_0375	2	12	des	NULL	prep	NULL	B_GP	DEP	11	idtext0003	des	#####	spk2	7.37	7.98	0.01	_
20091112_RATP_SCD_0375	2	13	RER+B	NULL	nc	B_T	I_GP	OBJ	12	idtext0003	RER+B	#####	spk2	7.99	8.93	0.01	_
20091112_RATP_SCD_0375	2	14	au	NULL	prep	NULL	B_GP	MOD	13	idtext0003	au	#####	spk2	8.94	9.05	0.01	_
20091112_RATP_SCD_0375	2	15	cas	NULL	nc	NULL	I_GP	OBJ	14	idtext0003	cas	##m###	spk2	9.06	10.06	?	//

20091112_RATP_SCD_0375	3	1	les	NULL	det	NULL	B_GN	DET	2	idtext0004	le	###p##d	spk1	10.11	10.41	0.01	_
20091112_RATP_SCD_0375	3	2	horaires	NULL	nc	NULL	I_GN	SUJ	4	idtext0004	horaire	##m#p##	spk1	10.42	10.69	0.01	_
20091112_RATP_SCD_0375	3	3	quel	NULL	det	NULL	B_NULL	ATS	4	idtext0004	quel	##m#s##	spk1	10.7	10.88	0.01	_
20091112_RATP_SCD_0375	3	4	est	NULL	v	NULL	B_GVf	ROOT	0	idtext0004	être	P#3##s##	spk1	10.89	10.96	0.01	_
20091112_RATP_SCD_0375	3	5	le	NULL	det	NULL	B_GN	DET	6	idtext0004	le	##m#s##d	spk1	10.97	11.07	0.01	_
20091112_RATP_SCD_0375	3	6	trajet	NULL	nc	NULL	I_GN	ATS	4	idtext0004	trajet	##m#s##	spk1	11.08	11.4	0.01	_
20091112_RATP_SCD_0375	3	7	que	NULL	prorel	NULL	B_NULL	OBJ	9	idtext0004	que	#####	spk1	11.41	11.59	0.01	_
20091112_RATP_SCD_0375	3	8	vous	NULL	cln	NULL	B_GN	SUJ	9	idtext0004	cln	#2##p##	spk1	11.6	11.66	0.01	_
20091112_RATP_SCD_0375	3	9	souhaitez	NULL	v	NULL	B_GVf	MOD_REL	6	idtext0004	souhaiter	P#2##p##	spk1	11.67	11.96	0.01	_
20091112_RATP_SCD_0375	3	10	faire	NULL	vinf	NULL	I_GVf	OBJ	9	idtext0004	faire	W#####	spk1	11.97	12.16	0.01	_
20091112_RATP_SCD_0375	3	11	madame	NULL	nc	NULL	B_GN	NOLINK	0	idtext0004	Monsieur	##f#s##	spk1	12.17	12.6	?	//

20091112_RATP_SCD_0375	4	1	Châtelet	NULL	nc	B_A	B_GN	ROOT	0	idtext0005	Châtelet	#####	spk2	12.66	13.12	0.01	_
20091112_RATP_SCD_0375	4	2	Cachan	NULL	nc	B_A	I_GN	MOD	1	idtext0005	Cachan	##m#s##	spk2	13.13	13.75	0.01	_
20091112_RATP_SCD_0375	4	3	euh	DISF_M	pres	I_A	NULL	NOLINK	0	idtext0005	euh	#####	spk2	13.76	13.78	0.01	_
20091112_RATP_SCD_0375	4	4	entre	NULL	prep	NULL	B_GP	ROOT	0	idtext0005	entre	#####	spk2	13.79	13.91	0.01	_
20091112_RATP_SCD_0375	4	5	quinze	NULL	det	B_H	I_GP	DET	6	idtext0005	quinze	#####	spk2	13.92	14.4	0.01	_
20091112_RATP_SCD_0375	4	6	heures	NULL	nc	I_H	I_GP	OBJ	4	idtext0006	heure	##f#p##	spk2	14.41	15.11	0.01	_
20091112_RATP_SCD_0375	4	7	et	NULL	coo	NULL	B_NULL	COORD	6	idtext0006	et	#####	spk2	15.12	15.26	0.01	_
20091112_RATP_SCD_0375	4	8	seize	NULL	det	B_H	B_GN	DET	9	idtext0006	seize	#####	spk2	15.27	15.35	0.01	_
20091112_RATP_SCD_0375	4	9	heures	NULL	nc	I_H	I_GN	DEP_COORD	7	idtext0006	heure	##f#p##	spk2	15.36	16.01	?	//

20091112_RATP_SCD_0375	5	1	Châtelet	NULL	nc	B_A	B_GN	NOLINK	0	idtext0007	Châtelet	#####	spk1	16.26	16.85	0.01	_
20091112_RATP_SCD_0375	5	2	pour	NULL	prep	NULL	B_GP	ROOT	0	idtext0007	pour	#####	spk1	16.86	17.0	0.01	_
20091112_RATP_SCD_0375	5	3	rejoindre	NULL	vinf	NULL	I_GP	OBJ	2	idtext0007	rejoindre	W#####	spk1	17.01	17.41	0.01	_
20091112_RATP_SCD_0375	5	4	la	NULL	det	NULL	B_GN	DET	5	idtext0007	le	##m#s##d	spk1	17.42	17.48	0.01	_
20091112_RATP_SCD_0375	5	5	gare	NULL	nc	B_A	I_GN	OBJ	3	idtext0007	gare	##f#s##	spk1	17.49	17.69	0.01	_
20091112_RATP_SCD_0375	5	6	de	NULL	prep	I_A	I_GN	DEP	5	idtext0007	de	#####	spk1	17.7	17.8	0.01	_
20091112_RATP_SCD_0375	5	7	Cachan	NULL	np	I_A	I_GN	OBJ	6	idtext0007	Cachan	##m#s##	spk1	17.81	18.28	0.01	_
20091112_RATP_SCD_0375	5	8	c'	NULL	cln	NULL	B_GN	SUJ_IMP	9	idtext0007	ce	###s##	spk1	18.29	18.32	0.01	_
20091112_RATP_SCD_0375	5	9	est	NULL	v	NULL	B_GVf	ROOT	0	idtext0007	être	P#3##s##	spk1	18.33	18.45	0.01	_
20091112_RATP_SCD_0375	5	10	ça	NULL	pro	NULL	B_GN	ATS	9	idtext0007	ça	#####	spk1	18.46	18.62	?	_

20091112_RATP_SCD_0375	6	1	oui	NULL	adv	NULL	B_GADV	NOLINK	0	idtext0008	oui	#####	spk2	18.67	18.85	?	//

20091112_RATP_SCD_0375	7	1	donc	NULL	coo	NULL	B_NULL	ROOT	0	idtext0009	donc	#####	spk1	18.9	19.09	0.01	_
20091112_RATP_SCD_0375	7	2	là	NULL	adv	NULL	B_GADV	NOLINK	0	idtext0009	là	#####	spk1	19.1	19.19	0.01	_
20091112_RATP_SCD_0375	7	3	ce+qui	NULL	prorel	NULL	B_NULL	SUJ	5	idtext0009	ce+qui	#####	spk1	19.2	19.37	0.01	_
20091112_RATP_SCD_0375	7	4	vous	NULL	clo	NULL	B_GN	OBJ	5	idtext0009	cln	#2##p##	spk1	19.38	19.54	0.01	_
20091112_RATP_SCD_0375	7	5	intéresse	NULL	v	NULL	B_GVf	ROOT	0	idtext0009	intéresser	PS#13##s##	spk1	19.55	19.92	0.01	_
20091112_RATP_SCD_0375	7	6	ce	NULL	cln	NULL	B_GN	SUJ_IMP	7	idtext0009	ce	#####	spk1	19.93	20.04	0.01	_
20091112_RATP_SCD_0375	7	7	sont	NULL	v	NULL	B_GVf	DEP_COORD	1	idtext0009	être	P#3##p##	spk1	20.05	20.2	0.01	_
20091112_RATP_SCD_0375	7	8	les	NULL	det	NULL	B_GN	DET	9	idtext0009	le	###p##d	spk1	20.21	20.36	0.01	_
20091112_RATP_SCD_0375	7	9	horaires	NULL	nc	NULL	I_GN	ATS	7	idtext0009	horaire	##m#p##	spk1	20.37	21.21	?	//

20091112_RATP_SCD_0375	8	1	oui	NULL	adv	NULL	B_GADV	NOLINK	0	idtext0010	oui	#####	spk2	21.25	21.68	?	//

20091112_RATP_SCD_0375	9	1	d'accord	NULL	adv	NULL	B_GADV	NOLINK	0	idtext0011	d'accord	#####	spk1	21.72	22.15	0.01	_
20091112_RATP_SCD_0375	9	2	vous	NULL	cln	NULL	B_GN	SUJ	3	idtext0011	cln	#2##p##	spk1	22.16	22.28	0.01	_
20091112_RATP_SCD_0375	9	3	patientez	NULL	v	NULL	B_GVf	ROOT	0	idtext0011	patienter	P#2##p##	spk1	22.29	22.67	0.01	_
20091112_RATP_SCD_0375	9	4	un	NULL	det	NULL	B_GN	DET	5	idtext0011	un	##m#s##i	spk1	22.68	22.8	0.01	_
20091112_RATP_SCD_0375	9	5	instant	NULL	nc	NULL	I_GN	MOD	3	idtext0011	instant	##m#s##	spk1	22.81	23.09	0.01	//
20091112_RATP_SCD_0375	9	6	je	NULL	cln	NULL	B_GN	SUJ	8	idtext0011	cln	#1##s##	spk1	23.1	23.21	0.01	_
20091112_RATP_SCD_0375	9	7	m'	NULL	clr	NULL	B_GVf	AFF	8	idtext0011	cla	#1##s##	spk1	23.22	23.27	0.01	_
20091112_RATP_SCD_0375	9	8	informe	NULL	v	NULL	I_GVf	ROOT	0	idtext0011	informer	PS#13##s##	spk1	23.28	23.42	0.01	_
20091112_RATP_SCD_0375	9	9	madame	NULL	nc	NULL	B_GN	NOLINK	0	idtext0011	Monsieur	##f#s##	spk1	23.43	23.63	?	//

20091112_RATP_SCD_0375	10	1	pour	NULL	prep	NULL	B_GP	ROOT	0	idtext0012	pour	#####	spk2	23.72	23.86	0.01	_
20091112_RATP_SCD_0375	10	2	l'	NULL	clo	NULL	I_GP	OBJ	3	idtext0012	cla	#3##s##	spk2	23.87	23.94	0.01	_
20091112_RATP_SCD_0375	10	3	aller	NULL	vinf	NULL	B_GVi	OBJ	1	idtext0012	aller	W#####	spk2	23.95	24.14	0.01	_
20091112_RATP_SCD_0375	10	4	pour	NULL	prep	NULL	B_GP	MOD	1	idtext0012	pour	#####	spk2	24.15	24.37	0.01	_
20091112_RATP_SCD_0375	10	5	l'	NULL	clo	NULL	I_GP	OBJ	6	idtext0012	cla	#3##s##	spk2	24.38	24.42	0.01	_
20091112_RATP_SCD_0375	10	6	aller	NULL	vinf	NULL	B_GVi	OBJ	4	idtext0012	aller	W#####	spk2	24.43	24.66	0.01	//
20091112_RATP_SCD_0375	10	7	et	NULL	coo	NULL	B_NULL	COORD	1	idtext0012	et	#####	spk2	24.67	24.72	0.01	_
20091112_RATP_SCD_0375	10	8	le	NULL	det	NULL	B_GN	DET	9	idtext0012	le	##m#s##d	spk2	24.73	24.81	0.01	_
20091112_RATP_SCD_0375	10	9	retour	NULL	nc	NULL	I_GN	DEP_COORD	7	idtext0012	retour	##m#s##	spk2	24.82	25.53	?	//

20091112_RATP_SCD_0375	11	1	d'accord	NULL	adv	NULL	B_GADV	NOLINK	0	idtext0013	d'accord	#####	spk1	25.63	26.14	0.01	_
20091112_RATP_SCD_0375	11	2	un	NULL	det	NULL	B_GN	DET	3	idtext0013	un	##m#s##i	spk1	26.15	26.27	0.01	_
20091112_RATP_SCD_0375	11	3	instant	NULL	nc	NULL	I_GN	ROOT	0	idtext0013	instant	##m#s##	spk1	26.28	26.59	0.01	_
20091112_RATP_SCD_0375	11	4	s'il+vous+plaît	NULL	adv	NULL	B_GADV	NOLINK	0	idtext0013	s'il+vous+plaît	#####	spk1	26.6	27.68	?	//

20091112_RATP_SCD_0375	12	1	merci	NULL	adv	NULL	B_GADV	NOLINK	0	idtext0014	merci	#####	spk2	27.69	27.77	?	//

20091112_RATP_SCD_0375	13	1	madame	NULL	nc	NULL	B_GN	NOLINK	0	idtext0015	Monsieur	##f#s##	spk1	47.95	48.97	?	//

20091112_RATP_SCD_0375	14	1	oui	NULL	adv	NULL	B_GADV	NOLINK	0	idtext0016	oui	#####	spk2	49.25	49.32	?	//

20091112_RATP_SCD_0375	15	1	au+niveau+des	NULL	prep	NULL	B_GP	MOD	5	idtext0017	au+niveau+des	#####	spk1	49.36	49.9	0.01	_
20091112_RATP_SCD_0375	15	2	horaires	NULL	nc	NULL	I_GP	OBJ	1	idtext0017	horaire	##m#p##	spk1	49.91	50.19	0.01	//
20091112_RATP_SCD_0375	15	3	je	NULL	cln	NULL	B_GN	SUJ	5	idtext0017	cln	#1##s##	spk1	50.2	50.53	0.01	_
20091112_RATP_SCD_0375	15	4	ne	NULL	clneg	NULL	B_GVfn	MOD	5	idtext0017	ne	#####	spk1	50.54	50.68	0.01	_
20091112_RATP_SCD_0375	15	5	vais	NULL	v	NULL	I_GVfn	ROOT	0	idtext0017	aller	P#1##s##	spk1	50.69	50.85	0.01	_
20091112_RATP_SCD_0375	15	6	pas	NULL	advneg	NULL	B_GVin	MOD	7	idtext0017	pas	#####	spk1	50.86	50.99	0.01	_
20091112_RATP_SCD_0375	15	7	pouvoir	NULL	vinf	NULL	I_GVin	OBJ	5	idtext0017	pouvoir	W#####	spk1	51.0	51.26	0.01	_
20091112_RATP_SCD_0375	15	8	vous	NULL	clo	NULL	B_GN	A_OBJ	9	idtext0017	cln	#2##p##	spk1	51.27	51.42	0.01	_
20091112_RATP_SCD_0375	15	9	indiquer	NULL	vinf	NULL	B_GVi	OBJ	7	idtext0017	indiquer	W#####	spk1	51.43	51.8	0.01	_
20091112_RATP_SCD_0375	15	10	des	NULL	det	NULL	B_GN	DET	11	idtext0017	des	###p##i	spk1	51.81	51.99	0.01	_
20091112_RATP_SCD_0375	15	11	horaires	NULL	nc	NULL	I_GN	OBJ	9	idtext0017	horaire	##m#p##	spk1	52.0	52.39	0.01	_
20091112_RATP_SCD_0375	15	12	hein	DISF_M	pres	NULL	NULL	NOLINK	0	idtext0017	hein	#####	spk1	52.4	52.52	0.01	_
20091112_RATP_SCD_0375	15	13	parce+que	NULL	csu	NULL	B_NULL	MOD	11	idtext0017	parce+que	#####	spk1	52.53	53.2	0.01	_
20091112_RATP_SCD_0375	15	14	il	NULL	cln	NULL	B_GN	SUJ_IMP	16	idtext0018	cln	#3#m#s##	spk1	53.21	53.4	0.01	_
20091112_RATP_SCD_0375	15	15	y	NULL	clo	NULL	B_GN	AFF	16	idtext0018	y	#####	spk1	53.41	53.44	0.01	_
20091112_RATP_SCD_0375	15	16	a	NULL	v	NULL	B_GVf	OBJ	13	idtext0018	avoir	P#3##s##	spk1	53.45	53.48	0.01	_
20091112_RATP_SCD_0375	15	17	toujours	NULL	adv	NULL	B_GADV	MOD	16	idtext0018	toujours	#####	spk1	53.49	53.79	0.01	_
20091112_RATP_SCD_0375	15	18	un	NULL	det	NULL	B_GN	DET	19	idtext0018	un	##m#s##i	spk1	53.8	53.88	0.01	_
20091112_RATP_SCD_0375	15	19	mouvement	NULL	nc	NULL	I_GN	OBJ	16	idtext0018	mouvement	##m#s##	spk1	53.89	54.24	0.01	_
20091112_RATP_SCD_0375	15	20	social	NULL	adj	NULL	I_GN	MOD	19	idtext0018	social	##m#s##	spk1	54.25	54.7	0.01	_
20091112_RATP_SCD_0375	15	21	et	NULL	coo	NULL	B_NULL	COORD	16	idtext0018	et	#####	spk1	54.71	54.76	0.01	_
20091112_RATP_SCD_0375	15	22	il	NULL	cln	NULL	B_GN	SUJ_IMP	25	idtext0018	cln	#3#m#s##	spk1	54.77	54.85	0.01	_
20091112_RATP_SCD_0375	15	23	y	NULL	clo	NULL	B_GN	AFF	25	idtext0018	y	#####	spk1	54.86	54.91	0.01	_
20091112_RATP_SCD_0375	15	24	est	NULL	v	NULL	B_GVf	AUX	25	idtext0018	être	P#3##s##	spk1	54.92	54.98	0.01	_
20091112_RATP_SCD_0375	15	25	prévu	NULL	vppart	NULL	I_GVf	DEP_COORD	21	idtext0018	prévoir	K##m#s##	spk1	54.99	55.29	0.01	_
20091112_RATP_SCD_0375	15	26	trois	NULL	adj	NULL	B_GN	MOD	27	idtext0018	trois	#####	spk1	55.3	55.53	0.01	_
20091112_RATP_SCD_0375	15	27	trains	NULL	nc	NULL	I_GN	ATS	25	idtext0018	train	##m#p##	spk1	55.54	55.76	0.01	_
20091112_RATP_SCD_0375	15	28	que	NULL	csu	NULL	B_NULL	OBJ	27	idtext0018	que	#####	spk1	55.77	56.02	0.01	_
20091112_RATP_SCD_0375	15	29	quatre	NULL	nc	NULL	B_GN	OBJ	28	idtext0018	quatre	##m###	spk1	56.03	57.11	0.04	_
20091112_RATP_SCD_0375	15	30	actuellement	NULL	adv	NULL	B_GADV	NOLINK	0	idtext0019	actuellement	#####	spk1	57.15	58.42	?	_

20091112_RATP_SCD_0375	16	1	trois	NULL	adj	NULL	B_GADJ	NOLINK	0	idtext0020	trois	#####	spk2	58.46	58.57	0.01	_
20091112_RATP_SCD_0375	16	2	sur	NULL	prep	NULL	B_NULL	ROOT	0	idtext0020	sur	#####	spk2	58.58	58.76	0.01	_
20091112_RATP_SCD_0375	16	3	quatre	NULL	adj	NULL	B_GADJ	OBJ	2	idtext0020	quatre	#####	spk2	58.77	59.29	?	_

20091112_RATP_SCD_0375	17	1	oui	NULL	adv	NULL	B_GADV	NOLINK	0	idtext0021	oui	#####	spk1	59.43	59.68	?	//

20091112_RATP_SCD_0375	18	1	oui	NULL	adv	NULL	B_GADV	NOLINK	0	idtext0022	oui	#####	spk2	59.73	59.92	0.01	_
20091112_RATP_SCD_0375	18	2	c'	NULL	cln	NULL	B_GN	SUJ_IMP	3	idtext0022	ce	###s##	spk2	59.93	59.95	0.01	_
20091112_RATP_SCD_0375	18	3	est	NULL	v	NULL	B_GVf	ROOT	0	idtext0022	être	P#3##s##	spk2	59.96	60.05	0.01	_
20091112_RATP_SCD_0375	18	4	justement	NULL	adv	NULL	B_GADV	MOD	3	idtext0022	justement	#####	spk2	60.06	60.36	0.01	_
20091112_RATP_SCD_0375	18	5	parce+qu'	NULL	csu	NULL	B_NULL	MOD	3	idtext0022	parce+qu'	#####	spk2	60.37	60.51	0.01	_
20091112_RATP_SCD_0375	18	6	il	NULL	cln	NULL	B_GN	SUJ_IMP	8	idtext0022	cln	#3#m#s##	spk2	60.52	60.57	0.01	_
20091112_RATP_SCD_0375	18	7	y	NULL	clo	NULL	B_GN	AFF	8	idtext0022	y	#####	spk2	60.58	60.61	0.01	_
20091112_RATP_SCD_0375	18	8	a	NULL	v	NULL	B_GVf	OBJ	5	idtext0022	avoir	P#3##s##	spk2	60.62	60.64	0.01	_
20091112_RATP_SCD_0375	18	9	un	NULL	det	NULL	B_GN	DET	10	idtext0022	un	##m#s##i	spk2	60.65	60.68	0.01	_
20091112_RATP_SCD_0375	18	10	mouvement	NULL	nc	NULL	I_GN	OBJ	8	idtext0022	mouvement	##m#s##	spk2	60.69	61.04	0.01	_
20091112_RATP_SCD_0375	18	11	social	NULL	adj	NULL	I_GP	MOD	10	idtext0022	social	##m#s##	spk2	61.05	61.38	0.01	_
20091112_RATP_SCD_0375	18	12	c'	NULL	cln	NULL	B_GN	SUJ_IMP	13	idtext0022	ce	###s##	spk2	61.39	61.42	0.01	_
20091112_RATP_SCD_0375	18	13	est	NULL	v	NULL	B_GVf	ROOT	0	idtext0022	être	P#3##s##	spk2	61.43	61.47	0.01	_
20091112_RATP_SCD_0375	18	14	pour	NULL	prep	NULL	B_GP	ATS	13	idtext0022	pour	#####	spk2	61.48	61.62	0.01	_
20091112_RATP_SCD_0375	18	15	ça	NULL	pro	NULL	I_GP	OBJ	14	idtext0022	ça	#####	spk2	61.63	61.71	0.01	_
20091112_RATP_SCD_0375	18	16	que	NULL	csu	NULL	B_NULL	OBJ	15	idtext0022	que	#####	spk2	61.72	61.74	0.01	_
20091112_RATP_SCD_0375	18	17	je	NULL	cln	NULL	B_GN	SUJ	18	idtext0022	cln	#1##s##	spk2	61.75	61.77	0.01	_
20091112_RATP_SCD_0375	18	18	voulais	NULL	v	NULL	B_GVf	OBJ	16	idtext0022	vouloir	I#12##s##	spk2	61.78	61.94	0.01	_
20091112_RATP_SCD_0375	18	19	connaître	NULL	vinf	NULL	I_GVf	OBJ	18	idtext0022	connaître	W#####	spk2	61.95	62.22	0.01	_
20091112_RATP_SCD_0375	18	20	les	NULL	det	NULL	B_GN	DET	21	idtext0022	le	###p##d	spk2	62.23	62.4	0.01	_
20091112_RATP_SCD_0375	18	21	horaires	NULL	nc	NULL	I_GN	OBJ	19	idtext0022	horaire	##m#p##	spk2	62.41	62.7	?	//

20091112_RATP_SCD_0375	19	1	oui	DISF_R	adv	NULL	NULL	NOLINK	0	idtext0023	oui	#####	spk1	62.76	62.92	0.01	_
20091112_RATP_SCD_0375	19	2	oui	DISF_R	adv	NULL	NULL	NOLINK	0	idtext0023	oui	#####	spk1	62.93	63.05	0.01	_
20091112_RATP_SCD_0375	19	3	oui	NULL	adv	NULL	B_GADV	NOLINK	0	idtext0023	oui	#####	spk1	63.06	63.45	0.01	_
20091112_RATP_SCD_0375	19	4	je	NULL	cln	NULL	B_GN	SUJ	5	idtext0023	cln	#1##s##	spk1	63.46	63.69	0.01	_
20091112_RATP_SCD_0375	19	5	comprends	NULL	v	NULL	B_GVf	ROOT	0	idtext0023	comprendre	P#12##s##	spk1	63.7	64.1	0.01	_
20091112_RATP_SCD_0375	19	6	tout+à+fait	NULL	adv	NULL	B_GADV	NOLINK	0	idtext0023	tout+à+fait	#####	spk1	64.11	64.62	0.01	_
20091112_RATP_SCD_0375	19	7	mais	NULL	coo	NULL	B_NULL	NOLINK	0	idtext0023	mais	#####	spk1	64.63	64.75	0.01	_
20091112_RATP_SCD_0375	19	8	là	NULL	adv	NULL	B_GADV	NOLINK	0	idtext0023	là	#####	spk1	64.76	64.92	0.01	_
20091112_RATP_SCD_0375	19	9	du+fait+qu'	NULL	csu	NULL	B_NULL	MOD	19	idtext0023	du+fait+qu'	#####	spk1	64.93	65.24	0.01	_
20091112_RATP_SCD_0375	19	10	il	NULL	cln	NULL	B_GN	SUJ_IMP	12	idtext0023	cln	#3#m#s##	spk1	65.25	65.3	0.01	_
20091112_RATP_SCD_0375	19	11	y	NULL	clo	NULL	B_GN	AFF	12	idtext0023	y	#####	spk1	65.31	65.33	0.01	_
20091112_RATP_SCD_0375	19	12	ait	NULL	v	NULL	B_GVf	OBJ	9	idtext0023	avoir	S#3##s##	spk1	65.34	65.38	0.01	_
20091112_RATP_SCD_0375	19	13	un	NULL	det	NULL	B_GN	DET	14	idtext0023	un	##m#s##i	spk1	65.39	65.47	0.01	_
20091112_RATP_SCD_0375	19	14	mouvement	NULL	nc	NULL	I_GN	OBJ	12	idtext0023	mouvement	##m#s##	spk1	65.48	65.8	0.01	_
20091112_RATP_SCD_0375	19	15	social	NULL	adj	NULL	I_GN	MOD	14	idtext0023	social	##m#s##	spk1	65.81	66.51	0.01	_
20091112_RATP_SCD_0375	19	16	il	NULL	cln	NULL	B_GN	SUJ	19	idtext0024	cln	#3#m#s##	spk1	66.52	66.63	0.01	_
20091112_RATP_SCD_0375	19	17	n'	NULL	clneg	NULL	B_NULL	MOD	19	idtext0024	n'	#####	spk1	66.64	66.66	0.01	_
20091112_RATP_SCD_0375	19	18	y	NULL	clo	NULL	B_GN	AFF	19	idtext0024	y	#####	spk1	66.67	66.73	0.01	_
20091112_RATP_SCD_0375	19	19	a	NULL	v	NULL	B_GVfn	ROOT	0	idtext0024	avoir	P#3##s##	spk1	66.74	66.77	0.01	_
20091112_RATP_SCD_0375	19	20	pas	NULL	advneg	NULL	I_GVfn	MOD	19	idtext0024	pas	#####	spk1	66.78	66.95	0.01	_
20091112_RATP_SCD_0375	19	21	d'	NULL	prep	NULL	B_GP	OBJ	19	idtext0024	d'	#####	spk1	66.96	67.01	0.01	_
20091112_RATP_SCD_0375	19	22	horaires	NULL	nc	NULL	I_GP	OBJ	21	idtext0024	horaire	##m#p##	spk1	67.02	67.23	0.01	_
20091112_RATP_SCD_0375	19	23	précis	NULL	adj	NULL	I_GP	MOD	22	idtext0024	précis	##m###	spk1	67.24	68.64	0.04	//
20091112_RATP_SCD_0375	19	24	vous	NULL	cln	NULL	B_GN	SUJ	25	idtext0025	cln	#2##p##	spk1	68.68	68.73	0.01	_
20091112_RATP_SCD_0375	19	25	voyez	NULL	v	NULL	B_GVf	ROOT	0	idtext0025	voir	P#2##p##	spk1	68.74	69.22	0.01	_
20091112_RATP_SCD_0375	19	26	le	NULL	det	NULL	B_GN	DET	27	idtext0025	le	##m#s##d	spk1	69.23	69.34	0.01	_
20091112_RATP_SCD_0375	19	27	seul	NULL	adj	NULL	I_GN	OBJ	25	idtext0025	seul	##m#s##	spk1	69.35	69.56	0.01	_
20091112_RATP_SCD_0375	19	28	la	NULL	det	NULL	B_GN	DET	29	idtext0025	le	##m#s##d	spk1	69.57	69.77	0.01	_
20091112_RATP_SCD_0375	19	29	ligne	NULL	nc	NULL	I_GN	SUJ	31	idtext0025	ligne	##f#s##	spk1	69.78	69.95	0.01	_
20091112_RATP_SCD_0375	19	30	est	NULL	v	NULL	B_GVf	AUX	31	idtext0025	être	P#3##s##	spk1	69.96	70.01	0.01	_
20091112_RATP_SCD_0375	19	31	perturbée	NULL	vppart	NULL	I_GVf	ROOT	0	idtext0025	perturber	K##f#s##	spk1	70.02	71.48	?	//

20091112_RATP_SCD_0375	20	1	mais	NULL	coo	NULL	B_NULL	ROOT	0	idtext0026	mais	#####	spk2	71.52	71.58	0.01	_
20091112_RATP_SCD_0375	20	2	c'	NULL	cln	NULL	B_GN	SUJ_IMP	3	idtext0026	ce	###s##	spk2	71.59	71.68	0.01	_
20091112_RATP_SCD_0375	20	3	est	NULL	v	NULL	B_GVf	DEP_COORD	1	idtext0026	être	P#3##s##	spk2	71.69	71.71	0.01	_
20091112_RATP_SCD_0375	20	4	trois	NULL	adj	NULL	B_GADJ	ATS	3	idtext0026	trois	#####	spk2	71.72	72.02	0.01	_
20091112_RATP_SCD_0375	20	5	sur	NULL	prep	NULL	B_NULL	DEP	4	idtext0026	sur	#####	spk2	72.03	72.2	0.01	_
20091112_RATP_SCD_0375	20	6	quatre	NULL	adj	NULL	B_GADJ	OBJ	5	idtext0026	quatre	#####	spk2	72.21	72.76	?	_

20091112_RATP_SCD_0375	21	1	c'	NULL	cln	NULL	B_GN	SUJ_IMP	2	idtext0027	ce	###s##	spk1	72.84	72.86	0.01	_
20091112_RATP_SCD_0375	21	2	est	NULL	v	NULL	B_GVf	ROOT	0	idtext0027	être	P#3##s##	spk1	72.87	72.94	0.01	_
20091112_RATP_SCD_0375	21	3	trois	NULL	adj	NULL	B_GADJ	ATS	2	idtext0027	trois	#####	spk1	72.95	73.13	0.01	_
20091112_RATP_SCD_0375	21	4	sur	NULL	prep	NULL	B_NULL	DEP	3	idtext0027	sur	#####	spk1	73.14	73.34	0.01	_
20091112_RATP_SCD_0375	21	5	quatre	NULL	adj	NULL	B_GADJ	OBJ	4	idtext0027	quatre	#####	spk1	73.35	73.58	0.01	/
20091112_RATP_SCD_0375	21	6	qu'	NULL	prorel	NULL	B_NULL	SUJ	8	idtext0027	qu'	#####	spk1	73.59	73.66	0.01	_
20091112_RATP_SCD_0375	21	7	est	NULL	v	NULL	B_GVf	AUX	8	idtext0027	être	P#3##s##	spk1	73.67	73.7	0.01	_
20091112_RATP_SCD_0375	21	8	prévu	NULL	vppart	NULL	I_GVf	ROOT	0	idtext0027	prévoir	K##m#s##	spk1	73.71	74.8	?	//

20091112_RATP_SCD_0375	22	1	bon	DISF_M	pres	NULL	NULL	NOLINK	0	idtext0028	bon	#####	spk2	74.84	75.06	0.01	_
20091112_RATP_SCD_0375	22	2	et	NULL	coo	NULL	B_NULL	ROOT	0	idtext0028	et	#####	spk2	75.07	75.15	0.01	_
20091112_RATP_SCD_0375	22	3	cet	NULL	det	NULL	B_GN	DET	4	idtext0028	cet	##m#s##e	spk2	75.16	75.55	0.01	_
20091112_RATP_SCD_0375	22	4	après-midi	NULL	nc	NULL	I_GN	DEP_COORD	2	idtext0028	après-midi	###s##	spk2	75.56	76.02	0.01	_
20091112_RATP_SCD_0375	22	5	aussi	NULL	adv	NULL	B_GADV	MOD	4	idtext0028	aussi	#####	spk2	76.03	76.51	?	//

20091112_RATP_SCD_0375	23	1	exactement	NULL	adv	NULL	B_GADV	NOLINK	0	idtext0029	exactement	#####	spk1	77.01	77.57	0.01	_
20091112_RATP_SCD_0375	23	2	parce+que	NULL	csu	NULL	B_NULL	ROOT	0	idtext0029	parce+que	#####	spk1	77.58	77.86	0.01	_
20091112_RATP_SCD_0375	23	3	pour	NULL	prep	NULL	B_GP	MOD	9	idtext0029	pour	#####	spk1	77.87	78.02	0.01	_
20091112_RATP_SCD_0375	23	4	l'	NULL	det	NULL	I_GP	DET	5	idtext0029	le	###s##d	spk1	78.03	78.07	0.01	_
20091112_RATP_SCD_0375	23	5	instant	NULL	nc	NULL	I_GP	OBJ	3	idtext0029	instant	##m#s##	spk1	78.08	78.32	0.01	_
20091112_RATP_SCD_0375	23	6	il	NULL	cln	NULL	B_GN	SUJ_IMP	9	idtext0029	cln	#3#m#s##	spk1	78.33	78.41	0.01	_
20091112_RATP_SCD_0375	23	7	n'	NULL	clneg	NULL	B_NULL	NOLINK	0	idtext0029	n'	#####	spk1	78.42	78.44	0.01	_
20091112_RATP_SCD_0375	23	8	y	NULL	clo	NULL	B_GN	AFF	9	idtext0029	y	#####	spk1	78.45	78.48	0.01	_
20091112_RATP_SCD_0375	23	9	a	NULL	v	NULL	B_GVfn	OBJ	2	idtext0029	avoir	P#3##s##	spk1	78.49	78.52	0.01	_
20091112_RATP_SCD_0375	23	10	pas	NULL	advneg	NULL	I_GVfn	MOD	9	idtext0029	pas	#####	spk1	78.53	78.68	0.01	_
20091112_RATP_SCD_0375	23	11	de	NULL	det	NULL	B_GN	DET	12	idtext0029	de	###p##i	spk1	78.69	78.73	0.01	_
20091112_RATP_SCD_0375	23	12	changement	NULL	nc	NULL	I_GN	OBJ	9	idtext0029	changement	##m#s##	spk1	78.74	79.9	?	//

20091112_RATP_SCD_0375	24	1	bon	DISF_M	pres	NULL	NULL	NOLINK	0	idtext0030	bon	#####	spk2	79.94	80.03	?	_

20091112_RATP_SCD_0375	25	1	à+moins+que	NULL	csu	NULL	B_NULL	ROOT	0	idtext0031	à+moins+que	#####	spk1	80.07	81.12	0.01	/
20091112_RATP_SCD_0375	25	2	que	DISF_R	csu	NULL	NULL	NOLINK	0	idtext0031	que	#####	spk1	81.13	81.27	0.01	_
20091112_RATP_SCD_0375	25	3	ça	NULL	pro	NULL	B_GN	SUJ_IMP	4	idtext0031	ça	#####	spk1	81.28	81.44	0.01	_
20091112_RATP_SCD_0375	25	4	puisse	NULL	v	NULL	B_GVf	OBJ	1	idtext0031	pouvoir	S#1##s##	spk1	81.45	81.67	0.01	_
20091112_RATP_SCD_0375	25	5	se	NULL	clr	NULL	B_GVi	AFF	6	idtext0031	se	#####	spk1	81.68	81.77	0.01	_
20091112_RATP_SCD_0375	25	6	débloquer	NULL	vinf	NULL	I_GVi	OBJ	4	idtext0031	débloquer	W#####	spk1	81.78	82.24	0.01	_
20091112_RATP_SCD_0375	25	7	d'	NULL	prep	NULL	B_NULL	NOLINK	0	idtext0031	d'	#####	spk1	82.25	82.31	0.01	_
20091112_RATP_SCD_0375	25	8	ici	NULL	adv	NULL	B_GADV	MOD	9	idtext0031	ici	#####	spk1	82.32	82.54	0.01	_
20091112_RATP_SCD_0375	25	9	là	NULL	adv	NULL	I_GADV	ROOT	0	idtext0031	là	#####	spk1	82.55	82.67	0.01	_
20091112_RATP_SCD_0375	25	10	hein	DISF_M	pres	NULL	NULL	NOLINK	0	idtext0031	hein	#####	spk1	82.68	83.48	?	//

20091112_RATP_SCD_0375	26	1	oui	NULL	adv	NULL	B_GADV	NOLINK	0	idtext0032	oui	#####	spk2	83.62	84.08	?	//

20091112_RATP_SCD_0375	27	1	mais	NULL	coo	NULL	B_NULL	ROOT	0	idtext0033	mais	#####	spk1	84.13	84.28	0.01	_
20091112_RATP_SCD_0375	27	2	là	NULL	adv	NULL	B_GADV	MOD	3	idtext0033	là	#####	spk1	84.29	84.38	0.01	_
20091112_RATP_SCD_0375	27	3	actuellement	NULL	adv	NULL	I_GADV	MOD	5	idtext0033	actuellement	#####	spk1	84.39	84.97	0.01	_
20091112_RATP_SCD_0375	27	4	c'	NULL	cln	NULL	B_GN	SUJ_IMP	5	idtext0033	ce	###s##	spk1	84.98	85.05	0.01	_
20091112_RATP_SCD_0375	27	5	est	NULL	v	NULL	B_GVf	DEP_COORD	1	idtext0033	être	P#3##s##	spk1	85.06	85.11	0.01	_
20091112_RATP_SCD_0375	27	6	toujours	NULL	adv	NULL	B_GN	MOD	7	idtext0033	toujours	#####	spk1	85.12	85.38	0.01	_
20091112_RATP_SCD_0375	27	7	trois	NULL	adj	NULL	I_GN	ATS	5	idtext0033	trois	#####	spk1	85.39	85.62	0.01	_
20091112_RATP_SCD_0375	27	8	trains	NULL	nc	NULL	I_GN	ATS	5	idtext0033	train	##m#p##	spk1	85.63	85.8	0.01	_
20091112_RATP_SCD_0375	27	9	sur	NULL	prep	NULL	B_NULL	DEP	8	idtext0033	sur	#####	spk1	85.81	86.02	0.01	_
20091112_RATP_SCD_0375	27	10	quatre	NULL	adj	NULL	B_GADJ	OBJ	9	idtext0033	quatre	#####	spk1	86.03	86.23	0.01	_
20091112_RATP_SCD_0375	27	11	qui	NULL	prorel	NULL	B_NULL	SUJ	12	idtext0033	qui	#####	spk1	86.24	86.34	0.01	_
20091112_RATP_SCD_0375	27	12	circulent	NULL	v	NULL	B_GVf	MOD_REL	8	idtext0033	circuler	PS#3##p##	spk1	86.35	87.34	?	_

20091112_RATP_SCD_0375	28	1	OK	NULL	adv	NULL	B_GADV	NOLINK	0	idtext0034	ok	#####	spk2	87.38	88.17	0.10	_
20091112_RATP_SCD_0375	28	2	bon+bah	DISF_M	pres	NULL	NULL	NOLINK	0	idtext0035	bon+bah	#####	spk2	88.27	88.53	0.01	_
20091112_RATP_SCD_0375	28	3	écoutez	DISF_M	pres	NULL	NULL	NOLINK	0	idtext0035	écoutez	#####	spk2	88.54	89.26	0.01	_
20091112_RATP_SCD_0375	28	4	euh	DISF_M	pres	NULL	NULL	NOLINK	0	idtext0035	euh	#####	spk2	89.27	89.48	0.01	_
20091112_RATP_SCD_0375	28	5	merci	NULL	adv	NULL	B_GADV	MOD	6	idtext0035	merci	#####	spk2	89.49	89.8	0.01	_
20091112_RATP_SCD_0375	28	6	beaucoup	NULL	adv	NULL	I_GADV	ROOT	0	idtext0035	beaucoup	#####	spk2	89.81	90.13	?	//

20091112_RATP_SCD_0375	29	1	je	NULL	cln	NULL	B_GN	SUJ	4	idtext0036	cln	#1##s##	spk1	90.18	90.27	0.01	_
20091112_RATP_SCD_0375	29	2	vous	NULL	clo	NULL	B_GN	OBJ	4	idtext0036	cln	#2##p##	spk1	90.28	90.46	0.01	_
20091112_RATP_SCD_0375	29	3	en	NULL	clo	NULL	B_GN	DE_OBJ	4	idtext0036	en	#####	spk1	90.47	90.56	0.01	_
20091112_RATP_SCD_0375	29	4	prie	NULL	v	NULL	B_GVf	ROOT	0	idtext0036	prier	PS#13##s##	spk1	90.57	90.79	0.01	_
20091112_RATP_SCD_0375	29	5	bonne	NULL	adj	NULL	B_GN	MOD	6	idtext0036	bon	##f#s##	spk1	90.8	90.96	0.01	/
20091112_RATP_SCD_0375	29	6	journée	NULL	nc	NULL	I_GN	ROOT	0	idtext0036	journée	##f#s##	spk1	90.97	91.24	0.01	_
20091112_RATP_SCD_0375	29	7	madame	NULL	nc	NULL	B_GN	NOLINK	0	idtext0036	Monsieur	##f#s##	spk1	91.25	91.59	0.01	_
20091112_RATP_SCD_0375	29	8	au+revoir	NULL	adv	NULL	B_GADV	NOLINK	0	idtext0036	au+revoir	#####	spk1	91.6	92.08	?	//

20091112_RATP_SCD_0375	30	1	bonne	NULL	adj	NULL	B_GN	MOD	2	idtext0037	bon	##f#s##	spk2	92.18	92.27	0.01	_
20091112_RATP_SCD_0375	30	2	journée	NULL	nc	NULL	I_GN	ROOT	0	idtext0037	journée	##f#s##	spk2	92.28	92.42	0.01	_
20091112_RATP_SCD_0375	30	3	également	NULL	adv	NULL	B_GADV	MOD	4	idtext0037	également	#####	spk2	92.43	92.87	0.01	_
20091112_RATP_SCD_0375	30	4	au+revoir	NULL	adv	NULL	I_GADV	ROOT	0	idtext0037	au+revoir	#####	spk2	92.88	93.11	0.01	_
20091112_RATP_SCD_0375	30	5	madame	NULL	nc	NULL	B_GN	NOLINK	0	idtext0037	Monsieur	##f#s##	spk2	93.12	111.89	?	//

