20091112_RATP_SCD_1346	1	1	NNAAMMEE	NULL	np	B_HU	B_GN	ROOT	0	idtext0000	ANONYM	NULL	spk1	3.82	4.19	0.09	_
20091112_RATP_SCD_1346	1	2	va	NULL	v	NULL	B_GVf	ROOT	0	idtext0001	aller	P#3##s##	spk1	4.28	4.34	0.01	_
20091112_RATP_SCD_1346	1	3	vous	NULL	clo	NULL	B_GN	A_OBJ	4	idtext0001	cln	#2##p##	spk1	4.35	4.4	0.01	_
20091112_RATP_SCD_1346	1	4	répondre	NULL	vinf	NULL	B_GVi	OBJ	2	idtext0001	répondre	W#####	spk1	4.41	5.12	?	//

20091112_RATP_SCD_1346	2	1	NNAAMMEE	NULL	np	B_HU	B_GN	ROOT	0	idtext0002	ANONYM	NULL	spk2	5.17	5.51	0.04	_
20091112_RATP_SCD_1346	2	2	bonjour	NULL	adv	NULL	B_GADV	NOLINK	0	idtext0003	bonjour	#####	spk2	5.55	6.14	?	//

20091112_RATP_SCD_1346	3	1	oui	NULL	adv	NULL	B_GADV	MOD	2	idtext0004	oui	#####	spk3	6.86	7.05	0.01	_
20091112_RATP_SCD_1346	3	2	bonjour	NULL	adv	NULL	I_GADV	ROOT	0	idtext0004	bonjour	#####	spk3	7.06	7.83	?	//

20091112_RATP_SCD_1346	4	1	euh	DISF_M	pres	NULL	NULL	NOLINK	0	idtext0005	euh	#####	spk3	8.43	8.65	0.01	_
20091112_RATP_SCD_1346	4	2	je	NULL	cln	NULL	B_GN	SUJ	3	idtext0005	cln	#1##s##	spk3	8.66	8.73	0.01	_
20091112_RATP_SCD_1346	4	3	voudrais	NULL	v	NULL	B_GVf	ROOT	0	idtext0005	vouloir	C#12##s##	spk3	8.74	8.88	0.01	_
20091112_RATP_SCD_1346	4	4	un	NULL	det	NULL	B_GN	DET	5	idtext0005	un	##m#s##i	spk3	8.89	8.91	0.01	_
20091112_RATP_SCD_1346	4	5	renseignement	NULL	nc	NULL	I_GN	OBJ	3	idtext0005	renseignement	##m#s##	spk3	8.92	9.67	0.01	_
20091112_RATP_SCD_1346	4	6	s'il+vous+plaît	NULL	adv	NULL	B_GADV	NOLINK	0	idtext0005	s'il+vous+plaît	#####	spk3	9.68	10.29	?	//

20091112_RATP_SCD_1346	5	1	oui	NULL	adv	NULL	B_GADV	NOLINK	0	idtext0006	oui	#####	spk2	10.45	10.78	?	//

20091112_RATP_SCD_1346	6	1	euh	DISF_M	pres	NULL	NULL	NOLINK	0	idtext0007	euh	#####	spk3	10.85	11.01	0.01	_
20091112_RATP_SCD_1346	6	2	j'	NULL	cln	NULL	B_GN	SUJ	4	idtext0007	cln	#1##s##	spk3	11.02	11.16	0.01	_
20091112_RATP_SCD_1346	6	3	ai	NULL	v	NULL	B_GVf	AUX	4	idtext0007	avoir	P#1##s##	spk3	11.17	11.24	0.01	_
20091112_RATP_SCD_1346	6	4	écrit	NULL	vppart	NULL	I_GVf	ROOT	0	idtext0007	écrire	P#3##s##	spk3	11.25	11.67	0.01	_
20091112_RATP_SCD_1346	6	5	euh	DISF_M	pres	NULL	NULL	NOLINK	0	idtext0007	euh	#####	spk3	11.68	11.91	0.01	_
20091112_RATP_SCD_1346	6	6	au	NULL	prep	NULL	B_GP	A_OBJ	4	idtext0007	au	#####	spk3	11.92	12.02	0.01	_
20091112_RATP_SCD_1346	6	7	service	NULL	nc	NULL	I_GP	OBJ	6	idtext0007	service	##m#s##	spk3	12.03	12.48	0.01	_
20091112_RATP_SCD_1346	6	8	après	NULL	prep	NULL	B_GP	MOD	7	idtext0007	après	#####	spk3	12.49	12.75	0.01	_
20091112_RATP_SCD_1346	6	9	verbalisation	NULL	nc	NULL	I_GP	OBJ	8	idtext0007	verbalisation	##f#s##	spk3	12.76	13.67	0.01	_
20091112_RATP_SCD_1346	6	10	pour	NULL	prep	NULL	B_NULL	MOD	4	idtext0007	pour	#####	spk3	13.68	14.0	0.01	_
20091112_RATP_SCD_1346	6	11	euh	DISF_M	pres	NULL	NULL	NOLINK	0	idtext0007	euh	#####	spk3	14.01	14.15	0.01	_
20091112_RATP_SCD_1346	6	12	hum	DISF_M	pres	NULL	NULL	NOLINK	0	idtext0007	hum	#####	spk3	14.16	14.6	0.01	_
20091112_RATP_SCD_1346	6	13	pour	NULL	prep	NULL	B_NULL	MOD	4	idtext0007	pour	#####	spk3	14.61	15.01	0.01	_
20091112_RATP_SCD_1346	6	14	euh	DISF_M	pres	NULL	NULL	NOLINK	0	idtext0007	euh	#####	spk3	15.02	15.16	0.01	_
20091112_RATP_SCD_1346	6	15	donc	NULL	coo	NULL	B_NULL	COORD	4	idtext0007	donc	#####	spk3	15.17	15.45	0.01	//
20091112_RATP_SCD_1346	6	16	euh	DISF_M	pres	NULL	NULL	NOLINK	0	idtext0007	euh	#####	spk3	15.46	15.9	0.01	_
20091112_RATP_SCD_1346	6	17	une	NULL	det	NULL	B_GN	DET	18	idtext0007	un	##f#s##i	spk3	15.91	16.17	0.01	_
20091112_RATP_SCD_1346	6	18	réclamation	NULL	nc	NULL	I_GN	DEP_COORD	15	idtext0007	réclamation	##f#s##	spk3	16.18	16.87	0.01	_
20091112_RATP_SCD_1346	6	19	concernant	NULL	vprespart	NULL	B_GVf	MOD	18	idtext0007	concerner	G#####	spk3	16.88	17.57	0.01	_
20091112_RATP_SCD_1346	6	20	un	DISF_R	det	NULL	NULL	NOLINK	0	idtext0007	un	##m#s##i	spk3	17.58	17.64	0.01	_
20091112_RATP_SCD_1346	6	21	un	NULL	det	NULL	B_GN	DET	22	idtext0007	un	##m#s##i	spk3	17.65	17.71	0.01	_
20091112_RATP_SCD_1346	6	22	PV	NULL	nc	NULL	I_GN	OBJ	19	idtext0007	PV	#####	spk3	17.72	18.1	0.01	_
20091112_RATP_SCD_1346	6	23	procès-verbal	NULL	nc	NULL	B_GN	MOD	22	idtext0007	procès-verbal	##m#s##	spk3	18.11	18.89	0.01	_
20091112_RATP_SCD_1346	6	24	d'	NULL	prep	NULL	B_GP	DEP	23	idtext0007	d'	#####	spk3	18.9	18.93	0.01	_
20091112_RATP_SCD_1346	6	25	infraction	NULL	nc	NULL	I_GP	OBJ	24	idtext0007	infraction	##f#s##	spk3	18.94	19.62	?	//

20091112_RATP_SCD_1346	7	1	oui	NULL	adv	NULL	B_GADV	NOLINK	0	idtext0008	oui	#####	spk2	19.74	20.3	?	//

20091112_RATP_SCD_1346	8	1	euh	DISF_M	pres	NULL	NULL	NOLINK	0	idtext0009	euh	#####	spk3	20.42	20.95	0.01	/
20091112_RATP_SCD_1346	8	2	ça	NULL	pro	NULL	B_GN	SUJ_IMP	5	idtext0009	ça	#####	spk3	20.96	21.15	0.01	_
20091112_RATP_SCD_1346	8	3	c'	NULL	cln	NULL	B_GN	SUJ_IMP	5	idtext0009	ce	###s##	spk3	21.16	21.28	0.01	_
20091112_RATP_SCD_1346	8	4	est	NULL	v	NULL	B_GVf	AUX	5	idtext0009	être	P#3##s##	spk3	21.29	21.35	0.01	_
20091112_RATP_SCD_1346	8	5	passé	NULL	vppart	NULL	I_GVf	ROOT	0	idtext0009	passer	K##m#s##	spk3	21.36	21.7	0.01	_
20091112_RATP_SCD_1346	8	6	donc	NULL	coo	NULL	B_NULL	COORD	5	idtext0009	donc	#####	spk3	21.71	21.93	0.01	_
20091112_RATP_SCD_1346	8	7	le	NULL	det	NULL	B_GN	DET	9	idtext0009	le	##m#s##d	spk3	21.94	22.05	0.01	_
20091112_RATP_SCD_1346	8	8	vingt-neuf	NULL	det	B_D	I_GN	DET	9	idtext0009	vingt-neuf	#####	spk3	22.06	22.53	0.01	_
20091112_RATP_SCD_1346	8	9	octobre	NULL	nc	I_D	I_GN	DEP_COORD	6	idtext0009	octobre	##m#s##	spk3	22.54	23.18	0.01	_
20091112_RATP_SCD_1346	8	10	et+donc	NULL	coo	NULL	B_NULL	ROOT	0	idtext0009	et+donc	#####	spk3	23.19	23.44	0.01	_
20091112_RATP_SCD_1346	8	11	j'	NULL	cln	NULL	B_GN	SUJ	13	idtext0009	cln	#1##s##	spk3	23.45	23.54	0.01	_
20091112_RATP_SCD_1346	8	12	ai	NULL	v	NULL	B_GVf	AUX	13	idtext0009	avoir	P#1##s##	spk3	23.55	23.6	0.01	_
20091112_RATP_SCD_1346	8	13	dû	NULL	vppart	NULL	I_GVf	DEP_COORD	10	idtext0009	devoir	K##m#s##	spk3	23.61	23.7	0.01	_
20091112_RATP_SCD_1346	8	14	écrire	NULL	vinf	NULL	B_GVi	OBJ	13	idtext0009	écrire	W#####	spk3	23.71	24.86	0.01	_
20091112_RATP_SCD_1346	8	15	euh	DISF_M	pres	NULL	NULL	NOLINK	0	idtext0009	euh	#####	spk3	24.87	25.0	0.01	_
20091112_RATP_SCD_1346	8	16	début	NULL	nc	NULL	B_GN	ROOT	0	idtext0010	début	##m#s##	spk3	25.01	25.25	0.01	_
20091112_RATP_SCD_1346	8	17	novembre	NULL	nc	NULL	I_GN	MOD	16	idtext0010	novembre	##m#s##	spk3	25.26	25.62	0.01	_
20091112_RATP_SCD_1346	8	18	il	NULL	cln	NULL	B_GN	SUJ_IMP	20	idtext0010	cln	#3#m#s##	spk3	25.63	25.68	0.01	_
20091112_RATP_SCD_1346	8	19	y	NULL	clo	NULL	B_GN	AFF	20	idtext0010	y	#####	spk3	25.69	25.71	0.01	_
20091112_RATP_SCD_1346	8	20	a	NULL	v	NULL	B_GVf	ROOT	0	idtext0010	avoir	P#3##s##	spk3	25.72	25.74	0.01	_
20091112_RATP_SCD_1346	8	21	une	NULL	det	NULL	B_GN	DET	22	idtext0010	un	##f#s##i	spk3	25.75	25.81	0.01	_
20091112_RATP_SCD_1346	8	22	dizaine	NULL	nc	NULL	I_GN	OBJ	20	idtext0010	dizaine	##f#s##	spk3	25.82	26.12	0.01	_
20091112_RATP_SCD_1346	8	23	de	NULL	prep	NULL	B_GP	DEP	22	idtext0010	de	#####	spk3	26.13	26.17	0.01	_
20091112_RATP_SCD_1346	8	24	jours	NULL	nc	NULL	I_GP	OBJ	23	idtext0010	jour	##m#p##	spk3	26.18	26.28	0.01	_
20091112_RATP_SCD_1346	8	25	je	DISF_R	cln	NULL	NULL	NOLINK	0	idtext0010	cln	#1##s##	spk3	26.29	26.34	0.01	_
20091112_RATP_SCD_1346	8	26	voudrais	DISF_R	v	NULL	NULL	NOLINK	0	idtext0010	vouloir	C#12##s##	spk3	26.35	26.79	0.01	_
20091112_RATP_SCD_1346	8	27	je	NULL	cln	NULL	B_GN	SUJ	28	idtext0010	cln	#1##s##	spk3	26.8	26.94	0.01	_
20091112_RATP_SCD_1346	8	28	voulais	NULL	v	NULL	B_GVf	ROOT	0	idtext0010	vouloir	I#12##s##	spk3	26.95	27.08	0.01	_
20091112_RATP_SCD_1346	8	29	savoir	NULL	vinf	NULL	I_GVf	OBJ	28	idtext0010	savoir	W#####	spk3	27.09	27.38	0.01	_
20091112_RATP_SCD_1346	8	30	au+bout+de	NULL	prep	NULL	B_GP	P_OBJ	28	idtext0010	au+bout+de	#####	spk3	27.39	27.56	0.01	_
20091112_RATP_SCD_1346	8	31	combien+de	NULL	det	NULL	I_GP	DET	32	idtext0010	combien+de	#####	spk3	27.57	27.91	0.01	_
20091112_RATP_SCD_1346	8	32	temps	NULL	nc	NULL	I_GP	OBJ	30	idtext0010	temps	##m###	spk3	27.92	28.07	0.01	_
20091112_RATP_SCD_1346	8	33	à+peu+près	NULL	adv	NULL	B_GADV	MOD	35	idtext0010	à+peu+près	#####	spk3	28.08	28.39	0.01	_
20091112_RATP_SCD_1346	8	34	on	NULL	cln	NULL	B_GN	SUJ	35	idtext0010	cln	#3##s##	spk3	28.4	28.56	0.01	_
20091112_RATP_SCD_1346	8	35	a	NULL	v	NULL	B_GVf	ROOT	0	idtext0010	avoir	P#3##s##	spk3	28.57	28.61	0.01	_
20091112_RATP_SCD_1346	8	36	une	NULL	det	NULL	B_GN	DET	37	idtext0010	un	##f#s##i	spk3	28.62	28.72	0.01	_
20091112_RATP_SCD_1346	8	37	réponse	NULL	nc	NULL	I_GN	OBJ	35	idtext0010	réponse	##f#s##	spk3	28.73	29.41	?	//

20091112_RATP_SCD_1346	9	1	ah	DISF_M	pres	NULL	NULL	NOLINK	0	idtext0011	ah	#####	spk2	31.05	31.28	0.01	_
20091112_RATP_SCD_1346	9	2	alors	NULL	adv	NULL	B_GADV	MOD	3	idtext0011	alors	#####	spk2	31.29	31.46	0.01	_
20091112_RATP_SCD_1346	9	3	là	NULL	adv	NULL	I_GADV	ROOT	0	idtext0011	là	#####	spk2	31.47	31.54	0.01	_
20091112_RATP_SCD_1346	9	4	je	NULL	cln	NULL	B_GN	SUJ	5	idtext0011	cln	#1##s##	spk2	31.55	31.72	0.01	_
20091112_RATP_SCD_1346	9	5	pourrais	NULL	v	NULL	B_GVfn	ROOT	0	idtext0011	pouvoir	C#12##s##	spk2	31.73	31.87	0.01	_
20091112_RATP_SCD_1346	9	6	pas	NULL	advneg	NULL	I_GVfn	MOD	5	idtext0011	pas	#####	spk2	31.88	31.93	0.01	_
20091112_RATP_SCD_1346	9	7	vous	NULL	clo	NULL	B_GN	A_OBJ	8	idtext0011	cln	#2##p##	spk2	31.94	32.11	0.01	_
20091112_RATP_SCD_1346	9	8	dire	NULL	vinf	NULL	B_GVi	OBJ	5	idtext0011	dire	W#####	spk2	32.12	32.4	0.01	_
20091112_RATP_SCD_1346	9	9	parce+que	NULL	csu	NULL	B_NULL	MOD	5	idtext0011	parce+que	#####	spk2	32.41	32.59	0.01	_
20091112_RATP_SCD_1346	9	10	je	NULL	cln	NULL	B_GN	SUJ	11	idtext0011	cln	#1##s##	spk2	32.6	32.64	0.01	_
20091112_RATP_SCD_1346	9	11	sais	NULL	v	NULL	B_GVfn	OBJ	9	idtext0011	savoir	P#12##s##	spk2	32.65	32.88	0.01	_
20091112_RATP_SCD_1346	9	12	pas	NULL	advneg	NULL	I_GVfn	MOD	11	idtext0011	pas	#####	spk2	32.89	32.95	0.01	_
20091112_RATP_SCD_1346	9	13	ou	NULL	coo	NULL	B_NULL	OBJ	11	idtext0011	ou	#####	spk2	32.96	32.98	0.01	//
20091112_RATP_SCD_1346	9	14	si	NULL	csu	NULL	B_NULL	DEP_COORD	13	idtext0011	si	#####	spk2	32.99	33.15	0.01	_
20091112_RATP_SCD_1346	9	15	ils	NULL	cln	NULL	B_GN	SUJ	16	idtext0011	cln	#3#m#p##	spk2	33.16	33.27	0.01	_
20091112_RATP_SCD_1346	9	16	ont	NULL	v	NULL	B_GVf	OBJ	14	idtext0011	avoir	P#3##p##	spk2	33.28	33.36	0.01	_
20091112_RATP_SCD_1346	9	17	ou	NULL	coo	NULL	B_NULL	COORD	16	idtext0011	ou	#####	spk2	33.37	34.47	0.01	_
20091112_RATP_SCD_1346	9	18	combien+de	NULL	det	NULL	B_GN	DET	19	idtext0011	combien+de	#####	spk2	34.48	34.76	0.01	_
20091112_RATP_SCD_1346	9	19	temps	NULL	nc	NULL	I_GN	MOD	21	idtext0011	temps	##m###	spk2	34.77	34.98	0.01	//
20091112_RATP_SCD_1346	9	20	ils	NULL	cln	NULL	B_GN	SUJ	21	idtext0011	cln	#3#m#p##	spk2	34.99	35.09	0.01	_
20091112_RATP_SCD_1346	9	21	mettent	NULL	v	NULL	B_GVf	DEP_COORD	17	idtext0011	mettre	PS#3##p##	spk2	35.1	35.48	0.01	_
20091112_RATP_SCD_1346	9	22	pour	NULL	prep	NULL	B_GP	MOD	21	idtext0011	pour	#####	spk2	35.49	35.78	0.01	_
20091112_RATP_SCD_1346	9	23	vous	NULL	clo	NULL	I_GP	A_OBJ	24	idtext0011	cln	#2##p##	spk2	35.79	35.88	0.01	_
20091112_RATP_SCD_1346	9	24	répondre	NULL	vinf	NULL	B_GVi	OBJ	22	idtext0011	répondre	W#####	spk2	35.89	36.92	0.01	_
20091112_RATP_SCD_1346	9	25	maintenant	NULL	adv	NULL	B_GADV	MOD	29	idtext0012	maintenant	#####	spk2	36.93	37.52	0.01	_
20091112_RATP_SCD_1346	9	26	euh	DISF_M	pres	NULL	NULL	NOLINK	0	idtext0012	euh	#####	spk2	37.53	37.56	0.01	_
20091112_RATP_SCD_1346	9	27	pff	DISF_M	pres	NULL	NULL	NOLINK	0	idtext0012	pff	#####	spk2	37.57	38.6	0.01	_
20091112_RATP_SCD_1346	9	28	il	NULL	cln	NULL	B_GN	SUJ_IMP	29	idtext0012	cln	#3#m#s##	spk2	38.61	38.99	0.01	_
20091112_RATP_SCD_1346	9	29	faudrait	NULL	v	NULL	B_GVf	OBJ	24	idtext0012	falloir	C#3##s##	spk2	39.0	39.35	0.01	_
20091112_RATP_SCD_1346	9	30	faire	NULL	vinf	NULL	I_GVf	OBJ	29	idtext0012	faire	W#####	spk2	39.36	39.61	0.01	_
20091112_RATP_SCD_1346	9	31	vous	NULL	cln	NULL	B_GN	SUJ	32	idtext0012	cln	#2##p##	spk2	39.62	39.81	0.01	_
20091112_RATP_SCD_1346	9	32	avez	NULL	v	NULL	B_GVf	ROOT	0	idtext0012	avoir	P#2##p##	spk2	39.82	39.96	0.01	_
20091112_RATP_SCD_1346	9	33	la	NULL	det	NULL	B_GN	DET	34	idtext0012	le	##m#s##d	spk2	39.97	40.04	0.01	_
20091112_RATP_SCD_1346	9	34	possibilité	NULL	nc	NULL	I_GN	OBJ	32	idtext0012	possibilité	##f#s##	spk2	40.05	40.67	0.01	_
20091112_RATP_SCD_1346	9	35	de	NULL	prep	NULL	B_GP	DEP	34	idtext0012	de	#####	spk2	40.68	40.73	0.01	_
20091112_RATP_SCD_1346	9	36	vous	NULL	clr	NULL	I_GP	AFF	37	idtext0012	cln	#2##p##	spk2	40.74	40.81	0.01	_
20091112_RATP_SCD_1346	9	37	déplacer	NULL	vinf	NULL	I_GP	OBJ	35	idtext0012	déplacer	W#####	spk2	40.82	41.31	0.01	_
20091112_RATP_SCD_1346	9	38	ou	NULL	coo	NULL	B_NULL	COORD	37	idtext0012	ou	#####	spk2	41.32	41.42	0.01	_
20091112_RATP_SCD_1346	9	39	pas	NULL	advneg	NULL	B_NULL	DEP_COORD	38	idtext0012	pas	#####	spk2	41.43	41.89	?	_

20091112_RATP_SCD_1346	10	1	non	NULL	adv	NULL	B_GADV	NOLINK	0	idtext0013	non	#####	spk3	42.12	42.43	?	_

20091112_RATP_SCD_1346	11	1	près+de	NULL	prep	NULL	B_NULL	NOLINK	0	idtext0014	près+de	#####	spk2	42.6	43.15	?	_

20091112_RATP_SCD_1346	12	1	non	NULL	adv	NULL	B_GADV	NOLINK	0	idtext0015	non	#####	spk2	43.19	43.35	?	_

20091112_RATP_SCD_1346	13	1	non	NULL	adv	NULL	B_GADV	NOLINK	0	idtext0016	non	#####	spk3	43.19	43.35	?	_

20091112_RATP_SCD_1346	14	1	j'	NULL	cln	NULL	B_GN	SUJ	2	idtext0017	cln	#1##s##	spk3	43.39	43.47	0.01	_
20091112_RATP_SCD_1346	14	2	ai	NULL	v	NULL	B_GVfn	ROOT	0	idtext0017	avoir	P#1##s##	spk3	43.48	43.52	0.01	_
20091112_RATP_SCD_1346	14	3	pas	NULL	advneg	NULL	I_GVfn	MOD	2	idtext0017	pas	#####	spk3	43.53	43.67	0.01	_
20091112_RATP_SCD_1346	14	4	la	NULL	det	NULL	B_GN	DET	5	idtext0017	le	##m#s##d	spk3	43.68	43.76	0.01	_
20091112_RATP_SCD_1346	14	5	possibilité	NULL	nc	NULL	I_GN	OBJ	2	idtext0017	possibilité	##f#s##	spk3	43.77	44.35	0.01	_
20091112_RATP_SCD_1346	14	6	de	NULL	prep	NULL	B_GP	DEP	5	idtext0017	de	#####	spk3	44.36	44.39	0.01	_
20091112_RATP_SCD_1346	14	7	me	NULL	clo	NULL	I_GP	OBJ	8	idtext0017	cla	#1##s##	spk3	44.4	44.52	0.01	_
20091112_RATP_SCD_1346	14	8	déplacer	NULL	vinf	NULL	B_GVi	OBJ	6	idtext0017	déplacer	W#####	spk3	44.53	45.02	?	//

20091112_RATP_SCD_1346	15	1	non	NULL	adv	NULL	B_GADV	ROOT	0	idtext0018	non	#####	spk2	45.06	45.2	0.01	_
20091112_RATP_SCD_1346	15	2	parce+que	NULL	csu	NULL	B_NULL	MOD	1	idtext0018	parce+que	#####	spk2	45.21	45.91	0.01	_
20091112_RATP_SCD_1346	15	3	euh	DISF_M	pres	NULL	NULL	NOLINK	0	idtext0018	euh	#####	spk2	45.92	46.04	0.01	_
20091112_RATP_SCD_1346	15	4	parce+que	NULL	csu	NULL	B_NULL	MOD	1	idtext0018	parce+que	#####	spk2	46.05	46.74	0.01	_
20091112_RATP_SCD_1346	15	5	si	NULL	csu	NULL	B_NULL	ROOT	0	idtext0018	si	#####	spk2	46.75	47.02	0.01	_
20091112_RATP_SCD_1346	15	6	vous	NULL	cln	NULL	B_GN	SUJ	8	idtext0018	cln	#2##p##	spk2	47.03	47.13	0.01	_
20091112_RATP_SCD_1346	15	7	me	NULL	clo	NULL	B_GN	A_OBJ	8	idtext0018	cla	#1##s##	spk2	47.14	47.23	0.01	_
20091112_RATP_SCD_1346	15	8	dites	NULL	v	NULL	B_GVf	OBJ	5	idtext0018	dire	P#2##p##	spk2	47.24	47.42	0.01	_
20091112_RATP_SCD_1346	15	9	ça	NULL	pro	NULL	B_GN	SUJ_IMP	10	idtext0018	ça	#####	spk2	47.43	47.54	0.01	_
20091112_RATP_SCD_1346	15	10	fait	NULL	v	NULL	B_GVf	OBJ	4	idtext0018	faire	P#3##s##	spk2	47.55	47.62	0.01	_
20091112_RATP_SCD_1346	15	11	début	NULL	nc	NULL	B_GN	OBJ	10	idtext0018	début	##m#s##	spk2	47.63	47.77	0.01	_
20091112_RATP_SCD_1346	15	12	début	NULL	nc	NULL	I_GN	MOD	11	idtext0018	début	##m#s##	spk2	47.78	48.03	0.01	/
20091112_RATP_SCD_1346	15	13	novembre	NULL	nc	NULL	B_GN	ROOT	0	idtext0018	novembre	##m#s##	spk2	48.04	48.57	0.01	_
20091112_RATP_SCD_1346	15	14	décembre	NULL	nc	NULL	I_GN	MOD	13	idtext0018	décembre	##m#s##	spk2	48.58	48.87	0.01	//
20091112_RATP_SCD_1346	15	15	que	NULL	csu	NULL	B_NULL	ROOT	0	idtext0018	que	#####	spk2	48.88	49.02	0.01	_
20091112_RATP_SCD_1346	15	16	vous	NULL	cln	NULL	B_GN	SUJ	18	idtext0018	cln	#2##p##	spk2	49.03	49.16	0.01	_
20091112_RATP_SCD_1346	15	17	avez	NULL	v	NULL	B_GVf	AUX	18	idtext0018	avoir	P#2##p##	spk2	49.17	49.39	0.01	_
20091112_RATP_SCD_1346	15	18	envoyé	NULL	vppart	NULL	I_GVf	OBJ	15	idtext0018	envoyer	K##m#s##	spk2	49.4	49.76	0.01	_
20091112_RATP_SCD_1346	15	19	votre	NULL	det	NULL	B_GN	DET	20	idtext0018	votre	###s##o	spk2	49.77	50.24	0.01	_
20091112_RATP_SCD_1346	15	20	demande	NULL	nc	NULL	I_GN	OBJ	18	idtext0018	demande	##f#s##	spk2	50.25	50.62	?	//

20091112_RATP_SCD_1346	16	1	c'	NULL	cln	NULL	B_GN	SUJ_IMP	2	idtext0019	ce	###s##	spk2	50.66	50.68	0.01	_
20091112_RATP_SCD_1346	16	2	est	NULL	v	NULL	B_GVf	ROOT	0	idtext0019	être	P#3##s##	spk2	50.69	50.73	0.01	_
20091112_RATP_SCD_1346	16	3	cela	NULL	pro	NULL	B_GN	ATS	2	idtext0019	cela	#####	spk2	50.74	50.94	0.01	_
20091112_RATP_SCD_1346	16	4	votre	NULL	det	NULL	B_GN	DET	5	idtext0019	votre	###s##o	spk2	50.95	51.34	0.01	_
20091112_RATP_SCD_1346	16	5	réclamation	NULL	nc	NULL	I_GN	SUJ	2	idtext0019	réclamation	##f#s##	spk2	51.35	52.07	?	//

20091112_RATP_SCD_1346	17	1	ouais	NULL	adv	NULL	B_GADV	MOD	2	idtext0020	ouais	#####	spk3	50.75	50.89	0.01	_
20091112_RATP_SCD_1346	17	2	à+peu+près	NULL	adv	NULL	I_GADV	ROOT	0	idtext0020	à+peu+près	#####	spk3	50.9	51.25	0.01	_
20091112_RATP_SCD_1346	17	3	une	NULL	det	NULL	B_GN	DET	4	idtext0020	un	##f#s##i	spk3	51.26	51.4	0.01	_
20091112_RATP_SCD_1346	17	4	dizaine	NULL	nc	NULL	I_GN	ROOT	0	idtext0020	dizaine	##f#s##	spk3	51.41	51.71	0.01	_
20091112_RATP_SCD_1346	17	5	à	NULL	prep	NULL	B_NULL	ROOT	0	idtext0020	à	#####	spk3	51.72	51.87	0.01	_
20091112_RATP_SCD_1346	17	6	peu	NULL	adv	NULL	B_GADV	OBJ	5	idtext0020	peu	#####	spk3	51.88	52.07	?	_

20091112_RATP_SCD_1346	18	1	près	NULL	adv	NULL	B_GADV	NOLINK	0	idtext0021	près	#####	spk3	52.11	52.19	0.01	//
20091112_RATP_SCD_1346	18	2	une	NULL	det	NULL	B_GN	DET	3	idtext0021	un	##f#s##i	spk3	52.2	52.25	0.01	_
20091112_RATP_SCD_1346	18	3	dizaine	NULL	nc	NULL	I_GN	ROOT	0	idtext0021	dizaine	##f#s##	spk3	52.26	52.5	?	//

20091112_RATP_SCD_1346	19	1	de	NULL	prep	NULL	B_GP	ROOT	0	idtext0022	de	#####	spk3	52.55	52.69	0.01	_
20091112_RATP_SCD_1346	19	2	jours	NULL	nc	NULL	I_GP	OBJ	1	idtext0022	jour	##m#p##	spk3	52.7	52.96	?	//

20091112_RATP_SCD_1346	20	1	ah	DISF_M	pres	NULL	NULL	NOLINK	0	idtext0023	ah	#####	spk2	52.66	52.72	0.01	_
20091112_RATP_SCD_1346	20	2	oui	NULL	adv	NULL	B_GADV	NOLINK	0	idtext0023	oui	#####	spk2	52.73	52.96	?	_

20091112_RATP_SCD_1346	21	1	parce+que	NULL	csu	NULL	B_NULL	ROOT	0	idtext0024	parce+que	#####	spk2	53.08	53.25	0.01	_
20091112_RATP_SCD_1346	21	2	habituellement	NULL	adv	NULL	B_GADV	NOLINK	0	idtext0024	habituellement	#####	spk2	53.26	53.77	0.01	_
20091112_RATP_SCD_1346	21	3	je	NULL	cln	NULL	B_GN	SUJ	4	idtext0024	cln	#1##s##	spk2	53.78	53.87	0.01	_
20091112_RATP_SCD_1346	21	4	pense	NULL	v	NULL	B_GVf	OBJ	1	idtext0024	penser	PS#13##s##	spk2	53.88	54.04	0.01	_
20091112_RATP_SCD_1346	21	5	que	NULL	csu	NULL	B_NULL	OBJ	4	idtext0024	que	#####	spk2	54.05	54.18	0.01	_
20091112_RATP_SCD_1346	21	6	c'	NULL	cln	NULL	B_GN	SUJ_IMP	7	idtext0024	ce	###s##	spk2	54.19	54.21	0.01	_
20091112_RATP_SCD_1346	21	7	est	NULL	v	NULL	B_GVf	OBJ	5	idtext0024	être	P#3##s##	spk2	54.22	54.24	0.01	_
20091112_RATP_SCD_1346	21	8	à+peu+près	NULL	adv	NULL	B_GADV	MOD	9	idtext0024	à+peu+près	#####	spk2	54.25	54.56	0.01	_
20091112_RATP_SCD_1346	21	9	ça	NULL	pro	NULL	B_GN	ATS	7	idtext0024	ça	#####	spk2	54.57	54.83	0.01	_
20091112_RATP_SCD_1346	21	10	au+niveau+des	DISF_R	prep	NULL	NULL	NOLINK	0	idtext0024	au+niveau+des	#####	spk2	54.84	55.79	0.01	_
20091112_RATP_SCD_1346	21	11	à	NULL	prep	NULL	B_GP	DEP	9	idtext0024	à	#####	spk2	55.8	55.84	0.01	_
20091112_RATP_SCD_1346	21	12	partir	NULL	vinf	NULL	I_GP	OBJ	11	idtext0024	partir	W#####	spk2	55.85	56.11	0.01	_
20091112_RATP_SCD_1346	21	13	du	NULL	prep	NULL	B_GP	MOD	12	idtext0024	du	#####	spk2	56.12	56.2	0.01	_
20091112_RATP_SCD_1346	21	14	moment	NULL	nc	NULL	I_GP	OBJ	13	idtext0024	moment	##m#s##	spk2	56.21	56.4	0.01	/
20091112_RATP_SCD_1346	21	15	où	NULL	prorel	NULL	B_NULL	P_OBJ_LOC	17	idtext0024	où	#####	spk2	56.41	56.43	0.01	_
20091112_RATP_SCD_1346	21	16	ils	NULL	cln	NULL	B_GN	SUJ	17	idtext0024	cln	#3#m#p##	spk2	56.44	56.51	0.01	_
20091112_RATP_SCD_1346	21	17	vont	NULL	v	NULL	B_GVf	MOD_REL	9	idtext0024	aller	P#3##p##	spk2	56.52	56.69	0.01	_
20091112_RATP_SCD_1346	21	18	recevoir	NULL	vinf	NULL	I_GVf	OBJ	17	idtext0024	recevoir	W#####	spk2	56.7	57.03	0.01	_
20091112_RATP_SCD_1346	21	19	votre	NULL	det	NULL	B_GN	DET	20	idtext0024	votre	###s##o	spk2	57.04	57.3	0.01	_
20091112_RATP_SCD_1346	21	20	demande	NULL	nc	NULL	I_GN	OBJ	18	idtext0024	demande	##f#s##	spk2	57.31	57.67	0.01	_
20091112_RATP_SCD_1346	21	21	la	NULL	clo	NULL	B_GN	OBJ	22	idtext0024	cla	#3#f#s##	spk2	57.68	57.78	0.01	_
20091112_RATP_SCD_1346	21	22	traiter	NULL	vinf	NULL	B_GVi	OBJ	17	idtext0024	traiter	W#####	spk2	57.79	58.6	0.01	_
20091112_RATP_SCD_1346	21	23	et	NULL	coo	NULL	B_NULL	NOLINK	0	idtext0025	et	#####	spk2	58.61	58.65	0.01	_
20091112_RATP_SCD_1346	21	24	ensuite	NULL	adv	NULL	B_GADV	NOLINK	0	idtext0025	ensuite	#####	spk2	58.66	58.95	0.01	_
20091112_RATP_SCD_1346	21	25	pour	NULL	prep	NULL	B_GP	MOD	22	idtext0025	pour	#####	spk2	58.96	59.08	0.01	_
20091112_RATP_SCD_1346	21	26	vous	NULL	clo	NULL	I_GP	A_OBJ	27	idtext0025	cln	#2##p##	spk2	59.09	59.2	0.01	_
20091112_RATP_SCD_1346	21	27	donner	NULL	vinf	NULL	B_GVi	OBJ	25	idtext0025	donner	W#####	spk2	59.21	59.46	0.01	_
20091112_RATP_SCD_1346	21	28	une	NULL	det	NULL	B_GN	DET	29	idtext0025	un	##f#s##i	spk2	59.47	59.55	0.01	_
20091112_RATP_SCD_1346	21	29	informations	NULL	nc	NULL	I_GN	OBJ	27	idtext0025	information	##f#p##	spk2	59.56	60.41	0.01	_
20091112_RATP_SCD_1346	21	30	en	NULL	prep	NULL	B_GP	MOD	27	idtext0026	en	#####	spk2	60.42	60.51	0.01	_
20091112_RATP_SCD_1346	21	31	sachant	NULL	vprespart	NULL	I_GP	OBJ	30	idtext0026	savoir	G#####	spk2	60.52	60.83	0.01	_
20091112_RATP_SCD_1346	21	32	que	NULL	csu	NULL	B_NULL	OBJ	31	idtext0026	que	#####	spk2	60.84	60.88	0.01	_
20091112_RATP_SCD_1346	21	33	vous	NULL	cln	NULL	B_GN	SUJ	34	idtext0026	cln	#2##p##	spk2	60.89	61.01	0.01	_
20091112_RATP_SCD_1346	21	34	avez	NULL	v	NULL	B_GVf	OBJ	32	idtext0026	avoir	P#2##p##	spk2	61.02	61.21	0.01	_
20091112_RATP_SCD_1346	21	35	toujours	NULL	adv	NULL	B_GADV	MOD	34	idtext0026	toujours	#####	spk2	61.22	61.55	0.01	_
20091112_RATP_SCD_1346	21	36	une	NULL	det	NULL	B_GN	DET	37	idtext0026	un	##f#s##i	spk2	61.56	61.65	0.01	_
20091112_RATP_SCD_1346	21	37	réponse	NULL	nc	NULL	I_GN	OBJ	34	idtext0026	réponse	##f#s##	spk2	61.66	62.0	0.01	_
20091112_RATP_SCD_1346	21	38	de	NULL	prep	NULL	B_GP	DEP	37	idtext0026	de	#####	spk2	62.01	62.09	0.01	_
20091112_RATP_SCD_1346	21	39	la	NULL	det	NULL	I_GP	DET	40	idtext0026	le	##m#s##d	spk2	62.1	62.21	0.01	_
20091112_RATP_SCD_1346	21	40	part	NULL	nc	NULL	I_GP	OBJ	38	idtext0026	part	###s##	spk2	62.22	62.4	0.01	_
20091112_RATP_SCD_1346	21	41	du	NULL	prep	NULL	B_GP	DEP	40	idtext0026	du	#####	spk2	62.41	62.5	0.01	_
20091112_RATP_SCD_1346	21	42	service	NULL	nc	NULL	I_GP	OBJ	41	idtext0026	service	##m#s##	spk2	62.51	63.08	0.01	//
20091112_RATP_SCD_1346	21	43	hein	DISF_M	pres	NULL	NULL	NOLINK	0	idtext0026	hein	#####	spk2	63.09	64.07	0.01	_
20091112_RATP_SCD_1346	21	44	donc	NULL	coo	NULL	B_NULL	NOLINK	0	idtext0027	donc	#####	spk2	64.08	64.23	0.01	_
20091112_RATP_SCD_1346	21	45	là	NULL	adv	NULL	B_GADV	NOLINK	0	idtext0027	là	#####	spk2	64.24	64.33	?	_

20091112_RATP_SCD_1346	22	1	je	NULL	cln	NULL	B_GN	SUJ	2	idtext0028	cln	#1##s##	spk2	64.37	64.44	0.01	_
20091112_RATP_SCD_1346	22	2	pense	NULL	v	NULL	B_GVf	ROOT	0	idtext0028	penser	PS#13##s##	spk2	64.45	64.62	0.01	_
20091112_RATP_SCD_1346	22	3	que	NULL	csu	NULL	B_NULL	OBJ	2	idtext0028	que	#####	spk2	64.63	64.71	0.01	_
20091112_RATP_SCD_1346	22	4	ça	NULL	pro	NULL	B_GN	OBJ	3	idtext0028	ça	#####	spk2	64.72	64.83	?	_

20091112_RATP_SCD_1346	23	1	d'accord	NULL	adv	NULL	B_GADV	NOLINK	0	idtext0029	d'accord	#####	spk3	64.38	64.83	?	//

20091112_RATP_SCD_1346	24	1	va	NULL	v	NULL	B_GVfn	ROOT	0	idtext0030	aller	P#3##s##	spk2	64.87	64.92	0.01	_
20091112_RATP_SCD_1346	24	2	pas	NULL	advneg	NULL	I_GVfn	MOD	1	idtext0030	pas	#####	spk2	64.93	65.07	0.01	_
20091112_RATP_SCD_1346	24	3	tarder	NULL	vinf	NULL	B_GVi	OBJ	1	idtext0030	tarder	W#####	spk2	65.08	65.39	0.01	_
20091112_RATP_SCD_1346	24	4	monsieur	NULL	nc	NULL	B_GN	NOLINK	0	idtext0030	Monsieur	##m#s##	spk2	65.4	65.71	?	//

20091112_RATP_SCD_1346	25	1	si	GREF	csu	NULL	B_NULL	NOLINK	0	idtext0031	si	#####	spk3	65.75	65.83	0.01	_
20091112_RATP_SCD_1346	25	2	vous	GREF	cln	NULL	B_GN	SUJ	3	idtext0031	cln	#2##p##	spk3	65.84	65.92	0.01	_
20091112_RATP_SCD_1346	25	3	voulez	GREF	v	NULL	B_GVf	OBJ	1	idtext0031	vouloir	P#2##p##	spk3	65.93	66.04	0.01	_
20091112_RATP_SCD_1346	25	4	je	NULL	cln	NULL	B_GN	SUJ	5	idtext0031	cln	#1##s##	spk3	66.05	66.1	0.01	_
20091112_RATP_SCD_1346	25	5	voudrais	NULL	v	NULL	B_GVfn	ROOT	0	idtext0031	vouloir	C#12##s##	spk3	66.11	66.41	0.01	_
20091112_RATP_SCD_1346	25	6	pas	NULL	advneg	NULL	I_GVfn	MOD	5	idtext0031	pas	#####	spk3	66.42	66.62	0.01	_
20091112_RATP_SCD_1346	25	7	quand+même	NULL	adv	NULL	B_GADV	MOD	5	idtext0031	quand+même	#####	spk3	66.63	67.06	0.01	_
20091112_RATP_SCD_1346	25	8	euh	DISF_M	pres	NULL	NULL	NOLINK	0	idtext0031	euh	#####	spk3	67.07	67.14	0.01	_
20091112_RATP_SCD_1346	25	9	qu'	NULL	csu	NULL	B_NULL	OBJ	5	idtext0031	qu'	#####	spk3	67.15	67.27	0.01	_
20091112_RATP_SCD_1346	25	10	on	NULL	cln	NULL	B_GN	SUJ_IMP	12	idtext0031	cln	#3##s##	spk3	67.28	67.39	0.01	_
20091112_RATP_SCD_1346	25	11	me	NULL	clo	NULL	B_GN	A_OBJ	12	idtext0031	cla	#1##s##	spk3	67.4	67.42	0.01	_
20091112_RATP_SCD_1346	25	12	dise	NULL	v	NULL	B_GVf	OBJ	9	idtext0031	dire	S#13##s##	spk3	67.43	67.7	0.01	_
20091112_RATP_SCD_1346	25	13	euh	DISF_M	pres	NULL	NULL	NOLINK	0	idtext0031	euh	#####	spk3	67.71	68.08	0.01	_
20091112_RATP_SCD_1346	25	14	qu'	NULL	csu	NULL	B_NULL	OBJ	12	idtext0031	qu'	#####	spk3	68.09	68.18	0.01	_
20091112_RATP_SCD_1346	25	15	on	NULL	cln	NULL	B_GN	SUJ_IMP	16	idtext0031	cln	#3##s##	spk3	68.19	68.32	0.01	_
20091112_RATP_SCD_1346	25	16	peut	NULL	v	NULL	B_GVf	OBJ	14	idtext0031	pouvoir	P#3##s##	spk3	68.33	68.45	0.01	_
20091112_RATP_SCD_1346	25	17	rien	NULL	pro	NULL	B_GN	OBJ	16	idtext0031	rien	#####	spk3	68.46	68.67	0.01	_
20091112_RATP_SCD_1346	25	18	faire	NULL	vinf	NULL	B_GVi	OBJ	16	idtext0031	faire	W#####	spk3	68.68	68.87	?	//

20091112_RATP_SCD_1346	26	1	pour	NULL	prep	NULL	B_GP	ROOT	0	idtext0032	pour	#####	spk3	68.91	69.22	0.01	_
20091112_RATP_SCD_1346	26	2	moi	NULL	pro	NULL	I_GP	OBJ	1	idtext0032	moi	#####	spk3	69.23	69.45	?	_

20091112_RATP_SCD_1346	27	1	oui	NULL	adv	NULL	B_GADV	NOLINK	0	idtext0033	oui	#####	spk2	68.98	69.45	?	//

20091112_RATP_SCD_1346	28	1	et	NULL	coo	NULL	B_NULL	ROOT	0	idtext0034	et	#####	spk3	69.49	69.55	0.01	_
20091112_RATP_SCD_1346	28	2	que	NULL	csu	NULL	B_NULL	DEP_COORD	1	idtext0034	que	#####	spk3	69.56	69.7	0.01	_
20091112_RATP_SCD_1346	28	3	je	NULL	cln	NULL	B_GN	SUJ	4	idtext0034	cln	#1##s##	spk3	69.71	69.94	0.01	_
20091112_RATP_SCD_1346	28	4	dois	NULL	v	NULL	B_GVf	OBJ	2	idtext0034	devoir	P#12##s##	spk3	69.95	70.21	0.01	_
20091112_RATP_SCD_1346	28	5	et	NULL	coo	NULL	B_NULL	COORD	4	idtext0034	et	#####	spk3	70.22	70.33	0.01	_
20091112_RATP_SCD_1346	28	6	que	NULL	csu	NULL	B_NULL	MOD	43	idtext0034	que	#####	spk3	70.34	70.5	0.01	_
20091112_RATP_SCD_1346	28	7	je	NULL	cln	NULL	B_GN	SUJ	8	idtext0034	cln	#1##s##	spk3	70.51	70.65	0.01	_
20091112_RATP_SCD_1346	28	8	sois	NULL	v	NULL	B_GVf	OBJ	6	idtext0034	être	S#1##s##	spk3	70.66	71.06	0.01	_
20091112_RATP_SCD_1346	28	9	en	NULL	prep	NULL	B_GP	ATS	8	idtext0034	en	#####	spk3	71.07	71.24	0.01	_
20091112_RATP_SCD_1346	28	10	retard	NULL	nc	NULL	I_GP	OBJ	9	idtext0034	retard	##m#s##	spk3	71.25	71.47	0.01	_
20091112_RATP_SCD_1346	28	11	pour	NULL	prep	NULL	B_GP	MOD	8	idtext0034	pour	#####	spk3	71.48	71.69	0.01	_
20091112_RATP_SCD_1346	28	12	payer	NULL	vinf	NULL	I_GP	OBJ	11	idtext0034	payer	W#####	spk3	71.7	71.95	0.01	_
20091112_RATP_SCD_1346	28	13	quoi	DISF_M	pres	NULL	NULL	NOLINK	0	idtext0034	quoi	#####	spk3	71.96	72.13	0.01	/
20091112_RATP_SCD_1346	28	14	donc	NULL	coo	NULL	B_NULL	COORD	8	idtext0034	donc	#####	spk3	72.14	72.39	0.01	_
20091112_RATP_SCD_1346	28	15	a+priori	NULL	adv	NULL	B_GADV	NOLINK	0	idtext0034	a+priori	#####	spk3	72.4	72.9	0.01	_
20091112_RATP_SCD_1346	28	16	il	DISF_R	cln	NULL	B_GN	NOLINK	0	idtext0034	cln	#3#m#s##	spk3	72.91	72.97	0.01	_
20091112_RATP_SCD_1346	28	17	y	DISF_R	clo	NULL	B_GN	NOLINK	0	idtext0034	y	#####	spk3	72.98	73.0	0.01	_
20091112_RATP_SCD_1346	28	18	a	DISF_R	v	NULL	B_GVf	NOLINK	0	idtext0034	avoir	P#3##s##	spk3	73.01	73.09	0.01	_
20091112_RATP_SCD_1346	28	19	d()	DISF_T	tronc	NULL	NULL	NOLINK	0	idtext0034	d()	#####	spk3	73.1	73.64	0.01	_
20091112_RATP_SCD_1346	28	20	il	NULL	cln	NULL	B_GN	SUJ_IMP	22	idtext0035	cln	#3#m#s##	spk3	73.65	73.76	0.01	_
20091112_RATP_SCD_1346	28	21	y	NULL	clo	NULL	B_GN	AFF	22	idtext0035	y	#####	spk3	73.77	73.81	0.01	_
20091112_RATP_SCD_1346	28	22	a	NULL	v	NULL	B_GVf	DEP_COORD	14	idtext0035	avoir	P#3##s##	spk3	73.82	73.84	0.01	_
20091112_RATP_SCD_1346	28	23	deux	NULL	adj	NULL	I_GP	MOD	24	idtext0035	deux	#####	spk3	73.85	74.01	0.01	_
20091112_RATP_SCD_1346	28	24	mois	NULL	nc	NULL	I_GP	OBJ	22	idtext0035	mois	##m###	spk3	74.02	74.26	0.01	_
20091112_RATP_SCD_1346	28	25	je	NULL	cln	NULL	B_GN	SUJ	26	idtext0035	cln	#1##s##	spk3	74.27	74.37	0.01	_
20091112_RATP_SCD_1346	28	26	crois	NULL	v	NULL	B_GVf	DEP_COORD	5	idtext0035	croire	P#12##s##	spk3	74.38	74.56	0.01	_
20091112_RATP_SCD_1346	28	27	mais	NULL	coo	NULL	B_NULL	NOLINK	0	idtext0035	mais	#####	spk3	74.57	74.77	0.01	_
20091112_RATP_SCD_1346	28	28	bon	DISF_M	pres	NULL	NULL	NOLINK	0	idtext0035	bon	#####	spk3	74.78	76.42	0.01	//
20091112_RATP_SCD_1346	28	29	euh	DISF_M	pres	NULL	NULL	NOLINK	0	idtext0035	euh	#####	spk3	76.43	77.09	0.01	_
20091112_RATP_SCD_1346	28	30	euh	DISF_M	pres	NULL	NULL	NOLINK	0	idtext0036	euh	#####	spk3	77.1	77.14	0.01	//
20091112_RATP_SCD_1346	28	31	ouais	NULL	adv	NULL	B_GADV	NOLINK	0	idtext0036	ouais	#####	spk3	77.15	77.34	0.01	_
20091112_RATP_SCD_1346	28	32	donc	NULL	coo	NULL	B_NULL	COORD	26	idtext0036	donc	#####	spk3	77.35	77.59	0.01	_
20091112_RATP_SCD_1346	28	33	j'	NULL	cln	NULL	B_GN	SUJ	34	idtext0036	cln	#1##s##	spk3	77.6	77.72	0.01	_
20091112_RATP_SCD_1346	28	34	espère	NULL	v	NULL	B_GVf	DEP_COORD	32	idtext0036	espérer	PS#13##s##	spk3	77.73	78.07	0.01	_
20091112_RATP_SCD_1346	28	35	qu'	NULL	csu	NULL	B_NULL	OBJ	34	idtext0036	qu'	#####	spk3	78.08	78.13	0.01	_
20091112_RATP_SCD_1346	28	36	ils	NULL	cln	NULL	B_GN	SUJ	37	idtext0036	cln	#3#m#p##	spk3	78.14	78.19	0.01	_
20091112_RATP_SCD_1346	28	37	vont	NULL	v	NULL	B_GVf	OBJ	35	idtext0036	aller	P#3##p##	spk3	78.2	78.28	0.01	_
20091112_RATP_SCD_1346	28	38	me	NULL	clo	NULL	B_GN	A_OBJ	39	idtext0036	cla	#1##s##	spk3	78.29	78.32	0.01	_
20091112_RATP_SCD_1346	28	39	répondre	NULL	vinf	NULL	B_GVi	OBJ	37	idtext0036	répondre	W#####	spk3	78.33	78.82	0.01	_
20091112_RATP_SCD_1346	28	40	dans	NULL	prep	NULL	B_NULL	MOD	39	idtext0036	dans	#####	spk3	78.83	78.94	0.01	_
20091112_RATP_SCD_1346	28	41	pas	NULL	advneg	NULL	B_NULL	MOD	40	idtext0036	pas	#####	spk3	78.95	79.07	0.01	_
20091112_RATP_SCD_1346	28	42	trop	NULL	adv	NULL	B_GADV	MOD	43	idtext0036	trop	#####	spk3	79.08	79.28	0.01	_
20091112_RATP_SCD_1346	28	43	longtemps	NULL	adv	NULL	I_GADV	MOD	37	idtext0036	longtemps	#####	spk3	79.29	79.65	0.01	_
20091112_RATP_SCD_1346	28	44	que	NULL	csu	NULL	B_NULL	OBJ	43	idtext0036	que	#####	spk3	79.66	79.74	0.01	_
20091112_RATP_SCD_1346	28	45	je	NULL	cln	NULL	B_GN	SUJ	46	idtext0036	cln	#1##s##	spk3	79.75	80.07	0.01	_
20091112_RATP_SCD_1346	28	46	puisse	NULL	v	NULL	B_GVf	OBJ	44	idtext0036	pouvoir	S#1##s##	spk3	80.08	80.38	0.01	_
20091112_RATP_SCD_1346	28	47	euh	DISF_M	pres	NULL	NULL	NOLINK	0	idtext0036	euh	#####	spk3	80.39	80.47	0.01	_
20091112_RATP_SCD_1346	28	48	réagir	NULL	vinf	NULL	I_GVf	OBJ	46	idtext0036	réagir	W#####	spk3	80.48	81.12	0.01	_
20091112_RATP_SCD_1346	28	49	si	NULL	csu	NULL	B_NULL	OBJ	46	idtext0036	si	#####	spk3	81.13	81.74	0.01	_
20091112_RATP_SCD_1346	28	50	je	DISF_R	cln	NULL	NULL	NOLINK	0	idtext0036	cln	#1##s##	spk3	81.75	82.65	0.01	_
20091112_RATP_SCD_1346	28	51	ils	NULL	cln	NULL	B_GN	SUJ	52	idtext0037	cln	#3#m#p##	spk3	82.66	82.71	0.01	_
20091112_RATP_SCD_1346	28	52	font	NULL	v	NULL	B_GVf	OBJ	49	idtext0037	faire	P#3##p##	spk3	82.72	83.03	0.01	_
20091112_RATP_SCD_1346	28	53	rien	NULL	pro	NULL	B_GN	OBJ	52	idtext0037	rien	#####	spk3	83.04	83.34	0.01	_
20091112_RATP_SCD_1346	28	54	euh	DISF_M	pres	NULL	NULL	NOLINK	0	idtext0037	euh	#####	spk3	83.35	83.42	0.01	/
20091112_RATP_SCD_1346	28	55	pour	NULL	prep	NULL	B_GP	MOD	53	idtext0037	pour	#####	spk3	83.43	83.61	0.01	_
20091112_RATP_SCD_1346	28	56	me	NULL	clo	NULL	I_GP	OBJ	55	idtext0037	cla	#1##s##	spk3	83.62	84.04	?	_

20091112_RATP_SCD_1346	29	1	pour	NULL	prep	NULL	B_GP	ROOT	0	idtext0038	pour	#####	spk3	84.08	84.16	0.01	_
20091112_RATP_SCD_1346	29	2	me	NULL	clo	NULL	I_GP	A_OBJ	3	idtext0038	cla	#1##s##	spk3	84.17	84.47	0.01	_
20091112_RATP_SCD_1346	29	3	satisfaire	NULL	vinf	NULL	B_GVi	OBJ	1	idtext0038	satisfaire	W#####	spk3	84.48	85.12	0.01	_
20091112_RATP_SCD_1346	29	4	quoi	DISF_M	pres	NULL	NULL	NOLINK	0	idtext0038	quoi	#####	spk3	85.13	85.34	0.01	_
20091112_RATP_SCD_1346	29	5	hein	DISF_M	pres	NULL	NULL	NOLINK	0	idtext0038	hein	#####	spk3	85.35	85.48	0.01	_
20091112_RATP_SCD_1346	29	6	donc	NULL	coo	NULL	B_NULL	NOLINK	0	idtext0038	donc	#####	spk3	85.49	86.05	0.01	_
20091112_RATP_SCD_1346	29	7	euh	DISF_M	pres	NULL	NULL	NOLINK	0	idtext0038	euh	#####	spk3	86.06	86.46	?	//

20091112_RATP_SCD_1346	30	1	mais	NULL	coo	NULL	B_NULL	NOLINK	0	idtext0039	mais	#####	spk2	84.15	84.27	0.01	_
20091112_RATP_SCD_1346	30	2	bien+sûr	NULL	adv	NULL	B_GADV	MOD	5	idtext0039	bien+sûr	#####	spk2	84.28	85.34	0.01	_
20091112_RATP_SCD_1346	30	3	oui	DISF_R	adv	NULL	NULL	NOLINK	0	idtext0039	oui	#####	spk2	85.35	85.52	0.01	_
20091112_RATP_SCD_1346	30	4	oui	DISF_R	adv	NULL	NULL	NOLINK	0	idtext0039	oui	#####	spk2	85.53	86.15	0.01	_
20091112_RATP_SCD_1346	30	5	oui	NULL	adv	NULL	I_GADV	ROOT	0	idtext0039	oui	#####	spk2	86.16	86.46	?	_

20091112_RATP_SCD_1346	31	1	ben	DISF_M	pres	NULL	NULL	NOLINK	0	idtext0040	ben	#####	spk2	86.67	86.72	0.01	_
20091112_RATP_SCD_1346	31	2	écoutez	DISF_M	pres	NULL	NULL	NOLINK	0	idtext0040	écoutez	#####	spk2	86.73	87.15	0.01	_
20091112_RATP_SCD_1346	31	3	soit	NULL	coo	NULL	B_NULL	ROOT	0	idtext0040	soit	#####	spk2	87.16	87.31	0.01	_
20091112_RATP_SCD_1346	31	4	vous	NULL	cln	NULL	B_GN	SUJ	5	idtext0040	cln	#2##p##	spk2	87.32	87.41	0.01	_
20091112_RATP_SCD_1346	31	5	patientez	NULL	v	NULL	B_GVf	DEP_COORD	3	idtext0040	patienter	P#2##p##	spk2	87.42	87.77	0.01	_
20091112_RATP_SCD_1346	31	6	un+petit+peu	NULL	adv	NULL	B_GADV	MOD	5	idtext0040	un+petit+peu	#####	spk2	87.78	88.2	0.01	_
20091112_RATP_SCD_1346	31	7	parce+que	NULL	csu	NULL	B_NULL	MOD	5	idtext0040	parce+que	#####	spk2	88.21	88.38	0.01	_
20091112_RATP_SCD_1346	31	8	je	NULL	cln	NULL	B_GN	SUJ	9	idtext0040	cln	#1##s##	spk2	88.39	88.48	0.01	_
20091112_RATP_SCD_1346	31	9	pense	NULL	v	NULL	B_GVf	OBJ	7	idtext0040	penser	PS#13##s##	spk2	88.49	88.65	0.01	_
20091112_RATP_SCD_1346	31	10	que	NULL	csu	NULL	B_NULL	OBJ	9	idtext0040	que	#####	spk2	88.66	88.7	0.01	_
20091112_RATP_SCD_1346	31	11	ça	NULL	pro	NULL	B_GN	SUJ_IMP	12	idtext0040	ça	#####	spk2	88.71	88.88	0.01	_
20091112_RATP_SCD_1346	31	12	fait	NULL	v	NULL	B_GVf	OBJ	10	idtext0040	faire	P#3##s##	spk2	88.89	88.98	0.01	_
20091112_RATP_SCD_1346	31	13	à	NULL	prep	NULL	B_GP	A_OBJ	12	idtext0040	à	#####	spk2	88.99	89.06	0.01	_
20091112_RATP_SCD_1346	31	14	quinze	NULL	adj	NULL	I_GP	MOD	15	idtext0040	quinze	#####	spk2	89.07	89.26	0.01	_
20091112_RATP_SCD_1346	31	15	jours	NULL	nc	NULL	I_GP	OBJ	13	idtext0040	jour	##m#p##	spk2	89.27	89.44	0.01	/
20091112_RATP_SCD_1346	31	16	votre	NULL	det	NULL	B_GN	DET	17	idtext0040	votre	###s##o	spk2	89.45	89.78	0.01	_
20091112_RATP_SCD_1346	31	17	demande	NULL	nc	NULL	I_GN	OBJ	12	idtext0040	demande	##f#s##	spk2	89.79	90.15	0.01	_
20091112_RATP_SCD_1346	31	18	donc	NULL	coo	NULL	B_NULL	COORD	12	idtext0040	donc	#####	spk2	90.16	90.33	0.01	_
20091112_RATP_SCD_1346	31	19	normalement	NULL	adv	NULL	B_GADV	NOLINK	0	idtext0040	normalement	#####	spk2	90.34	90.76	0.01	_
20091112_RATP_SCD_1346	31	20	ça	NULL	pro	NULL	B_GN	SUJ_IMP	21	idtext0040	ça	#####	spk2	90.77	90.92	0.01	_
20091112_RATP_SCD_1346	31	21	devrait	NULL	v	NULL	B_GVf	DEP_COORD	18	idtext0040	devoir	C#3##s##	spk2	90.93	91.38	0.01	_
20091112_RATP_SCD_1346	31	22	être	NULL	vinf	NULL	I_GVf	OBJ	21	idtext0040	être	W#####	spk2	91.39	91.83	0.01	_
20091112_RATP_SCD_1346	31	23	euh	DISF_M	pres	NULL	NULL	NOLINK	0	idtext0040	euh	#####	spk2	91.84	91.87	0.01	_
20091112_RATP_SCD_1346	31	24	ça	NULL	pro	NULL	B_GN	SUJ_IMP	25	idtext0041	ça	#####	spk2	91.88	91.98	0.01	_
20091112_RATP_SCD_1346	31	25	devrait	NULL	v	NULL	B_GVf	ROOT	0	idtext0041	devoir	C#3##s##	spk2	91.99	92.4	0.01	_
20091112_RATP_SCD_1346	31	26	vous	NULL	cln	NULL	B_GN	SUJ	27	idtext0041	cln	#2##p##	spk2	92.41	92.76	0.01	_
20091112_RATP_SCD_1346	31	27	devrez	NULL	v	NULL	B_GVf	ROOT	0	idtext0041	devoir	F#2##p##	spk2	92.77	93.05	0.01	_
20091112_RATP_SCD_1346	31	28	avoir	NULL	vinf	NULL	I_GVf	OBJ	27	idtext0041	avoir	W#####	spk2	93.06	93.31	0.01	_
20091112_RATP_SCD_1346	31	29	une	NULL	det	NULL	B_GN	DET	30	idtext0041	un	##f#s##i	spk2	93.32	93.39	0.01	_
20091112_RATP_SCD_1346	31	30	réponse	NULL	nc	NULL	I_GN	OBJ	28	idtext0041	réponse	##f#s##	spk2	93.4	94.28	?	//

20091112_RATP_SCD_1346	32	1	hein	DISF_M	pres	NULL	NULL	NOLINK	0	idtext0042	hein	#####	spk2	94.46	94.62	?	//

20091112_RATP_SCD_1346	33	1	oui	NULL	adv	NULL	B_GADV	NOLINK	0	idtext0043	oui	#####	spk3	94.46	94.62	?	//

20091112_RATP_SCD_1346	34	1	ils	NULL	cln	NULL	B_GN	SUJ	3	idtext0044	cln	#3#m#p##	spk2	94.66	94.72	0.01	_
20091112_RATP_SCD_1346	34	2	le	NULL	clo	NULL	B_GN	OBJ	3	idtext0044	cla	#3#m#s##	spk2	94.73	94.75	0.01	_
20091112_RATP_SCD_1346	34	3	savent	NULL	v	NULL	B_GVf	ROOT	0	idtext0044	savoir	P#3##p##	spk2	94.76	94.99	0.01	_
20091112_RATP_SCD_1346	34	4	très	NULL	adv	NULL	B_GADV	MOD	5	idtext0044	très	#####	spk2	95.0	95.16	0.01	_
20091112_RATP_SCD_1346	34	5	bien	NULL	adv	NULL	I_GADV	MOD	3	idtext0044	bien	#####	spk2	95.17	95.38	0.01	_
20091112_RATP_SCD_1346	34	6	quand+même	NULL	adv	NULL	I_GADV	MOD	3	idtext0044	quand+même	#####	spk2	95.39	96.5	0.01	_
20091112_RATP_SCD_1346	34	7	euh	DISF_M	pres	NULL	NULL	NOLINK	0	idtext0044	euh	#####	spk2	96.51	96.6	0.01	_
20091112_RATP_SCD_1346	34	8	que	NULL	csu	NULL	B_NULL	OBJ	3	idtext0044	que	#####	spk2	96.61	96.7	0.01	_
20091112_RATP_SCD_1346	34	9	vous	NULL	cln	NULL	B_GN	SUJ	10	idtext0044	cln	#2##p##	spk2	96.71	96.82	0.01	_
20091112_RATP_SCD_1346	34	10	pouvez	NULL	v	NULL	B_GVf	OBJ	8	idtext0044	pouvoir	P#2##p##	spk2	96.83	97.19	0.01	_
20091112_RATP_SCD_1346	34	11	donc	NULL	coo	NULL	B_NULL	COORD	10	idtext0044	donc	#####	spk2	97.2	97.38	0.01	_
20091112_RATP_SCD_1346	34	12	dans	NULL	prep	NULL	B_GP	MOD	16	idtext0044	dans	#####	spk2	97.39	97.52	0.01	_
20091112_RATP_SCD_1346	34	13	les	NULL	det	NULL	I_GP	DET	15	idtext0044	le	###p##d	spk2	97.53	97.63	0.01	_
20091112_RATP_SCD_1346	34	14	deux	NULL	adj	NULL	I_GP	MOD	15	idtext0044	deux	#####	spk2	97.64	97.75	0.01	_
20091112_RATP_SCD_1346	34	15	mois	NULL	nc	NULL	I_GP	OBJ	12	idtext0044	mois	##m###	spk2	97.76	98.06	0.01	_
20091112_RATP_SCD_1346	34	16	faire	NULL	vinf	NULL	B_GVi	OBJ	2	idtext0044	faire	W#####	spk2	98.07	98.26	0.01	_
20091112_RATP_SCD_1346	34	17	votre	NULL	det	NULL	B_GN	DET	18	idtext0044	votre	###s##o	spk2	98.27	99.31	0.01	_
20091112_RATP_SCD_1346	34	18	contestation	NULL	nc	NULL	I_GN	OBJ	16	idtext0045	contestation	##f#s##	spk2	99.32	100.46	0.01	_
20091112_RATP_SCD_1346	34	19	maintenant	NULL	adv	NULL	B_GADV	MOD	22	idtext0046	maintenant	#####	spk2	100.47	101.45	0.01	_
20091112_RATP_SCD_1346	34	20	euh	DISF_M	pres	NULL	NULL	NOLINK	0	idtext0046	euh	#####	spk2	101.46	102.14	0.01	_
20091112_RATP_SCD_1346	34	21	la	NULL	det	NULL	B_GN	DET	22	idtext0046	le	##m#s##d	spk2	102.15	102.28	0.01	_
20091112_RATP_SCD_1346	34	22	meilleure	NULL	adj	NULL	I_GN	MOD	18	idtext0046	meilleur	##f#s##	spk2	102.29	102.52	0.01	_
20091112_RATP_SCD_1346	34	23	des	NULL	det	NULL	B_GN	DET	24	idtext0046	des	###p##i	spk2	102.53	102.58	0.01	_
20091112_RATP_SCD_1346	34	24	solutions	NULL	nc	NULL	I_GN	SUJ	26	idtext0046	solution	##f#p##	spk2	102.59	102.96	0.01	//
20091112_RATP_SCD_1346	34	25	c'	NULL	cln	NULL	B_GN	SUJ_IMP	26	idtext0046	ce	###s##	spk2	102.97	103.04	0.01	_
20091112_RATP_SCD_1346	34	26	est	NULL	v	NULL	B_GVf	DEP_COORD	11	idtext0046	être	P#3##s##	spk2	103.05	103.08	0.01	_
20091112_RATP_SCD_1346	34	27	que	NULL	csu	NULL	B_NULL	ATS	26	idtext0046	que	#####	spk2	103.09	103.18	0.01	_
20091112_RATP_SCD_1346	34	28	si	NULL	csu	NULL	B_NULL	OBJ	27	idtext0046	si	#####	spk2	103.19	103.28	0.01	_
20091112_RATP_SCD_1346	34	29	vous	NULL	cln	NULL	B_GN	SUJ	31	idtext0046	cln	#2##p##	spk2	103.29	103.38	0.01	_
20091112_RATP_SCD_1346	34	30	ne	NULL	clneg	NULL	B_GVfn	MOD	31	idtext0046	ne	#####	spk2	103.39	103.45	0.01	_
20091112_RATP_SCD_1346	34	31	voyez	NULL	v	NULL	I_GVfn	OBJ	28	idtext0046	voir	P#2##p##	spk2	103.46	103.7	0.01	_
20091112_RATP_SCD_1346	34	32	rien	NULL	pro	NULL	B_GN	OBJ	31	idtext0046	rien	#####	spk2	103.71	103.91	0.01	_
20091112_RATP_SCD_1346	34	33	venir	NULL	vinf	NULL	B_GVi	OBJ	31	idtext0046	venir	W#####	spk2	103.92	104.22	0.01	_
20091112_RATP_SCD_1346	34	34	dans+ce+cas-là	NULL	adv	NULL	B_GADV	MOD	39	idtext0046	dans+ce+cas-là	#####	spk2	104.23	104.68	0.01	_
20091112_RATP_SCD_1346	34	35	il	DISF_R	cln	NULL	NULL	NOLINK	0	idtext0046	cln	#3#m#s##	spk2	104.69	104.74	0.01	_
20091112_RATP_SCD_1346	34	36	faudrait	DISF_R	v	NULL	NULL	NOLINK	0	idtext0046	falloir	C#3##s##	spk2	104.75	105.14	0.01	_
20091112_RATP_SCD_1346	34	37	euh	DISF_M	pres	NULL	NULL	NOLINK	0	idtext0046	euh	#####	spk2	105.15	105.83	0.01	_
20091112_RATP_SCD_1346	34	38	il	NULL	cln	NULL	B_GN	SUJ_IMP	39	idtext0047	cln	#3#m#s##	spk2	105.84	105.94	0.01	_
20091112_RATP_SCD_1346	34	39	faudrait	NULL	v	NULL	B_GVf	OBJ	33	idtext0047	falloir	C#3##s##	spk2	105.95	106.24	0.01	_
20091112_RATP_SCD_1346	34	40	vous	NULL	clr	NULL	B_GVi	AFF	41	idtext0047	cln	#2##p##	spk2	106.25	106.34	0.01	_
20091112_RATP_SCD_1346	34	41	déplacer	NULL	vinf	NULL	I_GVi	OBJ	39	idtext0047	déplacer	W#####	spk2	106.35	107.17	?	//

20091112_RATP_SCD_1346	35	1	hm+hm	DISF_M	pres	NULL	NULL	NOLINK	0	idtext0048	hm+hm	#####	spk3	107.39	108.61	0.01	_
20091112_RATP_SCD_1346	35	2	OK	NULL	adv	NULL	B_GADV	NOLINK	0	idtext0049	ok	#####	spk3	108.62	108.98	?	//

20091112_RATP_SCD_1346	36	1	bon+ben	DISF_M	pres	NULL	NULL	NOLINK	0	idtext0050	bon+ben	#####	spk3	109.02	109.27	0.01	_
20091112_RATP_SCD_1346	36	2	merci+bien	NULL	adv	NULL	B_GADV	NOLINK	0	idtext0050	merci+bien	#####	spk3	109.28	109.79	?	//

20091112_RATP_SCD_1346	37	1	mais	NULL	coo	NULL	B_NULL	ROOT	0	idtext0051	mais	#####	spk2	109.83	109.93	0.01	_
20091112_RATP_SCD_1346	37	2	je	NULL	cln	NULL	B_GN	SUJ	5	idtext0051	cln	#1##s##	spk2	109.94	110.03	0.01	_
20091112_RATP_SCD_1346	37	3	vous	NULL	clo	NULL	B_GN	OBJ	5	idtext0051	cln	#2##p##	spk2	110.04	110.17	0.01	_
20091112_RATP_SCD_1346	37	4	en	NULL	clo	NULL	B_GN	DE_OBJ	5	idtext0051	en	#####	spk2	110.18	110.25	0.01	_
20091112_RATP_SCD_1346	37	5	prie	NULL	v	NULL	B_GVf	DEP_COORD	1	idtext0051	prier	PS#13##s##	spk2	110.26	110.71	?	//

20091112_RATP_SCD_1346	38	1	bonsoir	NULL	nc	NULL	B_GN	ROOT	0	idtext0052	bonsoir	##m#s##	spk3	110.75	110.94	0.01	//
20091112_RATP_SCD_1346	38	2	madame	NULL	nc	NULL	I_GN	MOD	1	idtext0052	Monsieur	##f#s##	spk3	110.95	111.19	?	//

20091112_RATP_SCD_1346	39	1	bonne	NULL	adj	NULL	B_GN	MOD	2	idtext0053	bon	##f#s##	spk2	111.23	111.42	0.01	_
20091112_RATP_SCD_1346	39	2	fin	NULL	nc	NULL	I_GN	ROOT	0	idtext0053	fin	###s##	spk2	111.43	111.54	0.01	_
20091112_RATP_SCD_1346	39	3	de	NULL	prep	NULL	B_GP	DEP	2	idtext0053	de	#####	spk2	111.55	111.57	0.01	_
20091112_RATP_SCD_1346	39	4	journée	NULL	nc	NULL	I_GP	OBJ	3	idtext0053	journée	##f#s##	spk2	111.58	111.82	?	//

20091112_RATP_SCD_1346	40	1	monsieur	NULL	nc	NULL	B_GN	NOLINK	0	idtext0054	Monsieur	##m#s##	spk2	111.86	112.14	0.01	_
20091112_RATP_SCD_1346	40	2	au+revoir	NULL	adv	NULL	B_GADV	NOLINK	0	idtext0054	au+revoir	#####	spk2	112.15	112.45	?	//

20091112_RATP_SCD_1346	41	1	merci	NULL	adv	NULL	B_GADV	NOLINK	0	idtext0055	merci	#####	spk3	111.86	112.45	?	//

20091112_RATP_SCD_1346	42	1	au+revoir	NULL	adv	NULL	B_GADV	NOLINK	0	idtext0056	au+revoir	#####	spk3	112.5	112.78	?	//

