20091112_RATP_SCD_0719	1	1	un	NULL	det	NULL	B_GN	DET	2	idtext0000	un	##m#s##i	spk1	4.21	4.59	0.01	_
20091112_RATP_SCD_0719	1	2	instant	NULL	nc	NULL	I_GN	ROOT	0	idtext0000	instant	##m#s##	spk1	4.6	4.85	0.31	_
20091112_RATP_SCD_0719	1	3	NNAAMMEE	NULL	np	B_HU	B_GN	ROOT	0	idtext0001	ANONYM	NULL	spk1	5.16	5.35	0.07	_
20091112_RATP_SCD_0719	1	4	va	NULL	v	NULL	B_GVf	ROOT	0	idtext0002	aller	P#3##s##	spk1	5.42	5.47	0.01	_
20091112_RATP_SCD_0719	1	5	vous	NULL	clo	NULL	B_GN	A_OBJ	6	idtext0002	cln	#2##p##	spk1	5.48	5.57	0.01	_
20091112_RATP_SCD_0719	1	6	répondre	NULL	vinf	NULL	B_GVi	OBJ	4	idtext0002	répondre	W#####	spk1	5.58	6.18	?	//

20091112_RATP_SCD_0719	2	1	NNAAMMEE	NULL	np	B_HU	B_GN	ROOT	0	idtext0003	ANONYM	NULL	spk2	6.97	7.16	0.04	_
20091112_RATP_SCD_0719	2	2	bonjour	NULL	adv	NULL	B_GADV	NOLINK	0	idtext0004	bonjour	#####	spk2	7.2	7.73	?	//

20091112_RATP_SCD_0719	3	1	bonjour	NULL	adv	NULL	B_GADV	NOLINK	0	idtext0005	bonjour	#####	spk3	8.25	8.64	?	//

20091112_RATP_SCD_0719	4	1	je	NULL	cln	NULL	B_GN	SUJ	2	idtext0006	cln	#1##s##	spk3	8.68	8.81	0.01	_
20091112_RATP_SCD_0719	4	2	voulais	NULL	v	NULL	B_GVf	ROOT	0	idtext0006	vouloir	I#12##s##	spk3	8.82	9.01	0.01	_
20091112_RATP_SCD_0719	4	3	savoir	NULL	vinf	NULL	I_GVf	OBJ	2	idtext0006	savoir	W#####	spk3	9.02	9.35	0.01	_
20091112_RATP_SCD_0719	4	4	si	NULL	csu	NULL	B_NULL	OBJ	3	idtext0006	si	#####	spk3	9.36	9.51	0.01	_
20091112_RATP_SCD_0719	4	5	la	NULL	det	NULL	B_GN	DET	6	idtext0006	le	##m#s##d	spk3	9.52	9.81	0.01	_
20091112_RATP_SCD_0719	4	6	grève	NULL	nc	NULL	I_GN	SUJ	11	idtext0006	grève	##f#s##	spk3	9.82	10.29	0.01	_
20091112_RATP_SCD_0719	4	7	sur	NULL	prep	NULL	B_GP	P_OBJ	6	idtext0006	sur	#####	spk3	10.3	10.42	0.01	_
20091112_RATP_SCD_0719	4	8	le	NULL	det	NULL	I_GP	DET	9	idtext0006	le	##m#s##d	spk3	10.43	10.64	0.01	_
20091112_RATP_SCD_0719	4	9	RER+B	NULL	nc	B_T	I_GP	OBJ	7	idtext0006	RER+B	#####	spk3	10.65	11.32	0.01	_
20091112_RATP_SCD_0719	4	10	était	NULL	v	NULL	B_GVf	AUX	11	idtext0006	être	I#3##s##	spk3	11.33	11.51	0.01	_
20091112_RATP_SCD_0719	4	11	reconduite	NULL	vppart	NULL	I_GVf	OBJ	4	idtext0006	reconduire	K##f#s##	spk3	11.52	12.13	0.01	_
20091112_RATP_SCD_0719	4	12	demain	NULL	adv	NULL	B_GADV	MOD	11	idtext0006	demain	#####	spk3	12.14	12.42	0.01	_
20091112_RATP_SCD_0719	4	13	vendredi	NULL	nc	NULL	B_GN	NOLINK	0	idtext0006	vendredi	##m#s##	spk3	12.43	13.4	?	//

20091112_RATP_SCD_0719	5	1	normalement	NULL	adv	NULL	B_GADV	MOD	2	idtext0007	normalement	#####	spk2	13.44	13.99	0.01	_
20091112_RATP_SCD_0719	5	2	oui	NULL	adv	NULL	I_GADV	ROOT	0	idtext0007	oui	#####	spk2	14.0	14.69	0.04	_
20091112_RATP_SCD_0719	5	3	pour	NULL	prep	NULL	B_GP	ROOT	0	idtext0008	pour	#####	spk2	14.73	14.81	0.01	_
20091112_RATP_SCD_0719	5	4	l'	NULL	det	NULL	I_GP	DET	5	idtext0008	le	###s##d	spk2	14.82	14.84	0.01	_
20091112_RATP_SCD_0719	5	5	instant	NULL	nc	NULL	I_GP	OBJ	3	idtext0008	instant	##m#s##	spk2	14.85	15.05	0.01	_
20091112_RATP_SCD_0719	5	6	on	NULL	cln	NULL	B_GN	SUJ	7	idtext0008	cln	#3##s##	spk2	15.06	15.2	0.01	_
20091112_RATP_SCD_0719	5	7	a	NULL	v	NULL	B_GVfn	ROOT	0	idtext0008	avoir	P#3##s##	spk2	15.21	15.26	0.01	_
20091112_RATP_SCD_0719	5	8	pas	NULL	advneg	NULL	I_GVfn	MOD	7	idtext0008	pas	#####	spk2	15.27	15.63	0.01	_
20091112_RATP_SCD_0719	5	9	de	NULL	prep	NULL	B_NULL	OBJ	7	idtext0008	de	#####	spk2	15.64	16.0	0.01	_
20091112_RATP_SCD_0719	5	10	euh	DISF_M	pres	NULL	NULL	NOLINK	0	idtext0008	euh	#####	spk2	16.01	16.73	0.06	_
20091112_RATP_SCD_0719	5	11	euh	DISF_M	pres	NULL	NULL	NOLINK	0	idtext0009	euh	#####	spk2	16.79	16.81	0.01	_
20091112_RATP_SCD_0719	5	12	on	NULL	cln	NULL	B_GN	SUJ	14	idtext0009	cln	#3##s##	spk2	16.82	17.34	0.01	_
20091112_RATP_SCD_0719	5	13	n'	NULL	clneg	NULL	B_GVfn	MOD	14	idtext0009	n'	#####	spk2	17.35	17.41	0.01	_
20091112_RATP_SCD_0719	5	14	a	NULL	v	NULL	I_GVfn	ROOT	0	idtext0009	avoir	P#3##s##	spk2	17.42	17.48	0.01	_
20091112_RATP_SCD_0719	5	15	pas	NULL	advneg	NULL	I_GVfn	MOD	14	idtext0009	pas	#####	spk2	17.49	17.59	0.01	_
20091112_RATP_SCD_0719	5	16	d'	NULL	prep	NULL	B_GP	OBJ	14	idtext0009	d'	#####	spk2	17.6	17.63	0.01	_
20091112_RATP_SCD_0719	5	17	informations	NULL	nc	NULL	I_GP	OBJ	16	idtext0009	information	##f#p##	spk2	17.64	18.19	0.01	_
20091112_RATP_SCD_0719	5	18	concernant	NULL	prep	NULL	B_GP	MOD	17	idtext0009	concernant	#####	spk2	18.2	18.94	0.01	_
20091112_RATP_SCD_0719	5	19	euh	DISF_M	pres	NULL	NULL	NOLINK	0	idtext0009	euh	#####	spk2	18.95	20.16	0.01	_
20091112_RATP_SCD_0719	5	20	l'	NULL	det	NULL	I_GP	DET	21	idtext0009	le	###s##d	spk2	20.17	20.49	0.01	_
20091112_RATP_SCD_0719	5	21	arrêt	NULL	nc	NULL	I_GP	OBJ	18	idtext0009	arrêt	##m#s##	spk2	20.5	21.2	?	//

20091112_RATP_SCD_0719	6	1	d'accord	NULL	adv	NULL	B_GADV	NOLINK	0	idtext0010	d'accord	#####	spk3	21.25	21.63	?	//

20091112_RATP_SCD_0719	7	1	si	NULL	csu	NULL	B_NULL	ROOT	0	idtext0011	si	#####	spk2	21.67	21.75	0.01	_
20091112_RATP_SCD_0719	7	2	je	NULL	cln	NULL	B_GN	SUJ	3	idtext0011	cln	#1##s##	spk2	21.76	21.8	0.01	_
20091112_RATP_SCD_0719	7	3	peux	NULL	v	NULL	B_GVf	OBJ	1	idtext0011	pouvoir	P#12##s##	spk2	21.81	21.87	0.01	_
20091112_RATP_SCD_0719	7	4	dire	NULL	vinf	NULL	I_GVf	OBJ	3	idtext0011	dire	W#####	spk2	21.88	21.96	0.01	_
20091112_RATP_SCD_0719	7	5	de	NULL	prep	NULL	B_GP	NOLINK	0	idtext0011	de	#####	spk2	21.97	21.99	0.01	_
20091112_RATP_SCD_0719	7	6	la	NULL	det	NULL	I_GP	DET	7	idtext0011	le	##m#s##d	spk2	22.0	22.08	0.01	_
20091112_RATP_SCD_0719	7	7	grève	NULL	nc	NULL	I_GP	OBJ	5	idtext0011	grève	##f#s##	spk2	22.09	22.39	0.01	_
20091112_RATP_SCD_0719	7	8	demain	NULL	adv	NULL	B_GADV	MOD	7	idtext0011	demain	#####	spk2	22.4	22.73	0.04	_
20091112_RATP_SCD_0719	7	9	donc	NULL	coo	NULL	B_NULL	ROOT	0	idtext0012	donc	#####	spk2	22.77	22.93	0.01	_
20091112_RATP_SCD_0719	7	10	on	NULL	cln	NULL	B_GN	SUJ_IMP	11	idtext0012	cln	#3##s##	spk2	22.94	23.01	0.01	_
20091112_RATP_SCD_0719	7	11	va	NULL	v	NULL	B_GVf	DEP_COORD	9	idtext0012	aller	P#3##s##	spk2	23.02	23.13	0.01	_
20091112_RATP_SCD_0719	7	12	dire	NULL	vinf	NULL	I_GVf	OBJ	11	idtext0012	dire	W#####	spk2	23.14	23.41	0.01	_
20091112_RATP_SCD_0719	7	13	que	NULL	csu	NULL	B_NULL	OBJ	12	idtext0012	que	#####	spk2	23.42	23.51	0.01	_
20091112_RATP_SCD_0719	7	14	oui	NULL	adv	NULL	B_GADV	NOLINK	0	idtext0012	oui	#####	spk2	23.52	23.71	0.01	_
20091112_RATP_SCD_0719	7	15	tout+en	NULL	prep	NULL	B_GP	OBJ	13	idtext0012	tout+en	#####	spk2	23.72	23.99	0.01	_
20091112_RATP_SCD_0719	7	16	espérant	NULL	vprespart	NULL	I_GP	OBJ	15	idtext0012	espérer	G#####	spk2	24.0	24.39	0.01	_
20091112_RATP_SCD_0719	7	17	que	NULL	csu	NULL	B_NULL	OBJ	16	idtext0012	que	#####	spk2	24.4	24.55	0.01	_
20091112_RATP_SCD_0719	7	18	demain	NULL	adv	NULL	B_GADV	NOLINK	0	idtext0012	demain	#####	spk2	24.56	24.91	0.01	_
20091112_RATP_SCD_0719	7	19	ça	NULL	pro	NULL	B_GN	SUJ_IMP	21	idtext0012	ça	#####	spk2	24.92	24.98	0.01	_
20091112_RATP_SCD_0719	7	20	sera	NULL	v	NULL	B_GVf	AUX	21	idtext0012	être	F#3##s##	spk2	24.99	25.15	0.01	_
20091112_RATP_SCD_0719	7	21	rétabli	NULL	vppart	NULL	I_GVf	OBJ	17	idtext0012	rétablir	K##m#s##	spk2	25.16	25.68	0.44	//
20091112_RATP_SCD_0719	7	22	mais	NULL	coo	NULL	B_NULL	ROOT	0	idtext0013	mais	#####	spk2	26.12	26.31	0.01	_
20091112_RATP_SCD_0719	7	23	comme	NULL	adv	NULL	B_GADV	NOLINK	0	idtext0013	comme	#####	spk2	26.32	26.81	0.01	_
20091112_RATP_SCD_0719	7	24	euh	DISF_M	pres	NULL	NULL	NOLINK	0	idtext0013	euh	#####	spk2	26.82	26.94	0.01	_
20091112_RATP_SCD_0719	7	25	c'	NULL	cln	NULL	B_GN	SUJ_IMP	27	idtext0013	ce	###s##	spk2	26.95	26.99	0.01	_
20091112_RATP_SCD_0719	7	26	est	NULL	v	NULL	B_GVf	AUX	27	idtext0013	être	P#3##s##	spk2	27.0	27.09	0.01	_
20091112_RATP_SCD_0719	7	27	illimité	NULL	vppart	NULL	I_GVf	DEP_COORD	22	idtext0013	illimiter	K##m#s##	spk2	27.1	28.1	?	//

20091112_RATP_SCD_0719	8	1	oui	NULL	adv	NULL	B_GADV	NOLINK	0	idtext0014	oui	#####	spk3	28.15	28.59	?	//

20091112_RATP_SCD_0719	9	1	l'	NULL	det	NULL	B_GN	DET	2	idtext0015	le	###s##d	spk2	28.63	28.66	0.01	_
20091112_RATP_SCD_0719	9	2	information	NULL	nc	NULL	I_GN	SUJ	10	idtext0015	information	##f#s##	spk2	28.67	29.17	0.01	_
20091112_RATP_SCD_0719	9	3	qu'	NULL	prorel	NULL	B_NULL	OBJ	5	idtext0015	qu'	#####	spk2	29.18	29.23	0.01	_
20091112_RATP_SCD_0719	9	4	on	NULL	cln	NULL	B_GN	SUJ	5	idtext0015	cln	#3##s##	spk2	29.24	29.26	0.01	_
20091112_RATP_SCD_0719	9	5	a	NULL	v	NULL	B_GVf	MOD_REL	2	idtext0015	avoir	P#3##s##	spk2	29.27	29.29	0.01	_
20091112_RATP_SCD_0719	9	6	c'	DISF_R	cln	NULL	NULL	NOLINK	0	idtext0015	ce	###s##	spk2	29.3	29.32	0.01	_
20091112_RATP_SCD_0719	9	7	est	DISF_R	v	NULL	NULL	NOLINK	0	idtext0015	être	P#3##s##	spk2	29.33	29.35	0.01	_
20091112_RATP_SCD_0719	9	8	comme	DISF_R	adv	NULL	NULL	NOLINK	0	idtext0015	comme	#####	spk2	29.36	29.44	0.01	_
20091112_RATP_SCD_0719	9	9	c'	NULL	cln	NULL	B_GN	SUJ_IMP	10	idtext0015	ce	###s##	spk2	29.45	29.52	0.01	_
20091112_RATP_SCD_0719	9	10	est	NULL	v	NULL	B_GVf	ROOT	0	idtext0015	être	P#3##s##	spk2	29.53	29.56	0.01	_
20091112_RATP_SCD_0719	9	11	comme	NULL	adv	NULL	B_GADV	MOD	10	idtext0015	comme	#####	spk2	29.57	29.71	0.01	_
20091112_RATP_SCD_0719	9	12	la	NULL	det	NULL	B_GN	DET	13	idtext0015	le	##m#s##d	spk2	29.72	29.79	0.01	_
20091112_RATP_SCD_0719	9	13	grève	NULL	nc	NULL	I_GN	SUJ	15	idtext0015	grève	##f#s##	spk2	29.8	29.99	0.01	_
20091112_RATP_SCD_0719	9	14	est	NULL	v	NULL	B_GVf	AUX	15	idtext0015	être	P#3##s##	spk2	30.0	30.07	0.01	_
20091112_RATP_SCD_0719	9	15	illimitée	NULL	vppart	NULL	I_GVf	OBJ	11	idtext0015	illimiter	K##f#s##	spk2	30.08	30.89	0.05	/
20091112_RATP_SCD_0719	9	16	on	NULL	cln	NULL	B_GN	SUJ_IMP	18	idtext0016	cln	#3##s##	spk2	30.94	31.05	0.01	_
20091112_RATP_SCD_0719	9	17	est	NULL	v	NULL	B_GVf	AUX	18	idtext0016	être	P#3##s##	spk2	31.06	31.2	0.01	_
20091112_RATP_SCD_0719	9	18	censé	NULL	vppart	NULL	I_GVf	ROOT	0	idtext0016	censé	#####	spk2	31.21	31.52	0.01	_
20091112_RATP_SCD_0719	9	19	être	NULL	vinf	NULL	B_GVi	OBJ	18	idtext0016	être	W#####	spk2	31.53	31.66	0.01	_
20091112_RATP_SCD_0719	9	20	encore	NULL	adv	NULL	B_GADV	MOD	19	idtext0016	encore	#####	spk2	31.67	32.28	0.01	_
20091112_RATP_SCD_0719	9	21	sur	NULL	prep	NULL	B_GP	ATS	19	idtext0017	sur	#####	spk2	32.29	32.86	0.01	_
20091112_RATP_SCD_0719	9	22	un	NULL	det	NULL	I_GP	DET	23	idtext0017	un	##m#s##i	spk2	32.87	32.99	0.01	_
20091112_RATP_SCD_0719	9	23	mouvement	NULL	nc	NULL	I_GP	OBJ	21	idtext0017	mouvement	##m#s##	spk2	33.0	33.3	0.01	_
20091112_RATP_SCD_0719	9	24	de	NULL	prep	NULL	B_GP	DEP	23	idtext0017	de	#####	spk2	33.31	33.33	0.01	_
20091112_RATP_SCD_0719	9	25	grève	NULL	nc	NULL	I_GP	OBJ	24	idtext0017	grève	##f#s##	spk2	33.34	33.59	0.01	_
20091112_RATP_SCD_0719	9	26	demain	NULL	adv	NULL	B_GADV	MOD	19	idtext0017	demain	#####	spk2	33.6	34.11	?	//

20091112_RATP_SCD_0719	10	1	d'accord	NULL	adv	NULL	B_GADV	NOLINK	0	idtext0018	d'accord	#####	spk3	34.15	34.52	?	//

20091112_RATP_SCD_0719	11	1	voilà	DISF_M	pres	NULL	NULL	NOLINK	0	idtext0019	voilà	#####	spk2	34.56	34.9	0.01	_
20091112_RATP_SCD_0719	11	2	madame	NULL	nc	NULL	B_GN	NOLINK	0	idtext0019	Monsieur	##f#s##	spk2	34.91	35.13	?	//

20091112_RATP_SCD_0719	12	1	et	DISF_R	coo	NULL	NULL	NOLINK	0	idtext0020	et	#####	spk3	34.56	34.62	0.01	_
20091112_RATP_SCD_0719	12	2	et	NULL	coo	NULL	B_NULL	NOLINK	0	idtext0020	et	#####	spk3	34.63	35.13	?	_

20091112_RATP_SCD_0719	13	1	si	NULL	csu	NULL	B_NULL	ROOT	0	idtext0021	si	#####	spk3	35.21	35.31	0.01	_
20091112_RATP_SCD_0719	13	2	il	NULL	cln	NULL	B_GN	SUJ_IMP	4	idtext0021	cln	#3#m#s##	spk3	35.32	35.42	0.01	_
20091112_RATP_SCD_0719	13	3	y	NULL	clo	NULL	B_GN	AFF	4	idtext0021	y	#####	spk3	35.43	35.52	0.01	_
20091112_RATP_SCD_0719	13	4	a	NULL	v	NULL	B_GVf	OBJ	1	idtext0021	avoir	P#3##s##	spk3	35.53	35.55	0.01	_
20091112_RATP_SCD_0719	13	5	une	NULL	det	NULL	B_GN	DET	6	idtext0021	un	##f#s##i	spk3	35.56	35.69	0.01	_
20091112_RATP_SCD_0719	13	6	information	NULL	nc	NULL	I_GN	OBJ	4	idtext0021	information	##f#s##	spk3	35.7	36.35	0.01	_
20091112_RATP_SCD_0719	13	7	euh	DISF_M	pres	NULL	NULL	NOLINK	0	idtext0021	euh	#####	spk3	36.36	36.38	0.01	_
20091112_RATP_SCD_0719	13	8	où+est-ce	NULL	pri	NULL	B_NULL	NOLINK	0	idtext0021	où+est-ce	#####	spk3	36.39	37.0	?	//

20091112_RATP_SCD_0719	14	1	ça	NULL	pro	NULL	B_GN	SUJ_IMP	2	idtext0022	ça	#####	spk2	37.04	37.11	0.01	_
20091112_RATP_SCD_0719	14	2	sera	NULL	v	NULL	B_GVf	ROOT	0	idtext0022	être	F#3##s##	spk2	37.12	37.29	0.01	_
20091112_RATP_SCD_0719	14	3	demain	NULL	adv	NULL	B_GADV	MOD	2	idtext0022	demain	#####	spk2	37.3	37.5	0.01	_
20091112_RATP_SCD_0719	14	4	matin	NULL	nc	NULL	B_GN	ATS	2	idtext0022	matin	##m#s##	spk2	37.51	37.98	?	//

20091112_RATP_SCD_0719	15	1	ça	NULL	pro	NULL	B_GN	SUJ_IMP	2	idtext0023	ça	#####	spk3	38.04	38.09	0.01	_
20091112_RATP_SCD_0719	15	2	sera	NULL	v	NULL	B_GVf	ROOT	0	idtext0023	être	F#3##s##	spk3	38.1	38.26	0.01	_
20091112_RATP_SCD_0719	15	3	demain	NULL	adv	NULL	B_GADV	MOD	2	idtext0023	demain	#####	spk3	38.27	38.45	0.01	_
20091112_RATP_SCD_0719	15	4	matin	NULL	nc	NULL	B_GN	ATS	2	idtext0023	matin	##m#s##	spk3	38.46	38.63	?	//

20091112_RATP_SCD_0719	16	1	uniquement	NULL	adv	NULL	B_GADV	NOLINK	0	idtext0024	uniquement	#####	spk3	38.67	39.13	0.04	_
20091112_RATP_SCD_0719	16	2	d'accord	NULL	adv	NULL	B_GADV	NOLINK	0	idtext0026	d'accord	#####	spk3	39.17	39.54	?	_

20091112_RATP_SCD_0719	17	1	oui	NULL	adv	NULL	B_GADV	NOLINK	0	idtext0025	oui	#####	spk2	38.67	39.13	0.05	_
20091112_RATP_SCD_0719	17	2	oui	NULL	adv	NULL	B_GADV	NOLINK	0	idtext0027	oui	#####	spk2	39.18	39.54	?	_

20091112_RATP_SCD_0719	18	1	tout+à+fait	NULL	adv	NULL	B_GADV	NOLINK	0	idtext0028	tout+à+fait	#####	spk2	39.58	39.98	?	//

20091112_RATP_SCD_0719	19	1	merci	NULL	adv	NULL	B_GADV	NOLINK	0	idtext0029	merci	#####	spk3	40.05	40.57	?	//

20091112_RATP_SCD_0719	20	1	je	NULL	cln	NULL	B_GN	SUJ	4	idtext0030	cln	#1##s##	spk2	40.68	40.83	0.01	_
20091112_RATP_SCD_0719	20	2	vous	NULL	clo	NULL	B_GN	OBJ	4	idtext0030	cln	#2##p##	spk2	40.84	40.99	0.01	_
20091112_RATP_SCD_0719	20	3	en	NULL	clo	NULL	B_GN	DE_OBJ	4	idtext0030	en	#####	spk2	41.0	41.07	0.01	_
20091112_RATP_SCD_0719	20	4	prie	NULL	v	NULL	B_GVf	ROOT	0	idtext0030	prier	PS#13##s##	spk2	41.08	41.22	0.04	_
20091112_RATP_SCD_0719	20	5	bonne	NULL	adj	NULL	B_GN	MOD	6	idtext0031	bon	##f#s##	spk2	41.26	41.35	0.01	_
20091112_RATP_SCD_0719	20	6	journée	NULL	nc	NULL	I_GN	ROOT	0	idtext0031	journée	##f#s##	spk2	41.36	41.51	0.01	_
20091112_RATP_SCD_0719	20	7	madame	NULL	nc	NULL	B_GN	NOLINK	0	idtext0031	Monsieur	##f#s##	spk2	41.52	41.7	?	//

