20091112_RATP_SCD_0281	1	1	un	NULL	det	NULL	B_GN	DET	2	idtext0000	un	##m#s##i	spk1	2.61	2.71	0.01	_
20091112_RATP_SCD_0281	1	2	instant	NULL	nc	NULL	I_GN	ROOT	0	idtext0000	instant	##m#s##	spk1	2.72	3.19	0.31	//
20091112_RATP_SCD_0281	1	3	NNAAMMEE	NULL	np	B_HU	B_GN	ROOT	0	idtext0001	ANONYM	NULL	spk1	3.5	3.69	0.01	_
20091112_RATP_SCD_0281	1	4	va	NULL	v	NULL	B_GVf	ROOT	0	idtext0002	aller	P#3##s##	spk1	3.7	3.7	0.00	_
20091112_RATP_SCD_0281	1	5	vous	NULL	clo	NULL	B_GN	A_OBJ	6	idtext0002	cln	#2##p##	spk1	3.7	3.7	0.00	_
20091112_RATP_SCD_0281	1	6	répondre	NULL	vinf	NULL	B_GVi	OBJ	4	idtext0002	répondre	W#####	spk1	3.7	3.98	?	//

20091112_RATP_SCD_0281	2	1	NNAAMMEE	NULL	np	B_HU	B_GN	ROOT	0	idtext0003	ANONYM	NULL	spk2	4.02	4.48	0.04	_
20091112_RATP_SCD_0281	2	2	bonjour	NULL	adv	NULL	B_GADV	NOLINK	0	idtext0004	bonjour	#####	spk2	4.52	5.28	?	//

20091112_RATP_SCD_0281	3	1	oui	NULL	adv	NULL	B_GADV	MOD	2	idtext0005	oui	#####	spk3	5.34	5.65	0.01	_
20091112_RATP_SCD_0281	3	2	bonjour	NULL	adv	NULL	I_GADV	ROOT	0	idtext0005	bonjour	#####	spk3	5.66	5.91	0.01	_
20091112_RATP_SCD_0281	3	3	madame	NULL	nc	NULL	B_GN	NOLINK	0	idtext0005	Monsieur	##f#s##	spk3	5.92	6.31	?	//

20091112_RATP_SCD_0281	4	1	bonjour	NULL	adv	NULL	B_GADV	NOLINK	0	idtext0006	bonjour	#####	spk2	6.35	6.51	0.01	_
20091112_RATP_SCD_0281	4	2	madame	NULL	nc	NULL	B_GN	NOLINK	0	idtext0006	Monsieur	##f#s##	spk2	6.52	6.91	?	//

20091112_RATP_SCD_0281	5	1	euh	DISF_M	pres	NULL	NULL	NOLINK	0	idtext0007	euh	#####	spk3	6.96	7.13	0.01	_
20091112_RATP_SCD_0281	5	2	je	NULL	cln	NULL	B_GN	SUJ	4	idtext0007	cln	#1##s##	spk3	7.14	7.42	0.01	_
20091112_RATP_SCD_0281	5	3	me	NULL	clr	NULL	B_GVf	AFF	4	idtext0007	cla	#1##s##	spk3	7.43	7.86	0.01	_
20091112_RATP_SCD_0281	5	4	permets	NULL	v	NULL	I_GVf	ROOT	0	idtext0007	permettre	P#12##s##	spk3	7.87	8.11	0.01	_
20091112_RATP_SCD_0281	5	5	de	NULL	prep	NULL	B_GP	OBJ	4	idtext0007	de	#####	spk3	8.12	8.14	0.01	_
20091112_RATP_SCD_0281	5	6	vous	NULL	clo	NULL	I_GP	OBJ	7	idtext0007	cln	#2##p##	spk3	8.15	8.26	0.01	_
20091112_RATP_SCD_0281	5	7	appeler	NULL	vinf	NULL	B_GVi	OBJ	5	idtext0007	appeler	W#####	spk3	8.27	8.54	0.01	//
20091112_RATP_SCD_0281	5	8	parce+que	NULL	csu	NULL	B_NULL	MOD	4	idtext0007	parce+que	#####	spk3	8.55	8.97	0.01	_
20091112_RATP_SCD_0281	5	9	je	NULL	cln	NULL	B_GN	SUJ	10	idtext0007	cln	#1##s##	spk3	8.98	9.13	0.01	_
20091112_RATP_SCD_0281	5	10	reçois	NULL	v	NULL	B_GVf	OBJ	8	idtext0007	recevoir	P#12##s##	spk3	9.14	9.43	0.01	_
20091112_RATP_SCD_0281	5	11	un	NULL	det	NULL	B_GN	DET	12	idtext0007	un	##m#s##i	spk3	9.44	9.52	0.01	_
20091112_RATP_SCD_0281	5	12	courrier	NULL	nc	NULL	I_GN	OBJ	10	idtext0007	courrier	##m#s##	spk3	9.53	10.16	0.01	_
20091112_RATP_SCD_0281	5	13	euh	DISF_M	pres	NULL	NULL	NOLINK	0	idtext0007	euh	#####	spk3	10.17	10.82	0.01	_
20091112_RATP_SCD_0281	5	14	du	NULL	prep	NULL	B_GP	DEP	12	idtext0007	du	#####	spk3	10.83	10.98	0.01	_
20091112_RATP_SCD_0281	5	15	concernant	NULL	vprespart	NULL	I_GP	OBJ	14	idtext0007	concerner	G#####	spk3	10.99	11.51	0.01	_
20091112_RATP_SCD_0281	5	16	une	NULL	det	NULL	B_GN	DET	17	idtext0007	un	##f#s##i	spk3	11.52	11.58	0.01	_
20091112_RATP_SCD_0281	5	17	lettre	NULL	nc	NULL	I_GN	OBJ	15	idtext0007	lettre	##f#s##	spk3	11.59	11.74	0.01	_
20091112_RATP_SCD_0281	5	18	de	NULL	prep	NULL	B_GP	DEP	17	idtext0007	de	#####	spk3	11.75	11.81	0.01	_
20091112_RATP_SCD_0281	5	19	réclamation	NULL	nc	NULL	I_GP	OBJ	18	idtext0007	réclamation	##f#s##	spk3	11.82	12.43	0.01	/
20091112_RATP_SCD_0281	5	20	que	NULL	prorel	NULL	B_NULL	OBJ	24	idtext0007	que	#####	spk3	12.44	12.46	0.01	_
20091112_RATP_SCD_0281	5	21	je	NULL	cln	NULL	B_GN	SUJ	24	idtext0007	cln	#1##s##	spk3	12.47	12.51	0.01	_
20091112_RATP_SCD_0281	5	22	vous	NULL	clo	NULL	B_GN	OBJ	24	idtext0007	cln	#2##p##	spk3	12.52	12.66	0.01	_
20091112_RATP_SCD_0281	5	23	ai	NULL	v	NULL	B_GVf	AUX	24	idtext0007	avoir	P#1##s##	spk3	12.67	12.78	0.01	_
20091112_RATP_SCD_0281	5	24	fait	NULL	vppart	NULL	I_GVf	MOD_REL	17	idtext0007	faire	P#3##s##	spk3	12.79	13.1	0.01	_
20091112_RATP_SCD_0281	5	25	suite+à	NULL	prep	NULL	B_GP	P_OBJ	24	idtext0007	suite+à	#####	spk3	13.11	13.41	0.01	_
20091112_RATP_SCD_0281	5	26	une	NULL	det	NULL	I_GP	DET	27	idtext0007	un	##f#s##i	spk3	13.42	13.5	0.01	_
20091112_RATP_SCD_0281	5	27	amende	NULL	nc	NULL	I_GP	OBJ	25	idtext0007	amende	##f#s##	spk3	13.51	13.72	0.01	_
20091112_RATP_SCD_0281	5	28	que	NULL	prorel	NULL	B_NULL	OBJ	32	idtext0007	que	#####	spk3	13.73	13.83	0.01	_
20091112_RATP_SCD_0281	5	29	ma	NULL	det	NULL	B_GN	DET	30	idtext0007	mon	##f#s##o	spk3	13.84	14.01	0.01	_
20091112_RATP_SCD_0281	5	30	fille	NULL	nc	NULL	I_GN	SUJ	32	idtext0007	fille	##f#s##	spk3	14.02	14.24	0.01	_
20091112_RATP_SCD_0281	5	31	a	NULL	v	NULL	B_GVf	AUX	32	idtext0007	avoir	P#3##s##	spk3	14.25	14.31	0.01	_
20091112_RATP_SCD_0281	5	32	eu	NULL	vppart	NULL	I_GVf	MOD_REL	27	idtext0007	avoir	K##m#s##	spk3	14.32	14.75	0.47	_
20091112_RATP_SCD_0281	5	33	suite+à	NULL	prep	NULL	B_GP	ROOT	0	idtext0008	suite+à	#####	spk3	15.22	15.47	0.01	_
20091112_RATP_SCD_0281	5	34	une	DISF_R	det	NULL	NULL	NOLINK	0	idtext0008	un	##f#s##i	spk3	15.48	15.65	0.01	_
20091112_RATP_SCD_0281	5	35	à	DISF_R	prep	NULL	NULL	NOLINK	0	idtext0008	à	#####	spk3	15.66	15.68	0.01	_
20091112_RATP_SCD_0281	5	36	un	NULL	det	NULL	I_GP	DET	37	idtext0008	un	##m#s##i	spk3	15.69	15.83	0.01	_
20091112_RATP_SCD_0281	5	37	dysfonctionnement	NULL	nc	NULL	I_GP	OBJ	33	idtext0008	dysfonctionnement	##m#s##	spk3	15.84	16.44	0.01	_
20091112_RATP_SCD_0281	5	38	de	NULL	prep	NULL	B_GP	DEP	37	idtext0008	de	#####	spk3	16.45	16.52	0.01	_
20091112_RATP_SCD_0281	5	39	sa	NULL	det	NULL	I_GP	DET	40	idtext0008	sa	##f#s##o	spk3	16.53	16.6	0.01	_
20091112_RATP_SCD_0281	5	40	carte	NULL	nc	B_PRD	I_GP	OBJ	38	idtext0008	carte	##f#s##	spk3	16.61	16.88	0.01	_
20091112_RATP_SCD_0281	5	41	Imagine+R	NULL	np	I_PRD	I_GP	MOD	40	idtext0008	Imagine+R	#####	spk3	16.89	17.48	?	//

20091112_RATP_SCD_0281	6	1	oui	NULL	adv	NULL	B_GADV	NOLINK	0	idtext0009	oui	#####	spk2	17.59	17.79	?	//

20091112_RATP_SCD_0281	7	1	sur+lequel	NULL	prorel	NULL	B_NULL	OBJ	4	idtext0010	sur+lequel	#####	spk3	17.83	18.06	0.01	_
20091112_RATP_SCD_0281	7	2	vous	NULL	cln	NULL	B_GN	SUJ	4	idtext0010	cln	#2##p##	spk3	18.07	18.16	0.01	_
20091112_RATP_SCD_0281	7	3	avez	NULL	v	NULL	B_GVf	AUX	4	idtext0010	avoir	P#2##p##	spk3	18.17	18.32	0.01	_
20091112_RATP_SCD_0281	7	4	fait	NULL	vppart	NULL	I_GVf	ROOT	0	idtext0010	faire	P#3##s##	spk3	18.33	18.4	0.01	_
20091112_RATP_SCD_0281	7	5	un	NULL	det	NULL	B_GN	DET	6	idtext0010	un	##m#s##i	spk3	18.41	18.49	0.01	_
20091112_RATP_SCD_0281	7	6	courrier	NULL	nc	NULL	I_GN	OBJ	4	idtext0010	courrier	##m#s##	spk3	18.5	19.1	?	//

20091112_RATP_SCD_0281	8	1	oui	NULL	adv	NULL	B_GADV	NOLINK	0	idtext0011	oui	#####	spk2	18.6	19.1	?	//

20091112_RATP_SCD_0281	9	1	parce+que	NULL	csu	NULL	B_NULL	ROOT	0	idtext0012	parce+que	#####	spk3	19.15	19.46	0.01	_
20091112_RATP_SCD_0281	9	2	je	NULL	cln	NULL	B_GN	SUJ	3	idtext0012	cln	#1##s##	spk3	19.47	19.51	0.01	_
20091112_RATP_SCD_0281	9	3	trouve	NULL	v	NULL	B_GVf	OBJ	1	idtext0012	trouver	PS#13##s##	spk3	19.52	19.71	0.01	_
20091112_RATP_SCD_0281	9	4	ça	NULL	pro	NULL	B_GN	OBJ	3	idtext0012	ça	#####	spk3	19.72	19.81	0.01	_
20091112_RATP_SCD_0281	9	5	inadmissible	NULL	adj	NULL	I_GN	ATO	3	idtext0012	inadmissible	###s##	spk3	19.82	21.04	0.01	//
20091112_RATP_SCD_0281	9	6	euh	DISF_M	pres	NULL	NULL	NOLINK	0	idtext0012	euh	#####	spk3	21.05	21.09	0.01	_
20091112_RATP_SCD_0281	9	7	qu'	NULL	csu	NULL	B_NULL	OBJ	5	idtext0013	qu'	#####	spk3	21.1	21.14	0.01	_
20091112_RATP_SCD_0281	9	8	on	NULL	cln	NULL	B_GN	SUJ_IMP	11	idtext0013	cln	#3##s##	spk3	21.15	21.27	0.01	_
20091112_RATP_SCD_0281	9	9	lui	NULL	clo	NULL	B_GN	A_OBJ	11	idtext0013	lui	#####	spk3	21.28	21.44	0.01	_
20091112_RATP_SCD_0281	9	10	ait	NULL	v	NULL	B_GVf	AUX	11	idtext0013	avoir	S#3##s##	spk3	21.45	21.48	0.01	_
20091112_RATP_SCD_0281	9	11	mis	NULL	vppart	NULL	I_GVf	OBJ	7	idtext0013	mettre	J#12##s##	spk3	21.49	21.61	0.01	_
20091112_RATP_SCD_0281	9	12	une	NULL	det	NULL	B_GN	DET	13	idtext0013	un	##f#s##i	spk3	21.62	21.69	0.01	_
20091112_RATP_SCD_0281	9	13	amende	NULL	nc	NULL	I_GN	OBJ	11	idtext0013	amende	##f#s##	spk3	21.7	21.98	0.04	_
20091112_RATP_SCD_0281	9	14	elle	NULL	cln	NULL	B_GN	SUJ	15	idtext0014	cln	#3#f#s##	spk3	22.02	22.12	0.01	_
20091112_RATP_SCD_0281	9	15	avait	NULL	v	NULL	B_GVf	ROOT	0	idtext0014	avoir	I#3##s##	spk3	22.13	22.28	0.01	_
20091112_RATP_SCD_0281	9	16	quand+même	NULL	adv	NULL	B_GADV	MOD	15	idtext0014	quand+même	#####	spk3	22.29	22.63	0.01	_
20091112_RATP_SCD_0281	9	17	une	NULL	det	NULL	B_GN	DET	18	idtext0014	un	##f#s##i	spk3	22.64	22.73	0.01	_
20091112_RATP_SCD_0281	9	18	carte	NULL	nc	NULL	I_GN	OBJ	15	idtext0014	carte	##f#s##	spk3	22.74	23.02	0.01	/
20091112_RATP_SCD_0281	9	19	qu'	NULL	prorel	NULL	B_NULL	SUJ	22	idtext0014	qu'	#####	spk3	23.03	23.08	0.01	_
20091112_RATP_SCD_0281	9	20	était	NULL	v	NULL	B_GVf	AUX	22	idtext0014	être	I#3##s##	spk3	23.09	23.52	0.01	_
20091112_RATP_SCD_0281	9	21	euh	DISF_M	pres	NULL	NULL	NOLINK	0	idtext0014	euh	#####	spk3	23.53	23.62	0.01	_
20091112_RATP_SCD_0281	9	22	prolongée	NULL	vppart	NULL	I_GVf	MOD_REL	18	idtext0014	prolonger	K##f#s##	spk3	23.63	24.34	0.01	_
20091112_RATP_SCD_0281	9	23	d'	NULL	prep	NULL	B_GP	DE_OBJ	22	idtext0014	d'	#####	spk3	24.35	24.42	0.01	_
20091112_RATP_SCD_0281	9	24	une	NULL	det	NULL	I_GP	DET	25	idtext0014	un	##f#s##i	spk3	24.43	24.53	0.01	_
20091112_RATP_SCD_0281	9	25	journée	NULL	nc	NULL	I_GP	OBJ	23	idtext0014	journée	##f#s##	spk3	24.54	24.83	0.01	/
20091112_RATP_SCD_0281	9	26	malheureusement	NULL	adv	NULL	B_GADV	MOD	25	idtext0014	malheureusement	#####	spk3	24.84	25.41	0.01	_
20091112_RATP_SCD_0281	9	27	il	NULL	cln	NULL	B_GN	SUJ_IMP	30	idtext0014	cln	#3#m#s##	spk3	25.42	25.56	0.01	_
20091112_RATP_SCD_0281	9	28	y	NULL	clo	NULL	B_GN	AFF	30	idtext0014	y	#####	spk3	25.57	25.6	0.01	_
20091112_RATP_SCD_0281	9	29	a	NULL	v	NULL	B_GVf	AUX	30	idtext0014	avoir	P#3##s##	spk3	25.61	25.63	0.01	_
20091112_RATP_SCD_0281	9	30	eu	NULL	vppart	NULL	I_GVf	ROOT	0	idtext0014	avoir	K##m#s##	spk3	25.64	25.66	0.01	_
20091112_RATP_SCD_0281	9	31	un	NULL	det	NULL	B_GN	DET	32	idtext0014	un	##m#s##i	spk3	25.67	25.69	0.01	_
20091112_RATP_SCD_0281	9	32	jour	NULL	nc	NULL	I_GN	OBJ	30	idtext0014	jour	##m#s##	spk3	25.7	25.85	0.01	_
20091112_RATP_SCD_0281	9	33	de	NULL	prep	NULL	B_GP	DEP	32	idtext0014	de	#####	spk3	25.86	25.9	0.01	_
20091112_RATP_SCD_0281	9	34	retard	NULL	nc	NULL	I_GP	OBJ	33	idtext0014	retard	##m#s##	spk3	25.91	26.31	0.40	//
20091112_RATP_SCD_0281	9	35	et	NULL	coo	NULL	B_NULL	ROOT	0	idtext0015	et	#####	spk3	26.71	27.16	0.01	_
20091112_RATP_SCD_0281	9	36	sur	NULL	prep	NULL	B_GP	MOD	41	idtext0015	sur	#####	spk3	27.17	27.32	0.01	_
20091112_RATP_SCD_0281	9	37	cette	NULL	det	NULL	I_GP	DET	38	idtext0015	cet	##f#s##e	spk3	27.33	27.51	0.01	_
20091112_RATP_SCD_0281	9	38	lettre	NULL	nc	NULL	I_GP	OBJ	36	idtext0015	lettre	##f#s##	spk3	27.52	27.9	0.01	/
20091112_RATP_SCD_0281	9	39	vous	NULL	cln	NULL	B_GN	SUJ	41	idtext0015	cln	#2##p##	spk3	27.91	28.08	0.01	_
20091112_RATP_SCD_0281	9	40	me	NULL	clo	NULL	B_GN	A_OBJ	41	idtext0015	cla	#1##s##	spk3	28.09	28.35	0.01	_
20091112_RATP_SCD_0281	9	41	dites	NULL	v	NULL	B_GVf	DEP_COORD	35	idtext0015	dire	P#2##p##	spk3	28.36	28.56	0.01	_
20091112_RATP_SCD_0281	9	42	que	NULL	csu	NULL	B_NULL	OBJ	41	idtext0015	que	#####	spk3	28.57	28.65	0.01	_
20091112_RATP_SCD_0281	9	43	vous	NULL	cln	NULL	B_GN	SUJ	44	idtext0015	cln	#2##p##	spk3	28.66	28.8	0.01	_
20091112_RATP_SCD_0281	9	44	allez	NULL	v	NULL	B_GVf	OBJ	42	idtext0015	aller	P#2##p##	spk3	28.81	28.98	0.01	_
20091112_RATP_SCD_0281	9	45	réexaminer	NULL	vinf	NULL	I_GVf	OBJ	44	idtext0015	réexaminer	W#####	spk3	28.99	29.73	0.01	_
20091112_RATP_SCD_0281	9	46	ma	NULL	det	NULL	B_GN	DET	47	idtext0015	mon	##f#s##o	spk3	29.74	29.92	0.01	_
20091112_RATP_SCD_0281	9	47	demande	NULL	nc	NULL	I_GN	OBJ	45	idtext0015	demande	##f#s##	spk3	29.93	30.74	0.01	_
20091112_RATP_SCD_0281	9	48	à+condition+de	NULL	prep	NULL	B_GP	MOD	47	idtext0016	à+condition+de	#####	spk3	30.75	31.32	0.01	_
20091112_RATP_SCD_0281	9	49	vous	NULL	clo	NULL	I_GP	A_OBJ	50	idtext0016	cln	#2##p##	spk3	31.33	31.41	0.01	_
20091112_RATP_SCD_0281	9	50	remettre	NULL	vinf	NULL	B_GVi	OBJ	48	idtext0016	remettre	W#####	spk3	31.42	31.74	0.01	_
20091112_RATP_SCD_0281	9	51	un	NULL	det	NULL	B_GN	DET	52	idtext0016	un	##m#s##i	spk3	31.75	31.8	0.01	_
20091112_RATP_SCD_0281	9	52	coupon	NULL	nc	NULL	I_GN	OBJ	48	idtext0016	coupon	##m#s##	spk3	31.81	32.67	0.58	/
20091112_RATP_SCD_0281	9	53	d'	NULL	prep	NULL	B_GP	ROOT	0	idtext0017	d'	#####	spk3	33.25	33.31	0.01	_
20091112_RATP_SCD_0281	9	54	amende	NULL	nc	NULL	I_GP	OBJ	53	idtext0017	amende	##f#s##	spk3	33.32	33.68	0.01	/
20091112_RATP_SCD_0281	9	55	qu'	NULL	prorel	NULL	B_NULL	OBJ	60	idtext0017	qu'	#####	spk3	33.69	33.75	0.01	_
20091112_RATP_SCD_0281	9	56	elle	NULL	cln	NULL	B_GN	SUJ	60	idtext0017	cln	#3#f#s##	spk3	33.76	33.85	0.01	_
20091112_RATP_SCD_0281	9	57	n'	NULL	clneg	NULL	B_NULL	MOD	58	idtext0017	n'	#####	spk3	33.86	33.91	0.01	_
20091112_RATP_SCD_0281	9	58	a	NULL	v	NULL	B_GVf	AUX	60	idtext0017	avoir	P#3##s##	spk3	33.92	33.96	0.01	_
20091112_RATP_SCD_0281	9	59	jamais	NULL	adv	NULL	I_GVf	MOD	60	idtext0017	jamais	#####	spk3	33.97	34.4	0.01	_
20091112_RATP_SCD_0281	9	60	eu	NULL	vppart	NULL	I_GVf	MOD_REL	54	idtext0017	avoir	K##m#s##	spk3	34.41	34.44	0.01	//
20091112_RATP_SCD_0281	9	61	qu'	NULL	prorel	NULL	B_NULL	OBJ	67	idtext0017	qu'	#####	spk3	34.45	34.52	0.01	_
20091112_RATP_SCD_0281	9	62	on	NULL	cln	NULL	B_GN	SUJ	65	idtext0017	cln	#3##s##	spk3	34.53	34.61	0.01	_
20091112_RATP_SCD_0281	9	63	a	NULL	v	NULL	B_GVf	AUX	65	idtext0017	avoir	P#3##s##	spk3	34.62	34.66	0.01	_
20091112_RATP_SCD_0281	9	64	jamais	NULL	adv	NULL	I_GVf	MOD	65	idtext0017	jamais	#####	spk3	34.67	34.99	0.01	_
20091112_RATP_SCD_0281	9	65	voulu	NULL	vppart	NULL	I_GVf	OBJ	61	idtext0017	vouloir	K##m#s##	spk3	35.0	35.19	0.01	_
20091112_RATP_SCD_0281	9	66	lui	NULL	clo	NULL	B_GN	A_OBJ	67	idtext0017	lui	#####	spk3	35.2	35.31	0.01	_
20091112_RATP_SCD_0281	9	67	remettre	NULL	vinf	NULL	B_GVi	MOD_REL	54	idtext0017	remettre	W#####	spk3	35.32	35.78	?	//

20091112_RATP_SCD_0281	10	1	parce+que	NULL	csu	NULL	B_NULL	NOLINK	0	idtext0018	parce+que	#####	spk2	37.49	37.8	0.01	//
20091112_RATP_SCD_0281	10	2	quand	NULL	csu	NULL	B_NULL	NOLINK	0	idtext0018	quand	#####	spk2	37.81	38.33	?	_

20091112_RATP_SCD_0281	11	1	quand	NULL	csu	NULL	B_NULL	ROOT	0	idtext0019	quand	#####	spk2	38.68	38.92	0.01	_
20091112_RATP_SCD_0281	11	2	vous	NULL	cln	NULL	B_GN	SUJ	3	idtext0019	cln	#2##p##	spk2	38.93	38.99	0.01	_
20091112_RATP_SCD_0281	11	3	êtes	NULL	v	NULL	B_GVf	OBJ	1	idtext0019	être	P#2##p##	spk2	39.0	39.38	0.04	_
20091112_RATP_SCD_0281	11	4	quand	NULL	csu	NULL	B_NULL	ROOT	0	idtext0021	quand	#####	spk2	39.42	39.51	0.01	_
20091112_RATP_SCD_0281	11	5	vous	NULL	cln	NULL	B_GN	SUJ	6	idtext0021	cln	#2##p##	spk2	39.52	39.66	0.01	_
20091112_RATP_SCD_0281	11	6	êtes	NULL	v	NULL	B_GVf	OBJ	4	idtext0021	être	P#2##p##	spk2	39.67	39.94	?	//

20091112_RATP_SCD_0281	12	1	ah	DISF_M	pres	NULL	NULL	NOLINK	0	idtext0020	ah	#####	spk3	38.71	38.95	0.01	_
20091112_RATP_SCD_0281	12	2	oui	NULL	adv	NULL	B_GADV	NOLINK	0	idtext0020	oui	#####	spk3	38.96	39.38	0.11	_
20091112_RATP_SCD_0281	12	3	je	NULL	cln	NULL	B_GN	SUJ	4	idtext0022	cln	#1##s##	spk3	39.49	39.59	0.01	_
20091112_RATP_SCD_0281	12	4	sais	NULL	v	NULL	B_GVf	ROOT	0	idtext0022	savoir	P#12##s##	spk3	39.6	39.94	?	//

20091112_RATP_SCD_0281	13	1	verbalisé	NULL	vppart	NULL	B_GVf	NOLINK	0	idtext0023	verbaliser	K##m#s##	spk2	39.98	40.52	0.01	_
20091112_RATP_SCD_0281	13	2	nous	NULL	pro	NULL	B_GN	SUJ	4	idtext0023	nous	#####	spk2	40.53	40.72	0.01	_
20091112_RATP_SCD_0281	13	3	c'	NULL	cln	NULL	B_GN	SUJ_IMP	4	idtext0023	ce	###s##	spk2	40.73	40.79	0.01	_
20091112_RATP_SCD_0281	13	4	est	NULL	v	NULL	B_GVf	ROOT	0	idtext0023	être	P#3##s##	spk2	40.8	40.85	0.01	_
20091112_RATP_SCD_0281	13	5	soit	NULL	coo	NULL	B_NULL	NOLINK	0	idtext0023	soit	#####	spk2	40.86	41.09	0.01	_
20091112_RATP_SCD_0281	13	6	la	NULL	det	NULL	B_GN	DET	7	idtext0023	le	##m#s##d	spk2	41.1	41.19	0.01	_
20091112_RATP_SCD_0281	13	7	personne	NULL	nc	NULL	I_GN	ATS	4	idtext0023	personne	##f#s##	spk2	41.2	41.51	0.01	_
20091112_RATP_SCD_0281	13	8	elle	NULL	cln	NULL	B_GN	SUJ	10	idtext0023	cln	#3#f#s##	spk2	41.52	41.6	0.01	_
20091112_RATP_SCD_0281	13	9	avait	NULL	v	NULL	B_GVf	AUX	10	idtext0023	avoir	I#3##s##	spk2	41.61	41.77	0.01	_
20091112_RATP_SCD_0281	13	10	réglé	NULL	vppart	NULL	I_GVf	ROOT	0	idtext0023	régler	K##m#s##	spk2	41.78	42.14	0.01	/
20091112_RATP_SCD_0281	13	11	c'	NULL	cln	NULL	B_GN	SUJ_IMP	12	idtext0023	ce	###s##	spk2	42.15	42.17	0.01	_
20091112_RATP_SCD_0281	13	12	est	NULL	v	NULL	B_GVf	ROOT	0	idtext0023	être	P#3##s##	spk2	42.18	42.23	0.01	_
20091112_RATP_SCD_0281	13	13	ça	NULL	pro	NULL	B_GN	ATS	12	idtext0023	ça	#####	spk2	42.24	42.79	?	_

20091112_RATP_SCD_0281	14	1	oui	NULL	adv	NULL	B_GADV	NOLINK	0	idtext0024	oui	#####	spk3	42.83	42.99	0.01	_
20091112_RATP_SCD_0281	14	2	elle	NULL	cln	NULL	B_GN	SUJ	4	idtext0024	cln	#3#f#s##	spk3	43.0	43.06	0.01	_
20091112_RATP_SCD_0281	14	3	a	NULL	v	NULL	B_GVf	AUX	4	idtext0024	avoir	P#3##s##	spk3	43.07	43.12	0.01	_
20091112_RATP_SCD_0281	14	4	réglé	NULL	vppart	NULL	I_GVf	ROOT	0	idtext0024	régler	K##m#s##	spk3	43.13	43.35	0.01	_
20091112_RATP_SCD_0281	14	5	tout+de+suite	NULL	adv	NULL	B_GADV	MOD	4	idtext0024	tout+de+suite	#####	spk3	43.36	43.77	0.04	_
20091112_RATP_SCD_0281	14	6	on	DISF_R	cln	NULL	NULL	NOLINK	0	idtext0026	cln	#3##s##	spk3	43.81	43.89	0.01	_
20091112_RATP_SCD_0281	14	7	lui	DISF_R	clo	NULL	NULL	NOLINK	0	idtext0026	lui	#####	spk3	43.9	44.04	0.01	_
20091112_RATP_SCD_0281	14	8	a	DISF_R	v	NULL	NULL	NOLINK	0	idtext0026	avoir	P#3##s##	spk3	44.05	44.08	0.01	_
20091112_RATP_SCD_0281	14	9	donné	DISF_R	vppart	NULL	NULL	NOLINK	0	idtext0026	donner	K##m#s##	spk3	44.09	44.47	0.01	_
20091112_RATP_SCD_0281	14	10	on	NULL	cln	NULL	B_GN	SUJ_IMP	13	idtext0026	cln	#3##s##	spk3	44.48	44.62	0.01	_
20091112_RATP_SCD_0281	14	11	lui	NULL	clo	NULL	B_GN	A_OBJ	13	idtext0026	lui	#####	spk3	44.63	44.74	0.01	_
20091112_RATP_SCD_0281	14	12	a	NULL	v	NULL	B_GVf	AUX	13	idtext0026	avoir	P#3##s##	spk3	44.75	44.79	0.01	_
20091112_RATP_SCD_0281	14	13	donné	NULL	vppart	NULL	I_GVf	ROOT	0	idtext0026	donner	K##m#s##	spk3	44.8	45.02	0.01	_
20091112_RATP_SCD_0281	14	14	juste	NULL	adv	NULL	B_GADV	MOD	13	idtext0026	juste	###s##	spk3	45.03	45.67	0.04	_
20091112_RATP_SCD_0281	14	15	un	NULL	det	NULL	B_GN	DET	16	idtext0028	un	##m#s##i	spk3	45.71	45.77	0.01	_
20091112_RATP_SCD_0281	14	16	ticket	NULL	nc	NULL	I_GN	SUJ	18	idtext0028	ticket	##m#s##	spk3	45.78	46.12	0.01	//
20091112_RATP_SCD_0281	14	17	c'	NULL	cln	NULL	B_GN	SUJ_IMP	18	idtext0028	ce	###s##	spk3	46.13	46.15	0.01	_
20091112_RATP_SCD_0281	14	18	est	NULL	v	NULL	B_GVf	ROOT	0	idtext0028	être	P#3##s##	spk3	46.16	46.28	0.01	_
20091112_RATP_SCD_0281	14	19	son	NULL	det	NULL	B_GN	DET	20	idtext0028	son	###s##o	spk3	46.29	46.37	0.01	_
20091112_RATP_SCD_0281	14	20	reçu	NULL	nc	NULL	I_GN	ATS	18	idtext0028	reçu	##m#s##	spk3	46.38	46.55	0.01	_
20091112_RATP_SCD_0281	14	21	de	NULL	prep	NULL	B_GP	DEP	20	idtext0028	de	#####	spk3	46.56	46.66	0.01	_
20091112_RATP_SCD_0281	14	22	carte	NULL	nc	NULL	I_GP	OBJ	21	idtext0028	carte	##f#s##	spk3	46.67	47.02	0.01	_
20091112_RATP_SCD_0281	14	23	bleue	NULL	adj	NULL	I_GP	MOD	22	idtext0028	bleu	##f#s##	spk3	47.03	47.65	?	//

20091112_RATP_SCD_0281	15	1	dans	NULL	prep	NULL	B_NULL	NOLINK	0	idtext0025	dans	#####	spk2	43.22	43.77	0.04	_
20091112_RATP_SCD_0281	15	2	un	NULL	det	NULL	B_GN	DET	3	idtext0027	un	##m#s##i	spk2	43.81	43.89	0.01	_
20091112_RATP_SCD_0281	15	3	ticket	NULL	nc	NULL	I_GN	ROOT	0	idtext0027	ticket	##m#s##	spk2	43.9	45.67	0.08	_
20091112_RATP_SCD_0281	15	4	bah	DISF_M	pres	NULL	NULL	NOLINK	0	idtext0029	bah	#####	spk2	45.75	45.84	0.01	_
20091112_RATP_SCD_0281	15	5	si	NULL	csu	NULL	B_NULL	ROOT	0	idtext0029	si	#####	spk2	45.85	46.26	0.01	_
20091112_RATP_SCD_0281	15	6	c'	NULL	cln	NULL	B_GN	SUJ_IMP	7	idtext0029	ce	###s##	spk2	46.27	46.47	0.01	_
20091112_RATP_SCD_0281	15	7	est	NULL	v	NULL	B_GVf	OBJ	5	idtext0029	être	P#3##s##	spk2	46.48	46.73	0.01	_
20091112_RATP_SCD_0281	15	8	ça	NULL	pro	NULL	B_GN	ATS	7	idtext0029	ça	#####	spk2	46.74	47.65	?	_

20091112_RATP_SCD_0281	16	1	c'	NULL	cln	NULL	B_GN	SUJ_IMP	2	idtext0030	ce	###s##	spk3	47.75	47.77	0.01	_
20091112_RATP_SCD_0281	16	2	est	NULL	v	NULL	B_GVf	ROOT	0	idtext0030	être	P#3##s##	spk3	47.78	47.8	0.01	_
20091112_RATP_SCD_0281	16	3	tout	NULL	adv	NULL	B_GADV	ATS	2	idtext0030	tout	##m#s##	spk3	47.81	47.87	0.01	_
20091112_RATP_SCD_0281	16	4	ce+qu'	NULL	prorel	NULL	B_NULL	OBJ	8	idtext0030	ce+qu'	#####	spk3	47.88	48.0	0.01	_
20091112_RATP_SCD_0281	16	5	on	NULL	cln	NULL	B_GN	SUJ_IMP	8	idtext0030	cln	#3##s##	spk3	48.01	48.03	0.01	_
20091112_RATP_SCD_0281	16	6	lui	NULL	clo	NULL	B_GN	A_OBJ	8	idtext0030	lui	#####	spk3	48.04	48.13	0.01	_
20091112_RATP_SCD_0281	16	7	a	NULL	v	NULL	B_GVf	AUX	8	idtext0030	avoir	P#3##s##	spk3	48.14	48.16	0.01	_
20091112_RATP_SCD_0281	16	8	donné	NULL	vppart	NULL	I_GVf	ROOT	0	idtext0030	donner	K##m#s##	spk3	48.17	48.4	?	//

20091112_RATP_SCD_0281	17	1	c'	NULL	cln	NULL	B_GN	SUJ_IMP	2	idtext0031	ce	###s##	spk2	48.45	48.48	0.01	_
20091112_RATP_SCD_0281	17	2	est	NULL	v	NULL	B_GVf	ROOT	0	idtext0031	être	P#3##s##	spk2	48.49	48.52	0.01	_
20091112_RATP_SCD_0281	17	3	son	NULL	det	NULL	B_GN	DET	4	idtext0031	son	###s##o	spk2	48.53	48.59	0.01	_
20091112_RATP_SCD_0281	17	4	ticket	NULL	nc	NULL	I_GN	ATS	2	idtext0031	ticket	##m#s##	spk2	48.6	48.83	0.01	_
20091112_RATP_SCD_0281	17	5	carte	NULL	nc	NULL	B_GN	ROOT	0	idtext0031	carte	##f#s##	spk2	48.84	49.11	0.01	_
20091112_RATP_SCD_0281	17	6	bleue	NULL	adj	NULL	I_GN	MOD	5	idtext0031	bleu	##f#s##	spk2	49.12	49.66	?	//

20091112_RATP_SCD_0281	18	1	oui	NULL	adv	NULL	B_GADV	NOLINK	0	idtext0032	oui	#####	spk3	49.7	50.0	?	//

20091112_RATP_SCD_0281	19	1	parce+qu'	NULL	csu	NULL	B_NULL	ROOT	0	idtext0033	parce+qu'	#####	spk2	50.11	50.36	0.01	_
20091112_RATP_SCD_0281	19	2	on	DISF_R	cln	NULL	NULL	NOLINK	0	idtext0033	cln	#3##s##	spk2	50.37	50.72	0.01	_
20091112_RATP_SCD_0281	19	3	on	NULL	cln	NULL	B_GN	SUJ_IMP	5	idtext0033	cln	#3##s##	spk2	50.73	50.8	0.01	_
20091112_RATP_SCD_0281	19	4	lui	NULL	clo	NULL	B_GN	A_OBJ	5	idtext0033	lui	#####	spk2	50.81	50.95	0.01	_
20091112_RATP_SCD_0281	19	5	remet	NULL	v	NULL	B_GVf	OBJ	1	idtext0033	remettre	P#3##s##	spk2	50.96	51.21	0.01	_
20091112_RATP_SCD_0281	19	6	automatiquement	NULL	adv	NULL	B_GADV	MOD	5	idtext0033	automatiquement	#####	spk2	51.22	51.81	0.01	_
20091112_RATP_SCD_0281	19	7	un	NULL	det	NULL	B_GN	DET	8	idtext0033	un	##m#s##i	spk2	51.82	51.87	0.01	_
20091112_RATP_SCD_0281	19	8	papier	NULL	nc	NULL	I_GN	OBJ	5	idtext0033	papier	##m#s##	spk2	51.88	52.27	?	//

20091112_RATP_SCD_0281	20	1	c'	NULL	cln	NULL	B_GN	SUJ_IMP	2	idtext0034	ce	###s##	spk3	50.08	50.1	0.01	_
20091112_RATP_SCD_0281	20	2	est	NULL	v	NULL	B_GVf	ROOT	0	idtext0034	être	P#3##s##	spk3	50.11	50.19	0.01	_
20091112_RATP_SCD_0281	20	3	tout	NULL	adv	NULL	B_GADV	ATS	2	idtext0034	tout	##m#s##	spk3	50.2	50.53	0.01	_
20091112_RATP_SCD_0281	20	4	ce+qu'	NULL	prorel	NULL	B_NULL	OBJ	8	idtext0034	ce+qu'	#####	spk3	50.54	50.95	0.01	_
20091112_RATP_SCD_0281	20	5	on	NULL	cln	NULL	B_GN	SUJ_IMP	8	idtext0034	cln	#3##s##	spk3	50.96	51.26	0.01	_
20091112_RATP_SCD_0281	20	6	lui	NULL	clo	NULL	B_GN	A_OBJ	8	idtext0034	lui	#####	spk3	51.27	51.47	0.01	_
20091112_RATP_SCD_0281	20	7	a	NULL	v	NULL	B_GVf	AUX	8	idtext0034	avoir	P#3##s##	spk3	51.48	51.71	0.01	_
20091112_RATP_SCD_0281	20	8	donné	NULL	vppart	NULL	I_GVf	ROOT	0	idtext0034	donner	K##m#s##	spk3	51.72	52.27	?	//

20091112_RATP_SCD_0281	21	1	ah	DISF_M	pres	NULL	NULL	NOLINK	0	idtext0035	ah	#####	spk3	52.31	52.45	0.01	_
20091112_RATP_SCD_0281	21	2	je	NULL	cln	NULL	B_GN	SUJ	3	idtext0035	cln	#1##s##	spk3	52.46	52.66	0.01	_
20091112_RATP_SCD_0281	21	3	peux	NULL	v	NULL	B_GVf	ROOT	0	idtext0035	pouvoir	P#12##s##	spk3	52.67	52.81	0.01	_
20091112_RATP_SCD_0281	21	4	vous	NULL	pro	NULL	B_GN	A_OBJ	5	idtext0035	vous	#####	spk3	52.82	52.93	0.01	_
20091112_RATP_SCD_0281	21	5	dire	NULL	vinf	NULL	B_GVi	OBJ	3	idtext0035	dire	W#####	spk3	52.94	53.1	0.01	_
20091112_RATP_SCD_0281	21	6	qu'	NULL	csu	NULL	B_NULL	OBJ	5	idtext0035	qu'	#####	spk3	53.11	53.18	0.01	_
20091112_RATP_SCD_0281	21	7	on	NULL	cln	NULL	B_GN	SUJ_IMP	10	idtext0035	cln	#3##s##	spk3	53.19	53.25	0.01	_
20091112_RATP_SCD_0281	21	8	lui	NULL	clo	NULL	B_GN	A_OBJ	10	idtext0035	lui	#####	spk3	53.26	53.4	0.01	_
20091112_RATP_SCD_0281	21	9	a	NULL	v	NULL	B_GVf	AUX	10	idtext0035	avoir	P#3##s##	spk3	53.41	53.43	0.01	_
20091112_RATP_SCD_0281	21	10	mis	NULL	vppart	NULL	I_GVf	OBJ	6	idtext0035	mettre	J#12##s##	spk3	53.44	53.67	0.01	_
20091112_RATP_SCD_0281	21	11	aucun	NULL	det	NULL	B_GN	DET	12	idtext0035	aucun	##m#s##i	spk3	53.68	54.02	0.01	_
20091112_RATP_SCD_0281	21	12	papier	NULL	nc	NULL	I_GN	OBJ	10	idtext0035	papier	##m#s##	spk3	54.03	54.52	?	//

20091112_RATP_SCD_0281	22	1	vous	NULL	cln	NULL	B_GN	SUJ	3	idtext0036	cln	#2##p##	spk2	54.56	54.61	0.01	_
20091112_RATP_SCD_0281	22	2	aviez	NULL	v	NULL	B_GVf	AUX	3	idtext0036	avoir	I#2##p##	spk2	54.62	54.84	0.01	_
20091112_RATP_SCD_0281	22	3	adressé	NULL	vppart	NULL	I_GVf	ROOT	0	idtext0036	adresser	K##m#s##	spk2	54.85	55.24	0.01	_
20091112_RATP_SCD_0281	22	4	ce	NULL	det	NULL	B_GN	DET	5	idtext0036	ce	##m#s##e	spk2	55.25	55.37	0.01	_
20091112_RATP_SCD_0281	22	5	courrier	NULL	nc	NULL	I_GN	OBJ	3	idtext0036	courrier	##m#s##	spk2	55.38	55.75	0.01	_
20091112_RATP_SCD_0281	22	6	où	NULL	prorel	NULL	B_NULL	P_OBJ_LOC	7	idtext0036	où	#####	spk2	55.76	55.96	0.01	_
20091112_RATP_SCD_0281	22	7	au	NULL	prep	NULL	B_GP	MOD_REL	5	idtext0036	au	#####	spk2	55.97	56.03	0.01	_
20091112_RATP_SCD_0281	22	8	Service+Clientèle+Métro	NULL	np	B_ORG	I_GP	OBJ	7	idtext0036	Service+Clientèle+Métro	#####	spk2	56.04	57.01	0.01	_
20091112_RATP_SCD_0281	22	9	ou	NULL	coo	NULL	B_NULL	NOLINK	0	idtext0036	ou	#####	spk2	57.02	57.47	?	_

20091112_RATP_SCD_0281	23	1	et	NULL	coo	NULL	B_NULL	ROOT	0	idtext0037	et	#####	spk3	57.51	57.53	0.01	_
20091112_RATP_SCD_0281	23	2	bien	NULL	adv	NULL	B_GADV	NOLINK	0	idtext0037	bien	#####	spk3	57.54	57.66	0.01	_
20091112_RATP_SCD_0281	23	3	je	NULL	cln	NULL	B_GN	SUJ	5	idtext0037	cln	#1##s##	spk3	57.67	57.7	0.01	_
20091112_RATP_SCD_0281	23	4	ne	NULL	clneg	NULL	B_GVfn	MOD	5	idtext0037	ne	#####	spk3	57.71	57.77	0.01	_
20091112_RATP_SCD_0281	23	5	sais	NULL	v	NULL	I_GVfn	DEP_COORD	1	idtext0037	savoir	P#12##s##	spk3	57.78	57.92	0.01	_
20091112_RATP_SCD_0281	23	6	pas	NULL	advneg	NULL	I_GVfn	MOD	5	idtext0037	pas	#####	spk3	57.93	58.08	0.01	_
20091112_RATP_SCD_0281	23	7	qui+c'est+qui	NULL	pri	NULL	B_NULL	OBJ	9	idtext0037	qui+c'est+qui	#####	spk3	58.09	58.54	0.01	_
20091112_RATP_SCD_0281	23	8	me	NULL	clo	NULL	B_GN	A_OBJ	9	idtext0037	cla	#1##s##	spk3	58.55	58.59	0.01	_
20091112_RATP_SCD_0281	23	9	répond	NULL	v	NULL	B_GVf	ROOT	0	idtext0037	répondre	P#3##s##	spk3	58.6	58.92	0.01	_
20091112_RATP_SCD_0281	23	10	là	NULL	adv	NULL	B_GADV	MOD	9	idtext0037	là	#####	spk3	58.93	59.02	0.01	_
20091112_RATP_SCD_0281	23	11	chez	NULL	prep	NULL	B_GP	P_OBJ	9	idtext0037	chez	#####	spk3	59.03	59.22	0.01	_
20091112_RATP_SCD_0281	23	12	vous	NULL	pro	NULL	I_GP	OBJ	11	idtext0037	vous	#####	spk3	59.23	59.51	?	_

20091112_RATP_SCD_0281	24	1	vous	NULL	cln	NULL	B_GN	SUJ	2	idtext0038	cln	#2##p##	spk2	59.6	60.09	0.01	_
20091112_RATP_SCD_0281	24	2	avez	NULL	v	NULL	B_GVf	ROOT	0	idtext0038	avoir	P#2##p##	spk2	60.1	60.68	0.01	_
20091112_RATP_SCD_0281	24	3	quoi	NULL	pri	NULL	B_NULL	OBJ	2	idtext0038	quoi	#####	spk2	60.69	61.54	0.22	_
20091112_RATP_SCD_0281	24	4	c'	NULL	cln	NULL	B_GN	SUJ_IMP	5	idtext0041	ce	###s##	spk2	61.76	62.06	0.01	_
20091112_RATP_SCD_0281	24	5	est	NULL	v	NULL	B_GVf	ROOT	0	idtext0041	être	P#3##s##	spk2	62.07	62.33	0.01	_
20091112_RATP_SCD_0281	24	6	ça	NULL	pro	NULL	B_GN	ATS	5	idtext0041	ça	#####	spk2	62.34	62.52	?	_

20091112_RATP_SCD_0281	25	1	c'	NULL	cln	NULL	B_GN	SUJ_IMP	2	idtext0039	ce	###s##	spk3	59.55	59.57	0.01	_
20091112_RATP_SCD_0281	25	2	est	NULL	v	NULL	B_GVf	ROOT	0	idtext0039	être	P#3##s##	spk3	59.58	59.6	0.01	_
20091112_RATP_SCD_0281	25	3	le	NULL	det	NULL	B_GN	DET	4	idtext0039	le	##m#s##d	spk3	59.61	59.63	0.01	_
20091112_RATP_SCD_0281	25	4	département	NULL	nc	NULL	I_GN	ATS	2	idtext0039	département	##m#s##	spk3	59.64	60.19	0.01	_
20091112_RATP_SCD_0281	25	5	métro	NULL	nc	NULL	I_GN	MOD	4	idtext0039	métro	##m#s##	spk3	60.2	60.83	0.01	//
20091112_RATP_SCD_0281	25	6	ce	NULL	det	NULL	B_GN	DET	7	idtext0040	ce	##m#s##e	spk3	60.84	61.01	0.01	_
20091112_RATP_SCD_0281	25	7	service	NULL	nc	NULL	I_GN	ROOT	0	idtext0040	service	##m#s##	spk3	61.02	61.54	0.04	_
20091112_RATP_SCD_0281	25	8	clientèle	NULL	nc	NULL	B_GN	ROOT	0	idtext0042	clientèle	##f#s##	spk3	61.58	62.19	0.01	_
20091112_RATP_SCD_0281	25	9	et	NULL	coo	NULL	B_NULL	COORD	8	idtext0042	et	#####	spk3	62.2	62.24	0.01	_
20091112_RATP_SCD_0281	25	10	qualité	NULL	nc	NULL	B_GN	DEP_COORD	9	idtext0042	qualité	##f#s##	spk3	62.25	62.52	?	/

20091112_RATP_SCD_0281	26	1	métro	NULL	nc	NULL	B_GN	NOLINK	0	idtext0043	métro	##m#s##	spk2	62.56	62.91	0.01	_
20091112_RATP_SCD_0281	26	2	oui	NULL	adv	NULL	B_GADV	NOLINK	0	idtext0043	oui	#####	spk2	62.92	63.44	0.36	_
20091112_RATP_SCD_0281	26	3	un	NULL	det	NULL	B_GN	DET	4	idtext0044	un	##m#s##i	spk2	63.8	64.06	0.01	_
20091112_RATP_SCD_0281	26	4	instant	NULL	nc	NULL	I_GN	ROOT	0	idtext0044	instant	##m#s##	spk2	64.07	64.35	0.01	_
20091112_RATP_SCD_0281	26	5	s'il+vous+plaît	NULL	adv	NULL	B_GADV	NOLINK	0	idtext0044	s'il+vous+plaît	#####	spk2	64.36	65.1	?	//

20091112_RATP_SCD_0281	27	1	j'	NULL	cln	NULL	B_GN	SUJ	2	idtext0045	cln	#1##s##	spk3	65.16	65.21	0.01	_
20091112_RATP_SCD_0281	27	2	ai	NULL	v	NULL	B_GVf	ROOT	0	idtext0045	avoir	P#1##s##	spk3	65.22	65.24	0.01	_
20091112_RATP_SCD_0281	27	3	une	NULL	det	NULL	B_GN	DET	4	idtext0045	un	##f#s##i	spk3	65.25	65.33	0.01	_
20091112_RATP_SCD_0281	27	4	référence	NULL	nc	NULL	I_GN	OBJ	2	idtext0045	référence	##f#s##	spk3	65.34	65.83	0.01	_
20091112_RATP_SCD_0281	27	5	même	NULL	adj	NULL	I_GN	MOD	4	idtext0045	même	###s##	spk3	65.84	65.93	0.01	_
20091112_RATP_SCD_0281	27	6	hein	DISF_M	pres	NULL	NULL	NOLINK	0	idtext0045	hein	#####	spk3	65.94	66.07	?	//

20091112_RATP_SCD_0281	28	1	merci	NULL	adv	NULL	B_GADV	NOLINK	0	idtext0046	merci	#####	spk2	66.12	66.47	0.01	//
20091112_RATP_SCD_0281	28	2	un	NULL	det	NULL	B_GN	DET	3	idtext0046	un	##m#s##i	spk2	66.48	66.57	0.01	_
20091112_RATP_SCD_0281	28	3	instant	NULL	nc	NULL	I_GN	ROOT	0	idtext0046	instant	##m#s##	spk2	66.58	67.01	?	//

20091112_RATP_SCD_0281	29	1	Service+Clientèle	NULL	np	B_ORG	B_GN	ROOT	0	idtext0047	Service+Clientèle	#####	spk4	88.37	88.93	0.01	_
20091112_RATP_SCD_0281	29	2	du	NULL	prep	NULL	B_GP	P_OBJ_LOC	1	idtext0047	du	#####	spk4	88.94	89.0	0.01	_
20091112_RATP_SCD_0281	29	3	métro	NULL	nc	NULL	I_GP	OBJ	2	idtext0047	métro	##m#s##	spk4	89.01	89.28	0.01	_
20091112_RATP_SCD_0281	29	4	bonjour	NULL	adv	NULL	B_GADV	NOLINK	0	idtext0047	bonjour	#####	spk4	89.29	89.69	?	//

20091112_RATP_SCD_0281	30	1	oui	NULL	adv	NULL	B_GADV	MOD	2	idtext0048	oui	#####	spk2	89.73	89.87	0.01	_
20091112_RATP_SCD_0281	30	2	bonjour	NULL	adv	NULL	I_GADV	ROOT	0	idtext0048	bonjour	#####	spk2	89.88	90.29	0.01	_
20091112_RATP_SCD_0281	30	3	c'	NULL	cln	NULL	B_GN	SUJ_IMP	4	idtext0048	ce	###s##	spk2	90.3	90.32	0.01	_
20091112_RATP_SCD_0281	30	4	est	NULL	v	NULL	B_GVf	ROOT	0	idtext0048	être	P#3##s##	spk2	90.33	90.35	0.01	_
20091112_RATP_SCD_0281	30	5	le	NULL	det	NULL	B_GN	DET	6	idtext0048	le	##m#s##d	spk2	90.36	90.44	0.01	_
20091112_RATP_SCD_0281	30	6	Service+Clients+à+Distance	NULL	np	B_ORG	I_GN	ATS	4	idtext0048	Service+Clients+à+Distance	#####	spk2	90.45	91.49	?	//

20091112_RATP_SCD_0281	31	1	oui	NULL	adv	NULL	B_GADV	NOLINK	0	idtext0049	oui	#####	spk4	91.54	91.93	?	//

20091112_RATP_SCD_0281	32	1	bon	DISF_M	pres	NULL	NULL	NOLINK	0	idtext0050	bon	#####	spk2	91.97	92.08	0.01	_
20091112_RATP_SCD_0281	32	2	je	NULL	cln	NULL	B_GN	SUJ	4	idtext0050	cln	#1##s##	spk2	92.09	92.15	0.01	_
20091112_RATP_SCD_0281	32	3	t'	NULL	clo	NULL	B_GN	OBJ	4	idtext0050	cln	#2##s##	spk2	92.16	92.2	0.01	_
20091112_RATP_SCD_0281	32	4	appelle	NULL	v	NULL	B_GVf	ROOT	0	idtext0050	appeler	PS#13##s##	spk2	92.21	92.43	0.01	_
20091112_RATP_SCD_0281	32	5	c'	NULL	cln	NULL	B_GN	SUJ_IMP	6	idtext0050	ce	###s##	spk2	92.44	92.51	0.01	_
20091112_RATP_SCD_0281	32	6	est	NULL	v	NULL	B_GVf	ROOT	0	idtext0050	être	P#3##s##	spk2	92.52	92.54	0.01	_
20091112_RATP_SCD_0281	32	7	une	NULL	det	NULL	B_GN	DET	8	idtext0050	un	##f#s##i	spk2	92.55	92.71	0.01	_
20091112_RATP_SCD_0281	32	8	dame	NULL	nc	NULL	I_GN	ATS	6	idtext0050	dame	##f#s##	spk2	92.72	92.98	0.01	_
20091112_RATP_SCD_0281	32	9	là	NULL	adv	NULL	B_GADV	MOD	12	idtext0050	là	#####	spk2	92.99	93.13	0.01	/
20091112_RATP_SCD_0281	32	10	bah	DISF_M	pres	NULL	NULL	NOLINK	0	idtext0050	bah	#####	spk2	93.14	93.24	0.01	_
20091112_RATP_SCD_0281	32	11	c'	NULL	cln	NULL	B_GN	SUJ_IMP	12	idtext0050	ce	###s##	spk2	93.25	93.36	0.01	_
20091112_RATP_SCD_0281	32	12	est	NULL	v	NULL	B_GVf	ROOT	0	idtext0050	être	P#3##s##	spk2	93.37	93.4	0.01	_
20091112_RATP_SCD_0281	32	13	pour	NULL	prep	NULL	B_GP	ATS	12	idtext0050	pour	#####	spk2	93.41	93.64	0.01	_
20091112_RATP_SCD_0281	32	14	un	NULL	det	NULL	I_GP	DET	15	idtext0050	un	##m#s##i	spk2	93.65	93.8	0.01	_
20091112_RATP_SCD_0281	32	15	suivi	NULL	nc	NULL	I_GP	OBJ	13	idtext0050	suivi	##m#s##	spk2	93.81	94.14	0.01	_
20091112_RATP_SCD_0281	32	16	de	NULL	prep	NULL	B_GP	DEP	15	idtext0050	de	#####	spk2	94.15	94.28	0.01	_
20091112_RATP_SCD_0281	32	17	dossier	NULL	nc	NULL	I_GP	OBJ	16	idtext0050	dossier	##m#s##	spk2	94.29	94.64	0.01	_
20091112_RATP_SCD_0281	32	18	concernant	NULL	prep	NULL	B_GP	MOD	12	idtext0050	concernant	#####	spk2	94.65	95.11	0.01	_
20091112_RATP_SCD_0281	32	19	le	NULL	det	NULL	I_GP	DET	20	idtext0050	le	##m#s##d	spk2	95.12	95.19	0.01	_
20091112_RATP_SCD_0281	32	20	procès-verbal	NULL	nc	NULL	I_GP	OBJ	18	idtext0050	procès-verbal	##m#s##	spk2	95.2	95.91	0.01	_
20091112_RATP_SCD_0281	32	21	de	NULL	prep	NULL	B_GP	DEP	20	idtext0050	de	#####	spk2	95.92	96.02	0.01	_
20091112_RATP_SCD_0281	32	22	sa	NULL	det	NULL	I_GP	DET	23	idtext0050	sa	##f#s##o	spk2	96.03	96.2	0.01	_
20091112_RATP_SCD_0281	32	23	fille	NULL	nc	NULL	I_GP	OBJ	21	idtext0050	fille	##f#s##	spk2	96.21	96.82	?	//

20091112_RATP_SCD_0281	33	1	d'accord	NULL	adv	NULL	B_GADV	MOD	2	idtext0051	d'accord	#####	spk4	96.86	97.17	0.01	_
20091112_RATP_SCD_0281	33	2	très+bien	NULL	adv	NULL	I_GADV	ROOT	0	idtext0051	très+bien	#####	spk4	97.18	97.55	?	_

20091112_RATP_SCD_0281	34	1	je	NULL	cln	NULL	B_GN	SUJ	4	idtext0052	cln	#1##s##	spk2	97.59	97.61	0.01	_
20091112_RATP_SCD_0281	34	2	te	NULL	clo	NULL	B_GN	A_OBJ	4	idtext0052	cla	#2##s##	spk2	97.62	97.64	0.01	_
20091112_RATP_SCD_0281	34	3	la	NULL	clo	NULL	B_GN	OBJ	4	idtext0052	cla	#3#f#s##	spk2	97.65	97.72	0.01	_
20091112_RATP_SCD_0281	34	4	passe	NULL	v	NULL	B_GVf	ROOT	0	idtext0052	passer	PS#13##s##	spk2	97.73	98.02	?	//

20091112_RATP_SCD_0281	35	1	ouais	NULL	adv	NULL	B_GADV	MOD	2	idtext0053	ouais	#####	spk4	98.06	98.31	0.01	_
20091112_RATP_SCD_0281	35	2	merci	NULL	adv	NULL	I_GADV	ROOT	0	idtext0053	merci	#####	spk4	98.32	99.84	?	//

20091112_RATP_SCD_0281	36	1	bonne	NULL	adj	NULL	B_GN	MOD	2	idtext0054	bon	##f#s##	spk2	98.06	98.61	0.01	_
20091112_RATP_SCD_0281	36	2	journée	NULL	nc	NULL	I_GN	ROOT	0	idtext0054	journée	##f#s##	spk2	98.62	99.84	?	//

