20091112_RATP_SCD_0460	1	1	NNAAMMEE	NULL	np	B_HU	B_GN	ROOT	0	idtext0000	ANONYM	NULL	spk2	5.43	5.94	0.01	_
20091112_RATP_SCD_0460	1	2	bonjour	NULL	adv	NULL	B_GADV	NOLINK	0	idtext0001	bonjour	#####	spk2	5.95	6.23	?	//

20091112_RATP_SCD_0460	2	1	oui	NULL	adv	NULL	B_GADV	MOD	2	idtext0002	oui	#####	spk1	6.27	6.46	0.01	_
20091112_RATP_SCD_0460	2	2	bonjour	NULL	adv	NULL	I_GADV	ROOT	0	idtext0002	bonjour	#####	spk1	6.47	6.7	0.01	_
20091112_RATP_SCD_0460	2	3	madame	NULL	nc	NULL	B_GN	NOLINK	0	idtext0002	Monsieur	##f#s##	spk1	6.71	7.16	0.01	_
20091112_RATP_SCD_0460	2	4	je	NULL	cln	NULL	B_GN	SUJ	5	idtext0003	cln	#1##s##	spk1	7.17	7.23	0.01	_
20091112_RATP_SCD_0460	2	5	voudrais	NULL	v	NULL	B_GVf	ROOT	0	idtext0003	vouloir	C#12##s##	spk1	7.24	7.47	0.01	_
20091112_RATP_SCD_0460	2	6	savoir	NULL	vinf	NULL	I_GVf	OBJ	5	idtext0003	savoir	W#####	spk1	7.48	7.94	0.01	_
20091112_RATP_SCD_0460	2	7	euh	DISF_M	pres	NULL	NULL	NOLINK	0	idtext0003	euh	#####	spk1	7.95	8.39	0.01	_
20091112_RATP_SCD_0460	2	8	le	DISF_R	det	NULL	NULL	NOLINK	0	idtext0003	le	##m#s##d	spk1	8.4	8.56	0.01	_
20091112_RATP_SCD_0460	2	9	t()	DISF_T	tronc	NULL	NULL	NOLINK	0	idtext0003	t()	#####	spk1	8.57	8.66	0.01	_
20091112_RATP_SCD_0460	2	10	le	NULL	det	NULL	B_NULL	OBJ	5	idtext0003	le	##m#s##d	spk1	8.67	9.24	0.01	_
20091112_RATP_SCD_0460	2	11	sur	NULL	prep	NULL	B_GP	P_OBJ_LOC	10	idtext0003	sur	#####	spk1	9.25	9.47	0.01	_
20091112_RATP_SCD_0460	2	12	le	NULL	det	NULL	I_GP	DET	13	idtext0003	le	##m#s##d	spk1	9.48	9.69	0.01	_
20091112_RATP_SCD_0460	2	13	RER+B	NULL	nc	B_T	I_GP	OBJ	11	idtext0003	RER+B	#####	spk1	9.7	10.62	0.01	_
20091112_RATP_SCD_0460	2	14	à+partir+de	NULL	prep	NULL	B_NULL	NOLINK	0	idtext0003	à+partir+de	#####	spk1	10.63	11.88	0.34	_
20091112_RATP_SCD_0460	2	15	Saint-Rémy-lès-Chevreuse	NULL	nc	B_A	B_GN	NOLINK	0	idtext0004	Saint-Rémy-lès-Chevreuse	#####	spk1	12.22	13.55	0.01	_
20091112_RATP_SCD_0460	2	16	il	NULL	cln	NULL	B_GN	SUJ_IMP	18	idtext0004	cln	#3#m#s##	spk1	13.56	13.67	0.01	_
20091112_RATP_SCD_0460	2	17	y	NULL	clo	NULL	B_GN	AFF	18	idtext0004	y	#####	spk1	13.68	13.72	0.01	_
20091112_RATP_SCD_0460	2	18	a	NULL	v	NULL	B_GVf	NOLINK	0	idtext0004	avoir	P#3##s##	spk1	13.73	13.97	0.09	_
20091112_RATP_SCD_0460	2	19	c'	NULL	cln	NULL	B_GN	SUJ_IMP	20	idtext0005	ce	###s##	spk1	14.06	14.08	0.01	_
20091112_RATP_SCD_0460	2	20	est	NULL	v	NULL	B_GVf	ROOT	0	idtext0005	être	P#3##s##	spk1	14.09	14.16	0.01	_
20091112_RATP_SCD_0460	2	21	normal	NULL	adj	NULL	B_GADJ	ATS	20	idtext0005	normal	##m#s##	spk1	14.17	14.56	0.01	_
20091112_RATP_SCD_0460	2	22	le	NULL	det	NULL	B_GN	DET	23	idtext0005	le	##m#s##d	spk1	14.57	14.65	0.01	_
20091112_RATP_SCD_0460	2	23	trafic	NULL	nc	NULL	I_GN	SUJ	20	idtext0005	trafic	##m#s##	spk1	14.66	15.32	?	//

20091112_RATP_SCD_0460	3	1	oh	DISF_M	pres	NULL	NULL	NOLINK	0	idtext0006	oh	#####	spk2	15.68	16.14	0.01	_
20091112_RATP_SCD_0460	3	2	il	NULL	cln	NULL	B_GN	SUJ	3	idtext0006	cln	#3#m#s##	spk2	16.15	16.32	0.01	_
20091112_RATP_SCD_0460	3	3	manque	NULL	v	NULL	B_GVf	ROOT	0	idtext0006	manquer	PS#13##s##	spk2	16.33	16.64	0.01	_
20091112_RATP_SCD_0460	3	4	encore	NULL	adv	NULL	B_GADV	MOD	3	idtext0006	encore	#####	spk2	16.65	16.91	0.01	_
20091112_RATP_SCD_0460	3	5	quelques	NULL	det	NULL	B_GN	DET	6	idtext0006	quelque	###p##i	spk2	16.92	17.38	0.01	_
20091112_RATP_SCD_0460	3	6	trains	NULL	nc	NULL	I_GN	OBJ	3	idtext0006	train	##m#p##	spk2	17.39	17.65	0.01	_
20091112_RATP_SCD_0460	3	7	hein	DISF_M	pres	NULL	NULL	NOLINK	0	idtext0006	hein	#####	spk2	17.66	17.76	0.01	_
20091112_RATP_SCD_0460	3	8	mais	NULL	coo	NULL	B_NULL	COORD	3	idtext0006	mais	#####	spk2	17.77	18.16	0.01	_
20091112_RATP_SCD_0460	3	9	euh	DISF_M	pres	NULL	NULL	NOLINK	0	idtext0006	euh	#####	spk2	18.17	18.29	0.01	_
20091112_RATP_SCD_0460	3	10	sinon	NULL	coo	NULL	B_NULL	NOLINK	0	idtext0006	sinon	#####	spk2	18.3	18.62	0.01	_
20091112_RATP_SCD_0460	3	11	ils	NULL	cln	NULL	B_GN	SUJ	12	idtext0006	cln	#3#m#p##	spk2	18.63	18.73	0.01	_
20091112_RATP_SCD_0460	3	12	montent	NULL	v	NULL	B_GVf	DEP_COORD	8	idtext0006	monter	PS#3##p##	spk2	18.74	19.11	0.01	_
20091112_RATP_SCD_0460	3	13	jusqu'à	NULL	prep	NULL	B_GP	P_OBJ_LOC	12	idtext0006	jusqu'à	#####	spk2	19.12	19.46	0.01	_
20091112_RATP_SCD_0460	3	14	l'	NULL	det	NULL	I_GP	DET	15	idtext0006	le	###s##d	spk2	19.47	19.52	0.01	_
20091112_RATP_SCD_0460	3	15	aéroport	NULL	nc	B_A	I_GP	OBJ	13	idtext0006	aéroport	##m#s##	spk2	19.53	19.88	0.01	_
20091112_RATP_SCD_0460	3	16	Charles+de+Gaulle	NULL	np	I_A	I_GP	MOD	15	idtext0006	Charles+de+Gaulle	#####	spk2	19.89	20.53	?	//

20091112_RATP_SCD_0460	4	1	euh	DISF_M	pres	NULL	NULL	NOLINK	0	idtext0007	euh	#####	spk1	21.27	21.29	0.01	_
20091112_RATP_SCD_0460	4	2	oui	NULL	adv	NULL	B_GADV	MOD	3	idtext0007	oui	#####	spk1	21.3	21.39	0.01	_
20091112_RATP_SCD_0460	4	3	non	NULL	adv	NULL	I_GADV	ROOT	0	idtext0007	non	#####	spk1	21.4	22.24	0.01	_
20091112_RATP_SCD_0460	4	4	c'	NULL	cln	NULL	B_GN	SUJ_IMP	5	idtext0007	ce	###s##	spk1	22.25	22.33	0.01	_
20091112_RATP_SCD_0460	4	5	est	NULL	v	NULL	B_GVfn	ROOT	0	idtext0007	être	P#3##s##	spk1	22.34	22.38	0.01	_
20091112_RATP_SCD_0460	4	6	pas	NULL	advneg	NULL	I_GVfn	MOD	5	idtext0007	pas	#####	spk1	22.39	22.51	0.01	_
20091112_RATP_SCD_0460	4	7	ça	NULL	pro	NULL	B_GN	ATS	5	idtext0007	ça	#####	spk1	22.52	22.67	0.01	_
20091112_RATP_SCD_0460	4	8	c'	NULL	cln	NULL	B_GN	SUJ_IMP	9	idtext0007	ce	###s##	spk1	22.68	22.75	0.01	_
20091112_RATP_SCD_0460	4	9	est	NULL	v	NULL	B_GVf	ROOT	0	idtext0007	être	P#3##s##	spk1	22.76	22.81	0.01	_
20091112_RATP_SCD_0460	4	10	parce+que	NULL	csu	NULL	B_NULL	MOD	9	idtext0007	parce+que	#####	spk1	22.82	23.16	0.01	_
20091112_RATP_SCD_0460	4	11	j'	NULL	cln	NULL	B_GN	SUJ	12	idtext0007	cln	#1##s##	spk1	23.17	23.21	0.01	_
20091112_RATP_SCD_0460	4	12	ai	NULL	v	NULL	B_GVf	OBJ	10	idtext0007	avoir	P#1##s##	spk1	23.22	23.27	0.01	_
20091112_RATP_SCD_0460	4	13	ma	NULL	det	NULL	B_GN	DET	14	idtext0007	mon	##f#s##o	spk1	23.28	23.38	0.01	_
20091112_RATP_SCD_0460	4	14	fille	NULL	nc	NULL	I_GN	OBJ	12	idtext0007	fille	##f#s##	spk1	23.39	23.52	0.01	_
20091112_RATP_SCD_0460	4	15	qui	NULL	prorel	NULL	B_NULL	SUJ	16	idtext0007	qui	#####	spk1	23.53	23.63	0.01	_
20091112_RATP_SCD_0460	4	16	doit	NULL	v	NULL	B_GVf	MOD_REL	14	idtext0007	devoir	P#3##s##	spk1	23.64	23.74	0.01	_
20091112_RATP_SCD_0460	4	17	prendre	NULL	vinf	NULL	I_GVf	OBJ	16	idtext0007	prendre	W#####	spk1	23.75	23.97	0.01	_
20091112_RATP_SCD_0460	4	18	un	NULL	det	NULL	B_GN	DET	19	idtext0007	un	##m#s##i	spk1	23.98	24.09	0.01	_
20091112_RATP_SCD_0460	4	19	avion	NULL	nc	NULL	I_GN	OBJ	17	idtext0007	avion	##m#s##	spk1	24.1	24.3	0.01	_
20091112_RATP_SCD_0460	4	20	à	NULL	prep	NULL	B_GP	MOD	19	idtext0007	à	#####	spk1	24.31	24.44	0.01	_
20091112_RATP_SCD_0460	4	21	Orly	NULL	nc	B_A	I_GP	OBJ	20	idtext0007	Orly	##f#s##	spk1	24.45	24.76	0.01	_
20091112_RATP_SCD_0460	4	22	donc	NULL	coo	NULL	B_NULL	COORD	16	idtext0007	donc	#####	spk1	24.77	25.12	0.01	_
20091112_RATP_SCD_0460	4	23	euh	DISF_M	pres	NULL	NULL	NOLINK	0	idtext0007	euh	#####	spk1	25.13	25.33	0.01	_
20091112_RATP_SCD_0460	4	24	faut	NULL	v	NULL	B_GVf	DEP_COORD	22	idtext0007	falloir	P#3##s##	spk1	25.34	25.52	0.01	_
20091112_RATP_SCD_0460	4	25	qu'	NULL	csu	NULL	B_NULL	OBJ	24	idtext0007	qu'	#####	spk1	25.53	25.62	0.01	_
20091112_RATP_SCD_0460	4	26	elle	NULL	cln	NULL	B_GN	NOLINK	0	idtext0007	cln	#3#f#s##	spk1	25.63	26.22	?	_

20091112_RATP_SCD_0460	5	1	oh+ben	DISF_M	pres	NULL	NULL	NOLINK	0	idtext0008	oh+ben	#####	spk2	26.26	26.35	0.01	_
20091112_RATP_SCD_0460	5	2	jusqu'à	NULL	prep	NULL	B_GP	P_OBJ_LOC	6	idtext0008	jusqu'à	#####	spk2	26.36	26.7	0.01	_
20091112_RATP_SCD_0460	5	3	Antony	NULL	nc	B_A	I_GP	OBJ	2	idtext0008	Antony	##m#s##	spk2	26.71	27.21	0.01	_
20091112_RATP_SCD_0460	5	4	oui	NULL	adv	NULL	B_GADV	NOLINK	0	idtext0008	oui	#####	spk2	27.22	27.42	0.01	_
20091112_RATP_SCD_0460	5	5	ils	NULL	cln	NULL	B_GN	SUJ	6	idtext0008	cln	#3#m#p##	spk2	27.43	27.49	0.01	_
20091112_RATP_SCD_0460	5	6	circulent	NULL	v	NULL	B_GVf	ROOT	0	idtext0008	circuler	PS#3##p##	spk2	27.5	28.36	0.01	_
20091112_RATP_SCD_0460	5	7	y	NULL	clo	NULL	B_GN	AFF	8	idtext0008	y	#####	spk2	28.37	28.42	0.01	_
20091112_RATP_SCD_0460	5	8	a	NULL	v	NULL	B_GVfn	ROOT	0	idtext0008	avoir	P#3##s##	spk2	28.43	28.46	0.01	_
20091112_RATP_SCD_0460	5	9	pas	NULL	advneg	NULL	I_GVfn	MOD	8	idtext0008	pas	#####	spk2	28.47	28.59	0.01	_
20091112_RATP_SCD_0460	5	10	de	NULL	det	NULL	B_GN	DET	11	idtext0008	de	###p##i	spk2	28.6	28.71	0.01	_
20091112_RATP_SCD_0460	5	11	soucis	NULL	nc	NULL	I_GN	OBJ	8	idtext0008	souci	##m#p##	spk2	28.72	29.0	?	//

20091112_RATP_SCD_0460	6	1	normalement	NULL	adv	NULL	B_GADV	NOLINK	0	idtext0009	normalement	#####	spk1	29.04	29.56	?	//

20091112_RATP_SCD_0460	7	1	hum	DISF_M	pres	NULL	NULL	NOLINK	0	idtext0010	hum	#####	spk2	29.97	30.12	0.01	/
20091112_RATP_SCD_0460	7	2	j'	NULL	cln	NULL	B_GN	SUJ	5	idtext0010	cln	#1##s##	spk2	30.13	30.21	0.01	_
20091112_RATP_SCD_0460	7	3	ai	NULL	v	NULL	B_GVfn	AUX	5	idtext0010	avoir	P#1##s##	spk2	30.22	30.29	0.01	_
20091112_RATP_SCD_0460	7	4	pas	NULL	advneg	NULL	I_GVfn	MOD	5	idtext0010	pas	#####	spk2	30.3	30.43	0.01	_
20091112_RATP_SCD_0460	7	5	dit	NULL	vppart	NULL	I_GVfn	ROOT	0	idtext0010	dire	J#3##s##	spk2	30.44	30.56	0.01	_
20091112_RATP_SCD_0460	7	6	normalement	NULL	adv	NULL	B_GADV	OBJ	5	idtext0010	normalement	#####	spk2	30.57	31.2	?	_

20091112_RATP_SCD_0460	8	1	ah+bon	DISF_M	pres	NULL	NULL	NOLINK	0	idtext0011	ah+bon	#####	spk1	31.24	31.54	?	//

20091112_RATP_SCD_0460	9	1	y	NULL	clo	NULL	B_GN	AFF	2	idtext0012	y	#####	spk2	31.58	31.61	0.01	_
20091112_RATP_SCD_0460	9	2	a	NULL	v	NULL	B_GVf	ROOT	0	idtext0012	avoir	P#3##s##	spk2	31.62	31.64	0.01	_
20091112_RATP_SCD_0460	9	3	quand+même	NULL	adv	NULL	B_GADV	MOD	2	idtext0012	quand+même	#####	spk2	31.65	31.94	0.01	_
20091112_RATP_SCD_0460	9	4	des	NULL	det	NULL	B_GN	DET	5	idtext0012	des	###p##i	spk2	31.95	32.05	0.01	_
20091112_RATP_SCD_0460	9	5	soucis	NULL	nc	NULL	I_GN	OBJ	2	idtext0012	souci	##m#p##	spk2	32.06	32.66	?	//

20091112_RATP_SCD_0460	10	1	y	NULL	clo	NULL	B_GN	AFF	2	idtext0013	y	#####	spk1	32.8	32.83	0.01	_
20091112_RATP_SCD_0460	10	2	a	NULL	v	NULL	B_GVf	ROOT	0	idtext0013	avoir	P#3##s##	spk1	32.84	32.88	0.01	_
20091112_RATP_SCD_0460	10	3	quelques	NULL	det	NULL	B_GN	DET	4	idtext0013	quelque	###p##i	spk1	32.89	33.22	0.01	_
20091112_RATP_SCD_0460	10	4	soucis	NULL	nc	NULL	I_GN	OBJ	2	idtext0013	souci	##m#p##	spk1	33.23	33.61	0.01	_
20091112_RATP_SCD_0460	10	5	c'est-à-dire	NULL	coo	NULL	B_NULL	NOLINK	0	idtext0013	c'est-à-dire	#####	spk1	33.62	34.4	?	_

20091112_RATP_SCD_0460	11	1	euh	DISF_M	pres	NULL	NULL	NOLINK	0	idtext0014	euh	#####	spk2	34.44	34.82	0.01	_
20091112_RATP_SCD_0460	11	2	il	NULL	cln	NULL	B_GN	SUJ_IMP	4	idtext0014	cln	#3#m#s##	spk2	34.83	34.98	0.01	_
20091112_RATP_SCD_0460	11	3	ça	NULL	pro	NULL	B_GN	SUJ_IMP	4	idtext0014	ça	#####	spk2	34.99	35.15	0.01	_
20091112_RATP_SCD_0460	11	4	roule	NULL	v	NULL	B_GVf	ROOT	0	idtext0014	rouler	PS#13##s##	spk2	35.16	35.3	?	_

20091112_RATP_SCD_0460	12	1	vous	NULL	cln	NULL	B_GN	SUJ	2	idtext0015	cln	#2##p##	spk1	34.44	34.49	0.01	_
20091112_RATP_SCD_0460	12	2	savez	NULL	v	NULL	B_GVfn	ROOT	0	idtext0015	savoir	P#2##p##	spk1	34.5	35.04	0.01	_
20091112_RATP_SCD_0460	12	3	pas	NULL	advneg	NULL	I_GVfn	MOD	2	idtext0015	pas	#####	spk1	35.05	35.3	?	_

20091112_RATP_SCD_0460	13	1	à+peu+près	NULL	adv	NULL	B_GADV	NOLINK	0	idtext0016	à+peu+près	#####	spk2	35.34	35.86	0.01	_
20091112_RATP_SCD_0460	13	2	à	NULL	prep	NULL	B_GP	ROOT	0	idtext0016	à	#####	spk2	35.87	35.94	0.01	_
20091112_RATP_SCD_0460	13	3	soixante	NULL	nc	NULL	I_GP	OBJ	2	idtext0016	soixante	##m###	spk2	35.95	36.67	0.01	_
20091112_RATP_SCD_0460	13	4	quinze	NULL	nc	NULL	I_GP	NOLINK	0	idtext0016	quinze	##m###	spk2	36.68	37.09	0.01	_
20091112_RATP_SCD_0460	13	5	euh	DISF_M	pres	NULL	NULL	NOLINK	0	idtext0016	euh	#####	spk2	37.1	37.2	0.01	_
20091112_RATP_SCD_0460	13	6	quatre-vingts	NULL	nc	NULL	B_GN	ROOT	0	idtext0016	quatre-vingts	#####	spk2	37.21	37.65	0.01	_
20091112_RATP_SCD_0460	13	7	pourcent	NULL	nc	NULL	I_GN	MOD	6	idtext0016	pourcent	##m#s##	spk2	37.66	38.08	?	//

20091112_RATP_SCD_0460	14	1	d'accord	NULL	adv	NULL	B_GADV	NOLINK	0	idtext0017	d'accord	#####	spk1	38.45	39.24	0.01	_
20091112_RATP_SCD_0460	14	2	bon	DISF_M	pres	NULL	NULL	NOLINK	0	idtext0017	bon	#####	spk1	39.25	39.47	0.11	//
20091112_RATP_SCD_0460	14	3	ben	DISF_M	pres	NULL	NULL	NOLINK	0	idtext0018	ben	#####	spk1	39.58	39.69	0.01	_
20091112_RATP_SCD_0460	14	4	on	NULL	cln	NULL	B_GN	SUJ_IMP	5	idtext0018	cln	#3##s##	spk1	39.7	39.76	0.01	_
20091112_RATP_SCD_0460	14	5	va	NULL	v	NULL	B_GVf	ROOT	0	idtext0018	aller	P#3##s##	spk1	39.77	39.92	0.01	_
20091112_RATP_SCD_0460	14	6	voir	NULL	vinf	NULL	I_GVf	OBJ	5	idtext0018	voir	W#####	spk1	39.93	40.28	0.01	_
20091112_RATP_SCD_0460	14	7	un+petit+peu	NULL	adv	NULL	B_GADV	MOD	5	idtext0018	un+petit+peu	#####	spk1	40.29	40.84	0.57	_
20091112_RATP_SCD_0460	14	8	merci	NULL	adv	NULL	B_GADV	NOLINK	0	idtext0019	merci	#####	spk1	41.41	41.79	?	//

20091112_RATP_SCD_0460	15	1	je	NULL	cln	NULL	B_GN	SUJ	4	idtext0020	cln	#1##s##	spk2	41.92	42.11	0.01	_
20091112_RATP_SCD_0460	15	2	vous	NULL	clo	NULL	B_GN	OBJ	4	idtext0020	cln	#2##p##	spk2	42.12	42.4	0.01	_
20091112_RATP_SCD_0460	15	3	en	NULL	clo	NULL	B_GN	DE_OBJ	4	idtext0020	en	#####	spk2	42.41	42.61	0.01	_
20091112_RATP_SCD_0460	15	4	prie	NULL	v	NULL	B_GVf	ROOT	0	idtext0020	prier	PS#13##s##	spk2	42.62	42.73	?	//

20091112_RATP_SCD_0460	16	1	au+revoir	NULL	adv	NULL	B_GADV	NOLINK	0	idtext0021	au+revoir	#####	spk1	41.99	42.73	?	//

20091112_RATP_SCD_0460	17	1	bonne	NULL	adj	NULL	B_GN	MOD	2	idtext0022	bon	##f#s##	spk2	42.77	42.9	0.01	_
20091112_RATP_SCD_0460	17	2	journée	NULL	nc	NULL	I_GN	ROOT	0	idtext0022	journée	##f#s##	spk2	42.91	43.13	0.01	_
20091112_RATP_SCD_0460	17	3	au+revoir	NULL	adv	NULL	B_GADV	NOLINK	0	idtext0022	au+revoir	#####	spk2	43.14	43.81	?	//

