20091112_RATP_SCD_0164	1	1	un	NULL	det	NULL	B_GN	DET	2	idtext0000	un	##m#s##i	spk1	3.01	3.12	0.01	_
20091112_RATP_SCD_0164	1	2	instant	NULL	nc	NULL	I_GN	ROOT	0	idtext0000	instant	##m#s##	spk1	3.13	3.87	0.31	/
20091112_RATP_SCD_0164	1	3	NNAAMMEE	NULL	np	B_HU	B_GN	ROOT	0	idtext0001	ANONYM	NULL	spk1	4.18	4.37	0.17	_
20091112_RATP_SCD_0164	1	4	va	NULL	v	NULL	B_GVf	ROOT	0	idtext0002	aller	P#3##s##	spk1	4.54	4.69	0.01	_
20091112_RATP_SCD_0164	1	5	vous	NULL	clo	NULL	B_GN	A_OBJ	6	idtext0002	cln	#2##p##	spk1	4.7	4.8	0.01	_
20091112_RATP_SCD_0164	1	6	répondre	NULL	vinf	NULL	B_GVi	OBJ	4	idtext0002	répondre	W#####	spk1	4.81	6.09	?	//

20091112_RATP_SCD_0164	2	1	NNAAMMEE	NULL	np	B_HU	B_GN	ROOT	0	idtext0003	ANONYM	NULL	spk2	6.42	6.61	0.04	_
20091112_RATP_SCD_0164	2	2	bonjour	NULL	adv	NULL	B_GADV	NOLINK	0	idtext0004	bonjour	#####	spk2	6.65	7.12	?	//

20091112_RATP_SCD_0164	3	1	bonjour	NULL	adv	NULL	B_GADV	NOLINK	0	idtext0005	bonjour	#####	spk3	7.28	7.76	?	//

20091112_RATP_SCD_0164	4	1	monsieur	NULL	nc	NULL	B_GN	NOLINK	0	idtext0006	Monsieur	##m#s##	spk3	7.8	8.37	?	//

20091112_RATP_SCD_0164	5	1	bonjour	NULL	adv	NULL	B_GADV	NOLINK	0	idtext0007	bonjour	#####	spk2	7.8	8.04	0.01	//
20091112_RATP_SCD_0164	5	2	madame	NULL	nc	NULL	B_GN	NOLINK	0	idtext0007	Monsieur	##f#s##	spk2	8.05	8.37	?	//

20091112_RATP_SCD_0164	6	1	euh	DISF_M	pres	NULL	NULL	NOLINK	0	idtext0008	euh	#####	spk3	8.72	8.84	0.01	_
20091112_RATP_SCD_0164	6	2	je	NULL	cln	NULL	B_GN	SUJ	3	idtext0008	cln	#1##s##	spk3	8.85	8.95	0.01	_
20091112_RATP_SCD_0164	6	3	voulais	NULL	v	NULL	B_GVf	ROOT	0	idtext0008	vouloir	I#12##s##	spk3	8.96	9.12	0.01	_
20091112_RATP_SCD_0164	6	4	savoir	NULL	vinf	NULL	I_GVf	OBJ	3	idtext0008	savoir	W#####	spk3	9.13	9.44	0.01	_
20091112_RATP_SCD_0164	6	5	si	NULL	csu	NULL	B_NULL	OBJ	4	idtext0008	si	#####	spk3	9.45	9.67	0.01	_
20091112_RATP_SCD_0164	6	6	le	NULL	det	NULL	B_GN	DET	7	idtext0008	le	##m#s##d	spk3	9.68	9.81	0.01	_
20091112_RATP_SCD_0164	6	7	RER+B	NULL	nc	B_T	I_GN	SUJ	9	idtext0008	RER+B	#####	spk3	9.82	10.33	0.01	_
20091112_RATP_SCD_0164	6	8	il	NULL	cln	NULL	B_GN	SUJ	9	idtext0008	cln	#3#m#s##	spk3	10.34	10.5	0.01	_
20091112_RATP_SCD_0164	6	9	marchait	NULL	v	NULL	B_GVf	OBJ	5	idtext0008	marcher	I#3##s##	spk3	10.51	10.89	0.01	_
20091112_RATP_SCD_0164	6	10	parce+que	NULL	csu	NULL	B_NULL	MOD	9	idtext0008	parce+que	#####	spk3	10.9	11.14	0.01	_
20091112_RATP_SCD_0164	6	11	j'	NULL	cln	NULL	B_GN	SUJ	12	idtext0008	cln	#1##s##	spk3	11.15	11.23	0.01	_
20091112_RATP_SCD_0164	6	12	ai	NULL	v	NULL	B_GVf	OBJ	10	idtext0008	avoir	P#1##s##	spk3	11.24	11.27	0.01	_
20091112_RATP_SCD_0164	6	13	rendez-vous	NULL	nc	NULL	B_GN	OBJ	12	idtext0008	rendez-vous	##m###	spk3	11.28	11.64	0.01	_
20091112_RATP_SCD_0164	6	14	avec	NULL	prep	NULL	B_GP	MOD	12	idtext0008	avec	#####	spk3	11.65	11.81	0.01	_
20091112_RATP_SCD_0164	6	15	un	NULL	det	NULL	I_GP	DET	16	idtext0008	un	##m#s##i	spk3	11.82	11.93	0.01	_
20091112_RATP_SCD_0164	6	16	employeur	NULL	nc	NULL	I_GP	OBJ	14	idtext0008	employeur	##m#s##	spk3	11.94	12.52	0.01	_
20091112_RATP_SCD_0164	6	17	et	NULL	coo	NULL	B_NULL	NOLINK	0	idtext0008	et	#####	spk3	12.53	13.03	?	_

20091112_RATP_SCD_0164	7	1	oui	NULL	adv	NULL	B_GADV	NOLINK	0	idtext0009	oui	#####	spk2	13.18	13.39	0.01	_
20091112_RATP_SCD_0164	7	2	c'	NULL	cln	NULL	B_GN	SUJ_IMP	3	idtext0009	ce	###s##	spk2	13.4	13.47	0.01	_
20091112_RATP_SCD_0164	7	3	est	NULL	v	NULL	B_GVf	ROOT	0	idtext0009	être	P#3##s##	spk2	13.48	13.54	0.01	_
20091112_RATP_SCD_0164	7	4	quasi	NULL	adv	NULL	B_GADJ	MOD	5	idtext0009	quasi	#####	spk2	13.55	13.85	0.01	_
20091112_RATP_SCD_0164	7	5	normal	NULL	adj	NULL	I_GADJ	ATS	3	idtext0009	normal	##m#s##	spk2	13.86	14.22	0.01	_
20091112_RATP_SCD_0164	7	6	hein	DISF_M	pres	NULL	NULL	NOLINK	0	idtext0009	hein	#####	spk2	14.23	14.28	0.01	_
20091112_RATP_SCD_0164	7	7	il	NULL	cln	NULL	B_GN	SUJ_IMP	9	idtext0009	cln	#3#m#s##	spk2	14.29	14.34	0.01	_
20091112_RATP_SCD_0164	7	8	y	NULL	clo	NULL	B_GN	AFF	9	idtext0009	y	#####	spk2	14.35	14.37	0.01	_
20091112_RATP_SCD_0164	7	9	a	NULL	v	NULL	B_GVf	ROOT	0	idtext0009	avoir	P#3##s##	spk2	14.38	14.45	0.01	_
20091112_RATP_SCD_0164	7	10	trois	NULL	adj	NULL	I_GP	MOD	11	idtext0009	trois	#####	spk2	14.46	14.67	0.01	_
20091112_RATP_SCD_0164	7	11	trains	NULL	nc	NULL	I_GP	OBJ	9	idtext0009	train	##m#p##	spk2	14.68	14.89	0.01	_
20091112_RATP_SCD_0164	7	12	sur	NULL	prep	NULL	B_NULL	DEP	11	idtext0009	sur	#####	spk2	14.9	15.02	0.01	_
20091112_RATP_SCD_0164	7	13	quatre	NULL	adj	NULL	B_GADJ	OBJ	12	idtext0009	quatre	#####	spk2	15.03	15.25	?	_

20091112_RATP_SCD_0164	8	1	ah	DISF_M	pres	NULL	NULL	NOLINK	0	idtext0010	ah	#####	spk3	16.02	16.08	0.01	_
20091112_RATP_SCD_0164	8	2	quasi	NULL	adv	NULL	B_GADJ	MOD	3	idtext0010	quasi	#####	spk3	16.09	16.41	0.01	_
20091112_RATP_SCD_0164	8	3	normal	NULL	adj	NULL	I_GADJ	ROOT	0	idtext0010	normal	##m#s##	spk3	16.42	16.8	?	//

20091112_RATP_SCD_0164	9	1	oui	NULL	adv	NULL	B_GADV	NOLINK	0	idtext0011	oui	#####	spk2	16.84	17.01	?	//

20091112_RATP_SCD_0164	10	1	ah+ben	DISF_M	pres	NULL	NULL	NOLINK	0	idtext0012	ah+ben	#####	spk3	17.33	17.6	0.01	_
20091112_RATP_SCD_0164	10	2	ça	NULL	pro	NULL	B_GN	SUJ_IMP	4	idtext0012	ça	#####	spk3	17.61	17.69	0.01	_
20091112_RATP_SCD_0164	10	3	me	NULL	clo	NULL	B_GN	OBJ	4	idtext0012	cla	#1##s##	spk3	17.7	17.72	0.01	_
20091112_RATP_SCD_0164	10	4	fait	NULL	v	NULL	B_GVf	ROOT	0	idtext0012	faire	P#3##s##	spk3	17.73	17.88	0.01	_
20091112_RATP_SCD_0164	10	5	du	NULL	prep	NULL	B_NULL	OBJ	4	idtext0012	du	#####	spk3	17.89	18.02	0.01	_
20091112_RATP_SCD_0164	10	6	bien	NULL	adv	NULL	B_GADV	MOD	5	idtext0012	bien	#####	spk3	18.03	18.2	?	_

20091112_RATP_SCD_0164	11	1	ouais	NULL	adv	NULL	B_GADV	NOLINK	0	idtext0013	ouais	#####	spk2	18.47	18.56	?	//

20091112_RATP_SCD_0164	12	1	et	NULL	coo	NULL	B_NULL	ROOT	0	idtext0014	et	#####	spk3	18.6	18.67	0.01	_
20091112_RATP_SCD_0164	12	2	euh	DISF_M	pres	NULL	NULL	NOLINK	0	idtext0014	euh	#####	spk3	18.68	18.7	0.01	_
20091112_RATP_SCD_0164	12	3	je	GREF	cln	NULL	B_GN	SUJ	4	idtext0014	cln	#1##s##	spk3	18.71	18.93	0.01	_
20091112_RATP_SCD_0164	12	4	veux	GREF	v	NULL	B_GVf	ROOT	0	idtext0014	vouloir	P#12##s##	spk3	18.94	19.1	0.01	_
20091112_RATP_SCD_0164	12	5	dire	GREF	vinf	NULL	I_GVf	OBJ	4	idtext0014	dire	W#####	spk3	19.11	19.3	0.01	_
20091112_RATP_SCD_0164	12	6	je	NULL	cln	NULL	B_GN	SUJ	7	idtext0014	cln	#1##s##	spk3	19.31	19.4	0.01	_
20091112_RATP_SCD_0164	12	7	vais	NULL	v	NULL	B_GVf	DEP_COORD	1	idtext0014	aller	P#1##s##	spk3	19.41	19.47	0.01	_
20091112_RATP_SCD_0164	12	8	au	NULL	prep	NULL	B_NULL	NOLINK	0	idtext0014	au	#####	spk3	19.48	19.59	0.01	_
20091112_RATP_SCD_0164	12	9	mé()	DISF_T	tronc	NULL	NULL	NOLINK	0	idtext0014	mé()	#####	spk3	19.6	19.89	0.09	//
20091112_RATP_SCD_0164	12	10	je	NULL	cln	NULL	B_GN	SUJ	11	idtext0015	cln	#1##s##	spk3	19.98	20.15	0.01	_
20091112_RATP_SCD_0164	12	11	vais	NULL	v	NULL	B_GVf	ROOT	0	idtext0015	aller	P#1##s##	spk3	20.16	20.26	0.01	_
20091112_RATP_SCD_0164	12	12	au	NULL	prep	NULL	B_GP	P_OBJ_LOC	11	idtext0015	au	#####	spk3	20.27	20.33	0.01	_
20091112_RATP_SCD_0164	12	13	métro	NULL	nc	NULL	I_GP	OBJ	12	idtext0015	métro	##m#s##	spk3	20.34	20.77	0.01	_
20091112_RATP_SCD_0164	12	14	école	NULL	nc	NULL	B_GN	MOD	13	idtext0015	école	##f#s##	spk3	20.78	21.1	0.01	_
20091112_RATP_SCD_0164	12	15	militaire	NULL	adj	NULL	I_GN	MOD	14	idtext0015	militaire	###s##	spk3	21.11	21.83	?	//

20091112_RATP_SCD_0164	13	1	oui	NULL	adv	NULL	B_GADV	NOLINK	0	idtext0016	oui	#####	spk2	21.96	22.31	?	//

20091112_RATP_SCD_0164	14	1	alors	NULL	adv	NULL	B_GADV	MOD	2	idtext0017	alors	#####	spk3	22.73	22.98	0.01	/
20091112_RATP_SCD_0164	14	2	où	NULL	adv	NULL	I_GADV	ROOT	0	idtext0017	où	#####	spk3	22.99	23.04	0.01	_
20091112_RATP_SCD_0164	14	3	est-ce+que	NULL	pri	NULL	B_NULL	NOLINK	0	idtext0017	est-ce+que	#####	spk3	23.05	23.43	0.01	_
20091112_RATP_SCD_0164	14	4	je	NULL	cln	NULL	B_GN	NOLINK	0	idtext0017	cln	#1##s##	spk3	23.44	23.62	0.06	_
20091112_RATP_SCD_0164	14	5	je	NULL	cln	NULL	B_GN	SUJ	6	idtext0018	cln	#1##s##	spk3	23.68	24.1	0.01	_
20091112_RATP_SCD_0164	14	6	viens	NULL	v	NULL	B_GVf	ROOT	0	idtext0018	venir	P#12##s##	spk3	24.11	24.28	0.01	_
20091112_RATP_SCD_0164	14	7	de	NULL	prep	NULL	B_GP	P_OBJ_LOC	6	idtext0018	de	#####	spk3	24.29	24.41	0.01	_
20091112_RATP_SCD_0164	14	8	la	NULL	det	NULL	I_GP	DET	9	idtext0018	le	##m#s##d	spk3	24.42	24.54	0.01	_
20091112_RATP_SCD_0164	14	9	gare	NULL	nc	B_A	I_GP	OBJ	7	idtext0018	gare	##f#s##	spk3	24.55	24.75	0.01	_
20091112_RATP_SCD_0164	14	10	de	NULL	prep	I_A	I_GP	DEP	9	idtext0018	de	#####	spk3	24.76	24.89	0.01	_
20091112_RATP_SCD_0164	14	11	Drancy	NULL	np	I_A	I_GP	OBJ	10	idtext0018	Drancy	##m#s##	spk3	24.9	25.4	?	//

20091112_RATP_SCD_0164	15	1	vous	NULL	cln	NULL	B_GN	SUJ	2	idtext0019	cln	#2##p##	spk2	26.32	26.4	0.01	_
20091112_RATP_SCD_0164	15	2	voulez	NULL	v	NULL	B_GVf	ROOT	0	idtext0019	vouloir	P#2##p##	spk2	26.41	26.56	0.01	_
20091112_RATP_SCD_0164	15	3	savoir	NULL	vinf	NULL	I_GVf	OBJ	2	idtext0019	savoir	W#####	spk2	26.57	26.79	0.01	_
20091112_RATP_SCD_0164	15	4	le	NULL	det	NULL	B_GN	DET	5	idtext0019	le	##m#s##d	spk2	26.8	26.89	0.01	_
20091112_RATP_SCD_0164	15	5	trajet	NULL	nc	NULL	I_GN	OBJ	3	idtext0019	trajet	##m#s##	spk2	26.9	27.29	0.01	_
20091112_RATP_SCD_0164	15	6	en+fait	GREF	adv	NULL	B_GADV	NOLINK	0	idtext0019	en+fait	#####	spk2	27.3	27.63	0.01	_
20091112_RATP_SCD_0164	15	7	hein	DISF_M	pres	NULL	NULL	NOLINK	0	idtext0019	hein	#####	spk2	27.64	27.75	?	//

20091112_RATP_SCD_0164	16	1	oui	NULL	adv	NULL	B_GADV	NOLINK	0	idtext0020	oui	#####	spk3	27.79	28.01	0.01	_
20091112_RATP_SCD_0164	16	2	voilà	DISF_M	pres	NULL	NULL	NOLINK	0	idtext0020	voilà	#####	spk3	28.02	28.29	?	//

20091112_RATP_SCD_0164	17	1	monsieur	NULL	nc	NULL	B_GN	NOLINK	0	idtext0021	Monsieur	##m#s##	spk3	28.33	28.69	?	//

20091112_RATP_SCD_0164	18	1	d'accord	NULL	adv	NULL	B_GADV	NOLINK	0	idtext0022	d'accord	#####	spk2	28.33	28.69	?	//

20091112_RATP_SCD_0164	19	1	un	NULL	det	NULL	B_GN	DET	3	idtext0023	un	##m#s##i	spk2	28.82	28.84	0.01	_
20091112_RATP_SCD_0164	19	2	petit	NULL	adj	NULL	I_GN	MOD	3	idtext0023	petit	##m#s##	spk2	28.85	28.93	0.01	_
20091112_RATP_SCD_0164	19	3	instant	NULL	nc	NULL	I_GN	ROOT	0	idtext0023	instant	##m#s##	spk2	28.94	29.3	0.01	_
20091112_RATP_SCD_0164	19	4	hein	DISF_M	pres	NULL	NULL	NOLINK	0	idtext0023	hein	#####	spk2	29.31	29.36	?	//

20091112_RATP_SCD_0164	20	1	je	NULL	cln	NULL	B_GN	SUJ	2	idtext0024	cln	#1##s##	spk2	29.4	29.45	0.01	_
20091112_RATP_SCD_0164	20	2	recherche	NULL	v	NULL	B_GVf	ROOT	0	idtext0024	rechercher	PS#13##s##	spk2	29.46	30.27	?	//

20091112_RATP_SCD_0164	21	1	merci	NULL	adv	NULL	B_GADV	NOLINK	0	idtext0025	merci	#####	spk3	29.41	29.91	0.01	//
20091112_RATP_SCD_0164	21	2	monsieur	NULL	nc	NULL	B_GN	NOLINK	0	idtext0025	Monsieur	##m#s##	spk3	29.92	30.27	?	//

20091112_RATP_SCD_0164	22	1	madame	NULL	nc	NULL	B_GN	NOLINK	0	idtext0026	Monsieur	##f#s##	spk2	55.01	55.82	?	//

20091112_RATP_SCD_0164	23	1	oui	NULL	adv	NULL	B_GADV	NOLINK	0	idtext0027	oui	#####	spk3	55.86	56.1	?	//

20091112_RATP_SCD_0164	24	1	alors	NULL	adv	NULL	B_GADV	NOLINK	0	idtext0028	alors	#####	spk2	56.14	56.28	0.01	_
20091112_RATP_SCD_0164	24	2	vous	NULL	cln	NULL	B_GN	SUJ	3	idtext0028	cln	#2##p##	spk2	56.29	56.35	0.01	_
20091112_RATP_SCD_0164	24	3	changez	NULL	v	NULL	B_GVf	ROOT	0	idtext0028	changer	P#2##p##	spk2	56.36	56.92	0.01	_
20091112_RATP_SCD_0164	24	4	à	NULL	prep	NULL	B_NULL	NOLINK	0	idtext0028	à	#####	spk2	56.93	57.07	0.07	_
20091112_RATP_SCD_0164	24	5	tout+d'+abord	NULL	adv	NULL	B_GADV	NOLINK	0	idtext0029	tout+d'+abord	#####	spk2	57.14	57.81	0.01	_
20091112_RATP_SCD_0164	24	6	de	NULL	prep	NULL	B_GP	ROOT	0	idtext0029	de	#####	spk2	57.82	57.93	0.01	_
20091112_RATP_SCD_0164	24	7	Drancy	NULL	nc	B_A	I_GP	OBJ	6	idtext0029	Drancy	##m#s##	spk2	57.94	58.35	0.01	_
20091112_RATP_SCD_0164	24	8	vous	NULL	cln	NULL	B_GN	SUJ	9	idtext0029	cln	#2##p##	spk2	58.36	58.52	0.01	_
20091112_RATP_SCD_0164	24	9	allez	NULL	v	NULL	B_GVf	ROOT	0	idtext0029	aller	P#2##p##	spk2	58.53	58.64	0.01	_
20091112_RATP_SCD_0164	24	10	jusqu'à	NULL	prep	NULL	B_GP	P_OBJ_LOC	9	idtext0029	jusqu'à	#####	spk2	58.65	58.95	0.01	_
20091112_RATP_SCD_0164	24	11	la	NULL	det	NULL	I_GP	DET	12	idtext0029	le	##m#s##d	spk2	58.96	59.04	0.01	_
20091112_RATP_SCD_0164	24	12	Gare+du+Nord	NULL	nc	B_A	I_GP	OBJ	10	idtext0029	Gare+du+Nord	#####	spk2	59.05	59.64	0.01	_
20091112_RATP_SCD_0164	24	13	hein	DISF_M	pres	I_A	NULL	NOLINK	0	idtext0029	hein	#####	spk2	59.65	59.7	0.01	_
20091112_RATP_SCD_0164	24	14	avec	NULL	prep	NULL	B_GP	P_OBJ	9	idtext0029	avec	#####	spk2	59.71	59.93	0.01	_
20091112_RATP_SCD_0164	24	15	le	NULL	det	NULL	I_GP	DET	16	idtext0029	le	##m#s##d	spk2	59.94	60.03	0.01	_
20091112_RATP_SCD_0164	24	16	RER+B	NULL	nc	B_T	I_GP	OBJ	14	idtext0029	RER+B	#####	spk2	60.04	60.7	?	//

20091112_RATP_SCD_0164	25	1	Gare+du+Nord	NULL	nc	B_A	B_GN	ROOT	0	idtext0030	Gare+du+Nord	#####	spk3	61.2	61.73	0.01	//
20091112_RATP_SCD_0164	25	2	mais	NULL	coo	NULL	B_NULL	COORD	1	idtext0030	mais	#####	spk3	61.74	61.92	0.01	_
20091112_RATP_SCD_0164	25	3	il	NULL	cln	NULL	B_GN	SUJ	4	idtext0030	cln	#3#m#s##	spk3	61.93	61.98	0.01	_
20091112_RATP_SCD_0164	25	4	marche	NULL	v	NULL	B_GVf	DEP_COORD	2	idtext0030	marcher	PS#13##s##	spk3	61.99	62.23	0.01	_
20091112_RATP_SCD_0164	25	5	la	NULL	det	NULL	B_GN	DET	6	idtext0030	le	##m#s##d	spk3	62.24	62.34	0.01	_
20091112_RATP_SCD_0164	25	6	Gare+du+Nord	NULL	nc	B_A	I_GN	OBJ	4	idtext0030	Gare+du+Nord	#####	spk3	62.35	62.83	?	//

20091112_RATP_SCD_0164	26	1	ben	DISF_M	pres	NULL	NULL	NOLINK	0	idtext0031	ben	#####	spk2	63.34	63.42	0.01	_
20091112_RATP_SCD_0164	26	2	ouais	NULL	adv	NULL	B_GADV	NOLINK	0	idtext0031	ouais	#####	spk2	63.43	63.67	?	//

20091112_RATP_SCD_0164	27	1	oui	NULL	adv	NULL	B_GADV	NOLINK	0	idtext0032	oui	#####	spk3	63.85	64.11	0.16	_
20091112_RATP_SCD_0164	27	2	d'accord	NULL	adv	NULL	B_GADV	NOLINK	0	idtext0033	d'accord	#####	spk3	64.27	64.69	?	_

20091112_RATP_SCD_0164	28	1	ensuite	NULL	adv	NULL	B_GADV	NOLINK	0	idtext0034	ensuite	#####	spk2	64.73	65.06	0.01	_
20091112_RATP_SCD_0164	28	2	métro	NULL	nc	B_T	B_GN	ROOT	0	idtext0034	métro	##m#s##	spk2	65.07	65.36	0.01	_
20091112_RATP_SCD_0164	28	3	ligne	NULL	nc	I_T	I_GN	MOD	2	idtext0034	ligne	##f#s##	spk2	65.37	65.64	0.01	_
20091112_RATP_SCD_0164	28	4	cinq	NULL	adj	I_T	I_GN	MOD	3	idtext0034	cinq	#####	spk2	65.65	65.81	0.01	_
20091112_RATP_SCD_0164	28	5	direction	NULL	nc	NULL	B_GN	MOD	2	idtext0034	direction	##f#s##	spk2	65.82	66.24	0.01	_
20091112_RATP_SCD_0164	28	6	Place+d'Italie	NULL	nc	B_A	I_GN	MOD	5	idtext0034	Place+d'Italie	#####	spk2	66.25	67.02	?	//

20091112_RATP_SCD_0164	29	1	Place+d'Italie	NULL	nc	B_A	B_GN	NOLINK	0	idtext0035	Place+d'Italie	#####	spk3	67.62	68.27	0.04	_
20091112_RATP_SCD_0164	29	2	m()	DISF_T	tronc	NULL	NULL	NOLINK	0	idtext0036	m()	#####	spk3	68.31	68.33	0.01	//
20091112_RATP_SCD_0164	29	3	m()	DISF_T	tronc	NULL	NULL	NOLINK	0	idtext0036	m()	#####	spk3	68.34	68.46	0.01	_
20091112_RATP_SCD_0164	29	4	euh	DISF_M	pres	NULL	NULL	NOLINK	0	idtext0036	euh	#####	spk3	68.47	68.95	0.01	_
20091112_RATP_SCD_0164	29	5	ligne	NULL	nc	B_T	B_GN	NOLINK	0	idtext0036	ligne	##f#s##	spk3	68.96	69.3	0.01	_
20091112_RATP_SCD_0164	29	6	cinq	NULL	adj	I_T	I_GN	MOD	5	idtext0036	cinq	#####	spk3	69.31	69.51	?	//

20091112_RATP_SCD_0164	30	1	cinq	NULL	nc	NULL	B_GN	NOLINK	0	idtext0037	cinq	##m###	spk2	69.55	69.76	0.04	_
20091112_RATP_SCD_0164	30	2	vous	NULL	cln	NULL	B_GN	SUJ	3	idtext0038	cln	#2##p##	spk2	69.8	69.86	0.01	_
20091112_RATP_SCD_0164	30	3	changez	NULL	v	NULL	B_GVf	ROOT	0	idtext0038	changer	P#2##p##	spk2	69.87	70.26	0.01	_
20091112_RATP_SCD_0164	30	4	à	NULL	prep	NULL	B_GP	P_OBJ_LOC	3	idtext0038	à	#####	spk2	70.27	70.37	0.01	_
20091112_RATP_SCD_0164	30	5	République	NULL	nc	B_A	I_GP	OBJ	4	idtext0038	République	#####	spk2	70.38	71.1	?	//

20091112_RATP_SCD_0164	31	1	ah	DISF_M	pres	NULL	NULL	NOLINK	0	idtext0039	ah	#####	spk3	73.14	73.64	?	//

20091112_RATP_SCD_0164	32	1	vous	NULL	cln	NULL	B_GN	SUJ	2	idtext0040	cln	#2##p##	spk2	73.98	74.19	0.01	_
20091112_RATP_SCD_0164	32	2	allez	NULL	v	NULL	B_GVf	ROOT	0	idtext0040	aller	P#2##p##	spk2	74.2	74.4	0.01	_
20091112_RATP_SCD_0164	32	3	à	NULL	prep	NULL	B_NULL	NOLINK	0	idtext0040	à	#####	spk2	74.41	74.9	0.04	_
20091112_RATP_SCD_0164	32	4	vous	NULL	cln	NULL	B_GN	SUJ	7	idtext0041	cln	#2##p##	spk2	74.94	75.01	0.01	_
20091112_RATP_SCD_0164	32	5	m'	NULL	clo	NULL	B_GN	A_OBJ	7	idtext0041	cla	#1##s##	spk2	75.02	75.08	0.01	_
20091112_RATP_SCD_0164	32	6	avez	NULL	v	NULL	B_GVf	AUX	7	idtext0041	avoir	P#2##p##	spk2	75.09	75.2	0.01	_
20091112_RATP_SCD_0164	32	7	dit	NULL	vppart	NULL	I_GVf	ROOT	0	idtext0041	dire	J#3##s##	spk2	75.21	75.26	0.01	_
20091112_RATP_SCD_0164	32	8	école	NULL	nc	NULL	B_GN	OBJ	7	idtext0041	école	##f#s##	spk2	75.27	75.52	0.01	_
20091112_RATP_SCD_0164	32	9	vétérinaire	NULL	nc	NULL	I_GN	MOD	8	idtext0041	vétérinaire	###s##	spk2	75.53	76.26	?	//

20091112_RATP_SCD_0164	33	1	non	NULL	adv	NULL	B_GADV	NOLINK	0	idtext0042	non	#####	spk3	76.71	77.2	?	_

20091112_RATP_SCD_0164	34	1	école	NULL	nc	NULL	B_GN	ROOT	0	idtext0043	école	##f#s##	spk2	77.36	77.67	0.01	_
20091112_RATP_SCD_0164	34	2	militaire	NULL	adj	NULL	I_GN	MOD	1	idtext0043	militaire	###s##	spk2	77.68	78.72	?	//

20091112_RATP_SCD_0164	35	1	école	NULL	nc	NULL	B_GN	ROOT	0	idtext0044	école	##f#s##	spk3	77.36	77.67	0.01	_
20091112_RATP_SCD_0164	35	2	militaire	NULL	adj	NULL	I_GN	MOD	1	idtext0044	militaire	###s##	spk3	77.68	78.72	?	//

20091112_RATP_SCD_0164	36	1	pardon	DISF_M	pres	NULL	NULL	NOLINK	0	idtext0045	pardon	#####	spk2	78.76	79.07	?	//

20091112_RATP_SCD_0164	37	1	école	NULL	nc	NULL	B_GN	ROOT	0	idtext0046	école	##f#s##	spk2	79.17	79.43	0.01	_
20091112_RATP_SCD_0164	37	2	militaire	NULL	adj	NULL	I_GN	MOD	1	idtext0046	militaire	###s##	spk2	79.44	80.4	0.12	_
20091112_RATP_SCD_0164	37	3	école	NULL	nc	NULL	B_GN	NOLINK	0	idtext0048	école	##f#s##	spk2	80.52	81.02	0.07	_
20091112_RATP_SCD_0164	37	4	militaire	NULL	adj	NULL	B_GADJ	NOLINK	0	idtext0050	militaire	###s##	spk2	81.09	81.99	0.01	//
20091112_RATP_SCD_0164	37	5	ouais	DISF_R	adv	NULL	NULL	NOLINK	0	idtext0050	ouais	#####	spk2	82.0	82.11	0.01	_
20091112_RATP_SCD_0164	37	6	ouais	NULL	adv	NULL	B_GADV	NOLINK	0	idtext0050	ouais	#####	spk2	82.12	82.96	?	//

20091112_RATP_SCD_0164	38	1	c'	NULL	cln	NULL	B_GN	SUJ_IMP	2	idtext0047	ce	###s##	spk3	79.13	79.15	0.01	_
20091112_RATP_SCD_0164	38	2	est	NULL	v	NULL	B_GVfn	ROOT	0	idtext0047	être	P#3##s##	spk3	79.16	79.24	0.01	_
20091112_RATP_SCD_0164	38	3	pas	NULL	advneg	NULL	I_GVfn	MOD	2	idtext0047	pas	#####	spk3	79.25	79.67	0.01	_
20091112_RATP_SCD_0164	38	4	pareil	NULL	adj	NULL	B_GADJ	ATS	2	idtext0047	pareil	##m#s##	spk3	79.68	80.4	0.10	_
20091112_RATP_SCD_0164	38	5	non	NULL	adv	NULL	B_GADV	NOLINK	0	idtext0049	non	#####	spk3	80.5	81.02	?	_

20091112_RATP_SCD_0164	39	1	j'	NULL	cln	NULL	B_GN	SUJ	3	idtext0051	cln	#1##s##	spk2	83.75	83.81	0.01	_
20091112_RATP_SCD_0164	39	2	avais	NULL	v	NULL	B_GVf	AUX	3	idtext0051	avoir	I#12##s##	spk2	83.82	83.96	0.01	_
20091112_RATP_SCD_0164	39	3	compris	NULL	vppart	NULL	I_GVf	ROOT	0	idtext0051	comprendre	J#12##s##	spk2	83.97	84.28	0.01	_
20091112_RATP_SCD_0164	39	4	école	NULL	nc	NULL	B_GN	OBJ	3	idtext0051	école	##f#s##	spk2	84.29	84.63	0.01	_
20091112_RATP_SCD_0164	39	5	vétérinaire	NULL	nc	NULL	I_GN	MOD	4	idtext0051	vétérinaire	###s##	spk2	84.64	85.38	0.01	_
20091112_RATP_SCD_0164	39	6	moi	NULL	pro	NULL	B_GN	SUJ	3	idtext0051	moi	#####	spk2	85.39	85.67	0.31	//
20091112_RATP_SCD_0164	39	7	alors	NULL	adv	NULL	B_GADV	NOLINK	0	idtext0052	alors	#####	spk2	85.98	86.53	0.01	_
20091112_RATP_SCD_0164	39	8	école	NULL	nc	NULL	B_GN	ROOT	0	idtext0052	école	##f#s##	spk2	86.54	86.67	0.01	_
20091112_RATP_SCD_0164	39	9	militaire	NULL	adj	NULL	I_GN	MOD	8	idtext0052	militaire	###s##	spk2	86.68	87.0	?	//

20091112_RATP_SCD_0164	40	1	ouais	NULL	adv	NULL	B_GADV	NOLINK	0	idtext0053	ouais	#####	spk2	87.07	87.35	1.23	_
20091112_RATP_SCD_0164	40	2	donc	NULL	coo	NULL	B_NULL	ROOT	0	idtext0054	donc	#####	spk2	88.58	88.98	0.01	_
20091112_RATP_SCD_0164	40	3	euh	DISF_M	pres	NULL	NULL	NOLINK	0	idtext0054	euh	#####	spk2	88.99	89.25	0.01	_
20091112_RATP_SCD_0164	40	4	toujours	NULL	adv	NULL	B_GADV	NOLINK	0	idtext0054	toujours	#####	spk2	89.26	89.6	0.01	_
20091112_RATP_SCD_0164	40	5	Gare+du+Nord	NULL	nc	B_A	B_GN	DEP_COORD	2	idtext0054	Gare+du+Nord	#####	spk2	89.61	90.19	0.01	_
20091112_RATP_SCD_0164	40	6	hein	DISF_M	pres	I_A	NULL	NOLINK	0	idtext0054	hein	#####	spk2	90.2	90.33	0.04	_
20091112_RATP_SCD_0164	40	7	ensuite	NULL	adv	NULL	B_GADV	NOLINK	0	idtext0055	ensuite	#####	spk2	90.37	90.8	0.01	_
20091112_RATP_SCD_0164	40	8	Gare+du+Nord	NULL	nc	B_A	B_GN	ROOT	0	idtext0055	Gare+du+Nord	#####	spk2	90.81	91.51	0.01	_
20091112_RATP_SCD_0164	40	9	métro	NULL	nc	B_T	I_GN	MOD	8	idtext0055	métro	##m#s##	spk2	91.52	91.92	0.01	/
20091112_RATP_SCD_0164	40	10	ligne	NULL	nc	I_T	I_GN	MOD	9	idtext0055	ligne	##f#s##	spk2	91.93	92.17	0.01	_
20091112_RATP_SCD_0164	40	11	quatre	NULL	adj	I_T	I_GN	MOD	10	idtext0055	quatre	#####	spk2	92.18	92.8	?	_

20091112_RATP_SCD_0164	41	1	quatre	NULL	nc	NULL	B_GN	NOLINK	0	idtext0056	quatre	##m###	spk3	93.21	93.55	?	_

20091112_RATP_SCD_0164	42	1	direction	NULL	nc	NULL	B_GN	ROOT	0	idtext0057	direction	##f#s##	spk2	93.61	94.06	0.01	_
20091112_RATP_SCD_0164	42	2	Porte+d'Orléans	NULL	nc	B_A	I_GN	MOD	1	idtext0057	Porte+d'Orléans	#####	spk2	94.07	94.86	?	_

20091112_RATP_SCD_0164	43	1	Porte+d'Orléans	NULL	nc	B_A	B_GN	NOLINK	0	idtext0058	Porte+d'Orléans	#####	spk3	95.36	96.05	?	//

20091112_RATP_SCD_0164	44	1	vous	NULL	cln	NULL	B_GN	SUJ	2	idtext0059	cln	#2##p##	spk2	96.09	96.17	0.01	_
20091112_RATP_SCD_0164	44	2	changez	NULL	v	NULL	B_GVf	ROOT	0	idtext0059	changer	P#2##p##	spk2	96.18	96.53	0.01	_
20091112_RATP_SCD_0164	44	3	à	NULL	prep	NULL	B_GP	P_OBJ_LOC	2	idtext0059	à	#####	spk2	96.54	96.63	0.01	_
20091112_RATP_SCD_0164	44	4	Strasbourg-Saint-Denis	NULL	nc	B_A	I_GP	OBJ	3	idtext0059	Strasbourg-Saint-Denis	#####	spk2	96.64	97.84	?	//

20091112_RATP_SCD_0164	45	1	oui	NULL	adv	NULL	B_GADV	NOLINK	0	idtext0060	oui	#####	spk3	98.63	98.95	?	//

20091112_RATP_SCD_0164	46	1	et	NULL	coo	NULL	B_NULL	ROOT	0	idtext0061	et	#####	spk2	99.09	99.18	0.01	_
20091112_RATP_SCD_0164	46	2	ensuite	NULL	adv	NULL	B_GADV	NOLINK	0	idtext0061	ensuite	#####	spk2	99.19	99.54	0.01	_
20091112_RATP_SCD_0164	46	3	la	NULL	det	NULL	B_GN	DET	4	idtext0061	le	##m#s##d	spk2	99.55	99.7	0.01	_
20091112_RATP_SCD_0164	46	4	huit	NULL	nc	B_T	I_GN	DEP_COORD	1	idtext0061	huit	##m###	spk2	99.71	100.17	0.01	_
20091112_RATP_SCD_0164	46	5	direction	NULL	nc	NULL	I_GN	MOD	4	idtext0061	direction	##f#s##	spk2	100.18	100.64	0.01	_
20091112_RATP_SCD_0164	46	6	Balard	NULL	nc	B_A	B_GN	NOLINK	0	idtext0061	Balard	#####	spk2	100.65	101.04	0.01	_
20091112_RATP_SCD_0164	46	7	jusqu'à	NULL	prep	NULL	B_GP	ROOT	0	idtext0061	jusqu'à	#####	spk2	101.05	101.34	0.01	_
20091112_RATP_SCD_0164	46	8	école	NULL	nc	NULL	I_GP	OBJ	7	idtext0061	école	##f#s##	spk2	101.35	101.61	0.01	_
20091112_RATP_SCD_0164	46	9	militaire	NULL	adj	NULL	I_GP	MOD	8	idtext0061	militaire	###s##	spk2	101.62	102.08	?	//

20091112_RATP_SCD_0164	47	1	ah	DISF_M	pres	NULL	NULL	NOLINK	0	idtext0062	ah	#####	spk3	103.86	104.07	0.01	//
20091112_RATP_SCD_0164	47	2	euh	DISF_M	pres	NULL	NULL	NOLINK	0	idtext0062	euh	#####	spk3	104.08	104.1	0.01	_
20091112_RATP_SCD_0164	47	3	c'	NULL	cln	NULL	B_GN	SUJ_IMP	4	idtext0062	ce	###s##	spk3	104.11	104.13	0.01	_
20091112_RATP_SCD_0164	47	4	est	NULL	v	NULL	B_GVf	ROOT	0	idtext0062	être	P#3##s##	spk3	104.14	104.72	0.01	_
20091112_RATP_SCD_0164	47	5	direction	NULL	nc	NULL	B_GN	ATS	4	idtext0062	direction	##f#s##	spk3	104.73	105.32	0.01	_
20091112_RATP_SCD_0164	47	6	Balard	NULL	nc	B_A	I_GN	MOD	5	idtext0062	Balard	#####	spk3	105.33	105.81	?	//

20091112_RATP_SCD_0164	48	1	ouais	NULL	adv	NULL	B_GADV	NOLINK	0	idtext0063	ouais	#####	spk2	105.85	106.02	?	//

20091112_RATP_SCD_0164	49	1	et	NULL	coo	NULL	B_NULL	ROOT	0	idtext0064	et	#####	spk3	106.76	106.83	0.01	_
20091112_RATP_SCD_0164	49	2	si	NULL	csu	NULL	B_NULL	DEP_COORD	1	idtext0064	si	#####	spk3	106.84	107.06	0.01	_
20091112_RATP_SCD_0164	49	3	je	NULL	cln	NULL	B_GN	NOLINK	0	idtext0064	cln	#1##s##	spk3	107.07	107.67	0.28	_
20091112_RATP_SCD_0164	49	4	si	NULL	csu	NULL	B_NULL	ROOT	0	idtext0065	si	#####	spk3	107.95	108.02	0.01	_
20091112_RATP_SCD_0164	49	5	je	NULL	cln	NULL	B_GN	SUJ	6	idtext0065	cln	#1##s##	spk3	108.03	108.19	0.01	_
20091112_RATP_SCD_0164	49	6	change	NULL	v	NULL	B_GVf	OBJ	4	idtext0065	changer	PS#13##s##	spk3	108.2	108.91	0.01	_
20091112_RATP_SCD_0164	49	7	euh	DISF_M	pres	NULL	NULL	NOLINK	0	idtext0065	euh	#####	spk3	108.92	108.95	0.01	_
20091112_RATP_SCD_0164	49	8	à	NULL	prep	NULL	B_GP	P_OBJ_LOC	6	idtext0065	à	#####	spk3	108.96	109.13	0.01	_
20091112_RATP_SCD_0164	49	9	mettons	GREF	v	NULL	I_GP	NOLINK	0	idtext0065	mettre	P#1##p##	spk3	109.14	109.5	0.01	_
20091112_RATP_SCD_0164	49	10	à	DISF_R	prep	NULL	NULL	NOLINK	0	idtext0065	à	#####	spk3	109.51	109.59	0.01	_
20091112_RATP_SCD_0164	49	11	Auber	NULL	nc	B_A	I_GP	OBJ	8	idtext0065	Auber	#####	spk3	109.6	110.05	?	_

20091112_RATP_SCD_0164	50	1	parce+que	NULL	csu	NULL	B_NULL	NOLINK	0	idtext0066	parce+que	#####	spk3	110.71	111.67	?	_

20091112_RATP_SCD_0164	51	1	moi	NULL	pro	NULL	B_GN	SUJ	3	idtext0067	moi	#####	spk2	110.81	110.92	0.01	_
20091112_RATP_SCD_0164	51	2	j'	NULL	cln	NULL	B_GN	SUJ	3	idtext0067	cln	#1##s##	spk2	110.93	111.02	0.01	_
20091112_RATP_SCD_0164	51	3	ai	NULL	v	NULL	B_GVfn	ROOT	0	idtext0067	avoir	P#1##s##	spk2	111.03	111.11	0.01	_
20091112_RATP_SCD_0164	51	4	pas	NULL	advneg	NULL	I_GVfn	MOD	3	idtext0067	pas	#####	spk2	111.12	111.28	0.01	_
20091112_RATP_SCD_0164	51	5	mieux	NULL	adv	NULL	B_GADV	MOD	3	idtext0067	mieux	#####	spk2	111.29	111.52	0.01	_
20091112_RATP_SCD_0164	51	6	hein	DISF_M	pres	NULL	NULL	NOLINK	0	idtext0067	hein	#####	spk2	111.53	111.67	?	//

20091112_RATP_SCD_0164	52	1	non	NULL	adv	NULL	B_GADV	NOLINK	0	idtext0068	non	#####	spk3	112.26	112.38	?	_

20091112_RATP_SCD_0164	53	1	c'	NULL	cln	NULL	B_GN	SUJ_IMP	2	idtext0069	ce	###s##	spk2	112.42	112.44	0.01	_
20091112_RATP_SCD_0164	53	2	est	NULL	v	NULL	B_GVf	ROOT	0	idtext0069	être	P#3##s##	spk2	112.45	112.57	0.01	_
20091112_RATP_SCD_0164	53	3	le	NULL	det	NULL	B_GN	DET	6	idtext0069	le	##m#s##d	spk2	112.58	112.66	0.01	_
20091112_RATP_SCD_0164	53	4	le+plus	NULL	adv	NULL	I_GN	MOD	5	idtext0069	le+plus	#####	spk2	112.67	113.03	0.01	_
20091112_RATP_SCD_0164	53	5	rapide	NULL	adj	NULL	I_GN	MOD	6	idtext0069	rapide	###s##	spk2	113.04	113.38	0.01	_
20091112_RATP_SCD_0164	53	6	madame	NULL	nc	NULL	I_GN	ATS	2	idtext0069	Monsieur	##f#s##	spk2	113.39	113.69	0.01	_
20091112_RATP_SCD_0164	53	7	hein	DISF_M	pres	NULL	NULL	NOLINK	0	idtext0069	hein	#####	spk2	113.7	113.74	0.04	_
20091112_RATP_SCD_0164	53	8	à	NULL	prep	NULL	B_GP	ROOT	0	idtext0070	à	#####	spk2	113.78	113.82	0.01	_
20091112_RATP_SCD_0164	53	9	Auber	NULL	nc	B_A	I_GP	OBJ	8	idtext0070	Auber	#####	spk2	113.83	114.23	0.01	_
20091112_RATP_SCD_0164	53	10	c'	NULL	cln	NULL	B_GN	SUJ_IMP	11	idtext0070	ce	###s##	spk2	114.24	114.26	0.01	_
20091112_RATP_SCD_0164	53	11	est	NULL	v	NULL	B_GVfn	ROOT	0	idtext0070	être	P#3##s##	spk2	114.27	114.32	0.01	_
20091112_RATP_SCD_0164	53	12	pas	NULL	advneg	NULL	I_GVfn	MOD	11	idtext0070	pas	#####	spk2	114.33	114.45	0.01	_
20091112_RATP_SCD_0164	53	13	le	NULL	det	NULL	B_GN	DET	14	idtext0070	le	##m#s##d	spk2	114.46	114.56	0.01	_
20091112_RATP_SCD_0164	53	14	RER+B	NULL	nc	B_T	I_GN	ATS	11	idtext0070	RER+B	#####	spk2	114.57	115.19	0.01	_
20091112_RATP_SCD_0164	53	15	hein	DISF_M	pres	I_T	NULL	NOLINK	0	idtext0070	hein	#####	spk2	115.2	115.3	?	//

20091112_RATP_SCD_0164	54	1	non	DISF_R	adv	NULL	NULL	NOLINK	0	idtext0071	non	#####	spk3	116.46	116.79	0.01	_
20091112_RATP_SCD_0164	54	2	non	NULL	adv	NULL	B_GADV	NOLINK	0	idtext0071	non	#####	spk3	116.8	116.99	0.01	_
20091112_RATP_SCD_0164	54	3	mais	NULL	coo	NULL	B_NULL	NOLINK	0	idtext0071	mais	#####	spk3	117.0	117.34	0.01	_
20091112_RATP_SCD_0164	54	4	des+fois	NULL	adv	NULL	B_GADV	NOLINK	0	idtext0071	des+fois	#####	spk3	117.35	117.88	0.01	_
20091112_RATP_SCD_0164	54	5	si	NULL	csu	NULL	B_NULL	NOLINK	0	idtext0071	si	#####	spk3	117.89	118.27	?	_

20091112_RATP_SCD_0164	55	1	non	NULL	adv	NULL	B_GADV	NOLINK	0	idtext0072	non	#####	spk2	118.74	118.91	0.01	_
20091112_RATP_SCD_0164	55	2	ça	NULL	pro	NULL	B_GN	SUJ_IMP	3	idtext0072	ça	#####	spk2	118.92	119.01	0.01	_
20091112_RATP_SCD_0164	55	3	ira	NULL	v	NULL	B_GVfn	ROOT	0	idtext0072	aller	F#3##s##	spk2	119.02	119.2	0.01	_
20091112_RATP_SCD_0164	55	4	pas	NULL	advneg	NULL	I_GVfn	MOD	3	idtext0072	pas	#####	spk2	119.21	119.32	0.01	_
20091112_RATP_SCD_0164	55	5	plus	NULL	adv	NULL	B_GADV	MOD	6	idtext0072	plus	#####	spk2	119.33	119.49	0.01	_
20091112_RATP_SCD_0164	55	6	vite	NULL	adv	NULL	I_GADV	MOD	3	idtext0072	vite	#####	spk2	119.5	119.71	0.01	_
20091112_RATP_SCD_0164	55	7	hein	DISF_M	pres	NULL	NULL	NOLINK	0	idtext0072	hein	#####	spk2	119.72	119.78	?	//

20091112_RATP_SCD_0164	56	1	non	NULL	adv	NULL	B_GADV	NOLINK	0	idtext0073	non	#####	spk3	120.11	120.35	0.10	_
20091112_RATP_SCD_0164	56	2	bon	DISF_M	pres	NULL	NULL	NOLINK	0	idtext0074	bon	#####	spk3	120.45	120.62	0.05	_
20091112_RATP_SCD_0164	56	3	alors	NULL	adv	NULL	B_GADV	NOLINK	0	idtext0075	alors	#####	spk3	120.67	120.87	0.01	_
20091112_RATP_SCD_0164	56	4	attendez	NULL	v	NULL	B_GVf	NOLINK	0	idtext0075	attendre	P#2##p##	spk3	120.88	121.26	0.04	_
20091112_RATP_SCD_0164	56	5	la	NULL	det	NULL	B_GN	DET	6	idtext0076	le	##m#s##d	spk3	121.3	121.49	0.01	_
20091112_RATP_SCD_0164	56	6	quatre	NULL	nc	B_T	I_GN	OBJ	10	idtext0076	quatre	##m###	spk3	121.5	121.8	0.01	_
20091112_RATP_SCD_0164	56	7	vous	NULL	cln	NULL	B_GN	SUJ	10	idtext0077	cln	#2##p##	spk3	121.81	121.9	0.01	_
20091112_RATP_SCD_0164	56	8	m'	NULL	clo	NULL	B_GN	A_OBJ	10	idtext0077	cla	#1##s##	spk3	121.91	121.98	0.01	_
20091112_RATP_SCD_0164	56	9	avez	NULL	v	NULL	B_GVf	AUX	10	idtext0077	avoir	P#2##p##	spk3	121.99	122.16	0.01	_
20091112_RATP_SCD_0164	56	10	dit	NULL	vppart	NULL	I_GVf	ROOT	0	idtext0077	dire	J#3##s##	spk3	122.17	122.52	?	//

20091112_RATP_SCD_0164	57	1	la	NULL	det	NULL	B_GN	DET	2	idtext0078	le	##m#s##d	spk2	122.69	122.84	0.01	_
20091112_RATP_SCD_0164	57	2	quatre	NULL	nc	B_T	I_GN	ROOT	0	idtext0078	quatre	##m###	spk2	122.85	123.24	0.01	_
20091112_RATP_SCD_0164	57	3	et	NULL	coo	NULL	B_NULL	COORD	2	idtext0079	et	#####	spk2	123.25	123.3	0.01	_
20091112_RATP_SCD_0164	57	4	la	NULL	det	NULL	B_GN	DET	5	idtext0079	le	##m#s##d	spk2	123.31	123.44	0.01	_
20091112_RATP_SCD_0164	57	5	huit	NULL	nc	B_T	I_GN	DEP_COORD	3	idtext0079	huit	##m###	spk2	123.45	123.69	0.01	_
20091112_RATP_SCD_0164	57	6	ensuite	NULL	adv	NULL	B_GADV	MOD	5	idtext0079	ensuite	#####	spk2	123.7	124.2	?	//

20091112_RATP_SCD_0164	58	1	la	NULL	det	NULL	B_GN	DET	2	idtext0080	le	##m#s##d	spk3	124.34	124.48	0.01	_
20091112_RATP_SCD_0164	58	2	quatre	NULL	nc	B_T	I_GN	ROOT	0	idtext0080	quatre	##m###	spk3	124.49	124.77	0.01	_
20091112_RATP_SCD_0164	58	3	et	NULL	coo	NULL	B_NULL	COORD	2	idtext0081	et	#####	spk3	124.78	124.82	0.01	_
20091112_RATP_SCD_0164	58	4	la	NULL	det	NULL	B_GN	DET	5	idtext0081	le	##m#s##d	spk3	124.83	125.03	0.01	_
20091112_RATP_SCD_0164	58	5	huit	NULL	nc	B_T	I_GN	DEP_COORD	3	idtext0081	huit	##m###	spk3	125.04	125.67	?	//

20091112_RATP_SCD_0164	59	1	oui	NULL	adv	NULL	B_GADV	NOLINK	0	idtext0082	oui	#####	spk2	125.68	125.69	?	//

20091112_RATP_SCD_0164	60	1	alors	NULL	adv	NULL	B_GADV	NOLINK	0	idtext0083	alors	#####	spk3	125.89	126.1	0.01	_
20091112_RATP_SCD_0164	60	2	je	DISF_R	cln	NULL	NULL	NOLINK	0	idtext0083	cln	#1##s##	spk3	126.11	126.16	0.01	_
20091112_RATP_SCD_0164	60	3	je	NULL	cln	NULL	B_GN	SUJ	4	idtext0083	cln	#1##s##	spk3	126.17	126.33	0.01	_
20091112_RATP_SCD_0164	60	4	vais	NULL	v	NULL	B_GVf	ROOT	0	idtext0083	aller	P#1##s##	spk3	126.34	126.51	0.01	_
20091112_RATP_SCD_0164	60	5	je	NULL	cln	NULL	B_GN	SUJ	6	idtext0083	cln	#1##s##	spk3	126.52	126.67	0.01	_
20091112_RATP_SCD_0164	60	6	prends	NULL	v	NULL	B_GVf	ROOT	0	idtext0083	prendre	P#12##s##	spk3	126.68	126.88	0.01	_
20091112_RATP_SCD_0164	60	7	la	NULL	det	NULL	B_NULL	NOLINK	0	idtext0083	le	##m#s##d	spk3	126.89	127.33	0.25	_
20091112_RATP_SCD_0164	60	8	à	NULL	prep	NULL	B_GP	MOD	11	idtext0084	à	#####	spk3	127.58	127.66	0.01	_
20091112_RATP_SCD_0164	60	9	Gare+du+Nord	NULL	nc	B_A	I_GP	OBJ	8	idtext0084	Gare+du+Nord	#####	spk3	127.67	128.29	0.01	_
20091112_RATP_SCD_0164	60	10	je	NULL	cln	NULL	B_GN	SUJ	11	idtext0084	cln	#1##s##	spk3	128.3	128.6	0.01	_
20091112_RATP_SCD_0164	60	11	prends	NULL	v	NULL	B_GVf	ROOT	0	idtext0084	prendre	P#12##s##	spk3	128.61	128.8	0.01	_
20091112_RATP_SCD_0164	60	12	direct	NULL	adj	NULL	B_GADJ	ATS	11	idtext0084	direct	##m#s##	spk3	128.81	129.37	0.06	_
20091112_RATP_SCD_0164	60	13	direction	NULL	nc	NULL	B_GN	NOLINK	0	idtext0085	direction	##f#s##	spk3	129.43	130.25	0.01	_
20091112_RATP_SCD_0164	60	14	euh	DISF_M	pres	NULL	NULL	NOLINK	0	idtext0085	euh	#####	spk3	130.26	130.31	?	//

20091112_RATP_SCD_0164	61	1	Porte+d'Orléans	NULL	nc	B_A	B_GN	NOLINK	0	idtext0086	Porte+d'Orléans	#####	spk2	130.35	130.86	?	//

20091112_RATP_SCD_0164	62	1	Porte+d'Orléans	NULL	nc	B_A	B_GN	ROOT	0	idtext0087	Porte+d'Orléans	#####	spk3	131.04	131.73	0.01	_
20091112_RATP_SCD_0164	62	2	la	NULL	det	NULL	B_GN	DET	3	idtext0087	le	##m#s##d	spk3	131.74	131.84	0.01	_
20091112_RATP_SCD_0164	62	3	quatre	NULL	nc	B_T	I_GN	MOD	1	idtext0087	quatre	##m###	spk3	131.85	132.27	0.51	/
20091112_RATP_SCD_0164	62	4	et	NULL	coo	NULL	B_NULL	ROOT	0	idtext0088	et	#####	spk3	132.78	132.86	0.01	_
20091112_RATP_SCD_0164	62	5	après	NULL	prep	NULL	B_GP	MOD	11	idtext0088	après	#####	spk3	132.87	133.13	0.01	_
20091112_RATP_SCD_0164	62	6	la	NULL	det	NULL	I_GP	DET	7	idtext0088	le	##m#s##d	spk3	133.14	133.31	0.01	_
20091112_RATP_SCD_0164	62	7	huit	NULL	nc	B_T	I_GP	OBJ	5	idtext0088	huit	##m###	spk3	133.32	133.68	0.01	_
20091112_RATP_SCD_0164	62	8	euh	DISF_M	pres	I_T	NULL	NOLINK	0	idtext0088	euh	#####	spk3	133.69	133.77	0.01	_
20091112_RATP_SCD_0164	62	9	c'	NULL	cln	NULL	B_GN	SUJ_IMP	10	idtext0088	ce	###s##	spk3	133.78	133.92	0.01	_
20091112_RATP_SCD_0164	62	10	est	NULL	v	NULL	B_GVf	DEP_COORD	4	idtext0088	être	P#3##s##	spk3	133.93	134.0	0.01	_
20091112_RATP_SCD_0164	62	11	direction	NULL	nc	NULL	B_GN	ATS	10	idtext0088	direction	##f#s##	spk3	134.01	134.78	?	//

20091112_RATP_SCD_0164	63	1	Balard	NULL	nc	B_A	B_GN	NOLINK	0	idtext0089	Balard	#####	spk2	134.86	135.25	?	//

20091112_RATP_SCD_0164	64	1	Balard	NULL	nc	B_A	B_GN	NOLINK	0	idtext0090	Balard	#####	spk3	135.64	135.91	?	//

20091112_RATP_SCD_0164	65	1	la	NULL	det	NULL	B_GN	DET	2	idtext0091	le	##m#s##d	spk3	136.24	136.4	0.01	_
20091112_RATP_SCD_0164	65	2	huit	NULL	nc	B_T	I_GN	ROOT	0	idtext0091	huit	##m###	spk3	136.41	136.83	0.66	_
20091112_RATP_SCD_0164	65	3	d'accord	NULL	adv	NULL	B_GADV	NOLINK	0	idtext0092	d'accord	#####	spk3	137.49	138.05	0.04	_
20091112_RATP_SCD_0164	65	4	d'acc	NULL	adv	NULL	B_GADV	NOLINK	0	idtext0093	d'acc	#####	spk3	138.09	138.3	0.47	_
20091112_RATP_SCD_0164	65	5	d'accord	NULL	adv	NULL	B_GADV	NOLINK	0	idtext0094	d'accord	#####	spk3	138.77	139.13	?	/

20091112_RATP_SCD_0164	66	1	bon	DISF_M	pres	NULL	NULL	NOLINK	0	idtext0095	bon	#####	spk3	139.78	140.02	?	_

20091112_RATP_SCD_0164	67	1	je	NULL	cln	NULL	B_GN	SUJ	3	idtext0096	cln	#1##s##	spk3	140.14	140.19	0.01	_
20091112_RATP_SCD_0164	67	2	vous	NULL	clo	NULL	B_GN	OBJ	3	idtext0096	cln	#2##p##	spk3	140.2	140.25	0.01	_
20091112_RATP_SCD_0164	67	3	remercie	NULL	v	NULL	B_GVf	ROOT	0	idtext0096	remercier	PS#13##s##	spk3	140.26	140.67	?	//

20091112_RATP_SCD_0164	68	1	beaucoup	NULL	adv	NULL	B_GADV	NOLINK	0	idtext0097	beaucoup	#####	spk3	140.71	141.19	0.01	_
20091112_RATP_SCD_0164	68	2	monsieur	NULL	nc	NULL	B_GN	NOLINK	0	idtext0097	Monsieur	##m#s##	spk3	141.2	141.62	0.08	_
20091112_RATP_SCD_0164	68	3	au+revoir	NULL	adv	NULL	B_GADV	NOLINK	0	idtext0099	au+revoir	#####	spk3	141.7	142.45	?	//

20091112_RATP_SCD_0164	69	1	je	NULL	cln	NULL	B_GN	SUJ	4	idtext0098	cln	#1##s##	spk2	140.81	140.96	0.01	_
20091112_RATP_SCD_0164	69	2	vous	NULL	clo	NULL	B_GN	OBJ	4	idtext0098	cln	#2##p##	spk2	140.97	141.03	0.01	_
20091112_RATP_SCD_0164	69	3	en	NULL	clo	NULL	B_GN	DE_OBJ	4	idtext0098	en	#####	spk2	141.04	141.12	0.01	_
20091112_RATP_SCD_0164	69	4	prie	NULL	v	NULL	B_GVf	ROOT	0	idtext0098	prier	PS#13##s##	spk2	141.13	141.62	0.04	_
20091112_RATP_SCD_0164	69	5	bonne	NULL	adj	NULL	B_GN	MOD	6	idtext0100	bon	##f#s##	spk2	141.66	141.82	0.01	_
20091112_RATP_SCD_0164	69	6	journée	NULL	nc	NULL	I_GN	ROOT	0	idtext0100	journée	##f#s##	spk2	141.83	142.11	0.01	_
20091112_RATP_SCD_0164	69	7	madame	NULL	nc	NULL	B_GN	NOLINK	0	idtext0100	Monsieur	##f#s##	spk2	142.12	142.45	?	//

