20091112_RATP_SCD_0010	1	1	va	NULL	v	NULL	B_GVf	ROOT	0	idtext0000	aller	P#3##s##	spk3	3.99	4.41	0.01	_
20091112_RATP_SCD_0010	1	2	vous	NULL	clo	NULL	B_GN	A_OBJ	3	idtext0000	cln	#2##p##	spk3	4.42	4.51	0.01	_
20091112_RATP_SCD_0010	1	3	répondre	NULL	vinf	NULL	B_GVi	OBJ	1	idtext0000	répondre	W#####	spk3	4.52	5.07	?	//

20091112_RATP_SCD_0010	2	1	bonjour	NULL	adv	NULL	B_GADV	NOLINK	0	idtext0001	bonjour	#####	spk1	6.15	6.67	?	//

20091112_RATP_SCD_0010	3	1	allo	NULL	adv	NULL	B_GADV	MOD	2	idtext0002	allo	#####	spk2	6.76	7.09	0.01	_
20091112_RATP_SCD_0010	3	2	bonjour	NULL	adv	NULL	I_GADV	ROOT	0	idtext0002	bonjour	#####	spk2	7.1	7.54	?	//

20091112_RATP_SCD_0010	4	1	euh	DISF_M	pres	NULL	NULL	NOLINK	0	idtext0003	euh	#####	spk2	7.92	7.94	0.01	_
20091112_RATP_SCD_0010	4	2	excusez	NULL	v	NULL	B_GVf	ROOT	0	idtext0003	excuser	P#2##p##	spk2	7.95	8.57	0.01	_
20091112_RATP_SCD_0010	4	3	-moi	NULL	clo	NULL	B_GN	OBJ	2	idtext0003	cla	#1##s##	spk2	8.58	8.71	0.01	_
20091112_RATP_SCD_0010	4	4	de	NULL	prep	NULL	B_GP	DE_OBJ	3	idtext0003	de	#####	spk2	8.72	8.75	0.01	_
20091112_RATP_SCD_0010	4	5	vous	NULL	clo	NULL	I_GP	OBJ	6	idtext0003	cln	#2##p##	spk2	8.76	8.87	0.01	_
20091112_RATP_SCD_0010	4	6	déranger	NULL	vinf	NULL	B_GVi	OBJ	4	idtext0003	déranger	W#####	spk2	8.88	9.33	0.01	_
20091112_RATP_SCD_0010	4	7	euh	DISF_M	pres	NULL	NULL	NOLINK	0	idtext0004	euh	#####	spk2	9.34	10.29	0.01	_
20091112_RATP_SCD_0010	4	8	j'	NULL	cln	NULL	B_GN	SUJ	9	idtext0004	cln	#1##s##	spk2	10.3	10.38	0.01	_
20091112_RATP_SCD_0010	4	9	ai	NULL	v	NULL	B_GVf	ROOT	0	idtext0004	avoir	P#1##s##	spk2	10.39	10.89	0.01	_
20091112_RATP_SCD_0010	4	10	une	NULL	det	NULL	B_GN	DET	11	idtext0004	un	##f#s##i	spk2	10.9	11.17	0.01	_
20091112_RATP_SCD_0010	4	11	question	NULL	nc	NULL	I_GN	OBJ	9	idtext0004	question	##f#s##	spk2	11.18	11.54	0.01	_
20091112_RATP_SCD_0010	4	12	parce+qu'	NULL	csu	NULL	B_NULL	MOD	9	idtext0004	parce+qu'	#####	spk2	11.55	11.77	0.01	_
20091112_RATP_SCD_0010	4	13	en+fait	GREF	adv	NULL	B_GADV	NOLINK	0	idtext0004	en+fait	#####	spk2	11.78	12.16	0.01	_
20091112_RATP_SCD_0010	4	14	euh	DISF_M	pres	NULL	NULL	NOLINK	0	idtext0004	euh	#####	spk2	12.17	12.31	0.01	_
20091112_RATP_SCD_0010	4	15	je	NULL	cln	NULL	B_GN	SUJ	16	idtext0004	cln	#1##s##	spk2	12.32	12.43	0.01	_
20091112_RATP_SCD_0010	4	16	pense	NULL	v	NULL	B_GVf	OBJ	12	idtext0004	penser	PS#13##s##	spk2	12.44	12.65	0.01	_
20091112_RATP_SCD_0010	4	17	avoir	NULL	vinf	NULL	I_GVf	OBJ	16	idtext0004	avoir	W#####	spk2	12.66	12.82	0.01	_
20091112_RATP_SCD_0010	4	18	perdu	NULL	vppart	NULL	B_GVf	OBJ	17	idtext0004	perdre	K##m#s##	spk2	12.83	13.15	0.01	_
20091112_RATP_SCD_0010	4	19	mon	NULL	det	NULL	B_GN	DET	20	idtext0004	mon	###s##o	spk2	13.16	13.37	0.01	_
20091112_RATP_SCD_0010	4	20	porte-monnaie	NULL	nc	NULL	I_GN	OBJ	18	idtext0004	porte-monnaie	##m###	spk2	13.38	13.96	0.01	_
20091112_RATP_SCD_0010	4	21	hier	NULL	adv	NULL	B_GADV	MOD	20	idtext0004	hier	#####	spk2	13.97	15.06	?	//

20091112_RATP_SCD_0010	5	1	oui	NULL	adv	NULL	B_GADV	NOLINK	0	idtext0005	oui	#####	spk1	15.1	15.2	?	//

20091112_RATP_SCD_0010	6	1	euh	DISF_M	pres	NULL	NULL	NOLINK	0	idtext0006	euh	#####	spk2	15.24	15.46	0.01	_
20091112_RATP_SCD_0010	6	2	dans	NULL	prep	NULL	B_NULL	NOLINK	0	idtext0006	dans	#####	spk2	15.47	15.89	0.01	_
20091112_RATP_SCD_0010	6	3	le	NULL	det	NULL	B_NULL	NOLINK	0	idtext0006	le	##m#s##d	spk2	15.9	17.18	?	_

20091112_RATP_SCD_0010	7	1	hum	DISF_M	pres	NULL	NULL	NOLINK	0	idtext0007	hum	#####	spk1	17.31	17.43	?	//

20091112_RATP_SCD_0010	8	1	donc	NULL	coo	NULL	B_NULL	ROOT	0	idtext0008	donc	#####	spk2	17.99	18.51	0.01	_
20091112_RATP_SCD_0010	8	2	je	NULL	cln	NULL	B_GN	SUJ	3	idtext0008	cln	#1##s##	spk2	18.52	18.66	0.01	_
20091112_RATP_SCD_0010	8	3	voudrais	NULL	v	NULL	B_GVf	DEP_COORD	1	idtext0008	vouloir	C#12##s##	spk2	18.67	18.98	0.01	_
20091112_RATP_SCD_0010	8	4	savoir	NULL	vinf	NULL	I_GVf	OBJ	3	idtext0008	savoir	W#####	spk2	18.99	20.0	0.01	_
20091112_RATP_SCD_0010	8	5	si	NULL	csu	NULL	B_NULL	OBJ	4	idtext0008	si	#####	spk2	20.01	20.3	0.01	_
20091112_RATP_SCD_0010	8	6	déjà	NULL	adv	NULL	B_GADV	MOD	18	idtext0008	déjà	#####	spk2	20.31	20.8	0.01	_
20091112_RATP_SCD_0010	8	7	si	NULL	csu	NULL	B_NULL	MOD	18	idtext0008	si	#####	spk2	20.81	21.45	0.01	_
20091112_RATP_SCD_0010	8	8	il	NULL	cln	NULL	B_GN	SUJ_IMP	10	idtext0008	cln	#3#m#s##	spk2	21.46	21.63	0.01	_
20091112_RATP_SCD_0010	8	9	y	NULL	clo	NULL	B_GN	AFF	10	idtext0008	y	#####	spk2	21.64	21.67	0.01	_
20091112_RATP_SCD_0010	8	10	a	NULL	v	NULL	B_GVf	OBJ	7	idtext0008	avoir	P#3##s##	spk2	21.68	21.85	0.01	_
20091112_RATP_SCD_0010	8	11	des	NULL	det	NULL	B_GN	DET	12	idtext0008	des	###p##i	spk2	21.86	22.06	0.01	_
20091112_RATP_SCD_0010	8	12	objets	NULL	nc	NULL	I_GN	OBJ	10	idtext0008	objet	##m#p##	spk2	22.07	22.32	0.01	_
20091112_RATP_SCD_0010	8	13	trouvés	NULL	adj	NULL	I_GP	MOD	12	idtext0008	trouver	K##m#p##	spk2	22.33	22.92	0.01	/
20091112_RATP_SCD_0010	8	14	s'	NULL	csu	NULL	B_NULL	NOLINK	0	idtext0008	se	#3##p##	spk2	22.93	23.11	0.01	_
20091112_RATP_SCD_0010	8	15	il	NULL	cln	NULL	B_GN	SUJ	18	idtext0008	cln	#3#m#s##	spk2	23.12	23.18	0.01	_
20091112_RATP_SCD_0010	8	16	a	NULL	v	NULL	B_GVf	AUX	17	idtext0008	avoir	P#3##s##	spk2	23.19	23.21	0.01	_
20091112_RATP_SCD_0010	8	17	été	NULL	vppart	NULL	I_GVf	AUX	18	idtext0008	être	K#####	spk2	23.22	23.46	0.01	_
20091112_RATP_SCD_0010	8	18	trouvé	NULL	vppart	NULL	I_GVf	OBJ	14	idtext0008	trouver	K##m#s##	spk2	23.47	24.33	?	//

20091112_RATP_SCD_0010	9	1	bah	DISF_M	pres	NULL	NULL	NOLINK	0	idtext0009	bah	#####	spk1	24.38	24.47	0.01	_
20091112_RATP_SCD_0010	9	2	de+toute+façon	NULL	adv	NULL	B_GADV	NOLINK	0	idtext0009	de+toute+façon	#####	spk1	24.48	25.18	0.01	_
20091112_RATP_SCD_0010	9	3	euh	DISF_M	pres	NULL	NULL	NOLINK	0	idtext0009	euh	#####	spk1	25.19	26.04	0.01	_
20091112_RATP_SCD_0010	9	4	le	NULL	det	NULL	B_GN	DET	5	idtext0009	le	##m#s##d	spk1	26.05	26.16	0.01	_
20091112_RATP_SCD_0010	9	5	service	NULL	nc	NULL	I_GN	ROOT	0	idtext0009	service	##m#s##	spk1	26.17	26.56	0.01	_
20091112_RATP_SCD_0010	9	6	des	NULL	prep	NULL	B_GP	DEP	5	idtext0009	des	#####	spk1	26.57	26.76	0.01	_
20091112_RATP_SCD_0010	9	7	objets	NULL	nc	NULL	I_GP	OBJ	6	idtext0009	objet	##m#p##	spk1	26.77	26.98	0.01	_
20091112_RATP_SCD_0010	9	8	trouvés	NULL	adj	NULL	I_GP	MOD	7	idtext0009	trouver	K##m#p##	spk1	26.99	27.34	0.01	_
20091112_RATP_SCD_0010	9	9	n'	NULL	clneg	NULL	B_GVfn	MOD	10	idtext0009	n'	#####	spk1	27.35	27.44	0.01	_
20091112_RATP_SCD_0010	9	10	ouvre	NULL	v	NULL	I_GVfn	ROOT	0	idtext0009	ouvrer	PS#13##s##	spk1	27.45	27.68	0.01	_
20091112_RATP_SCD_0010	9	11	qu'	NULL	advneg	NULL	I_GVfn	MOD	10	idtext0009	qu'	#####	spk1	27.69	27.77	0.01	_
20091112_RATP_SCD_0010	9	12	à	NULL	prep	NULL	B_GP	MOD	10	idtext0009	à	#####	spk1	27.78	27.96	0.01	_
20091112_RATP_SCD_0010	9	13	dix	NULL	det	B_H	I_GP	DET	14	idtext0010	dix	#####	spk1	27.97	28.13	0.01	_
20091112_RATP_SCD_0010	9	14	heures	NULL	nc	I_H	I_GP	OBJ	12	idtext0010	heure	##f#p##	spk1	28.14	28.55	?	//

20091112_RATP_SCD_0010	10	1	donc	NULL	coo	NULL	B_NULL	NOLINK	0	idtext0011	donc	#####	spk1	28.87	29.29	?	//

20091112_RATP_SCD_0010	11	1	d'accord	NULL	adv	NULL	B_GADV	NOLINK	0	idtext0012	d'accord	#####	spk2	28.87	29.29	?	//

20091112_RATP_SCD_0010	12	1	faut	NULL	v	NULL	B_GVf	ROOT	0	idtext0013	falloir	P#3##s##	spk1	29.33	29.44	0.01	_
20091112_RATP_SCD_0010	12	2	que	NULL	csu	NULL	B_NULL	OBJ	1	idtext0013	que	#####	spk1	29.45	29.5	0.01	_
20091112_RATP_SCD_0010	12	3	vous	NULL	cln	NULL	B_GN	SUJ	4	idtext0013	cln	#2##p##	spk1	29.51	29.6	0.01	_
20091112_RATP_SCD_0010	12	4	rappeliez	NULL	v	NULL	B_GVf	OBJ	2	idtext0013	rappeler	I#2##p##	spk1	29.61	29.9	0.01	_
20091112_RATP_SCD_0010	12	5	au	NULL	prep	NULL	B_GP	P_OBJ	4	idtext0013	au	#####	spk1	29.91	29.95	0.01	_
20091112_RATP_SCD_0010	12	6	même	NULL	adj	NULL	I_GP	MOD	7	idtext0013	même	###s##	spk1	29.96	30.1	0.01	_
20091112_RATP_SCD_0010	12	7	numéro	NULL	nc	NULL	I_GP	OBJ	5	idtext0013	numéro	##m#s##	spk1	30.11	30.54	0.01	/
20091112_RATP_SCD_0010	12	8	mais	NULL	coo	NULL	B_NULL	COORD	4	idtext0013	mais	#####	spk1	30.55	30.65	0.01	_
20091112_RATP_SCD_0010	12	9	à	NULL	prep	NULL	B_GP	DEP_COORD	8	idtext0013	à	#####	spk1	30.66	30.71	0.01	_
20091112_RATP_SCD_0010	12	10	dix	NULL	det	B_H	I_GP	DET	11	idtext0014	dix	#####	spk1	30.72	30.96	0.01	_
20091112_RATP_SCD_0010	12	11	heures	NULL	nc	I_H	I_GP	OBJ	9	idtext0014	heure	##f#p##	spk1	30.97	31.16	0.01	_
20091112_RATP_SCD_0010	12	12	hein	DISF_M	pres	I_H	NULL	NOLINK	0	idtext0015	hein	#####	spk1	31.17	31.36	?	//

20091112_RATP_SCD_0010	13	1	OK	NULL	adv	NULL	B_GADV	NOLINK	0	idtext0016	ok	#####	spk2	31.5	32.06	?	_

20091112_RATP_SCD_0010	14	1	d'accord	NULL	adv	NULL	B_GADV	NOLINK	0	idtext0017	d'accord	#####	spk1	32.13	32.72	?	//

20091112_RATP_SCD_0010	15	1	OK	NULL	adv	NULL	B_GADV	NOLINK	0	idtext0018	ok	#####	spk2	32.76	32.94	0.01	_
20091112_RATP_SCD_0010	15	2	et	DISF_R	coo	NULL	NULL	NOLINK	0	idtext0019	et	#####	spk2	32.95	33.05	0.01	_
20091112_RATP_SCD_0010	15	3	euh	DISF_M	pres	NULL	NULL	NOLINK	0	idtext0019	euh	#####	spk2	33.06	33.18	0.01	_
20091112_RATP_SCD_0010	15	4	et	NULL	coo	NULL	B_NULL	ROOT	0	idtext0020	et	#####	spk2	33.19	35.2	0.01	_
20091112_RATP_SCD_0010	15	5	oui	NULL	adv	NULL	B_GADV	MOD	7	idtext0020	oui	#####	spk2	35.21	35.43	0.01	_
20091112_RATP_SCD_0010	15	6	ben	DISF_M	pres	NULL	NULL	NOLINK	0	idtext0020	ben	#####	spk2	35.44	35.72	0.01	_
20091112_RATP_SCD_0010	15	7	non	NULL	adv	NULL	I_GADV	ROOT	0	idtext0020	non	#####	spk2	35.73	35.93	0.01	_
20091112_RATP_SCD_0010	15	8	c'	NULL	cln	NULL	B_GN	SUJ_IMP	9	idtext0020	ce	###s##	spk2	35.94	36.04	0.01	_
20091112_RATP_SCD_0010	15	9	est	NULL	v	NULL	B_GVf	DEP_COORD	4	idtext0020	être	P#3##s##	spk2	36.05	36.11	0.01	_
20091112_RATP_SCD_0010	15	10	tout	NULL	adv	NULL	B_GADV	MOD	11	idtext0020	tout	##m#s##	spk2	36.12	36.27	0.01	_
20091112_RATP_SCD_0010	15	11	alors	NULL	adv	NULL	I_GADV	ATS	9	idtext0020	alors	#####	spk2	36.28	37.35	0.01	_
20091112_RATP_SCD_0010	15	12	et	NULL	coo	NULL	B_NULL	NOLINK	0	idtext0021	et	#####	spk2	37.36	37.53	0.01	_
20091112_RATP_SCD_0010	15	13	ah	DISF_M	pres	NULL	NULL	NOLINK	0	idtext0021	ah	#####	spk2	37.54	37.68	0.01	_
20091112_RATP_SCD_0010	15	14	oui	NULL	adv	NULL	B_GADV	ROOT	0	idtext0021	oui	#####	spk2	37.69	37.92	0.01	_
20091112_RATP_SCD_0010	15	15	si	NULL	csu	NULL	B_NULL	NOLINK	0	idtext0021	si	#####	spk2	37.93	38.11	0.01	_
20091112_RATP_SCD_0010	15	16	pour	NULL	prep	NULL	B_GP	OBJ	15	idtext0021	pour	#####	spk2	38.12	38.47	0.01	_
20091112_RATP_SCD_0010	15	17	le	NULL	det	NULL	I_GP	DET	18	idtext0021	le	##m#s##d	spk2	38.48	38.62	0.01	_
20091112_RATP_SCD_0010	15	18	passe+Navigo	NULL	np	B_PRD	I_GP	OBJ	16	idtext0022	passe+Navigo	#####	spk2	38.63	39.49	?	//

20091112_RATP_SCD_0010	16	1	hum	DISF_M	pres	NULL	NULL	NOLINK	0	idtext0023	hum	#####	spk1	39.69	39.83	?	//

20091112_RATP_SCD_0010	17	1	euh	DISF_M	pres	NULL	NULL	NOLINK	0	idtext0024	euh	#####	spk2	40.01	40.36	0.01	_
20091112_RATP_SCD_0010	17	2	il	NULL	cln	NULL	B_GN	SUJ	3	idtext0024	cln	#3#m#s##	spk2	40.37	40.46	0.01	_
20091112_RATP_SCD_0010	17	3	était	NULL	v	NULL	B_GVf	ROOT	0	idtext0024	être	I#3##s##	spk2	40.47	40.66	0.01	_
20091112_RATP_SCD_0010	17	4	dans	NULL	prep	NULL	B_GP	ATS	3	idtext0024	dans	#####	spk2	40.67	40.77	0.01	_
20091112_RATP_SCD_0010	17	5	mon	NULL	det	NULL	I_GP	DET	6	idtext0024	mon	###s##o	spk2	40.78	40.93	0.01	_
20091112_RATP_SCD_0010	17	6	porte-monnaie	NULL	nc	NULL	I_GP	OBJ	4	idtext0024	porte-monnaie	##m###	spk2	40.94	41.48	0.01	/
20091112_RATP_SCD_0010	17	7	du+coup	NULL	adv	NULL	B_GADV	NOLINK	0	idtext0024	du+coup	#####	spk2	41.49	41.8	0.01	_
20091112_RATP_SCD_0010	17	8	ce	NULL	det	NULL	B_GN	DET	9	idtext0025	ce	##m#s##e	spk2	41.81	42.17	0.01	_
20091112_RATP_SCD_0010	17	9	matin	NULL	nc	NULL	I_GN	MOD	11	idtext0025	matin	##m#s##	spk2	42.18	42.51	0.01	//
20091112_RATP_SCD_0010	17	10	je	NULL	cln	NULL	B_GN	SUJ	11	idtext0026	cln	#1##s##	spk2	42.52	42.71	0.01	_
20091112_RATP_SCD_0010	17	11	fais	NULL	v	NULL	B_GVf	ROOT	0	idtext0026	faire	P#12##s##	spk2	42.72	43.11	0.01	_
20091112_RATP_SCD_0010	17	12	comment	NULL	adv	NULL	B_GADV	MOD	11	idtext0026	comment	#####	spk2	43.12	43.92	?	_

20091112_RATP_SCD_0010	18	1	bah	DISF_M	pres	NULL	NULL	NOLINK	0	idtext0027	bah	#####	spk1	44.23	44.4	0.01	_
20091112_RATP_SCD_0010	18	2	vous	NULL	cln	NULL	B_GN	SUJ	4	idtext0027	cln	#2##p##	spk1	44.41	44.51	0.01	_
20091112_RATP_SCD_0010	18	3	êtes	NULL	v	NULL	B_GVf	AUX	4	idtext0027	être	P#2##p##	spk1	44.52	44.63	0.01	_
20091112_RATP_SCD_0010	18	4	obligée	NULL	vppart	NULL	I_GVf	ROOT	0	idtext0027	obliger	K##f#s##	spk1	44.64	44.87	0.01	_
20091112_RATP_SCD_0010	18	5	d'	NULL	prep	NULL	B_GP	DE_OBJ	4	idtext0027	d'	#####	spk1	44.88	44.93	0.01	_
20091112_RATP_SCD_0010	18	6	acheter	NULL	vinf	NULL	I_GP	OBJ	5	idtext0027	acheter	W#####	spk1	44.94	45.28	0.01	_
20091112_RATP_SCD_0010	18	7	un	DISF_R	det	NULL	NULL	NOLINK	0	idtext0027	un	##m#s##i	spk1	45.29	45.6	0.01	_
20091112_RATP_SCD_0010	18	8	un	NULL	det	NULL	B_GN	DET	9	idtext0027	un	##m#s##i	spk1	45.61	46.5	0.01	_
20091112_RATP_SCD_0010	18	9	titre	NULL	nc	NULL	I_GN	OBJ	6	idtext0027	titre	##m#s##	spk1	46.51	46.68	0.01	_
20091112_RATP_SCD_0010	18	10	de	NULL	prep	NULL	B_GP	DEP	9	idtext0027	de	#####	spk1	46.69	46.81	0.01	_
20091112_RATP_SCD_0010	18	11	transport	NULL	nc	NULL	I_GP	OBJ	10	idtext0027	transport	##m#s##	spk1	46.82	47.27	0.01	_
20091112_RATP_SCD_0010	18	12	hein	DISF_M	pres	NULL	NULL	NOLINK	0	idtext0027	hein	#####	spk1	47.28	47.33	0.01	/
20091112_RATP_SCD_0010	18	13	pour	NULL	prep	NULL	B_GP	MOD	6	idtext0027	pour	#####	spk1	47.34	47.48	0.01	_
20091112_RATP_SCD_0010	18	14	voyager	NULL	vinf	NULL	I_GP	OBJ	13	idtext0027	voyager	W#####	spk1	47.49	48.09	?	_

20091112_RATP_SCD_0010	19	1	OK	NULL	adv	NULL	B_GADV	MOD	2	idtext0028	ok	#####	spk2	48.45	48.76	0.01	_
20091112_RATP_SCD_0010	19	2	d'accord	NULL	adv	NULL	I_GADV	ROOT	0	idtext0029	d'accord	#####	spk2	48.77	49.08	?	//

20091112_RATP_SCD_0010	20	1	parce+que	NULL	csu	NULL	B_NULL	ROOT	0	idtext0030	parce+que	#####	spk1	49.12	49.26	0.01	_
20091112_RATP_SCD_0010	20	2	si	NULL	csu	NULL	B_NULL	OBJ	1	idtext0030	si	#####	spk1	49.27	49.34	0.01	_
20091112_RATP_SCD_0010	20	3	vous	NULL	cln	NULL	B_GN	SUJ	5	idtext0030	cln	#2##p##	spk1	49.35	49.4	0.01	_
20091112_RATP_SCD_0010	20	4	êtes	NULL	v	NULL	B_GVf	AUX	5	idtext0030	être	P#2##p##	spk1	49.41	49.49	0.01	_
20091112_RATP_SCD_0010	20	5	contrôlée	NULL	vppart	NULL	I_GVf	OBJ	2	idtext0030	contrôler	K##f#s##	spk1	49.5	49.88	0.01	/
20091112_RATP_SCD_0010	20	6	vous	NULL	cln	NULL	B_GN	SUJ	7	idtext0030	cln	#2##p##	spk1	49.89	49.96	0.01	_
20091112_RATP_SCD_0010	20	7	risquez	NULL	v	NULL	B_GVf	ROOT	0	idtext0030	risquer	P#2##p##	spk1	49.97	50.17	0.01	_
20091112_RATP_SCD_0010	20	8	d'	NULL	prep	NULL	B_GP	OBJ	7	idtext0030	d'	#####	spk1	50.18	50.2	0.01	_
20091112_RATP_SCD_0010	20	9	avoir	NULL	vinf	NULL	I_GP	OBJ	8	idtext0030	avoir	W#####	spk1	50.21	50.37	0.01	_
20091112_RATP_SCD_0010	20	10	une	NULL	det	NULL	B_GN	DET	11	idtext0030	un	##f#s##i	spk1	50.38	50.44	0.01	_
20091112_RATP_SCD_0010	20	11	amende	NULL	nc	NULL	I_GN	OBJ	9	idtext0030	amende	##f#s##	spk1	50.45	50.98	?	//

20091112_RATP_SCD_0010	21	1	OK	NULL	adv	NULL	B_GADV	MOD	2	idtext0031	ok	#####	spk2	51.12	51.47	0.01	_
20091112_RATP_SCD_0010	21	2	d'accord	NULL	adv	NULL	I_GADV	ROOT	0	idtext0032	d'accord	#####	spk2	51.48	52.0	?	//

20091112_RATP_SCD_0010	22	1	d'accord	NULL	adv	NULL	B_GADV	NOLINK	0	idtext0033	d'accord	#####	spk1	52.08	52.47	0.08	_
20091112_RATP_SCD_0010	22	2	d'accord	NULL	adv	NULL	B_GADV	NOLINK	0	idtext0034	d'accord	#####	spk1	52.55	53.46	?	_

20091112_RATP_SCD_0010	23	1	merci	NULL	adv	NULL	B_GADV	MOD	2	idtext0035	merci	#####	spk2	53.56	53.81	0.01	_
20091112_RATP_SCD_0010	23	2	beaucoup	NULL	adv	NULL	I_GADV	MOD	3	idtext0035	beaucoup	#####	spk2	53.82	54.57	0.01	_
20091112_RATP_SCD_0010	23	3	au+revoir	NULL	adv	NULL	I_GADV	ROOT	0	idtext0035	au+revoir	#####	spk2	54.58	55.04	?	_

20091112_RATP_SCD_0010	24	1	à+tout+à+l'heure	NULL	adv	NULL	B_GADV	NOLINK	0	idtext0036	à+tout+à+l'heure	#####	spk1	53.53	55.04	?	//

