20091112_RATP_SCD_1281	1	1	NNAAMMEE	NULL	np	B_HU	B_GN	ROOT	0	idtext0000	ANONYM	NULL	spk1	7.67	7.86	0.04	_
20091112_RATP_SCD_1281	1	2	bonsoir	NULL	nc	NULL	B_GN	NOLINK	0	idtext0001	bonsoir	##m#s##	spk1	7.9	8.41	?	//

20091112_RATP_SCD_1281	2	1	bonsoir	NULL	nc	NULL	B_GN	NOLINK	0	idtext0002	bonsoir	##m#s##	spk2	8.95	9.49	?	//

20091112_RATP_SCD_1281	3	1	j'	NULL	cln	NULL	B_GN	SUJ	3	idtext0003	cln	#1##s##	spk2	9.76	9.87	0.01	_
20091112_RATP_SCD_1281	3	2	ai	NULL	v	NULL	B_GVf	AUX	3	idtext0003	avoir	P#1##s##	spk2	9.88	9.98	0.01	_
20091112_RATP_SCD_1281	3	3	perdu	NULL	vppart	NULL	I_GVf	ROOT	0	idtext0003	perdre	K##m#s##	spk2	9.99	10.36	0.01	_
20091112_RATP_SCD_1281	3	4	un	NULL	det	NULL	B_GN	DET	5	idtext0003	un	##m#s##i	spk2	10.37	10.51	0.01	_
20091112_RATP_SCD_1281	3	5	GPS	NULL	nc	NULL	I_GN	OBJ	3	idtext0003	GPS	#####	spk2	10.52	10.9	0.01	_
20091112_RATP_SCD_1281	3	6	dans	NULL	prep	NULL	B_GP	P_OBJ	5	idtext0003	dans	#####	spk2	10.91	11.21	0.01	_
20091112_RATP_SCD_1281	3	7	un	NULL	det	NULL	I_GP	DET	8	idtext0003	un	##m#s##i	spk2	11.22	11.28	0.01	_
20091112_RATP_SCD_1281	3	8	sac	NULL	nc	NULL	I_GP	OBJ	6	idtext0003	sac	##m#s##	spk2	11.29	11.49	0.01	_
20091112_RATP_SCD_1281	3	9	Darty	NULL	np	B_ORG	I_GP	MOD	8	idtext0003	Darty	#####	spk2	11.5	11.89	0.01	_
20091112_RATP_SCD_1281	3	10	je	NULL	cln	NULL	B_GN	SUJ	11	idtext0003	cln	#1##s##	spk2	11.9	11.92	0.01	_
20091112_RATP_SCD_1281	3	11	voulais	NULL	v	NULL	B_GVf	ROOT	0	idtext0003	vouloir	I#12##s##	spk2	11.93	12.05	0.01	_
20091112_RATP_SCD_1281	3	12	savoir	NULL	vinf	NULL	I_GVf	OBJ	11	idtext0003	savoir	W#####	spk2	12.06	12.34	0.01	_
20091112_RATP_SCD_1281	3	13	si	NULL	csu	NULL	B_NULL	OBJ	12	idtext0003	si	#####	spk2	12.35	12.44	0.01	_
20091112_RATP_SCD_1281	3	14	vous	NULL	cln	NULL	B_GN	SUJ	17	idtext0003	cln	#2##p##	spk2	12.45	12.62	0.01	_
20091112_RATP_SCD_1281	3	15	l'	NULL	clo	NULL	B_GN	OBJ	17	idtext0003	cla	#3##s##	spk2	12.63	12.68	0.01	_
20091112_RATP_SCD_1281	3	16	avez	NULL	v	NULL	B_GVf	AUX	17	idtext0003	avoir	P#2##p##	spk2	12.69	12.8	0.01	_
20091112_RATP_SCD_1281	3	17	retrouvé	NULL	vppart	NULL	I_GVf	OBJ	13	idtext0003	retrouver	K##m#s##	spk2	12.81	13.51	?	//

20091112_RATP_SCD_1281	4	1	un	NULL	det	NULL	B_GN	DET	2	idtext0004	un	##m#s##i	spk1	13.79	13.91	0.01	_
20091112_RATP_SCD_1281	4	2	GPS	NULL	nc	NULL	I_GN	ROOT	0	idtext0004	GPS	#####	spk1	13.92	14.82	0.01	_
20091112_RATP_SCD_1281	4	3	dans	NULL	prep	NULL	B_GP	P_OBJ	2	idtext0004	dans	#####	spk1	14.83	14.99	0.01	_
20091112_RATP_SCD_1281	4	4	un	NULL	det	NULL	I_GP	DET	5	idtext0004	un	##m#s##i	spk1	15.0	15.15	0.01	_
20091112_RATP_SCD_1281	4	5	sac	NULL	nc	NULL	I_GP	OBJ	3	idtext0004	sac	##m#s##	spk1	15.16	15.3	0.01	_
20091112_RATP_SCD_1281	4	6	Darty	NULL	np	B_ORG	I_GP	MOD	5	idtext0004	Darty	#####	spk1	15.31	15.9	?	//

20091112_RATP_SCD_1281	5	1	voilà	DISF_M	pres	NULL	NULL	NOLINK	0	idtext0005	voilà	#####	spk2	16.04	16.6	?	//

20091112_RATP_SCD_1281	6	1	c'	NULL	cln	NULL	B_GN	SUJ_IMP	2	idtext0006	ce	###s##	spk1	16.7	16.72	0.01	_
20091112_RATP_SCD_1281	6	2	était	NULL	v	NULL	B_GVf	ROOT	0	idtext0006	être	I#3##s##	spk1	16.73	16.92	0.01	_
20091112_RATP_SCD_1281	6	3	sur	NULL	prep	NULL	B_GP	ATS	2	idtext0006	sur	#####	spk1	16.93	17.07	0.01	_
20091112_RATP_SCD_1281	6	4	quel	NULL	det	NULL	I_GP	DET	5	idtext0006	quel	##m#s##	spk1	17.08	17.21	0.01	_
20091112_RATP_SCD_1281	6	5	réseau	NULL	nc	NULL	I_GP	OBJ	3	idtext0006	réseau	##m#s##	spk1	17.22	17.49	0.01	_
20091112_RATP_SCD_1281	6	6	monsieur	NULL	nc	NULL	I_GP	MOD	5	idtext0006	Monsieur	##m#s##	spk1	17.5	17.93	?	//

20091112_RATP_SCD_1281	7	1	alors	NULL	adv	NULL	B_GADV	NOLINK	0	idtext0007	alors	#####	spk2	18.6	18.77	0.01	_
20091112_RATP_SCD_1281	7	2	c'	DISF_R	cln	NULL	NULL	NOLINK	0	idtext0007	ce	###s##	spk2	18.78	18.88	0.01	_
20091112_RATP_SCD_1281	7	3	est	DISF_R	v	NULL	NULL	NOLINK	0	idtext0007	être	P#3##s##	spk2	18.89	19.07	0.01	_
20091112_RATP_SCD_1281	7	4	à	DISF_R	prep	NULL	NULL	NOLINK	0	idtext0007	à	#####	spk2	19.08	19.19	0.01	_
20091112_RATP_SCD_1281	7	5	je	NULL	cln	NULL	B_GN	SUJ	8	idtext0007	cln	#1##s##	spk2	19.2	19.28	0.01	_
20091112_RATP_SCD_1281	7	6	l'	NULL	clo	NULL	B_GN	OBJ	8	idtext0007	cla	#3##s##	spk2	19.29	19.31	0.01	_
20091112_RATP_SCD_1281	7	7	ai	NULL	v	NULL	B_GVf	AUX	8	idtext0007	avoir	P#1##s##	spk2	19.32	19.36	0.01	_
20091112_RATP_SCD_1281	7	8	perdu	NULL	vppart	NULL	I_GVf	ROOT	0	idtext0007	perdre	K##m#s##	spk2	19.37	19.64	0.01	_
20091112_RATP_SCD_1281	7	9	à	NULL	prep	NULL	B_GP	P_OBJ_LOC	8	idtext0007	à	#####	spk2	19.65	19.67	0.01	_
20091112_RATP_SCD_1281	7	10	Châtelet	NULL	nc	B_A	I_GP	OBJ	9	idtext0007	Châtelet	#####	spk2	19.68	20.09	?	//

20091112_RATP_SCD_1281	8	1	sur	NULL	prep	NULL	B_NULL	NOLINK	0	idtext0008	sur	#####	spk2	20.88	21.05	0.01	_
20091112_RATP_SCD_1281	8	2	euh	DISF_M	pres	NULL	NULL	NOLINK	0	idtext0008	euh	#####	spk2	21.06	21.73	?	//

20091112_RATP_SCD_1281	9	1	au+niveau+du	NULL	prep	NULL	B_GP	ROOT	0	idtext0009	au+niveau+du	#####	spk1	20.84	21.32	0.01	_
20091112_RATP_SCD_1281	9	2	RER	NULL	nc	B_T	I_GP	OBJ	1	idtext0009	RER	#####	spk1	21.33	21.73	?	_

20091112_RATP_SCD_1281	10	1	A	NULL	nc	NULL	B_GN	NOLINK	0	idtext0010	A	#####	spk1	21.78	22.15	?	//

20091112_RATP_SCD_1281	11	1	exactement	NULL	adv	NULL	B_GADV	NOLINK	0	idtext0011	exactement	#####	spk2	22.35	23.05	?	//

20091112_RATP_SCD_1281	12	1	alors	NULL	adv	NULL	B_GADV	NOLINK	0	idtext0012	alors	#####	spk1	24.13	24.52	0.01	_
20091112_RATP_SCD_1281	12	2	et	NULL	coo	NULL	B_NULL	ROOT	0	idtext0012	et	#####	spk1	24.53	24.57	0.01	_
20091112_RATP_SCD_1281	12	3	b()	DISF_T	tronc	NULL	NULL	NOLINK	0	idtext0012	b()	#####	spk1	24.58	24.6	0.01	_
20091112_RATP_SCD_1281	12	4	vous	NULL	cln	NULL	B_GN	SUJ	7	idtext0012	cln	#2##p##	spk1	24.61	24.72	0.01	_
20091112_RATP_SCD_1281	12	5	l'	NULL	clo	NULL	B_GN	OBJ	7	idtext0012	cla	#3##s##	spk1	24.73	24.76	0.01	_
20091112_RATP_SCD_1281	12	6	avez	NULL	v	NULL	B_GVf	AUX	7	idtext0012	avoir	P#2##p##	spk1	24.77	24.91	0.01	_
20091112_RATP_SCD_1281	12	7	laissé	NULL	vppart	NULL	I_GVf	DEP_COORD	2	idtext0012	laisser	K##m#s##	spk1	24.92	25.38	0.01	_
20091112_RATP_SCD_1281	12	8	sur	NULL	prep	NULL	B_GP	P_OBJ	7	idtext0012	sur	#####	spk1	25.39	25.59	0.01	_
20091112_RATP_SCD_1281	12	9	le	NULL	det	NULL	I_GP	DET	10	idtext0012	le	##m#s##d	spk1	25.6	25.62	0.01	_
20091112_RATP_SCD_1281	12	10	quai	NULL	nc	NULL	I_GP	OBJ	8	idtext0012	quai	##m#s##	spk1	25.63	25.84	0.01	_
20091112_RATP_SCD_1281	12	11	à	NULL	prep	NULL	B_GP	P_OBJ_LOC	7	idtext0012	à	#####	spk1	25.85	25.87	0.01	_
20091112_RATP_SCD_1281	12	12	Châtelet	NULL	nc	B_A	I_GP	OBJ	11	idtext0012	Châtelet	#####	spk1	25.88	26.32	?	//

20091112_RATP_SCD_1281	13	1	sur	NULL	prep	NULL	B_NULL	ROOT	0	idtext0013	sur	#####	spk2	26.85	26.97	0.01	_
20091112_RATP_SCD_1281	13	2	un	NULL	det	NULL	B_NULL	DET	5	idtext0013	un	##m#s##i	spk2	26.98	27.09	0.01	_
20091112_RATP_SCD_1281	13	3	ouais	NULL	adv	NULL	B_GADV	NOLINK	0	idtext0013	ouais	#####	spk2	27.1	27.3	0.01	_
20091112_RATP_SCD_1281	13	4	un	NULL	det	NULL	B_GN	DET	5	idtext0013	un	##m#s##i	spk2	27.31	27.38	0.01	_
20091112_RATP_SCD_1281	13	5	siège	NULL	nc	NULL	I_GN	OBJ	1	idtext0013	siège	##m#s##	spk2	27.39	27.64	0.01	_
20091112_RATP_SCD_1281	13	6	ouais	NULL	adv	NULL	B_GADV	NOLINK	0	idtext0013	ouais	#####	spk2	27.65	28.1	?	//

20091112_RATP_SCD_1281	14	1	d'accord	NULL	adv	NULL	B_GADV	NOLINK	0	idtext0014	d'accord	#####	spk1	28.33	28.94	0.01	/
20091112_RATP_SCD_1281	14	2	ne	NULL	clneg	NULL	B_GVfn	MOD	3	idtext0014	ne	#####	spk1	28.95	29.02	0.01	_
20091112_RATP_SCD_1281	14	3	quittez	NULL	v	NULL	I_GVfn	ROOT	0	idtext0014	quitter	P#2##p##	spk1	29.03	29.28	0.01	_
20091112_RATP_SCD_1281	14	4	pas	NULL	advneg	NULL	I_GVfn	MOD	3	idtext0014	pas	#####	spk1	29.29	29.42	0.01	_
20091112_RATP_SCD_1281	14	5	je	NULL	cln	NULL	B_GN	SUJ	6	idtext0014	cln	#1##s##	spk1	29.43	29.53	0.01	_
20091112_RATP_SCD_1281	14	6	vais	NULL	v	NULL	B_GVf	ROOT	0	idtext0014	aller	P#1##s##	spk1	29.54	29.59	0.01	_
20091112_RATP_SCD_1281	14	7	rechercher	NULL	vinf	NULL	I_GVf	OBJ	6	idtext0014	rechercher	W#####	spk1	29.6	29.85	0.01	_
20091112_RATP_SCD_1281	14	8	euh	DISF_M	pres	NULL	NULL	NOLINK	0	idtext0014	euh	#####	spk1	29.86	29.88	0.01	_
20091112_RATP_SCD_1281	14	9	je	NULL	cln	NULL	B_GN	SUJ	10	idtext0014	cln	#1##s##	spk1	29.89	29.96	0.01	_
20091112_RATP_SCD_1281	14	10	vais	NULL	v	NULL	B_GVf	ROOT	0	idtext0014	aller	P#1##s##	spk1	29.97	30.2	0.01	_
20091112_RATP_SCD_1281	14	11	me	NULL	clr	NULL	B_GVi	AFF	12	idtext0014	cla	#1##s##	spk1	30.21	30.27	0.01	_
20091112_RATP_SCD_1281	14	12	renseigner	NULL	vinf	NULL	I_GVi	OBJ	10	idtext0014	renseigner	W#####	spk1	30.28	30.66	0.01	_
20091112_RATP_SCD_1281	14	13	monsieur	NULL	nc	NULL	B_GN	NOLINK	0	idtext0014	Monsieur	##m#s##	spk1	30.67	30.98	0.01	_
20091112_RATP_SCD_1281	14	14	hein	DISF_M	pres	NULL	NULL	NOLINK	0	idtext0014	hein	#####	spk1	30.99	31.24	?	//

20091112_RATP_SCD_1281	15	1	merci	NULL	adv	NULL	B_GADV	NOLINK	0	idtext0015	merci	#####	spk2	31.43	31.9	?	//

20091112_RATP_SCD_1281	16	1	allo	NULL	adv	NULL	B_GADV	NOLINK	0	idtext0016	allo	#####	spk3	52.43	52.99	?	//

20091112_RATP_SCD_1281	17	1	oui	NULL	adv	NULL	B_GADV	NOLINK	0	idtext0017	oui	#####	spk1	53.12	53.36	0.01	_
20091112_RATP_SCD_1281	17	2	bonsoir	NULL	nc	NULL	B_GN	NOLINK	0	idtext0017	bonsoir	##m#s##	spk1	53.37	53.71	0.01	_
20091112_RATP_SCD_1281	17	3	c'	NULL	cln	NULL	B_GN	SUJ_IMP	4	idtext0017	ce	###s##	spk1	53.72	53.74	0.01	_
20091112_RATP_SCD_1281	17	4	est	NULL	v	NULL	B_GVf	ROOT	0	idtext0017	être	P#3##s##	spk1	53.75	53.88	0.01	_
20091112_RATP_SCD_1281	17	5	le	NULL	det	NULL	B_GN	DET	6	idtext0017	le	##m#s##d	spk1	53.89	53.93	0.01	_
20091112_RATP_SCD_1281	17	6	Service+Clients	NULL	np	B_ORG	I_GN	ATS	4	idtext0017	Service+Clients	#####	spk1	53.94	54.32	0.01	_
20091112_RATP_SCD_1281	17	7	à	NULL	prep	I_ORG	I_GN	MOD	6	idtext0017	à	#####	spk1	54.33	54.38	0.01	_
20091112_RATP_SCD_1281	17	8	distance	NULL	nc	I_ORG	I_GN	OBJ	7	idtext0017	distance	##f#s##	spk1	54.39	54.81	0.01	_
20091112_RATP_SCD_1281	17	9	excuse	NULL	v	NULL	B_GVf	ROOT	0	idtext0017	excuser	PS#13##s##	spk1	54.82	55.01	0.01	_
20091112_RATP_SCD_1281	17	10	-moi	NULL	clo	NULL	B_GN	OBJ	9	idtext0017	cla	#1##s##	spk1	55.02	55.12	0.01	_
20091112_RATP_SCD_1281	17	11	de	NULL	prep	NULL	B_GP	DE_OBJ	9	idtext0017	de	#####	spk1	55.13	55.16	0.01	_
20091112_RATP_SCD_1281	17	12	te	NULL	clo	NULL	I_GP	OBJ	13	idtext0017	cla	#2##s##	spk1	55.17	55.24	0.01	_
20091112_RATP_SCD_1281	17	13	déranger	NULL	vinf	NULL	B_GVi	OBJ	11	idtext0017	déranger	W#####	spk1	55.25	55.78	?	//

20091112_RATP_SCD_1281	18	1	le	NULL	det	NULL	B_GN	DET	2	idtext0018	le	##m#s##d	spk3	55.82	56.01	0.01	_
20091112_RATP_SCD_1281	18	2	service	NULL	nc	NULL	I_GN	ROOT	0	idtext0018	service	##m#s##	spk3	56.02	56.25	0.01	_
20091112_RATP_SCD_1281	18	3	quoi	DISF_M	pres	NULL	NULL	NOLINK	0	idtext0018	quoi	#####	spk3	56.26	56.55	?	_

20091112_RATP_SCD_1281	19	1	le	NULL	det	NULL	B_GN	DET	2	idtext0019	le	##m#s##d	spk1	56.66	56.75	0.01	_
20091112_RATP_SCD_1281	19	2	Service+Clients	NULL	np	B_ORG	I_GN	ROOT	0	idtext0019	Service+Clients	#####	spk1	56.76	57.34	0.01	_
20091112_RATP_SCD_1281	19	3	à	NULL	prep	I_ORG	I_GN	MOD	2	idtext0019	à	#####	spk1	57.35	57.41	0.01	_
20091112_RATP_SCD_1281	19	4	distance	NULL	nc	I_ORG	I_GN	OBJ	3	idtext0019	distance	##f#s##	spk1	57.42	57.99	?	//

20091112_RATP_SCD_1281	20	1	le	NULL	det	NULL	B_GN	DET	2	idtext0020	le	##m#s##d	spk3	58.08	58.26	0.01	_
20091112_RATP_SCD_1281	20	2	CC	NULL	nc	NULL	I_GN	ROOT	0	idtext0020	CC	#####	spk3	58.27	58.58	0.01	_
20091112_RATP_SCD_1281	20	3	à	NULL	prep	NULL	B_GP	ROOT	0	idtext0020	à	#####	spk3	58.59	58.63	0.01	_
20091112_RATP_SCD_1281	20	4	distance	NULL	nc	NULL	I_GP	OBJ	3	idtext0020	distance	##f#s##	spk3	58.64	58.95	0.01	_
20091112_RATP_SCD_1281	20	5	d'accord	NULL	adv	NULL	B_GADV	NOLINK	0	idtext0020	d'accord	#####	spk3	58.96	59.33	?	//

20091112_RATP_SCD_1281	21	1	enchanté	NULL	vppart	NULL	B_GVf	NOLINK	0	idtext0021	enchanter	K##m#s##	spk3	59.88	60.34	?	//

20091112_RATP_SCD_1281	22	1	euh	DISF_M	pres	NULL	NULL	NOLINK	0	idtext0022	euh	#####	spk1	61.4	61.5	0.01	_
20091112_RATP_SCD_1281	22	2	j'	NULL	cln	NULL	B_GN	SUJ	3	idtext0022	cln	#1##s##	spk1	61.51	61.64	0.01	_
20091112_RATP_SCD_1281	22	3	ai	NULL	v	NULL	B_GVf	ROOT	0	idtext0022	avoir	P#1##s##	spk1	61.65	61.7	0.01	_
20091112_RATP_SCD_1281	22	4	un	NULL	det	NULL	B_GN	DET	5	idtext0022	un	##m#s##i	spk1	61.71	61.8	0.01	_
20091112_RATP_SCD_1281	22	5	monsieur	NULL	nc	NULL	I_GN	OBJ	3	idtext0022	Monsieur	##m#s##	spk1	61.81	62.1	0.01	_
20091112_RATP_SCD_1281	22	6	qui	NULL	prorel	NULL	B_NULL	SUJ	8	idtext0022	qui	#####	spk1	62.11	62.22	0.01	_
20091112_RATP_SCD_1281	22	7	me	NULL	clo	NULL	B_GN	A_OBJ	8	idtext0022	cla	#1##s##	spk1	62.23	62.35	0.01	_
20091112_RATP_SCD_1281	22	8	dit	NULL	v	NULL	B_GVf	MOD_REL	5	idtext0022	dire	J#3##s##	spk1	62.36	62.49	0.01	_
20091112_RATP_SCD_1281	22	9	que	NULL	csu	NULL	B_NULL	OBJ	8	idtext0022	que	#####	spk1	62.5	62.71	0.01	_
20091112_RATP_SCD_1281	22	10	sur	NULL	prep	NULL	B_GP	OBJ	9	idtext0022	sur	#####	spk1	62.72	62.84	0.01	_
20091112_RATP_SCD_1281	22	11	le	NULL	det	NULL	I_GP	DET	12	idtext0022	le	##m#s##d	spk1	62.85	62.95	0.01	_
20091112_RATP_SCD_1281	22	12	quai	NULL	nc	NULL	I_GP	OBJ	10	idtext0022	quai	##m#s##	spk1	62.96	63.17	0.01	_
20091112_RATP_SCD_1281	22	13	à	NULL	prep	NULL	B_GP	P_OBJ_LOC	12	idtext0022	à	#####	spk1	63.18	63.22	0.01	_
20091112_RATP_SCD_1281	22	14	Châtelet	NULL	nc	B_A	I_GP	OBJ	13	idtext0022	Châtelet	#####	spk1	63.23	63.81	?	//

20091112_RATP_SCD_1281	23	1	oui	NULL	adv	NULL	B_GADV	NOLINK	0	idtext0023	oui	#####	spk3	63.9	64.17	?	//

20091112_RATP_SCD_1281	24	1	il	NULL	cln	NULL	B_GN	SUJ	3	idtext0024	cln	#3#m#s##	spk1	64.29	64.38	0.01	_
20091112_RATP_SCD_1281	24	2	a	NULL	v	NULL	B_GVf	AUX	3	idtext0024	avoir	P#3##s##	spk1	64.39	64.44	0.01	_
20091112_RATP_SCD_1281	24	3	laissé	NULL	vppart	NULL	I_GVf	ROOT	0	idtext0024	laisser	K##m#s##	spk1	64.45	64.7	0.01	_
20091112_RATP_SCD_1281	24	4	un	NULL	det	NULL	B_GN	DET	5	idtext0024	un	##m#s##i	spk1	64.71	64.81	0.01	_
20091112_RATP_SCD_1281	24	5	sac	NULL	nc	NULL	I_GN	OBJ	3	idtext0024	sac	##m#s##	spk1	64.82	65.04	0.01	_
20091112_RATP_SCD_1281	24	6	Darty	NULL	np	B_ORG	I_GN	MOD	5	idtext0024	Darty	#####	spk1	65.05	65.44	0.01	/
20091112_RATP_SCD_1281	24	7	avec	NULL	prep	NULL	B_GP	P_OBJ	5	idtext0024	avec	#####	spk1	65.45	65.63	0.01	_
20091112_RATP_SCD_1281	24	8	un	NULL	det	NULL	I_GP	DET	9	idtext0024	un	##m#s##i	spk1	65.64	65.69	0.01	_
20091112_RATP_SCD_1281	24	9	GPS	NULL	nc	NULL	I_GP	OBJ	7	idtext0024	GPS	#####	spk1	65.7	66.11	0.01	_
20091112_RATP_SCD_1281	24	10	dedans	NULL	adv	NULL	B_GADV	MOD	9	idtext0024	dedans	#####	spk1	66.12	66.44	0.01	_
20091112_RATP_SCD_1281	24	11	est-ce+qu'	NULL	pri	NULL	B_NULL	NOLINK	0	idtext0024	est-ce+qu'	#####	spk1	66.45	66.59	0.01	_
20091112_RATP_SCD_1281	24	12	on	NULL	cln	NULL	B_GN	SUJ	15	idtext0024	cln	#3##s##	spk1	66.6	66.66	0.01	_
20091112_RATP_SCD_1281	24	13	t'	NULL	clo	NULL	B_GN	OBJ	15	idtext0024	cln	#2##s##	spk1	66.67	66.74	0.01	_
20091112_RATP_SCD_1281	24	14	a	NULL	v	NULL	B_GVf	AUX	15	idtext0024	avoir	P#3##s##	spk1	66.75	66.78	0.01	_
20091112_RATP_SCD_1281	24	15	ramené	NULL	vppart	NULL	I_GVf	ROOT	0	idtext0024	ramener	K##m#s##	spk1	66.79	67.06	0.01	_
20091112_RATP_SCD_1281	24	16	ça	NULL	pro	NULL	B_GN	OBJ	15	idtext0024	ça	#####	spk1	67.07	67.41	?	//

20091112_RATP_SCD_1281	25	1	euh	DISF_M	pres	NULL	NULL	NOLINK	0	idtext0025	euh	#####	spk3	67.62	67.94	0.01	_
20091112_RATP_SCD_1281	25	2	pour	NULL	prep	NULL	B_GP	ROOT	0	idtext0025	pour	#####	spk3	67.95	68.2	0.01	_
20091112_RATP_SCD_1281	25	3	l'	NULL	det	NULL	I_GP	DET	4	idtext0025	le	###s##d	spk3	68.21	68.25	0.01	_
20091112_RATP_SCD_1281	25	4	instant	NULL	nc	NULL	I_GP	OBJ	2	idtext0025	instant	##m#s##	spk3	68.26	68.52	0.01	_
20091112_RATP_SCD_1281	25	5	attends	DISF_R	v	NULL	NULL	NOLINK	0	idtext0025	attendre	P#12##s##	spk3	68.53	68.75	0.01	_
20091112_RATP_SCD_1281	25	6	attends	NULL	v	NULL	B_GVf	NOLINK	0	idtext0025	attendre	P#12##s##	spk3	68.76	69.0	0.01	_
20091112_RATP_SCD_1281	25	7	bouge	NULL	v	NULL	B_GVfn	ROOT	0	idtext0025	bouger	PS#13##s##	spk3	69.01	69.21	0.01	_
20091112_RATP_SCD_1281	25	8	pas	NULL	advneg	NULL	I_GVfn	MOD	7	idtext0025	pas	#####	spk3	69.22	69.32	0.01	_
20091112_RATP_SCD_1281	25	9	je	NULL	cln	NULL	B_GN	SUJ	10	idtext0025	cln	#1##s##	spk3	69.33	69.46	0.01	_
20091112_RATP_SCD_1281	25	10	fais	NULL	v	NULL	B_GVf	ROOT	0	idtext0025	faire	P#12##s##	spk3	69.47	69.57	0.01	_
20091112_RATP_SCD_1281	25	11	une	NULL	det	NULL	B_GN	DET	12	idtext0025	un	##f#s##i	spk3	69.58	69.7	0.01	_
20091112_RATP_SCD_1281	25	12	annonce	NULL	nc	NULL	I_GN	OBJ	10	idtext0025	annonce	##f#s##	spk3	69.71	70.03	0.01	_
20091112_RATP_SCD_1281	25	13	à	NULL	prep	NULL	B_GP	P_OBJ_LOC	12	idtext0025	à	#####	spk3	70.04	70.1	0.01	_
20091112_RATP_SCD_1281	25	14	demande	NULL	nc	NULL	I_GP	OBJ	13	idtext0025	demande	##f#s##	spk3	70.11	70.37	0.01	_
20091112_RATP_SCD_1281	25	15	à	NULL	prep	NULL	B_NULL	MOD	14	idtext0025	à	#####	spk3	70.38	70.44	0.01	_
20091112_RATP_SCD_1281	25	16	mes	NULL	det	NULL	B_NULL	MOD	14	idtext0025	mon	###p##o	spk3	70.45	70.7	0.01	_
20091112_RATP_SCD_1281	25	17	aux	DISF_R	prep	NULL	NULL	NOLINK	0	idtext0025	aux	#####	spk3	70.71	70.91	0.01	_
20091112_RATP_SCD_1281	25	18	aux	NULL	prep	NULL	B_GP	MOD	14	idtext0025	aux	#####	spk3	70.92	71.02	0.01	_
20091112_RATP_SCD_1281	25	19	agents	NULL	nc	NULL	I_GP	OBJ	18	idtext0025	agent	###p##	spk3	71.03	71.25	?	//

20091112_RATP_SCD_1281	26	1	d'accord	NULL	adv	NULL	B_GADV	NOLINK	0	idtext0026	d'accord	#####	spk3	71.29	71.99	?	//

20091112_RATP_SCD_1281	27	1	merci	NULL	adv	NULL	B_GADV	NOLINK	0	idtext0027	merci	#####	spk1	71.29	71.99	?	//

20091112_RATP_SCD_1281	28	1	attends	NULL	v	NULL	B_GVf	NOLINK	0	idtext0028	attendre	P#12##s##	spk3	72.17	72.7	0.01	_
20091112_RATP_SCD_1281	28	2	euh	DISF_M	pres	NULL	NULL	NOLINK	0	idtext0028	euh	#####	spk3	72.71	73.11	?	//

20091112_RATP_SCD_1281	29	1	les	NULL	det	NULL	B_GN	DET	2	idtext0029	le	###p##d	spk3	76.81	77.35	0.01	_
20091112_RATP_SCD_1281	29	2	agents	NULL	nc	NULL	I_GN	ROOT	0	idtext0029	agent	###p##	spk3	77.36	77.58	0.01	_
20091112_RATP_SCD_1281	29	3	d'	NULL	prep	NULL	B_GP	DEP	2	idtext0029	d'	#####	spk3	77.59	77.62	0.01	_
20091112_RATP_SCD_1281	29	4	accueil	NULL	nc	NULL	I_GP	OBJ	3	idtext0029	accueil	##m#s##	spk3	77.63	77.78	0.01	_
20091112_RATP_SCD_1281	29	5	de	NULL	prep	NULL	B_GP	DEP	4	idtext0029	de	#####	spk3	77.79	77.81	0.01	_
20091112_RATP_SCD_1281	29	6	la	NULL	det	NULL	I_GP	DET	7	idtext0029	le	##m#s##d	spk3	77.82	77.87	0.01	_
20091112_RATP_SCD_1281	29	7	maison	NULL	nc	NULL	I_GP	OBJ	5	idtext0029	maison	##f#s##	spk3	77.88	78.21	0.01	_
20091112_RATP_SCD_1281	29	8	d'	NULL	prep	NULL	B_GP	DEP	7	idtext0029	d'	#####	spk3	78.22	78.25	0.01	_
20091112_RATP_SCD_1281	29	9	accueil	NULL	nc	NULL	I_GP	OBJ	8	idtext0029	accueil	##m#s##	spk3	78.26	78.55	0.01	_
20091112_RATP_SCD_1281	29	10	à	NULL	prep	NULL	B_GP	P_OBJ_LOC	9	idtext0029	à	#####	spk3	78.56	78.58	0.01	_
20091112_RATP_SCD_1281	29	11	Châtelet	NULL	nc	B_A	I_GP	OBJ	10	idtext0029	Châtelet	#####	spk3	78.59	78.77	0.01	_
20091112_RATP_SCD_1281	29	12	pour	NULL	prep	NULL	B_NULL	ROOT	0	idtext0029	pour	#####	spk3	78.78	78.88	0.01	_
20091112_RATP_SCD_1281	29	13	l'	NULL	det	NULL	B_NULL	OBJ	15	idtext0029	le	###s##d	spk3	78.89	78.91	0.01	_
20091112_RATP_SCD_1281	29	14	in()	DISF_T	tronc	NULL	NULL	NOLINK	0	idtext0029	in()	#####	spk3	78.92	79.01	0.01	_
20091112_RATP_SCD_1281	29	15	est-ce+que	NULL	pri	NULL	B_NULL	OBJ	12	idtext0029	est-ce+que	#####	spk3	79.02	79.68	0.01	_
20091112_RATP_SCD_1281	29	16	vous	NULL	cln	NULL	B_GN	SUJ	18	idtext0029	cln	#2##p##	spk3	79.69	79.8	0.01	_
20091112_RATP_SCD_1281	29	17	me	NULL	clo	NULL	B_GN	A_OBJ	18	idtext0029	cla	#1##s##	spk3	79.81	79.9	0.01	_
20091112_RATP_SCD_1281	29	18	recevez	NULL	v	NULL	B_GVf	ROOT	0	idtext0029	recevoir	P#2##p##	spk3	79.91	80.47	?	//

20091112_RATP_SCD_1281	30	1	j'	NULL	cln	NULL	B_GN	SUJ	2	idtext0030	cln	#1##s##	spk4	82.89	82.91	0.01	_
20091112_RATP_SCD_1281	30	2	écoute	NULL	v	NULL	B_GVf	ROOT	0	idtext0030	écouter	PS#13##s##	spk4	82.92	83.54	?	//

20091112_RATP_SCD_1281	31	1	oui	NULL	adv	NULL	B_GADV	MOD	2	idtext0031	oui	#####	spk3	84.94	85.14	0.01	_
20091112_RATP_SCD_1281	31	2	alors	NULL	adv	NULL	I_GADV	ROOT	0	idtext0031	alors	#####	spk3	85.15	85.45	0.01	_
20091112_RATP_SCD_1281	31	3	j'	NULL	cln	NULL	B_GN	SUJ	4	idtext0031	cln	#1##s##	spk3	85.46	85.49	0.01	_
20091112_RATP_SCD_1281	31	4	ai	NULL	v	NULL	B_GVf	ROOT	0	idtext0031	avoir	P#1##s##	spk3	85.5	85.52	0.01	_
20091112_RATP_SCD_1281	31	5	le	NULL	det	NULL	B_GN	DET	6	idtext0031	le	##m#s##d	spk3	85.53	85.84	0.01	_
20091112_RATP_SCD_1281	31	6	Service+Clients	NULL	np	B_ORG	I_GN	OBJ	4	idtext0031	Service+Clients	#####	spk3	85.85	86.5	0.01	_
20091112_RATP_SCD_1281	31	7	à	NULL	prep	I_ORG	I_GN	MOD	6	idtext0031	à	#####	spk3	86.51	86.59	0.01	_
20091112_RATP_SCD_1281	31	8	distance	NULL	nc	I_ORG	I_GN	OBJ	7	idtext0031	distance	##f#s##	spk3	86.6	87.07	0.01	//
20091112_RATP_SCD_1281	31	9	qui	NULL	prorel	NULL	B_NULL	SUJ	11	idtext0031	qui	#####	spk3	87.08	87.18	0.01	_
20091112_RATP_SCD_1281	31	10	me	NULL	clo	NULL	B_GN	A_OBJ	11	idtext0031	cla	#1##s##	spk3	87.19	87.29	0.01	_
20091112_RATP_SCD_1281	31	11	demande	NULL	v	NULL	B_GVf	MOD_REL	6	idtext0031	demander	PS#13##s##	spk3	87.3	87.98	0.01	_
20091112_RATP_SCD_1281	31	12	si	NULL	csu	NULL	B_NULL	OBJ	11	idtext0031	si	#####	spk3	87.99	88.25	0.01	_
20091112_RATP_SCD_1281	31	13	vous	NULL	cln	NULL	B_GN	SUJ	16	idtext0031	cln	#2##p##	spk3	88.26	88.39	0.01	_
20091112_RATP_SCD_1281	31	14	avez	NULL	v	NULL	B_GVf	AUX	16	idtext0031	avoir	P#2##p##	spk3	88.4	88.8	0.01	_
20091112_RATP_SCD_1281	31	15	euh	DISF_M	pres	NULL	NULL	NOLINK	0	idtext0031	euh	#####	spk3	88.81	89.18	0.01	_
20091112_RATP_SCD_1281	31	16	enregistré	NULL	vppart	NULL	I_GVf	OBJ	12	idtext0031	enregistrer	K##m#s##	spk3	89.19	89.96	0.01	_
20091112_RATP_SCD_1281	31	17	euh	DISF_M	pres	NULL	NULL	NOLINK	0	idtext0031	euh	#####	spk3	89.97	90.19	0.01	_
20091112_RATP_SCD_1281	31	18	un	NULL	det	NULL	B_GN	DET	19	idtext0031	un	##m#s##i	spk3	90.2	90.44	0.01	_
20091112_RATP_SCD_1281	31	19	sac	NULL	nc	NULL	I_GN	OBJ	16	idtext0031	sac	##m#s##	spk3	90.45	90.73	0.01	_
20091112_RATP_SCD_1281	31	20	euh	DISF_M	pres	NULL	NULL	NOLINK	0	idtext0031	euh	#####	spk3	90.74	90.85	0.01	_
20091112_RATP_SCD_1281	31	21	Darty	NULL	np	B_ORG	I_GN	MOD	19	idtext0031	Darty	#####	spk3	90.86	91.21	0.01	_
20091112_RATP_SCD_1281	31	22	avec	NULL	prep	NULL	B_GP	P_OBJ	19	idtext0031	avec	#####	spk3	91.22	91.48	0.01	_
20091112_RATP_SCD_1281	31	23	un	NULL	det	NULL	I_GP	DET	24	idtext0031	un	##m#s##i	spk3	91.49	91.55	0.01	_
20091112_RATP_SCD_1281	31	24	GPS	NULL	nc	NULL	I_GP	OBJ	22	idtext0031	GPS	#####	spk3	91.56	92.06	0.01	_
20091112_RATP_SCD_1281	31	25	dedans	NULL	adv	NULL	B_GADV	MOD	24	idtext0031	dedans	#####	spk3	92.07	92.75	0.01	/
20091112_RATP_SCD_1281	31	26	est-ce+qu'	NULL	pri	NULL	B_NULL	OBJ	4	idtext0031	est-ce+qu'	#####	spk3	92.76	92.91	0.01	_
20091112_RATP_SCD_1281	31	27	on	NULL	cln	NULL	B_GN	SUJ	28	idtext0031	cln	#3##s##	spk3	92.92	93.01	0.01	_
20091112_RATP_SCD_1281	31	28	a	NULL	v	NULL	B_GVf	OBJ	26	idtext0031	avoir	P#3##s##	spk3	93.02	93.11	0.01	_
20091112_RATP_SCD_1281	31	29	ça	NULL	pro	NULL	B_GN	OBJ	28	idtext0031	ça	#####	spk3	93.12	93.23	0.01	_
20091112_RATP_SCD_1281	31	30	comme	NULL	adv	NULL	B_GADV	COORD	28	idtext0031	comme	#####	spk3	93.24	93.42	0.01	_
20091112_RATP_SCD_1281	31	31	OT	NULL	nc	NULL	B_GN	OBJ	30	idtext0031	OT	#####	spk3	93.43	93.67	0.01	_
20091112_RATP_SCD_1281	31	32	ce	NULL	det	NULL	B_GN	DET	33	idtext0031	ce	##m#s##e	spk3	93.68	93.77	0.01	_
20091112_RATP_SCD_1281	31	33	soir	NULL	nc	NULL	I_GN	MOD	31	idtext0031	soir	##m#s##	spk3	93.78	94.16	?	//

20091112_RATP_SCD_1281	32	1	négatif	NULL	adj	NULL	B_GADJ	NOLINK	0	idtext0032	négatif	##m#s##	spk4	96.05	96.93	?	_

20091112_RATP_SCD_1281	33	1	voilà	DISF_M	pres	NULL	NULL	NOLINK	0	idtext0033	voilà	#####	spk1	97.74	98.12	?	//

20091112_RATP_SCD_1281	34	1	je	NULL	cln	NULL	B_GN	SUJ	5	idtext0034	cln	#1##s##	spk3	98.76	99.03	0.01	_
20091112_RATP_SCD_1281	34	2	t'	NULL	clo	NULL	B_GN	OBJ	5	idtext0034	cln	#2##s##	spk3	99.04	99.07	0.01	_
20091112_RATP_SCD_1281	34	3	ai	NULL	v	NULL	B_GVf	AUX	5	idtext0034	avoir	P#1##s##	spk3	99.08	99.14	0.01	_
20091112_RATP_SCD_1281	34	4	bien	NULL	adv	NULL	I_GVf	MOD	5	idtext0034	bien	#####	spk3	99.15	99.26	0.01	_
20091112_RATP_SCD_1281	34	5	reçu	NULL	vppart	NULL	I_GVf	ROOT	0	idtext0034	recevoir	K##m#s##	spk3	99.27	99.54	0.01	_
20091112_RATP_SCD_1281	34	6	je	NULL	cln	NULL	B_GN	SUJ	8	idtext0034	cln	#1##s##	spk3	99.55	99.67	0.01	_
20091112_RATP_SCD_1281	34	7	te	NULL	clo	NULL	B_GN	OBJ	8	idtext0034	cla	#2##s##	spk3	99.68	99.78	0.01	_
20091112_RATP_SCD_1281	34	8	remercie	NULL	v	NULL	B_GVf	ROOT	0	idtext0034	remercier	PS#13##s##	spk3	99.79	100.43	?	//

20091112_RATP_SCD_1281	35	1	allo	NULL	adv	NULL	B_GADV	NOLINK	0	idtext0035	allo	#####	spk3	100.98	101.51	?	//

20091112_RATP_SCD_1281	36	1	oui	NULL	adv	NULL	B_GADV	NOLINK	0	idtext0036	oui	#####	spk1	101.55	101.79	0.01	_
20091112_RATP_SCD_1281	36	2	c'	NULL	cln	NULL	B_GN	SUJ_IMP	3	idtext0036	ce	###s##	spk1	101.8	101.85	0.01	_
20091112_RATP_SCD_1281	36	3	est	NULL	v	NULL	B_GVf	ROOT	0	idtext0036	être	P#3##s##	spk1	101.86	101.93	?	//

20091112_RATP_SCD_1281	37	1	négatif	NULL	adj	NULL	B_GADJ	NOLINK	0	idtext0037	négatif	##m#s##	spk1	102.34	103.27	?	_

20091112_RATP_SCD_1281	38	1	négatif	NULL	adj	NULL	B_GADJ	NOLINK	0	idtext0038	négatif	##m#s##	spk3	102.34	102.97	0.01	//
20091112_RATP_SCD_1281	38	2	hein	DISF_M	pres	NULL	NULL	NOLINK	0	idtext0038	hein	#####	spk3	102.98	103.27	?	//

20091112_RATP_SCD_1281	39	1	merci	NULL	adv	NULL	B_GN	NOLINK	0	idtext0039	merci	#####	spk1	103.31	103.91	0.01	/
20091112_RATP_SCD_1281	39	2	bonne	NULL	adj	NULL	I_GN	MOD	3	idtext0040	bon	##f#s##	spk1	103.92	104.19	0.01	_
20091112_RATP_SCD_1281	39	3	soirée	NULL	nc	NULL	I_GN	ROOT	0	idtext0040	soirée	##f#s##	spk1	104.2	104.47	?	//

20091112_RATP_SCD_1281	40	1	au+revoir	NULL	adv	NULL	B_GADV	NOLINK	0	idtext0041	au+revoir	#####	spk1	104.51	105.04	?	//

20091112_RATP_SCD_1281	41	1	merci	NULL	adv	NULL	B_GADV	NOLINK	0	idtext0042	merci	#####	spk3	104.56	104.96	0.01	_
20091112_RATP_SCD_1281	41	2	à	NULL	prep	NULL	B_NULL	NOLINK	0	idtext0042	à	#####	spk3	104.97	105.04	?	_

20091112_RATP_SCD_1281	42	1	toi	NULL	pro	NULL	B_GN	NOLINK	0	idtext0043	toi	#####	spk3	105.12	105.29	0.01	_
20091112_RATP_SCD_1281	42	2	aussi	NULL	adv	NULL	B_GADV	MOD	3	idtext0043	aussi	#####	spk3	105.3	105.41	0.01	_
20091112_RATP_SCD_1281	42	3	au+revoir	NULL	adv	NULL	I_GADV	ROOT	0	idtext0043	au+revoir	#####	spk3	105.42	105.91	?	_

20091112_RATP_SCD_1281	43	1	s'il+vous+plaît	NULL	adv	NULL	B_GADV	NOLINK	0	idtext0044	s'il+vous+plaît	#####	spk1	106.23	106.87	?	//

20091112_RATP_SCD_1281	44	1	oui	NULL	adv	NULL	B_GADV	NOLINK	0	idtext0045	oui	#####	spk2	107.1	107.42	?	//

20091112_RATP_SCD_1281	45	1	non	NULL	adv	NULL	B_GADV	NOLINK	0	idtext0046	non	#####	spk1	107.46	107.56	0.01	_
20091112_RATP_SCD_1281	45	2	il	NULL	cln	NULL	B_GN	SUJ_IMP	4	idtext0046	cln	#3#m#s##	spk1	107.57	107.62	0.01	_
20091112_RATP_SCD_1281	45	3	y	NULL	clo	NULL	B_GN	AFF	4	idtext0046	y	#####	spk1	107.63	107.65	0.01	_
20091112_RATP_SCD_1281	45	4	a	NULL	v	NULL	B_GVf	ROOT	0	idtext0046	avoir	P#3##s##	spk1	107.66	107.7	0.01	_
20091112_RATP_SCD_1281	45	5	rien	NULL	pro	NULL	I_GP	OBJ	4	idtext0046	rien	#####	spk1	107.71	108.15	0.01	_
20091112_RATP_SCD_1281	45	6	qui	NULL	prorel	NULL	B_NULL	SUJ	9	idtext0046	qui	#####	spk1	108.16	108.25	0.01	_
20091112_RATP_SCD_1281	45	7	a	NULL	v	NULL	B_GVf	AUX	8	idtext0046	avoir	P#3##s##	spk1	108.26	108.28	0.01	_
20091112_RATP_SCD_1281	45	8	été	NULL	vppart	NULL	I_GVf	AUX	9	idtext0046	être	K#####	spk1	108.29	108.43	0.01	_
20091112_RATP_SCD_1281	45	9	enregistré	NULL	vppart	NULL	I_GVf	MOD_REL	5	idtext0046	enregistrer	K##m#s##	spk1	108.44	108.98	0.01	//
20091112_RATP_SCD_1281	45	10	hein	DISF_M	pres	NULL	NULL	NOLINK	0	idtext0046	hein	#####	spk1	108.99	109.13	?	//

20091112_RATP_SCD_1281	46	1	d'accord	NULL	adv	NULL	B_GADV	NOLINK	0	idtext0047	d'accord	#####	spk2	109.73	110.2	?	//

20091112_RATP_SCD_1281	47	1	merci	NULL	adv	NULL	B_GADV	NOLINK	0	idtext0048	merci	#####	spk2	110.24	110.56	0.01	_
20091112_RATP_SCD_1281	47	2	d'	NULL	prep	NULL	B_GP	ROOT	0	idtext0048	d'	#####	spk2	110.57	110.63	0.01	_
20091112_RATP_SCD_1281	47	3	avoir	NULL	vinf	NULL	I_GP	OBJ	2	idtext0048	avoir	W#####	spk2	110.64	111.06	?	_

20091112_RATP_SCD_1281	48	1	mais	NULL	coo	NULL	B_NULL	ROOT	0	idtext0049	mais	#####	spk1	110.24	110.52	0.01	_
20091112_RATP_SCD_1281	48	2	essayez	NULL	v	NULL	B_GVf	DEP_COORD	1	idtext0049	essayer	P#2##p##	spk1	110.53	111.06	?	_

20091112_RATP_SCD_1281	49	1	de	NULL	prep	NULL	B_GP	ROOT	0	idtext0050	de	#####	spk1	111.1	111.12	0.01	_
20091112_RATP_SCD_1281	49	2	nous	NULL	clo	NULL	I_GP	OBJ	3	idtext0050	cln	#1##p##	spk1	111.13	111.19	0.01	_
20091112_RATP_SCD_1281	49	3	rappeler	NULL	vinf	NULL	B_GVi	OBJ	1	idtext0050	rappeler	W#####	spk1	111.2	111.46	0.01	_
20091112_RATP_SCD_1281	49	4	demain	NULL	adv	NULL	B_GADV	MOD	3	idtext0050	demain	#####	spk1	111.47	111.68	0.01	_
20091112_RATP_SCD_1281	49	5	matin	NULL	nc	NULL	B_GN	ROOT	0	idtext0050	matin	##m#s##	spk1	111.69	111.92	0.01	_
20091112_RATP_SCD_1281	49	6	à+partir+de	NULL	prep	NULL	B_GP	MOD	5	idtext0050	à+partir+de	#####	spk1	111.93	112.33	0.01	_
20091112_RATP_SCD_1281	49	7	dix	NULL	det	B_H	I_GP	DET	8	idtext0050	dix	#####	spk1	112.34	112.55	0.01	_
20091112_RATP_SCD_1281	49	8	heures	NULL	nc	I_H	I_GP	OBJ	6	idtext0050	heure	##f#p##	spk1	112.56	112.75	?	//

20091112_RATP_SCD_1281	50	1	demain	NULL	adv	NULL	B_GADV	NOLINK	0	idtext0051	demain	#####	spk2	113.32	113.52	0.01	_
20091112_RATP_SCD_1281	50	2	matin	NULL	nc	NULL	B_GN	ROOT	0	idtext0051	matin	##m#s##	spk2	113.53	113.69	0.01	_
20091112_RATP_SCD_1281	50	3	à+partir+de	NULL	prep	NULL	B_GP	MOD	2	idtext0051	à+partir+de	#####	spk2	113.7	113.96	0.01	_
20091112_RATP_SCD_1281	50	4	dix	NULL	det	B_H	I_GP	DET	5	idtext0051	dix	#####	spk2	113.97	114.11	0.01	_
20091112_RATP_SCD_1281	50	5	heures	NULL	nc	I_H	I_GP	OBJ	3	idtext0051	heure	##f#p##	spk2	114.12	114.27	?	//

20091112_RATP_SCD_1281	51	1	tout+à+fait	NULL	adv	NULL	B_GADV	NOLINK	0	idtext0052	tout+à+fait	#####	spk1	114.35	114.97	?	//

20091112_RATP_SCD_1281	52	1	merci+bien	NULL	adv	NULL	B_GN	NOLINK	0	idtext0053	merci+bien	#####	spk2	115.13	115.79	0.01	_
20091112_RATP_SCD_1281	52	2	bonne	NULL	adj	NULL	I_GN	MOD	3	idtext0053	bon	##f#s##	spk2	115.8	116.11	0.01	_
20091112_RATP_SCD_1281	52	3	soirée	NULL	nc	NULL	I_GN	ROOT	0	idtext0053	soirée	##f#s##	spk2	116.12	116.32	0.01	_
20091112_RATP_SCD_1281	52	4	au+revoir	NULL	adv	NULL	B_GADV	NOLINK	0	idtext0053	au+revoir	#####	spk2	116.33	116.62	?	//

20091112_RATP_SCD_1281	53	1	je	NULL	cln	NULL	B_GN	SUJ	4	idtext0054	cln	#1##s##	spk1	116.66	116.68	0.01	_
20091112_RATP_SCD_1281	53	2	vous	NULL	clo	NULL	B_GN	OBJ	4	idtext0054	cln	#2##p##	spk1	116.69	116.78	0.01	_
20091112_RATP_SCD_1281	53	3	en	NULL	clo	NULL	B_GN	DE_OBJ	4	idtext0054	en	#####	spk1	116.79	116.87	0.01	_
20091112_RATP_SCD_1281	53	4	prie	NULL	v	NULL	B_GVf	ROOT	0	idtext0054	prier	PS#13##s##	spk1	116.88	117.06	0.01	_
20091112_RATP_SCD_1281	53	5	au+revoir	NULL	adv	NULL	B_GADV	NOLINK	0	idtext0054	au+revoir	#####	spk1	117.07	117.53	?	//

