20091112_RATP_SCD_1289	1	1	NNAAMMEE	NULL	np	B_HU	B_GN	ROOT	0	idtext0000	ANONYM	NULL	spk1	7.11	7.32	0.04	_
20091112_RATP_SCD_1289	1	2	bonsoir	NULL	nc	NULL	B_GN	NOLINK	0	idtext0001	bonsoir	##m#s##	spk1	7.36	7.85	?	//

20091112_RATP_SCD_1289	2	1	oui	NULL	adv	NULL	B_GADV	NOLINK	0	idtext0002	oui	#####	spk2	8.31	8.51	0.01	_
20091112_RATP_SCD_1289	2	2	bonsoir	NULL	nc	NULL	B_GN	ROOT	0	idtext0002	bonsoir	##m#s##	spk2	8.52	8.77	0.01	_
20091112_RATP_SCD_1289	2	3	monsieur	NULL	nc	NULL	I_GN	MOD	2	idtext0002	Monsieur	##m#s##	spk2	8.78	9.09	?	//

20091112_RATP_SCD_1289	3	1	euh	DISF_M	pres	NULL	NULL	NOLINK	0	idtext0003	euh	#####	spk2	9.24	9.33	0.01	_
20091112_RATP_SCD_1289	3	2	je	NULL	cln	NULL	B_GN	SUJ	3	idtext0003	cln	#1##s##	spk2	9.34	9.58	0.01	_
20091112_RATP_SCD_1289	3	3	viens	NULL	v	NULL	B_GVf	ROOT	0	idtext0003	venir	P#12##s##	spk2	9.59	9.79	0.01	_
20091112_RATP_SCD_1289	3	4	de	NULL	prep	NULL	B_GP	DE_OBJ	3	idtext0003	de	#####	spk2	9.8	9.83	0.01	_
20091112_RATP_SCD_1289	3	5	prendre	NULL	vinf	NULL	I_GP	OBJ	4	idtext0003	prendre	W#####	spk2	9.84	10.06	0.01	_
20091112_RATP_SCD_1289	3	6	le	NULL	det	NULL	B_GN	DET	7	idtext0003	le	##m#s##d	spk2	10.07	10.18	0.01	_
20091112_RATP_SCD_1289	3	7	RER	NULL	nc	B_T	I_GN	OBJ	5	idtext0003	RER	#####	spk2	10.19	10.55	0.01	_
20091112_RATP_SCD_1289	3	8	à	NULL	prep	NULL	B_GP	MOD	7	idtext0003	à	#####	spk2	10.56	10.58	0.01	_
20091112_RATP_SCD_1289	3	9	Antony	NULL	nc	B_A	I_GP	OBJ	8	idtext0003	Antony	##m#s##	spk2	10.59	10.94	0.01	_
20091112_RATP_SCD_1289	3	10	et	NULL	coo	NULL	B_NULL	COORD	3	idtext0003	et	#####	spk2	10.95	10.97	0.01	_
20091112_RATP_SCD_1289	3	11	j'	NULL	cln	NULL	B_GN	SUJ	13	idtext0003	cln	#1##s##	spk2	10.98	11.05	0.01	_
20091112_RATP_SCD_1289	3	12	ai	NULL	v	NULL	B_GVf	AUX	13	idtext0003	avoir	P#1##s##	spk2	11.06	11.08	0.01	_
20091112_RATP_SCD_1289	3	13	laissé	NULL	vppart	NULL	I_GVf	DEP_COORD	10	idtext0003	laisser	K##m#s##	spk2	11.09	11.33	0.01	_
20091112_RATP_SCD_1289	3	14	un	NULL	det	NULL	B_GN	DET	15	idtext0003	un	##m#s##i	spk2	11.34	11.39	0.01	_
20091112_RATP_SCD_1289	3	15	paquet	NULL	nc	NULL	I_GN	OBJ	13	idtext0003	paquet	##m#s##	spk2	11.4	11.74	0.01	_
20091112_RATP_SCD_1289	3	16	dans	NULL	prep	NULL	B_NULL	MOD	13	idtext0003	dans	#####	spk2	11.75	11.85	0.01	_
20091112_RATP_SCD_1289	3	17	la	NULL	det	NULL	B_NULL	MOD	13	idtext0003	le	##m#s##d	spk2	11.86	11.97	0.01	_
20091112_RATP_SCD_1289	3	18	enfin	NULL	adv	NULL	B_GADV	NOLINK	0	idtext0003	enfin	#####	spk2	11.98	12.4	0.01	_
20091112_RATP_SCD_1289	3	19	bon	DISF_M	pres	NULL	NULL	NOLINK	0	idtext0003	bon	#####	spk2	12.41	12.66	0.01	_
20091112_RATP_SCD_1289	3	20	un	NULL	det	NULL	B_GN	DET	21	idtext0003	un	##m#s##i	spk2	12.67	12.69	0.01	_
20091112_RATP_SCD_1289	3	21	paquet	NULL	nc	NULL	I_GN	OBJ	13	idtext0003	paquet	##m#s##	spk2	12.7	12.84	0.01	_
20091112_RATP_SCD_1289	3	22	pas	NULL	advneg	NULL	B_NULL	NOLINK	0	idtext0003	pas	#####	spk2	12.85	13.0	0.01	_
20091112_RATP_SCD_1289	3	23	très	NULL	adv	NULL	B_GADJ	MOD	24	idtext0003	très	#####	spk2	13.01	13.11	0.01	_
20091112_RATP_SCD_1289	3	24	grave	NULL	adj	NULL	I_GADJ	MOD	21	idtext0003	grave	###s##	spk2	13.12	13.3	0.01	_
20091112_RATP_SCD_1289	3	25	mais	NULL	coo	NULL	B_NULL	COORD	24	idtext0003	mais	#####	spk2	13.31	13.44	0.01	_
20091112_RATP_SCD_1289	3	26	un	NULL	det	NULL	B_GN	DET	27	idtext0003	un	##m#s##i	spk2	13.45	13.5	0.01	_
20091112_RATP_SCD_1289	3	27	paquet	NULL	nc	NULL	I_GN	DEP_COORD	25	idtext0003	paquet	##m#s##	spk2	13.51	13.74	0.01	_
20091112_RATP_SCD_1289	3	28	rouge	NULL	adj	NULL	I_GN	MOD	27	idtext0003	rouge	###s##	spk2	13.75	14.03	0.01	_
20091112_RATP_SCD_1289	3	29	dans	NULL	prep	NULL	B_GP	MOD	27	idtext0003	dans	#####	spk2	14.04	14.22	0.01	_
20091112_RATP_SCD_1289	3	30	le	NULL	det	NULL	I_GP	DET	31	idtext0003	le	##m#s##d	spk2	14.23	14.25	0.01	_
20091112_RATP_SCD_1289	3	31	métro	NULL	nc	NULL	I_GP	OBJ	29	idtext0003	métro	##m#s##	spk2	14.26	14.77	?	//

20091112_RATP_SCD_1289	4	1	sur	NULL	prep	NULL	B_GP	ROOT	0	idtext0004	sur	#####	spk1	15.0	15.31	0.01	_
20091112_RATP_SCD_1289	4	2	quelle	NULL	det	NULL	I_GP	DET	3	idtext0004	quel	##f#s##	spk1	15.32	15.48	0.01	_
20091112_RATP_SCD_1289	4	3	ligne	NULL	nc	NULL	I_GP	OBJ	1	idtext0004	ligne	##f#s##	spk1	15.49	15.63	0.01	_
20091112_RATP_SCD_1289	4	4	de	NULL	prep	NULL	B_GP	DEP	3	idtext0004	de	#####	spk1	15.64	15.69	0.01	_
20091112_RATP_SCD_1289	4	5	métro	NULL	nc	NULL	I_GP	OBJ	4	idtext0004	métro	##m#s##	spk1	15.7	16.2	?	//

20091112_RATP_SCD_1289	5	1	sur	NULL	prep	NULL	B_GP	MOD	6	idtext0005	sur	#####	spk2	16.49	16.73	0.01	_
20091112_RATP_SCD_1289	5	2	la	NULL	det	NULL	I_GP	DET	3	idtext0005	le	##m#s##d	spk2	16.74	16.8	0.01	_
20091112_RATP_SCD_1289	5	3	ligne	NULL	nc	NULL	I_GP	OBJ	1	idtext0005	ligne	##f#s##	spk2	16.81	17.08	0.01	/
20091112_RATP_SCD_1289	5	4	donc	NULL	coo	NULL	B_NULL	COORD	3	idtext0005	donc	#####	spk2	17.09	17.31	0.01	_
20091112_RATP_SCD_1289	5	5	qui	NULL	prorel	NULL	B_NULL	DEP_COORD	4	idtext0005	qui	#####	spk2	17.32	17.42	0.01	_
20091112_RATP_SCD_1289	5	6	va	NULL	v	NULL	B_GVf	ROOT	0	idtext0005	aller	P#3##s##	spk2	17.43	17.6	0.01	_
20091112_RATP_SCD_1289	5	7	vers	NULL	prep	NULL	B_GP	P_OBJ_LOC	6	idtext0005	vers	#####	spk2	17.61	17.86	0.01	_
20091112_RATP_SCD_1289	5	8	euh	DISF_M	pres	NULL	NULL	NOLINK	0	idtext0005	euh	#####	spk2	17.87	17.9	0.01	_
20091112_RATP_SCD_1289	5	9	Massy-Palaiseau	NULL	nc	B_A	I_GP	OBJ	7	idtext0005	Massy-Palaiseau	#####	spk2	17.91	18.64	0.01	_
20091112_RATP_SCD_1289	5	10	de	DISF_R	prep	I_A	NULL	NOLINK	0	idtext0005	de	#####	spk2	18.65	18.86	0.01	_
20091112_RATP_SCD_1289	5	11	depuis	NULL	prep	NULL	B_GP	P_OBJ	6	idtext0005	depuis	#####	spk2	18.87	19.18	0.01	_
20091112_RATP_SCD_1289	5	12	Denfert	NULL	nc	B_A	I_GP	OBJ	11	idtext0006	Denfert	#####	spk2	19.19	19.56	0.01	_
20091112_RATP_SCD_1289	5	13	là	NULL	adv	NULL	B_GADV	NOLINK	0	idtext0006	là	#####	spk2	19.57	19.73	?	//

20091112_RATP_SCD_1289	6	1	ah	DISF_M	pres	NULL	NULL	NOLINK	0	idtext0007	ah	#####	spk1	19.82	19.92	0.01	_
20091112_RATP_SCD_1289	6	2	le	NULL	det	NULL	B_GN	DET	3	idtext0007	le	##m#s##d	spk1	19.93	19.99	0.01	_
20091112_RATP_SCD_1289	6	3	RER	NULL	nc	B_T	I_GN	ROOT	0	idtext0007	RER	#####	spk1	20.0	20.57	?	//

20091112_RATP_SCD_1289	7	1	le	NULL	det	NULL	B_GN	DET	2	idtext0008	le	##m#s##d	spk2	20.75	20.87	0.01	_
20091112_RATP_SCD_1289	7	2	RER	NULL	nc	B_T	I_GN	ROOT	0	idtext0008	RER	#####	spk2	20.88	21.13	?	//

20091112_RATP_SCD_1289	8	1	pardon	DISF_M	pres	NULL	NULL	NOLINK	0	idtext0009	pardon	#####	spk2	21.17	21.63	?	//

20091112_RATP_SCD_1289	9	1	d'accord	NULL	adv	NULL	B_GADV	NOLINK	0	idtext0010	d'accord	#####	spk1	21.22	21.63	?	//

20091112_RATP_SCD_1289	10	1	hum	DISF_M	pres	NULL	NULL	NOLINK	0	idtext0011	hum	#####	spk1	22.21	23.41	0.01	_
20091112_RATP_SCD_1289	10	2	alors	NULL	adv	NULL	B_GADV	NOLINK	0	idtext0012	alors	#####	spk1	23.42	23.72	0.01	_
20091112_RATP_SCD_1289	10	3	c'	NULL	cln	NULL	B_GN	SUJ_IMP	4	idtext0012	ce	###s##	spk1	23.73	23.85	0.01	_
20091112_RATP_SCD_1289	10	4	est	NULL	v	NULL	B_GVf	ROOT	0	idtext0012	être	P#3##s##	spk1	23.86	23.9	0.01	_
20091112_RATP_SCD_1289	10	5	un	DISF_R	det	NULL	NULL	NOLINK	0	idtext0012	un	##m#s##i	spk1	23.91	24.58	0.01	_
20091112_RATP_SCD_1289	10	6	un	NULL	det	NULL	B_GN	DET	7	idtext0012	un	##m#s##i	spk1	24.59	24.69	0.01	_
20091112_RATP_SCD_1289	10	7	paquet	NULL	nc	NULL	I_GN	ATS	4	idtext0012	paquet	##m#s##	spk1	24.7	25.17	0.01	_
20091112_RATP_SCD_1289	10	8	comment	NULL	adv	NULL	B_GADV	MOD	7	idtext0012	comment	#####	spk1	25.18	25.46	?	//

20091112_RATP_SCD_1289	11	1	rouge	NULL	adj	NULL	B_GADJ	NOLINK	0	idtext0013	rouge	###s##	spk1	25.67	26.42	0.01	/
20091112_RATP_SCD_1289	11	2	mais	NULL	coo	NULL	B_NULL	NOLINK	0	idtext0013	mais	#####	spk1	26.43	26.59	0.01	_
20091112_RATP_SCD_1289	11	3	euh	DISF_M	pres	NULL	NULL	NOLINK	0	idtext0013	euh	#####	spk1	26.6	26.76	?	_

20091112_RATP_SCD_1289	12	1	alors	NULL	adv	NULL	B_GADV	NOLINK	0	idtext0014	alors	#####	spk2	25.59	25.93	0.01	_
20091112_RATP_SCD_1289	12	2	c'	NULL	cln	NULL	B_GN	SUJ_IMP	3	idtext0014	ce	###s##	spk2	25.94	25.96	0.01	_
20091112_RATP_SCD_1289	12	3	est	NULL	v	NULL	B_GVf	ROOT	0	idtext0014	être	P#3##s##	spk2	25.97	26.58	0.01	_
20091112_RATP_SCD_1289	12	4	u()	DISF_T	tronc	NULL	NULL	NOLINK	0	idtext0014	u()	#####	spk2	26.59	26.76	?	_

20091112_RATP_SCD_1289	13	1	c'	NULL	cln	NULL	B_GN	SUJ_IMP	2	idtext0015	ce	###s##	spk2	26.89	26.91	0.01	_
20091112_RATP_SCD_1289	13	2	est	NULL	v	NULL	B_GVf	ROOT	0	idtext0015	être	P#3##s##	spk2	26.92	26.94	0.01	_
20091112_RATP_SCD_1289	13	3	un	NULL	det	NULL	B_GN	DET	4	idtext0015	un	##m#s##i	spk2	26.95	27.06	0.01	_
20091112_RATP_SCD_1289	13	4	sac	NULL	nc	NULL	I_GN	ATS	2	idtext0015	sac	##m#s##	spk2	27.07	27.34	0.01	_
20091112_RATP_SCD_1289	13	5	euh	DISF_M	pres	NULL	NULL	NOLINK	0	idtext0015	euh	#####	spk2	27.35	27.44	0.01	_
20091112_RATP_SCD_1289	13	6	qui	NULL	prorel	NULL	B_NULL	SUJ	7	idtext0015	qui	#####	spk2	27.45	27.59	0.01	_
20091112_RATP_SCD_1289	13	7	vient	NULL	v	NULL	B_GVf	MOD_REL	4	idtext0015	venir	P#3##s##	spk2	27.6	27.88	0.01	_
20091112_RATP_SCD_1289	13	8	de	NULL	prep	NULL	B_NULL	P_OBJ_LOC	7	idtext0015	de	#####	spk2	27.89	28.22	0.01	_
20091112_RATP_SCD_1289	13	9	qui	NULL	pri	NULL	B_NULL	OBJ	8	idtext0015	qui	#####	spk2	28.23	28.44	0.01	_
20091112_RATP_SCD_1289	13	10	sur+lequel	NULL	prorel	NULL	B_NULL	OBJ	13	idtext0015	sur+lequel	#####	spk2	28.45	28.73	0.01	_
20091112_RATP_SCD_1289	13	11	il	NULL	cln	NULL	B_GN	SUJ	13	idtext0015	cln	#3#m#s##	spk2	28.74	28.79	0.01	_
20091112_RATP_SCD_1289	13	12	est	NULL	v	NULL	B_GVf	AUX	13	idtext0015	être	P#3##s##	spk2	28.8	28.82	0.01	_
20091112_RATP_SCD_1289	13	13	marqué	NULL	vppart	NULL	I_GVf	ROOT	0	idtext0015	marquer	K##m#s##	spk2	28.83	29.12	0.01	_
20091112_RATP_SCD_1289	13	14	soixante	NULL	nc	NULL	B_GN	OBJ	13	idtext0015	soixante	##m###	spk2	29.13	29.51	0.01	_
20091112_RATP_SCD_1289	13	15	six	NULL	nc	NULL	I_GN	MOD	14	idtext0015	six	##m###	spk2	29.52	29.62	0.01	_
20091112_RATP_SCD_1289	13	16	degrés	NULL	nc	NULL	B_GN	P_OBJ_LOC	13	idtext0015	degré	##m#p##	spk2	29.63	29.9	0.01	_
20091112_RATP_SCD_1289	13	17	Nord	NULL	np	B_L	I_GN	MOD	16	idtext0015	Nord	##m#s##	spk2	29.91	31.13	0.14	//
20091112_RATP_SCD_1289	13	18	euh	DISF_M	pres	NULL	NULL	NOLINK	0	idtext0016	euh	#####	spk2	31.27	31.34	0.01	_
20091112_RATP_SCD_1289	13	19	c'	NULL	cln	NULL	B_GN	SUJ_IMP	20	idtext0016	ce	###s##	spk2	31.35	31.4	0.01	_
20091112_RATP_SCD_1289	13	20	est	NULL	v	NULL	B_GVf	ROOT	0	idtext0016	être	P#3##s##	spk2	31.41	31.45	0.01	_
20091112_RATP_SCD_1289	13	21	un	NULL	det	NULL	B_GN	DET	22	idtext0016	un	##m#s##i	spk2	31.46	31.73	0.01	_
20091112_RATP_SCD_1289	13	22	sac	NULL	nc	NULL	I_GN	ATS	20	idtext0016	sac	##m#s##	spk2	31.74	31.93	0.01	_
20091112_RATP_SCD_1289	13	23	rouge	NULL	adj	NULL	I_GN	MOD	22	idtext0016	rouge	###s##	spk2	31.94	32.24	0.01	_
20091112_RATP_SCD_1289	13	24	avec	NULL	prep	NULL	B_GP	MOD	22	idtext0016	avec	#####	spk2	32.25	32.41	0.01	_
20091112_RATP_SCD_1289	13	25	une	NULL	det	NULL	I_GP	DET	26	idtext0016	un	##f#s##i	spk2	32.42	32.56	0.01	_
20091112_RATP_SCD_1289	13	26	lanière	NULL	nc	NULL	I_GP	OBJ	24	idtext0016	lanière	##f#s##	spk2	32.57	33.06	?	//

20091112_RATP_SCD_1289	14	1	en	DISF_R	prep	NULL	NULL	NOLINK	0	idtext0017	en	#####	spk1	34.06	34.31	0.01	_
20091112_RATP_SCD_1289	14	2	ti()	DISF_T	tronc	NULL	NULL	NOLINK	0	idtext0017	ti()	#####	spk1	34.32	34.46	0.01	_
20091112_RATP_SCD_1289	14	3	en	NULL	prep	NULL	B_GP	ROOT	0	idtext0017	en	#####	spk1	34.47	34.57	0.01	_
20091112_RATP_SCD_1289	14	4	tissu	NULL	nc	NULL	I_GP	OBJ	3	idtext0017	tissu	##m#s##	spk1	34.58	34.92	0.01	_
20091112_RATP_SCD_1289	14	5	en	NULL	prep	NULL	B_GP	ROOT	0	idtext0017	en	#####	spk1	34.93	34.98	0.01	_
20091112_RATP_SCD_1289	14	6	plastique	NULL	nc	NULL	I_GP	OBJ	5	idtext0017	plastique	###s##	spk1	34.99	35.5	?	//

20091112_RATP_SCD_1289	15	1	tissu	NULL	nc	NULL	B_GN	ROOT	0	idtext0018	tissu	##m#s##	spk2	36.28	36.54	0.01	_
20091112_RATP_SCD_1289	15	2	plastique	NULL	adj	NULL	I_GN	MOD	1	idtext0018	plastique	###s##	spk2	36.55	36.88	?	//

20091112_RATP_SCD_1289	16	1	oui	NULL	adv	NULL	B_GADV	NOLINK	0	idtext0019	oui	#####	spk2	36.97	37.59	?	//

20091112_RATP_SCD_1289	17	1	d'accord	NULL	adv	NULL	B_GADV	NOLINK	0	idtext0020	d'accord	#####	spk1	36.92	37.59	?	//

20091112_RATP_SCD_1289	18	1	il	NULL	cln	NULL	B_GN	SUJ_IMP	3	idtext0021	cln	#3#m#s##	spk1	37.63	37.68	0.01	_
20091112_RATP_SCD_1289	18	2	y	NULL	clo	NULL	B_GN	AFF	3	idtext0021	y	#####	spk1	37.69	37.71	0.01	_
20091112_RATP_SCD_1289	18	3	avait	NULL	v	NULL	B_GVf	ROOT	0	idtext0021	avoir	I#3##s##	spk1	37.72	37.81	0.01	_
20091112_RATP_SCD_1289	18	4	quoi	NULL	pri	NULL	B_NULL	OBJ	3	idtext0021	quoi	#####	spk1	37.82	38.0	0.01	_
20091112_RATP_SCD_1289	18	5	dedans	NULL	adv	NULL	B_GADV	MOD	6	idtext0021	dedans	#####	spk1	38.01	38.26	0.01	_
20091112_RATP_SCD_1289	18	6	s'il+vous+plaît	NULL	adv	NULL	I_GADV	MOD	3	idtext0021	s'il+vous+plaît	#####	spk1	38.27	38.53	0.01	_
20091112_RATP_SCD_1289	18	7	monsieur	NULL	nc	NULL	B_GN	NOLINK	0	idtext0021	Monsieur	##m#s##	spk1	38.54	39.03	?	//

20091112_RATP_SCD_1289	19	1	euh	DISF_M	pres	NULL	NULL	NOLINK	0	idtext0022	euh	#####	spk2	39.26	39.43	0.01	_
20091112_RATP_SCD_1289	19	2	que	NULL	csu	NULL	B_NULL	NOLINK	0	idtext0022	que	#####	spk2	39.44	39.54	0.01	_
20091112_RATP_SCD_1289	19	3	des	NULL	det	NULL	B_GN	DET	4	idtext0022	des	###p##i	spk2	39.55	39.66	0.01	_
20091112_RATP_SCD_1289	19	4	bêtises	NULL	nc	NULL	I_GN	ROOT	0	idtext0022	bêtise	##f#p##	spk2	39.67	39.99	0.01	_
20091112_RATP_SCD_1289	19	5	euh	DISF_M	pres	NULL	NULL	NOLINK	0	idtext0022	euh	#####	spk2	40.0	40.1	0.01	_
20091112_RATP_SCD_1289	19	6	des	DISF_R	det	NULL	NULL	NOLINK	0	idtext0022	des	###p##i	spk2	40.11	40.45	0.01	_
20091112_RATP_SCD_1289	19	7	des	NULL	det	NULL	B_GN	DET	8	idtext0022	des	###p##i	spk2	40.46	40.59	0.01	_
20091112_RATP_SCD_1289	19	8	reliefs	NULL	nc	NULL	I_GN	ROOT	0	idtext0022	relief	##m#p##	spk2	40.6	40.92	0.01	_
20091112_RATP_SCD_1289	19	9	d'	NULL	prep	NULL	B_GP	DEP	8	idtext0022	d'	#####	spk2	40.93	40.98	0.01	_
20091112_RATP_SCD_1289	19	10	un	NULL	det	NULL	I_GP	DET	11	idtext0022	un	##m#s##i	spk2	40.99	41.01	0.01	_
20091112_RATP_SCD_1289	19	11	repas	NULL	nc	NULL	I_GP	OBJ	9	idtext0022	repas	##m###	spk2	41.02	41.54	?	//

20091112_RATP_SCD_1289	20	1	c'	NULL	cln	NULL	B_GN	SUJ_IMP	2	idtext0023	ce	###s##	spk2	41.58	41.6	0.01	_
20091112_RATP_SCD_1289	20	2	est	NULL	v	NULL	B_GVf	ROOT	0	idtext0023	être	P#3##s##	spk2	41.61	41.63	0.01	_
20091112_RATP_SCD_1289	20	3	tout	NULL	adv	NULL	B_GADV	ATS	2	idtext0023	tout	##m#s##	spk2	41.64	42.4	?	_

20091112_RATP_SCD_1289	21	1	d'accord	NULL	adv	NULL	B_GADV	NOLINK	0	idtext0024	d'accord	#####	spk1	41.67	42.4	?	//

20091112_RATP_SCD_1289	22	1	vous	NULL	cln	NULL	B_GN	SUJ	2	idtext0025	cln	#2##p##	spk1	42.7	42.76	0.01	_
20091112_RATP_SCD_1289	22	2	patientez	NULL	v	NULL	B_GVf	ROOT	0	idtext0025	patienter	P#2##p##	spk1	42.77	43.21	0.01	_
20091112_RATP_SCD_1289	22	3	donc	NULL	coo	NULL	B_NULL	COORD	2	idtext0025	donc	#####	spk1	43.22	43.5	0.01	_
20091112_RATP_SCD_1289	22	4	euh	DISF_M	pres	NULL	NULL	NOLINK	0	idtext0025	euh	#####	spk1	43.51	43.62	0.01	_
20091112_RATP_SCD_1289	22	5	c'	NULL	cln	NULL	B_GN	SUJ_IMP	6	idtext0025	ce	###s##	spk1	43.63	43.7	0.01	_
20091112_RATP_SCD_1289	22	6	était	NULL	v	NULL	B_GVf	DEP_COORD	3	idtext0025	être	I#3##s##	spk1	43.71	43.84	0.01	_
20091112_RATP_SCD_1289	22	7	aujourd'hui	NULL	adv	NULL	B_GADV	ATS	6	idtext0025	aujourd'hui	#####	spk1	43.85	44.3	0.01	_
20091112_RATP_SCD_1289	22	8	hein	DISF_M	pres	NULL	NULL	NOLINK	0	idtext0025	hein	#####	spk1	44.31	44.59	?	//

20091112_RATP_SCD_1289	23	1	euh	DISF_M	pres	NULL	NULL	NOLINK	0	idtext0026	euh	#####	spk1	44.88	45.34	?	//

20091112_RATP_SCD_1289	24	1	c'	NULL	cln	NULL	B_GN	SUJ_IMP	2	idtext0027	ce	###s##	spk2	44.68	44.81	0.01	_
20091112_RATP_SCD_1289	24	2	est	NULL	v	NULL	B_GVf	ROOT	0	idtext0027	être	P#3##s##	spk2	44.82	45.34	?	//

20091112_RATP_SCD_1289	25	1	c'	NULL	cln	NULL	B_GN	SUJ_IMP	2	idtext0028	ce	###s##	spk2	45.38	45.4	0.01	_
20091112_RATP_SCD_1289	25	2	est	NULL	v	NULL	B_GVf	ROOT	0	idtext0028	être	P#3##s##	spk2	45.41	45.43	0.01	_
20091112_RATP_SCD_1289	25	3	à	NULL	prep	NULL	B_GP	ATS	2	idtext0028	à	#####	spk2	45.44	45.48	0.01	_
20091112_RATP_SCD_1289	25	4	l'	NULL	det	NULL	I_GP	DET	5	idtext0028	le	###s##d	spk2	45.49	45.54	0.01	_
20091112_RATP_SCD_1289	25	5	instant	NULL	nc	NULL	I_GP	OBJ	3	idtext0028	instant	##m#s##	spk2	45.55	45.85	0.01	_
20091112_RATP_SCD_1289	25	6	là	NULL	adv	NULL	B_GADV	MOD	2	idtext0028	là	#####	spk2	45.86	45.94	0.01	_
20091112_RATP_SCD_1289	25	7	je	NULL	cln	NULL	B_GN	SUJ	9	idtext0028	cln	#1##s##	spk2	45.95	45.99	0.01	_
20091112_RATP_SCD_1289	25	8	suis	NULL	v	NULL	B_GVf	AUX	9	idtext0028	être	P#1##s##	spk2	46.0	46.12	0.01	_
20091112_RATP_SCD_1289	25	9	sorti	NULL	vppart	NULL	I_GVf	ROOT	0	idtext0028	sortir	K##m#s##	spk2	46.13	46.37	0.01	_
20091112_RATP_SCD_1289	25	10	du	NULL	prep	NULL	B_GP	P_OBJ_LOC	9	idtext0028	du	#####	spk2	46.38	46.48	0.01	_
20091112_RATP_SCD_1289	25	11	RER	NULL	nc	B_T	I_GP	OBJ	10	idtext0028	RER	#####	spk2	46.49	46.82	0.01	_
20091112_RATP_SCD_1289	25	12	et	NULL	coo	NULL	B_NULL	NOLINK	0	idtext0028	et	#####	spk2	46.83	46.87	?	_

20091112_RATP_SCD_1289	26	1	comme	NULL	adv	NULL	B_GADV	ROOT	0	idtext0029	comme	#####	spk2	46.91	46.99	0.01	_
20091112_RATP_SCD_1289	26	2	il	NULL	cln	NULL	B_GN	SUJ_IMP	4	idtext0029	cln	#3#m#s##	spk2	47.0	47.05	0.01	_
20091112_RATP_SCD_1289	26	3	y	NULL	clo	NULL	B_GN	AFF	4	idtext0029	y	#####	spk2	47.06	47.08	0.01	_
20091112_RATP_SCD_1289	26	4	avait	NULL	v	NULL	B_GVf	OBJ	1	idtext0029	avoir	I#3##s##	spk2	47.09	47.17	0.01	_
20091112_RATP_SCD_1289	26	5	énormément	NULL	adv	NULL	B_GADV	MOD	4	idtext0029	énormément	#####	spk2	47.18	47.49	0.01	_
20091112_RATP_SCD_1289	26	6	de	NULL	prep	NULL	B_GP	OBJ	4	idtext0029	de	#####	spk2	47.5	47.55	0.01	_
20091112_RATP_SCD_1289	26	7	monde	NULL	nc	NULL	I_GP	OBJ	6	idtext0029	monde	##m#s##	spk2	47.56	47.75	?	//

20091112_RATP_SCD_1289	27	1	bon	DISF_M	pres	NULL	NULL	NOLINK	0	idtext0030	bon	#####	spk1	46.91	47.15	0.01	_
20091112_RATP_SCD_1289	27	2	à	NULL	prep	NULL	B_NULL	NOLINK	0	idtext0030	à	#####	spk1	47.16	47.18	0.01	_
20091112_RATP_SCD_1289	27	3	mon	NULL	det	NULL	B_NULL	NOLINK	0	idtext0030	mon	###s##o	spk1	47.19	47.75	?	_

20091112_RATP_SCD_1289	28	1	avis	NULL	nc	NULL	B_GN	NOLINK	0	idtext0031	avis	##m###	spk1	47.79	48.0	0.01	_
20091112_RATP_SCD_1289	28	2	ouais	NULL	adv	NULL	B_GADV	NOLINK	0	idtext0031	ouais	#####	spk1	48.01	48.17	0.01	_
20091112_RATP_SCD_1289	28	3	il	NULL	cln	NULL	B_GN	SUJ	4	idtext0031	cln	#3#m#s##	spk1	48.18	48.24	0.01	_
20091112_RATP_SCD_1289	28	4	va	NULL	v	NULL	B_GVf	ROOT	0	idtext0031	aller	P#3##s##	spk1	48.25	48.37	0.01	_
20091112_RATP_SCD_1289	28	5	pas	NULL	advneg	NULL	B_GVin	MOD	6	idtext0031	pas	#####	spk1	48.38	48.48	0.01	_
20091112_RATP_SCD_1289	28	6	être	NULL	vinf	NULL	I_GVin	AUX	7	idtext0031	être	W#####	spk1	48.49	48.63	0.01	_
20091112_RATP_SCD_1289	28	7	arrivé	NULL	vppart	NULL	I_GVin	OBJ	4	idtext0031	arriver	K##m#s##	spk1	48.64	49.01	0.01	_
20091112_RATP_SCD_1289	28	8	donc	NULL	coo	NULL	B_NULL	COORD	4	idtext0031	donc	#####	spk1	49.02	49.26	0.01	_
20091112_RATP_SCD_1289	28	9	euh	DISF_M	pres	NULL	NULL	NOLINK	0	idtext0031	euh	#####	spk1	49.27	49.55	0.01	_
20091112_RATP_SCD_1289	28	10	à	NULL	prep	NULL	B_GP	MOD	14	idtext0031	à	#####	spk1	49.56	49.59	0.01	_
20091112_RATP_SCD_1289	28	11	mon	NULL	det	NULL	I_GP	DET	12	idtext0031	mon	###s##o	spk1	49.6	49.8	0.01	_
20091112_RATP_SCD_1289	28	12	avis	NULL	nc	NULL	I_GP	OBJ	10	idtext0031	avis	##m###	spk1	49.81	49.93	0.01	_
20091112_RATP_SCD_1289	28	13	je	NULL	cln	NULL	B_GN	SUJ	14	idtext0031	cln	#1##s##	spk1	49.94	50.03	0.01	_
20091112_RATP_SCD_1289	28	14	vais	NULL	v	NULL	B_GVf	DEP_COORD	8	idtext0031	aller	P#1##s##	spk1	50.04	50.09	0.01	_
20091112_RATP_SCD_1289	28	15	avoir	NULL	vinf	NULL	I_GVf	OBJ	14	idtext0031	avoir	W#####	spk1	50.1	50.29	0.01	_
20091112_RATP_SCD_1289	28	16	une	NULL	det	NULL	B_GN	DET	17	idtext0031	un	##f#s##i	spk1	50.3	50.39	0.01	_
20091112_RATP_SCD_1289	28	17	réponse	NULL	nc	NULL	I_GN	OBJ	15	idtext0031	réponse	##f#s##	spk1	50.4	50.75	0.01	_
20091112_RATP_SCD_1289	28	18	négative	NULL	adj	NULL	I_GN	MOD	17	idtext0031	négatif	##f#s##	spk1	50.76	51.3	0.44	/
20091112_RATP_SCD_1289	28	19	mais	NULL	coo	NULL	B_NULL	ROOT	0	idtext0032	mais	#####	spk1	51.74	51.86	0.01	_
20091112_RATP_SCD_1289	28	20	je	NULL	cln	NULL	B_GN	SUJ	21	idtext0032	cln	#1##s##	spk1	51.87	51.93	0.01	_
20091112_RATP_SCD_1289	28	21	vais	NULL	v	NULL	B_GVf	DEP_COORD	19	idtext0032	aller	P#1##s##	spk1	51.94	52.03	0.01	_
20091112_RATP_SCD_1289	28	22	quand+même	NULL	adv	NULL	B_GVi	MOD	23	idtext0032	quand+même	#####	spk1	52.04	52.28	0.01	_
20091112_RATP_SCD_1289	28	23	regarder	NULL	vinf	NULL	I_GVi	OBJ	21	idtext0032	regarder	W#####	spk1	52.29	52.59	0.01	_
20091112_RATP_SCD_1289	28	24	on	NULL	cln	NULL	B_GN	SUJ_IMP	25	idtext0032	cln	#3##s##	spk1	52.6	52.66	0.01	_
20091112_RATP_SCD_1289	28	25	va	NULL	v	NULL	B_GVf	ROOT	0	idtext0032	aller	P#3##s##	spk1	52.67	52.77	0.01	_
20091112_RATP_SCD_1289	28	26	voir	NULL	vinf	NULL	I_GVf	OBJ	25	idtext0032	voir	W#####	spk1	52.78	53.08	0.01	_
20091112_RATP_SCD_1289	28	27	patientez	NULL	v	NULL	B_GVf	NOLINK	0	idtext0032	patienter	P#2##p##	spk1	53.09	53.45	0.01	_
20091112_RATP_SCD_1289	28	28	monsieur	NULL	nc	NULL	B_GN	NOLINK	0	idtext0032	Monsieur	##m#s##	spk1	53.46	53.84	?	//

20091112_RATP_SCD_1289	29	1	destination	NULL	nc	NULL	B_GN	ROOT	0	idtext0033	destination	##f#s##	spk2	54.21	54.61	0.01	_
20091112_RATP_SCD_1289	29	2	de	NULL	prep	NULL	B_GP	DEP	1	idtext0033	de	#####	spk2	54.62	54.7	0.01	_
20091112_RATP_SCD_1289	29	3	Massy	NULL	nc	B_A	I_GP	OBJ	2	idtext0033	Massy	##m#s##	spk2	54.71	55.17	?	//

20091112_RATP_SCD_1289	30	1	ouais	NULL	adv	NULL	B_GADV	NOLINK	0	idtext0034	ouais	#####	spk1	55.23	55.54	0.01	_
20091112_RATP_SCD_1289	30	2	patientez	NULL	v	NULL	B_GVf	ROOT	0	idtext0034	patienter	P#2##p##	spk1	55.55	55.89	0.01	_
20091112_RATP_SCD_1289	30	3	merci	NULL	adv	NULL	B_GADV	MOD	2	idtext0034	merci	#####	spk1	55.9	56.22	?	//

20091112_RATP_SCD_1289	31	1	s'il+vous+plaît	NULL	adv	NULL	B_GADV	NOLINK	0	idtext0035	s'il+vous+plaît	#####	spk1	90.23	90.99	0.01	_
20091112_RATP_SCD_1289	31	2	monsieur	NULL	nc	NULL	B_GN	NOLINK	0	idtext0035	Monsieur	##m#s##	spk1	91.0	91.13	?	//

20091112_RATP_SCD_1289	32	1	oui	NULL	adv	NULL	B_GADV	NOLINK	0	idtext0036	oui	#####	spk2	91.5	91.88	?	//

20091112_RATP_SCD_1289	33	1	hum	DISF_M	pres	NULL	NULL	NOLINK	0	idtext0037	hum	#####	spk1	91.92	91.98	0.01	/
20091112_RATP_SCD_1289	33	2	j'	NULL	cln	NULL	B_GN	SUJ	3	idtext0037	cln	#1##s##	spk1	91.99	92.01	0.01	_
20091112_RATP_SCD_1289	33	3	ai	NULL	v	NULL	B_GVf	ROOT	0	idtext0037	avoir	P#1##s##	spk1	92.02	92.07	0.01	_
20091112_RATP_SCD_1289	33	4	rien	NULL	pro	NULL	B_GN	OBJ	3	idtext0037	rien	#####	spk1	92.08	92.51	0.01	_
20091112_RATP_SCD_1289	33	5	malheureusement	NULL	adv	NULL	B_GADV	MOD	4	idtext0037	malheureusement	#####	spk1	92.52	93.0	0.01	/
20091112_RATP_SCD_1289	33	6	pour	NULL	prep	NULL	B_GP	MOD	4	idtext0037	pour	#####	spk1	93.01	93.14	0.01	_
20091112_RATP_SCD_1289	33	7	l'	NULL	det	NULL	I_GP	DET	8	idtext0037	le	###s##d	spk1	93.15	93.18	0.01	_
20091112_RATP_SCD_1289	33	8	instant	NULL	nc	NULL	I_GP	OBJ	6	idtext0037	instant	##m#s##	spk1	93.19	93.51	0.01	_
20091112_RATP_SCD_1289	33	9	mais	NULL	coo	NULL	B_NULL	COORD	3	idtext0037	mais	#####	spk1	93.52	93.66	0.01	_
20091112_RATP_SCD_1289	33	10	bon	DISF_M	pres	NULL	NULL	NOLINK	0	idtext0037	bon	#####	spk1	93.67	93.79	0.01	_
20091112_RATP_SCD_1289	33	11	si	NULL	csu	NULL	B_NULL	ROOT	0	idtext0037	si	#####	spk1	93.8	93.91	0.01	_
20091112_RATP_SCD_1289	33	12	vous	NULL	cln	NULL	B_GN	SUJ	14	idtext0037	cln	#2##p##	spk1	93.92	94.03	0.01	_
20091112_RATP_SCD_1289	33	13	me	NULL	clo	NULL	B_GN	A_OBJ	14	idtext0037	cla	#1##s##	spk1	94.04	94.12	0.01	_
20091112_RATP_SCD_1289	33	14	dites	NULL	v	NULL	B_GVf	OBJ	11	idtext0037	dire	P#2##p##	spk1	94.13	94.28	0.01	_
20091112_RATP_SCD_1289	33	15	que	NULL	csu	NULL	B_NULL	OBJ	14	idtext0037	que	#####	spk1	94.29	94.38	0.01	_
20091112_RATP_SCD_1289	33	16	ça	NULL	pro	NULL	B_GN	SUJ_IMP	17	idtext0037	ça	#####	spk1	94.39	94.5	0.01	_
20091112_RATP_SCD_1289	33	17	vient	NULL	v	NULL	B_GVf	OBJ	15	idtext0037	venir	P#3##s##	spk1	94.51	94.65	0.01	_
20091112_RATP_SCD_1289	33	18	de	NULL	prep	NULL	B_GP	DE_OBJ	17	idtext0037	de	#####	spk1	94.66	94.68	0.01	_
20091112_RATP_SCD_1289	33	19	se	NULL	clr	NULL	I_GP	AFF	20	idtext0037	se	#####	spk1	94.69	94.79	0.01	_
20091112_RATP_SCD_1289	33	20	passer	NULL	vinf	NULL	I_GP	OBJ	18	idtext0037	passer	W#####	spk1	94.8	95.1	0.01	//
20091112_RATP_SCD_1289	33	21	je	DISF_R	cln	NULL	NULL	NOLINK	0	idtext0037	cln	#1##s##	spk1	95.11	95.58	0.01	_
20091112_RATP_SCD_1289	33	22	c'	NULL	cln	NULL	B_GN	SUJ_IMP	23	idtext0037	ce	###s##	spk1	95.59	95.67	0.01	_
20091112_RATP_SCD_1289	33	23	est	NULL	v	NULL	B_GVf	DEP_COORD	9	idtext0037	être	P#3##s##	spk1	95.68	95.74	0.01	_
20091112_RATP_SCD_1289	33	24	normal	NULL	adj	NULL	B_GADJ	ATS	23	idtext0037	normal	##m#s##	spk1	95.75	96.07	0.01	_
20091112_RATP_SCD_1289	33	25	hein	DISF_M	pres	NULL	NULL	NOLINK	0	idtext0037	hein	#####	spk1	96.08	96.22	?	//

20091112_RATP_SCD_1289	34	1	parce+que	NULL	csu	NULL	B_NULL	NOLINK	0	idtext0038	parce+que	#####	spk1	96.68	97.29	?	_

20091112_RATP_SCD_1289	35	1	oui	NULL	adv	NULL	B_GADV	NOLINK	0	idtext0039	oui	#####	spk2	96.73	97.29	?	//

20091112_RATP_SCD_1289	36	1	euh	DISF_M	pres	NULL	NULL	NOLINK	0	idtext0040	euh	#####	spk1	97.34	97.82	0.01	_
20091112_RATP_SCD_1289	36	2	ils	NULL	cln	NULL	B_GN	SUJ	3	idtext0040	cln	#3#m#p##	spk1	97.83	97.98	0.01	_
20091112_RATP_SCD_1289	36	3	vérifient	NULL	v	NULL	B_GVf	ROOT	0	idtext0040	vérifier	PS#3##p##	spk1	97.99	98.46	0.01	_
20091112_RATP_SCD_1289	36	4	le	DISF_R	det	NULL	NULL	NOLINK	0	idtext0040	le	##m#s##d	spk1	98.47	98.76	0.01	_
20091112_RATP_SCD_1289	36	5	les	NULL	det	NULL	B_GN	DET	6	idtext0040	le	###p##d	spk1	98.77	98.85	0.01	_
20091112_RATP_SCD_1289	36	6	trains	NULL	nc	NULL	I_GN	OBJ	3	idtext0040	train	##m#p##	spk1	98.86	99.07	0.01	_
20091112_RATP_SCD_1289	36	7	quand	NULL	csu	NULL	B_NULL	MOD	3	idtext0040	quand	#####	spk1	99.08	99.18	0.01	_
20091112_RATP_SCD_1289	36	8	ils	NULL	cln	NULL	B_GN	SUJ	9	idtext0040	cln	#3#m#p##	spk1	99.19	99.29	0.01	_
20091112_RATP_SCD_1289	36	9	arrivent	NULL	v	NULL	B_GVf	OBJ	7	idtext0040	arriver	PS#3##p##	spk1	99.3	99.51	0.01	_
20091112_RATP_SCD_1289	36	10	en	NULL	prep	NULL	B_GP	P_OBJ	9	idtext0040	en	#####	spk1	99.52	99.58	0.01	_
20091112_RATP_SCD_1289	36	11	bout	NULL	nc	NULL	I_GP	OBJ	10	idtext0040	bout	##m#s##	spk1	99.59	99.74	0.01	_
20091112_RATP_SCD_1289	36	12	de	NULL	prep	NULL	B_GP	DEP	11	idtext0040	de	#####	spk1	99.75	99.79	0.01	_
20091112_RATP_SCD_1289	36	13	ligne	NULL	nc	NULL	I_GP	OBJ	12	idtext0040	ligne	##f#s##	spk1	99.8	100.01	0.01	_
20091112_RATP_SCD_1289	36	14	les	NULL	det	NULL	B_GN	DET	15	idtext0040	le	###p##d	spk1	100.02	100.13	0.01	_
20091112_RATP_SCD_1289	36	15	trains	NULL	nc	NULL	I_GN	SUJ	9	idtext0040	train	##m#p##	spk1	100.14	100.27	0.01	_
20091112_RATP_SCD_1289	36	16	au	NULL	prep	NULL	B_GP	MOD	15	idtext0040	au	#####	spk1	100.28	100.31	0.01	_
20091112_RATP_SCD_1289	36	17	terminus	NULL	nc	NULL	I_GP	OBJ	16	idtext0040	terminus	##m###	spk1	100.32	100.67	0.01	/
20091112_RATP_SCD_1289	36	18	à	NULL	prep	NULL	B_GP	MOD	17	idtext0040	à	#####	spk1	100.68	100.72	0.01	_
20091112_RATP_SCD_1289	36	19	chaque	NULL	det	NULL	I_GP	DET	20	idtext0040	chaque	###s##i	spk1	100.73	100.92	0.01	_
20091112_RATP_SCD_1289	36	20	fois	NULL	nc	NULL	I_GP	OBJ	18	idtext0040	foi	##f#p##	spk1	100.93	101.05	0.01	_
20091112_RATP_SCD_1289	36	21	hein	DISF_M	pres	NULL	NULL	NOLINK	0	idtext0040	hein	#####	spk1	101.06	101.34	?	//

20091112_RATP_SCD_1289	37	1	d'accord	NULL	adv	NULL	B_GADV	NOLINK	0	idtext0041	d'accord	#####	spk2	101.47	101.83	?	//

20091112_RATP_SCD_1289	38	1	d'accord	NULL	adv	NULL	B_GADV	NOLINK	0	idtext0042	d'accord	#####	spk1	101.89	102.15	0.01	_
20091112_RATP_SCD_1289	38	2	donc	NULL	coo	NULL	B_NULL	ROOT	0	idtext0042	donc	#####	spk1	102.16	102.27	0.01	_
20091112_RATP_SCD_1289	38	3	je	NULL	cln	NULL	B_GN	SUJ	4	idtext0042	cln	#1##s##	spk1	102.28	102.36	0.01	_
20091112_RATP_SCD_1289	38	4	vais	NULL	v	NULL	B_GVf	DEP_COORD	2	idtext0042	aller	P#1##s##	spk1	102.37	102.46	0.01	_
20091112_RATP_SCD_1289	38	5	quand+même	NULL	adv	NULL	B_GADV	MOD	4	idtext0042	quand+même	#####	spk1	102.47	102.68	0.01	_
20091112_RATP_SCD_1289	38	6	nous	NULL	clo	NULL	B_GN	A_OBJ	7	idtext0042	cln	#1##p##	spk1	102.69	102.83	0.01	_
20091112_RATP_SCD_1289	38	7	demander	NULL	vinf	NULL	B_GVi	OBJ	4	idtext0042	demander	W#####	spk1	102.84	103.14	0.01	_
20091112_RATP_SCD_1289	38	8	de	NULL	prep	NULL	B_GP	OBJ	7	idtext0042	de	#####	spk1	103.15	103.18	0.01	_
20091112_RATP_SCD_1289	38	9	nous	NULL	clo	NULL	I_GP	OBJ	10	idtext0042	cln	#1##p##	spk1	103.19	103.28	0.01	_
20091112_RATP_SCD_1289	38	10	rappeler	NULL	vinf	NULL	B_GVi	OBJ	8	idtext0042	rappeler	W#####	spk1	103.29	103.56	0.01	_
20091112_RATP_SCD_1289	38	11	demain	NULL	adv	NULL	B_GADV	MOD	10	idtext0042	demain	#####	spk1	103.57	103.72	0.01	_
20091112_RATP_SCD_1289	38	12	matin	NULL	nc	NULL	B_GN	MOD	8	idtext0042	matin	##m#s##	spk1	103.73	104.3	?	//

20091112_RATP_SCD_1289	39	1	c'	NULL	cln	NULL	B_GN	SUJ_IMP	2	idtext0043	ce	###s##	spk2	104.69	104.72	0.01	_
20091112_RATP_SCD_1289	39	2	est	NULL	v	NULL	B_GVf	ROOT	0	idtext0043	être	P#3##s##	spk2	104.73	104.79	0.01	_
20091112_RATP_SCD_1289	39	3	le	NULL	det	NULL	B_GN	DET	5	idtext0043	le	##m#s##d	spk2	104.8	104.84	0.01	_
20091112_RATP_SCD_1289	39	4	dernier	NULL	adj	NULL	I_GN	MOD	5	idtext0043	dernier	##m#s##	spk2	104.85	105.18	0.01	_
20091112_RATP_SCD_1289	39	5	wagon	NULL	nc	NULL	I_GN	ATS	2	idtext0043	wagon	##m#s##	spk2	105.19	105.61	0.01	/
20091112_RATP_SCD_1289	39	6	c'	NULL	cln	NULL	B_GN	SUJ_IMP	7	idtext0043	ce	###s##	spk2	105.62	105.74	0.01	_
20091112_RATP_SCD_1289	39	7	est	NULL	v	NULL	B_GVf	ROOT	0	idtext0043	être	P#3##s##	spk2	105.75	105.82	?	//

20091112_RATP_SCD_1289	40	1	sais	NULL	v	NULL	B_GVfn	ROOT	0	idtext0044	savoir	P#12##s##	spk2	106.19	106.3	0.01	_
20091112_RATP_SCD_1289	40	2	pas	NULL	advneg	NULL	I_GVfn	MOD	1	idtext0044	pas	#####	spk2	106.31	106.69	0.01	_
20091112_RATP_SCD_1289	40	3	si	NULL	csu	NULL	B_NULL	NOLINK	0	idtext0044	si	#####	spk2	106.7	106.8	?	_

20091112_RATP_SCD_1289	41	1	ouais	NULL	adv	NULL	B_GADV	NOLINK	0	idtext0045	ouais	#####	spk1	106.22	106.8	?	//

20091112_RATP_SCD_1289	42	1	mais	NULL	coo	NULL	B_NULL	ROOT	0	idtext0046	mais	#####	spk1	107.37	107.46	0.01	_
20091112_RATP_SCD_1289	42	2	là	NULL	adv	NULL	B_GADV	MOD	3	idtext0046	là	#####	spk1	107.47	107.52	0.01	_
20091112_RATP_SCD_1289	42	3	de+toute+façon	NULL	adv	NULL	I_GADV	ROOT	0	idtext0046	de+toute+façon	#####	spk1	107.53	107.9	0.01	_
20091112_RATP_SCD_1289	42	4	c'	NULL	cln	NULL	B_GN	SUJ_IMP	5	idtext0046	ce	###s##	spk1	107.91	107.93	0.01	_
20091112_RATP_SCD_1289	42	5	est	NULL	v	NULL	B_GVf	DEP_COORD	1	idtext0046	être	P#3##s##	spk1	107.94	107.96	0.01	_
20091112_RATP_SCD_1289	42	6	quand	NULL	csu	NULL	B_NULL	ATS	5	idtext0047	quand	#####	spk1	107.97	108.02	0.01	_
20091112_RATP_SCD_1289	42	7	le	NULL	det	NULL	B_GN	DET	8	idtext0047	le	##m#s##d	spk1	108.03	108.05	0.01	_
20091112_RATP_SCD_1289	42	8	conducteur	NULL	nc	NULL	I_GN	SUJ	9	idtext0047	conducteur	##f#s##	spk1	108.06	108.38	0.01	_
20091112_RATP_SCD_1289	42	9	va	NULL	v	NULL	B_GVf	OBJ	6	idtext0047	aller	P#3##s##	spk1	108.39	108.46	0.01	_
20091112_RATP_SCD_1289	42	10	arriver	NULL	vinf	NULL	I_GVf	OBJ	9	idtext0047	arriver	W#####	spk1	108.47	108.77	0.01	_
20091112_RATP_SCD_1289	42	11	en	NULL	prep	NULL	B_GP	P_OBJ	9	idtext0047	en	#####	spk1	108.78	108.85	0.01	_
20091112_RATP_SCD_1289	42	12	bout	NULL	nc	NULL	I_GP	OBJ	11	idtext0047	bout	##m#s##	spk1	108.86	109.0	0.01	_
20091112_RATP_SCD_1289	42	13	de	NULL	prep	NULL	B_GP	DEP	12	idtext0047	de	#####	spk1	109.01	109.03	0.01	_
20091112_RATP_SCD_1289	42	14	ligne	NULL	nc	NULL	I_GP	OBJ	13	idtext0047	ligne	##f#s##	spk1	109.04	109.56	?	//

20091112_RATP_SCD_1289	43	1	oui	NULL	adv	NULL	B_GADV	NOLINK	0	idtext0048	oui	#####	spk2	109.96	110.19	?	//

20091112_RATP_SCD_1289	44	1	il	NULL	cln	NULL	B_GN	SUJ	2	idtext0049	cln	#3#m#s##	spk1	110.33	110.38	0.01	_
20091112_RATP_SCD_1289	44	2	va	NULL	v	NULL	B_GVf	ROOT	0	idtext0049	aller	P#3##s##	spk1	110.39	110.53	0.01	_
20091112_RATP_SCD_1289	44	3	vérifier	NULL	vinf	NULL	I_GVf	OBJ	2	idtext0049	vérifier	W#####	spk1	110.54	111.31	0.01	_
20091112_RATP_SCD_1289	44	4	à+moins+qu'	NULL	csu	NULL	B_NULL	MOD	2	idtext0050	à+moins+qu'	#####	spk1	111.32	111.71	0.01	_
20091112_RATP_SCD_1289	44	5	il	NULL	cln	NULL	B_GN	SUJ_IMP	7	idtext0050	cln	#3#m#s##	spk1	111.72	111.77	0.01	_
20091112_RATP_SCD_1289	44	6	y	NULL	clo	NULL	B_GN	AFF	7	idtext0050	y	#####	spk1	111.78	111.84	0.01	_
20091112_RATP_SCD_1289	44	7	ait	NULL	v	NULL	B_GVf	OBJ	4	idtext0050	avoir	S#3##s##	spk1	111.85	111.92	0.01	_
20091112_RATP_SCD_1289	44	8	quelqu'un	NULL	pro	NULL	B_GN	OBJ	7	idtext0050	quelqu'un	#####	spk1	111.93	112.47	0.01	_
20091112_RATP_SCD_1289	44	9	qui	NULL	prorel	NULL	B_NULL	SUJ	12	idtext0050	qui	#####	spk1	112.48	112.79	0.01	_
20091112_RATP_SCD_1289	44	10	euh	DISF_M	pres	NULL	NULL	NOLINK	0	idtext0050	euh	#####	spk1	112.8	112.88	0.01	_
20091112_RATP_SCD_1289	44	11	c'	NULL	cln	NULL	B_GN	SUJ_IMP	12	idtext0050	ce	###s##	spk1	112.89	112.97	0.01	_
20091112_RATP_SCD_1289	44	12	est	NULL	v	NULL	B_GVf	MOD_REL	8	idtext0050	être	P#3##s##	spk1	112.98	113.03	0.01	_
20091112_RATP_SCD_1289	44	13	pour	NULL	prep	NULL	B_GP	ATS	12	idtext0050	pour	#####	spk1	113.04	113.19	0.01	_
20091112_RATP_SCD_1289	44	14	ça	NULL	pro	NULL	I_GP	OBJ	13	idtext0050	ça	#####	spk1	113.2	113.29	0.01	_
20091112_RATP_SCD_1289	44	15	aussi	NULL	adv	NULL	B_GADV	MOD	18	idtext0050	aussi	#####	spk1	113.3	113.55	0.01	/
20091112_RATP_SCD_1289	44	16	j'	NULL	cln	NULL	B_GN	SUJ	18	idtext0050	cln	#1##s##	spk1	113.56	113.61	0.01	_
20091112_RATP_SCD_1289	44	17	ai	NULL	v	NULL	B_GVf	AUX	18	idtext0050	avoir	P#1##s##	spk1	113.62	113.65	0.01	_
20091112_RATP_SCD_1289	44	18	fait	NULL	vppart	NULL	I_GVf	ROOT	0	idtext0050	faire	P#3##s##	spk1	113.66	113.8	0.01	_
20091112_RATP_SCD_1289	44	19	ma	NULL	det	NULL	B_GN	DET	20	idtext0050	mon	##f#s##o	spk1	113.81	113.89	0.01	_
20091112_RATP_SCD_1289	44	20	recherche	NULL	nc	NULL	I_GN	OBJ	18	idtext0050	recherche	##f#s##	spk1	113.9	114.31	0.01	_
20091112_RATP_SCD_1289	44	21	moi	NULL	pro	NULL	I_GN	SUJ	18	idtext0050	moi	#####	spk1	114.32	114.52	0.01	_
20091112_RATP_SCD_1289	44	22	hein	DISF_M	pres	NULL	NULL	NOLINK	0	idtext0050	hein	#####	spk1	114.53	114.71	?	//

20091112_RATP_SCD_1289	45	1	oui	NULL	adv	NULL	B_GADV	NOLINK	0	idtext0051	oui	#####	spk2	114.75	114.92	?	//

20091112_RATP_SCD_1289	46	1	c'	NULL	cln	NULL	B_GN	SUJ_IMP	2	idtext0052	ce	###s##	spk2	115.05	115.17	0.01	_
20091112_RATP_SCD_1289	46	2	est	NULL	v	NULL	B_GVf	ROOT	0	idtext0052	être	P#3##s##	spk2	115.18	115.77	0.01	_
20091112_RATP_SCD_1289	46	3	pour	NULL	prep	NULL	B_GP	ATS	2	idtext0052	pour	#####	spk2	115.78	116.01	0.01	_
20091112_RATP_SCD_1289	46	4	ça	NULL	pro	NULL	I_GP	OBJ	3	idtext0052	ça	#####	spk2	116.02	116.32	0.01	_
20091112_RATP_SCD_1289	46	5	que	NULL	prorel	NULL	B_NULL	NOLINK	0	idtext0052	que	#####	spk2	116.33	116.86	?	_

20091112_RATP_SCD_1289	47	1	euh	DISF_M	pres	NULL	NULL	NOLINK	0	idtext0053	euh	#####	spk1	115.03	115.46	0.01	//
20091112_RATP_SCD_1289	47	2	qui	NULL	prorel	NULL	B_NULL	SUJ	4	idtext0053	qui	#####	spk1	115.47	115.56	0.01	_
20091112_RATP_SCD_1289	47	3	est	NULL	v	NULL	B_GVf	AUX	4	idtext0053	être	P#3##s##	spk1	115.57	115.77	0.01	_
20091112_RATP_SCD_1289	47	4	descendu	NULL	vppart	NULL	I_GVf	ROOT	0	idtext0053	descendre	K##m#s##	spk1	115.78	116.48	0.01	_
20091112_RATP_SCD_1289	47	5	et	NULL	coo	NULL	B_NULL	NOLINK	0	idtext0053	et	#####	spk1	116.49	116.86	?	_

20091112_RATP_SCD_1289	48	1	qui	NULL	prorel	NULL	B_NULL	SUJ	3	idtext0054	qui	#####	spk1	116.9	116.95	0.01	_
20091112_RATP_SCD_1289	48	2	a	NULL	v	NULL	B_GVf	AUX	3	idtext0054	avoir	P#3##s##	spk1	116.96	117.02	0.01	_
20091112_RATP_SCD_1289	48	3	remis	NULL	vppart	NULL	I_GVf	ROOT	0	idtext0054	remettre	K##m###	spk1	117.03	117.53	0.01	_
20091112_RATP_SCD_1289	48	4	ça	NULL	pro	NULL	B_GN	OBJ	3	idtext0054	ça	#####	spk1	117.54	117.7	0.01	_
20091112_RATP_SCD_1289	48	5	à	NULL	prep	NULL	B_GP	P_OBJ_LOC	3	idtext0054	à	#####	spk1	117.71	117.76	0.01	_
20091112_RATP_SCD_1289	48	6	l'	NULL	det	NULL	I_GP	DET	7	idtext0054	le	###s##d	spk1	117.77	117.81	0.01	_
20091112_RATP_SCD_1289	48	7	agent	NULL	nc	NULL	I_GP	OBJ	5	idtext0054	agent	###s##	spk1	117.82	118.13	0.01	_
20091112_RATP_SCD_1289	48	8	de	DISF_R	prep	NULL	NULL	NOLINK	0	idtext0054	de	#####	spk1	118.14	118.65	0.01	_
20091112_RATP_SCD_1289	48	9	au	NULL	prep	NULL	B_GP	MOD	7	idtext0054	au	#####	spk1	118.66	118.76	0.01	_
20091112_RATP_SCD_1289	48	10	guichet	NULL	nc	NULL	I_GP	OBJ	9	idtext0054	guichet	##m#s##	spk1	118.77	119.26	?	//

20091112_RATP_SCD_1289	49	1	hm+hm	DISF_M	pres	NULL	NULL	NOLINK	0	idtext0055	hm+hm	#####	spk2	119.72	120.17	?	//

20091112_RATP_SCD_1289	50	1	mais	NULL	coo	NULL	B_NULL	NOLINK	0	idtext0056	mais	#####	spk1	119.72	119.94	0.01	_
20091112_RATP_SCD_1289	50	2	là	NULL	adv	NULL	B_GADV	NOLINK	0	idtext0056	là	#####	spk1	119.95	120.17	?	_

20091112_RATP_SCD_1289	51	1	pour	NULL	prep	NULL	B_GP	ROOT	0	idtext0057	pour	#####	spk1	120.35	120.48	0.01	_
20091112_RATP_SCD_1289	51	2	l'	NULL	det	NULL	I_GP	DET	3	idtext0057	le	###s##d	spk1	120.49	120.51	0.01	_
20091112_RATP_SCD_1289	51	3	instant	NULL	nc	NULL	I_GP	OBJ	1	idtext0057	instant	##m#s##	spk1	120.52	120.63	0.01	/
20091112_RATP_SCD_1289	51	4	et	NULL	coo	NULL	B_NULL	COORD	1	idtext0057	et	#####	spk1	120.64	120.66	0.01	_
20091112_RATP_SCD_1289	51	5	j'	NULL	cln	NULL	B_GN	SUJ	6	idtext0057	cln	#1##s##	spk1	120.67	120.75	0.01	_
20091112_RATP_SCD_1289	51	6	ai	NULL	v	NULL	B_GVf	DEP_COORD	4	idtext0057	avoir	P#1##s##	spk1	120.76	120.8	0.01	_
20091112_RATP_SCD_1289	51	7	rien	NULL	pro	NULL	B_GN	OBJ	6	idtext0057	rien	#####	spk1	120.81	120.92	0.01	_
20091112_RATP_SCD_1289	51	8	du+tout	NULL	adv	NULL	B_GADV	MOD	7	idtext0057	du+tout	#####	spk1	120.93	121.56	?	/

20091112_RATP_SCD_1289	52	1	bon	DISF_M	pres	NULL	NULL	NOLINK	0	idtext0058	bon	#####	spk2	122.01	122.24	0.01	_
20091112_RATP_SCD_1289	52	2	et+donc	NULL	coo	NULL	B_NULL	ROOT	0	idtext0058	et+donc	#####	spk2	122.25	122.41	0.01	_
20091112_RATP_SCD_1289	52	3	il	NULL	cln	NULL	B_GN	SUJ_IMP	4	idtext0058	cln	#3#m#s##	spk2	122.42	122.53	0.01	_
20091112_RATP_SCD_1289	52	4	faut	NULL	v	NULL	B_GVf	DEP_COORD	2	idtext0058	falloir	P#3##s##	spk2	122.54	122.65	0.01	_
20091112_RATP_SCD_1289	52	5	que	NULL	csu	NULL	B_NULL	OBJ	4	idtext0058	que	#####	spk2	122.66	122.78	0.01	_
20091112_RATP_SCD_1289	52	6	je	NULL	cln	NULL	B_GN	SUJ	8	idtext0058	cln	#1##s##	spk2	122.79	122.81	0.01	_
20091112_RATP_SCD_1289	52	7	vous	NULL	clo	NULL	B_GN	OBJ	8	idtext0058	cln	#2##p##	spk2	122.82	122.91	0.01	_
20091112_RATP_SCD_1289	52	8	rappelle	NULL	v	NULL	B_GVf	OBJ	5	idtext0058	rappeler	PS#13##s##	spk2	122.92	123.11	0.01	_
20091112_RATP_SCD_1289	52	9	demain	NULL	adv	NULL	B_GADV	MOD	8	idtext0058	demain	#####	spk2	123.12	123.25	0.01	_
20091112_RATP_SCD_1289	52	10	matin	NULL	nc	NULL	B_GN	MOD	8	idtext0058	matin	##m#s##	spk2	123.26	123.56	?	//

20091112_RATP_SCD_1289	53	1	oui	NULL	adv	NULL	B_GADV	NOLINK	0	idtext0059	oui	#####	spk1	123.62	123.77	0.01	/
20091112_RATP_SCD_1289	53	2	rappelez	NULL	v	NULL	B_GVf	ROOT	0	idtext0059	rappeler	P#2##p##	spk1	123.78	124.02	0.01	_
20091112_RATP_SCD_1289	53	3	demain	NULL	adv	NULL	B_GADV	MOD	2	idtext0059	demain	#####	spk1	124.03	124.19	0.01	_
20091112_RATP_SCD_1289	53	4	matin	NULL	nc	NULL	B_GN	NOLINK	0	idtext0059	matin	##m#s##	spk1	124.2	124.43	0.01	_
20091112_RATP_SCD_1289	53	5	on	NULL	cln	NULL	B_GN	SUJ	6	idtext0059	cln	#3##s##	spk1	124.44	124.51	0.01	_
20091112_RATP_SCD_1289	53	6	fera	NULL	v	NULL	B_GVf	ROOT	0	idtext0059	faire	F#3##s##	spk1	124.52	124.64	0.01	_
20091112_RATP_SCD_1289	53	7	une	NULL	det	NULL	B_GN	DET	9	idtext0059	un	##f#s##i	spk1	124.65	124.7	0.01	_
20091112_RATP_SCD_1289	53	8	nouvelle	NULL	adj	NULL	I_GN	MOD	9	idtext0060	nouveau	##f#s##	spk1	124.71	124.88	0.01	_
20091112_RATP_SCD_1289	53	9	recherche	NULL	nc	NULL	I_GN	OBJ	6	idtext0060	recherche	##f#s##	spk1	124.89	125.21	0.01	_
20091112_RATP_SCD_1289	53	10	en	NULL	prep	NULL	B_GP	MOD	9	idtext0060	en	#####	spk1	125.22	125.33	0.01	_
20091112_RATP_SCD_1289	53	11	espérant	NULL	vprespart	NULL	I_GP	OBJ	10	idtext0060	espérer	G#####	spk1	125.34	125.63	0.01	_
20091112_RATP_SCD_1289	53	12	de	DISF_R	prep	NULL	NULL	NOLINK	0	idtext0061	de	#####	spk1	125.64	126.07	0.01	_
20091112_RATP_SCD_1289	53	13	de	NULL	prep	NULL	B_GP	OBJ	11	idtext0061	de	#####	spk1	126.08	126.17	0.01	_
20091112_RATP_SCD_1289	53	14	retrouver	NULL	vinf	NULL	I_GP	OBJ	13	idtext0061	retrouver	W#####	spk1	126.18	126.49	0.01	_
20091112_RATP_SCD_1289	53	15	vos	NULL	det	NULL	B_GN	DET	16	idtext0061	votre	###p##o	spk1	126.5	126.71	0.01	_
20091112_RATP_SCD_1289	53	16	affaires	NULL	nc	NULL	I_GN	OBJ	14	idtext0061	affaire	##f#p##	spk1	126.72	126.94	0.01	_
20091112_RATP_SCD_1289	53	17	hein	DISF_M	pres	NULL	NULL	NOLINK	0	idtext0061	hein	#####	spk1	126.95	127.33	?	//

20091112_RATP_SCD_1289	54	1	d'accord	NULL	adv	NULL	B_GADV	NOLINK	0	idtext0062	d'accord	#####	spk2	127.74	128.45	?	//

20091112_RATP_SCD_1289	55	1	vous	NULL	cln	NULL	B_GN	SUJ	2	idtext0063	cln	#2##p##	spk1	127.76	128.22	0.01	_
20091112_RATP_SCD_1289	55	2	appelez	NULL	v	NULL	B_GVf	ROOT	0	idtext0063	appeler	P#2##p##	spk1	128.23	128.45	?	//

20091112_RATP_SCD_1289	56	1	vers	NULL	prep	NULL	B_GP	MOD	4	idtext0064	vers	#####	spk1	128.49	128.79	0.01	_
20091112_RATP_SCD_1289	56	2	euh	DISF_M	pres	NULL	NULL	NOLINK	0	idtext0064	euh	#####	spk1	128.8	128.83	0.01	_
20091112_RATP_SCD_1289	56	3	vous	NULL	cln	NULL	I_GP	SUJ	4	idtext0064	cln	#2##p##	spk1	128.84	128.98	0.01	_
20091112_RATP_SCD_1289	56	4	pouvez	NULL	v	NULL	B_GVf	ROOT	0	idtext0064	pouvoir	P#2##p##	spk1	128.99	129.13	0.01	_
20091112_RATP_SCD_1289	56	5	appeler	NULL	vinf	NULL	I_GVf	OBJ	4	idtext0064	appeler	W#####	spk1	129.14	129.3	0.01	_
20091112_RATP_SCD_1289	56	6	à+partir+de	NULL	prep	NULL	B_GP	OBJ	1	idtext0064	à+partir+de	#####	spk1	129.31	129.83	0.01	_
20091112_RATP_SCD_1289	56	7	sept	NULL	det	B_H	I_GP	DET	8	idtext0064	sept	#####	spk1	129.84	130.08	0.01	_
20091112_RATP_SCD_1289	56	8	heures	NULL	nc	I_H	I_GP	OBJ	6	idtext0064	heure	##f#p##	spk1	130.09	130.2	0.01	/
20091112_RATP_SCD_1289	56	9	et	NULL	coo	I_H	I_GP	COORD	8	idtext0064	et	#####	spk1	130.21	130.23	0.01	_
20091112_RATP_SCD_1289	56	10	demie	NULL	adj	I_H	I_GP	DEP_COORD	9	idtext0064	demie	#####	spk1	130.24	130.5	0.01	_
20091112_RATP_SCD_1289	56	11	sept	NULL	det	B_H	I_GP	DET	12	idtext0064	sept	#####	spk1	130.51	130.73	0.01	//
20091112_RATP_SCD_1289	56	12	heures	NULL	nc	I_H	I_GP	MOD	8	idtext0064	heure	##f#p##	spk1	130.74	130.86	0.01	_
20091112_RATP_SCD_1289	56	13	sept	NULL	det	B_H	B_GN	DET	14	idtext0064	sept	#####	spk1	130.87	131.0	0.01	_
20091112_RATP_SCD_1289	56	14	heures	NULL	nc	I_H	I_GN	NOLINK	0	idtext0064	heure	##f#p##	spk1	131.01	131.08	0.01	_
20091112_RATP_SCD_1289	56	15	et	NULL	coo	I_H	I_GN	COORD	14	idtext0064	et	#####	spk1	131.09	131.11	0.01	_
20091112_RATP_SCD_1289	56	16	demie	NULL	adj	I_H	I_GN	DEP_COORD	15	idtext0064	demie	#####	spk1	131.12	131.66	?	/

20091112_RATP_SCD_1289	57	1	d'accord	NULL	adv	NULL	B_GADV	MOD	2	idtext0065	d'accord	#####	spk2	132.2	132.47	0.01	_
20091112_RATP_SCD_1289	57	2	merci	NULL	adv	NULL	I_GADV	ROOT	0	idtext0065	merci	#####	spk2	132.48	132.86	?	//

20091112_RATP_SCD_1289	58	1	je	NULL	cln	NULL	B_GN	SUJ	4	idtext0066	cln	#1##s##	spk1	132.9	132.92	0.01	_
20091112_RATP_SCD_1289	58	2	vous	NULL	clo	NULL	B_GN	OBJ	4	idtext0066	cln	#2##p##	spk1	132.93	133.0	0.01	_
20091112_RATP_SCD_1289	58	3	en	NULL	clo	NULL	B_GN	DE_OBJ	4	idtext0066	en	#####	spk1	133.01	133.07	0.01	_
20091112_RATP_SCD_1289	58	4	prie	NULL	v	NULL	B_GVf	ROOT	0	idtext0066	prier	PS#13##s##	spk1	133.08	133.22	0.01	_
20091112_RATP_SCD_1289	58	5	bonne	NULL	adj	NULL	B_GN	MOD	6	idtext0066	bon	##f#s##	spk1	133.23	133.39	0.01	//
20091112_RATP_SCD_1289	58	6	soirée	NULL	nc	NULL	I_GN	ROOT	0	idtext0066	soirée	##f#s##	spk1	133.4	133.61	0.01	_
20091112_RATP_SCD_1289	58	7	monsieur	NULL	nc	NULL	B_GN	NOLINK	0	idtext0066	Monsieur	##m#s##	spk1	133.62	133.87	0.01	_
20091112_RATP_SCD_1289	58	8	au+revoir	NULL	adv	NULL	B_GADV	NOLINK	0	idtext0066	au+revoir	#####	spk1	133.88	134.24	?	//

20091112_RATP_SCD_1289	59	1	merci	NULL	adv	NULL	B_GADV	MOD	2	idtext0067	merci	#####	spk2	134.35	134.5	0.01	_
20091112_RATP_SCD_1289	59	2	au+revoir	NULL	adv	NULL	I_GADV	ROOT	0	idtext0067	au+revoir	#####	spk2	134.51	134.8	?	//

