20091112_RATP_SCD_0325	1	1	NNAAMMEE	NULL	np	B_HU	B_GN	ROOT	0	idtext0000	ANONYM	NULL	spk1	7.15	7.35	0.01	_
20091112_RATP_SCD_0325	1	2	bonjour	NULL	adv	NULL	B_GADV	NOLINK	0	idtext0001	bonjour	#####	spk1	7.36	7.72	?	//

20091112_RATP_SCD_0325	2	1	bonjour	NULL	adv	NULL	B_GADV	NOLINK	0	idtext0002	bonjour	#####	spk2	7.96	8.43	?	//

20091112_RATP_SCD_0325	3	1	bonjour	NULL	adv	NULL	B_GADV	NOLINK	0	idtext0003	bonjour	#####	spk1	8.47	8.73	0.01	_
20091112_RATP_SCD_0325	3	2	madame	NULL	nc	NULL	B_GN	NOLINK	0	idtext0003	Monsieur	##f#s##	spk1	8.74	9.3	?	//

20091112_RATP_SCD_0325	4	1	est-ce+que	NULL	pri	NULL	B_NULL	NOLINK	0	idtext0004	est-ce+que	#####	spk2	9.38	9.8	0.01	_
20091112_RATP_SCD_0325	4	2	vous	DISF_R	cln	NULL	NULL	NOLINK	0	idtext0004	cln	#2##p##	spk2	9.81	10.49	0.01	_
20091112_RATP_SCD_0325	4	3	vous	NULL	cln	NULL	B_GN	SUJ	4	idtext0004	cln	#2##p##	spk2	10.5	10.64	0.01	_
20091112_RATP_SCD_0325	4	4	pouvez	NULL	v	NULL	B_GVf	ROOT	0	idtext0004	pouvoir	P#2##p##	spk2	10.65	10.8	0.01	_
20091112_RATP_SCD_0325	4	5	me	NULL	clo	NULL	B_GN	OBJ	6	idtext0004	cla	#1##s##	spk2	10.81	10.89	0.01	_
20091112_RATP_SCD_0325	4	6	renseigner	NULL	vinf	NULL	B_GVi	OBJ	4	idtext0004	renseigner	W#####	spk2	10.9	11.4	0.01	_
20091112_RATP_SCD_0325	4	7	sur	NULL	prep	NULL	B_GP	P_OBJ	6	idtext0004	sur	#####	spk2	11.41	11.54	0.01	_
20091112_RATP_SCD_0325	4	8	Navigo	NULL	np	B_PRD	I_GP	OBJ	7	idtext0004	Navigo	#####	spk2	11.55	12.27	?	//

20091112_RATP_SCD_0325	5	1	oui	NULL	adv	NULL	B_GADV	MOD	2	idtext0005	oui	#####	spk1	12.31	12.82	0.01	_
20091112_RATP_SCD_0325	5	2	bien+sûr	NULL	adv	NULL	I_GADV	ROOT	0	idtext0005	bien+sûr	#####	spk1	12.83	13.41	?	_

20091112_RATP_SCD_0325	6	1	le	NULL	det	NULL	B_GN	DET	2	idtext0006	le	##m#s##d	spk2	12.33	12.84	0.01	_
20091112_RATP_SCD_0325	6	2	passe+Navigo	NULL	np	B_PRD	I_GN	ROOT	0	idtext0006	passe+Navigo	#####	spk2	12.85	13.41	?	//

20091112_RATP_SCD_0325	7	1	en+fait	GREF	adv	NULL	B_GADV	NOLINK	0	idtext0007	en+fait	#####	spk2	13.54	14.0	0.01	_
20091112_RATP_SCD_0325	7	2	euh	DISF_M	pres	NULL	NULL	NOLINK	0	idtext0007	euh	#####	spk2	14.01	14.2	0.01	_
20091112_RATP_SCD_0325	7	3	bon	DISF_M	pres	NULL	NULL	NOLINK	0	idtext0007	bon	#####	spk2	14.21	14.35	0.01	_
20091112_RATP_SCD_0325	7	4	j'	NULL	cln	NULL	B_GN	SUJ	5	idtext0007	cln	#1##s##	spk2	14.36	14.43	0.01	_
20091112_RATP_SCD_0325	7	5	ai	NULL	v	NULL	B_GVf	ROOT	0	idtext0007	avoir	P#1##s##	spk2	14.44	14.46	0.01	_
20091112_RATP_SCD_0325	7	6	un	NULL	det	NULL	B_GN	DET	7	idtext0007	un	##m#s##i	spk2	14.47	14.55	0.01	_
20091112_RATP_SCD_0325	7	7	passe+Navigo	NULL	np	B_PRD	I_GN	OBJ	5	idtext0007	passe+Navigo	#####	spk2	14.56	15.17	0.01	_
20091112_RATP_SCD_0325	7	8	depuis	NULL	prep	NULL	B_GP	MOD	7	idtext0007	depuis	#####	spk2	15.18	15.41	0.01	_
20091112_RATP_SCD_0325	7	9	plusieurs	NULL	det	NULL	I_GP	DET	10	idtext0007	plusieurs	###p##i	spk2	15.42	15.84	0.01	_
20091112_RATP_SCD_0325	7	10	années	NULL	nc	NULL	I_GP	OBJ	8	idtext0007	année	##f#p##	spk2	15.85	16.03	0.01	_
20091112_RATP_SCD_0325	7	11	et	NULL	coo	NULL	B_NULL	COORD	5	idtext0007	et	#####	spk2	16.04	16.06	0.01	_
20091112_RATP_SCD_0325	7	12	je	NULL	cln	NULL	B_GN	SUJ	13	idtext0007	cln	#1##s##	spk2	16.07	16.17	0.01	_
20091112_RATP_SCD_0325	7	13	voudrais	NULL	v	NULL	B_GVf	DEP_COORD	11	idtext0007	vouloir	C#12##s##	spk2	16.18	16.39	0.01	_
20091112_RATP_SCD_0325	7	14	changer	NULL	vinf	NULL	I_GVf	OBJ	13	idtext0007	changer	W#####	spk2	16.4	16.79	0.01	_
20091112_RATP_SCD_0325	7	15	mes	DISF_R	det	NULL	NULL	NOLINK	0	idtext0007	mon	###p##o	spk2	16.8	17.13	0.01	_
20091112_RATP_SCD_0325	7	16	mes	NULL	det	NULL	B_GN	DET	17	idtext0007	mon	###p##o	spk2	17.14	17.32	0.01	_
20091112_RATP_SCD_0325	7	17	zones	NULL	nc	NULL	I_GN	OBJ	13	idtext0007	zone	##f#p##	spk2	17.33	17.69	?	//

20091112_RATP_SCD_0325	8	1	mes	NULL	det	NULL	B_GN	DET	2	idtext0008	mon	###p##o	spk1	17.73	17.82	0.01	_
20091112_RATP_SCD_0325	8	2	zones	NULL	nc	NULL	I_GN	ROOT	0	idtext0008	zone	##f#p##	spk1	17.83	18.13	0.01	/
20091112_RATP_SCD_0325	8	3	oui	NULL	adv	NULL	B_GADV	NOLINK	0	idtext0008	oui	#####	spk1	18.14	18.25	0.01	_
20091112_RATP_SCD_0325	8	4	euh	DISF_M	pres	NULL	NULL	NOLINK	0	idtext0008	euh	#####	spk1	18.26	18.41	?	//

20091112_RATP_SCD_0325	9	1	comment	NULL	adv	NULL	B_GADV	MOD	4	idtext0009	comment	#####	spk2	18.45	18.57	0.01	_
20091112_RATP_SCD_0325	9	2	ça	NULL	pro	NULL	B_GN	SUJ_IMP	4	idtext0009	ça	#####	spk2	18.58	18.69	0.01	_
20091112_RATP_SCD_0325	9	3	se	NULL	clr	NULL	B_GVf	AFF	4	idtext0009	se	#####	spk2	18.7	18.72	0.01	_
20091112_RATP_SCD_0325	9	4	passe	NULL	v	NULL	I_GVf	ROOT	0	idtext0009	passer	PS#13##s##	spk2	18.73	18.94	?	//

20091112_RATP_SCD_0325	10	1	euh	DISF_M	pres	NULL	NULL	NOLINK	0	idtext0010	euh	#####	spk1	18.98	19.33	0.01	_
20091112_RATP_SCD_0325	10	2	vous	NULL	cln	NULL	B_GN	SUJ	3	idtext0010	cln	#2##p##	spk1	19.34	19.5	0.01	_
20091112_RATP_SCD_0325	10	3	avez	NULL	v	NULL	B_GVf	ROOT	0	idtext0010	avoir	P#2##p##	spk1	19.51	19.64	0.01	_
20091112_RATP_SCD_0325	10	4	un	NULL	det	NULL	B_GN	DET	5	idtext0010	un	##m#s##i	spk1	19.65	19.71	0.01	_
20091112_RATP_SCD_0325	10	5	Navigo	NULL	np	B_PRD	I_GN	OBJ	3	idtext0010	Navigo	#####	spk1	19.72	20.09	0.01	_
20091112_RATP_SCD_0325	10	6	Intégrale	NULL	np	I_PRD	I_GN	MOD	5	idtext0010	Intégrale	#####	spk1	20.1	20.93	?	//

20091112_RATP_SCD_0325	11	1	oui	NULL	adv	NULL	B_GADV	NOLINK	0	idtext0011	oui	#####	spk2	20.97	21.27	?	//

20091112_RATP_SCD_0325	12	1	alors	NULL	adv	NULL	B_GADV	MOD	2	idtext0012	alors	#####	spk1	21.48	21.76	0.01	_
20091112_RATP_SCD_0325	12	2	en+fait	GREF	adv	NULL	I_GADV	ROOT	0	idtext0012	en+fait	#####	spk1	21.77	22.19	0.01	_
20091112_RATP_SCD_0325	12	3	y	NULL	clo	NULL	B_GN	NOLINK	0	idtext0012	y	#####	spk1	22.2	22.25	0.01	_
20091112_RATP_SCD_0325	12	4	faut	NULL	v	NULL	B_GVf	ROOT	0	idtext0012	falloir	P#3##s##	spk1	22.26	22.48	0.01	_
20091112_RATP_SCD_0325	12	5	vous	NULL	clr	NULL	B_GVi	AFF	6	idtext0012	cln	#2##p##	spk1	22.49	22.59	0.01	_
20091112_RATP_SCD_0325	12	6	rendre	NULL	vinf	NULL	I_GVi	OBJ	4	idtext0012	rendre	W#####	spk1	22.6	23.19	0.01	_
20091112_RATP_SCD_0325	12	7	euh	DISF_M	pres	NULL	NULL	NOLINK	0	idtext0012	euh	#####	spk1	23.2	23.22	0.01	_
20091112_RATP_SCD_0325	12	8	en	NULL	prep	NULL	B_GP	P_OBJ_LOC	6	idtext0012	en	#####	spk1	23.23	23.39	0.01	_
20091112_RATP_SCD_0325	12	9	agence	NULL	nc	NULL	I_GP	OBJ	8	idtext0012	agence	##f#s##	spk1	23.4	23.64	0.01	_
20091112_RATP_SCD_0325	12	10	commerciale	NULL	adj	NULL	I_GP	MOD	9	idtext0012	commercial	##f#s##	spk1	23.65	24.46	?	//

20091112_RATP_SCD_0325	13	1	d'accord	NULL	adv	NULL	B_GADV	NOLINK	0	idtext0013	d'accord	#####	spk2	24.52	25.17	?	//

20091112_RATP_SCD_0325	14	1	munis	NULL	v	NULL	B_GVf	ROOT	0	idtext0014	munir	PJ#12##s##	spk1	25.21	25.44	0.01	_
20091112_RATP_SCD_0325	14	2	de	NULL	prep	NULL	B_GP	DE_OBJ	1	idtext0014	de	#####	spk1	25.45	25.5	0.01	_
20091112_RATP_SCD_0325	14	3	votre	NULL	det	NULL	I_GP	DET	4	idtext0014	votre	###s##o	spk1	25.51	25.83	0.01	_
20091112_RATP_SCD_0325	14	4	passe	NULL	nc	NULL	I_GP	OBJ	2	idtext0014	passe	###s##	spk1	25.84	26.69	?	//

20091112_RATP_SCD_0325	15	1	oui	NULL	adv	NULL	B_GADV	NOLINK	0	idtext0015	oui	#####	spk2	26.8	27.41	?	//

20091112_RATP_SCD_0325	16	1	vous	NULL	cln	NULL	B_GN	SUJ	2	idtext0016	cln	#2##p##	spk1	27.49	27.59	0.01	_
20091112_RATP_SCD_0325	16	2	faites	NULL	v	NULL	B_GVf	ROOT	0	idtext0016	faire	P#2##p##	spk1	27.6	27.77	0.01	_
20091112_RATP_SCD_0325	16	3	tout	NULL	adv	NULL	B_GADV	OBJ	2	idtext0016	tout	##m#s##	spk1	27.78	27.9	0.01	_
20091112_RATP_SCD_0325	16	4	ça	NULL	pro	NULL	B_GN	OBJ	2	idtext0016	ça	#####	spk1	27.91	28.12	0.01	_
20091112_RATP_SCD_0325	16	5	sur	NULL	prep	NULL	B_GP	MOD	4	idtext0016	sur	#####	spk1	28.13	28.34	0.01	_
20091112_RATP_SCD_0325	16	6	place	NULL	nc	NULL	I_GP	OBJ	5	idtext0016	place	##f#s##	spk1	28.35	28.6	0.01	_
20091112_RATP_SCD_0325	16	7	quoi	DISF_M	pres	NULL	NULL	NOLINK	0	idtext0016	quoi	#####	spk1	28.61	28.95	?	_

20091112_RATP_SCD_0325	17	1	ils	NULL	cln	NULL	B_GN	SUJ	4	idtext0017	cln	#3#m#p##	spk2	29.02	29.19	0.01	_
20091112_RATP_SCD_0325	17	2	me	NULL	clo	NULL	B_GN	A_OBJ	4	idtext0017	cla	#1##s##	spk2	29.2	29.27	0.01	_
20091112_RATP_SCD_0325	17	3	le	NULL	clo	NULL	B_GN	OBJ	4	idtext0017	cla	#3#m#s##	spk2	29.28	29.35	0.01	_
20091112_RATP_SCD_0325	17	4	font	NULL	v	NULL	B_GVf	ROOT	0	idtext0017	faire	P#3##p##	spk2	29.36	29.47	0.01	_
20091112_RATP_SCD_0325	17	5	directement	NULL	adv	NULL	B_GADV	MOD	4	idtext0017	directement	#####	spk2	29.48	30.11	?	_

20091112_RATP_SCD_0325	18	1	oui	NULL	adv	NULL	B_GADV	NOLINK	0	idtext0018	oui	#####	spk1	30.15	30.29	?	//

20091112_RATP_SCD_0325	19	1	y	NULL	clo	NULL	B_GN	AFF	2	idtext0019	y	#####	spk2	30.33	30.35	0.01	_
20091112_RATP_SCD_0325	19	2	a	NULL	v	NULL	B_GVfn	ROOT	0	idtext0019	avoir	P#3##s##	spk2	30.36	30.4	0.01	_
20091112_RATP_SCD_0325	19	3	pas	NULL	advneg	NULL	I_GVfn	MOD	2	idtext0019	pas	#####	spk2	30.41	30.46	0.01	_
20091112_RATP_SCD_0325	19	4	besoin	NULL	nc	NULL	B_GN	OBJ	2	idtext0019	besoin	##m#s##	spk2	30.47	30.64	0.01	_
20091112_RATP_SCD_0325	19	5	de	NULL	prep	NULL	B_GP	OBJ	2	idtext0019	de	#####	spk2	30.65	30.75	0.01	_
20091112_RATP_SCD_0325	19	6	faire	NULL	vinf	NULL	I_GP	OBJ	5	idtext0019	faire	W#####	spk2	30.76	30.84	0.01	_
20091112_RATP_SCD_0325	19	7	de	NULL	prep	NULL	B_GP	OBJ	6	idtext0019	de	#####	spk2	30.85	30.87	0.01	_
20091112_RATP_SCD_0325	19	8	courrier	NULL	nc	NULL	I_GP	OBJ	7	idtext0019	courrier	##m#s##	spk2	30.88	31.24	0.01	_
20091112_RATP_SCD_0325	19	9	rien	NULL	pro	NULL	I_GP	OBJ	6	idtext0019	rien	#####	spk2	31.25	31.39	?	_

20091112_RATP_SCD_0325	20	1	ah	DISF_M	pres	NULL	NULL	NOLINK	0	idtext0020	ah	#####	spk1	31.43	31.46	0.01	_
20091112_RATP_SCD_0325	20	2	non	DISF_R	adv	NULL	NULL	NOLINK	0	idtext0020	non	#####	spk1	31.47	31.58	0.01	_
20091112_RATP_SCD_0325	20	3	non	NULL	adv	NULL	B_GADV	NOLINK	0	idtext0020	non	#####	spk1	31.59	31.87	0.01	_
20091112_RATP_SCD_0325	20	4	en	NULL	prep	NULL	B_GP	MOD	9	idtext0020	en	#####	spk1	31.88	31.99	0.01	_
20091112_RATP_SCD_0325	20	5	agence	NULL	nc	NULL	I_GP	OBJ	4	idtext0020	agence	##f#s##	spk1	32.0	32.42	0.01	_
20091112_RATP_SCD_0325	20	6	l'	NULL	det	NULL	B_GN	DET	7	idtext0020	le	###s##d	spk1	32.43	32.48	0.01	_
20091112_RATP_SCD_0325	20	7	avantage	NULL	nc	NULL	I_GN	SUJ	9	idtext0020	avantage	##m#s##	spk1	32.49	32.94	0.01	_
20091112_RATP_SCD_0325	20	8	c'	NULL	cln	NULL	B_GN	SUJ_IMP	9	idtext0020	ce	###s##	spk1	32.95	33.01	0.01	_
20091112_RATP_SCD_0325	20	9	est	NULL	v	NULL	B_GVf	ROOT	0	idtext0020	être	P#3##s##	spk1	33.02	33.07	0.01	_
20091112_RATP_SCD_0325	20	10	qu'	NULL	csu	NULL	B_NULL	ATS	9	idtext0020	qu'	#####	spk1	33.08	33.18	0.01	_
20091112_RATP_SCD_0325	20	11	ils	NULL	cln	NULL	B_GN	SUJ	13	idtext0020	cln	#3#m#p##	spk1	33.19	33.28	0.01	_
20091112_RATP_SCD_0325	20	12	le	NULL	clo	NULL	B_GN	OBJ	13	idtext0020	cla	#3#m#s##	spk1	33.29	33.4	0.01	_
20091112_RATP_SCD_0325	20	13	font	NULL	v	NULL	B_GVf	OBJ	10	idtext0020	faire	P#3##p##	spk1	33.41	33.6	0.01	_
20091112_RATP_SCD_0325	20	14	tout+de+suite	NULL	adv	NULL	B_GADV	MOD	13	idtext0020	tout+de+suite	#####	spk1	33.61	34.18	?	_

20091112_RATP_SCD_0325	21	1	d'accord	NULL	adv	NULL	B_GADV	MOD	2	idtext0021	d'accord	#####	spk2	34.22	34.78	0.01	_
20091112_RATP_SCD_0325	21	2	OK	NULL	adv	NULL	I_GADV	ROOT	0	idtext0021	ok	#####	spk2	34.79	35.25	0.01	_
20091112_RATP_SCD_0325	21	3	bon+bah	DISF_M	pres	NULL	NULL	NOLINK	0	idtext0021	bon+bah	#####	spk2	35.26	35.52	0.01	_
20091112_RATP_SCD_0325	21	4	je	NULL	cln	NULL	B_GN	SUJ	5	idtext0021	cln	#1##s##	spk2	35.53	35.62	0.01	_
20091112_RATP_SCD_0325	21	5	passerai	NULL	v	NULL	B_GVf	ROOT	0	idtext0021	passer	F#1##s##	spk2	35.63	35.91	0.01	_
20091112_RATP_SCD_0325	21	6	à	NULL	prep	NULL	B_GP	P_OBJ_LOC	5	idtext0021	à	#####	spk2	35.92	35.94	0.01	_
20091112_RATP_SCD_0325	21	7	l'	NULL	det	NULL	I_GP	DET	8	idtext0021	le	###s##d	spk2	35.95	35.98	0.01	_
20091112_RATP_SCD_0325	21	8	agence	NULL	nc	NULL	I_GP	OBJ	6	idtext0021	agence	##f#s##	spk2	35.99	36.37	0.01	_
20091112_RATP_SCD_0325	21	9	alors	NULL	adv	NULL	B_GADV	NOLINK	0	idtext0021	alors	#####	spk2	36.38	36.53	?	//

20091112_RATP_SCD_0325	22	1	voilà	DISF_M	pres	NULL	NULL	NOLINK	0	idtext0022	voilà	#####	spk1	36.57	36.84	?	//

20091112_RATP_SCD_0325	23	1	merci	NULL	adv	NULL	B_GADV	MOD	2	idtext0023	merci	#####	spk2	36.91	37.28	0.01	_
20091112_RATP_SCD_0325	23	2	beaucoup	NULL	adv	NULL	I_GADV	ROOT	0	idtext0023	beaucoup	#####	spk2	37.29	37.42	?	//

20091112_RATP_SCD_0325	24	1	je	NULL	cln	NULL	B_GN	SUJ	4	idtext0024	cln	#1##s##	spk1	37.46	37.54	0.01	_
20091112_RATP_SCD_0325	24	2	vous	NULL	clo	NULL	B_GN	OBJ	4	idtext0024	cln	#2##p##	spk1	37.55	37.64	0.01	_
20091112_RATP_SCD_0325	24	3	en	NULL	clo	NULL	B_GN	DE_OBJ	4	idtext0024	en	#####	spk1	37.65	37.75	0.01	_
20091112_RATP_SCD_0325	24	4	prie	NULL	v	NULL	B_GVf	ROOT	0	idtext0024	prier	PS#13##s##	spk1	37.76	37.91	0.01	_
20091112_RATP_SCD_0325	24	5	madame	NULL	nc	NULL	B_GN	NOLINK	0	idtext0024	Monsieur	##f#s##	spk1	37.92	38.18	?	//

20091112_RATP_SCD_0325	25	1	au+revoir	NULL	adv	NULL	B_GADV	NOLINK	0	idtext0025	au+revoir	#####	spk2	38.22	38.45	?	//

20091112_RATP_SCD_0325	26	1	bonne	NULL	adj	NULL	B_GN	MOD	2	idtext0026	bon	##f#s##	spk1	38.49	38.66	0.01	_
20091112_RATP_SCD_0325	26	2	journée	NULL	nc	NULL	I_GN	ROOT	0	idtext0026	journée	##f#s##	spk1	38.67	39.4	?	//

