20091112_RATP_SCD_0449	1	1	NNAAMMEE	NULL	np	B_HU	B_GN	ROOT	0	idtext0000	ANONYM	NULL	spk1	2.11	2.31	0.01	_
20091112_RATP_SCD_0449	1	2	bonjour	NULL	adv	NULL	B_GADV	NOLINK	0	idtext0001	bonjour	#####	spk1	2.32	3.71	?	//

20091112_RATP_SCD_0449	2	1	bonjour	NULL	adv	NULL	B_GADV	NOLINK	0	idtext0002	bonjour	#####	spk2	3.86	4.15	0.01	_
20091112_RATP_SCD_0449	2	2	madame	NULL	nc	NULL	B_GN	NOLINK	0	idtext0002	Monsieur	##f#s##	spk2	4.16	4.75	0.27	_
20091112_RATP_SCD_0449	2	3	voilà	DISF_M	pres	NULL	NULL	NOLINK	0	idtext0003	voilà	#####	spk2	5.02	5.3	0.01	_
20091112_RATP_SCD_0449	2	4	je	NULL	cln	NULL	B_GN	SUJ	5	idtext0003	cln	#1##s##	spk2	5.31	5.37	0.01	_
20091112_RATP_SCD_0449	2	5	voudrais	NULL	v	NULL	B_GVf	ROOT	0	idtext0003	vouloir	C#12##s##	spk2	5.38	5.68	0.01	_
20091112_RATP_SCD_0449	2	6	un	NULL	det	NULL	B_GN	DET	7	idtext0003	un	##m#s##i	spk2	5.69	5.77	0.01	_
20091112_RATP_SCD_0449	2	7	renseignement	NULL	nc	NULL	I_GN	OBJ	5	idtext0003	renseignement	##m#s##	spk2	5.78	6.64	?	//

20091112_RATP_SCD_0449	3	1	euh	DISF_M	pres	NULL	NULL	NOLINK	0	idtext0004	euh	#####	spk2	6.72	6.87	0.01	_
20091112_RATP_SCD_0449	3	2	je	NULL	cln	NULL	B_GN	SUJ	3	idtext0004	cln	#1##s##	spk2	6.88	7.06	0.01	_
20091112_RATP_SCD_0449	3	3	veux	NULL	v	NULL	B_GVf	ROOT	0	idtext0004	vouloir	P#12##s##	spk2	7.07	7.28	0.01	_
20091112_RATP_SCD_0449	3	4	j'	NULL	cln	NULL	B_GN	SUJ	5	idtext0004	cln	#1##s##	spk2	7.29	7.44	0.01	_
20091112_RATP_SCD_0449	3	5	habite	NULL	v	NULL	B_GVf	ROOT	0	idtext0004	habiter	PS#13##s##	spk2	7.45	7.79	0.01	_
20091112_RATP_SCD_0449	3	6	à	NULL	prep	NULL	B_GP	P_OBJ_LOC	5	idtext0004	à	#####	spk2	7.8	7.85	0.01	_
20091112_RATP_SCD_0449	3	7	Levallois-Perret	NULL	nc	B_A	I_GP	OBJ	6	idtext0004	Levallois-Perret	##m#s##	spk2	7.86	9.01	?	//

20091112_RATP_SCD_0449	4	1	oui	NULL	adv	NULL	B_GADV	NOLINK	0	idtext0005	oui	#####	spk1	9.06	9.47	?	//

20091112_RATP_SCD_0449	5	1	et	NULL	coo	NULL	B_NULL	ROOT	0	idtext0006	et	#####	spk2	9.56	9.77	0.01	_
20091112_RATP_SCD_0449	5	2	je	NULL	cln	NULL	B_GN	SUJ	3	idtext0006	cln	#1##s##	spk2	9.78	9.84	0.01	_
20091112_RATP_SCD_0449	5	3	voudrais	NULL	v	NULL	B_GVf	DEP_COORD	1	idtext0006	vouloir	C#12##s##	spk2	9.85	10.18	0.01	_
20091112_RATP_SCD_0449	5	4	à	NULL	prep	NULL	B_GP	P_OBJ_LOC	3	idtext0006	à	#####	spk2	10.19	10.49	0.01	_
20091112_RATP_SCD_0449	5	5	euh	DISF_M	pres	NULL	NULL	NOLINK	0	idtext0006	euh	#####	spk2	10.5	10.89	0.01	_
20091112_RATP_SCD_0449	5	6	samedi	NULL	nc	NULL	I_GP	OBJ	4	idtext0006	samedi	##m#s##	spk2	10.9	11.33	0.01	_
20091112_RATP_SCD_0449	5	7	j'	NULL	cln	NULL	B_GN	SUJ	8	idtext0006	cln	#1##s##	spk2	11.34	11.39	0.01	_
20091112_RATP_SCD_0449	5	8	ai	NULL	v	NULL	B_GVf	ROOT	0	idtext0006	avoir	P#1##s##	spk2	11.4	11.42	0.01	_
20091112_RATP_SCD_0449	5	9	un	NULL	det	NULL	B_GN	DET	10	idtext0006	un	##m#s##i	spk2	11.43	11.54	0.01	_
20091112_RATP_SCD_0449	5	10	rendez-vous	NULL	nc	NULL	I_GN	OBJ	8	idtext0006	rendez-vous	##m###	spk2	11.55	12.07	0.01	_
20091112_RATP_SCD_0449	5	11	à	NULL	prep	NULL	B_GP	MOD	10	idtext0006	à	#####	spk2	12.08	12.1	0.01	_
20091112_RATP_SCD_0449	5	12	onze	NULL	det	B_H	I_GP	DET	13	idtext0006	onze	#####	spk2	12.11	12.57	0.01	_
20091112_RATP_SCD_0449	5	13	heures	NULL	nc	I_H	I_GP	OBJ	11	idtext0006	heure	##f#p##	spk2	12.58	12.79	0.14	_
20091112_RATP_SCD_0449	5	14	au	NULL	prep	NULL	B_GP	ROOT	0	idtext0007	au	#####	spk2	12.93	13.14	0.01	_
20091112_RATP_SCD_0449	5	15	cent+trente	NULL	nc	NULL	I_GP	OBJ	14	idtext0007	cent+trente	#####	spk2	13.15	13.63	0.01	_
20091112_RATP_SCD_0449	5	16	avenue	NULL	nc	I_A	I_GP	MOD	15	idtext0007	avenue	##f#s##	spk2	13.64	13.86	0.01	_
20091112_RATP_SCD_0449	5	17	de	NULL	prep	I_A	I_GP	DEP	16	idtext0007	de	#####	spk2	13.87	13.9	0.01	_
20091112_RATP_SCD_0449	5	18	la	NULL	det	I_A	I_GP	DET	19	idtext0007	le	##m#s##d	spk2	13.91	14.0	0.01	_
20091112_RATP_SCD_0449	5	19	République	NULL	np	I_A	I_GP	OBJ	17	idtext0007	République	#####	spk2	14.01	14.56	0.01	_
20091112_RATP_SCD_0449	5	20	à	NULL	prep	NULL	B_GP	ROOT	0	idtext0007	à	#####	spk2	14.57	14.61	0.01	_
20091112_RATP_SCD_0449	5	21	Paris	NULL	nc	B_A	I_GP	OBJ	20	idtext0007	Paris	##m#s##	spk2	14.62	15.1	0.06	_
20091112_RATP_SCD_0449	5	22	je	NULL	cln	NULL	B_GN	SUJ	23	idtext0008	cln	#1##s##	spk2	15.16	15.51	0.01	_
20091112_RATP_SCD_0449	5	23	voulais	NULL	v	NULL	B_GVf	ROOT	0	idtext0008	vouloir	I#12##s##	spk2	15.52	15.7	0.01	_
20091112_RATP_SCD_0449	5	24	savoir	NULL	vinf	NULL	I_GVf	OBJ	23	idtext0008	savoir	W#####	spk2	15.71	15.94	0.01	_
20091112_RATP_SCD_0449	5	25	qu'est-ce+que	NULL	pri	NULL	B_NULL	OBJ	23	idtext0008	qu'est-ce+que	#####	spk2	15.95	16.37	0.01	_
20091112_RATP_SCD_0449	5	26	j'	NULL	cln	NULL	B_GN	SUJ	27	idtext0008	cln	#1##s##	spk2	16.38	16.41	0.01	_
20091112_RATP_SCD_0449	5	27	ai	NULL	v	NULL	B_GVf	OBJ	25	idtext0008	avoir	P#1##s##	spk2	16.42	16.54	0.01	_
20091112_RATP_SCD_0449	5	28	comme	NULL	adv	NULL	B_GADV	MOD	27	idtext0008	comme	#####	spk2	16.55	16.72	0.01	_
20091112_RATP_SCD_0449	5	29	transport	NULL	nc	NULL	B_GN	OBJ	28	idtext0008	transport	##m#s##	spk2	16.73	17.65	0.01	_
20091112_RATP_SCD_0449	5	30	pour	NULL	prep	NULL	B_NULL	NOLINK	0	idtext0008	pour	#####	spk2	17.66	17.84	0.05	_
20091112_RATP_SCD_0449	5	31	c'	NULL	cln	NULL	B_GN	SUJ_IMP	32	idtext0009	ce	###s##	spk2	17.89	17.92	0.01	_
20091112_RATP_SCD_0449	5	32	est	NULL	v	NULL	B_GVf	ROOT	0	idtext0009	être	P#3##s##	spk2	17.93	18.05	0.01	_
20091112_RATP_SCD_0449	5	33	au	NULL	prep	NULL	B_GP	P_OBJ_LOC	32	idtext0009	au	#####	spk2	18.06	18.12	0.01	_
20091112_RATP_SCD_0449	5	34	métro	NULL	nc	B_T	I_GP	OBJ	33	idtext0009	métro	##m#s##	spk2	18.13	18.48	0.01	_
20091112_RATP_SCD_0449	5	35	Père-Lachaise	NULL	np	I_T	I_GP	MOD	34	idtext0009	Père-Lachaise	#####	spk2	18.49	19.34	0.29	/
20091112_RATP_SCD_0449	5	36	mais	NULL	coo	NULL	B_NULL	NOLINK	0	idtext0010	mais	#####	spk2	19.63	19.74	0.01	_
20091112_RATP_SCD_0449	5	37	comme	NULL	adv	NULL	B_GADV	MOD	49	idtext0010	comme	#####	spk2	19.75	19.95	0.01	_
20091112_RATP_SCD_0449	5	38	j'	NULL	cln	NULL	B_GN	SUJ	39	idtext0010	cln	#1##s##	spk2	19.96	19.99	0.01	_
20091112_RATP_SCD_0449	5	39	ai	NULL	v	NULL	B_GVf	OBJ	37	idtext0010	avoir	P#1##s##	spk2	20.0	20.06	0.01	_
20091112_RATP_SCD_0449	5	40	quatre-vingt-dix	NULL	det	NULL	B_GN	DET	41	idtext0010	quatre-vingt-dix	#####	spk2	20.07	20.71	0.01	_
20091112_RATP_SCD_0449	5	41	ans	NULL	nc	NULL	I_GN	OBJ	39	idtext0010	an	##m#p##	spk2	20.72	20.85	0.01	_
20091112_RATP_SCD_0449	5	42	je	NULL	cln	NULL	B_GN	SUJ	44	idtext0010	cln	#1##s##	spk2	20.86	20.96	0.01	_
20091112_RATP_SCD_0449	5	43	ne	NULL	clneg	NULL	B_GVfn	MOD	44	idtext0010	ne	#####	spk2	20.97	21.07	0.01	_
20091112_RATP_SCD_0449	5	44	veux	NULL	v	NULL	I_GVfn	ROOT	0	idtext0010	vouloir	P#12##s##	spk2	21.08	21.22	0.01	_
20091112_RATP_SCD_0449	5	45	plus	NULL	advneg	NULL	I_GVfn	MOD	44	idtext0010	plus	#####	spk2	21.23	21.38	0.01	_
20091112_RATP_SCD_0449	5	46	prendre	NULL	vinf	NULL	B_GVi	OBJ	44	idtext0010	prendre	W#####	spk2	21.39	21.63	0.01	_
20091112_RATP_SCD_0449	5	47	le	NULL	det	NULL	B_GN	DET	48	idtext0010	le	##m#s##d	spk2	21.64	21.76	0.01	_
20091112_RATP_SCD_0449	5	48	métro	NULL	nc	NULL	I_GN	OBJ	46	idtext0010	métro	##m#s##	spk2	21.77	22.25	0.01	/
20091112_RATP_SCD_0449	5	49	j'	NULL	cln	NULL	B_GN	SUJ	50	idtext0010	cln	#1##s##	spk2	22.26	22.29	0.01	_
20091112_RATP_SCD_0449	5	50	ai	NULL	v	NULL	B_GVf	ROOT	0	idtext0010	avoir	P#1##s##	spk2	22.3	22.38	0.01	_
20091112_RATP_SCD_0449	5	51	peur	NULL	nc	NULL	B_GN	OBJ	50	idtext0010	peur	##f#s##	spk2	22.39	22.62	0.01	_
20091112_RATP_SCD_0449	5	52	des	NULL	prep	NULL	B_GP	DE_OBJ	50	idtext0010	des	#####	spk2	22.63	22.78	0.01	_
20091112_RATP_SCD_0449	5	53	escaliers	NULL	nc	NULL	I_GP	OBJ	52	idtext0010	escalier	##m#p##	spk2	22.79	23.4	?	//

20091112_RATP_SCD_0449	6	1	d'accord	NULL	adv	NULL	B_GADV	NOLINK	0	idtext0011	d'accord	#####	spk1	23.75	24.44	?	//

20091112_RATP_SCD_0449	7	1	alors	NULL	adv	NULL	B_GADV	NOLINK	0	idtext0012	alors	#####	spk2	24.68	24.89	0.01	_
20091112_RATP_SCD_0449	7	2	je	NULL	cln	NULL	B_GN	SUJ	3	idtext0012	cln	#1##s##	spk2	24.9	24.98	0.01	_
20091112_RATP_SCD_0449	7	3	voudrais	NULL	v	NULL	B_GVf	ROOT	0	idtext0012	vouloir	C#12##s##	spk2	24.99	25.36	0.01	_
20091112_RATP_SCD_0449	7	4	un	DISF_R	det	NULL	NULL	NOLINK	0	idtext0012	un	##m#s##i	spk2	25.37	25.47	0.01	_
20091112_RATP_SCD_0449	7	5	un	DISF_R	det	NULL	NULL	NOLINK	0	idtext0012	un	##m#s##i	spk2	25.48	25.66	0.01	_
20091112_RATP_SCD_0449	7	6	un	DISF_R	det	NULL	NULL	NOLINK	0	idtext0012	un	##m#s##i	spk2	25.67	25.82	0.01	_
20091112_RATP_SCD_0449	7	7	un	NULL	det	NULL	B_GN	DET	8	idtext0012	un	##m#s##i	spk2	25.83	26.01	0.01	_
20091112_RATP_SCD_0449	7	8	autobus	NULL	nc	NULL	I_GN	OBJ	3	idtext0012	autobus	##m###	spk2	26.02	26.6	0.01	_
20091112_RATP_SCD_0449	7	9	ou	NULL	coo	NULL	B_NULL	COORD	8	idtext0012	ou	#####	spk2	26.61	26.7	0.01	_
20091112_RATP_SCD_0449	7	10	plusieurs	NULL	det	NULL	B_GN	DET	11	idtext0012	plusieurs	###p##i	spk2	26.71	27.15	0.01	_
20091112_RATP_SCD_0449	7	11	autobus	NULL	nc	NULL	I_GN	DEP_COORD	9	idtext0012	autobus	##m###	spk2	27.16	27.59	0.01	_
20091112_RATP_SCD_0449	7	12	qui	NULL	prorel	NULL	B_NULL	SUJ	14	idtext0012	qui	#####	spk2	27.6	27.69	0.01	_
20091112_RATP_SCD_0449	7	13	s'	NULL	clr	NULL	B_GVf	AFF	14	idtext0012	se	#3##p##	spk2	27.7	27.8	0.01	_
20091112_RATP_SCD_0449	7	14	enchaînent	NULL	v	NULL	I_GVf	MOD_REL	11	idtext0012	enchaîner	PS#3##p##	spk2	27.81	28.35	0.01	_
20091112_RATP_SCD_0449	7	15	je	NULL	cln	NULL	B_GN	SUJ	16	idtext0012	cln	#1##s##	spk2	28.36	28.38	0.01	_
20091112_RATP_SCD_0449	7	16	sais	NULL	v	NULL	B_GVfn	ROOT	0	idtext0012	savoir	P#12##s##	spk2	28.39	28.5	0.01	_
20091112_RATP_SCD_0449	7	17	pas	NULL	advneg	NULL	I_GVfn	MOD	16	idtext0012	pas	#####	spk2	28.51	28.86	?	_

20091112_RATP_SCD_0449	8	1	d'accord	NULL	adv	NULL	B_GADV	NOLINK	0	idtext0013	d'accord	#####	spk1	29.32	29.94	0.22	_
20091112_RATP_SCD_0449	8	2	donc	NULL	coo	NULL	B_NULL	ROOT	0	idtext0014	donc	#####	spk1	30.16	30.36	0.01	_
20091112_RATP_SCD_0449	8	3	dans+tous+les+cas	NULL	adv	NULL	B_GADV	MOD	5	idtext0014	dans+tous+les+cas	#####	spk1	30.37	30.93	0.01	_
20091112_RATP_SCD_0449	8	4	vous	NULL	cln	NULL	B_GN	SUJ	5	idtext0014	cln	#2##p##	spk1	30.94	31.05	0.01	_
20091112_RATP_SCD_0449	8	5	partirez	NULL	v	NULL	B_GVf	DEP_COORD	2	idtext0014	partir	F#2##p##	spk1	31.06	31.42	0.01	_
20091112_RATP_SCD_0449	8	6	de	NULL	prep	NULL	B_GP	P_OBJ_LOC	5	idtext0014	de	#####	spk1	31.43	31.46	0.01	_
20091112_RATP_SCD_0449	8	7	Levallois-Perret	NULL	nc	B_A	I_GP	OBJ	6	idtext0014	Levallois-Perret	##m#s##	spk1	31.47	32.26	0.01	//
20091112_RATP_SCD_0449	8	8	hein	DISF_M	pres	I_A	NULL	NOLINK	0	idtext0014	hein	#####	spk1	32.27	32.42	0.01	_
20091112_RATP_SCD_0449	8	9	c'	NULL	cln	NULL	B_GN	SUJ_IMP	10	idtext0014	ce	###s##	spk1	32.43	32.53	0.01	_
20091112_RATP_SCD_0449	8	10	est	NULL	v	NULL	B_GVf	ROOT	0	idtext0014	être	P#3##s##	spk1	32.54	32.61	0.01	_
20091112_RATP_SCD_0449	8	11	ça	NULL	pro	NULL	B_GN	ATS	10	idtext0014	ça	#####	spk1	32.62	32.86	0.26	_
20091112_RATP_SCD_0449	8	12	pour	NULL	prep	NULL	B_GP	ROOT	0	idtext0015	pour	#####	spk1	33.12	33.29	0.01	_
20091112_RATP_SCD_0449	8	13	rejoindre	NULL	vinf	NULL	I_GP	OBJ	12	idtext0015	rejoindre	W#####	spk1	33.3	33.67	0.01	_
20091112_RATP_SCD_0449	8	14	le	NULL	det	NULL	B_GN	DET	15	idtext0015	le	##m#s##d	spk1	33.68	33.76	0.01	_
20091112_RATP_SCD_0449	8	15	cent+trente	NULL	nc	B_A	I_GN	OBJ	13	idtext0015	cent+trente	#####	spk1	33.77	34.18	0.01	_
20091112_RATP_SCD_0449	8	16	avenue	NULL	nc	I_A	I_GN	MOD	15	idtext0015	avenue	##f#s##	spk1	34.19	34.58	0.01	_
20091112_RATP_SCD_0449	8	17	de	NULL	prep	I_A	I_GN	DEP	16	idtext0015	de	#####	spk1	34.59	34.67	0.01	_
20091112_RATP_SCD_0449	8	18	la	NULL	det	I_A	I_GN	DET	19	idtext0015	le	##m#s##d	spk1	34.68	34.79	0.01	_
20091112_RATP_SCD_0449	8	19	République	NULL	np	I_A	I_GN	OBJ	17	idtext0015	République	#####	spk1	34.8	35.39	0.01	_
20091112_RATP_SCD_0449	8	20	se	NULL	clr	NULL	B_GVf	AFF	21	idtext0015	se	#####	spk1	35.4	35.5	0.01	_
20091112_RATP_SCD_0449	8	21	situant	NULL	vprespart	NULL	I_GVf	MOD	15	idtext0015	situer	G#####	spk1	35.51	36.01	0.28	_
20091112_RATP_SCD_0449	8	22	dans	NULL	prep	NULL	B_GP	ROOT	0	idtext0016	dans	#####	spk1	36.29	36.55	0.01	_
20091112_RATP_SCD_0449	8	23	Paris	NULL	nc	B_A	I_GP	OBJ	22	idtext0016	Paris	##m#s##	spk1	36.56	37.0	0.01	_
20091112_RATP_SCD_0449	8	24	et	NULL	coo	NULL	B_NULL	ROOT	0	idtext0016	et	#####	spk1	37.01	37.04	0.01	_
20091112_RATP_SCD_0449	8	25	il	NULL	cln	NULL	B_GN	SUJ_IMP	26	idtext0016	cln	#3#m#s##	spk1	37.05	37.14	0.01	_
20091112_RATP_SCD_0449	8	26	faudrait	NULL	v	NULL	B_GVf	DEP_COORD	24	idtext0016	falloir	C#3##s##	spk1	37.15	37.41	0.01	_
20091112_RATP_SCD_0449	8	27	que	NULL	csu	NULL	B_NULL	OBJ	26	idtext0016	que	#####	spk1	37.42	37.45	0.01	_
20091112_RATP_SCD_0449	8	28	vous	NULL	cln	NULL	B_GN	SUJ	30	idtext0016	cln	#2##p##	spk1	37.46	37.56	0.01	_
20091112_RATP_SCD_0449	8	29	y	NULL	clo	NULL	B_GN	P_OBJ_LOC	30	idtext0016	y	#####	spk1	37.57	37.66	0.01	_
20091112_RATP_SCD_0449	8	30	soyez	NULL	v	NULL	B_GVf	OBJ	27	idtext0016	être	S#2##p##	spk1	37.67	37.94	0.01	_
20091112_RATP_SCD_0449	8	31	pour	NULL	prep	NULL	B_GP	P_OBJ	30	idtext0016	pour	#####	spk1	37.95	38.11	0.01	_
20091112_RATP_SCD_0449	8	32	onze	NULL	det	B_H	I_GP	DET	33	idtext0016	onze	#####	spk1	38.12	38.27	0.01	_
20091112_RATP_SCD_0449	8	33	heures	NULL	nc	I_H	I_GP	OBJ	31	idtext0016	heure	##f#p##	spk1	38.28	38.4	0.01	_
20091112_RATP_SCD_0449	8	34	trente	NULL	adj	I_H	I_GP	MOD	33	idtext0016	trente	#####	spk1	38.41	38.8	0.01	/
20091112_RATP_SCD_0449	8	35	c'	NULL	cln	NULL	B_GN	SUJ_IMP	36	idtext0016	ce	###s##	spk1	38.81	38.83	0.01	_
20091112_RATP_SCD_0449	8	36	est	NULL	v	NULL	B_GVf	ROOT	0	idtext0016	être	P#3##s##	spk1	38.84	38.87	0.01	_
20091112_RATP_SCD_0449	8	37	ça	NULL	pro	NULL	B_GN	ATS	36	idtext0016	ça	#####	spk1	38.88	39.15	?	_

20091112_RATP_SCD_0449	9	1	c'	NULL	cln	NULL	B_GN	SUJ_IMP	2	idtext0017	ce	###s##	spk2	39.7	39.72	0.01	_
20091112_RATP_SCD_0449	9	2	est	NULL	v	NULL	B_GVf	ROOT	0	idtext0017	être	P#3##s##	spk2	39.73	39.81	0.01	_
20091112_RATP_SCD_0449	9	3	ça	NULL	pro	NULL	B_GN	ATS	2	idtext0017	ça	#####	spk2	39.82	40.14	?	_

20091112_RATP_SCD_0449	10	1	et	NULL	coo	NULL	B_NULL	ROOT	0	idtext0018	et	#####	spk1	40.31	40.4	0.01	_
20091112_RATP_SCD_0449	10	2	ce	NULL	cln	NULL	B_GN	SUJ_IMP	3	idtext0018	ce	#####	spk1	40.41	40.58	0.01	_
20091112_RATP_SCD_0449	10	3	serait	NULL	v	NULL	B_GVf	DEP_COORD	1	idtext0018	être	C#3##s##	spk1	40.59	40.75	0.01	_
20091112_RATP_SCD_0449	10	4	pour	NULL	prep	NULL	B_GP	ATS	3	idtext0018	pour	#####	spk1	40.76	40.9	0.01	_
20091112_RATP_SCD_0449	10	5	un	NULL	det	NULL	I_GP	DET	6	idtext0018	un	##m#s##i	spk1	40.91	40.98	0.01	_
20091112_RATP_SCD_0449	10	6	samedi	NULL	nc	NULL	I_GP	OBJ	4	idtext0018	samedi	##m#s##	spk1	40.99	41.63	?	//

20091112_RATP_SCD_0449	11	1	c'	NULL	cln	NULL	B_GN	SUJ_IMP	2	idtext0019	ce	###s##	spk2	42.12	42.14	0.01	_
20091112_RATP_SCD_0449	11	2	est	NULL	v	NULL	B_GVf	ROOT	0	idtext0019	être	P#3##s##	spk2	42.15	42.46	?	//

20091112_RATP_SCD_0449	12	1	d'accord	NULL	adv	NULL	B_GADV	NOLINK	0	idtext0020	d'accord	#####	spk1	43.0	43.55	0.04	_
20091112_RATP_SCD_0449	12	2	je	NULL	cln	NULL	B_GN	SUJ	3	idtext0021	cln	#1##s##	spk1	43.59	43.71	0.01	_
20091112_RATP_SCD_0449	12	3	recherche	NULL	v	NULL	B_GVf	ROOT	0	idtext0021	rechercher	PS#13##s##	spk1	43.72	44.13	0.01	_
20091112_RATP_SCD_0449	12	4	l'	NULL	det	NULL	B_GN	DET	5	idtext0021	le	###s##d	spk1	44.14	44.16	0.01	_
20091112_RATP_SCD_0449	12	5	itinéraire	NULL	nc	NULL	I_GN	OBJ	3	idtext0021	itinéraire	##m#s##	spk1	44.17	44.73	0.01	_
20091112_RATP_SCD_0449	12	6	un	NULL	det	NULL	B_GN	DET	7	idtext0021	un	##m#s##i	spk1	44.74	44.87	0.01	_
20091112_RATP_SCD_0449	12	7	instant	NULL	nc	NULL	I_GN	ROOT	0	idtext0021	instant	##m#s##	spk1	44.88	45.27	0.14	_
20091112_RATP_SCD_0449	12	8	s'il+vous+plaît	NULL	adv	NULL	B_GADV	NOLINK	0	idtext0022	s'il+vous+plaît	#####	spk1	45.41	45.99	?	//

20091112_RATP_SCD_0449	13	1	d'accord	NULL	adv	NULL	B_GADV	NOLINK	0	idtext0023	d'accord	#####	spk2	46.46	47.31	?	//

20091112_RATP_SCD_0449	14	1	madame	NULL	nc	NULL	B_GN	NOLINK	0	idtext0024	Monsieur	##f#s##	spk1	68.28	69.04	?	//

20091112_RATP_SCD_0449	15	1	du+côté+de	NULL	prep	NULL	B_NULL	NOLINK	0	idtext0025	du+côté+de	#####	spk1	69.42	69.81	?	_

20091112_RATP_SCD_0449	16	1	oui	NULL	adv	NULL	B_GADV	NOLINK	0	idtext0026	oui	#####	spk2	69.34	69.81	?	//

20091112_RATP_SCD_0449	17	1	Levallois	NULL	nc	B_A	B_GN	NOLINK	0	idtext0027	Levallois	#####	spk1	69.86	70.34	0.01	_
20091112_RATP_SCD_0449	17	2	vous	NULL	cln	NULL	B_GN	SUJ	3	idtext0027	cln	#2##p##	spk1	70.35	70.51	0.01	_
20091112_RATP_SCD_0449	17	3	partirez	NULL	v	NULL	B_GVf	ROOT	0	idtext0027	partir	F#2##p##	spk1	70.52	71.0	0.01	_
20091112_RATP_SCD_0449	17	4	d'où	NULL	adv	NULL	B_GADV	MOD	3	idtext0027	d'où	#####	spk1	71.01	71.69	?	_

20091112_RATP_SCD_0449	18	1	le	NULL	det	NULL	B_NULL	NOLINK	0	idtext0028	le	##m#s##d	spk2	71.85	72.07	?	//

20091112_RATP_SCD_0449	19	1	du+côté+de	NULL	prep	NULL	B_GP	MOD	6	idtext0029	du+côté+de	#####	spk1	72.08	72.08	0.00	_
20091112_RATP_SCD_0449	19	2	Levallois	NULL	nc	B_A	I_GP	OBJ	1	idtext0029	Levallois	#####	spk1	72.08	72.08	0.00	_
20091112_RATP_SCD_0449	19	3	vous	NULL	cln	NULL	B_GN	SUJ	5	idtext0029	cln	#2##p##	spk1	72.08	72.08	0.00	_
20091112_RATP_SCD_0449	19	4	vous	NULL	clr	NULL	B_GVf	AFF	5	idtext0029	cln	#2##p##	spk1	72.08	72.08	0.00	_
20091112_RATP_SCD_0449	19	5	situez	NULL	v	NULL	I_GVf	ROOT	0	idtext0029	situer	P#2##p##	spk1	72.08	72.08	0.00	_
20091112_RATP_SCD_0449	19	6	où	NULL	adv	NULL	B_GADV	P_OBJ_LOC	5	idtext0029	où	#####	spk1	72.08	72.38	?	_

20091112_RATP_SCD_0449	20	1	je	DISF_R	cln	NULL	NULL	NOLINK	0	idtext0030	cln	#1##s##	spk2	74.7	75.21	0.01	_
20091112_RATP_SCD_0449	20	2	je	NULL	cln	NULL	B_GN	SUJ	3	idtext0030	cln	#1##s##	spk2	75.22	75.5	0.01	_
20091112_RATP_SCD_0449	20	3	suis	NULL	v	NULL	B_GVf	ROOT	0	idtext0030	être	P#1##s##	spk2	75.51	76.08	0.01	_
20091112_RATP_SCD_0449	20	4	au+niveau+de	NULL	prep	NULL	B_GP	P_OBJ_LOC	3	idtext0031	au+niveau+de	#####	spk2	76.09	76.68	0.01	_
20091112_RATP_SCD_0449	20	5	l'	NULL	det	NULL	I_GP	DET	6	idtext0031	le	###s##d	spk2	76.69	76.72	0.01	_
20091112_RATP_SCD_0449	20	6	avenue	NULL	nc	B_A	I_GP	OBJ	4	idtext0031	avenue	##f#s##	spk2	76.73	76.95	0.01	_
20091112_RATP_SCD_0449	20	7	de	NULL	prep	I_A	I_GP	DEP	6	idtext0031	de	#####	spk2	76.96	76.99	0.01	_
20091112_RATP_SCD_0449	20	8	la	NULL	det	I_A	I_GP	DET	9	idtext0031	le	##m#s##d	spk2	77.0	77.08	0.01	_
20091112_RATP_SCD_0449	20	9	Libération	NULL	np	I_A	I_GP	OBJ	7	idtext0031	Libération	#####	spk2	77.09	77.88	0.01	_
20091112_RATP_SCD_0449	20	10	si	NULL	csu	NULL	B_NULL	MOD	3	idtext0031	si	#####	spk2	77.89	77.99	0.01	_
20091112_RATP_SCD_0449	20	11	vous	NULL	cln	NULL	B_GN	SUJ	12	idtext0031	cln	#2##p##	spk2	78.0	78.08	0.01	_
20091112_RATP_SCD_0449	20	12	voulez	NULL	v	NULL	B_GVf	OBJ	10	idtext0031	vouloir	P#2##p##	spk2	78.09	78.42	?	//

20091112_RATP_SCD_0449	21	1	alors	NULL	adv	NULL	B_GADV	NOLINK	0	idtext0032	alors	#####	spk1	78.67	79.15	0.01	_
20091112_RATP_SCD_0449	21	2	au+niveau+de	NULL	prep	NULL	B_NULL	NOLINK	0	idtext0032	au+niveau+de	#####	spk1	79.16	79.51	0.01	_
20091112_RATP_SCD_0449	21	3	la	NULL	det	NULL	B_NULL	NOLINK	0	idtext0032	le	##m#s##d	spk1	79.52	79.76	?	_

20091112_RATP_SCD_0449	22	1	oh	DISF_M	pres	NULL	NULL	NOLINK	0	idtext0033	oh	#####	spk2	79.92	80.23	?	//

20091112_RATP_SCD_0449	23	1	de	NULL	prep	NULL	B_NULL	NOLINK	0	idtext0034	de	#####	spk1	79.91	80.02	0.01	_
20091112_RATP_SCD_0449	23	2	la	NULL	det	NULL	B_NULL	NOLINK	0	idtext0034	le	##m#s##d	spk1	80.03	80.11	0.01	_
20091112_RATP_SCD_0449	23	3	Li()	DISF_T	tronc	NULL	NULL	NOLINK	0	idtext0034	Li()	#####	spk1	80.12	80.23	?	//

20091112_RATP_SCD_0449	24	1	oh	DISF_M	pres	NULL	NULL	NOLINK	0	idtext0035	oh	#####	spk2	80.29	80.36	0.01	_
20091112_RATP_SCD_0449	24	2	y	NULL	clo	NULL	B_GN	AFF	3	idtext0035	y	#####	spk2	80.37	80.42	0.01	_
20091112_RATP_SCD_0449	24	3	a	NULL	v	NULL	B_GVf	ROOT	0	idtext0035	avoir	P#3##s##	spk2	80.43	80.54	0.01	_
20091112_RATP_SCD_0449	24	4	plus	NULL	adv	NULL	B_GADV	MOD	3	idtext0035	plus	#####	spk2	80.55	80.8	0.01	_
20091112_RATP_SCD_0449	24	5	oh	DISF_M	pres	NULL	NULL	NOLINK	0	idtext0035	oh	#####	spk2	80.81	80.95	0.01	_
20091112_RATP_SCD_0449	24	6	de	NULL	prep	NULL	B_GP	DEP	4	idtext0035	de	#####	spk2	80.96	80.99	0.01	_
20091112_RATP_SCD_0449	24	7	la	NULL	det	NULL	I_GP	DET	8	idtext0035	le	##m#s##d	spk2	81.0	81.2	0.01	_
20091112_RATP_SCD_0449	24	8	Place+de+la+Libération	NULL	nc	B_A	I_GP	OBJ	6	idtext0035	Place+de+la+Libération	#####	spk2	81.21	82.64	?	//

20091112_RATP_SCD_0449	25	1	d'accord	NULL	adv	NULL	B_GADV	NOLINK	0	idtext0036	d'accord	#####	spk1	83.74	84.06	?	//

20091112_RATP_SCD_0449	26	1	eh	DISF_M	pres	NULL	NULL	NOLINK	0	idtext0037	eh	#####	spk2	84.38	84.59	0.01	_
20091112_RATP_SCD_0449	26	2	c'est-à-dire	NULL	coo	NULL	B_NULL	ROOT	0	idtext0037	c'est-à-dire	#####	spk2	84.6	85.14	0.01	_
20091112_RATP_SCD_0449	26	3	oui	NULL	adv	NULL	B_GADV	NOLINK	0	idtext0037	oui	#####	spk2	85.15	85.43	0.01	_
20091112_RATP_SCD_0449	26	4	euh	DISF_M	pres	NULL	NULL	NOLINK	0	idtext0037	euh	#####	spk2	85.44	85.8	0.01	_
20091112_RATP_SCD_0449	26	5	à	NULL	prep	NULL	B_GP	DEP_COORD	2	idtext0037	à	#####	spk2	85.81	85.97	0.01	_
20091112_RATP_SCD_0449	26	6	la	NULL	det	NULL	I_GP	DET	7	idtext0037	le	##m#s##d	spk2	85.98	86.07	0.01	_
20091112_RATP_SCD_0449	26	7	limite	NULL	nc	NULL	I_GP	OBJ	5	idtext0037	limite	##f#s##	spk2	86.08	86.85	0.01	_
20091112_RATP_SCD_0449	26	8	euh	DISF_M	pres	NULL	NULL	NOLINK	0	idtext0037	euh	#####	spk2	86.86	87.62	?	//

20091112_RATP_SCD_0449	27	1	avenue	NULL	nc	B_A	B_GN	NOLINK	0	idtext0038	avenue	##f#s##	spk1	87.66	87.93	0.01	_
20091112_RATP_SCD_0449	27	2	de	NULL	prep	I_A	I_GN	DEP	1	idtext0038	de	#####	spk1	87.94	87.96	0.01	_
20091112_RATP_SCD_0449	27	3	la	NULL	det	I_A	I_GN	DET	4	idtext0038	le	##m#s##d	spk1	87.97	88.09	0.01	_
20091112_RATP_SCD_0449	27	4	Libération	NULL	np	I_A	I_GN	OBJ	2	idtext0038	Libération	#####	spk1	88.1	88.82	0.04	_
20091112_RATP_SCD_0449	27	5	d'accord	NULL	adv	NULL	B_GADV	NOLINK	0	idtext0039	d'accord	#####	spk1	88.86	89.23	?	//

20091112_RATP_SCD_0449	28	1	vous	NULL	cln	NULL	B_GN	SUJ	2	idtext0040	cln	#2##p##	spk2	89.37	89.42	0.01	_
20091112_RATP_SCD_0449	28	2	voyez	NULL	v	NULL	B_GVf	ROOT	0	idtext0040	voir	P#2##p##	spk2	89.43	89.84	?	//

20091112_RATP_SCD_0449	29	1	d'accord	NULL	adv	NULL	B_GADV	NOLINK	0	idtext0041	d'accord	#####	spk1	89.99	90.5	0.01	_
20091112_RATP_SCD_0449	29	2	je	NULL	cln	NULL	B_GN	SUJ	3	idtext0041	cln	#1##s##	spk1	90.51	90.64	0.01	_
20091112_RATP_SCD_0449	29	3	recherche	NULL	v	NULL	B_GVf	ROOT	0	idtext0041	rechercher	PS#13##s##	spk1	90.65	91.43	?	//

20091112_RATP_SCD_0449	30	1	c'	NULL	cln	NULL	B_GN	SUJ_IMP	2	idtext0042	ce	###s##	spk2	90.04	90.13	0.01	_
20091112_RATP_SCD_0449	30	2	est	NULL	v	NULL	B_GVfn	ROOT	0	idtext0042	être	P#3##s##	spk2	90.14	90.22	0.01	_
20091112_RATP_SCD_0449	30	3	pas	NULL	advneg	NULL	I_GVfn	MOD	2	idtext0042	pas	#####	spk2	90.23	90.59	0.01	_
20091112_RATP_SCD_0449	30	4	l'	NULL	det	NULL	B_GN	DET	5	idtext0042	le	###s##d	spk2	90.6	90.63	0.01	_
20091112_RATP_SCD_0449	30	5	avenue	NULL	nc	NULL	I_GN	ATS	2	idtext0042	avenue	##f#s##	spk2	90.64	90.87	0.01	_
20091112_RATP_SCD_0449	30	6	hein	DISF_M	pres	NULL	NULL	NOLINK	0	idtext0042	hein	#####	spk2	90.88	90.95	0.01	_
20091112_RATP_SCD_0449	30	7	c'	NULL	cln	NULL	B_GN	SUJ_IMP	8	idtext0042	ce	###s##	spk2	90.96	90.99	0.01	_
20091112_RATP_SCD_0449	30	8	est	NULL	v	NULL	B_GVf	ROOT	0	idtext0042	être	P#3##s##	spk2	91.0	91.21	0.01	_
20091112_RATP_SCD_0449	30	9	la	NULL	det	NULL	B_NULL	ATS	8	idtext0042	le	##m#s##d	spk2	91.22	91.43	?	_

20091112_RATP_SCD_0449	31	1	place	NULL	nc	NULL	B_GN	ROOT	0	idtext0043	place	##f#s##	spk2	91.48	91.77	0.01	//
20091112_RATP_SCD_0449	31	2	hein	DISF_M	pres	NULL	NULL	NOLINK	0	idtext0043	hein	#####	spk2	91.78	91.85	0.01	_
20091112_RATP_SCD_0449	31	3	de	NULL	prep	NULL	B_GP	DEP	1	idtext0043	de	#####	spk2	91.86	91.91	0.01	_
20091112_RATP_SCD_0449	31	4	la	NULL	det	NULL	I_GP	DET	5	idtext0043	le	##m#s##d	spk2	91.92	92.04	0.01	_
20091112_RATP_SCD_0449	31	5	Libération	NULL	nc	B_A	I_GP	OBJ	3	idtext0043	Libération	#####	spk2	92.05	92.67	?	//

20091112_RATP_SCD_0449	32	1	exactement	NULL	adv	NULL	B_GADV	NOLINK	0	idtext0044	exactement	#####	spk1	92.82	93.42	0.01	_
20091112_RATP_SCD_0449	32	2	c'	NULL	cln	NULL	B_GN	SUJ_IMP	3	idtext0044	ce	###s##	spk1	93.43	93.49	0.01	_
20091112_RATP_SCD_0449	32	3	est	NULL	v	NULL	B_GVf	ROOT	0	idtext0044	être	P#3##s##	spk1	93.5	93.55	0.01	_
20091112_RATP_SCD_0449	32	4	la	NULL	det	NULL	B_GN	DET	5	idtext0044	le	##m#s##d	spk1	93.56	93.67	0.01	_
20091112_RATP_SCD_0449	32	5	place	NULL	nc	NULL	I_GN	ATS	3	idtext0044	place	##f#s##	spk1	93.68	93.9	0.01	_
20091112_RATP_SCD_0449	32	6	dans	NULL	prep	NULL	B_GP	P_OBJ_LOC	5	idtext0044	dans	#####	spk1	93.91	94.01	0.01	_
20091112_RATP_SCD_0449	32	7	Levallois	NULL	nc	B_A	I_GP	OBJ	6	idtext0044	Levallois	#####	spk1	94.02	94.45	0.01	_
20091112_RATP_SCD_0449	32	8	c'	NULL	cln	NULL	B_GN	SUJ_IMP	9	idtext0044	ce	###s##	spk1	94.46	94.56	0.01	_
20091112_RATP_SCD_0449	32	9	est	NULL	v	NULL	B_GVf	ROOT	0	idtext0044	être	P#3##s##	spk1	94.57	94.65	0.01	_
20091112_RATP_SCD_0449	32	10	vrai	NULL	adj	NULL	B_GADJ	ATS	9	idtext0044	vrai	##m#s##	spk1	94.66	94.87	?	//

20091112_RATP_SCD_0449	33	1	c'	NULL	cln	NULL	B_GN	SUJ_IMP	2	idtext0045	ce	###s##	spk2	94.95	94.97	0.01	_
20091112_RATP_SCD_0449	33	2	est	NULL	v	NULL	B_GVf	ROOT	0	idtext0045	être	P#3##s##	spk2	94.98	95.18	0.01	_
20091112_RATP_SCD_0449	33	3	le	DISF_R	det	NULL	NULL	NOLINK	0	idtext0045	le	##m#s##d	spk2	95.19	95.29	0.01	_
20091112_RATP_SCD_0449	33	4	début	DISF_R	nc	NULL	NULL	NOLINK	0	idtext0045	début	##m#s##	spk2	95.3	95.68	0.01	_
20091112_RATP_SCD_0449	33	5	le	NULL	det	NULL	B_GN	DET	6	idtext0045	le	##m#s##d	spk2	95.69	95.71	0.01	_
20091112_RATP_SCD_0449	33	6	début	NULL	nc	NULL	I_GN	ATS	2	idtext0045	début	##m#s##	spk2	95.72	96.0	0.01	_
20091112_RATP_SCD_0449	33	7	de	NULL	prep	NULL	B_GP	DEP	6	idtext0045	de	#####	spk2	96.01	96.06	0.01	_
20091112_RATP_SCD_0449	33	8	la	NULL	det	NULL	I_GP	DET	9	idtext0045	le	##m#s##d	spk2	96.07	96.23	0.01	_
20091112_RATP_SCD_0449	33	9	rue	NULL	nc	B_A	I_GP	OBJ	7	idtext0045	rue	##f#s##	spk2	96.24	96.29	0.01	_
20091112_RATP_SCD_0449	33	10	Paul+Vaillant-Couturier	NULL	np	I_A	I_GP	MOD	9	idtext0045	Paul+Vaillant-Couturier	#####	spk2	96.3	97.31	0.01	_
20091112_RATP_SCD_0449	33	11	en+somme	NULL	adv	NULL	B_GADV	MOD	2	idtext0045	en+somme	#####	spk2	97.32	97.86	?	_

20091112_RATP_SCD_0449	34	1	tout+à+fait	NULL	adv	NULL	B_GADV	NOLINK	0	idtext0046	tout+à+fait	#####	spk1	97.97	98.52	?	//

20091112_RATP_SCD_0449	35	1	je	NULL	cln	NULL	B_GN	NOLINK	0	idtext0047	cln	#1##s##	spk1	99.09	99.3	?	_

20091112_RATP_SCD_0449	36	1	et	NULL	coo	NULL	B_NULL	NOLINK	0	idtext0048	et	#####	spk2	99.07	99.16	0.01	_
20091112_RATP_SCD_0449	36	2	de	NULL	prep	NULL	B_NULL	NOLINK	0	idtext0048	de	#####	spk2	99.17	99.3	?	_

20091112_RATP_SCD_0449	37	1	là	NULL	adv	NULL	B_GADV	NOLINK	0	idtext0049	là	#####	spk2	99.34	99.5	0.01	_
20091112_RATP_SCD_0449	37	2	je	NULL	cln	NULL	B_GN	SUJ	3	idtext0049	cln	#1##s##	spk2	99.51	99.54	0.01	_
20091112_RATP_SCD_0449	37	3	voudrais	NULL	v	NULL	B_GVf	ROOT	0	idtext0049	vouloir	C#12##s##	spk2	99.55	99.78	0.01	_
20091112_RATP_SCD_0449	37	4	aller	NULL	vinf	NULL	I_GVf	OBJ	3	idtext0049	aller	W#####	spk2	99.79	100.18	0.01	_
20091112_RATP_SCD_0449	37	5	j'	NULL	cln	NULL	B_GN	SUJ	6	idtext0049	cln	#1##s##	spk2	100.19	100.25	0.01	_
20091112_RATP_SCD_0449	37	6	ai	NULL	v	NULL	B_GVf	ROOT	0	idtext0049	avoir	P#1##s##	spk2	100.26	100.51	0.01	_
20091112_RATP_SCD_0449	37	7	samedi	NULL	nc	NULL	B_GN	OBJ	6	idtext0049	samedi	##m#s##	spk2	100.52	100.91	0.01	/
20091112_RATP_SCD_0449	37	8	j'	NULL	cln	NULL	B_GN	SUJ	9	idtext0049	cln	#1##s##	spk2	100.92	100.94	0.01	_
20091112_RATP_SCD_0449	37	9	ai	NULL	v	NULL	B_GVf	ROOT	0	idtext0049	avoir	P#1##s##	spk2	100.95	100.97	0.01	_
20091112_RATP_SCD_0449	37	10	rendez-vous	NULL	nc	NULL	B_GN	OBJ	9	idtext0049	rendez-vous	##m###	spk2	100.98	101.44	0.01	_
20091112_RATP_SCD_0449	37	11	à	NULL	prep	NULL	B_GP	MOD	9	idtext0049	à	#####	spk2	101.45	101.5	0.01	_
20091112_RATP_SCD_0449	37	12	onze	NULL	det	B_H	I_GP	DET	13	idtext0049	onze	#####	spk2	101.51	101.99	0.01	_
20091112_RATP_SCD_0449	37	13	heures	NULL	nc	I_H	I_GP	OBJ	11	idtext0049	heure	##f#p##	spk2	102.0	102.09	0.20	_
20091112_RATP_SCD_0449	37	14	au	NULL	prep	NULL	B_GP	MOD	25	idtext0050	au	#####	spk2	102.29	102.51	0.01	_
20091112_RATP_SCD_0449	37	15	cent+trente	NULL	nc	NULL	I_GP	OBJ	14	idtext0050	cent+trente	#####	spk2	102.52	103.08	0.01	_
20091112_RATP_SCD_0449	37	16	avenue	NULL	nc	I_A	I_GP	MOD	15	idtext0050	avenue	##f#s##	spk2	103.09	103.35	0.01	_
20091112_RATP_SCD_0449	37	17	de	NULL	prep	I_A	I_GP	DEP	16	idtext0050	de	#####	spk2	103.36	103.4	0.01	_
20091112_RATP_SCD_0449	37	18	la	NULL	det	I_A	I_GP	DET	19	idtext0050	le	##m#s##d	spk2	103.41	103.5	0.01	_
20091112_RATP_SCD_0449	37	19	République	NULL	np	I_A	I_GP	OBJ	17	idtext0050	République	#####	spk2	103.51	104.06	0.01	_
20091112_RATP_SCD_0449	37	20	à	NULL	prep	NULL	B_GP	MOD	24	idtext0050	à	#####	spk2	104.07	104.12	0.01	_
20091112_RATP_SCD_0449	37	21	Paris	NULL	nc	B_A	I_GP	OBJ	20	idtext0050	Paris	##m#s##	spk2	104.13	104.89	0.01	//
20091112_RATP_SCD_0449	37	22	on	NULL	cln	NULL	B_GN	SUJ_IMP	24	idtext0051	cln	#3##s##	spk2	104.9	105.06	0.01	_
20091112_RATP_SCD_0449	37	23	m'	NULL	clo	NULL	B_GN	A_OBJ	24	idtext0051	cla	#1##s##	spk2	105.07	105.09	0.01	_
20091112_RATP_SCD_0449	37	24	indique	NULL	v	NULL	B_GVf	ROOT	0	idtext0051	indiquer	PS#13##s##	spk2	105.1	105.41	0.01	_
20091112_RATP_SCD_0449	37	25	la	NULL	det	NULL	B_GN	DET	26	idtext0051	le	##m#s##d	spk2	105.42	105.51	0.01	_
20091112_RATP_SCD_0449	37	26	station	NULL	nc	B_A	I_GN	OBJ	24	idtext0051	station	##f#s##	spk2	105.52	105.89	0.01	_
20091112_RATP_SCD_0449	37	27	de	NULL	prep	I_A	I_GN	DEP	26	idtext0051	de	#####	spk2	105.9	105.92	0.01	_
20091112_RATP_SCD_0449	37	28	métro	NULL	nc	I_A	I_GN	OBJ	27	idtext0051	métro	##m#s##	spk2	105.93	106.36	0.01	_
20091112_RATP_SCD_0449	37	29	Père-Lachaise	NULL	np	I_A	I_GN	MOD	26	idtext0051	Père-Lachaise	#####	spk2	106.37	107.37	?	//

20091112_RATP_SCD_0449	38	1	mais	NULL	coo	NULL	B_NULL	NOLINK	0	idtext0052	mais	#####	spk2	107.56	107.76	0.01	_
20091112_RATP_SCD_0449	38	2	moi	NULL	pro	NULL	B_GN	NOLINK	0	idtext0052	moi	#####	spk2	107.77	107.93	0.01	_
20091112_RATP_SCD_0449	38	3	à	NULL	prep	NULL	B_GP	ROOT	0	idtext0052	à	#####	spk2	107.94	108.01	0.01	_
20091112_RATP_SCD_0449	38	4	quatre-vingt-dix	NULL	det	NULL	I_GP	DET	5	idtext0052	quatre-vingt-dix	#####	spk2	108.02	108.64	0.01	_
20091112_RATP_SCD_0449	38	5	ans	NULL	nc	NULL	I_GP	OBJ	3	idtext0052	an	##m#p##	spk2	108.65	108.77	?	//

20091112_RATP_SCD_0449	39	1	alors	NULL	adv	NULL	B_GADV	NOLINK	0	idtext0053	alors	#####	spk1	107.6	108.77	?	//

20091112_RATP_SCD_0449	40	1	je	NULL	cln	NULL	B_GN	SUJ	3	idtext0054	cln	#1##s##	spk2	108.81	108.88	0.01	_
20091112_RATP_SCD_0449	40	2	ne	NULL	clneg	NULL	B_GVfn	MOD	3	idtext0054	ne	#####	spk2	108.89	108.99	0.01	_
20091112_RATP_SCD_0449	40	3	veux	NULL	v	NULL	I_GVfn	ROOT	0	idtext0054	vouloir	P#12##s##	spk2	109.0	109.12	0.01	_
20091112_RATP_SCD_0449	40	4	plus	NULL	advneg	NULL	B_GVin	MOD	5	idtext0054	plus	#####	spk2	109.13	109.31	0.01	_
20091112_RATP_SCD_0449	40	5	prendre	NULL	vinf	NULL	I_GVin	OBJ	3	idtext0054	prendre	W#####	spk2	109.32	109.52	0.01	_
20091112_RATP_SCD_0449	40	6	le	NULL	det	NULL	B_GN	DET	7	idtext0054	le	##m#s##d	spk2	109.53	109.65	0.01	_
20091112_RATP_SCD_0449	40	7	métro	NULL	nc	NULL	I_GN	OBJ	5	idtext0054	métro	##m#s##	spk2	109.66	110.37	?	//

20091112_RATP_SCD_0449	41	1	à+cause+des	NULL	prep	NULL	B_GP	ROOT	0	idtext0055	à+cause+des	#####	spk2	110.76	111.73	0.01	_
20091112_RATP_SCD_0449	41	2	escaliers	NULL	nc	NULL	I_GP	OBJ	1	idtext0055	escalier	##m#p##	spk2	111.74	112.34	0.53	/
20091112_RATP_SCD_0449	41	3	alors	NULL	adv	NULL	B_GADV	NOLINK	0	idtext0057	alors	#####	spk2	112.87	113.2	0.01	_
20091112_RATP_SCD_0449	41	4	euh	DISF_M	pres	NULL	NULL	NOLINK	0	idtext0057	euh	#####	spk2	113.21	113.58	?	//

20091112_RATP_SCD_0449	42	1	ah	DISF_M	pres	NULL	NULL	NOLINK	0	idtext0056	ah	#####	spk1	110.72	110.74	0.01	_
20091112_RATP_SCD_0449	42	2	oui	DISF_R	adv	NULL	NULL	NOLINK	0	idtext0056	oui	#####	spk1	110.75	111.09	0.01	_
20091112_RATP_SCD_0449	42	3	oui	DISF_R	adv	NULL	NULL	NOLINK	0	idtext0056	oui	#####	spk1	111.1	111.22	0.01	_
20091112_RATP_SCD_0449	42	4	oui	NULL	adv	NULL	B_GADV	NOLINK	0	idtext0056	oui	#####	spk1	111.23	111.41	0.01	_
20091112_RATP_SCD_0449	42	5	je	NULL	cln	NULL	B_GN	SUJ	6	idtext0056	cln	#1##s##	spk1	111.42	111.57	0.01	_
20091112_RATP_SCD_0449	42	6	comprends	NULL	v	NULL	B_GVf	ROOT	0	idtext0056	comprendre	P#12##s##	spk1	111.58	112.34	0.53	_
20091112_RATP_SCD_0449	42	7	oui	DISF_R	adv	NULL	NULL	NOLINK	0	idtext0058	oui	#####	spk1	112.87	113.11	0.01	_
20091112_RATP_SCD_0449	42	8	oui	DISF_R	adv	NULL	NULL	NOLINK	0	idtext0058	oui	#####	spk1	113.12	113.25	0.01	_
20091112_RATP_SCD_0449	42	9	oui	NULL	adv	NULL	B_GADV	NOLINK	0	idtext0058	oui	#####	spk1	113.26	113.58	?	_

20091112_RATP_SCD_0449	43	1	je	NULL	cln	NULL	B_GN	SUJ	2	idtext0059	cln	#1##s##	spk2	113.62	113.64	0.01	_
20091112_RATP_SCD_0449	43	2	voudrais	NULL	v	NULL	B_GVf	ROOT	0	idtext0059	vouloir	C#12##s##	spk2	113.65	113.81	0.01	_
20091112_RATP_SCD_0449	43	3	savoir	NULL	vinf	NULL	I_GVf	OBJ	2	idtext0059	savoir	W#####	spk2	113.82	114.11	0.01	_
20091112_RATP_SCD_0449	43	4	qu'est-ce+qu'	NULL	pri	NULL	B_NULL	OBJ	2	idtext0059	qu'est-ce+qu'	#####	spk2	114.12	114.46	0.01	_
20091112_RATP_SCD_0449	43	5	y	NULL	clo	NULL	B_GN	AFF	6	idtext0059	y	#####	spk2	114.47	114.54	0.01	_
20091112_RATP_SCD_0449	43	6	a	NULL	v	NULL	B_GVf	OBJ	4	idtext0059	avoir	P#3##s##	spk2	114.55	114.58	0.01	_
20091112_RATP_SCD_0449	43	7	comme	NULL	adv	NULL	B_GADV	MOD	6	idtext0059	comme	#####	spk2	114.59	114.81	0.01	_
20091112_RATP_SCD_0449	43	8	autobus	NULL	nc	NULL	B_GN	OBJ	7	idtext0059	autobus	##m###	spk2	114.82	115.44	0.04	_
20091112_RATP_SCD_0449	43	9	ça	NULL	pro	NULL	B_GN	SUJ_IMP	11	idtext0060	ça	#####	spk2	115.48	115.69	0.01	_
20091112_RATP_SCD_0449	43	10	n'	NULL	clneg	NULL	B_GVfn	MOD	11	idtext0060	n'	#####	spk2	115.7	115.79	0.01	_
20091112_RATP_SCD_0449	43	11	est	NULL	v	NULL	I_GVfn	ROOT	0	idtext0060	être	P#3##s##	spk2	115.8	115.82	0.01	_
20091112_RATP_SCD_0449	43	12	sans+doute	NULL	adv	NULL	B_GADV	MOD	13	idtext0060	sans+doute	#####	spk2	115.83	116.22	0.01	_
20091112_RATP_SCD_0449	43	13	pas	NULL	advneg	NULL	B_NULL	MOD	11	idtext0060	pas	#####	spk2	116.23	116.33	0.01	_
20091112_RATP_SCD_0449	43	14	direct	NULL	adj	NULL	B_GADJ	ATS	11	idtext0060	direct	##m#s##	spk2	116.34	116.77	0.01	_
20091112_RATP_SCD_0449	43	15	mais	NULL	coo	NULL	B_NULL	COORD	11	idtext0060	mais	#####	spk2	116.78	116.87	0.01	_
20091112_RATP_SCD_0449	43	16	si	NULL	csu	NULL	B_NULL	MOD	28	idtext0060	si	#####	spk2	116.88	117.02	0.01	_
20091112_RATP_SCD_0449	43	17	y	NULL	clo	NULL	B_GN	AFF	19	idtext0060	y	#####	spk2	117.03	117.08	0.01	_
20091112_RATP_SCD_0449	43	18	en	NULL	clo	NULL	B_GN	OBJ	19	idtext0060	en	#####	spk2	117.09	117.21	0.01	_
20091112_RATP_SCD_0449	43	19	a	NULL	v	NULL	B_GVf	OBJ	16	idtext0060	avoir	P#3##s##	spk2	117.22	117.29	0.01	_
20091112_RATP_SCD_0449	43	20	deux	NULL	nc	NULL	B_GN	OBJ	19	idtext0060	deux	##m###	spk2	117.3	117.49	0.01	/
20091112_RATP_SCD_0449	43	21	qui	NULL	prorel	NULL	B_NULL	SUJ	23	idtext0060	qui	#####	spk2	117.5	117.63	0.01	_
20091112_RATP_SCD_0449	43	22	s'	NULL	clr	NULL	B_GVf	AFF	23	idtext0060	se	#3##p##	spk2	117.64	117.72	0.01	_
20091112_RATP_SCD_0449	43	23	enchaînent	NULL	v	NULL	I_GVf	MOD_REL	20	idtext0060	enchaîner	PS#3##p##	spk2	117.73	118.19	0.01	_
20091112_RATP_SCD_0449	43	24	bien	NULL	adv	NULL	B_GADV	MOD	23	idtext0060	bien	#####	spk2	118.2	118.46	0.01	_
20091112_RATP_SCD_0449	43	25	ça	DISF_R	pro	NULL	NULL	NOLINK	0	idtext0060	ça	#####	spk2	118.47	118.71	0.01	_
20091112_RATP_SCD_0449	43	26	ça	NULL	pro	NULL	B_GN	NOLINK	0	idtext0060	ça	#####	spk2	118.72	118.79	0.01	_
20091112_RATP_SCD_0449	43	27	vous	NULL	clo	NULL	B_GN	NOLINK	0	idtext0060	cln	#2##p##	spk2	118.8	118.91	0.01	_
20091112_RATP_SCD_0449	43	28	relaie	NULL	v	NULL	B_GVf	DEP_COORD	15	idtext0060	relayer	PS#13##s##	spk2	118.92	119.32	?	//

20091112_RATP_SCD_0449	44	1	tout+à+fait	NULL	adv	NULL	B_GADV	NOLINK	0	idtext0061	tout+à+fait	#####	spk1	119.41	119.99	0.06	_
20091112_RATP_SCD_0449	44	2	alors	NULL	adv	NULL	B_GADV	NOLINK	0	idtext0062	alors	#####	spk1	120.05	120.29	0.01	_
20091112_RATP_SCD_0449	44	3	je	NULL	cln	NULL	B_GN	SUJ	4	idtext0062	cln	#1##s##	spk1	120.3	120.42	0.01	_
20091112_RATP_SCD_0449	44	4	recherche	NULL	v	NULL	B_GVf	ROOT	0	idtext0062	rechercher	PS#13##s##	spk1	120.43	120.85	0.01	_
20091112_RATP_SCD_0449	44	5	dans+ces+cas-là	NULL	adv	NULL	B_GADV	MOD	4	idtext0062	dans+ces+cas-là	#####	spk1	120.86	121.37	0.01	_
20091112_RATP_SCD_0449	44	6	avenue	NULL	nc	B_A	B_GN	NOLINK	0	idtext0062	avenue	##f#s##	spk1	121.38	121.61	0.01	_
20091112_RATP_SCD_0449	44	7	de	NULL	prep	I_A	I_GN	DEP	6	idtext0062	de	#####	spk1	121.62	121.64	0.01	_
20091112_RATP_SCD_0449	44	8	la	NULL	det	I_A	I_GN	DET	9	idtext0062	le	##m#s##d	spk1	121.65	121.75	0.01	_
20091112_RATP_SCD_0449	44	9	République	NULL	np	I_A	I_GN	OBJ	7	idtext0062	République	#####	spk1	121.76	122.27	0.01	_
20091112_RATP_SCD_0449	44	10	le	NULL	det	NULL	B_GN	DET	11	idtext0062	le	##m#s##d	spk1	122.28	122.46	0.01	_
20091112_RATP_SCD_0449	44	11	cent+trente	NULL	nc	B_T	I_GN	OBJ	4	idtext0062	cent+trente	#####	spk1	122.47	123.34	?	//

20091112_RATP_SCD_0449	45	1	donc	NULL	coo	NULL	B_NULL	ROOT	0	idtext0063	donc	#####	spk1	153.95	154.18	0.01	_
20091112_RATP_SCD_0449	45	2	là	NULL	adv	NULL	B_GADV	DEP_COORD	1	idtext0063	là	#####	spk1	154.19	154.32	0.01	_
20091112_RATP_SCD_0449	45	3	pour	NULL	prep	NULL	B_GP	MOD	2	idtext0063	pour	#####	spk1	154.33	154.49	0.01	_
20091112_RATP_SCD_0449	45	4	être	NULL	vinf	NULL	I_GP	OBJ	3	idtext0063	être	W#####	spk1	154.5	154.69	0.01	_
20091112_RATP_SCD_0449	45	5	à	NULL	prep	NULL	B_GP	MOD	4	idtext0063	à	#####	spk1	154.7	154.81	0.01	_
20091112_RATP_SCD_0449	45	6	onze	NULL	det	B_H	I_GP	DET	7	idtext0063	onze	#####	spk1	154.82	154.98	0.01	_
20091112_RATP_SCD_0449	45	7	heures	NULL	nc	I_H	I_GP	OBJ	5	idtext0063	heure	##f#p##	spk1	154.99	155.13	0.01	_
20091112_RATP_SCD_0449	45	8	trente	NULL	adj	I_H	I_GP	MOD	7	idtext0063	trente	#####	spk1	155.14	155.54	0.01	_
20091112_RATP_SCD_0449	45	9	hein	DISF_M	pres	I_H	NULL	NOLINK	0	idtext0063	hein	#####	spk1	155.55	155.7	?	//

20091112_RATP_SCD_0449	46	1	au	NULL	prep	NULL	B_GP	ROOT	0	idtext0064	au	#####	spk1	155.86	155.89	0.01	_
20091112_RATP_SCD_0449	46	2	niveau	NULL	nc	NULL	I_GP	OBJ	1	idtext0064	niveau	##m#s##	spk1	155.9	156.28	?	//

20091112_RATP_SCD_0449	47	1	oui	NULL	adv	NULL	B_GADV	NOLINK	0	idtext0065	oui	#####	spk2	155.85	156.28	?	//

20091112_RATP_SCD_0449	48	1	de	NULL	prep	NULL	B_GP	ROOT	0	idtext0066	de	#####	spk1	156.32	156.48	0.01	_
20091112_RATP_SCD_0449	48	2	l'	NULL	det	NULL	I_GP	DET	3	idtext0066	le	###s##d	spk1	156.49	156.56	0.01	_
20091112_RATP_SCD_0449	48	3	avenue	NULL	nc	B_A	I_GP	OBJ	1	idtext0066	avenue	##f#s##	spk1	156.57	156.75	0.01	_
20091112_RATP_SCD_0449	48	4	de	NULL	prep	I_A	I_GP	DEP	3	idtext0066	de	#####	spk1	156.76	156.84	0.01	_
20091112_RATP_SCD_0449	48	5	la	NULL	det	I_A	I_GP	DET	6	idtext0066	le	##m#s##d	spk1	156.85	157.0	0.01	_
20091112_RATP_SCD_0449	48	6	République	NULL	np	I_A	I_GP	OBJ	4	idtext0066	République	#####	spk1	157.01	157.52	0.01	_
20091112_RATP_SCD_0449	48	7	là	NULL	adv	NULL	B_GADV	NOLINK	0	idtext0066	là	#####	spk1	157.53	157.61	0.01	_
20091112_RATP_SCD_0449	48	8	je	NULL	cln	NULL	B_GN	SUJ	10	idtext0066	cln	#1##s##	spk1	157.62	157.69	0.01	_
20091112_RATP_SCD_0449	48	9	vous	NULL	clo	NULL	B_GN	A_OBJ	10	idtext0066	cln	#2##p##	spk1	157.7	157.75	0.01	_
20091112_RATP_SCD_0449	48	10	propose	NULL	v	NULL	B_GVf	ROOT	0	idtext0066	proposer	PS#13##s##	spk1	157.76	158.14	0.01	_
20091112_RATP_SCD_0449	48	11	donc	NULL	coo	NULL	B_NULL	COORD	10	idtext0066	donc	#####	spk1	158.15	158.31	0.01	_
20091112_RATP_SCD_0449	48	12	d'	NULL	prep	NULL	B_GP	DEP_COORD	11	idtext0066	d'	#####	spk1	158.32	158.34	0.01	_
20091112_RATP_SCD_0449	48	13	emprunter	NULL	vinf	NULL	I_GP	OBJ	12	idtext0066	emprunter	W#####	spk1	158.35	158.75	0.01	_
20091112_RATP_SCD_0449	48	14	deux	NULL	adj	NULL	B_GN	MOD	15	idtext0066	deux	#####	spk1	158.76	158.87	0.01	_
20091112_RATP_SCD_0449	48	15	lignes	NULL	nc	NULL	I_GN	ROOT	0	idtext0066	ligne	##f#p##	spk1	158.88	159.05	0.01	_
20091112_RATP_SCD_0449	48	16	de	NULL	prep	NULL	B_GP	DEP	15	idtext0066	de	#####	spk1	159.06	159.21	0.01	_
20091112_RATP_SCD_0449	48	17	bus	NULL	nc	NULL	I_GP	OBJ	16	idtext0066	bus	##m###	spk1	159.22	159.48	?	//

20091112_RATP_SCD_0449	49	1	des	NULL	det	NULL	B_NULL	ROOT	0	idtext0067	des	###p##i	spk2	159.85	160.02	0.01	_
20091112_RATP_SCD_0449	49	2	n()	DISF_T	tronc	NULL	NULL	NOLINK	0	idtext0067	n()	#####	spk2	160.03	160.23	0.01	_
20091112_RATP_SCD_0449	49	3	d'	NULL	prep	NULL	B_GP	DEP	1	idtext0067	d'	#####	spk2	160.24	160.36	0.01	_
20091112_RATP_SCD_0449	49	4	emprunter	NULL	vinf	NULL	I_GP	OBJ	3	idtext0067	emprunter	W#####	spk2	160.37	161.04	?	_

20091112_RATP_SCD_0449	50	1	deux	NULL	adj	NULL	B_GN	MOD	2	idtext0068	deux	#####	spk1	161.22	161.36	0.01	_
20091112_RATP_SCD_0449	50	2	lignes	NULL	nc	NULL	I_GN	ROOT	0	idtext0068	ligne	##f#p##	spk1	161.37	161.75	0.01	_
20091112_RATP_SCD_0449	50	3	de	NULL	prep	NULL	B_GP	DEP	2	idtext0068	de	#####	spk1	161.76	161.96	0.01	_
20091112_RATP_SCD_0449	50	4	bus	NULL	nc	NULL	I_GP	OBJ	3	idtext0068	bus	##m###	spk1	161.97	162.1	0.01	/
20091112_RATP_SCD_0449	50	5	ça	NULL	pro	NULL	I_GP	SUJ_IMP	6	idtext0068	ça	#####	spk1	162.11	162.32	0.01	_
20091112_RATP_SCD_0449	50	6	nécessite	NULL	v	NULL	B_GVf	ROOT	0	idtext0068	nécessiter	PS#13##s##	spk1	162.33	162.76	0.01	_
20091112_RATP_SCD_0449	50	7	deux	NULL	adj	NULL	B_GN	MOD	8	idtext0068	deux	#####	spk1	162.77	162.89	0.01	_
20091112_RATP_SCD_0449	50	8	lignes	NULL	nc	NULL	I_GN	ROOT	0	idtext0068	ligne	##f#p##	spk1	162.9	163.08	0.01	_
20091112_RATP_SCD_0449	50	9	de	NULL	prep	NULL	B_GP	DEP	8	idtext0068	de	#####	spk1	163.09	163.22	0.01	_
20091112_RATP_SCD_0449	50	10	bus	NULL	nc	NULL	I_GP	OBJ	9	idtext0068	bus	##m###	spk1	163.23	163.46	0.01	_
20091112_RATP_SCD_0449	50	11	tout+de+même	NULL	adv	NULL	B_GADV	NOLINK	0	idtext0068	tout+de+même	#####	spk1	163.47	163.98	?	//

20091112_RATP_SCD_0449	51	1	je	NULL	cln	NULL	B_GN	SUJ	4	idtext0069	cln	#1##s##	spk2	164.4	164.47	0.01	_
20091112_RATP_SCD_0449	51	2	ne	NULL	clneg	NULL	B_NULL	NOLINK	0	idtext0069	ne	#####	spk2	164.48	164.55	0.01	_
20091112_RATP_SCD_0449	51	3	vous	NULL	clo	NULL	B_GN	OBJ	4	idtext0069	cln	#2##p##	spk2	164.56	164.7	0.01	_
20091112_RATP_SCD_0449	51	4	entends	NULL	v	NULL	B_GVfn	ROOT	0	idtext0069	entendre	P#12##s##	spk2	164.71	165.09	0.01	_
20091112_RATP_SCD_0449	51	5	pas	NULL	advneg	NULL	I_GVfn	MOD	4	idtext0069	pas	#####	spk2	165.1	165.57	?	_

20091112_RATP_SCD_0449	52	1	là	NULL	adv	NULL	B_GADV	NOLINK	0	idtext0070	là	#####	spk1	166.11	166.35	0.01	_
20091112_RATP_SCD_0449	52	2	est-ce+que	NULL	pri	NULL	B_NULL	NOLINK	0	idtext0070	est-ce+que	#####	spk1	166.36	166.55	0.01	_
20091112_RATP_SCD_0449	52	3	vous	NULL	cln	NULL	B_GN	SUJ	5	idtext0070	cln	#2##p##	spk1	166.56	166.67	0.01	_
20091112_RATP_SCD_0449	52	4	m'	NULL	clo	NULL	B_GN	OBJ	5	idtext0070	cla	#1##s##	spk1	166.68	166.7	0.01	_
20091112_RATP_SCD_0449	52	5	entendez	NULL	v	NULL	B_GVf	ROOT	0	idtext0070	entendre	P#2##p##	spk1	166.71	167.16	?	//

20091112_RATP_SCD_0449	53	1	ah	DISF_M	pres	NULL	NULL	NOLINK	0	idtext0071	ah	#####	spk2	167.21	167.4	0.01	_
20091112_RATP_SCD_0449	53	2	oui	NULL	adv	NULL	B_GADV	NOLINK	0	idtext0071	oui	#####	spk2	167.41	167.88	?	_

20091112_RATP_SCD_0449	54	1	dans	NULL	prep	NULL	B_GP	MOD	7	idtext0072	dans	#####	spk1	168.47	168.69	0.01	_
20091112_RATP_SCD_0449	54	2	un	NULL	det	NULL	I_GP	DET	4	idtext0072	un	##m#s##i	spk1	168.7	168.8	0.01	_
20091112_RATP_SCD_0449	54	3	premier	NULL	adj	NULL	I_GP	MOD	4	idtext0072	premier	##m#s##	spk1	168.81	169.19	0.01	_
20091112_RATP_SCD_0449	54	4	temps	NULL	nc	NULL	I_GP	OBJ	1	idtext0072	temps	##m###	spk1	169.2	169.45	0.01	/
20091112_RATP_SCD_0449	54	5	je	NULL	cln	NULL	B_GN	SUJ	7	idtext0072	cln	#1##s##	spk1	169.46	169.7	0.01	_
20091112_RATP_SCD_0449	54	6	vous	NULL	clo	NULL	B_GN	A_OBJ	7	idtext0072	cln	#2##p##	spk1	169.71	169.86	0.01	_
20091112_RATP_SCD_0449	54	7	propose	NULL	v	NULL	B_GVf	ROOT	0	idtext0072	proposer	PS#13##s##	spk1	169.87	170.23	0.01	_
20091112_RATP_SCD_0449	54	8	d'	NULL	prep	NULL	B_GP	OBJ	7	idtext0072	d'	#####	spk1	170.24	170.26	0.01	_
20091112_RATP_SCD_0449	54	9	emprunter	NULL	vinf	NULL	I_GP	OBJ	8	idtext0072	emprunter	W#####	spk1	170.27	170.65	0.01	_
20091112_RATP_SCD_0449	54	10	la	NULL	det	NULL	B_GN	DET	11	idtext0072	le	##m#s##d	spk1	170.66	170.77	0.01	_
20091112_RATP_SCD_0449	54	11	ligne	NULL	nc	B_T	I_GN	OBJ	9	idtext0072	ligne	##f#s##	spk1	170.78	170.9	0.01	_
20091112_RATP_SCD_0449	54	12	quatre-vingt-treize	NULL	adj	I_T	I_GN	MOD	11	idtext0072	quatre-vingt-treize	#####	spk1	170.91	172.11	?	//

20091112_RATP_SCD_0449	55	1	oui	NULL	adv	NULL	B_GADV	NOLINK	0	idtext0073	oui	#####	spk2	172.19	172.56	?	//

20091112_RATP_SCD_0449	56	1	qui	NULL	prorel	NULL	B_NULL	SUJ	2	idtext0074	qui	#####	spk1	173.0	173.18	0.01	_
20091112_RATP_SCD_0449	56	2	est	NULL	v	NULL	B_GVf	ROOT	0	idtext0074	être	P#3##s##	spk1	173.19	173.34	0.01	_
20091112_RATP_SCD_0449	56	3	donc	NULL	coo	NULL	B_NULL	NOLINK	0	idtext0074	donc	#####	spk1	173.35	173.63	0.01	_
20091112_RATP_SCD_0449	56	4	à	NULL	prep	NULL	B_GP	P_OBJ_LOC	2	idtext0074	à	#####	spk1	173.64	173.67	0.01	_
20091112_RATP_SCD_0449	56	5	la	NULL	det	NULL	I_GP	DET	6	idtext0074	le	##m#s##d	spk1	173.68	173.8	0.01	_
20091112_RATP_SCD_0449	56	6	place	NULL	nc	B_A	I_GP	OBJ	4	idtext0074	place	##f#s##	spk1	173.81	174.1	0.01	_
20091112_RATP_SCD_0449	56	7	de	NULL	prep	I_A	I_GP	DEP	6	idtext0074	de	#####	spk1	174.11	174.19	0.01	_
20091112_RATP_SCD_0449	56	8	la	NULL	det	I_A	I_GP	DET	9	idtext0074	le	##m#s##d	spk1	174.2	174.28	0.01	_
20091112_RATP_SCD_0449	56	9	Libération	NULL	np	I_A	I_GP	OBJ	7	idtext0074	Libération	#####	spk1	174.29	175.22	?	//

20091112_RATP_SCD_0449	57	1	c'	NULL	cln	NULL	B_GN	SUJ_IMP	2	idtext0075	ce	###s##	spk2	175.4	175.42	0.01	_
20091112_RATP_SCD_0449	57	2	est	NULL	v	NULL	B_GVf	ROOT	0	idtext0075	être	P#3##s##	spk2	175.43	175.52	0.01	_
20091112_RATP_SCD_0449	57	3	ça	NULL	pro	NULL	B_GN	ATS	2	idtext0075	ça	#####	spk2	175.53	175.73	0.01	_
20091112_RATP_SCD_0449	57	4	oui	NULL	adv	NULL	B_GADV	NOLINK	0	idtext0075	oui	#####	spk2	175.74	175.98	?	/

20091112_RATP_SCD_0449	58	1	faut	NULL	v	NULL	B_GVf	ROOT	0	idtext0076	falloir	P#3##s##	spk1	176.45	176.55	0.01	_
20091112_RATP_SCD_0449	58	2	qui	NULL	prorel	NULL	B_NULL	SUJ	3	idtext0076	qui	#####	spk1	176.56	176.75	0.01	_
20091112_RATP_SCD_0449	58	3	va	NULL	v	NULL	B_GVf	OBJ	1	idtext0076	aller	P#3##s##	spk1	176.76	176.88	0.01	_
20091112_RATP_SCD_0449	58	4	en	NULL	prep	NULL	B_GP	P_OBJ	3	idtext0076	en	#####	spk1	176.89	176.97	0.01	_
20091112_RATP_SCD_0449	58	5	direction	NULL	nc	NULL	I_GP	OBJ	4	idtext0076	direction	##f#s##	spk1	176.98	177.4	0.01	_
20091112_RATP_SCD_0449	58	6	de	NULL	prep	NULL	B_GP	DEP	5	idtext0076	de	#####	spk1	177.41	177.45	0.01	_
20091112_RATP_SCD_0449	58	7	l'	NULL	det	NULL	I_GP	DET	8	idtext0076	le	###s##d	spk1	177.46	177.49	0.01	_
20091112_RATP_SCD_0449	58	8	esplanade	NULL	nc	NULL	I_GP	OBJ	6	idtext0076	esplanade	##f#s##	spk1	177.5	178.1	0.01	_
20091112_RATP_SCD_0449	58	9	des	NULL	prep	B_A	I_GP	MOD	8	idtext0076	des	#####	spk1	178.11	178.33	0.01	_
20091112_RATP_SCD_0449	58	10	Invalides	NULL	np	I_A	I_GP	OBJ	9	idtext0076	Invalides	#####	spk1	178.34	179.03	?	//

20091112_RATP_SCD_0449	59	1	ah	DISF_M	pres	NULL	NULL	NOLINK	0	idtext0077	ah	#####	spk2	179.97	180.21	0.01	_
20091112_RATP_SCD_0449	59	2	d'accord	NULL	adv	NULL	B_GADV	MOD	3	idtext0077	d'accord	#####	spk2	180.22	180.73	0.01	_
20091112_RATP_SCD_0449	59	3	oui	NULL	adv	NULL	I_GADV	ROOT	0	idtext0077	oui	#####	spk2	180.74	181.03	?	_

20091112_RATP_SCD_0449	60	1	et	NULL	coo	NULL	B_NULL	ROOT	0	idtext0078	et	#####	spk1	181.33	181.42	0.01	_
20091112_RATP_SCD_0449	60	2	là	NULL	adv	NULL	B_GADV	NOLINK	0	idtext0078	là	#####	spk1	181.43	181.58	0.01	_
20091112_RATP_SCD_0449	60	3	vous	NULL	cln	NULL	B_GN	SUJ	4	idtext0078	cln	#2##p##	spk1	181.59	181.71	0.01	_
20091112_RATP_SCD_0449	60	4	pourrez	NULL	v	NULL	B_GVf	DEP_COORD	1	idtext0078	pouvoir	F#2##p##	spk1	181.72	182.05	0.01	_
20091112_RATP_SCD_0449	60	5	donc	NULL	coo	NULL	B_NULL	NOLINK	0	idtext0078	donc	#####	spk1	182.06	182.3	0.01	_
20091112_RATP_SCD_0449	60	6	aller	NULL	vinf	NULL	B_GVi	OBJ	4	idtext0078	aller	W#####	spk1	182.31	182.52	0.01	_
20091112_RATP_SCD_0449	60	7	jusqu'à	NULL	prep	NULL	B_GP	P_OBJ	6	idtext0078	jusqu'à	#####	spk1	182.53	182.88	0.01	_
20091112_RATP_SCD_0449	60	8	son	NULL	det	NULL	I_GP	DET	9	idtext0078	son	###s##o	spk1	182.89	183.03	0.01	_
20091112_RATP_SCD_0449	60	9	terminus	NULL	nc	NULL	I_GP	OBJ	7	idtext0078	terminus	##m###	spk1	183.04	183.85	?	//

20091112_RATP_SCD_0449	61	1	euh	DISF_M	pres	NULL	NULL	NOLINK	0	idtext0079	euh	#####	spk2	185.55	185.58	0.01	_
20091112_RATP_SCD_0449	61	2	c'	NULL	cln	NULL	B_GN	SUJ_IMP	3	idtext0079	ce	###s##	spk2	185.59	185.61	0.01	_
20091112_RATP_SCD_0449	61	3	est	NULL	v	NULL	B_GVf	ROOT	0	idtext0079	être	P#3##s##	spk2	185.62	185.91	0.01	_
20091112_RATP_SCD_0449	61	4	ça	NULL	pro	NULL	B_GN	ATS	3	idtext0079	ça	#####	spk2	185.92	186.08	0.01	_
20091112_RATP_SCD_0449	61	5	oui	NULL	adv	NULL	B_GADV	NOLINK	0	idtext0079	oui	#####	spk2	186.09	186.22	0.01	_
20091112_RATP_SCD_0449	61	6	le	NULL	det	NULL	B_GN	DET	7	idtext0079	le	##m#s##d	spk2	186.23	186.25	0.01	_
20091112_RATP_SCD_0449	61	7	quatre-vingt-treize	NULL	nc	B_T	I_GN	ATS	3	idtext0079	quatre-vingt-treize	#####	spk2	186.26	187.2	0.01	_
20091112_RATP_SCD_0449	61	8	oui	NULL	adv	NULL	B_GADV	NOLINK	0	idtext0079	oui	#####	spk2	187.21	187.32	0.01	_
20091112_RATP_SCD_0449	61	9	aux	NULL	prep	NULL	B_NULL	NOLINK	0	idtext0079	aux	#####	spk2	187.33	187.46	0.01	_
20091112_RATP_SCD_0449	61	10	t()	DISF_T	tronc	NULL	NULL	NOLINK	0	idtext0079	t()	#####	spk2	187.47	187.53	0.01	_
20091112_RATP_SCD_0449	61	11	oui	NULL	adv	NULL	B_GADV	NOLINK	0	idtext0079	oui	#####	spk2	187.54	187.64	0.01	_
20091112_RATP_SCD_0449	61	12	aux	NULL	prep	NULL	B_GP	MOD	22	idtext0079	aux	#####	spk2	187.65	187.87	0.01	_
20091112_RATP_SCD_0449	61	13	Invalides	NULL	nc	B_A	I_GP	OBJ	12	idtext0079	Invalides	#####	spk2	187.88	188.45	0.01	/
20091112_RATP_SCD_0449	61	14	aux	NULL	prep	NULL	B_GP	MOD	22	idtext0079	aux	#####	spk2	188.46	188.54	0.01	_
20091112_RATP_SCD_0449	61	15	Invalides	NULL	nc	B_A	I_GP	OBJ	14	idtext0079	Invalides	#####	spk2	188.55	188.97	0.01	_
20091112_RATP_SCD_0449	61	16	faut	NULL	v	NULL	B_GVf	ROOT	0	idtext0079	falloir	P#3##s##	spk2	188.98	189.09	0.01	_
20091112_RATP_SCD_0449	61	17	que	NULL	csu	NULL	B_NULL	OBJ	16	idtext0079	que	#####	spk2	189.1	189.14	0.01	_
20091112_RATP_SCD_0449	61	18	j'	NULL	cln	NULL	B_GN	SUJ	20	idtext0079	cln	#1##s##	spk2	189.15	189.2	0.01	_
20091112_RATP_SCD_0449	61	19	en	NULL	clo	NULL	B_GN	OBJ	20	idtext0079	en	#####	spk2	189.21	189.26	0.01	_
20091112_RATP_SCD_0449	61	20	trouve	NULL	v	NULL	B_GVf	OBJ	17	idtext0079	trouver	PS#13##s##	spk2	189.27	189.5	0.01	_
20091112_RATP_SCD_0449	61	21	un	NULL	det	NULL	B_GN	DET	22	idtext0079	un	##m#s##i	spk2	189.51	189.67	0.01	_
20091112_RATP_SCD_0449	61	22	autre	NULL	adj	NULL	I_GN	OBJ	20	idtext0079	autre	###s##	spk2	189.68	189.94	?	_

20091112_RATP_SCD_0449	62	1	exactement	NULL	adv	NULL	B_GADV	NOLINK	0	idtext0080	exactement	#####	spk1	190.14	190.93	0.01	_
20091112_RATP_SCD_0449	62	2	donc	NULL	coo	NULL	B_NULL	ROOT	0	idtext0080	donc	#####	spk1	190.94	191.14	0.01	_
20091112_RATP_SCD_0449	62	3	là	NULL	adv	NULL	B_GADV	NOLINK	0	idtext0080	là	#####	spk1	191.15	191.26	0.01	_
20091112_RATP_SCD_0449	62	4	vous	NULL	cln	NULL	B_GN	SUJ	5	idtext0080	cln	#2##p##	spk1	191.27	191.37	0.01	_
20091112_RATP_SCD_0449	62	5	pourrez	NULL	v	NULL	B_GVf	DEP_COORD	2	idtext0080	pouvoir	F#2##p##	spk1	191.38	191.64	0.01	_
20091112_RATP_SCD_0449	62	6	faire	NULL	vinf	NULL	I_GVf	OBJ	5	idtext0080	faire	W#####	spk1	191.65	191.75	0.01	_
20091112_RATP_SCD_0449	62	7	la	NULL	det	NULL	B_GN	DET	8	idtext0080	le	##m#s##d	spk1	191.76	191.86	0.01	_
20091112_RATP_SCD_0449	62	8	correspondance	NULL	nc	NULL	I_GN	OBJ	6	idtext0080	correspondance	##f#s##	spk1	191.87	192.48	0.01	_
20091112_RATP_SCD_0449	62	9	avec	NULL	prep	NULL	B_GP	P_OBJ	8	idtext0080	avec	#####	spk1	192.49	192.7	0.01	_
20091112_RATP_SCD_0449	62	10	la	NULL	det	NULL	I_GP	DET	11	idtext0080	le	##m#s##d	spk1	192.71	192.83	0.01	_
20091112_RATP_SCD_0449	62	11	ligne	NULL	nc	B_T	I_GP	OBJ	9	idtext0080	ligne	##f#s##	spk1	192.84	193.06	0.01	_
20091112_RATP_SCD_0449	62	12	soixante-neuf	NULL	adj	I_T	I_GP	MOD	11	idtext0080	soixante-neuf	#####	spk1	193.07	194.08	?	//

20091112_RATP_SCD_0449	63	1	soixante-neuf	NULL	nc	NULL	B_GN	ROOT	0	idtext0081	soixante-neuf	#####	spk2	194.38	195.02	?	//

20091112_RATP_SCD_0449	64	1	tout+à+fait	NULL	adv	NULL	B_GADV	NOLINK	0	idtext0082	tout+à+fait	#####	spk1	195.2	195.85	?	//

20091112_RATP_SCD_0449	65	1	ah+bon	DISF_M	pres	NULL	NULL	NOLINK	0	idtext0083	ah+bon	#####	spk2	195.89	196.22	0.01	/
20091112_RATP_SCD_0449	65	2	et	NULL	coo	NULL	B_NULL	ROOT	0	idtext0083	et	#####	spk2	196.23	196.32	0.01	_
20091112_RATP_SCD_0449	65	3	ça	NULL	pro	NULL	B_GN	SUJ_IMP	5	idtext0083	ça	#####	spk2	196.33	196.48	0.01	_
20091112_RATP_SCD_0449	65	4	me	NULL	clo	NULL	B_GN	OBJ	5	idtext0083	cla	#1##s##	spk2	196.49	196.56	0.01	_
20091112_RATP_SCD_0449	65	5	mène	NULL	v	NULL	B_GVf	DEP_COORD	2	idtext0083	mener	PS#13##s##	spk2	196.57	197.11	0.01	_
20091112_RATP_SCD_0449	65	6	à	NULL	prep	NULL	B_GP	P_OBJ_LOC	5	idtext0083	à	#####	spk2	197.12	197.37	0.01	_
20091112_RATP_SCD_0449	65	7	ma	NULL	det	NULL	I_GP	DET	8	idtext0083	mon	##f#s##o	spk2	197.38	197.61	0.01	_
20091112_RATP_SCD_0449	65	8	station	NULL	nc	NULL	I_GP	OBJ	6	idtext0083	station	##f#s##	spk2	197.62	198.07	0.01	_
20091112_RATP_SCD_0449	65	9	ça	NULL	pro	NULL	I_GP	SUJ	5	idtext0083	ça	#####	spk2	198.08	198.4	?	_

20091112_RATP_SCD_0449	66	1	tout+à+fait	NULL	adv	NULL	B_GADV	NOLINK	0	idtext0084	tout+à+fait	#####	spk1	199.07	199.7	0.01	_
20091112_RATP_SCD_0449	66	2	il	NULL	cln	NULL	B_GN	SUJ	3	idtext0084	cln	#3#m#s##	spk1	199.71	199.77	0.01	_
20091112_RATP_SCD_0449	66	3	est	NULL	v	NULL	B_GVf	ROOT	0	idtext0084	être	P#3##s##	spk1	199.78	199.83	0.01	_
20091112_RATP_SCD_0449	66	4	effectivement	NULL	adv	NULL	B_GADV	MOD	3	idtext0084	effectivement	#####	spk1	199.84	200.47	0.01	_
20091112_RATP_SCD_0449	66	5	à	NULL	prep	NULL	B_GP	P_OBJ_LOC	3	idtext0084	à	#####	spk1	200.48	200.53	0.01	_
20091112_RATP_SCD_0449	66	6	l'	NULL	det	NULL	I_GP	DET	7	idtext0084	le	###s##d	spk1	200.54	200.59	0.01	_
20091112_RATP_SCD_0449	66	7	esplanade	NULL	nc	NULL	I_GP	OBJ	5	idtext0084	esplanade	##f#s##	spk1	200.6	201.03	0.01	_
20091112_RATP_SCD_0449	66	8	des	NULL	prep	B_A	I_GP	MOD	7	idtext0084	des	#####	spk1	201.04	201.16	0.01	_
20091112_RATP_SCD_0449	66	9	Invalides	NULL	np	I_A	I_GP	OBJ	8	idtext0084	Invalides	#####	spk1	201.17	201.83	?	//

20091112_RATP_SCD_0449	67	1	comment	NULL	adv	NULL	B_GADV	NOLINK	0	idtext0085	comment	#####	spk2	202.33	202.73	?	//

20091112_RATP_SCD_0449	68	1	il	NULL	cln	NULL	B_GN	SUJ	2	idtext0086	cln	#3#m#s##	spk1	202.77	202.9	0.01	_
20091112_RATP_SCD_0449	68	2	est	NULL	v	NULL	B_GVf	ROOT	0	idtext0086	être	P#3##s##	spk1	202.91	203.17	0.01	_
20091112_RATP_SCD_0449	68	3	directement	NULL	adv	NULL	B_GADV	MOD	6	idtext0086	directement	#####	spk1	203.18	203.72	0.01	_
20091112_RATP_SCD_0449	68	4	à	NULL	prep	NULL	B_GP	P_OBJ_LOC	2	idtext0086	à	#####	spk1	203.73	203.78	0.01	_
20091112_RATP_SCD_0449	68	5	l'	NULL	det	NULL	I_GP	DET	6	idtext0086	le	###s##d	spk1	203.79	203.83	0.01	_
20091112_RATP_SCD_0449	68	6	esplanade	NULL	nc	NULL	I_GP	OBJ	4	idtext0086	esplanade	##f#s##	spk1	203.84	204.21	0.01	_
20091112_RATP_SCD_0449	68	7	des	NULL	prep	B_A	I_GP	MOD	6	idtext0086	des	#####	spk1	204.22	204.37	0.01	_
20091112_RATP_SCD_0449	68	8	Invalides	NULL	np	I_A	I_GP	OBJ	7	idtext0086	Invalides	#####	spk1	204.38	204.85	0.01	_
20091112_RATP_SCD_0449	68	9	le	NULL	det	NULL	B_NULL	NOLINK	0	idtext0086	le	##m#s##d	spk1	204.86	204.91	?	_

20091112_RATP_SCD_0449	69	1	soixante-neuf	NULL	nc	NULL	B_GN	ROOT	0	idtext0087	soixante-neuf	#####	spk1	204.95	206.37	?	//

20091112_RATP_SCD_0449	70	1	c'	NULL	cln	NULL	B_GN	SUJ_IMP	2	idtext0088	ce	###s##	spk2	204.95	204.99	0.01	_
20091112_RATP_SCD_0449	70	2	est	NULL	v	NULL	B_GVf	ROOT	0	idtext0088	être	P#3##s##	spk2	205.0	205.32	0.01	_
20091112_RATP_SCD_0449	70	3	ça	NULL	pro	NULL	B_GN	ATS	2	idtext0088	ça	#####	spk2	205.33	205.66	0.01	_
20091112_RATP_SCD_0449	70	4	oui	NULL	adv	NULL	B_GADV	MOD	5	idtext0088	oui	#####	spk2	205.67	205.86	0.01	_
20091112_RATP_SCD_0449	70	5	d'accord	NULL	adv	NULL	I_GADV	ROOT	0	idtext0088	d'accord	#####	spk2	205.87	206.37	?	_

20091112_RATP_SCD_0449	71	1	il	NULL	cln	NULL	B_GN	SUJ	2	idtext0089	cln	#3#m#s##	spk1	206.69	206.88	0.01	_
20091112_RATP_SCD_0449	71	2	va	NULL	v	NULL	B_GVf	ROOT	0	idtext0089	aller	P#3##s##	spk1	206.89	207.04	0.01	_
20091112_RATP_SCD_0449	71	3	donc	NULL	coo	NULL	B_NULL	NOLINK	0	idtext0089	donc	#####	spk1	207.05	207.29	0.01	_
20091112_RATP_SCD_0449	71	4	en	NULL	prep	NULL	B_GP	P_OBJ	2	idtext0089	en	#####	spk1	207.3	207.38	0.01	_
20091112_RATP_SCD_0449	71	5	direction	NULL	nc	NULL	I_GP	OBJ	4	idtext0089	direction	##f#s##	spk1	207.39	207.86	0.01	_
20091112_RATP_SCD_0449	71	6	de	NULL	prep	NULL	B_GP	DEP	5	idtext0089	de	#####	spk1	207.87	207.99	0.01	_
20091112_RATP_SCD_0449	71	7	Gambetta	NULL	nc	B_A	I_GP	OBJ	6	idtext0089	Gambetta	#####	spk1	208.0	208.81	?	//

20091112_RATP_SCD_0449	72	1	ah	DISF_M	pres	NULL	NULL	NOLINK	0	idtext0090	ah	#####	spk2	209.33	209.56	0.01	_
20091112_RATP_SCD_0449	72	2	Gambetta	NULL	nc	B_A	B_GN	NOLINK	0	idtext0090	Gambetta	#####	spk2	209.57	210.1	0.01	_
20091112_RATP_SCD_0449	72	3	ah	DISF_M	pres	I_A	NULL	NOLINK	0	idtext0090	ah	#####	spk2	210.11	210.26	0.01	_
20091112_RATP_SCD_0449	72	4	oui	NULL	adv	NULL	B_GADV	MOD	5	idtext0090	oui	#####	spk2	210.27	210.38	0.01	_
20091112_RATP_SCD_0449	72	5	alors	NULL	adv	NULL	I_GADV	ROOT	0	idtext0090	alors	#####	spk2	210.39	210.98	0.13	_
20091112_RATP_SCD_0449	72	6	c'	NULL	cln	NULL	B_GN	SUJ_IMP	7	idtext0091	ce	###s##	spk2	211.11	211.2	0.01	_
20091112_RATP_SCD_0449	72	7	est	NULL	v	NULL	B_GVf	ROOT	0	idtext0091	être	P#3##s##	spk2	211.21	211.57	0.01	_
20091112_RATP_SCD_0449	72	8	ça	NULL	pro	NULL	B_GN	ATS	7	idtext0091	ça	#####	spk2	211.58	211.76	0.01	_
20091112_RATP_SCD_0449	72	9	oui	NULL	adv	NULL	B_GADV	NOLINK	0	idtext0091	oui	#####	spk2	211.77	212.55	0.30	//
20091112_RATP_SCD_0449	72	10	et	NULL	coo	NULL	B_NULL	ROOT	0	idtext0092	et	#####	spk2	212.85	213.2	0.01	_
20091112_RATP_SCD_0449	72	11	les	NULL	det	NULL	B_NULL	NOLINK	0	idtext0092	le	###p##d	spk2	213.21	213.32	0.01	_
20091112_RATP_SCD_0449	72	12	là	NULL	adv	NULL	B_GADV	MOD	14	idtext0092	là	#####	spk2	213.33	213.49	0.01	_
20091112_RATP_SCD_0449	72	13	je	NULL	cln	NULL	B_GN	SUJ	14	idtext0092	cln	#1##s##	spk2	213.5	213.58	0.01	_
20091112_RATP_SCD_0449	72	14	suis	NULL	v	NULL	B_GVf	DEP_COORD	10	idtext0092	être	P#1##s##	spk2	213.59	213.74	0.01	_
20091112_RATP_SCD_0449	72	15	assez	NULL	adv	NULL	B_GADV	MOD	20	idtext0092	assez	#####	spk2	213.75	213.99	0.01	_
20091112_RATP_SCD_0449	72	16	loin+de	NULL	prep	NULL	B_GP	P_OBJ_LOC	14	idtext0092	loin+de	#####	spk2	214.0	214.32	0.01	_
20091112_RATP_SCD_0449	72	17	mon	NULL	det	NULL	I_GP	DET	20	idtext0092	mon	###s##o	spk2	214.33	214.7	0.01	_
20091112_RATP_SCD_0449	72	18	de	DISF_R	prep	NULL	NULL	NOLINK	0	idtext0092	de	#####	spk2	214.71	214.73	0.01	_
20091112_RATP_SCD_0449	72	19	mon	DISF_R	det	NULL	NULL	NOLINK	0	idtext0092	mon	###s##o	spk2	214.74	214.96	0.01	_
20091112_RATP_SCD_0449	72	20	but	NULL	nc	NULL	I_GP	OBJ	16	idtext0092	but	##m#s##	spk2	214.97	215.35	0.01	_
20091112_RATP_SCD_0449	72	21	non	NULL	adv	NULL	B_GADV	NOLINK	0	idtext0092	non	#####	spk2	215.36	215.63	?	_

20091112_RATP_SCD_0449	73	1	euh	DISF_M	pres	NULL	NULL	NOLINK	0	idtext0093	euh	#####	spk1	216.15	217.33	0.10	_
20091112_RATP_SCD_0449	73	2	après	NULL	prep	NULL	B_NULL	MOD	8	idtext0094	après	#####	spk1	217.43	217.94	0.01	_
20091112_RATP_SCD_0449	73	3	hein	DISF_M	pres	NULL	NULL	NOLINK	0	idtext0094	hein	#####	spk1	217.95	218.04	0.01	_
20091112_RATP_SCD_0449	73	4	c()	DISF_T	tronc	NULL	NULL	NOLINK	0	idtext0094	c()	#####	spk1	218.05	218.13	0.01	_
20091112_RATP_SCD_0449	73	5	qui	NULL	prorel	NULL	B_NULL	SUJ	6	idtext0094	qui	#####	spk1	218.14	218.37	0.01	_
20091112_RATP_SCD_0449	73	6	a	NULL	v	NULL	B_GVf	MOD_REL	2	idtext0094	avoir	P#3##s##	spk1	218.38	218.43	0.01	_
20091112_RATP_SCD_0449	73	7	c'	NULL	cln	NULL	B_GN	SUJ_IMP	8	idtext0094	ce	###s##	spk1	218.44	218.52	0.01	_
20091112_RATP_SCD_0449	73	8	est	NULL	v	NULL	B_GVf	ROOT	0	idtext0094	être	P#3##s##	spk1	218.53	218.61	0.01	_
20091112_RATP_SCD_0449	73	9	qu()	DISF_T	tronc	NULL	NULL	NOLINK	0	idtext0094	qu()	#####	spk1	218.62	218.8	0.08	_
20091112_RATP_SCD_0449	73	10	partant	NULL	vprespart	NULL	B_GVf	ROOT	0	idtext0095	partir	G#####	spk1	218.88	219.17	0.01	_
20091112_RATP_SCD_0449	73	11	des	DISF_R	prep	NULL	NULL	NOLINK	0	idtext0095	des	#####	spk1	219.18	219.39	0.01	_
20091112_RATP_SCD_0449	73	12	de	DISF_R	prep	NULL	NULL	NOLINK	0	idtext0095	de	#####	spk1	219.4	219.58	0.01	_
20091112_RATP_SCD_0449	73	13	de	NULL	prep	NULL	B_GP	P_OBJ_LOC	10	idtext0095	de	#####	spk1	219.59	219.72	0.01	_
20091112_RATP_SCD_0449	73	14	l'	NULL	det	NULL	I_GP	DET	15	idtext0095	le	###s##d	spk1	219.73	219.76	0.01	_
20091112_RATP_SCD_0449	73	15	esplanade	NULL	nc	NULL	I_GP	OBJ	13	idtext0095	esplanade	##f#s##	spk1	219.77	220.13	0.01	_
20091112_RATP_SCD_0449	73	16	des	NULL	prep	B_A	I_GP	DEP	15	idtext0095	des	#####	spk1	220.14	220.3	0.01	_
20091112_RATP_SCD_0449	73	17	Invalides	NULL	np	I_A	I_GP	OBJ	16	idtext0095	Invalides	#####	spk1	220.31	220.83	0.01	_
20091112_RATP_SCD_0449	73	18	en	NULL	prep	NULL	B_GP	MOD	15	idtext0095	en	#####	spk1	220.84	221.05	0.01	_
20091112_RATP_SCD_0449	73	19	direction	NULL	nc	NULL	I_GP	OBJ	18	idtext0096	direction	##f#s##	spk1	221.06	221.44	0.01	_
20091112_RATP_SCD_0449	73	20	des	DISF_R	prep	NULL	NULL	NOLINK	0	idtext0096	des	#####	spk1	221.45	221.56	0.01	_
20091112_RATP_SCD_0449	73	21	Gam()	DISF_T	tronc	NULL	NULL	NOLINK	0	idtext0096	Gam()	#####	spk1	221.57	221.7	0.01	_
20091112_RATP_SCD_0449	73	22	de	NULL	prep	NULL	B_GP	P_OBJ_LOC	19	idtext0096	de	#####	spk1	221.71	221.93	0.01	_
20091112_RATP_SCD_0449	73	23	Gambetta	NULL	nc	B_A	I_GP	OBJ	22	idtext0096	Gambetta	#####	spk1	221.94	222.39	0.01	//
20091112_RATP_SCD_0449	73	24	il	NULL	cln	NULL	B_GN	SUJ_IMP	25	idtext0096	cln	#3#m#s##	spk1	222.4	222.46	0.01	_
20091112_RATP_SCD_0449	73	25	faudra	NULL	v	NULL	B_GVf	ROOT	0	idtext0096	falloir	F#3##s##	spk1	222.47	222.69	0.01	_
20091112_RATP_SCD_0449	73	26	descendre	NULL	vinf	NULL	I_GVf	OBJ	25	idtext0096	descendre	W#####	spk1	222.7	223.12	0.01	_
20091112_RATP_SCD_0449	73	27	à	NULL	prep	NULL	B_GP	P_OBJ_LOC	26	idtext0096	à	#####	spk1	223.13	223.18	0.01	_
20091112_RATP_SCD_0449	73	28	Auguste+Métivier	NULL	nc	B_A	I_GP	OBJ	27	idtext0096	Auguste+Métivier	#####	spk1	223.19	224.53	?	_

20091112_RATP_SCD_0449	74	1	il	NULL	cln	NULL	B_GN	SUJ_IMP	2	idtext0097	cln	#3#m#s##	spk2	225.01	225.09	0.01	_
20091112_RATP_SCD_0449	74	2	faudra	NULL	v	NULL	B_GVf	ROOT	0	idtext0097	falloir	F#3##s##	spk2	225.1	225.38	0.01	_
20091112_RATP_SCD_0449	74	3	descendre	NULL	vinf	NULL	I_GVf	OBJ	2	idtext0097	descendre	W#####	spk2	225.39	225.83	0.01	_
20091112_RATP_SCD_0449	74	4	où	NULL	adv	NULL	B_GADV	P_OBJ_LOC	2	idtext0097	où	#####	spk2	225.84	226.16	?	//

20091112_RATP_SCD_0449	75	1	à	NULL	prep	NULL	B_GP	ROOT	0	idtext0098	à	#####	spk1	226.21	226.32	0.01	_
20091112_RATP_SCD_0449	75	2	Auguste+Métivier	NULL	nc	B_A	I_GP	OBJ	1	idtext0098	Auguste+Métivier	#####	spk1	226.33	227.88	?	_

20091112_RATP_SCD_0449	76	1	Auguste	NULL	nc	B_A	B_GN	ROOT	0	idtext0099	Auguste	##m#s##	spk2	228.16	228.67	0.01	_
20091112_RATP_SCD_0449	76	2	comment	NULL	adv	NULL	B_GADV	MOD	1	idtext0099	comment	#####	spk2	228.68	229.12	?	//

20091112_RATP_SCD_0449	77	1	Auguste+Métivier	NULL	nc	B_A	B_GN	NOLINK	0	idtext0100	Auguste+Métivier	#####	spk1	229.54	231.35	?	//

20091112_RATP_SCD_0449	78	1	ah	DISF_M	pres	NULL	NULL	NOLINK	0	idtext0101	ah	#####	spk2	232.02	232.06	0.01	_
20091112_RATP_SCD_0449	78	2	je	NULL	cln	NULL	B_GN	SUJ	4	idtext0101	cln	#1##s##	spk2	232.07	232.09	0.01	_
20091112_RATP_SCD_0449	78	3	le	NULL	clo	NULL	B_GN	OBJ	4	idtext0101	cla	#3#m#s##	spk2	232.1	232.24	0.01	_
20091112_RATP_SCD_0449	78	4	connais	NULL	v	NULL	B_GVfn	ROOT	0	idtext0101	connaître	P#12##s##	spk2	232.25	232.45	0.01	_
20091112_RATP_SCD_0449	78	5	pas	NULL	advneg	NULL	I_GVfn	MOD	4	idtext0101	pas	#####	spk2	232.46	232.63	0.01	_
20091112_RATP_SCD_0449	78	6	ce	NULL	det	NULL	B_GN	DET	7	idtext0101	ce	##m#s##e	spk2	232.64	232.71	0.01	_
20091112_RATP_SCD_0449	78	7	gars	NULL	nc	NULL	I_GN	OBJ	4	idtext0101	gars	##m###	spk2	232.72	232.85	0.01	_
20091112_RATP_SCD_0449	78	8	là	NULL	adv	NULL	B_GADV	NOLINK	0	idtext0101	là	#####	spk2	232.86	233.03	?	//

20091112_RATP_SCD_0449	79	1	donc	NULL	coo	NULL	B_NULL	NOLINK	0	idtext0102	donc	#####	spk2	233.34	234.97	?	//

20091112_RATP_SCD_0449	80	1	Auguste	NULL	nc	B_A	B_GN	NOLINK	0	idtext0103	Auguste	##m#s##	spk2	235.01	235.54	0.01	//
20091112_RATP_SCD_0449	80	2	euh	DISF_M	pres	I_A	NULL	NOLINK	0	idtext0103	euh	#####	spk2	235.55	235.69	0.01	_
20091112_RATP_SCD_0449	80	3	bon	DISF_M	pres	I_A	NULL	NOLINK	0	idtext0103	bon	#####	spk2	235.7	235.93	0.01	_
20091112_RATP_SCD_0449	80	4	le	NULL	det	NULL	B_GN	DET	5	idtext0103	le	##m#s##d	spk2	235.94	236.08	0.01	_
20091112_RATP_SCD_0449	80	5	soixante-neuf	NULL	nc	B_T	I_GN	SUJ	7	idtext0103	soixante-neuf	#####	spk2	236.09	236.77	0.01	_
20091112_RATP_SCD_0449	80	6	passe	DISF_R	v	NULL	NULL	NOLINK	0	idtext0103	passer	PS#13##s##	spk2	236.78	237.11	0.01	_
20091112_RATP_SCD_0449	80	7	passe	NULL	v	NULL	B_GVf	ROOT	0	idtext0103	passer	PS#13##s##	spk2	237.12	237.41	0.01	_
20091112_RATP_SCD_0449	80	8	à	NULL	prep	NULL	B_GP	MOD	7	idtext0103	à	#####	spk2	237.42	237.56	0.01	_
20091112_RATP_SCD_0449	80	9	cette	NULL	det	NULL	I_GP	DET	10	idtext0103	cet	##f#s##e	spk2	237.57	237.7	0.01	_
20091112_RATP_SCD_0449	80	10	station	NULL	nc	NULL	I_GP	OBJ	8	idtext0103	station	##f#s##	spk2	237.71	238.18	0.01	_
20091112_RATP_SCD_0449	80	11	là	NULL	adv	NULL	B_GADV	MOD	7	idtext0103	là	#####	spk2	238.19	238.46	?	//

20091112_RATP_SCD_0449	81	1	c'est-à-dire	NULL	coo	NULL	B_NULL	NOLINK	0	idtext0104	c'est-à-dire	#####	spk1	238.63	239.41	?	_

20091112_RATP_SCD_0449	82	1	Auguste	NULL	nc	B_A	B_GN	NOLINK	0	idtext0105	Auguste	##m#s##	spk2	238.84	239.41	?	//

20091112_RATP_SCD_0449	83	1	que	NULL	csu	NULL	B_NULL	NOLINK	0	idtext0106	que	#####	spk1	239.46	239.54	0.01	//
20091112_RATP_SCD_0449	83	2	quand	NULL	csu	NULL	B_NULL	MOD	18	idtext0106	quand	#####	spk1	239.55	239.7	0.01	_
20091112_RATP_SCD_0449	83	3	vous	NULL	cln	NULL	B_GN	SUJ	4	idtext0106	cln	#2##p##	spk1	239.71	239.84	0.01	_
20091112_RATP_SCD_0449	83	4	allez	NULL	v	NULL	B_GVf	OBJ	2	idtext0106	aller	P#2##p##	spk1	239.85	240.01	0.01	_
20091112_RATP_SCD_0449	83	5	descendre	NULL	vinf	NULL	I_GVf	OBJ	4	idtext0106	descendre	W#####	spk1	240.02	240.32	0.01	_
20091112_RATP_SCD_0449	83	6	du	NULL	prep	NULL	B_GP	P_OBJ_LOC	4	idtext0106	du	#####	spk1	240.33	240.46	0.01	_
20091112_RATP_SCD_0449	83	7	bus	NULL	nc	NULL	I_GP	OBJ	6	idtext0106	bus	##m###	spk1	240.47	240.78	0.01	_
20091112_RATP_SCD_0449	83	8	hein	DISF_M	pres	NULL	NULL	NOLINK	0	idtext0106	hein	#####	spk1	240.79	240.98	0.01	/
20091112_RATP_SCD_0449	83	9	en	DISF_R	prep	NULL	NULL	NOLINK	0	idtext0106	en	#####	spk1	240.99	241.14	0.01	_
20091112_RATP_SCD_0449	83	10	a()	DISF_T	tronc	NULL	NULL	NOLINK	0	idtext0106	a()	#####	spk1	241.15	241.2	0.01	_
20091112_RATP_SCD_0449	83	11	en	DISF_R	prep	NULL	NULL	NOLINK	0	idtext0106	en	#####	spk1	241.21	241.3	0.01	_
20091112_RATP_SCD_0449	83	12	dans	NULL	prep	NULL	B_GP	P_OBJ	4	idtext0106	dans	#####	spk1	241.31	241.52	0.01	_
20091112_RATP_SCD_0449	83	13	le	NULL	det	NULL	I_GP	DET	14	idtext0106	le	##m#s##d	spk1	241.53	241.55	0.01	_
20091112_RATP_SCD_0449	83	14	sens	NULL	nc	NULL	I_GP	OBJ	12	idtext0106	sens	##m###	spk1	241.56	241.79	0.01	_
20091112_RATP_SCD_0449	83	15	du	NULL	prep	NULL	B_GP	DEP	14	idtext0106	du	#####	spk1	241.8	241.91	0.01	_
20091112_RATP_SCD_0449	83	16	bus	NULL	nc	NULL	I_GP	OBJ	15	idtext0106	bus	##m###	spk1	241.92	242.05	0.01	_
20091112_RATP_SCD_0449	83	17	vous	NULL	cln	NULL	B_GN	SUJ	18	idtext0106	cln	#2##p##	spk1	242.06	242.18	0.01	_
20091112_RATP_SCD_0449	83	18	verrez	NULL	v	NULL	B_GVf	ROOT	0	idtext0106	voir	F#2##p##	spk1	242.19	242.41	0.01	_
20091112_RATP_SCD_0449	83	19	tout+de+suite	NULL	adv	NULL	B_GADV	MOD	18	idtext0106	tout+de+suite	#####	spk1	242.42	242.88	0.01	_
20091112_RATP_SCD_0449	83	20	l'	NULL	det	NULL	B_GN	DET	21	idtext0106	le	###s##d	spk1	242.89	242.93	0.01	_
20091112_RATP_SCD_0449	83	21	avenue	NULL	nc	B_A	I_GN	OBJ	18	idtext0106	avenue	##f#s##	spk1	242.94	243.11	0.01	_
20091112_RATP_SCD_0449	83	22	de	NULL	prep	I_A	I_GN	DEP	21	idtext0106	de	#####	spk1	243.12	243.14	0.01	_
20091112_RATP_SCD_0449	83	23	la	NULL	det	I_A	I_GN	DET	24	idtext0106	le	##m#s##d	spk1	243.15	243.26	0.01	_
20091112_RATP_SCD_0449	83	24	République	NULL	np	I_A	I_GN	OBJ	22	idtext0106	République	#####	spk1	243.27	243.71	0.01	_
20091112_RATP_SCD_0449	83	25	à+gauche	NULL	adv	NULL	B_GADV	MOD	18	idtext0106	à+gauche	#####	spk1	243.72	244.18	?	//

20091112_RATP_SCD_0449	84	1	ah	DISF_M	pres	NULL	NULL	NOLINK	0	idtext0107	ah	#####	spk2	244.96	245.09	0.01	_
20091112_RATP_SCD_0449	84	2	t()	DISF_T	tronc	NULL	NULL	NOLINK	0	idtext0107	t()	#####	spk2	245.1	245.21	0.78	_
20091112_RATP_SCD_0449	84	3	oui	NULL	adv	NULL	B_GADV	NOLINK	0	idtext0108	oui	#####	spk2	245.99	246.48	0.05	_
20091112_RATP_SCD_0449	84	4	et	NULL	coo	NULL	B_NULL	NOLINK	0	idtext0109	et	#####	spk2	246.53	246.71	0.01	_
20091112_RATP_SCD_0449	84	5	i()	DISF_T	tronc	NULL	NULL	NOLINK	0	idtext0109	i()	#####	spk2	246.72	246.86	?	/

20091112_RATP_SCD_0449	85	1	c'	NULL	cln	NULL	B_GN	SUJ_IMP	2	idtext0110	ce	###s##	spk1	246.96	246.98	0.01	_
20091112_RATP_SCD_0449	85	2	est	NULL	v	NULL	B_GVf	ROOT	0	idtext0110	être	P#3##s##	spk1	246.99	247.09	0.01	_
20091112_RATP_SCD_0449	85	3	vraiment	NULL	adv	NULL	B_GADV	MOD	5	idtext0110	vraiment	#####	spk1	247.1	247.34	0.01	_
20091112_RATP_SCD_0449	85	4	à	NULL	prep	NULL	B_GP	ATS	2	idtext0110	à	#####	spk1	247.35	247.46	0.01	_
20091112_RATP_SCD_0449	85	5	côté	NULL	nc	NULL	I_GP	OBJ	4	idtext0110	côté	##m#s##	spk1	247.47	247.77	0.01	_
20091112_RATP_SCD_0449	85	6	en	NULL	prep	NULL	B_GP	MOD	5	idtext0110	en	#####	spk1	247.78	247.87	0.01	_
20091112_RATP_SCD_0449	85	7	descendant	NULL	nc	NULL	I_GP	OBJ	6	idtext0110	descendant	##m#s##	spk1	247.88	248.28	0.01	_
20091112_RATP_SCD_0449	85	8	de	NULL	prep	NULL	B_GP	P_OBJ_LOC	7	idtext0110	de	#####	spk1	248.29	248.31	0.01	_
20091112_RATP_SCD_0449	85	9	l'	NULL	det	NULL	I_GP	DET	10	idtext0110	le	###s##d	spk1	248.32	248.37	0.01	_
20091112_RATP_SCD_0449	85	10	arrêt	NULL	nc	NULL	I_GP	OBJ	8	idtext0110	arrêt	##m#s##	spk1	248.38	248.59	0.01	_
20091112_RATP_SCD_0449	85	11	de	NULL	prep	NULL	B_GP	DEP	10	idtext0110	de	#####	spk1	248.6	248.62	0.01	_
20091112_RATP_SCD_0449	85	12	bus	NULL	nc	NULL	I_GP	OBJ	11	idtext0110	bus	##m###	spk1	248.63	249.0	0.16	_
20091112_RATP_SCD_0449	85	13	du	NULL	prep	NULL	B_GP	ROOT	0	idtext0111	du	#####	spk1	249.16	249.29	0.01	_
20091112_RATP_SCD_0449	85	14	soixante-neuf	NULL	nc	B_T	I_GP	OBJ	13	idtext0111	soixante-neuf	#####	spk1	249.3	250.25	?	_

20091112_RATP_SCD_0449	86	1	oui	NULL	adv	NULL	B_GADV	NOLINK	0	idtext0112	oui	#####	spk2	250.29	250.45	0.01	_
20091112_RATP_SCD_0449	86	2	c'	NULL	cln	NULL	B_GN	SUJ_IMP	3	idtext0112	ce	###s##	spk2	250.46	250.53	0.01	_
20091112_RATP_SCD_0449	86	3	est	NULL	v	NULL	B_GVf	ROOT	0	idtext0112	être	P#3##s##	spk2	250.54	250.61	0.01	_
20091112_RATP_SCD_0449	86	4	ça	NULL	pro	NULL	B_GN	ATS	3	idtext0112	ça	#####	spk2	250.62	250.83	0.20	_
20091112_RATP_SCD_0449	86	5	mais+alors	NULL	coo	NULL	B_NULL	ROOT	0	idtext0113	mais+alors	#####	spk2	251.03	251.38	0.01	_
20091112_RATP_SCD_0449	86	6	moi	NULL	pro	NULL	B_GN	SUJ	11	idtext0113	moi	#####	spk2	251.39	251.57	0.01	_
20091112_RATP_SCD_0449	86	7	la	DISF_R	det	NULL	NULL	NOLINK	0	idtext0113	le	##m#s##d	spk2	251.58	251.78	0.01	_
20091112_RATP_SCD_0449	86	8	ma	NULL	det	NULL	B_GN	DET	9	idtext0113	mon	##f#s##o	spk2	251.79	251.98	0.01	_
20091112_RATP_SCD_0449	86	9	station	NULL	nc	NULL	I_GN	ROOT	0	idtext0113	station	##f#s##	spk2	251.99	252.41	0.01	_
20091112_RATP_SCD_0449	86	10	je	NULL	cln	NULL	B_GN	SUJ	11	idtext0113	cln	#1##s##	spk2	252.42	252.45	0.01	_
20091112_RATP_SCD_0449	86	11	descends	NULL	v	NULL	B_GVf	DEP_COORD	5	idtext0113	descendre	P#12##s##	spk2	252.46	252.72	0.01	_
20091112_RATP_SCD_0449	86	12	du	NULL	prep	NULL	B_GP	P_OBJ_LOC	11	idtext0113	du	#####	spk2	252.73	252.81	0.01	_
20091112_RATP_SCD_0449	86	13	soixante-neuf	NULL	nc	B_T	I_GP	OBJ	12	idtext0113	soixante-neuf	#####	spk2	252.82	253.36	0.01	_
20091112_RATP_SCD_0449	86	14	à	NULL	prep	NULL	B_GP	MOD	13	idtext0113	à	#####	spk2	253.37	253.43	0.01	_
20091112_RATP_SCD_0449	86	15	la	NULL	det	NULL	I_GP	DET	16	idtext0113	le	##m#s##d	spk2	253.44	253.53	0.01	_
20091112_RATP_SCD_0449	86	16	station	NULL	nc	B_A	I_GP	OBJ	14	idtext0113	station	##f#s##	spk2	253.54	253.94	0.01	_
20091112_RATP_SCD_0449	86	17	Auguste	NULL	np	I_A	I_GP	MOD	16	idtext0113	Auguste	##m#s##	spk2	253.95	254.42	0.01	_
20091112_RATP_SCD_0449	86	18	comment	NULL	adv	NULL	B_GADV	MOD	16	idtext0113	comment	#####	spk2	254.43	254.83	?	//

20091112_RATP_SCD_0449	87	1	Métivier	NULL	nc	B_A	B_GN	NOLINK	0	idtext0114	Métivier	#####	spk1	254.97	256.14	0.83	_
20091112_RATP_SCD_0449	87	2	Métivier	NULL	nc	B_A	B_GN	NOLINK	0	idtext0115	Métivier	#####	spk1	256.97	257.56	0.01	_
20091112_RATP_SCD_0449	87	3	ça	NULL	pro	NULL	I_GN	SUJ_IMP	5	idtext0115	ça	#####	spk1	257.57	257.7	0.01	_
20091112_RATP_SCD_0449	87	4	s'	NULL	clr	NULL	B_GVf	AFF	5	idtext0115	se	#3##p##	spk1	257.71	257.73	0.01	_
20091112_RATP_SCD_0449	87	5	écrit	NULL	v	NULL	I_GVf	ROOT	0	idtext0115	écrire	P#3##s##	spk1	257.74	258.11	0.15	_
20091112_RATP_SCD_0449	87	6	M	NULL	nc	NULL	B_GN	ROOT	0	idtext0116	Monsieur	##m#s##	spk1	258.26	258.54	0.01	_
20091112_RATP_SCD_0449	87	7	comme	NULL	adv	NULL	B_GADV	MOD	6	idtext0116	comme	#####	spk1	258.55	258.76	0.01	_
20091112_RATP_SCD_0449	87	8	le	NULL	det	NULL	B_GN	DET	9	idtext0116	le	##m#s##d	spk1	258.77	258.85	0.01	_
20091112_RATP_SCD_0449	87	9	M	NULL	nc	NULL	I_GN	OBJ	7	idtext0116	Monsieur	##m#s##	spk1	258.86	259.01	0.01	_
20091112_RATP_SCD_0449	87	10	de	NULL	prep	NULL	B_GP	DEP	9	idtext0116	de	#####	spk1	259.02	259.16	0.01	_
20091112_RATP_SCD_0449	87	11	maman	NULL	nc	NULL	I_GP	OBJ	10	idtext0116	maman	##f#s##	spk1	259.17	259.75	1.30	//
20091112_RATP_SCD_0449	87	12	E	NULL	nc	NULL	B_GN	ROOT	0	idtext0117	E	#####	spk1	261.05	261.33	0.01	_
20091112_RATP_SCD_0449	87	13	comme	NULL	adv	NULL	B_GADV	MOD	12	idtext0117	comme	#####	spk1	261.34	261.6	0.01	_
20091112_RATP_SCD_0449	87	14	le	NULL	det	NULL	B_GN	DET	15	idtext0117	le	##m#s##d	spk1	261.61	261.85	0.01	_
20091112_RATP_SCD_0449	87	15	E	NULL	nc	NULL	I_GN	OBJ	13	idtext0117	E	#####	spk1	261.86	262.27	0.15	_
20091112_RATP_SCD_0449	87	16	de	NULL	prep	NULL	B_GP	ROOT	0	idtext0118	de	#####	spk1	262.42	262.66	0.01	_
20091112_RATP_SCD_0449	87	17	Éric	NULL	np	NULL	I_GP	OBJ	16	idtext0118	Éric	##m#s##	spk1	262.67	263.28	0.01	/
20091112_RATP_SCD_0449	87	18	avec	NULL	prep	NULL	B_GP	P_OBJ	17	idtext0118	avec	#####	spk1	263.29	263.59	0.01	_
20091112_RATP_SCD_0449	87	19	un	NULL	det	NULL	I_GP	DET	20	idtext0118	un	##m#s##i	spk1	263.6	263.68	0.01	_
20091112_RATP_SCD_0449	87	20	accent	NULL	nc	NULL	I_GP	OBJ	18	idtext0118	accent	##m#s##	spk1	263.69	264.03	0.01	_
20091112_RATP_SCD_0449	87	21	donc	NULL	coo	NULL	B_NULL	NOLINK	0	idtext0118	donc	#####	spk1	264.04	264.34	?	//

20091112_RATP_SCD_0449	88	1	oui	NULL	adv	NULL	B_GADV	NOLINK	0	idtext0119	oui	#####	spk2	264.4	264.59	?	//

20091112_RATP_SCD_0449	89	1	T	NULL	nc	NULL	B_GN	ROOT	0	idtext0120	T	#####	spk1	264.93	265.14	0.01	_
20091112_RATP_SCD_0449	89	2	comme	NULL	adv	NULL	B_GADV	MOD	1	idtext0120	comme	#####	spk1	265.15	265.37	0.01	_
20091112_RATP_SCD_0449	89	3	le	NULL	det	NULL	B_GN	DET	4	idtext0120	le	##m#s##d	spk1	265.38	265.48	0.01	_
20091112_RATP_SCD_0449	89	4	T	NULL	nc	NULL	I_GN	OBJ	2	idtext0120	T	#####	spk1	265.49	265.66	0.01	_
20091112_RATP_SCD_0449	89	5	de	NULL	prep	NULL	B_GP	DEP	4	idtext0120	de	#####	spk1	265.67	265.78	0.01	_
20091112_RATP_SCD_0449	89	6	Thérèse	NULL	np	NULL	I_GP	OBJ	5	idtext0120	Thérèse	##f#s##	spk1	265.79	266.52	?	//

20091112_RATP_SCD_0449	90	1	T	NULL	nc	NULL	B_GN	NOLINK	0	idtext0121	T	#####	spk2	267.43	267.54	0.01	_
20091112_RATP_SCD_0449	90	2	ah	DISF_M	pres	NULL	NULL	NOLINK	0	idtext0121	ah	#####	spk2	267.55	267.6	0.01	_
20091112_RATP_SCD_0449	90	3	oui	NULL	adv	NULL	B_GADV	NOLINK	0	idtext0121	oui	#####	spk2	267.61	268.1	?	_

20091112_RATP_SCD_0449	91	1	I	NULL	nc	NULL	B_GN	NOLINK	0	idtext0122	I	#####	spk1	268.31	268.79	?	//

20091112_RATP_SCD_0449	92	1	I	NULL	nc	NULL	B_GN	NOLINK	0	idtext0123	I	#####	spk2	268.88	269.35	?	//

20091112_RATP_SCD_0449	93	1	V	NULL	nc	NULL	B_GN	ROOT	0	idtext0124	V	#####	spk1	270.13	270.29	0.01	_
20091112_RATP_SCD_0449	93	2	comme	NULL	adv	NULL	B_GADV	MOD	1	idtext0124	comme	#####	spk1	270.3	270.49	0.01	_
20091112_RATP_SCD_0449	93	3	le	NULL	det	NULL	B_GN	DET	4	idtext0124	le	##m#s##d	spk1	270.5	270.64	0.01	_
20091112_RATP_SCD_0449	93	4	V	NULL	nc	NULL	I_GN	OBJ	2	idtext0124	V	#####	spk1	270.65	270.75	0.01	_
20091112_RATP_SCD_0449	93	5	de	NULL	prep	NULL	B_GP	DEP	4	idtext0124	de	#####	spk1	270.76	270.86	0.01	_
20091112_RATP_SCD_0449	93	6	Valérie	NULL	np	NULL	I_GP	OBJ	5	idtext0124	Valérie	##f#s##	spk1	270.87	271.79	?	//

20091112_RATP_SCD_0449	94	1	comment	NULL	adv	NULL	B_GADV	NOLINK	0	idtext0125	comment	#####	spk2	272.26	272.69	?	//

20091112_RATP_SCD_0449	95	1	V	NULL	nc	NULL	B_GN	ROOT	0	idtext0126	V	#####	spk1	273.02	273.38	0.01	_
20091112_RATP_SCD_0449	95	2	comme	NULL	adv	NULL	B_GADV	MOD	1	idtext0126	comme	#####	spk1	273.39	273.63	0.01	_
20091112_RATP_SCD_0449	95	3	le	NULL	det	NULL	B_GN	DET	4	idtext0126	le	##m#s##d	spk1	273.64	273.84	0.01	_
20091112_RATP_SCD_0449	95	4	V	NULL	nc	NULL	I_GN	OBJ	2	idtext0126	V	#####	spk1	273.85	273.95	0.01	_
20091112_RATP_SCD_0449	95	5	de	NULL	prep	NULL	B_GP	DEP	4	idtext0126	de	#####	spk1	273.96	274.1	0.01	_
20091112_RATP_SCD_0449	95	6	Valérie	NULL	np	NULL	I_GP	OBJ	5	idtext0126	Valérie	##f#s##	spk1	274.11	274.84	?	//

20091112_RATP_SCD_0449	96	1	V	NULL	nc	NULL	B_GN	NOLINK	0	idtext0127	V	#####	spk2	274.91	274.96	0.01	_
20091112_RATP_SCD_0449	96	2	oui	NULL	adv	NULL	B_GADV	NOLINK	0	idtext0127	oui	#####	spk2	274.97	275.62	?	//

20091112_RATP_SCD_0449	97	1	I	NULL	nc	NULL	B_GN	NOLINK	0	idtext0128	I	#####	spk1	275.89	276.58	?	//

20091112_RATP_SCD_0449	98	1	encore	NULL	adv	NULL	B_GADV	NOLINK	0	idtext0129	encore	#####	spk2	277.37	277.8	0.01	_
20091112_RATP_SCD_0449	98	2	I	NULL	nc	NULL	B_GN	NOLINK	0	idtext0129	I	#####	spk2	277.81	278.07	?	//

20091112_RATP_SCD_0449	99	1	exact	NULL	adj	NULL	B_GADJ	NOLINK	0	idtext0130	exact	##m#s##	spk1	278.12	278.66	0.08	_
20091112_RATP_SCD_0449	99	2	ER	NULL	nc	B_A	B_GN	NOLINK	0	idtext0131	ER	#####	spk1	278.74	279.59	?	//

20091112_RATP_SCD_0449	100	1	N	NULL	nc	NULL	B_GN	NOLINK	0	idtext0132	N	#####	spk2	280.13	280.76	?	//

20091112_RATP_SCD_0449	101	1	ER	NULL	nc	B_A	B_GN	NOLINK	0	idtext0133	ER	#####	spk1	280.89	281.67	?	//

20091112_RATP_SCD_0449	102	1	ah	DISF_M	pres	NULL	NULL	NOLINK	0	idtext0134	ah	#####	spk2	281.86	282.1	0.01	_
20091112_RATP_SCD_0449	102	2	ER	NULL	np	NULL	B_GN	NOLINK	0	idtext0134	ER	#####	spk2	282.11	282.52	?	//

20091112_RATP_SCD_0449	103	1	tout+à+fait	NULL	adv	NULL	B_GADV	NOLINK	0	idtext0135	tout+à+fait	#####	spk1	282.61	283.24	0.04	_
20091112_RATP_SCD_0449	103	2	Métivier	NULL	nc	B_A	B_GN	NOLINK	0	idtext0136	Métivier	#####	spk1	283.28	284.56	?	//

20091112_RATP_SCD_0449	104	1	Mé	NULL	nc	B_A	B_GN	NOLINK	0	idtext0137	Mé	#####	spk1	284.64	284.97	?	//

20091112_RATP_SCD_0449	105	1	Béti()	DISF_T	tronc	NULL	NULL	NOLINK	0	idtext0138	Béti()	#####	spk2	285.45	286.03	0.01	//
20091112_RATP_SCD_0449	105	2	c'	NULL	cln	NULL	B_GN	SUJ_IMP	3	idtext0138	ce	###s##	spk2	286.04	286.13	0.01	_
20091112_RATP_SCD_0449	105	3	est	NULL	v	NULL	B_GVf	ROOT	0	idtext0138	être	P#3##s##	spk2	286.14	286.26	0.01	_
20091112_RATP_SCD_0449	105	4	un	NULL	det	NULL	B_GN	DET	5	idtext0138	un	##m#s##i	spk2	286.27	286.43	0.01	_
20091112_RATP_SCD_0449	105	5	V	NULL	nc	NULL	I_GN	ATS	3	idtext0138	V	#####	spk2	286.44	286.61	?	//

20091112_RATP_SCD_0449	106	1	ah	DISF_M	pres	NULL	NULL	NOLINK	0	idtext0139	ah	#####	spk1	288.51	288.7	0.01	_
20091112_RATP_SCD_0449	106	2	non	DISF_R	adv	NULL	NULL	NOLINK	0	idtext0139	non	#####	spk1	288.71	288.81	0.01	_
20091112_RATP_SCD_0449	106	3	non	NULL	adv	NULL	B_GADV	NOLINK	0	idtext0139	non	#####	spk1	288.82	288.89	0.01	_
20091112_RATP_SCD_0449	106	4	c'	NULL	cln	NULL	B_GN	SUJ_IMP	5	idtext0139	ce	###s##	spk1	288.9	288.92	0.01	_
20091112_RATP_SCD_0449	106	5	est	NULL	v	NULL	B_GVf	ROOT	0	idtext0139	être	P#3##s##	spk1	288.93	289.11	0.01	_
20091112_RATP_SCD_0449	106	6	un	NULL	det	NULL	B_GN	DET	7	idtext0139	un	##m#s##i	spk1	289.12	289.23	0.01	_
20091112_RATP_SCD_0449	106	7	V	NULL	nc	NULL	I_GN	ATS	5	idtext0139	V	#####	spk1	289.24	289.64	?	//

20091112_RATP_SCD_0449	107	1	Métivier	NULL	nc	B_A	B_GN	NOLINK	0	idtext0140	Métivier	#####	spk1	289.71	290.71	?	//

20091112_RATP_SCD_0449	108	1	ah	DISF_M	pres	NULL	NULL	NOLINK	0	idtext0141	ah	#####	spk2	289.96	290.71	?	//

20091112_RATP_SCD_0449	109	1	Mé	NULL	nc	B_A	B_GN	NOLINK	0	idtext0142	Mé	#####	spk2	290.8	291.22	1.96	//
20091112_RATP_SCD_0449	109	2	Gé()	DISF_T	tronc	NULL	NULL	NOLINK	0	idtext0143	Gé()	#####	spk2	293.18	293.62	?	_

20091112_RATP_SCD_0449	110	1	comme	NULL	adv	NULL	B_GADV	NOLINK	0	idtext0144	comme	#####	spk2	293.74	293.92	0.01	_
20091112_RATP_SCD_0449	110	2	Gaston	NULL	np	NULL	B_GN	NOLINK	0	idtext0144	Gaston	##m#s##	spk2	293.93	294.5	?	//

20091112_RATP_SCD_0449	111	1	un	NULL	det	NULL	B_GN	DET	2	idtext0145	un	##m#s##i	spk1	293.81	294.23	0.01	_
20091112_RATP_SCD_0449	111	2	V	NULL	nc	NULL	I_GN	ROOT	0	idtext0145	V	#####	spk1	294.24	294.5	?	//

20091112_RATP_SCD_0449	112	1	c'	NULL	cln	NULL	B_GN	SUJ_IMP	2	idtext0146	ce	###s##	spk1	294.67	294.69	0.01	_
20091112_RATP_SCD_0449	112	2	est	NULL	v	NULL	B_GVf	ROOT	0	idtext0146	être	P#3##s##	spk1	294.7	294.91	0.01	_
20091112_RATP_SCD_0449	112	3	le	NULL	det	NULL	B_GN	DET	4	idtext0146	le	##m#s##d	spk1	294.92	295.25	0.01	_
20091112_RATP_SCD_0449	112	4	V	NULL	nc	NULL	I_GN	ATS	2	idtext0146	V	#####	spk1	295.26	295.33	0.01	_
20091112_RATP_SCD_0449	112	5	de	NULL	prep	NULL	B_GP	DEP	4	idtext0146	de	#####	spk1	295.34	295.47	0.01	_
20091112_RATP_SCD_0449	112	6	Valérie	NULL	np	NULL	I_GP	OBJ	5	idtext0146	Valérie	##f#s##	spk1	295.48	296.17	?	//

20091112_RATP_SCD_0449	113	1	ah+bon	DISF_M	pres	NULL	NULL	NOLINK	0	idtext0147	ah+bon	#####	spk2	296.68	297.05	0.01	_
20091112_RATP_SCD_0449	113	2	Vétivier	NULL	np	NULL	B_GN	NOLINK	0	idtext0147	Vétivier	#####	spk2	297.06	297.93	0.08	_
20091112_RATP_SCD_0449	113	3	Auguste+Vétivier	NULL	nc	B_A	B_GN	NOLINK	0	idtext0148	Auguste+Vétivier	#####	spk2	298.01	299.21	?	//

20091112_RATP_SCD_0449	114	1	non	DISF_R	adv	NULL	NULL	NOLINK	0	idtext0149	non	#####	spk1	299.25	299.4	0.01	_
20091112_RATP_SCD_0449	114	2	non	NULL	adv	NULL	B_GADV	NOLINK	0	idtext0149	non	#####	spk1	299.41	299.65	?	_

20091112_RATP_SCD_0449	115	1	ah+bon	DISF_M	pres	NULL	NULL	NOLINK	0	idtext0150	ah+bon	#####	spk2	299.78	300.08	0.01	_
20091112_RATP_SCD_0449	115	2	d'accord	NULL	adv	NULL	B_GADV	NOLINK	0	idtext0150	d'accord	#####	spk2	300.09	300.41	0.01	_
20091112_RATP_SCD_0449	115	3	je	NULL	cln	NULL	B_GN	SUJ	5	idtext0150	cln	#1##s##	spk2	300.42	300.49	0.01	_
20091112_RATP_SCD_0449	115	4	ne	NULL	clneg	NULL	B_GVfn	MOD	5	idtext0150	ne	#####	spk2	300.5	300.55	0.01	_
20091112_RATP_SCD_0449	115	5	connaissais	NULL	v	NULL	I_GVfn	ROOT	0	idtext0150	connaître	I#12##s##	spk2	300.56	300.88	0.01	_
20091112_RATP_SCD_0449	115	6	pas	NULL	advneg	NULL	I_GVfn	MOD	5	idtext0150	pas	#####	spk2	300.89	301.06	0.01	_
20091112_RATP_SCD_0449	115	7	ce	NULL	det	NULL	B_NULL	NOLINK	0	idtext0150	ce	##m#s##e	spk2	301.07	301.14	?	_

20091112_RATP_SCD_0449	116	1	monsieur	NULL	nc	NULL	B_GN	NOLINK	0	idtext0151	Monsieur	##m#s##	spk2	301.49	301.49	0.00	_
20091112_RATP_SCD_0449	116	2	là	NULL	adv	NULL	B_GADV	NOLINK	0	idtext0151	là	#####	spk2	301.49	301.7	?	//

20091112_RATP_SCD_0449	117	1	non	DISF_R	adv	NULL	NULL	NOLINK	0	idtext0152	non	#####	spk1	301.52	301.57	0.01	_
20091112_RATP_SCD_0449	117	2	non	NULL	adv	NULL	B_GADV	NOLINK	0	idtext0152	non	#####	spk1	301.58	301.7	?	_

20091112_RATP_SCD_0449	118	1	c'	NULL	cln	NULL	B_GN	SUJ_IMP	2	idtext0153	ce	###s##	spk1	301.74	301.77	0.01	_
20091112_RATP_SCD_0449	118	2	est	NULL	v	NULL	B_GVf	ROOT	0	idtext0153	être	P#3##s##	spk1	301.78	301.94	0.01	_
20091112_RATP_SCD_0449	118	3	Auguste+Métivier	NULL	nc	B_A	B_GN	ATS	2	idtext0153	Auguste+Métivier	#####	spk1	301.95	302.97	0.01	_
20091112_RATP_SCD_0449	118	4	c'	NULL	cln	NULL	B_GN	SUJ_IMP	5	idtext0153	ce	###s##	spk1	302.98	303.0	0.01	_
20091112_RATP_SCD_0449	118	5	est	NULL	v	NULL	B_GVfn	ROOT	0	idtext0153	être	P#3##s##	spk1	303.01	303.13	0.01	_
20091112_RATP_SCD_0449	118	6	pas	NULL	advneg	NULL	I_GVfn	MOD	5	idtext0153	pas	#####	spk1	303.14	303.35	0.01	_
20091112_RATP_SCD_0449	118	7	Auguste+Vétivier	NULL	nc	B_A	B_GN	ATS	5	idtext0153	Auguste+Vétivier	#####	spk1	303.36	304.1	0.01	_
20091112_RATP_SCD_0449	118	8	c'	NULL	cln	NULL	B_GN	SUJ_IMP	9	idtext0153	ce	###s##	spk1	304.11	304.19	0.01	_
20091112_RATP_SCD_0449	118	9	est	NULL	v	NULL	B_GVf	ROOT	0	idtext0153	être	P#3##s##	spk1	304.2	304.33	0.01	_
20091112_RATP_SCD_0449	118	10	Métivier	NULL	nc	B_A	B_GN	ATS	9	idtext0153	Métivier	#####	spk1	304.34	304.95	0.14	_
20091112_RATP_SCD_0449	118	11	c'est-à-dire	NULL	coo	NULL	B_NULL	ROOT	0	idtext0154	c'est-à-dire	#####	spk1	305.09	305.57	0.01	_
20091112_RATP_SCD_0449	118	12	qu'	NULL	csu	NULL	B_NULL	DEP_COORD	11	idtext0154	qu'	#####	spk1	305.58	305.64	0.01	_
20091112_RATP_SCD_0449	118	13	à	NULL	prep	NULL	B_GP	OBJ	12	idtext0154	à	#####	spk1	305.65	305.69	0.01	_
20091112_RATP_SCD_0449	118	14	la	NULL	det	NULL	I_GP	DET	15	idtext0154	le	##m#s##d	spk1	305.7	305.81	0.01	_
20091112_RATP_SCD_0449	118	15	place	NULL	nc	NULL	I_GP	OBJ	13	idtext0154	place	##f#s##	spk1	305.82	306.06	0.01	_
20091112_RATP_SCD_0449	118	16	du	NULL	prep	NULL	I_GP	DEP	15	idtext0154	du	#####	spk1	306.07	306.26	0.01	_
20091112_RATP_SCD_0449	118	17	V	NULL	nc	NULL	I_GP	OBJ	16	idtext0154	V	#####	spk1	306.27	306.7	?	//

20091112_RATP_SCD_0449	119	1	oui	NULL	adv	NULL	B_GADV	NOLINK	0	idtext0155	oui	#####	spk2	307.37	307.82	?	//

20091112_RATP_SCD_0449	120	1	c'	NULL	cln	NULL	B_GN	SUJ_IMP	2	idtext0156	ce	###s##	spk1	308.19	308.21	0.01	_
20091112_RATP_SCD_0449	120	2	est	NULL	v	NULL	B_GVf	ROOT	0	idtext0156	être	P#3##s##	spk1	308.22	308.37	0.01	_
20091112_RATP_SCD_0449	120	3	un	NULL	det	NULL	B_GN	DET	4	idtext0156	un	##m#s##i	spk1	308.38	308.59	0.01	_
20091112_RATP_SCD_0449	120	4	M	NULL	nc	NULL	I_GN	ATS	2	idtext0156	Monsieur	##m#s##	spk1	308.6	309.2	?	//

20091112_RATP_SCD_0449	121	1	ah+bon	DISF_M	pres	NULL	NULL	NOLINK	0	idtext0157	ah+bon	#####	spk2	309.34	309.99	0.01	_
20091112_RATP_SCD_0449	121	2	ah+bon	DISF_M	pres	NULL	NULL	NOLINK	0	idtext0157	ah+bon	#####	spk2	310.0	310.39	0.01	_
20091112_RATP_SCD_0449	121	3	d'accord	NULL	adv	NULL	B_GADV	MOD	4	idtext0157	d'accord	#####	spk2	310.4	310.76	0.01	_
20091112_RATP_SCD_0449	121	4	alors	NULL	adv	NULL	I_GADV	ROOT	0	idtext0157	alors	#####	spk2	310.77	310.94	0.01	_
20091112_RATP_SCD_0449	121	5	Métivier	DISF_R	np	NULL	NULL	NOLINK	0	idtext0157	Métivier	#####	spk2	310.95	311.75	0.01	_
20091112_RATP_SCD_0449	121	6	Auguste+Métivier	NULL	nc	B_A	B_GN	NOLINK	0	idtext0157	Auguste+Métivier	#####	spk2	311.76	312.89	?	//

20091112_RATP_SCD_0449	122	1	tout+à+fait	NULL	adv	NULL	B_GADV	NOLINK	0	idtext0158	tout+à+fait	#####	spk1	312.93	313.55	?	//

20091112_RATP_SCD_0449	123	1	je	NULL	cln	NULL	B_GN	SUJ	2	idtext0159	cln	#1##s##	spk2	313.6	313.68	0.01	_
20091112_RATP_SCD_0449	123	2	descends	NULL	v	NULL	B_GVf	ROOT	0	idtext0159	descendre	P#12##s##	spk2	313.69	314.08	0.01	_
20091112_RATP_SCD_0449	123	3	là	NULL	adv	NULL	B_GADV	P_OBJ_LOC	2	idtext0159	là	#####	spk2	314.09	314.43	0.01	_
20091112_RATP_SCD_0449	123	4	et	NULL	coo	NULL	B_NULL	COORD	2	idtext0159	et	#####	spk2	314.44	314.58	0.01	_
20091112_RATP_SCD_0449	123	5	je	NULL	cln	NULL	B_GN	SUJ	6	idtext0159	cln	#1##s##	spk2	314.59	314.71	0.01	_
20091112_RATP_SCD_0449	123	6	suis	NULL	v	NULL	B_GVf	DEP_COORD	4	idtext0159	être	P#1##s##	spk2	314.72	314.93	0.01	_
20091112_RATP_SCD_0449	123	7	là	NULL	adv	NULL	B_GADV	MOD	8	idtext0159	là	#####	spk2	314.94	315.06	0.01	_
20091112_RATP_SCD_0449	123	8	pas	NULL	advneg	NULL	B_NULL	MOD	9	idtext0159	pas	#####	spk2	315.07	315.28	0.01	_
20091112_RATP_SCD_0449	123	9	loin+de	NULL	prep	NULL	B_NULL	P_OBJ_LOC	6	idtext0159	loin+de	#####	spk2	315.29	315.56	0.01	_
20091112_RATP_SCD_0449	123	10	mon	NULL	det	NULL	B_NULL	NOLINK	0	idtext0159	mon	###s##o	spk2	315.57	316.24	?	_

20091112_RATP_SCD_0449	124	1	exactement	NULL	adv	NULL	B_GADV	NOLINK	0	idtext0160	exactement	#####	spk1	316.46	317.03	0.01	_
20091112_RATP_SCD_0449	124	2	vous	NULL	cln	NULL	B_GN	SUJ	3	idtext0160	cln	#2##p##	spk1	317.04	317.18	0.01	_
20091112_RATP_SCD_0449	124	3	êtes	NULL	v	NULL	B_GVf	ROOT	0	idtext0160	être	P#2##p##	spk1	317.19	317.34	0.01	_
20091112_RATP_SCD_0449	124	4	vraiment	NULL	adv	NULL	B_GADV	MOD	7	idtext0160	vraiment	#####	spk1	317.35	317.67	0.01	_
20091112_RATP_SCD_0449	124	5	à+côté+de	NULL	prep	NULL	B_GP	P_OBJ_LOC	3	idtext0160	à+côté+de	#####	spk1	317.68	318.41	0.01	_
20091112_RATP_SCD_0449	124	6	l'	NULL	det	NULL	I_GP	DET	7	idtext0160	le	###s##d	spk1	318.42	318.48	0.01	_
20091112_RATP_SCD_0449	124	7	avenue	NULL	nc	B_A	I_GP	OBJ	5	idtext0160	avenue	##f#s##	spk1	318.49	318.79	0.01	_
20091112_RATP_SCD_0449	124	8	de	NULL	prep	I_A	I_GP	DEP	7	idtext0160	de	#####	spk1	318.8	318.83	0.01	_
20091112_RATP_SCD_0449	124	9	la	NULL	det	I_A	I_GP	DET	10	idtext0160	le	##m#s##d	spk1	318.84	318.94	0.01	_
20091112_RATP_SCD_0449	124	10	République	NULL	np	I_A	I_GP	OBJ	8	idtext0160	République	#####	spk1	318.95	319.45	0.01	_
20091112_RATP_SCD_0449	124	11	notamment	NULL	adv	NULL	B_GADV	MOD	3	idtext0160	notamment	#####	spk1	319.46	319.86	0.01	_
20091112_RATP_SCD_0449	124	12	le	NULL	det	NULL	B_GN	DET	13	idtext0160	le	##m#s##d	spk1	319.87	320.2	0.01	_
20091112_RATP_SCD_0449	124	13	numéro	NULL	nc	NULL	I_GN	ATS	3	idtext0160	numéro	##m#s##	spk1	320.21	320.51	0.01	_
20091112_RATP_SCD_0449	124	14	cent+trente	NULL	adj	B_T	I_GN	MOD	13	idtext0160	cent+trente	#####	spk1	320.52	320.98	0.50	/
20091112_RATP_SCD_0449	124	15	en	NULL	prep	NULL	B_GP	MOD	23	idtext0161	en	#####	spk1	321.48	321.57	0.01	_
20091112_RATP_SCD_0449	124	16	descendant	NULL	vprespart	NULL	I_GP	OBJ	15	idtext0161	descendre	G#####	spk1	321.58	322.06	0.01	_
20091112_RATP_SCD_0449	124	17	du	NULL	prep	NULL	B_GP	P_OBJ_LOC	16	idtext0161	du	#####	spk1	322.07	322.19	0.01	_
20091112_RATP_SCD_0449	124	18	bus	NULL	nc	NULL	I_GP	OBJ	17	idtext0161	bus	##m###	spk1	322.2	322.34	0.01	//
20091112_RATP_SCD_0449	124	19	ça	NULL	pro	NULL	I_GP	SUJ_IMP	20	idtext0161	ça	#####	spk1	322.35	322.48	0.01	_
20091112_RATP_SCD_0449	124	20	sera	NULL	v	NULL	B_GVf	ROOT	0	idtext0161	être	F#3##s##	spk1	322.49	322.65	0.01	_
20091112_RATP_SCD_0449	124	21	la	NULL	det	NULL	B_GN	DET	23	idtext0161	le	##m#s##d	spk1	322.66	322.75	0.01	_
20091112_RATP_SCD_0449	124	22	première	NULL	adj	NULL	I_GN	MOD	23	idtext0161	premier	##f#s##	spk1	322.76	323.14	0.01	_
20091112_RATP_SCD_0449	124	23	rue	NULL	nc	NULL	I_GN	ATS	20	idtext0161	rue	##f#s##	spk1	323.15	323.24	0.01	_
20091112_RATP_SCD_0449	124	24	à+gauche	NULL	adv	NULL	B_GADV	NOLINK	0	idtext0161	à+gauche	#####	spk1	323.25	323.93	?	//

20091112_RATP_SCD_0449	125	1	ah	DISF_M	pres	NULL	NULL	NOLINK	0	idtext0162	ah	#####	spk2	324.37	324.5	0.01	_
20091112_RATP_SCD_0449	125	2	d'accord	NULL	adv	NULL	B_GADV	NOLINK	0	idtext0162	d'accord	#####	spk2	324.51	324.98	?	_

20091112_RATP_SCD_0449	126	1	vous	NULL	cln	NULL	B_GN	SUJ	3	idtext0163	cln	#2##p##	spk1	325.02	325.2	0.01	_
20091112_RATP_SCD_0449	126	2	la	NULL	clo	NULL	B_GN	OBJ	3	idtext0164	cla	#3#f#s##	spk1	325.21	325.32	0.01	_
20091112_RATP_SCD_0449	126	3	verrez	NULL	v	NULL	B_GVf	ROOT	0	idtext0164	voir	F#2##p##	spk1	325.33	325.64	0.01	_
20091112_RATP_SCD_0449	126	4	hein	DISF_M	pres	NULL	NULL	NOLINK	0	idtext0164	hein	#####	spk1	325.65	325.74	0.01	_
20091112_RATP_SCD_0449	126	5	c'	NULL	cln	NULL	B_GN	SUJ_IMP	6	idtext0164	ce	###s##	spk1	325.75	325.83	0.01	_
20091112_RATP_SCD_0449	126	6	est	NULL	v	NULL	B_GVf	ROOT	0	idtext0164	être	P#3##s##	spk1	325.84	325.88	0.01	_
20091112_RATP_SCD_0449	126	7	une	NULL	det	NULL	B_GN	DET	9	idtext0164	un	##f#s##i	spk1	325.89	325.94	0.01	_
20091112_RATP_SCD_0449	126	8	grande	NULL	adj	NULL	I_GN	MOD	9	idtext0164	grand	##f#s##	spk1	325.95	326.15	0.01	_
20091112_RATP_SCD_0449	126	9	avenue	NULL	nc	NULL	I_GN	ATS	6	idtext0164	avenue	##f#s##	spk1	326.16	326.64	0.01	_
20091112_RATP_SCD_0449	126	10	donc	NULL	coo	NULL	B_NULL	COORD	6	idtext0164	donc	#####	spk1	326.65	326.87	0.01	_
20091112_RATP_SCD_0449	126	11	vous	NULL	cln	NULL	B_GN	SUJ	13	idtext0164	cln	#2##p##	spk1	326.88	326.96	0.01	_
20091112_RATP_SCD_0449	126	12	la	NULL	clo	NULL	B_GN	OBJ	13	idtext0164	cla	#3#f#s##	spk1	326.97	327.05	0.01	_
20091112_RATP_SCD_0449	126	13	verrez	NULL	v	NULL	B_GVf	DEP_COORD	10	idtext0164	voir	F#2##p##	spk1	327.06	327.32	0.01	_
20091112_RATP_SCD_0449	126	14	automatiquement	NULL	adv	NULL	B_GADV	MOD	13	idtext0164	automatiquement	#####	spk1	327.33	328.06	?	_

20091112_RATP_SCD_0449	127	1	ça	NULL	pro	NULL	B_GN	NOLINK	0	idtext0165	ça	#####	spk2	328.16	328.33	0.01	_
20091112_RATP_SCD_0449	127	2	oui	DISF_R	adv	NULL	NULL	NOLINK	0	idtext0165	oui	#####	spk2	328.34	328.5	0.01	_
20091112_RATP_SCD_0449	127	3	oui	DISF_R	adv	NULL	NULL	NOLINK	0	idtext0165	oui	#####	spk2	328.51	328.61	0.01	_
20091112_RATP_SCD_0449	127	4	oui	NULL	adv	NULL	B_GADV	NOLINK	0	idtext0165	oui	#####	spk2	328.62	328.9	0.35	_
20091112_RATP_SCD_0449	127	5	d'accord	NULL	adv	NULL	B_GADV	MOD	6	idtext0166	d'accord	#####	spk2	329.25	329.59	0.01	_
20091112_RATP_SCD_0449	127	6	alors	NULL	adv	NULL	I_GADV	ROOT	0	idtext0166	alors	#####	spk2	329.6	329.83	0.01	_
20091112_RATP_SCD_0449	127	7	ce	DISF_R	det	NULL	NULL	NOLINK	0	idtext0166	ce	##m#s##e	spk2	329.84	329.93	0.01	_
20091112_RATP_SCD_0449	127	8	cette	NULL	det	NULL	B_GN	DET	9	idtext0166	cet	##f#s##e	spk2	329.94	330.39	0.01	_
20091112_RATP_SCD_0449	127	9	rue	NULL	nc	B_A	I_GN	ROOT	0	idtext0166	rue	##f#s##	spk2	330.4	330.64	0.01	_
20091112_RATP_SCD_0449	127	10	Auguste+Métivier	NULL	np	I_A	I_GN	MOD	9	idtext0166	Auguste+Métivier	#####	spk2	330.65	331.37	0.01	_
20091112_RATP_SCD_0449	127	11	d'accord	NULL	adv	NULL	B_GADV	NOLINK	0	idtext0166	d'accord	#####	spk2	331.38	331.74	0.01	_
20091112_RATP_SCD_0449	127	12	elle	DISF_R	cln	NULL	NULL	NOLINK	0	idtext0166	cln	#3#f#s##	spk2	331.75	331.84	0.01	_
20091112_RATP_SCD_0449	127	13	est	DISF_R	v	NULL	NULL	NOLINK	0	idtext0166	être	P#3##s##	spk2	331.85	331.9	0.01	_
20091112_RATP_SCD_0449	127	14	av()	DISF_T	tronc	NULL	NULL	NOLINK	0	idtext0166	av()	#####	spk2	331.91	332.07	0.01	_
20091112_RATP_SCD_0449	127	15	elle	NULL	cln	NULL	B_GN	SUJ	16	idtext0166	cln	#3#f#s##	spk2	332.08	332.35	0.01	_
20091112_RATP_SCD_0449	127	16	est	NULL	v	NULL	B_GVf	ROOT	0	idtext0166	être	P#3##s##	spk2	332.36	332.41	0.01	_
20091112_RATP_SCD_0449	127	17	avant	NULL	prep	NULL	B_GP	P_OBJ_LOC	16	idtext0166	avant	#####	spk2	332.42	332.68	0.01	_
20091112_RATP_SCD_0449	127	18	Gambetta	NULL	nc	B_A	I_GP	OBJ	17	idtext0166	Gambetta	#####	spk2	332.69	333.15	0.01	_
20091112_RATP_SCD_0449	127	19	en+somme	NULL	adv	NULL	B_GADV	MOD	16	idtext0166	en+somme	#####	spk2	333.16	333.9	?	_

20091112_RATP_SCD_0449	128	1	d'accord	NULL	adv	NULL	B_GADV	NOLINK	0	idtext0167	d'accord	#####	spk2	334.94	335.42	?	//

20091112_RATP_SCD_0449	129	1	bon+ben	DISF_M	pres	NULL	NULL	NOLINK	0	idtext0168	bon+ben	#####	spk2	335.72	336.04	0.01	_
20091112_RATP_SCD_0449	129	2	je	NULL	cln	NULL	B_GN	SUJ	3	idtext0168	cln	#1##s##	spk2	336.05	336.07	0.01	_
20091112_RATP_SCD_0449	129	3	vais	NULL	v	NULL	B_GVf	ROOT	0	idtext0168	aller	P#1##s##	spk2	336.08	336.16	0.01	_
20091112_RATP_SCD_0449	129	4	trouver	NULL	vinf	NULL	I_GVf	OBJ	3	idtext0168	trouver	W#####	spk2	336.17	336.42	0.01	_
20091112_RATP_SCD_0449	129	5	ça	NULL	pro	NULL	B_GN	OBJ	4	idtext0168	ça	#####	spk2	336.43	336.57	0.01	_
20091112_RATP_SCD_0449	129	6	alors	NULL	adv	NULL	B_GADV	MOD	7	idtext0168	alors	#####	spk2	336.58	336.78	0.01	_
20091112_RATP_SCD_0449	129	7	merci	NULL	adv	NULL	I_GADV	ROOT	0	idtext0168	merci	#####	spk2	336.79	337.12	0.01	_
20091112_RATP_SCD_0449	129	8	madame	NULL	nc	NULL	B_GN	NOLINK	0	idtext0168	Monsieur	##f#s##	spk2	337.13	337.36	?	//

20091112_RATP_SCD_0449	130	1	je	NULL	cln	NULL	B_GN	SUJ	4	idtext0169	cln	#1##s##	spk1	337.58	337.65	0.01	_
20091112_RATP_SCD_0449	130	2	vous	NULL	clo	NULL	B_GN	OBJ	4	idtext0169	cln	#2##p##	spk1	337.66	337.81	0.01	_
20091112_RATP_SCD_0449	130	3	en	NULL	clo	NULL	B_GN	DE_OBJ	4	idtext0169	en	#####	spk1	337.82	337.95	0.01	_
20091112_RATP_SCD_0449	130	4	prie	NULL	v	NULL	B_GVf	ROOT	0	idtext0169	prier	PS#13##s##	spk1	337.96	338.46	0.09	_
20091112_RATP_SCD_0449	130	5	je	NULL	cln	NULL	B_GN	SUJ	7	idtext0170	cln	#1##s##	spk1	338.55	338.58	0.01	_
20091112_RATP_SCD_0449	130	6	vous	NULL	clo	NULL	B_GN	A_OBJ	7	idtext0170	cln	#2##p##	spk1	338.59	338.64	0.01	_
20091112_RATP_SCD_0449	130	7	souhaite	NULL	v	NULL	B_GVf	ROOT	0	idtext0170	souhaiter	PS#13##s##	spk1	338.65	338.87	0.01	_
20091112_RATP_SCD_0449	130	8	une	NULL	det	NULL	B_GN	DET	10	idtext0170	un	##f#s##i	spk1	338.88	338.97	0.01	_
20091112_RATP_SCD_0449	130	9	bonne	NULL	adj	NULL	I_GN	MOD	10	idtext0170	bon	##f#s##	spk1	338.98	339.13	0.01	_
20091112_RATP_SCD_0449	130	10	journée	NULL	nc	NULL	I_GN	OBJ	7	idtext0170	journée	##f#s##	spk1	339.14	339.46	?	//

20091112_RATP_SCD_0449	131	1	au+revoir	NULL	adv	NULL	B_GADV	NOLINK	0	idtext0171	au+revoir	#####	spk2	338.58	339.07	0.01	_
20091112_RATP_SCD_0449	131	2	madame	NULL	nc	NULL	B_GN	NOLINK	0	idtext0171	Monsieur	##f#s##	spk2	339.08	339.46	?	//

20091112_RATP_SCD_0449	132	1	au+revoir	NULL	adv	NULL	B_GADV	NOLINK	0	idtext0172	au+revoir	#####	spk1	339.5	339.88	?	//

20091112_RATP_SCD_0449	133	1	voilà	DISF_M	pres	NULL	NULL	NOLINK	0	idtext0173	voilà	#####	spk2	342.52	343.22	?	//

