20091112_RATP_SCD_0159	1	1	NNAAMMEE	NULL	np	B_HU	B_GN	ROOT	0	idtext0000	ANONYM	NULL	spk1	5.5	5.69	0.04	_
20091112_RATP_SCD_0159	1	2	bonjour	NULL	adv	NULL	B_GADV	NOLINK	0	idtext0001	bonjour	#####	spk1	5.73	6.0	?	//

20091112_RATP_SCD_0159	2	1	oui	NULL	adv	NULL	B_GADV	MOD	2	idtext0002	oui	#####	spk2	6.66	6.92	0.01	_
20091112_RATP_SCD_0159	2	2	bonjour	NULL	adv	NULL	I_GADV	ROOT	0	idtext0002	bonjour	#####	spk2	6.93	7.37	0.04	_
20091112_RATP_SCD_0159	2	3	je	NULL	cln	NULL	B_GN	SUJ	4	idtext0003	cln	#1##s##	spk2	7.41	7.56	0.01	_
20091112_RATP_SCD_0159	2	4	voudrais	NULL	v	NULL	B_GVf	ROOT	0	idtext0003	vouloir	C#12##s##	spk2	7.57	7.79	0.01	_
20091112_RATP_SCD_0159	2	5	savoir	NULL	vinf	NULL	I_GVf	OBJ	4	idtext0003	savoir	W#####	spk2	7.8	8.18	0.01	_
20091112_RATP_SCD_0159	2	6	comment	NULL	adv	NULL	B_GVi	MOD	7	idtext0003	comment	#####	spk2	8.19	8.61	0.01	_
20091112_RATP_SCD_0159	2	7	rejoindre	NULL	vinf	NULL	I_GVi	OBJ	4	idtext0003	rejoindre	W#####	spk2	8.62	9.03	0.01	_
20091112_RATP_SCD_0159	2	8	la	NULL	det	NULL	B_GN	DET	9	idtext0003	le	##m#s##d	spk2	9.04	9.19	0.01	_
20091112_RATP_SCD_0159	2	9	rue	NULL	nc	NULL	I_GN	OBJ	7	idtext0003	rue	##f#s##	spk2	9.2	9.41	0.01	_
20091112_RATP_SCD_0159	2	10	du	NULL	prep	NULL	B_NULL	DEP	9	idtext0003	du	#####	spk2	9.42	9.97	0.41	_
20091112_RATP_SCD_0159	2	11	du	NULL	prep	NULL	B_GP	ROOT	0	idtext0004	du	#####	spk2	10.38	10.94	0.01	_
20091112_RATP_SCD_0159	2	12	Bourg-Tibourg	NULL	nc	B_A	I_GP	OBJ	11	idtext0004	Bourg-Tibourg	#####	spk2	10.95	12.16	0.06	_
20091112_RATP_SCD_0159	2	13	euh	DISF_M	pres	NULL	NULL	NOLINK	0	idtext0005	euh	#####	spk2	12.22	12.38	0.01	_
20091112_RATP_SCD_0159	2	14	déjà	NULL	adv	NULL	B_GADV	NOLINK	0	idtext0005	déjà	#####	spk2	12.39	12.62	0.01	_
20091112_RATP_SCD_0159	2	15	je	NULL	cln	NULL	B_GN	SUJ	16	idtext0005	cln	#1##s##	spk2	12.63	12.76	0.01	_
20091112_RATP_SCD_0159	2	16	sais	NULL	v	NULL	B_GVfn	ROOT	0	idtext0005	savoir	P#12##s##	spk2	12.77	12.89	0.01	_
20091112_RATP_SCD_0159	2	17	pas	NULL	advneg	NULL	I_GVfn	MOD	16	idtext0005	pas	#####	spk2	12.9	13.03	0.01	_
20091112_RATP_SCD_0159	2	18	quelle	NULL	det	NULL	B_GN	DET	19	idtext0005	quel	##f#s##	spk2	13.04	13.21	0.01	_
20091112_RATP_SCD_0159	2	19	station	NULL	nc	NULL	I_GN	OBJ	16	idtext0005	station	##f#s##	spk2	13.22	13.62	0.01	_
20091112_RATP_SCD_0159	2	20	de	NULL	prep	NULL	B_GP	DEP	19	idtext0005	de	#####	spk2	13.63	13.65	0.01	_
20091112_RATP_SCD_0159	2	21	métro	NULL	nc	NULL	I_GP	OBJ	20	idtext0005	métro	##m#s##	spk2	13.66	13.96	0.01	_
20091112_RATP_SCD_0159	2	22	c'	NULL	cln	NULL	B_GN	SUJ_IMP	23	idtext0005	ce	###s##	spk2	13.97	14.13	0.01	_
20091112_RATP_SCD_0159	2	23	est	NULL	v	NULL	B_GVf	ROOT	0	idtext0005	être	P#3##s##	spk2	14.14	14.24	?	//

20091112_RATP_SCD_0159	3	1	en+fait	GREF	adv	NULL	B_GADV	NOLINK	0	idtext0006	en+fait	#####	spk2	14.28	15.47	?	//

20091112_RATP_SCD_0159	4	1	rue	NULL	nc	B_A	B_GN	NOLINK	0	idtext0007	rue	##f#s##	spk1	14.28	14.58	0.01	_
20091112_RATP_SCD_0159	4	2	du	NULL	prep	I_A	I_GN	DEP	1	idtext0007	du	#####	spk1	14.59	14.7	0.01	_
20091112_RATP_SCD_0159	4	3	Bourg-Tibourg	NULL	np	I_A	I_GN	OBJ	2	idtext0007	Bourg-Tibourg	#####	spk1	14.71	15.47	?	//

20091112_RATP_SCD_0159	5	1	oui	NULL	adv	NULL	B_GADV	NOLINK	0	idtext0008	oui	#####	spk2	15.83	16.11	?	//

20091112_RATP_SCD_0159	6	1	alors	NULL	adv	NULL	B_GADV	NOLINK	0	idtext0009	alors	#####	spk1	16.89	17.06	0.01	_
20091112_RATP_SCD_0159	6	2	rue	NULL	nc	B_A	B_GN	NOLINK	0	idtext0009	rue	##f#s##	spk1	17.07	17.17	0.01	_
20091112_RATP_SCD_0159	6	3	du	NULL	prep	I_A	I_GN	DEP	2	idtext0009	du	#####	spk1	17.18	17.3	0.01	_
20091112_RATP_SCD_0159	6	4	Bourg-Tibourg	NULL	np	I_A	I_GN	OBJ	3	idtext0009	Bourg-Tibourg	#####	spk1	17.31	18.11	?	//

20091112_RATP_SCD_0159	7	1	je	NULL	cln	NULL	B_GN	SUJ	2	idtext0010	cln	#1##s##	spk1	19.24	19.36	0.01	_
20091112_RATP_SCD_0159	7	2	vais	NULL	v	NULL	B_GVf	ROOT	0	idtext0010	aller	P#1##s##	spk1	19.37	19.46	0.01	_
20091112_RATP_SCD_0159	7	3	vérifier	NULL	vinf	NULL	I_GVf	OBJ	2	idtext0010	vérifier	W#####	spk1	19.47	19.77	0.01	_
20091112_RATP_SCD_0159	7	4	vous	NULL	cln	NULL	B_GN	SUJ	6	idtext0010	cln	#2##p##	spk1	19.78	19.86	0.01	_
20091112_RATP_SCD_0159	7	5	l'	NULL	clo	NULL	B_GN	OBJ	6	idtext0010	cla	#3##s##	spk1	19.87	19.89	0.01	_
20091112_RATP_SCD_0159	7	6	écrivez	NULL	v	NULL	B_GVf	ROOT	0	idtext0010	écrire	P#2##p##	spk1	19.9	20.25	0.01	_
20091112_RATP_SCD_0159	7	7	comment	NULL	adv	NULL	B_GADV	MOD	6	idtext0010	comment	#####	spk1	20.26	20.79	?	_

20091112_RATP_SCD_0159	8	1	je	NULL	cln	NULL	B_GN	SUJ	2	idtext0011	cln	#1##s##	spk1	20.83	20.85	0.01	_
20091112_RATP_SCD_0159	8	2	vais	NULL	v	NULL	B_GVf	ROOT	0	idtext0011	aller	P#1##s##	spk1	20.86	20.95	0.01	_
20091112_RATP_SCD_0159	8	3	regarder	NULL	vinf	NULL	I_GVf	OBJ	2	idtext0011	regarder	W#####	spk1	20.96	21.42	?	//

20091112_RATP_SCD_0159	9	1	B	NULL	nc	NULL	B_GN	NOLINK	0	idtext0012	B	#####	spk2	21.72	22.54	?	//

20091112_RATP_SCD_0159	10	1	euh	DISF_M	pres	NULL	NULL	NOLINK	0	idtext0013	euh	#####	spk1	21.75	22.54	?	//

20091112_RATP_SCD_0159	11	1	B	NULL	nc	NULL	B_GN	NOLINK	0	idtext0014	B	#####	spk2	23.01	23.29	0.01	/
20091112_RATP_SCD_0159	11	2	O	NULL	nc	NULL	B_GN	ROOT	0	idtext0014	O	#####	spk2	23.3	23.5	0.01	_
20091112_RATP_SCD_0159	11	3	U	NULL	nc	NULL	I_GN	MOD	2	idtext0014	U	#####	spk2	23.51	23.53	0.01	_
20091112_RATP_SCD_0159	11	4	R	NULL	nc	NULL	B_GN	ROOT	0	idtext0014	R	#####	spk2	23.54	24.08	0.01	//
20091112_RATP_SCD_0159	11	5	euh	DISF_M	pres	NULL	NULL	NOLINK	0	idtext0014	euh	#####	spk2	24.09	24.34	0.01	_
20091112_RATP_SCD_0159	11	6	G	NULL	nc	NULL	I_GN	MOD	4	idtext0014	G	#####	spk2	24.35	25.16	0.04	_
20091112_RATP_SCD_0159	11	7	plus	NULL	adv	NULL	B_GADV	MOD	8	idtext0015	plus	#####	spk2	25.2	25.34	0.01	_
20091112_RATP_SCD_0159	11	8	loin	NULL	adv	NULL	I_GADV	ROOT	0	idtext0015	loin	#####	spk2	25.35	25.64	0.01	_
20091112_RATP_SCD_0159	11	9	T	NULL	nc	NULL	B_GN	ROOT	0	idtext0016	T	#####	spk2	25.65	25.81	0.01	_
20091112_RATP_SCD_0159	11	10	I	NULL	nc	NULL	B_GN	MOD	9	idtext0016	I	#####	spk2	25.82	26.54	0.01	_
20091112_RATP_SCD_0159	11	11	B	NULL	nc	NULL	I_GN	MOD	10	idtext0017	B	#####	spk2	26.55	26.7	0.01	_
20091112_RATP_SCD_0159	11	12	O	NULL	nc	NULL	B_GN	ROOT	0	idtext0017	O	#####	spk2	26.71	26.95	0.01	_
20091112_RATP_SCD_0159	11	13	U	NULL	nc	NULL	I_GN	MOD	12	idtext0017	U	#####	spk2	26.96	27.12	0.01	_
20091112_RATP_SCD_0159	11	14	R	NULL	nc	NULL	B_GN	ROOT	0	idtext0017	R	#####	spk2	27.13	27.34	0.01	/
20091112_RATP_SCD_0159	11	15	G	NULL	nc	NULL	I_GN	MOD	14	idtext0017	G	#####	spk2	27.35	27.52	0.01	_
20091112_RATP_SCD_0159	11	16	sûrement	NULL	adv	NULL	B_GADV	NOLINK	0	idtext0017	sûrement	#####	spk2	27.53	28.07	?	_

20091112_RATP_SCD_0159	12	1	alors	NULL	adv	NULL	B_GADV	NOLINK	0	idtext0018	alors	#####	spk1	28.92	29.04	0.01	_
20091112_RATP_SCD_0159	12	2	Bourg-Tibourg	NULL	nc	B_A	B_GN	NOLINK	0	idtext0018	Bourg-Tibourg	#####	spk1	29.05	29.72	0.01	_
20091112_RATP_SCD_0159	12	3	ouais	NULL	adv	NULL	B_GADV	NOLINK	0	idtext0018	ouais	#####	spk1	29.73	30.2	?	//

20091112_RATP_SCD_0159	13	1	ouais	NULL	adv	NULL	B_GADV	NOLINK	0	idtext0019	ouais	#####	spk1	30.77	30.85	0.01	_
20091112_RATP_SCD_0159	13	2	c'	NULL	cln	NULL	B_GN	SUJ_IMP	3	idtext0019	ce	###s##	spk1	30.86	31.01	0.01	_
20091112_RATP_SCD_0159	13	3	est	NULL	v	NULL	B_GVf	ROOT	0	idtext0019	être	P#3##s##	spk1	31.02	31.13	0.01	_
20091112_RATP_SCD_0159	13	4	ça	NULL	pro	NULL	B_GN	ATS	3	idtext0019	ça	#####	spk1	31.14	31.2	0.01	_
20091112_RATP_SCD_0159	13	5	hein	DISF_M	pres	NULL	NULL	NOLINK	0	idtext0019	hein	#####	spk1	31.21	31.46	0.50	_
20091112_RATP_SCD_0159	13	6	c'	NULL	cln	NULL	B_GN	SUJ_IMP	7	idtext0020	ce	###s##	spk1	31.96	31.98	0.01	_
20091112_RATP_SCD_0159	13	7	est	NULL	v	NULL	B_GVf	ROOT	0	idtext0020	être	P#3##s##	spk1	31.99	32.02	0.01	_
20091112_RATP_SCD_0159	13	8	dans	NULL	prep	NULL	B_GP	P_OBJ_LOC	7	idtext0020	dans	#####	spk1	32.03	32.14	0.01	_
20091112_RATP_SCD_0159	13	9	le	NULL	det	NULL	I_GP	DET	11	idtext0020	le	##m#s##d	spk1	32.15	32.17	0.01	_
20091112_RATP_SCD_0159	13	10	quatrième	NULL	adj	NULL	I_GP	MOD	11	idtext0020	quatrième	###s##	spk1	32.18	32.73	0.01	_
20091112_RATP_SCD_0159	13	11	arrondissement	NULL	nc	NULL	I_GP	OBJ	8	idtext0020	arrondissement	##m#s##	spk1	32.74	33.4	0.04	//
20091112_RATP_SCD_0159	13	12	ouais	NULL	adv	NULL	B_GADV	NOLINK	0	idtext0021	ouais	#####	spk1	33.44	33.55	0.01	_
20091112_RATP_SCD_0159	13	13	je	NULL	cln	NULL	B_GN	SUJ	16	idtext0021	cln	#1##s##	spk1	33.56	33.64	0.01	_
20091112_RATP_SCD_0159	13	14	l'	NULL	clo	NULL	B_GN	OBJ	16	idtext0021	cla	#3##s##	spk1	33.65	33.68	0.01	_
20091112_RATP_SCD_0159	13	15	ai	NULL	v	NULL	B_GVf	AUX	16	idtext0021	avoir	P#1##s##	spk1	33.69	33.75	0.01	_
20091112_RATP_SCD_0159	13	16	trouvé	NULL	vppart	NULL	I_GVf	ROOT	0	idtext0021	trouver	K##m#s##	spk1	33.76	34.13	0.01	/
20091112_RATP_SCD_0159	13	17	c'	NULL	cln	NULL	B_GN	SUJ_IMP	18	idtext0021	ce	###s##	spk1	34.14	34.26	0.01	_
20091112_RATP_SCD_0159	13	18	est	NULL	v	NULL	B_GVf	ROOT	0	idtext0021	être	P#3##s##	spk1	34.27	34.29	0.01	_
20091112_RATP_SCD_0159	13	19	à	NULL	prep	NULL	B_GP	ATS	18	idtext0021	à	#####	spk1	34.3	34.36	0.01	_
20091112_RATP_SCD_0159	13	20	côté	NULL	nc	NULL	I_GP	OBJ	19	idtext0021	côté	##m#s##	spk1	34.37	34.7	0.01	_
20091112_RATP_SCD_0159	13	21	du	NULL	prep	NULL	B_GP	DEP	20	idtext0021	du	#####	spk1	34.71	34.86	0.01	_
20091112_RATP_SCD_0159	13	22	métro	NULL	nc	NULL	I_GP	OBJ	21	idtext0021	métro	##m#s##	spk1	34.87	35.29	0.09	_
20091112_RATP_SCD_0159	13	23	c'	NULL	cln	NULL	B_GN	SUJ_IMP	24	idtext0022	ce	###s##	spk1	35.38	35.41	0.01	_
20091112_RATP_SCD_0159	13	24	est	NULL	v	NULL	B_GVf	ROOT	0	idtext0022	être	P#3##s##	spk1	35.42	35.49	0.01	_
20091112_RATP_SCD_0159	13	25	le+long+de	NULL	prep	NULL	B_GP	P_OBJ_LOC	24	idtext0022	le+long+de	#####	spk1	35.5	35.78	0.01	_
20091112_RATP_SCD_0159	13	26	la	NULL	det	NULL	I_GP	DET	27	idtext0022	le	##m#s##d	spk1	35.79	35.92	0.01	_
20091112_RATP_SCD_0159	13	27	rue	NULL	nc	B_A	I_GP	OBJ	25	idtext0022	rue	##f#s##	spk1	35.93	36.05	0.01	_
20091112_RATP_SCD_0159	13	28	de	NULL	prep	I_A	I_GP	DEP	27	idtext0022	de	#####	spk1	36.06	36.08	0.01	_
20091112_RATP_SCD_0159	13	29	Rivoli	NULL	np	I_A	I_GP	OBJ	28	idtext0022	Rivoli	#####	spk1	36.09	36.46	0.01	_
20091112_RATP_SCD_0159	13	30	c'	NULL	cln	NULL	B_GN	SUJ_IMP	31	idtext0022	ce	###s##	spk1	36.47	36.55	0.01	_
20091112_RATP_SCD_0159	13	31	est	NULL	v	NULL	B_GVfn	ROOT	0	idtext0022	être	P#3##s##	spk1	36.56	36.59	0.01	_
20091112_RATP_SCD_0159	13	32	pas	NULL	advneg	NULL	I_GVfn	MOD	31	idtext0022	pas	#####	spk1	36.6	36.81	0.01	_
20091112_RATP_SCD_0159	13	33	très	NULL	adv	NULL	B_GADV	MOD	34	idtext0022	très	#####	spk1	36.82	36.92	0.01	_
20091112_RATP_SCD_0159	13	34	loin	NULL	adv	NULL	I_GADV	ATS	31	idtext0022	loin	#####	spk1	36.93	37.29	0.51	_
20091112_RATP_SCD_0159	13	35	ça	NULL	pro	NULL	B_GN	SUJ_IMP	36	idtext0023	ça	#####	spk1	37.8	37.91	0.01	_
20091112_RATP_SCD_0159	13	36	donne	NULL	v	NULL	B_GVf	ROOT	0	idtext0023	donner	PS#13##s##	spk1	37.92	38.08	0.01	_
20091112_RATP_SCD_0159	13	37	sur	NULL	prep	NULL	B_GP	P_OBJ_LOC	36	idtext0023	sur	#####	spk1	38.09	38.23	0.01	_
20091112_RATP_SCD_0159	13	38	la	NULL	det	NULL	I_GP	DET	39	idtext0023	le	##m#s##d	spk1	38.24	38.33	0.01	_
20091112_RATP_SCD_0159	13	39	rue	NULL	nc	B_A	I_GP	OBJ	37	idtext0023	rue	##f#s##	spk1	38.34	38.44	0.01	_
20091112_RATP_SCD_0159	13	40	de	NULL	prep	I_A	I_GP	DEP	39	idtext0023	de	#####	spk1	38.45	38.49	0.01	_
20091112_RATP_SCD_0159	13	41	Rivoli	NULL	np	I_A	I_GP	OBJ	40	idtext0023	Rivoli	#####	spk1	38.5	38.82	0.01	_
20091112_RATP_SCD_0159	13	42	d'ailleurs	NULL	adv	NULL	B_GADV	MOD	39	idtext0023	d'ailleurs	#####	spk1	38.83	39.16	0.01	_
20091112_RATP_SCD_0159	13	43	donc	NULL	coo	NULL	B_NULL	COORD	36	idtext0023	donc	#####	spk1	39.17	39.37	0.01	_
20091112_RATP_SCD_0159	13	44	c'	NULL	cln	NULL	B_GN	SUJ_IMP	45	idtext0023	ce	###s##	spk1	39.38	39.42	0.01	_
20091112_RATP_SCD_0159	13	45	est	NULL	v	NULL	B_GVf	DEP_COORD	43	idtext0023	être	P#3##s##	spk1	39.43	39.5	0.01	_
20091112_RATP_SCD_0159	13	46	métro	NULL	nc	B_T	B_GN	ATS	45	idtext0023	métro	##m#s##	spk1	39.51	39.79	0.01	_
20091112_RATP_SCD_0159	13	47	Hôtel+de+Ville	NULL	np	I_T	I_GN	MOD	46	idtext0023	Hôtel+de+Ville	#####	spk1	39.8	40.4	0.01	_
20091112_RATP_SCD_0159	13	48	hein	DISF_M	pres	I_T	NULL	NOLINK	0	idtext0023	hein	#####	spk1	40.41	40.48	0.01	/
20091112_RATP_SCD_0159	13	49	le+plus	NULL	adv	NULL	I_GN	MOD	50	idtext0023	le+plus	#####	spk1	40.49	40.83	0.01	_
20091112_RATP_SCD_0159	13	50	proche	NULL	adj	NULL	I_GN	MOD	46	idtext0023	proche	###s##	spk1	40.84	41.33	?	//

20091112_RATP_SCD_0159	14	1	alors	NULL	adv	NULL	B_GADV	NOLINK	0	idtext0024	alors	#####	spk2	41.47	41.69	0.01	_
20091112_RATP_SCD_0159	14	2	hôtel	NULL	nc	NULL	B_GN	ROOT	0	idtext0024	hôtel	##m#s##	spk2	41.7	42.01	0.01	_
20091112_RATP_SCD_0159	14	3	de	NULL	prep	NULL	B_GP	DEP	2	idtext0024	de	#####	spk2	42.02	42.12	0.01	_
20091112_RATP_SCD_0159	14	4	ville	NULL	nc	NULL	I_GP	OBJ	3	idtext0024	ville	##f#s##	spk2	42.13	42.33	0.01	_
20091112_RATP_SCD_0159	14	5	d'accord	NULL	adv	NULL	B_GADV	NOLINK	0	idtext0025	d'accord	#####	spk2	42.34	42.97	0.33	_
20091112_RATP_SCD_0159	14	6	et	NULL	coo	NULL	B_NULL	ROOT	0	idtext0026	et	#####	spk2	43.3	43.5	0.01	_
20091112_RATP_SCD_0159	14	7	euh	DISF_M	pres	NULL	NULL	NOLINK	0	idtext0026	euh	#####	spk2	43.51	43.53	0.01	_
20091112_RATP_SCD_0159	14	8	est-ce+que	NULL	pri	NULL	B_NULL	NOLINK	0	idtext0026	est-ce+que	#####	spk2	43.54	44.55	0.01	//
20091112_RATP_SCD_0159	14	9	c'	NULL	cln	NULL	B_GN	SUJ_IMP	10	idtext0026	ce	###s##	spk2	44.56	44.65	0.01	_
20091112_RATP_SCD_0159	14	10	est	NULL	v	NULL	B_GVf	DEP_COORD	6	idtext0026	être	P#3##s##	spk2	44.66	44.71	0.01	_
20091112_RATP_SCD_0159	14	11	sur	NULL	prep	NULL	B_GP	ATS	10	idtext0026	sur	#####	spk2	44.72	44.93	0.01	_
20091112_RATP_SCD_0159	14	12	la	NULL	det	NULL	I_GP	DET	14	idtext0026	le	##m#s##d	spk2	44.94	45.05	0.01	_
20091112_RATP_SCD_0159	14	13	même	NULL	adj	NULL	I_GP	MOD	14	idtext0026	même	###s##	spk2	45.06	45.29	0.01	_
20091112_RATP_SCD_0159	14	14	ligne	NULL	nc	NULL	I_GP	OBJ	11	idtext0026	ligne	##f#s##	spk2	45.3	45.5	0.01	_
20091112_RATP_SCD_0159	14	15	que	NULL	csu	NULL	B_NULL	OBJ	14	idtext0026	que	#####	spk2	45.51	45.71	0.01	_
20091112_RATP_SCD_0159	14	16	Auber	NULL	nc	B_A	B_GN	OBJ	15	idtext0026	Auber	#####	spk2	45.72	46.43	?	_

20091112_RATP_SCD_0159	15	1	euh	DISF_M	pres	NULL	NULL	NOLINK	0	idtext0027	euh	#####	spk1	47.64	48.34	0.01	_
20091112_RATP_SCD_0159	15	2	Auber	NULL	nc	B_A	B_GN	ROOT	0	idtext0027	Auber	#####	spk1	48.35	48.66	0.01	_
20091112_RATP_SCD_0159	15	3	par	NULL	prep	NULL	B_GP	P_OBJ	2	idtext0027	par	#####	spk1	48.67	48.83	0.01	_
20091112_RATP_SCD_0159	15	4	le	NULL	det	NULL	I_GP	DET	5	idtext0027	le	##m#s##d	spk1	48.84	48.89	0.01	_
20091112_RATP_SCD_0159	15	5	RER+A	NULL	nc	B_T	I_GP	OBJ	3	idtext0027	RER+A	#####	spk1	48.9	49.48	?	//

20091112_RATP_SCD_0159	16	1	oui	NULL	adv	NULL	B_GADV	NOLINK	0	idtext0028	oui	#####	spk2	49.99	50.28	?	//

20091112_RATP_SCD_0159	17	1	euh	DISF_M	pres	NULL	NULL	NOLINK	0	idtext0029	euh	#####	spk1	50.46	51.75	0.04	_
20091112_RATP_SCD_0159	17	2	ben	DISF_M	pres	NULL	NULL	NOLINK	0	idtext0030	ben	#####	spk1	51.79	51.85	0.01	_
20091112_RATP_SCD_0159	17	3	disons	NULL	v	NULL	B_GVf	ROOT	0	idtext0030	dire	P#1##p##	spk1	51.86	52.11	0.01	_
20091112_RATP_SCD_0159	17	4	que	NULL	csu	NULL	B_NULL	OBJ	3	idtext0030	que	#####	spk1	52.12	52.21	0.01	_
20091112_RATP_SCD_0159	17	5	si	NULL	csu	NULL	B_NULL	OBJ	4	idtext0030	si	#####	spk1	52.22	52.28	0.01	_
20091112_RATP_SCD_0159	17	6	vous	NULL	cln	NULL	B_GN	SUJ	7	idtext0030	cln	#2##p##	spk1	52.29	52.46	0.01	_
20091112_RATP_SCD_0159	17	7	descendez	NULL	v	NULL	B_GVf	OBJ	5	idtext0030	descendre	P#2##p##	spk1	52.47	53.19	0.01	_
20091112_RATP_SCD_0159	17	8	à	NULL	prep	NULL	B_NULL	NOLINK	0	idtext0030	à	#####	spk1	53.2	53.92	?	_

20091112_RATP_SCD_0159	18	1	la	NULL	det	NULL	B_GN	DET	2	idtext0031	le	##m#s##d	spk1	54.56	54.61	0.01	_
20091112_RATP_SCD_0159	18	2	station	NULL	nc	B_A	I_GN	ROOT	0	idtext0031	station	##f#s##	spk1	54.62	54.95	0.01	_
20091112_RATP_SCD_0159	18	3	Châtelet-Les+Halles	NULL	np	I_A	I_GN	MOD	2	idtext0031	Châtelet-Les+Halles	#####	spk1	54.96	55.84	?	//

20091112_RATP_SCD_0159	19	1	hm+hm	DISF_M	pres	NULL	NULL	NOLINK	0	idtext0032	hm+hm	#####	spk2	56.17	56.59	?	//

20091112_RATP_SCD_0159	20	1	c'	NULL	cln	NULL	B_GN	SUJ_IMP	2	idtext0033	ce	###s##	spk1	56.23	56.27	0.01	_
20091112_RATP_SCD_0159	20	2	est	NULL	v	NULL	B_GVfn	ROOT	0	idtext0033	être	P#3##s##	spk1	56.28	56.35	0.01	_
20091112_RATP_SCD_0159	20	3	pas	NULL	advneg	NULL	I_GVfn	MOD	2	idtext0033	pas	#####	spk1	56.36	56.59	?	_

20091112_RATP_SCD_0159	21	1	très	NULL	adv	NULL	B_GADV	MOD	2	idtext0034	très	#####	spk1	56.63	56.72	0.01	_
20091112_RATP_SCD_0159	21	2	très	NULL	adv	NULL	I_GADV	MOD	3	idtext0034	très	#####	spk1	56.73	56.99	0.01	_
20091112_RATP_SCD_0159	21	3	loin	NULL	adv	NULL	I_GADV	ROOT	0	idtext0034	loin	#####	spk1	57.0	57.32	?	_

20091112_RATP_SCD_0159	22	1	d'accord	NULL	adv	NULL	B_GADV	NOLINK	0	idtext0035	d'accord	#####	spk2	58.02	58.34	?	//

20091112_RATP_SCD_0159	23	1	euh	DISF_M	pres	NULL	NULL	NOLINK	0	idtext0036	euh	#####	spk1	58.39	58.6	0.01	_
20091112_RATP_SCD_0159	23	2	avec	DISF_R	prep	NULL	NULL	NOLINK	0	idtext0036	avec	#####	spk1	58.61	59.03	0.01	_
20091112_RATP_SCD_0159	23	3	bon	DISF_M	pres	NULL	NULL	NOLINK	0	idtext0036	bon	#####	spk1	59.04	59.14	0.01	_
20091112_RATP_SCD_0159	23	4	il	NULL	cln	NULL	B_GN	SUJ_IMP	6	idtext0036	cln	#3#m#s##	spk1	59.15	59.22	0.01	_
20091112_RATP_SCD_0159	23	5	y	NULL	clo	NULL	B_GN	AFF	6	idtext0036	y	#####	spk1	59.23	59.26	0.01	_
20091112_RATP_SCD_0159	23	6	a	NULL	v	NULL	B_GVf	ROOT	0	idtext0036	avoir	P#3##s##	spk1	59.27	59.31	0.01	_
20091112_RATP_SCD_0159	23	7	un+petit+peu	NULL	adv	NULL	B_GADV	MOD	9	idtext0036	un+petit+peu	#####	spk1	59.32	59.65	0.01	_
20091112_RATP_SCD_0159	23	8	de	NULL	prep	NULL	B_GP	OBJ	6	idtext0036	de	#####	spk1	59.66	59.68	0.01	_
20091112_RATP_SCD_0159	23	9	marche	NULL	nc	NULL	I_GP	OBJ	8	idtext0036	marche	##f#s##	spk1	59.69	59.94	0.01	/
20091112_RATP_SCD_0159	23	10	quand+même	NULL	adv	NULL	B_GADV	NOLINK	0	idtext0036	quand+même	#####	spk1	59.95	60.3	0.01	_
20091112_RATP_SCD_0159	23	11	parce+que	NULL	csu	NULL	B_NULL	NOLINK	0	idtext0036	parce+que	#####	spk1	60.31	61.01	0.59	_
20091112_RATP_SCD_0159	23	12	le+plus	NULL	adv	NULL	B_GADJ	MOD	13	idtext0037	le+plus	#####	spk1	61.6	61.73	0.01	_
20091112_RATP_SCD_0159	23	13	proche	NULL	adj	NULL	I_GADJ	SUJ	15	idtext0037	proche	###s##	spk1	61.74	62.0	0.01	_
20091112_RATP_SCD_0159	23	14	c'	NULL	cln	NULL	B_GN	SUJ_IMP	15	idtext0037	ce	###s##	spk1	62.01	62.05	0.01	_
20091112_RATP_SCD_0159	23	15	est	NULL	v	NULL	B_GVf	ROOT	0	idtext0037	être	P#3##s##	spk1	62.06	62.08	0.01	_
20091112_RATP_SCD_0159	23	16	vraiment	NULL	adv	NULL	B_GADV	MOD	15	idtext0037	vraiment	#####	spk1	62.09	62.34	0.01	_
20091112_RATP_SCD_0159	23	17	Châtelet	NULL	nc	B_A	B_GN	ATS	15	idtext0037	Châtelet	#####	spk1	62.35	62.89	0.01	_
20091112_RATP_SCD_0159	23	18	ou	NULL	coo	NULL	B_NULL	COORD	17	idtext0037	ou	#####	spk1	62.9	63.09	0.01	_
20091112_RATP_SCD_0159	23	19	hôtel	NULL	nc	NULL	B_GN	DEP_COORD	18	idtext0037	hôtel	##m#s##	spk1	63.1	63.37	0.01	_
20091112_RATP_SCD_0159	23	20	de	NULL	prep	NULL	B_GP	DEP	19	idtext0037	de	#####	spk1	63.38	63.47	0.01	_
20091112_RATP_SCD_0159	23	21	ville	NULL	nc	NULL	I_GP	OBJ	20	idtext0037	ville	##f#s##	spk1	63.48	63.83	?	//

20091112_RATP_SCD_0159	24	1	en	NULL	prep	NULL	B_GP	ROOT	0	idtext0038	en	#####	spk1	63.95	64.06	0.01	_
20091112_RATP_SCD_0159	24	2	descendant	NULL	vprespart	NULL	I_GP	OBJ	1	idtext0038	descendre	G#####	spk1	64.07	64.34	0.01	_
20091112_RATP_SCD_0159	24	3	à	NULL	prep	NULL	B_GP	P_OBJ_LOC	2	idtext0038	à	#####	spk1	64.35	64.4	0.01	_
20091112_RATP_SCD_0159	24	4	l'	NULL	det	NULL	I_GP	DET	5	idtext0038	le	###s##d	spk1	64.41	64.43	0.01	_
20091112_RATP_SCD_0159	24	5	arrêt	NULL	nc	NULL	I_GP	OBJ	3	idtext0038	arrêt	##m#s##	spk1	64.44	64.83	0.01	/
20091112_RATP_SCD_0159	24	6	les	NULL	det	NULL	B_GN	DET	7	idtext0038	le	###p##d	spk1	64.84	65.0	0.01	_
20091112_RATP_SCD_0159	24	7	halles	NULL	nc	NULL	I_GN	ROOT	0	idtext0038	halle	##f#p##	spk1	65.01	65.28	?	//

20091112_RATP_SCD_0159	25	1	d'accord	NULL	adv	NULL	B_GADV	NOLINK	0	idtext0039	d'accord	#####	spk2	64.04	65.28	?	//

20091112_RATP_SCD_0159	26	1	euh	DISF_M	pres	NULL	NULL	NOLINK	0	idtext0040	euh	#####	spk1	65.94	66.06	0.01	_
20091112_RATP_SCD_0159	26	2	il	NULL	cln	NULL	B_GN	SUJ_IMP	3	idtext0040	cln	#3#m#s##	spk1	66.07	66.12	0.01	_
20091112_RATP_SCD_0159	26	3	faudra	NULL	v	NULL	B_GVf	ROOT	0	idtext0040	falloir	F#3##s##	spk1	66.13	66.52	0.01	_
20091112_RATP_SCD_0159	26	4	changer	NULL	vinf	NULL	I_GVf	OBJ	3	idtext0040	changer	W#####	spk1	66.53	66.93	0.01	_
20091112_RATP_SCD_0159	26	5	à	NULL	prep	NULL	B_GP	P_OBJ_LOC	4	idtext0040	à	#####	spk1	66.94	66.96	0.01	_
20091112_RATP_SCD_0159	26	6	Châtelet	NULL	nc	B_A	I_GP	OBJ	5	idtext0040	Châtelet	#####	spk1	66.97	67.14	?	//

20091112_RATP_SCD_0159	27	1	et	DISF_R	coo	NULL	NULL	NOLINK	0	idtext0041	et	#####	spk2	65.94	66.39	0.01	_
20091112_RATP_SCD_0159	27	2	et	DISF_R	coo	NULL	NULL	NOLINK	0	idtext0041	et	#####	spk2	66.4	66.96	0.01	_
20091112_RATP_SCD_0159	27	3	et	NULL	coo	NULL	B_NULL	NOLINK	0	idtext0041	et	#####	spk2	66.97	67.14	?	_

20091112_RATP_SCD_0159	28	1	Châtelet	NULL	nc	B_A	B_GN	ROOT	0	idtext0042	Châtelet	#####	spk1	67.18	67.58	0.01	_
20091112_RATP_SCD_0159	28	2	le	NULL	det	NULL	B_GN	DET	3	idtext0042	le	##m#s##d	spk1	67.59	67.7	0.01	_
20091112_RATP_SCD_0159	28	3	centre	NULL	nc	NULL	I_GN	MOD	1	idtext0042	centre	##m#s##	spk1	67.71	68.0	0.01	//
20091112_RATP_SCD_0159	28	4	euh	DISF_M	pres	NULL	NULL	NOLINK	0	idtext0042	euh	#####	spk1	68.01	68.25	0.01	_
20091112_RATP_SCD_0159	28	5	vers	NULL	prep	NULL	B_GP	MOD	3	idtext0042	vers	#####	spk1	68.26	68.42	0.01	_
20091112_RATP_SCD_0159	28	6	la	NULL	det	NULL	I_GP	DET	7	idtext0042	le	##m#s##d	spk1	68.43	68.52	0.01	_
20091112_RATP_SCD_0159	28	7	rue	NULL	nc	B_A	I_GP	OBJ	5	idtext0042	rue	##f#s##	spk1	68.53	68.62	0.01	_
20091112_RATP_SCD_0159	28	8	de	NULL	prep	I_A	I_GP	DEP	7	idtext0042	de	#####	spk1	68.63	68.66	0.01	_
20091112_RATP_SCD_0159	28	9	Rivoli	NULL	np	I_A	I_GP	OBJ	8	idtext0042	Rivoli	#####	spk1	68.67	69.05	0.01	//
20091112_RATP_SCD_0159	28	10	il	NULL	cln	NULL	B_GN	SUJ_IMP	12	idtext0042	cln	#3#m#s##	spk1	69.06	69.12	0.01	_
20091112_RATP_SCD_0159	28	11	y	NULL	clo	NULL	B_GN	AFF	12	idtext0042	y	#####	spk1	69.13	69.17	0.01	_
20091112_RATP_SCD_0159	28	12	a	NULL	v	NULL	B_GVf	ROOT	0	idtext0042	avoir	P#3##s##	spk1	69.18	69.57	0.01	_
20091112_RATP_SCD_0159	28	13	dix	NULL	adj	NULL	I_GP	MOD	14	idtext0042	dix	#####	spk1	69.58	69.66	0.01	_
20091112_RATP_SCD_0159	28	14	minutes	NULL	nc	NULL	I_GP	OBJ	12	idtext0042	minute	##f#p##	spk1	69.67	69.98	0.01	_
20091112_RATP_SCD_0159	28	15	un	NULL	det	NULL	B_GN	DET	16	idtext0042	un	##m#s##i	spk1	69.99	70.05	0.01	_
20091112_RATP_SCD_0159	28	16	quart	NULL	nc	NULL	I_GN	ROOT	0	idtext0042	quart	##m#s##	spk1	70.06	70.27	0.01	_
20091112_RATP_SCD_0159	28	17	d'	NULL	prep	NULL	B_GP	DEP	16	idtext0042	d'	#####	spk1	70.28	70.3	0.01	_
20091112_RATP_SCD_0159	28	18	heure	NULL	nc	NULL	I_GP	OBJ	17	idtext0042	heure	##f#s##	spk1	70.31	70.47	?	//

20091112_RATP_SCD_0159	29	1	donc	NULL	coo	NULL	B_NULL	ROOT	0	idtext0043	donc	#####	spk1	70.51	70.66	0.01	_
20091112_RATP_SCD_0159	29	2	c'	NULL	cln	NULL	B_GN	SUJ_IMP	3	idtext0043	ce	###s##	spk1	70.67	70.69	0.01	_
20091112_RATP_SCD_0159	29	3	est	NULL	v	NULL	B_GVfn	DEP_COORD	1	idtext0043	être	P#3##s##	spk1	70.7	70.73	0.01	_
20091112_RATP_SCD_0159	29	4	pas	NULL	advneg	NULL	I_GVfn	MOD	3	idtext0043	pas	#####	spk1	70.74	71.78	?	_

20091112_RATP_SCD_0159	30	1	d'accord	NULL	adv	NULL	B_GADV	NOLINK	0	idtext0044	d'accord	#####	spk2	70.78	71.78	?	//

20091112_RATP_SCD_0159	31	1	OK	DISF_R	adv	NULL	NULL	NOLINK	0	idtext0045	ok	#####	spk2	72.2	72.6	0.01	_
20091112_RATP_SCD_0159	31	2	OK	NULL	adv	NULL	B_GADV	NOLINK	0	idtext0045	ok	#####	spk2	72.61	72.86	0.04	_
20091112_RATP_SCD_0159	31	3	et	NULL	coo	NULL	B_NULL	ROOT	0	idtext0046	et	#####	spk2	72.9	73.01	0.01	_
20091112_RATP_SCD_0159	31	4	si	NULL	csu	NULL	B_NULL	DEP_COORD	3	idtext0046	si	#####	spk2	73.02	73.1	0.01	_
20091112_RATP_SCD_0159	31	5	je	NULL	cln	NULL	B_GN	SUJ	7	idtext0047	cln	#1##s##	spk2	73.11	73.16	0.01	_
20091112_RATP_SCD_0159	31	6	le	NULL	clo	NULL	B_GN	OBJ	7	idtext0047	cla	#3#m#s##	spk2	73.17	73.29	0.01	_
20091112_RATP_SCD_0159	31	7	fais	NULL	v	NULL	B_GVf	OBJ	4	idtext0047	faire	P#12##s##	spk2	73.3	73.39	0.01	_
20091112_RATP_SCD_0159	31	8	en	NULL	prep	NULL	B_GP	MOD	7	idtext0048	en	#####	spk2	73.4	73.5	0.01	_
20091112_RATP_SCD_0159	31	9	métro	NULL	nc	NULL	I_GP	OBJ	8	idtext0048	métro	##m#s##	spk2	73.51	73.96	0.01	_
20091112_RATP_SCD_0159	31	10	donc	NULL	coo	NULL	B_NULL	COORD	7	idtext0048	donc	#####	spk2	73.97	74.18	0.01	_
20091112_RATP_SCD_0159	31	11	de	NULL	prep	NULL	B_GP	DEP_COORD	10	idtext0048	de	#####	spk2	74.19	74.34	0.01	_
20091112_RATP_SCD_0159	31	12	Auber	NULL	nc	B_A	I_GP	OBJ	11	idtext0048	Auber	#####	spk2	74.35	74.76	0.01	_
20091112_RATP_SCD_0159	31	13	jusque	NULL	prep	NULL	B_GP	MOD	12	idtext0048	jusque	#####	spk2	74.77	75.36	0.01	_
20091112_RATP_SCD_0159	31	14	hôtel	NULL	nc	NULL	I_GP	OBJ	13	idtext0048	hôtel	##m#s##	spk2	75.37	75.63	0.01	_
20091112_RATP_SCD_0159	31	15	de	NULL	prep	NULL	B_GP	DEP	14	idtext0048	de	#####	spk2	75.64	75.75	0.01	_
20091112_RATP_SCD_0159	31	16	ville	NULL	nc	NULL	I_GP	OBJ	15	idtext0048	ville	##f#s##	spk2	75.76	76.0	?	//

20091112_RATP_SCD_0159	32	1	alors	NULL	adv	NULL	B_GADV	MOD	2	idtext0049	alors	#####	spk1	76.56	76.75	0.01	_
20091112_RATP_SCD_0159	32	2	dans+ce+cas-là	NULL	adv	NULL	I_GADV	ROOT	0	idtext0049	dans+ce+cas-là	#####	spk1	76.76	77.36	0.48	_
20091112_RATP_SCD_0159	32	3	de	NULL	prep	NULL	B_GP	ROOT	0	idtext0050	de	#####	spk1	77.84	77.86	0.01	_
20091112_RATP_SCD_0159	32	4	Auber	NULL	nc	B_A	I_GP	OBJ	3	idtext0050	Auber	#####	spk1	77.87	78.06	0.01	_
20091112_RATP_SCD_0159	32	5	à	NULL	prep	NULL	B_GP	ROOT	0	idtext0050	à	#####	spk1	78.07	78.17	0.01	_
20091112_RATP_SCD_0159	32	6	hôtel	NULL	nc	NULL	I_GP	OBJ	5	idtext0050	hôtel	##m#s##	spk1	78.18	78.45	0.01	_
20091112_RATP_SCD_0159	32	7	de	NULL	prep	NULL	B_GP	ROOT	0	idtext0050	de	#####	spk1	78.46	78.55	0.01	_
20091112_RATP_SCD_0159	32	8	ville	NULL	nc	NULL	I_GP	OBJ	7	idtext0050	ville	##f#s##	spk1	78.56	78.89	?	//

20091112_RATP_SCD_0159	33	1	hm	DISF_M	pres	NULL	NULL	NOLINK	0	idtext0051	hm	#####	spk2	79.35	79.56	?	//

20091112_RATP_SCD_0159	34	1	ben	DISF_M	pres	NULL	NULL	NOLINK	0	idtext0052	ben	#####	spk1	79.66	79.76	0.01	_
20091112_RATP_SCD_0159	34	2	je	NULL	cln	NULL	B_GN	SUJ	4	idtext0052	cln	#1##s##	spk1	79.77	79.89	0.01	_
20091112_RATP_SCD_0159	34	3	vous	NULL	clo	NULL	B_GN	OBJ	4	idtext0052	cln	#2##p##	spk1	79.9	79.98	0.01	_
20091112_RATP_SCD_0159	34	4	conseille	NULL	v	NULL	B_GVf	ROOT	0	idtext0052	conseiller	PS#13##s##	spk1	79.99	80.76	0.01	_
20091112_RATP_SCD_0159	34	5	euh	DISF_M	pres	NULL	NULL	NOLINK	0	idtext0052	euh	#####	spk1	80.77	80.93	2.71	_
20091112_RATP_SCD_0159	34	6	je	NULL	cln	NULL	B_GN	SUJ	7	idtext0053	cln	#1##s##	spk1	83.64	83.7	0.01	_
20091112_RATP_SCD_0159	34	7	suis	NULL	v	NULL	B_GVf	ROOT	0	idtext0053	être	P#1##s##	spk1	83.71	83.79	0.01	_
20091112_RATP_SCD_0159	34	8	en+train+de	NULL	prep	NULL	B_GP	ATS	7	idtext0053	en+train+de	#####	spk1	83.8	84.06	0.01	_
20091112_RATP_SCD_0159	34	9	vérifier	NULL	vinf	NULL	I_GP	OBJ	8	idtext0053	vérifier	W#####	spk1	84.07	84.74	0.01	_
20091112_RATP_SCD_0159	34	10	parce+que	NULL	csu	NULL	B_NULL	MOD	9	idtext0053	parce+que	#####	spk1	84.75	85.03	0.01	_
20091112_RATP_SCD_0159	34	11	il	NULL	cln	NULL	B_GN	SUJ_IMP	13	idtext0053	cln	#3#m#s##	spk1	85.04	85.11	0.01	_
20091112_RATP_SCD_0159	34	12	y	NULL	clo	NULL	B_GN	AFF	13	idtext0053	y	#####	spk1	85.12	85.17	0.01	_
20091112_RATP_SCD_0159	34	13	a	NULL	v	NULL	B_GVf	OBJ	10	idtext0053	avoir	P#3##s##	spk1	85.18	85.21	0.01	_
20091112_RATP_SCD_0159	34	14	un	NULL	det	NULL	B_GN	DET	15	idtext0053	un	##m#s##i	spk1	85.22	85.27	0.01	_
20091112_RATP_SCD_0159	34	15	couloir	NULL	nc	NULL	I_GN	OBJ	13	idtext0053	couloir	##m#s##	spk1	85.28	85.65	0.01	_
20091112_RATP_SCD_0159	34	16	à	NULL	prep	NULL	B_GP	MOD	15	idtext0053	à	#####	spk1	85.66	85.69	0.01	_
20091112_RATP_SCD_0159	34	17	Châtelet	NULL	nc	B_A	I_GP	OBJ	16	idtext0053	Châtelet	#####	spk1	85.7	86.3	0.05	_
20091112_RATP_SCD_0159	34	18	est-ce+que	NULL	pri	NULL	B_NULL	NOLINK	0	idtext0054	est-ce+que	#####	spk1	86.35	86.55	0.01	_
20091112_RATP_SCD_0159	34	19	c'	DISF_R	cln	NULL	NULL	NOLINK	0	idtext0054	ce	###s##	spk1	86.56	86.61	0.01	_
20091112_RATP_SCD_0159	34	20	c'	NULL	cln	NULL	B_GN	SUJ_IMP	21	idtext0054	ce	###s##	spk1	86.62	86.64	0.01	_
20091112_RATP_SCD_0159	34	21	est	NULL	v	NULL	B_GVf	ROOT	0	idtext0054	être	P#3##s##	spk1	86.65	86.88	0.01	_
20091112_RATP_SCD_0159	34	22	intéressant	NULL	adj	NULL	B_GADJ	ATS	21	idtext0054	intéressant	##m#s##	spk1	86.89	87.29	0.01	_
20091112_RATP_SCD_0159	34	23	de	NULL	prep	NULL	B_NULL	DEP	22	idtext0054	de	#####	spk1	87.3	87.37	0.01	_
20091112_RATP_SCD_0159	34	24	par	NULL	prep	NULL	B_GP	OBJ	23	idtext0054	par	#####	spk1	87.38	87.52	0.01	_
20091112_RATP_SCD_0159	34	25	Châtelet	NULL	nc	B_A	I_GP	OBJ	24	idtext0054	Châtelet	#####	spk1	87.53	88.02	1.57	//
20091112_RATP_SCD_0159	34	26	parce+que	NULL	csu	NULL	B_NULL	ROOT	0	idtext0055	parce+que	#####	spk1	89.59	89.76	0.01	_
20091112_RATP_SCD_0159	34	27	Auber	NULL	nc	B_A	B_GN	NOLINK	0	idtext0055	Auber	#####	spk1	89.77	89.87	0.01	_
20091112_RATP_SCD_0159	34	28	il	NULL	cln	NULL	B_GN	SUJ_IMP	30	idtext0055	cln	#3#m#s##	spk1	89.88	89.93	0.01	_
20091112_RATP_SCD_0159	34	29	y	NULL	clo	NULL	B_GN	AFF	30	idtext0055	y	#####	spk1	89.94	89.96	0.01	_
20091112_RATP_SCD_0159	34	30	a	NULL	v	NULL	B_GVf	OBJ	26	idtext0055	avoir	P#3##s##	spk1	89.97	89.99	0.01	_
20091112_RATP_SCD_0159	34	31	un	NULL	det	NULL	I_GP	DET	33	idtext0055	un	##m#s##i	spk1	90.0	90.05	0.01	_
20091112_RATP_SCD_0159	34	32	grand	NULL	adj	NULL	I_GP	MOD	33	idtext0055	grand	##m#s##	spk1	90.06	90.23	0.01	_
20091112_RATP_SCD_0159	34	33	couloir	NULL	nc	NULL	I_GP	OBJ	30	idtext0055	couloir	##m#s##	spk1	90.24	90.66	0.01	_
20091112_RATP_SCD_0159	34	34	hein	DISF_M	pres	NULL	NULL	NOLINK	0	idtext0055	hein	#####	spk1	90.67	90.83	?	//

20091112_RATP_SCD_0159	35	1	hm	DISF_M	pres	NULL	NULL	NOLINK	0	idtext0056	hm	#####	spk2	91.22	91.43	?	//

20091112_RATP_SCD_0159	36	1	euh	DISF_M	pres	NULL	NULL	NOLINK	0	idtext0057	euh	#####	spk1	91.47	91.58	0.01	/
20091112_RATP_SCD_0159	36	2	le+mieux	NULL	adv	NULL	B_GADV	NOLINK	0	idtext0057	le+mieux	#####	spk1	91.59	91.97	0.01	_
20091112_RATP_SCD_0159	36	3	à	NULL	prep	NULL	B_GP	ROOT	0	idtext0057	à	#####	spk1	91.98	92.0	0.01	_
20091112_RATP_SCD_0159	36	4	la	NULL	det	NULL	I_GP	DET	5	idtext0057	le	##m#s##d	spk1	92.01	92.06	0.01	_
20091112_RATP_SCD_0159	36	5	limite	NULL	nc	NULL	I_GP	OBJ	3	idtext0057	limite	##f#s##	spk1	92.07	92.35	0.01	//
20091112_RATP_SCD_0159	36	6	ça	NULL	pro	NULL	I_GP	SUJ_IMP	8	idtext0057	ça	#####	spk1	92.36	92.48	0.01	_
20091112_RATP_SCD_0159	36	7	aurait	NULL	v	NULL	B_GVf	AUX	8	idtext0057	avoir	C#3##s##	spk1	92.49	92.58	0.01	_
20091112_RATP_SCD_0159	36	8	été	NULL	vppart	NULL	I_GVf	ROOT	0	idtext0057	être	K#####	spk1	92.59	92.75	0.01	_
20091112_RATP_SCD_0159	36	9	de	NULL	prep	NULL	B_GP	OBJ	8	idtext0057	de	#####	spk1	92.76	92.81	0.01	_
20091112_RATP_SCD_0159	36	10	récupérer	NULL	vinf	NULL	I_GP	OBJ	9	idtext0057	récupérer	W#####	spk1	92.82	93.36	0.01	_
20091112_RATP_SCD_0159	36	11	la	NULL	det	NULL	B_GN	DET	12	idtext0057	le	##m#s##d	spk1	93.37	93.48	0.01	_
20091112_RATP_SCD_0159	36	12	ligne	NULL	nc	NULL	I_GN	OBJ	10	idtext0057	ligne	##f#s##	spk1	93.49	94.21	0.01	_
20091112_RATP_SCD_0159	36	13	euh	DISF_M	pres	NULL	NULL	NOLINK	0	idtext0057	euh	#####	spk1	94.22	94.33	1.15	//
20091112_RATP_SCD_0159	36	14	je	NULL	cln	NULL	B_GN	SUJ	15	idtext0058	cln	#1##s##	spk1	95.48	95.5	0.01	_
20091112_RATP_SCD_0159	36	15	suis	NULL	v	NULL	B_GVf	ROOT	0	idtext0058	être	P#1##s##	spk1	95.51	95.59	0.01	_
20091112_RATP_SCD_0159	36	16	en+train+de	NULL	prep	NULL	B_GP	ATS	15	idtext0058	en+train+de	#####	spk1	95.6	95.93	0.01	_
20091112_RATP_SCD_0159	36	17	voir	NULL	vinf	NULL	I_GP	OBJ	16	idtext0058	voir	W#####	spk1	95.94	96.3	?	_

20091112_RATP_SCD_0159	37	1	la	NULL	det	NULL	B_GN	DET	2	idtext0059	le	##m#s##d	spk1	99.33	99.42	0.01	_
20091112_RATP_SCD_0159	37	2	ligne	NULL	nc	B_T	I_GN	ROOT	0	idtext0059	ligne	##f#s##	spk1	99.43	99.68	0.01	_
20091112_RATP_SCD_0159	37	3	sept	NULL	adj	I_T	I_GN	MOD	2	idtext0059	sept	#####	spk1	99.69	99.97	0.04	_
20091112_RATP_SCD_0159	37	4	mais	NULL	coo	NULL	B_NULL	ROOT	0	idtext0060	mais	#####	spk1	100.01	100.12	0.01	_
20091112_RATP_SCD_0159	37	5	bon	DISF_M	pres	NULL	NULL	NOLINK	0	idtext0060	bon	#####	spk1	100.13	100.27	0.01	/
20091112_RATP_SCD_0159	37	6	d'	NULL	prep	NULL	B_GP	MOD	11	idtext0060	d'	#####	spk1	100.28	100.35	0.01	_
20091112_RATP_SCD_0159	37	7	Auber	NULL	nc	B_A	I_GP	OBJ	6	idtext0060	Auber	#####	spk1	100.36	100.65	0.01	_
20091112_RATP_SCD_0159	37	8	à	NULL	prep	NULL	B_GP	DEP	7	idtext0060	à	#####	spk1	100.66	100.75	0.01	_
20091112_RATP_SCD_0159	37	9	Opéra	NULL	nc	B_A	I_GP	OBJ	8	idtext0060	Opéra	#####	spk1	100.76	101.15	0.01	_
20091112_RATP_SCD_0159	37	10	il	NULL	cln	NULL	B_GN	SUJ_IMP	11	idtext0060	cln	#3#m#s##	spk1	101.16	101.21	0.01	_
20091112_RATP_SCD_0159	37	11	faut	NULL	v	NULL	B_GVf	DEP_COORD	4	idtext0060	falloir	P#3##s##	spk1	101.22	101.27	0.01	_
20091112_RATP_SCD_0159	37	12	prendre	NULL	vinf	NULL	I_GVf	OBJ	11	idtext0060	prendre	W#####	spk1	101.28	101.5	0.01	_
20091112_RATP_SCD_0159	37	13	les	NULL	det	NULL	B_GN	DET	15	idtext0060	le	###p##d	spk1	101.51	101.58	0.01	_
20091112_RATP_SCD_0159	37	14	grands	NULL	adj	NULL	I_GN	MOD	15	idtext0060	grand	##m#p##	spk1	101.59	101.74	0.01	_
20091112_RATP_SCD_0159	37	15	couloirs	NULL	nc	NULL	I_GN	OBJ	11	idtext0060	couloir	##m#p##	spk1	101.75	102.19	0.01	_
20091112_RATP_SCD_0159	37	16	hein	DISF_M	pres	NULL	NULL	NOLINK	0	idtext0060	hein	#####	spk1	102.2	102.29	0.04	_
20091112_RATP_SCD_0159	37	17	pour	NULL	prep	NULL	B_GP	ROOT	0	idtext0061	pour	#####	spk1	102.33	102.43	0.01	_
20091112_RATP_SCD_0159	37	18	éviter	NULL	vinf	NULL	I_GP	OBJ	17	idtext0061	éviter	W#####	spk1	102.44	102.71	0.01	_
20091112_RATP_SCD_0159	37	19	d'	NULL	prep	NULL	B_GP	OBJ	18	idtext0062	d'	#####	spk1	102.72	102.74	0.01	_
20091112_RATP_SCD_0159	37	20	avoir	NULL	vinf	NULL	I_GP	OBJ	19	idtext0062	avoir	W#####	spk1	102.75	103.05	0.01	_
20091112_RATP_SCD_0159	37	21	à	NULL	prep	NULL	B_GP	A_OBJ	20	idtext0062	à	#####	spk1	103.06	103.31	0.01	_
20091112_RATP_SCD_0159	37	22	faire	NULL	vinf	NULL	I_GP	OBJ	21	idtext0062	faire	W#####	spk1	103.32	103.52	0.01	_
20091112_RATP_SCD_0159	37	23	un	NULL	det	NULL	B_GN	DET	24	idtext0062	un	##m#s##i	spk1	103.53	103.6	0.01	_
20091112_RATP_SCD_0159	37	24	changement	NULL	nc	NULL	I_GN	OBJ	22	idtext0062	changement	##m#s##	spk1	103.61	104.0	0.01	_
20091112_RATP_SCD_0159	37	25	de+nouveau	NULL	adv	NULL	B_GADV	NOLINK	0	idtext0062	de+nouveau	#####	spk1	104.01	104.29	0.01	_
20091112_RATP_SCD_0159	37	26	à	NULL	prep	NULL	B_GP	P_OBJ_LOC	24	idtext0062	à	#####	spk1	104.3	104.32	0.01	_
20091112_RATP_SCD_0159	37	27	Châtelet	NULL	nc	B_A	I_GP	OBJ	26	idtext0062	Châtelet	#####	spk1	104.33	104.72	0.04	//
20091112_RATP_SCD_0159	37	28	ce	NULL	cln	NULL	B_GN	SUJ_IMP	29	idtext0063	ce	#####	spk1	104.76	104.83	0.01	_
20091112_RATP_SCD_0159	37	29	serait	NULL	v	NULL	B_GVf	ROOT	0	idtext0063	être	C#3##s##	spk1	104.84	104.97	0.01	_
20091112_RATP_SCD_0159	37	30	de	NULL	prep	NULL	B_GP	ATS	29	idtext0063	de	#####	spk1	104.98	105.01	0.01	_
20091112_RATP_SCD_0159	37	31	récupérer	NULL	vinf	NULL	I_GP	OBJ	30	idtext0063	récupérer	W#####	spk1	105.02	105.49	0.01	_
20091112_RATP_SCD_0159	37	32	à	NULL	prep	NULL	B_GP	P_OBJ_LOC	31	idtext0063	à	#####	spk1	105.5	105.54	0.01	_
20091112_RATP_SCD_0159	37	33	Opéra	NULL	nc	B_A	I_GP	OBJ	32	idtext0063	Opéra	#####	spk1	105.55	105.88	0.01	_
20091112_RATP_SCD_0159	37	34	la	NULL	det	NULL	B_GN	DET	35	idtext0063	le	##m#s##d	spk1	105.89	105.98	0.01	_
20091112_RATP_SCD_0159	37	35	ligne	NULL	nc	B_T	I_GN	P_OBJ_LOC	32	idtext0063	ligne	##f#s##	spk1	105.99	106.26	0.01	_
20091112_RATP_SCD_0159	37	36	sept	NULL	adj	I_T	I_GN	MOD	35	idtext0063	sept	#####	spk1	106.27	106.55	0.01	_
20091112_RATP_SCD_0159	37	37	direction	NULL	nc	NULL	I_GN	MOD	35	idtext0063	direction	##f#s##	spk1	106.56	107.6	0.05	_
20091112_RATP_SCD_0159	37	38	mairie	NULL	nc	B_A	B_GN	ROOT	0	idtext0064	mairie	##f#s##	spk1	107.65	107.87	0.01	_
20091112_RATP_SCD_0159	37	39	d'	NULL	prep	I_A	I_GN	DEP	38	idtext0064	d'	#####	spk1	107.88	107.92	0.01	_
20091112_RATP_SCD_0159	37	40	Ivry	NULL	np	I_A	I_GN	OBJ	39	idtext0064	Ivry	#####	spk1	107.93	108.2	0.01	_
20091112_RATP_SCD_0159	37	41	ou	NULL	coo	NULL	B_NULL	COORD	38	idtext0064	ou	#####	spk1	108.21	108.28	0.01	_
20091112_RATP_SCD_0159	37	42	Villejuif	NULL	nc	B_A	B_GN	DEP_COORD	41	idtext0064	Villejuif	##m#s##	spk1	108.29	108.8	0.40	//
20091112_RATP_SCD_0159	37	43	et	NULL	coo	NULL	B_NULL	ROOT	0	idtext0065	et	#####	spk1	109.2	109.3	0.01	_
20091112_RATP_SCD_0159	37	44	descendre	NULL	vinf	NULL	B_GVi	DEP_COORD	43	idtext0065	descendre	W#####	spk1	109.31	109.7	0.01	_
20091112_RATP_SCD_0159	37	45	à	NULL	prep	NULL	B_GP	P_OBJ_LOC	44	idtext0065	à	#####	spk1	109.71	109.73	0.01	_
20091112_RATP_SCD_0159	37	46	Châtelet	NULL	nc	B_A	I_GP	OBJ	45	idtext0065	Châtelet	#####	spk1	109.74	110.18	?	//

20091112_RATP_SCD_0159	38	1	d'accord	NULL	adv	NULL	B_GADV	NOLINK	0	idtext0066	d'accord	#####	spk2	110.74	111.21	?	//

20091112_RATP_SCD_0159	39	1	et	NULL	coo	NULL	B_NULL	ROOT	0	idtext0067	et	#####	spk1	111.27	111.29	0.01	_
20091112_RATP_SCD_0159	39	2	Châtelet	NULL	nc	B_A	B_GN	SUJ	4	idtext0067	Châtelet	#####	spk1	111.3	111.8	0.01	_
20091112_RATP_SCD_0159	39	3	c'	NULL	cln	NULL	B_GN	SUJ_IMP	4	idtext0067	ce	###s##	spk1	111.81	111.93	0.01	_
20091112_RATP_SCD_0159	39	4	est	NULL	v	NULL	B_GVf	DEP_COORD	1	idtext0067	être	P#3##s##	spk1	111.94	111.96	0.01	_
20091112_RATP_SCD_0159	39	5	un+peu	NULL	adv	NULL	B_GADV	MOD	6	idtext0067	un+peu	#####	spk1	111.97	112.28	0.01	_
20091112_RATP_SCD_0159	39	6	plus	NULL	adv	NULL	I_GADV	ATS	4	idtext0067	plus	#####	spk1	112.29	112.49	0.01	_
20091112_RATP_SCD_0159	39	7	proche+de	NULL	prep	NULL	B_GP	MOD	6	idtext0067	proche+de	#####	spk1	112.5	112.82	0.01	_
20091112_RATP_SCD_0159	39	8	l'	NULL	det	NULL	I_GP	DET	9	idtext0067	le	###s##d	spk1	112.83	112.86	0.01	_
20091112_RATP_SCD_0159	39	9	hôtel	NULL	nc	NULL	I_GP	OBJ	7	idtext0067	hôtel	##m#s##	spk1	112.87	113.15	0.01	_
20091112_RATP_SCD_0159	39	10	de	NULL	prep	NULL	B_GP	DEP	9	idtext0067	de	#####	spk1	113.16	113.18	0.01	_
20091112_RATP_SCD_0159	39	11	ville	NULL	nc	NULL	I_GP	OBJ	10	idtext0067	ville	##f#s##	spk1	113.19	113.53	0.42	/
20091112_RATP_SCD_0159	39	12	hein	DISF_M	pres	NULL	NULL	NOLINK	0	idtext0068	hein	#####	spk1	113.95	114.05	0.01	_
20091112_RATP_SCD_0159	39	13	mais	NULL	coo	NULL	B_NULL	ROOT	0	idtext0068	mais	#####	spk1	114.06	114.18	0.01	_
20091112_RATP_SCD_0159	39	14	comme	NULL	adv	NULL	B_GADV	MOD	18	idtext0068	comme	#####	spk1	114.19	114.4	0.01	_
20091112_RATP_SCD_0159	39	15	la	NULL	det	NULL	B_GN	DET	16	idtext0068	le	##m#s##d	spk1	114.41	114.51	0.01	_
20091112_RATP_SCD_0159	39	16	sept	NULL	nc	B_T	I_GN	SUJ	18	idtext0068	sept	##m###	spk1	114.52	114.78	0.01	_
20091112_RATP_SCD_0159	39	17	ne	NULL	clneg	NULL	B_GVfn	MOD	18	idtext0068	ne	#####	spk1	114.79	114.88	0.01	_
20091112_RATP_SCD_0159	39	18	passe	NULL	v	NULL	I_GVfn	DEP_COORD	13	idtext0068	passer	PS#13##s##	spk1	114.89	115.07	0.01	_
20091112_RATP_SCD_0159	39	19	pas	NULL	advneg	NULL	I_GVfn	MOD	18	idtext0068	pas	#####	spk1	115.08	115.15	0.01	_
20091112_RATP_SCD_0159	39	20	à	NULL	prep	NULL	B_GP	P_OBJ_LOC	18	idtext0068	à	#####	spk1	115.16	115.18	0.01	_
20091112_RATP_SCD_0159	39	21	hôtel	NULL	nc	NULL	I_GP	OBJ	20	idtext0068	hôtel	##m#s##	spk1	115.19	115.45	0.01	_
20091112_RATP_SCD_0159	39	22	de	NULL	prep	NULL	B_GP	DEP	21	idtext0068	de	#####	spk1	115.46	115.53	0.01	_
20091112_RATP_SCD_0159	39	23	ville	NULL	nc	NULL	I_GP	OBJ	22	idtext0068	ville	##f#s##	spk1	115.54	115.71	0.01	_
20091112_RATP_SCD_0159	39	24	donc	NULL	coo	NULL	B_NULL	COORD	18	idtext0068	donc	#####	spk1	115.72	115.88	0.01	_
20091112_RATP_SCD_0159	39	25	ce	NULL	cln	NULL	B_GN	SUJ_IMP	26	idtext0068	ce	#####	spk1	115.89	115.99	0.01	_
20091112_RATP_SCD_0159	39	26	serait	NULL	v	NULL	B_GVf	DEP_COORD	24	idtext0068	être	C#3##s##	spk1	116.0	116.17	0.01	_
20091112_RATP_SCD_0159	39	27	Châtelet	NULL	nc	B_A	B_GN	ATS	26	idtext0068	Châtelet	#####	spk1	116.18	116.52	0.01	_
20091112_RATP_SCD_0159	39	28	le+plus	NULL	adv	NULL	I_GN	MOD	29	idtext0068	le+plus	#####	spk1	116.53	116.73	0.01	_
20091112_RATP_SCD_0159	39	29	proche	NULL	adj	NULL	I_GN	MOD	27	idtext0068	proche	###s##	spk1	116.74	117.18	?	//

20091112_RATP_SCD_0159	40	1	d'accord	NULL	adv	NULL	B_GADV	NOLINK	0	idtext0069	d'accord	#####	spk2	117.77	118.3	0.01	_
20091112_RATP_SCD_0159	40	2	Châtelet	NULL	nc	B_A	B_GN	NOLINK	0	idtext0069	Châtelet	#####	spk2	118.31	118.74	0.01	_
20091112_RATP_SCD_0159	40	3	OK	NULL	adv	NULL	B_GADV	NOLINK	0	idtext0069	ok	#####	spk2	118.75	119.52	?	//

20091112_RATP_SCD_0159	41	1	hein	DISF_M	pres	NULL	NULL	NOLINK	0	idtext0070	hein	#####	spk1	117.84	118.19	0.01	_
20091112_RATP_SCD_0159	41	2	c'	NULL	cln	NULL	B_GN	SUJ_IMP	3	idtext0070	ce	###s##	spk1	118.2	118.48	0.01	_
20091112_RATP_SCD_0159	41	3	est	NULL	v	NULL	B_GVf	ROOT	0	idtext0070	être	P#3##s##	spk1	118.49	118.7	0.01	_
20091112_RATP_SCD_0159	41	4	la	NULL	det	NULL	B_GN	DET	5	idtext0070	le	##m#s##d	spk1	118.71	118.81	0.01	_
20091112_RATP_SCD_0159	41	5	onze	NULL	nc	B_T	I_GN	ATS	3	idtext0070	onze	##m###	spk1	118.82	119.04	0.01	_
20091112_RATP_SCD_0159	41	6	ou	NULL	coo	NULL	B_NULL	COORD	5	idtext0070	ou	#####	spk1	119.05	119.14	0.01	_
20091112_RATP_SCD_0159	41	7	la	NULL	det	NULL	B_NULL	DEP_COORD	6	idtext0070	le	##m#s##d	spk1	119.15	119.52	?	_

20091112_RATP_SCD_0159	42	1	la	NULL	det	NULL	B_GN	DET	2	idtext0071	le	##m#s##d	spk1	120.28	120.33	0.01	_
20091112_RATP_SCD_0159	42	2	onze	NULL	nc	B_T	I_GN	ROOT	0	idtext0071	onze	##m###	spk1	120.34	120.55	0.01	_
20091112_RATP_SCD_0159	42	3	ou	NULL	coo	NULL	B_NULL	COORD	2	idtext0071	ou	#####	spk1	120.56	120.64	0.01	_
20091112_RATP_SCD_0159	42	4	la	NULL	det	NULL	B_GN	DET	5	idtext0071	le	##m#s##d	spk1	120.65	120.73	0.01	_
20091112_RATP_SCD_0159	42	5	un	NULL	nc	B_T	I_GN	DEP_COORD	3	idtext0071	un	##m#s##	spk1	120.74	120.76	0.01	_
20091112_RATP_SCD_0159	42	6	qui	NULL	prorel	NULL	B_NULL	SUJ	7	idtext0072	qui	#####	spk1	120.77	121.11	0.01	_
20091112_RATP_SCD_0159	42	7	passe	NULL	v	NULL	B_GVf	MOD_REL	5	idtext0072	passer	PS#13##s##	spk1	121.12	121.33	0.01	_
20091112_RATP_SCD_0159	42	8	à	NULL	prep	NULL	B_GP	P_OBJ_LOC	7	idtext0072	à	#####	spk1	121.34	121.36	0.01	_
20091112_RATP_SCD_0159	42	9	hôtel	NULL	nc	NULL	I_GP	OBJ	8	idtext0072	hôtel	##m#s##	spk1	121.37	121.6	0.01	_
20091112_RATP_SCD_0159	42	10	de	NULL	prep	NULL	B_GP	DEP	9	idtext0072	de	#####	spk1	121.61	121.69	0.01	_
20091112_RATP_SCD_0159	42	11	ville	NULL	nc	NULL	I_GP	OBJ	10	idtext0072	ville	##f#s##	spk1	121.7	121.99	0.06	/
20091112_RATP_SCD_0159	42	12	ça	NULL	pro	NULL	B_GN	SUJ_IMP	13	idtext0073	ça	#####	spk1	122.05	122.13	0.01	_
20091112_RATP_SCD_0159	42	13	vaut	NULL	v	NULL	B_GVfn	ROOT	0	idtext0073	valoir	P#3##s##	spk1	122.14	122.22	0.01	_
20091112_RATP_SCD_0159	42	14	pas	NULL	advneg	NULL	I_GVfn	MOD	13	idtext0073	pas	#####	spk1	122.23	122.34	0.01	_
20091112_RATP_SCD_0159	42	15	le	NULL	det	NULL	B_GN	DET	16	idtext0073	le	##m#s##d	spk1	122.35	122.37	0.01	_
20091112_RATP_SCD_0159	42	16	coup	NULL	nc	NULL	I_GN	OBJ	13	idtext0073	coup	##m#s##	spk1	122.38	122.5	0.01	_
20091112_RATP_SCD_0159	42	17	de	NULL	prep	NULL	B_GP	DEP	16	idtext0073	de	#####	spk1	122.51	122.53	0.01	_
20091112_RATP_SCD_0159	42	18	rechanger	NULL	vinf	NULL	I_GP	OBJ	17	idtext0073	rechanger	W#####	spk1	122.54	123.11	0.01	_
20091112_RATP_SCD_0159	42	19	prendre	NULL	vinf	NULL	B_GVi	OBJ	18	idtext0073	prendre	W#####	spk1	123.12	123.37	0.01	_
20091112_RATP_SCD_0159	42	20	un	NULL	det	NULL	B_GN	DET	22	idtext0073	un	##m#s##i	spk1	123.38	123.45	0.01	_
20091112_RATP_SCD_0159	42	21	grand	NULL	adj	NULL	I_GN	MOD	22	idtext0073	grand	##m#s##	spk1	123.46	123.62	0.01	_
20091112_RATP_SCD_0159	42	22	couloir	NULL	nc	NULL	I_GN	OBJ	19	idtext0073	couloir	##m#s##	spk1	123.63	123.98	0.01	_
20091112_RATP_SCD_0159	42	23	à	NULL	prep	NULL	B_GP	MOD	19	idtext0073	à	#####	spk1	123.99	124.03	0.01	_
20091112_RATP_SCD_0159	42	24	Châtelet	NULL	nc	B_A	I_GP	OBJ	23	idtext0073	Châtelet	#####	spk1	124.04	124.32	?	//

20091112_RATP_SCD_0159	43	1	ouais	DISF_R	adv	NULL	NULL	NOLINK	0	idtext0074	ouais	#####	spk2	124.36	124.73	0.01	_
20091112_RATP_SCD_0159	43	2	ouais	DISF_R	adv	NULL	NULL	NOLINK	0	idtext0074	ouais	#####	spk2	124.74	124.86	0.01	_
20091112_RATP_SCD_0159	43	3	ouais	NULL	adv	NULL	B_GADV	NOLINK	0	idtext0074	ouais	#####	spk2	124.87	125.14	?	//

20091112_RATP_SCD_0159	44	1	pour	NULL	prep	NULL	B_GP	ROOT	0	idtext0075	pour	#####	spk1	124.36	124.49	0.01	_
20091112_RATP_SCD_0159	44	2	une	NULL	det	NULL	I_GP	DET	3	idtext0075	un	##f#s##i	spk1	124.5	124.56	0.01	_
20091112_RATP_SCD_0159	44	3	station	NULL	nc	NULL	I_GP	OBJ	1	idtext0075	station	##f#s##	spk1	124.57	125.03	0.01	_
20091112_RATP_SCD_0159	44	4	quoi	DISF_M	pres	NULL	NULL	NOLINK	0	idtext0075	quoi	#####	spk1	125.04	125.14	?	_

20091112_RATP_SCD_0159	45	1	OK	NULL	adv	NULL	B_GADV	NOLINK	0	idtext0076	ok	#####	spk2	125.65	126.02	0.01	_
20091112_RATP_SCD_0159	45	2	super	NULL	pres	NULL	B_NULL	NOLINK	0	idtext0076	super	#####	spk2	126.03	126.46	?	//

20091112_RATP_SCD_0159	46	1	bon	DISF_M	pres	NULL	NULL	NOLINK	0	idtext0077	bon	#####	spk2	127.13	127.23	0.01	_
20091112_RATP_SCD_0159	46	2	je	NULL	cln	NULL	B_GN	SUJ	4	idtext0077	cln	#1##s##	spk2	127.24	127.31	0.01	_
20091112_RATP_SCD_0159	46	3	vous	NULL	clo	NULL	B_GN	OBJ	4	idtext0077	cln	#2##p##	spk2	127.32	127.37	0.01	_
20091112_RATP_SCD_0159	46	4	remercie	NULL	v	NULL	B_GVf	ROOT	0	idtext0077	remercier	PS#13##s##	spk2	127.38	127.69	?	//

20091112_RATP_SCD_0159	47	1	beaucoup	NULL	adv	NULL	B_GADV	NOLINK	0	idtext0078	beaucoup	#####	spk2	127.73	128.27	0.28	_
20091112_RATP_SCD_0159	47	2	au+revoir	NULL	adv	NULL	B_GADV	NOLINK	0	idtext0080	au+revoir	#####	spk2	128.55	129.64	?	_

20091112_RATP_SCD_0159	48	1	je	NULL	cln	NULL	B_GN	SUJ	3	idtext0079	cln	#1##s##	spk1	127.83	127.94	0.01	_
20091112_RATP_SCD_0159	48	2	en	NULL	clo	NULL	B_GN	DE_OBJ	3	idtext0079	en	#####	spk1	127.95	128.0	0.01	_
20091112_RATP_SCD_0159	48	3	prie	NULL	v	NULL	B_GVf	ROOT	0	idtext0079	prier	PS#13##s##	spk1	128.01	128.27	0.25	_
20091112_RATP_SCD_0159	48	4	bonne	NULL	adj	NULL	B_GN	MOD	5	idtext0081	bon	##f#s##	spk1	128.52	128.87	0.01	_
20091112_RATP_SCD_0159	48	5	journée	NULL	nc	NULL	I_GN	ROOT	0	idtext0081	journée	##f#s##	spk1	128.88	129.07	0.01	_
20091112_RATP_SCD_0159	48	6	à	NULL	prep	NULL	B_GP	ROOT	0	idtext0081	à	#####	spk1	129.08	129.11	0.01	_
20091112_RATP_SCD_0159	48	7	vous	NULL	pro	NULL	I_GP	OBJ	6	idtext0081	vous	#####	spk1	129.12	129.25	0.01	_
20091112_RATP_SCD_0159	48	8	au+revoir	NULL	adv	NULL	B_GADV	NOLINK	0	idtext0081	au+revoir	#####	spk1	129.26	129.64	?	//

