20091112_RATP_SCD_0720	1	1	NNAAMMEE	NULL	np	B_HU	B_GN	ROOT	0	idtext0000	ANONYM	NULL	spk1	3.15	3.62	0.07	_
20091112_RATP_SCD_0720	1	2	va	NULL	v	NULL	B_GVf	ROOT	0	idtext0001	aller	P#3##s##	spk1	3.69	3.74	0.01	_
20091112_RATP_SCD_0720	1	3	vous	NULL	clo	NULL	B_GN	A_OBJ	4	idtext0001	cln	#2##p##	spk1	3.75	4.03	0.01	_
20091112_RATP_SCD_0720	1	4	répondre	NULL	vinf	NULL	B_GVi	OBJ	2	idtext0001	répondre	W#####	spk1	4.04	4.65	?	//

20091112_RATP_SCD_0720	2	1	NNAAMMEE	NULL	np	B_HU	B_GN	ROOT	0	idtext0002	ANONYM	NULL	spk2	5.29	5.48	0.04	_
20091112_RATP_SCD_0720	2	2	bonjour	NULL	adv	NULL	B_GADV	NOLINK	0	idtext0003	bonjour	#####	spk2	5.52	5.8	?	//

20091112_RATP_SCD_0720	3	1	NNAAMMEE	NULL	np	B_HU	B_GN	ROOT	0	idtext0004	ANONYM	NULL	spk2	7.05	7.24	0.04	_
20091112_RATP_SCD_0720	3	2	bonjour	NULL	adv	NULL	B_GADV	NOLINK	0	idtext0005	bonjour	#####	spk2	7.28	7.84	?	//

20091112_RATP_SCD_0720	4	1	oui	NULL	adv	NULL	B_GADV	MOD	2	idtext0006	oui	#####	spk3	7.88	8.07	0.01	_
20091112_RATP_SCD_0720	4	2	bonjour	NULL	adv	NULL	I_GADV	ROOT	0	idtext0006	bonjour	#####	spk3	8.08	8.45	0.01	_
20091112_RATP_SCD_0720	4	3	monsieur	NULL	nc	NULL	B_GN	NOLINK	0	idtext0006	Monsieur	##m#s##	spk3	8.46	9.05	?	//

20091112_RATP_SCD_0720	5	1	euh	DISF_M	pres	NULL	NULL	NOLINK	0	idtext0007	euh	#####	spk3	9.27	9.3	0.01	_
20091112_RATP_SCD_0720	5	2	je	NULL	cln	NULL	B_GN	SUJ	3	idtext0007	cln	#1##s##	spk3	9.31	10.13	0.01	_
20091112_RATP_SCD_0720	5	3	sais	NULL	v	NULL	B_GVfn	ROOT	0	idtext0007	savoir	P#12##s##	spk3	10.14	10.37	0.01	_
20091112_RATP_SCD_0720	5	4	pas	NULL	advneg	NULL	I_GVfn	MOD	3	idtext0007	pas	#####	spk3	10.38	10.58	0.01	_
20091112_RATP_SCD_0720	5	5	comment	NULL	adv	NULL	B_GVi	MOD	7	idtext0007	comment	#####	spk3	10.59	11.0	0.01	_
20091112_RATP_SCD_0720	5	6	me	NULL	clr	NULL	I_GVi	AFF	7	idtext0007	cla	#1##s##	spk3	11.01	11.13	0.01	_
20091112_RATP_SCD_0720	5	7	rendre	NULL	vinf	NULL	I_GVi	OBJ	3	idtext0007	rendre	W#####	spk3	11.14	12.03	0.01	_
20091112_RATP_SCD_0720	5	8	au	NULL	prep	NULL	B_GP	P_OBJ_LOC	7	idtext0007	au	#####	spk3	12.04	12.16	0.01	_
20091112_RATP_SCD_0720	5	9	cimetière	NULL	nc	NULL	I_GP	OBJ	8	idtext0007	cimetière	##m#s##	spk3	12.17	13.19	0.01	_
20091112_RATP_SCD_0720	5	10	de	NULL	prep	NULL	B_GP	DEP	9	idtext0007	de	#####	spk3	13.2	13.77	0.01	_
20091112_RATP_SCD_0720	5	11	euh	DISF_M	pres	NULL	NULL	NOLINK	0	idtext0007	euh	#####	spk3	13.78	13.82	0.01	_
20091112_RATP_SCD_0720	5	12	Pantin	NULL	nc	B_A	I_GP	OBJ	10	idtext0007	Pantin	##m#s##	spk3	13.83	15.04	0.38	/
20091112_RATP_SCD_0720	5	13	euh	DISF_M	pres	NULL	NULL	NOLINK	0	idtext0008	euh	#####	spk3	15.42	15.54	0.01	_
20091112_RATP_SCD_0720	5	14	en	NULL	prep	NULL	B_GP	ROOT	0	idtext0008	en	#####	spk3	15.55	16.02	0.01	_
20091112_RATP_SCD_0720	5	15	métro	NULL	nc	NULL	I_GP	OBJ	14	idtext0008	métro	##m#s##	spk3	16.03	16.78	0.01	_
20091112_RATP_SCD_0720	5	16	et	NULL	coo	NULL	B_NULL	COORD	15	idtext0008	et	#####	spk3	16.79	16.85	0.01	_
20091112_RATP_SCD_0720	5	17	je	NULL	cln	NULL	B_GN	SUJ	18	idtext0008	cln	#1##s##	spk3	16.86	17.0	0.01	_
20091112_RATP_SCD_0720	5	18	voulais	NULL	v	NULL	B_GVf	DEP_COORD	16	idtext0008	vouloir	I#12##s##	spk3	17.01	17.29	0.01	_
20091112_RATP_SCD_0720	5	19	savoir	NULL	vinf	NULL	I_GVf	OBJ	18	idtext0008	savoir	W#####	spk3	17.3	17.83	0.01	_
20091112_RATP_SCD_0720	5	20	comment	NULL	adv	NULL	B_GADV	MOD	22	idtext0008	comment	#####	spk3	17.84	18.15	0.01	_
20091112_RATP_SCD_0720	5	21	je	NULL	cln	NULL	B_GN	SUJ	22	idtext0008	cln	#1##s##	spk3	18.16	18.28	0.01	_
20091112_RATP_SCD_0720	5	22	peux	NULL	v	NULL	B_GVf	OBJ	18	idtext0008	pouvoir	P#12##s##	spk3	18.29	18.44	0.01	_
20091112_RATP_SCD_0720	5	23	faire	NULL	vinf	NULL	I_GVf	OBJ	22	idtext0008	faire	W#####	spk3	18.45	19.42	?	//

20091112_RATP_SCD_0720	6	1	alors	NULL	adv	NULL	B_GADV	NOLINK	0	idtext0009	alors	#####	spk2	19.47	20.29	0.07	_
20091112_RATP_SCD_0720	6	2	je	NULL	cln	NULL	B_GN	SUJ	3	idtext0010	cln	#1##s##	spk2	20.36	20.48	0.01	_
20091112_RATP_SCD_0720	6	3	crois	NULL	v	NULL	B_GVf	ROOT	0	idtext0010	croire	P#12##s##	spk2	20.49	20.63	0.01	_
20091112_RATP_SCD_0720	6	4	qu'	NULL	csu	NULL	B_NULL	OBJ	3	idtext0010	qu'	#####	spk2	20.64	20.67	0.01	_
20091112_RATP_SCD_0720	6	5	il	NULL	cln	NULL	B_GN	SUJ_IMP	8	idtext0010	cln	#3#m#s##	spk2	20.68	20.73	0.01	_
20091112_RATP_SCD_0720	6	6	y	NULL	clo	NULL	B_GN	AFF	8	idtext0010	y	#####	spk2	20.74	20.78	0.01	_
20091112_RATP_SCD_0720	6	7	en	NULL	clo	NULL	B_GN	OBJ	8	idtext0010	en	#####	spk2	20.79	20.92	0.01	_
20091112_RATP_SCD_0720	6	8	a	NULL	v	NULL	B_GVf	OBJ	4	idtext0010	avoir	P#3##s##	spk2	20.93	21.06	0.01	_
20091112_RATP_SCD_0720	6	9	deux	NULL	nc	NULL	B_GN	OBJ	8	idtext0010	deux	##m###	spk2	21.07	21.58	0.04	_
20091112_RATP_SCD_0720	6	10	il	NULL	cln	NULL	B_GN	SUJ_IMP	12	idtext0011	cln	#3#m#s##	spk2	21.62	21.67	0.01	_
20091112_RATP_SCD_0720	6	11	y	NULL	clo	NULL	B_GN	AFF	12	idtext0011	y	#####	spk2	21.68	21.72	0.01	_
20091112_RATP_SCD_0720	6	12	a	NULL	v	NULL	B_GVf	ROOT	0	idtext0011	avoir	P#3##s##	spk2	21.73	21.86	0.01	_
20091112_RATP_SCD_0720	6	13	deux	NULL	adj	NULL	I_GP	MOD	14	idtext0011	deux	#####	spk2	21.87	22.04	0.01	_
20091112_RATP_SCD_0720	6	14	cimetières	NULL	nc	NULL	I_GP	OBJ	12	idtext0011	cimetière	##m#p##	spk2	22.05	22.76	0.01	_
20091112_RATP_SCD_0720	6	15	à	NULL	prep	NULL	B_GP	ROOT	0	idtext0011	à	#####	spk2	22.77	22.79	0.01	_
20091112_RATP_SCD_0720	6	16	Pantin	NULL	nc	B_A	I_GP	OBJ	15	idtext0011	Pantin	##m#s##	spk2	22.8	23.02	?	//

20091112_RATP_SCD_0720	7	1	c'	NULL	cln	NULL	B_GN	SUJ_IMP	2	idtext0012	ce	###s##	spk3	23.16	23.18	0.01	_
20091112_RATP_SCD_0720	7	2	est	NULL	v	NULL	B_GVf	ROOT	0	idtext0012	être	P#3##s##	spk3	23.19	23.32	0.01	_
20091112_RATP_SCD_0720	7	3	avenue	NULL	nc	B_A	B_GN	ATS	2	idtext0012	avenue	##f#s##	spk3	23.33	23.7	0.01	_
20091112_RATP_SCD_0720	7	4	Jean+Jaurès	NULL	np	I_A	I_GN	MOD	3	idtext0012	Jean+Jaurès	#####	spk3	23.71	25.03	?	//

20091112_RATP_SCD_0720	8	1	oui	NULL	adv	NULL	B_GADV	NOLINK	0	idtext0013	oui	#####	spk2	25.07	25.12	0.01	_
20091112_RATP_SCD_0720	8	2	vous	NULL	cln	NULL	B_GN	SUJ	3	idtext0013	cln	#2##p##	spk2	25.13	25.25	0.01	_
20091112_RATP_SCD_0720	8	3	avez	NULL	v	NULL	B_GVf	ROOT	0	idtext0013	avoir	P#2##p##	spk2	25.26	25.38	0.01	_
20091112_RATP_SCD_0720	8	4	le	NULL	det	NULL	B_GN	DET	5	idtext0013	le	##m#s##d	spk2	25.39	25.44	0.01	_
20091112_RATP_SCD_0720	8	5	cimetière	NULL	nc	NULL	I_GN	OBJ	3	idtext0013	cimetière	##m#s##	spk2	25.45	25.78	0.01	_
20091112_RATP_SCD_0720	8	6	communal	NULL	adj	NULL	I_GN	MOD	5	idtext0013	communal	##m#s##	spk2	25.79	26.2	0.01	_
20091112_RATP_SCD_0720	8	7	ou	NULL	coo	NULL	B_NULL	COORD	5	idtext0013	ou	#####	spk2	26.21	26.23	0.01	_
20091112_RATP_SCD_0720	8	8	le	NULL	det	NULL	B_GN	DET	9	idtext0013	le	##m#s##d	spk2	26.24	26.31	0.01	_
20091112_RATP_SCD_0720	8	9	cimetière	NULL	nc	NULL	I_GN	DEP_COORD	7	idtext0013	cimetière	##m#s##	spk2	26.32	26.7	0.01	_
20091112_RATP_SCD_0720	8	10	parisien	NULL	adj	NULL	I_GN	MOD	9	idtext0013	parisien	##m#s##	spk2	26.71	27.29	?	//

20091112_RATP_SCD_0720	9	1	le	NULL	det	NULL	B_GN	DET	2	idtext0014	le	##m#s##d	spk3	27.37	27.58	0.01	_
20091112_RATP_SCD_0720	9	2	cimetière	NULL	nc	NULL	I_GN	ROOT	0	idtext0014	cimetière	##m#s##	spk3	27.59	28.0	0.01	_
20091112_RATP_SCD_0720	9	3	parisien	NULL	adj	NULL	I_GN	MOD	2	idtext0014	parisien	##m#s##	spk3	28.01	28.78	?	//

20091112_RATP_SCD_0720	10	1	d'accord	NULL	adv	NULL	B_GADV	NOLINK	0	idtext0015	d'accord	#####	spk2	28.82	29.59	0.04	_
20091112_RATP_SCD_0720	10	2	et	NULL	coo	NULL	B_NULL	ROOT	0	idtext0016	et	#####	spk2	29.63	29.71	0.01	_
20091112_RATP_SCD_0720	10	3	vous	NULL	cln	NULL	B_GN	SUJ	4	idtext0016	cln	#2##p##	spk2	29.72	29.81	0.01	_
20091112_RATP_SCD_0720	10	4	partez	NULL	v	NULL	B_GVf	DEP_COORD	2	idtext0016	partir	P#2##p##	spk2	29.82	30.1	0.01	_
20091112_RATP_SCD_0720	10	5	de	NULL	prep	NULL	B_GP	P_OBJ_LOC	4	idtext0016	de	#####	spk2	30.11	30.2	0.01	_
20091112_RATP_SCD_0720	10	6	quel	NULL	det	NULL	I_GP	DET	7	idtext0016	quel	##m#s##	spk2	30.21	30.38	0.01	_
20091112_RATP_SCD_0720	10	7	endroit	NULL	nc	NULL	I_GP	OBJ	5	idtext0016	endroit	##m#s##	spk2	30.39	30.62	0.01	_
20091112_RATP_SCD_0720	10	8	s'il+vous+plaît	NULL	adv	NULL	B_GADV	NOLINK	0	idtext0016	s'il+vous+plaît	#####	spk2	30.63	31.04	?	//

20091112_RATP_SCD_0720	11	1	Miromesnil	NULL	nc	B_A	B_GN	NOLINK	0	idtext0017	Miromesnil	#####	spk3	31.08	32.1	?	//

20091112_RATP_SCD_0720	12	1	Miromesnil	NULL	nc	B_A	B_GN	NOLINK	0	idtext0018	Miromesnil	#####	spk2	32.14	32.62	?	//

20091112_RATP_SCD_0720	13	1	alors	NULL	adv	NULL	B_GADV	NOLINK	0	idtext0019	alors	#####	spk2	34.57	34.7	0.01	_
20091112_RATP_SCD_0720	13	2	veuillez	NULL	v	NULL	B_GVf	ROOT	0	idtext0019	vouloir	Y#2##p##	spk2	34.71	34.89	0.01	_
20091112_RATP_SCD_0720	13	3	patienter	NULL	vinf	NULL	I_GVf	OBJ	2	idtext0019	patienter	W#####	spk2	34.9	35.24	0.01	_
20091112_RATP_SCD_0720	13	4	je	NULL	cln	NULL	B_GN	SUJ	5	idtext0019	cln	#1##s##	spk2	35.25	35.34	0.01	_
20091112_RATP_SCD_0720	13	5	recherche	NULL	v	NULL	B_GVf	ROOT	0	idtext0019	rechercher	PS#13##s##	spk2	35.35	35.75	0.01	_
20091112_RATP_SCD_0720	13	6	hein	DISF_M	pres	NULL	NULL	NOLINK	0	idtext0019	hein	#####	spk2	35.76	36.0	?	//

20091112_RATP_SCD_0720	14	1	merci	NULL	adv	NULL	B_GADV	NOLINK	0	idtext0020	merci	#####	spk3	36.04	36.45	0.01	_
20091112_RATP_SCD_0720	14	2	monsieur	NULL	nc	NULL	B_GN	NOLINK	0	idtext0020	Monsieur	##m#s##	spk3	36.46	36.63	?	//

20091112_RATP_SCD_0720	15	1	hein	DISF_M	pres	NULL	NULL	NOLINK	0	idtext0021	hein	#####	spk2	36.68	36.77	0.01	_
20091112_RATP_SCD_0720	15	2	je	NULL	cln	NULL	B_GN	SUJ	5	idtext0021	cln	#1##s##	spk2	36.78	36.89	0.01	_
20091112_RATP_SCD_0720	15	3	vous	NULL	clo	NULL	B_GN	OBJ	5	idtext0021	cln	#2##p##	spk2	36.9	37.01	0.01	_
20091112_RATP_SCD_0720	15	4	en	NULL	clo	NULL	B_GN	DE_OBJ	5	idtext0021	en	#####	spk2	37.02	37.08	0.01	_
20091112_RATP_SCD_0720	15	5	prie	NULL	v	NULL	B_GVf	ROOT	0	idtext0021	prier	PS#13##s##	spk2	37.09	37.28	?	//

20091112_RATP_SCD_0720	16	1	s'il+vous+plaît	NULL	adv	NULL	B_GADV	NOLINK	0	idtext0022	s'il+vous+plaît	#####	spk2	87.76	89.01	0.11	_
20091112_RATP_SCD_0720	16	2	s'il+vous+plaît	NULL	adv	NULL	B_GADV	NOLINK	0	idtext0023	s'il+vous+plaît	#####	spk2	89.12	89.62	?	//

20091112_RATP_SCD_0720	17	1	oui	NULL	adv	NULL	B_GADV	NOLINK	0	idtext0024	oui	#####	spk3	89.66	89.96	0.01	_
20091112_RATP_SCD_0720	17	2	je	NULL	cln	NULL	B_GN	SUJ	3	idtext0024	cln	#1##s##	spk3	89.97	90.01	0.01	_
20091112_RATP_SCD_0720	17	3	suis	NULL	v	NULL	B_GVf	ROOT	0	idtext0024	être	P#1##s##	spk3	90.02	90.11	0.01	_
20091112_RATP_SCD_0720	17	4	là	NULL	adv	NULL	B_GADV	P_OBJ_LOC	3	idtext0024	là	#####	spk3	90.12	90.51	?	_

20091112_RATP_SCD_0720	18	1	j'	NULL	cln	NULL	B_GN	SUJ	2	idtext0025	cln	#1##s##	spk2	90.55	90.7	0.01	_
20091112_RATP_SCD_0720	18	2	ai	NULL	v	NULL	B_GVf	ROOT	0	idtext0025	avoir	P#1##s##	spk2	90.71	90.92	0.01	//
20091112_RATP_SCD_0720	18	3	euh	DISF_M	pres	NULL	NULL	NOLINK	0	idtext0025	euh	#####	spk2	90.93	90.95	0.01	_
20091112_RATP_SCD_0720	18	4	alors	NULL	adv	NULL	B_GADV	NOLINK	0	idtext0025	alors	#####	spk2	90.96	91.97	0.01	_
20091112_RATP_SCD_0720	18	5	vous	NULL	cln	NULL	B_GN	SUJ	6	idtext0025	cln	#2##p##	spk2	91.98	92.05	0.01	_
20091112_RATP_SCD_0720	18	6	allez	NULL	v	NULL	B_GVf	ROOT	0	idtext0025	aller	P#2##p##	spk2	92.06	92.18	0.01	_
20091112_RATP_SCD_0720	18	7	prendre	NULL	vinf	NULL	I_GVf	OBJ	6	idtext0025	prendre	W#####	spk2	92.19	92.57	0.01	_
20091112_RATP_SCD_0720	18	8	ligne	NULL	nc	B_T	B_GN	OBJ	6	idtext0025	ligne	##f#s##	spk2	92.58	92.96	0.01	_
20091112_RATP_SCD_0720	18	9	neuf	NULL	adj	I_T	I_GN	MOD	8	idtext0025	neuf	##m#s##	spk2	92.97	93.34	0.01	_
20091112_RATP_SCD_0720	18	10	du	NULL	prep	NULL	B_GP	DEP	8	idtext0025	du	#####	spk2	93.35	93.43	0.01	_
20091112_RATP_SCD_0720	18	11	métro	NULL	nc	NULL	I_GP	OBJ	10	idtext0025	métro	##m#s##	spk2	93.44	94.15	?	//

20091112_RATP_SCD_0720	19	1	oui	NULL	adv	NULL	B_GADV	NOLINK	0	idtext0026	oui	#####	spk3	94.19	94.62	?	//

20091112_RATP_SCD_0720	20	1	en	NULL	prep	NULL	B_GP	ROOT	0	idtext0027	en	#####	spk2	94.66	94.68	0.01	_
20091112_RATP_SCD_0720	20	2	direction	NULL	nc	NULL	I_GP	OBJ	1	idtext0027	direction	##f#s##	spk2	94.69	95.03	0.01	/
20091112_RATP_SCD_0720	20	3	de	NULL	prep	NULL	B_GP	DEP	2	idtext0027	de	#####	spk2	95.04	95.19	0.01	_
20091112_RATP_SCD_0720	20	4	mairie	NULL	nc	NULL	I_GP	OBJ	3	idtext0027	mairie	##f#s##	spk2	95.2	95.41	0.01	_
20091112_RATP_SCD_0720	20	5	de	NULL	prep	NULL	B_GP	DEP	4	idtext0027	de	#####	spk2	95.42	95.45	0.01	_
20091112_RATP_SCD_0720	20	6	Montreuil	NULL	nc	B_A	I_GP	OBJ	5	idtext0027	Montreuil	##m#s##	spk2	95.46	95.82	0.01	/
20091112_RATP_SCD_0720	20	7	jusqu'à	NULL	prep	NULL	B_GP	ROOT	0	idtext0027	jusqu'à	#####	spk2	95.83	96.21	0.01	_
20091112_RATP_SCD_0720	20	8	Chaussée+d'Antin	NULL	nc	B_A	I_GP	OBJ	7	idtext0027	Chaussée+d'Antin	#####	spk2	96.22	97.27	?	//

20091112_RATP_SCD_0720	21	1	alors	NULL	adv	NULL	B_GADV	NOLINK	0	idtext0028	alors	#####	spk3	97.48	97.79	0.01	_
20091112_RATP_SCD_0720	21	2	mairie	NULL	nc	NULL	B_GN	ROOT	0	idtext0028	mairie	##f#s##	spk3	97.8	98.13	0.01	_
20091112_RATP_SCD_0720	21	3	de	NULL	prep	NULL	B_GP	DEP	2	idtext0028	de	#####	spk3	98.14	98.25	0.01	_
20091112_RATP_SCD_0720	21	4	Montreuil	NULL	nc	B_A	I_GP	OBJ	3	idtext0028	Montreuil	##m#s##	spk3	98.26	99.28	?	//

20091112_RATP_SCD_0720	22	1	jusqu'à	NULL	prep	NULL	B_GP	ROOT	0	idtext0029	jusqu'à	#####	spk2	100.57	100.81	0.01	_
20091112_RATP_SCD_0720	22	2	Chaussée+d'Antin	NULL	nc	B_A	I_GP	OBJ	1	idtext0029	Chaussée+d'Antin	#####	spk2	100.82	102.13	?	//

20091112_RATP_SCD_0720	23	1	oui	NULL	adv	NULL	B_GADV	NOLINK	0	idtext0030	oui	#####	spk3	102.17	103.04	?	//

20091112_RATP_SCD_0720	24	1	ensuite	NULL	adv	NULL	B_GADV	NOLINK	0	idtext0031	ensuite	#####	spk2	103.14	103.6	0.01	_
20091112_RATP_SCD_0720	24	2	vous	NULL	cln	NULL	B_GN	SUJ	3	idtext0031	cln	#2##p##	spk2	103.61	103.75	0.01	_
20091112_RATP_SCD_0720	24	3	allez	NULL	v	NULL	B_GVf	ROOT	0	idtext0031	aller	P#2##p##	spk2	103.76	103.9	0.01	_
20091112_RATP_SCD_0720	24	4	prendre	NULL	vinf	NULL	I_GVf	OBJ	3	idtext0031	prendre	W#####	spk2	103.91	104.65	0.01	_
20091112_RATP_SCD_0720	24	5	la	NULL	det	NULL	B_GN	DET	6	idtext0031	le	##m#s##d	spk2	104.66	104.83	0.01	_
20091112_RATP_SCD_0720	24	6	ligne	NULL	nc	B_T	I_GN	OBJ	4	idtext0031	ligne	##f#s##	spk2	104.84	105.45	0.01	_
20091112_RATP_SCD_0720	24	7	sept	NULL	adj	I_T	I_GN	MOD	6	idtext0031	sept	#####	spk2	105.46	105.89	?	//

20091112_RATP_SCD_0720	25	1	Chaussée+d'Antin	NULL	nc	B_A	B_GN	ROOT	0	idtext0032	Chaussée+d'Antin	#####	spk3	106.82	107.99	0.01	/
20091112_RATP_SCD_0720	25	2	et	NULL	coo	NULL	B_NULL	COORD	1	idtext0032	et	#####	spk3	108.0	108.11	0.01	_
20091112_RATP_SCD_0720	25	3	ligne	NULL	nc	B_T	B_GN	DEP_COORD	2	idtext0032	ligne	##f#s##	spk3	108.12	108.44	0.01	_
20091112_RATP_SCD_0720	25	4	sept	NULL	adj	I_T	I_GN	MOD	3	idtext0032	sept	#####	spk3	108.45	108.87	?	//

20091112_RATP_SCD_0720	26	1	en	NULL	prep	NULL	B_GP	ROOT	0	idtext0033	en	#####	spk2	109.31	109.38	0.01	_
20091112_RATP_SCD_0720	26	2	direction	NULL	nc	NULL	I_GP	OBJ	1	idtext0033	direction	##f#s##	spk2	109.39	109.89	0.01	_
20091112_RATP_SCD_0720	26	3	de	NULL	prep	NULL	B_GP	DEP	2	idtext0033	de	#####	spk2	109.9	110.02	0.01	_
20091112_RATP_SCD_0720	26	4	La+Courneuve	NULL	nc	B_A	I_GP	OBJ	3	idtext0033	La+Courneuve	#####	spk2	110.03	110.81	?	//

20091112_RATP_SCD_0720	27	1	alors	NULL	adv	NULL	B_GADV	NOLINK	0	idtext0034	alors	#####	spk3	110.9	111.56	0.01	_
20091112_RATP_SCD_0720	27	2	euh	DISF_M	pres	NULL	NULL	NOLINK	0	idtext0034	euh	#####	spk3	111.57	112.04	0.01	_
20091112_RATP_SCD_0720	27	3	ligne	NULL	nc	B_T	B_GN	NOLINK	0	idtext0034	ligne	##f#s##	spk3	112.05	112.42	0.01	_
20091112_RATP_SCD_0720	27	4	sept	NULL	adj	I_T	I_GN	MOD	3	idtext0034	sept	#####	spk3	112.43	112.9	0.01	_
20091112_RATP_SCD_0720	27	5	oui	NULL	adv	NULL	B_GADV	NOLINK	0	idtext0034	oui	#####	spk3	112.91	113.27	?	//

20091112_RATP_SCD_0720	28	1	en	NULL	prep	NULL	B_GP	ROOT	0	idtext0035	en	#####	spk2	114.12	114.15	0.01	_
20091112_RATP_SCD_0720	28	2	direction	NULL	nc	NULL	I_GP	OBJ	1	idtext0035	direction	##f#s##	spk2	114.16	114.62	0.01	_
20091112_RATP_SCD_0720	28	3	de	NULL	prep	NULL	B_GP	DEP	2	idtext0035	de	#####	spk2	114.63	114.7	0.01	_
20091112_RATP_SCD_0720	28	4	La+Courneuve	NULL	nc	B_A	I_GP	OBJ	3	idtext0035	La+Courneuve	#####	spk2	114.71	115.46	?	//

20091112_RATP_SCD_0720	29	1	oui	NULL	adv	NULL	B_GADV	NOLINK	0	idtext0036	oui	#####	spk3	115.58	116.16	?	//

20091112_RATP_SCD_0720	30	1	puis	NULL	coo	NULL	B_NULL	ROOT	0	idtext0037	puis	#####	spk2	116.2	116.28	0.01	_
20091112_RATP_SCD_0720	30	2	vous	NULL	cln	NULL	B_GN	SUJ	3	idtext0037	cln	#2##p##	spk2	116.29	116.35	0.01	_
20091112_RATP_SCD_0720	30	3	descendez	NULL	v	NULL	B_GVf	DEP_COORD	1	idtext0037	descendre	P#2##p##	spk2	116.36	117.11	0.04	_
20091112_RATP_SCD_0720	30	4	alors	NULL	adv	NULL	B_GADV	NOLINK	0	idtext0038	alors	#####	spk2	117.15	117.8	0.04	_
20091112_RATP_SCD_0720	30	5	soit	NULL	v	NULL	B_GVf	NOLINK	0	idtext0039	être	S#3##s##	spk2	117.84	118.83	0.04	_
20091112_RATP_SCD_0720	30	6	à	NULL	prep	NULL	B_NULL	NOLINK	0	idtext0040	à	#####	spk2	118.87	119.48	0.04	_
20091112_RATP_SCD_0720	30	7	Aubervilliers-Quatre+Chemins	NULL	nc	B_A	B_GN	NOLINK	0	idtext0041	Aubervilliers-Quatre+Chemins	#####	spk2	119.52	121.21	?	_

20091112_RATP_SCD_0720	31	1	oui	NULL	adv	NULL	B_GADV	NOLINK	0	idtext0042	oui	#####	spk3	121.36	122.28	?	//

20091112_RATP_SCD_0720	32	1	ou	NULL	coo	NULL	B_NULL	ROOT	0	idtext0043	ou	#####	spk2	122.32	122.52	0.01	_
20091112_RATP_SCD_0720	32	2	Fort+d'Aubervilliers	NULL	nc	B_A	B_GN	DEP_COORD	1	idtext0043	Fort+d'Aubervilliers	#####	spk2	122.53	124.13	?	/

20091112_RATP_SCD_0720	33	1	euh	DISF_M	pres	NULL	NULL	NOLINK	0	idtext0044	euh	#####	spk3	124.19	124.35	0.01	//
20091112_RATP_SCD_0720	33	2	qu'est-ce+qui	NULL	pri	NULL	B_NULL	SUJ	3	idtext0044	qu'est-ce+qui	#####	spk3	124.36	124.74	0.01	_
20091112_RATP_SCD_0720	33	3	est	NULL	v	NULL	B_GVf	ROOT	0	idtext0044	être	P#3##s##	spk3	124.75	124.8	0.01	_
20091112_RATP_SCD_0720	33	4	le+plus	NULL	adv	NULL	B_GADJ	MOD	5	idtext0044	le+plus	#####	spk3	124.81	125.12	0.01	_
20091112_RATP_SCD_0720	33	5	proche	NULL	adj	NULL	I_GADJ	ATS	3	idtext0044	proche	###s##	spk3	125.13	125.39	?	//

20091112_RATP_SCD_0720	34	1	du	NULL	prep	NULL	B_NULL	NOLINK	0	idtext0045	du	#####	spk3	125.48	126.34	?	_

20091112_RATP_SCD_0720	35	1	alors	NULL	adv	NULL	B_GADV	NOLINK	0	idtext0046	alors	#####	spk2	125.43	126.34	?	//

20091112_RATP_SCD_0720	36	1	euh	DISF_M	pres	NULL	NULL	NOLINK	0	idtext0047	euh	#####	spk2	126.39	127.19	0.06	_
20091112_RATP_SCD_0720	36	2	ça	NULL	pro	NULL	B_GN	SUJ_IMP	3	idtext0048	ça	#####	spk2	127.25	127.35	0.01	_
20091112_RATP_SCD_0720	36	3	serait	NULL	v	NULL	B_GVf	ROOT	0	idtext0048	être	C#3##s##	spk2	127.36	127.53	0.01	_
20091112_RATP_SCD_0720	36	4	plutôt	NULL	adv	NULL	B_GADV	MOD	3	idtext0048	plutôt	#####	spk2	127.54	127.83	0.01	_
20091112_RATP_SCD_0720	36	5	Fort	NULL	np	NULL	B_GN	ATS	3	idtext0048	Fort	#####	spk2	127.84	128.44	0.01	_
20091112_RATP_SCD_0720	36	6	oh	DISF_M	pres	NULL	NULL	NOLINK	0	idtext0048	oh	#####	spk2	128.45	128.69	0.01	_
20091112_RATP_SCD_0720	36	7	je	NULL	cln	NULL	B_GN	NOLINK	0	idtext0049	cln	#1##s##	spk2	128.7	129.91	0.07	_
20091112_RATP_SCD_0720	36	8	ça	NULL	pro	NULL	B_GN	SUJ_IMP	9	idtext0050	ça	#####	spk2	129.98	130.07	0.01	_
20091112_RATP_SCD_0720	36	9	serait	NULL	v	NULL	B_GVf	ROOT	0	idtext0050	être	C#3##s##	spk2	130.08	130.51	0.01	_
20091112_RATP_SCD_0720	36	10	Aubervilliers-Quatre+Chemins	NULL	nc	B_A	B_GN	ATS	9	idtext0050	Aubervilliers-Quatre+Chemins	#####	spk2	130.52	131.64	0.01	_
20091112_RATP_SCD_0720	36	11	mais	NULL	coo	NULL	B_NULL	COORD	9	idtext0050	mais	#####	spk2	131.65	131.77	0.01	_
20091112_RATP_SCD_0720	36	12	vous	NULL	cln	NULL	B_GN	SUJ	13	idtext0050	cln	#2##p##	spk2	131.78	131.89	0.01	_
20091112_RATP_SCD_0720	36	13	avez	NULL	v	NULL	B_GVf	DEP_COORD	11	idtext0050	avoir	P#2##p##	spk2	131.9	132.43	0.04	_
20091112_RATP_SCD_0720	36	14	on	DISF_R	cln	NULL	NULL	NOLINK	0	idtext0051	cln	#3##s##	spk2	132.47	132.65	0.01	_
20091112_RATP_SCD_0720	36	15	on	NULL	cln	NULL	B_GN	SUJ_IMP	16	idtext0051	cln	#3##s##	spk2	132.66	132.79	0.01	_
20091112_RATP_SCD_0720	36	16	va	NULL	v	NULL	B_GVf	ROOT	0	idtext0051	aller	P#3##s##	spk2	132.8	132.93	0.01	_
20091112_RATP_SCD_0720	36	17	dire	NULL	vinf	NULL	I_GVf	OBJ	16	idtext0051	dire	W#####	spk2	132.94	133.95	0.01	_
20091112_RATP_SCD_0720	36	18	euh	DISF_M	pres	NULL	NULL	NOLINK	0	idtext0051	euh	#####	spk2	133.96	134.08	0.31	//
20091112_RATP_SCD_0720	36	19	euh	DISF_M	pres	NULL	NULL	NOLINK	0	idtext0052	euh	#####	spk2	134.39	134.7	0.01	_
20091112_RATP_SCD_0720	36	20	un	NULL	det	NULL	B_GN	DET	22	idtext0052	un	##m#s##i	spk2	134.71	134.79	0.01	_
20091112_RATP_SCD_0720	36	21	petit	NULL	adj	NULL	I_GN	MOD	22	idtext0052	petit	##m#s##	spk2	134.8	134.95	0.01	_
20091112_RATP_SCD_0720	36	22	quart	NULL	nc	NULL	I_GN	ROOT	0	idtext0052	quart	##m#s##	spk2	134.96	135.13	0.01	_
20091112_RATP_SCD_0720	36	23	d'	NULL	prep	NULL	B_GP	DEP	22	idtext0052	d'	#####	spk2	135.14	135.2	0.01	_
20091112_RATP_SCD_0720	36	24	heure	NULL	nc	NULL	I_GP	OBJ	23	idtext0052	heure	##f#s##	spk2	135.21	135.29	0.01	_
20091112_RATP_SCD_0720	36	25	à	NULL	prep	NULL	B_GP	MOD	24	idtext0052	à	#####	spk2	135.3	135.33	0.01	_
20091112_RATP_SCD_0720	36	26	marcher	NULL	vinf	NULL	I_GP	OBJ	25	idtext0052	marcher	W#####	spk2	135.34	136.05	?	_

20091112_RATP_SCD_0720	37	1	oui	NULL	adv	NULL	B_GADV	NOLINK	0	idtext0053	oui	#####	spk3	136.23	136.33	0.01	_
20091112_RATP_SCD_0720	37	2	mais	NULL	coo	NULL	B_NULL	ROOT	0	idtext0053	mais	#####	spk3	136.34	136.43	0.01	_
20091112_RATP_SCD_0720	37	3	il	NULL	cln	NULL	B_GN	SUJ	4	idtext0053	cln	#3#m#s##	spk3	136.44	136.55	0.01	_
20091112_RATP_SCD_0720	37	4	doit	NULL	v	NULL	B_GVf	DEP_COORD	2	idtext0053	devoir	P#3##s##	spk3	136.56	136.81	0.01	_
20091112_RATP_SCD_0720	37	5	y	NULL	clo	NULL	B_GN	AFF	6	idtext0053	y	#####	spk3	136.82	136.84	0.01	_
20091112_RATP_SCD_0720	37	6	avoir	NULL	vinf	NULL	B_GVi	OBJ	4	idtext0053	avoir	W#####	spk3	136.85	137.05	0.01	_
20091112_RATP_SCD_0720	37	7	un	NULL	det	NULL	B_GN	DET	8	idtext0053	un	##m#s##i	spk3	137.06	137.19	0.01	_
20091112_RATP_SCD_0720	37	8	bus	NULL	nc	NULL	I_GN	OBJ	6	idtext0053	bus	##m###	spk3	137.2	138.17	?	//

20091112_RATP_SCD_0720	38	1	alors	NULL	adv	NULL	B_GADV	NOLINK	0	idtext0054	alors	#####	spk2	138.21	138.74	0.04	_
20091112_RATP_SCD_0720	38	2	si	NULL	csu	NULL	B_NULL	ROOT	0	idtext0055	si	#####	spk2	138.78	138.9	0.01	_
20091112_RATP_SCD_0720	38	3	pour	NULL	prep	NULL	B_NULL	NOLINK	0	idtext0055	pour	#####	spk2	138.91	139.23	0.01	_
20091112_RATP_SCD_0720	38	4	le	NULL	det	NULL	B_NULL	NOLINK	0	idtext0055	le	##m#s##d	spk2	139.24	139.44	0.01	_
20091112_RATP_SCD_0720	38	5	j'	NULL	cln	NULL	B_GN	SUJ	6	idtext0055	cln	#1##s##	spk2	139.45	139.62	0.01	_
20091112_RATP_SCD_0720	38	6	ai	NULL	v	NULL	B_GVf	OBJ	2	idtext0055	avoir	P#1##s##	spk2	139.63	139.7	0.01	_
20091112_RATP_SCD_0720	38	7	bien	NULL	adv	NULL	B_GADV	MOD	6	idtext0055	bien	#####	spk2	139.71	139.97	0.01	_
20091112_RATP_SCD_0720	38	8	un	NULL	det	NULL	B_GN	DET	9	idtext0055	un	##m#s##i	spk2	139.98	140.03	0.01	_
20091112_RATP_SCD_0720	38	9	bus	NULL	nc	NULL	I_GN	OBJ	6	idtext0055	bus	##m###	spk2	140.04	140.26	0.01	_
20091112_RATP_SCD_0720	38	10	si	NULL	csu	NULL	B_NULL	MOD	9	idtext0055	si	#####	spk2	140.27	140.38	0.01	_
20091112_RATP_SCD_0720	38	11	vous	NULL	cln	NULL	B_GN	SUJ	12	idtext0055	cln	#2##p##	spk2	140.39	140.52	0.01	_
20091112_RATP_SCD_0720	38	12	allez	NULL	v	NULL	B_GVf	OBJ	10	idtext0055	aller	P#2##p##	spk2	140.53	140.66	0.01	_
20091112_RATP_SCD_0720	38	13	à	NULL	prep	NULL	B_GP	P_OBJ_LOC	12	idtext0055	à	#####	spk2	140.67	140.71	0.01	_
20091112_RATP_SCD_0720	38	14	Fort+d'Aubervilliers	NULL	nc	B_A	I_GP	OBJ	13	idtext0055	Fort+d'Aubervilliers	#####	spk2	140.72	142.14	0.05	//
20091112_RATP_SCD_0720	38	15	j'	NULL	cln	NULL	B_GN	SUJ	16	idtext0056	cln	#1##s##	spk2	142.19	142.24	0.01	_
20091112_RATP_SCD_0720	38	16	ai	NULL	v	NULL	B_GVf	ROOT	0	idtext0056	avoir	P#1##s##	spk2	142.25	142.31	0.01	_
20091112_RATP_SCD_0720	38	17	le	NULL	det	NULL	B_GN	DET	18	idtext0056	le	##m#s##d	spk2	142.32	142.45	0.01	_
20091112_RATP_SCD_0720	38	18	bus	NULL	nc	B_T	I_GN	OBJ	16	idtext0056	bus	##m###	spk2	142.46	142.79	0.01	_
20091112_RATP_SCD_0720	38	19	cent+cinquante-deux	NULL	adj	I_T	I_GN	MOD	18	idtext0056	cent+cinquante-deux	#####	spk2	142.8	143.69	0.01	_
20091112_RATP_SCD_0720	38	20	qui	NULL	prorel	NULL	B_NULL	SUJ	22	idtext0056	qui	#####	spk2	143.7	143.89	0.01	_
20091112_RATP_SCD_0720	38	21	vous	NULL	clo	NULL	B_GN	OBJ	22	idtext0056	cln	#2##p##	spk2	143.9	144.06	0.01	_
20091112_RATP_SCD_0720	38	22	amène	NULL	v	NULL	B_GVf	MOD_REL	18	idtext0056	amener	PS#13##s##	spk2	144.07	144.75	0.04	_
20091112_RATP_SCD_0720	38	23	alors	NULL	adv	NULL	B_GADV	NOLINK	0	idtext0057	alors	#####	spk2	144.79	145.16	0.01	_
20091112_RATP_SCD_0720	38	24	pas	NULL	advneg	NULL	B_NULL	NOLINK	0	idtext0057	pas	#####	spk2	145.17	145.28	0.01	_
20091112_RATP_SCD_0720	38	25	tout+à+fait	NULL	adv	NULL	B_GADV	NOLINK	0	idtext0057	tout+à+fait	#####	spk2	145.29	146.0	0.01	_
20091112_RATP_SCD_0720	38	26	à	NULL	prep	NULL	B_GP	ROOT	0	idtext0057	à	#####	spk2	146.01	146.1	0.01	_
20091112_RATP_SCD_0720	38	27	côté	NULL	nc	NULL	I_GP	OBJ	26	idtext0057	côté	##m#s##	spk2	146.11	146.88	0.11	//
20091112_RATP_SCD_0720	38	28	il	NULL	cln	NULL	B_GN	SUJ	30	idtext0058	cln	#3#m#s##	spk2	146.99	147.1	0.01	_
20091112_RATP_SCD_0720	38	29	vous	NULL	clo	NULL	B_GN	A_OBJ	30	idtext0058	cln	#2##p##	spk2	147.11	147.18	0.01	_
20091112_RATP_SCD_0720	38	30	laisse	NULL	v	NULL	B_GVf	ROOT	0	idtext0058	laisser	PS#13##s##	spk2	147.19	147.39	0.01	_
20091112_RATP_SCD_0720	38	31	à+moins+de	NULL	prep	NULL	B_GP	MOD	30	idtext0058	à+moins+de	#####	spk2	147.4	147.68	0.01	_
20091112_RATP_SCD_0720	38	32	cinq	NULL	det	NULL	I_GP	DET	33	idtext0058	cinq	#####	spk2	147.69	147.78	0.01	_
20091112_RATP_SCD_0720	38	33	minutes	NULL	nc	NULL	I_GP	OBJ	31	idtext0058	minute	##f#p##	spk2	147.79	148.0	0.01	_
20091112_RATP_SCD_0720	38	34	c'	NULL	cln	NULL	B_GN	SUJ_IMP	35	idtext0058	ce	###s##	spk2	148.01	148.12	0.01	_
20091112_RATP_SCD_0720	38	35	est	NULL	v	NULL	B_GVf	ROOT	0	idtext0058	être	P#3##s##	spk2	148.13	148.21	0.01	_
20091112_RATP_SCD_0720	38	36	ça	DISF_R	pro	NULL	NULL	NOLINK	0	idtext0058	ça	#####	spk2	148.22	148.43	0.01	_
20091112_RATP_SCD_0720	38	37	ça	NULL	pro	NULL	B_GN	ATS	35	idtext0058	ça	#####	spk2	148.44	149.01	0.04	_
20091112_RATP_SCD_0720	38	38	disons	NULL	v	NULL	B_GVf	NOLINK	0	idtext0059	dire	P#1##p##	spk2	149.05	149.23	?	_

20091112_RATP_SCD_0720	39	1	c'	NULL	cln	NULL	B_GN	SUJ_IMP	2	idtext0060	ce	###s##	spk2	149.87	149.89	0.01	_
20091112_RATP_SCD_0720	39	2	est	NULL	v	NULL	B_GVf	ROOT	0	idtext0060	être	P#3##s##	spk2	149.9	149.96	0.01	_
20091112_RATP_SCD_0720	39	3	juste	NULL	adv	NULL	B_GADJ	MOD	4	idtext0060	juste	###s##	spk2	149.97	150.2	0.01	_
20091112_RATP_SCD_0720	39	4	proche	NULL	adj	NULL	I_GADJ	ATS	2	idtext0060	proche	###s##	spk2	150.21	150.49	0.01	_
20091112_RATP_SCD_0720	39	5	on	GREF	cln	NULL	B_GN	SUJ_IMP	6	idtext0060	cln	#3##s##	spk2	150.5	150.52	0.01	_
20091112_RATP_SCD_0720	39	6	va	GREF	v	NULL	B_GVf	ROOT	0	idtext0060	aller	P#3##s##	spk2	150.53	150.59	0.01	_
20091112_RATP_SCD_0720	39	7	dire	GREF	vinf	NULL	I_GVf	OBJ	6	idtext0060	dire	W#####	spk2	150.6	150.68	0.01	_
20091112_RATP_SCD_0720	39	8	hein	DISF_M	pres	NULL	NULL	NOLINK	0	idtext0060	hein	#####	spk2	150.69	150.81	?	//

20091112_RATP_SCD_0720	40	1	et	NULL	coo	NULL	B_NULL	ROOT	0	idtext0061	et	#####	spk3	150.85	150.95	0.01	_
20091112_RATP_SCD_0720	40	2	Quatre+Chemins	NULL	nc	B_A	B_GN	DEP_COORD	1	idtext0061	Quatre+Chemins	#####	spk3	150.96	152.14	?	_

20091112_RATP_SCD_0720	41	1	alors	DISF_R	adv	NULL	NULL	NOLINK	0	idtext0062	alors	#####	spk2	152.18	152.37	0.01	_
20091112_RATP_SCD_0720	41	2	là	DISF_R	adv	NULL	NULL	NOLINK	0	idtext0062	là	#####	spk2	152.38	152.65	0.01	_
20091112_RATP_SCD_0720	41	3	vous	DISF_R	cln	NULL	NULL	NOLINK	0	idtext0062	cln	#2##p##	spk2	152.66	152.84	0.01	_
20091112_RATP_SCD_0720	41	4	allez	DISF_R	v	NULL	NULL	NOLINK	0	idtext0062	aller	P#2##p##	spk2	152.85	153.12	0.01	_
20091112_RATP_SCD_0720	41	5	alors	NULL	adv	NULL	B_GADV	NOLINK	0	idtext0062	alors	#####	spk2	153.13	153.43	0.01	_
20091112_RATP_SCD_0720	41	6	vous	NULL	cln	NULL	B_GN	SUJ	7	idtext0062	cln	#2##p##	spk2	153.44	153.51	0.01	_
20091112_RATP_SCD_0720	41	7	allez	NULL	v	NULL	B_GVf	ROOT	0	idtext0062	aller	P#2##p##	spk2	153.52	153.68	0.01	_
20091112_RATP_SCD_0720	41	8	jusqu'à	NULL	prep	NULL	B_GP	P_OBJ_LOC	7	idtext0062	jusqu'à	#####	spk2	153.69	154.01	0.01	_
20091112_RATP_SCD_0720	41	9	Fort+d'Aubervilliers	NULL	nc	B_A	I_GP	OBJ	8	idtext0062	Fort+d'Aubervilliers	#####	spk2	154.02	154.82	0.01	_
20091112_RATP_SCD_0720	41	10	dans+ces+cas-là	NULL	adv	NULL	B_GADV	NOLINK	0	idtext0062	dans+ces+cas-là	#####	spk2	154.83	155.98	?	//

20091112_RATP_SCD_0720	42	1	oui	NULL	adv	NULL	B_GADV	NOLINK	0	idtext0063	oui	#####	spk3	156.02	156.49	?	//

20091112_RATP_SCD_0720	43	1	hein	DISF_M	pres	NULL	NULL	NOLINK	0	idtext0064	hein	#####	spk2	156.53	156.84	0.01	_
20091112_RATP_SCD_0720	43	2	et	NULL	coo	NULL	B_NULL	ROOT	0	idtext0064	et	#####	spk2	156.85	156.93	0.01	_
20091112_RATP_SCD_0720	43	3	là	NULL	adv	NULL	B_GADV	NOLINK	0	idtext0064	là	#####	spk2	156.94	157.06	0.01	_
20091112_RATP_SCD_0720	43	4	vous	NULL	cln	NULL	B_GN	SUJ	5	idtext0064	cln	#2##p##	spk2	157.07	157.17	0.01	_
20091112_RATP_SCD_0720	43	5	prenez	NULL	v	NULL	B_GVf	DEP_COORD	2	idtext0064	prendre	P#2##p##	spk2	157.18	157.47	0.01	_
20091112_RATP_SCD_0720	43	6	le	NULL	det	NULL	B_GN	DET	7	idtext0064	le	##m#s##d	spk2	157.48	157.59	0.01	_
20091112_RATP_SCD_0720	43	7	bus	NULL	nc	B_T	I_GN	OBJ	5	idtext0064	bus	##m###	spk2	157.6	157.87	0.01	_
20091112_RATP_SCD_0720	43	8	cent	NULL	adj	I_T	I_GN	MOD	7	idtext0064	cent	#####	spk2	157.88	158.09	0.01	_
20091112_RATP_SCD_0720	43	9	cinquante-deux	NULL	adj	I_T	I_GN	MOD	8	idtext0064	cinquante-deux	#####	spk2	158.1	159.61	?	//

20091112_RATP_SCD_0720	44	1	oui	NULL	adv	NULL	B_GADV	NOLINK	0	idtext0065	oui	#####	spk3	159.65	160.15	?	//

20091112_RATP_SCD_0720	45	1	en	NULL	prep	NULL	B_GP	ROOT	0	idtext0066	en	#####	spk2	160.19	160.25	0.01	_
20091112_RATP_SCD_0720	45	2	direction	NULL	nc	NULL	I_GP	OBJ	1	idtext0066	direction	##f#s##	spk2	160.26	160.63	0.01	_
20091112_RATP_SCD_0720	45	3	de	NULL	prep	NULL	B_GP	DEP	2	idtext0066	de	#####	spk2	160.64	160.68	0.01	_
20091112_RATP_SCD_0720	45	4	Porte+de+la+Villette	NULL	nc	B_A	I_GP	OBJ	3	idtext0066	Porte+de+la+Villette	#####	spk2	160.69	161.61	0.06	_
20091112_RATP_SCD_0720	45	5	et	NULL	coo	NULL	B_NULL	ROOT	0	idtext0067	et	#####	spk2	161.67	161.69	0.01	_
20091112_RATP_SCD_0720	45	6	vous	NULL	cln	NULL	B_GN	SUJ	7	idtext0067	cln	#2##p##	spk2	161.7	161.82	0.01	_
20091112_RATP_SCD_0720	45	7	descendez	NULL	v	NULL	B_GVf	DEP_COORD	5	idtext0067	descendre	P#2##p##	spk2	161.83	162.46	0.01	_
20091112_RATP_SCD_0720	45	8	à	NULL	prep	NULL	B_GP	P_OBJ_LOC	7	idtext0067	à	#####	spk2	162.47	162.6	0.01	_
20091112_RATP_SCD_0720	45	9	l'	NULL	det	NULL	I_GP	DET	10	idtext0067	le	###s##d	spk2	162.61	162.65	0.01	_
20091112_RATP_SCD_0720	45	10	arrêt	NULL	nc	NULL	I_GP	OBJ	8	idtext0067	arrêt	##m#s##	spk2	162.66	163.54	?	//

20091112_RATP_SCD_0720	46	1	hm	DISF_M	pres	NULL	NULL	NOLINK	0	idtext0068	hm	#####	spk3	164.02	164.84	?	//

20091112_RATP_SCD_0720	47	1	Réchossière	NULL	nc	B_A	B_GN	NOLINK	0	idtext0069	Réchossière	#####	spk2	163.58	164.84	?	_

20091112_RATP_SCD_0720	48	1	Réchossière	NULL	nc	B_A	B_GN	NOLINK	0	idtext0070	Réchossière	#####	spk3	165.34	166.34	?	_

20091112_RATP_SCD_0720	49	1	oui	NULL	adv	NULL	B_GADV	NOLINK	0	idtext0071	oui	#####	spk2	166.38	166.52	?	//

20091112_RATP_SCD_0720	50	1	oui	NULL	adv	NULL	B_GADV	NOLINK	0	idtext0072	oui	#####	spk3	168.04	168.48	?	//

20091112_RATP_SCD_0720	51	1	oui	NULL	adv	NULL	B_GADV	NOLINK	0	idtext0073	oui	#####	spk3	170.53	171.33	?	//

20091112_RATP_SCD_0720	52	1	et	NULL	coo	NULL	B_NULL	ROOT	0	idtext0074	et	#####	spk2	171.38	171.45	0.01	_
20091112_RATP_SCD_0720	52	2	là	NULL	adv	NULL	B_GADV	NOLINK	0	idtext0074	là	#####	spk2	171.46	171.56	0.01	_
20091112_RATP_SCD_0720	52	3	vous	NULL	cln	NULL	B_GN	SUJ	4	idtext0074	cln	#2##p##	spk2	171.57	171.7	0.01	_
20091112_RATP_SCD_0720	52	4	êtes	NULL	v	NULL	B_GVf	DEP_COORD	1	idtext0074	être	P#2##p##	spk2	171.71	171.89	0.01	_
20091112_RATP_SCD_0720	52	5	euh	DISF_M	pres	NULL	NULL	NOLINK	0	idtext0074	euh	#####	spk2	171.9	172.25	0.01	_
20091112_RATP_SCD_0720	52	6	moins+de	NULL	prep	NULL	B_GP	ATS	4	idtext0074	moins+de	#####	spk2	172.26	172.49	0.01	_
20091112_RATP_SCD_0720	52	7	cinq	NULL	det	NULL	I_GP	DET	8	idtext0074	cinq	#####	spk2	172.5	172.64	0.01	_
20091112_RATP_SCD_0720	52	8	minutes	NULL	nc	NULL	I_GP	OBJ	6	idtext0074	minute	##f#p##	spk2	172.65	173.27	?	//

20091112_RATP_SCD_0720	53	1	d'accord	NULL	adv	NULL	B_GADV	NOLINK	0	idtext0075	d'accord	#####	spk3	173.33	173.95	?	//

20091112_RATP_SCD_0720	54	1	hm	DISF_M	pres	NULL	NULL	NOLINK	0	idtext0076	hm	#####	spk2	174.14	174.24	?	//

20091112_RATP_SCD_0720	55	1	et	NULL	coo	NULL	B_NULL	ROOT	0	idtext0077	et	#####	spk3	174.28	174.39	0.01	_
20091112_RATP_SCD_0720	55	2	si	NULL	csu	NULL	B_NULL	DEP_COORD	1	idtext0077	si	#####	spk3	174.4	174.6	0.01	_
20091112_RATP_SCD_0720	55	3	je	NULL	cln	NULL	B_GN	SUJ	4	idtext0077	cln	#1##s##	spk3	174.61	174.73	0.01	_
20091112_RATP_SCD_0720	55	4	prends	NULL	v	NULL	B_GVf	OBJ	2	idtext0077	prendre	P#12##s##	spk3	174.74	175.0	0.01	_
20091112_RATP_SCD_0720	55	5	par+exemple	NULL	adv	NULL	B_GADV	MOD	4	idtext0077	par+exemple	#####	spk3	175.01	175.63	0.01	_
20091112_RATP_SCD_0720	55	6	un	NULL	det	NULL	B_GN	DET	7	idtext0077	un	##m#s##i	spk3	175.64	175.77	0.01	_
20091112_RATP_SCD_0720	55	7	taxi	NULL	nc	NULL	I_GN	OBJ	4	idtext0077	taxi	##m#s##	spk3	175.78	176.53	0.31	//
20091112_RATP_SCD_0720	55	8	euh	DISF_M	pres	NULL	NULL	NOLINK	0	idtext0078	euh	#####	spk3	176.84	176.86	0.01	_
20091112_RATP_SCD_0720	55	9	de	NULL	prep	NULL	B_GP	ROOT	0	idtext0078	de	#####	spk3	176.87	177.79	0.01	_
20091112_RATP_SCD_0720	55	10	La+Courneuve	NULL	nc	B_A	I_GP	OBJ	9	idtext0078	La+Courneuve	#####	spk3	177.8	178.72	0.01	_
20091112_RATP_SCD_0720	55	11	Quatre+Chemins	NULL	nc	B_A	I_GP	MOD	10	idtext0078	Quatre+Chemins	#####	spk3	178.73	179.98	0.04	_
20091112_RATP_SCD_0720	55	12	est-ce+que	NULL	pri	NULL	B_NULL	NOLINK	0	idtext0079	est-ce+que	#####	spk3	180.02	180.28	0.01	_
20091112_RATP_SCD_0720	55	13	c'	NULL	cln	NULL	B_GN	SUJ_IMP	14	idtext0079	ce	###s##	spk3	180.29	180.38	0.01	_
20091112_RATP_SCD_0720	55	14	est	NULL	v	NULL	B_GVf	ROOT	0	idtext0079	être	P#3##s##	spk3	180.39	180.46	0.01	_
20091112_RATP_SCD_0720	55	15	très	NULL	adv	NULL	B_GADV	ATS	14	idtext0079	très	#####	spk3	180.47	180.69	?	_

20091112_RATP_SCD_0720	56	1	non	NULL	adv	NULL	B_GADV	NOLINK	0	idtext0080	non	#####	spk2	180.73	181.12	?	_

20091112_RATP_SCD_0720	57	1	loin	NULL	adv	NULL	B_GADV	NOLINK	0	idtext0081	loin	#####	spk3	180.73	181.12	?	//

20091112_RATP_SCD_0720	58	1	non	DISF_R	adv	NULL	NULL	NOLINK	0	idtext0082	non	#####	spk2	181.17	181.43	0.01	_
20091112_RATP_SCD_0720	58	2	non	DISF_R	adv	NULL	NULL	NOLINK	0	idtext0082	non	#####	spk2	181.44	181.57	0.01	_
20091112_RATP_SCD_0720	58	3	non	DISF_R	adv	NULL	NULL	NOLINK	0	idtext0082	non	#####	spk2	181.58	181.7	0.01	_
20091112_RATP_SCD_0720	58	4	non	NULL	adv	NULL	B_GADV	NOLINK	0	idtext0082	non	#####	spk2	181.71	182.23	0.04	_
20091112_RATP_SCD_0720	58	5	non	NULL	adv	NULL	B_GADV	NOLINK	0	idtext0083	non	#####	spk2	182.27	182.81	?	_

20091112_RATP_SCD_0720	59	1	c'	NULL	cln	NULL	B_GN	SUJ_IMP	2	idtext0084	ce	###s##	spk3	182.85	182.92	0.01	_
20091112_RATP_SCD_0720	59	2	est	NULL	v	NULL	B_GVf	ROOT	0	idtext0084	être	P#3##s##	spk3	182.93	182.99	0.01	_
20091112_RATP_SCD_0720	59	3	faisable	NULL	adj	NULL	B_GADJ	ATS	2	idtext0084	faisable	###s##	spk3	183.0	183.65	?	//

20091112_RATP_SCD_0720	60	1	oui	NULL	adv	NULL	B_GADV	NOLINK	0	idtext0085	oui	#####	spk2	183.69	184.05	0.01	_
20091112_RATP_SCD_0720	60	2	mais	NULL	coo	NULL	B_NULL	ROOT	0	idtext0085	mais	#####	spk2	184.06	184.18	0.01	_
20091112_RATP_SCD_0720	60	3	c'	NULL	cln	NULL	B_GN	SUJ_IMP	4	idtext0085	ce	###s##	spk2	184.19	184.26	0.01	_
20091112_RATP_SCD_0720	60	4	est	NULL	v	NULL	B_GVfn	DEP_COORD	2	idtext0085	être	P#3##s##	spk2	184.27	184.32	0.01	_
20091112_RATP_SCD_0720	60	5	pas	NULL	advneg	NULL	I_GVfn	MOD	4	idtext0085	pas	#####	spk2	184.33	184.76	0.04	_
20091112_RATP_SCD_0720	60	6	euh	DISF_M	pres	NULL	NULL	NOLINK	0	idtext0086	euh	#####	spk2	184.8	184.89	0.01	_
20091112_RATP_SCD_0720	60	7	vous	NULL	cln	NULL	B_GN	SUJ	8	idtext0086	cln	#2##p##	spk2	184.9	185.11	0.01	_
20091112_RATP_SCD_0720	60	8	avez	NULL	v	NULL	B_GVf	ROOT	0	idtext0086	avoir	P#2##p##	spk2	185.12	185.27	0.01	_
20091112_RATP_SCD_0720	60	9	aucun	NULL	det	NULL	B_GN	DET	10	idtext0086	aucun	##m#s##i	spk2	185.28	185.55	0.01	_
20091112_RATP_SCD_0720	60	10	intérêt	NULL	nc	NULL	I_GN	OBJ	8	idtext0086	intérêt	##m#s##	spk2	185.56	185.82	0.01	_
20091112_RATP_SCD_0720	60	11	à	NULL	prep	NULL	B_GP	P_OBJ	10	idtext0086	à	#####	spk2	185.83	185.86	0.01	_
20091112_RATP_SCD_0720	60	12	le	NULL	clo	NULL	I_GP	OBJ	13	idtext0086	cla	#3#m#s##	spk2	185.87	185.91	0.01	_
20091112_RATP_SCD_0720	60	13	faire	NULL	vinf	NULL	B_GVi	OBJ	11	idtext0086	faire	W#####	spk2	185.92	186.41	?	//

20091112_RATP_SCD_0720	61	1	OK	NULL	adv	NULL	B_GADV	NOLINK	0	idtext0087	ok	#####	spk3	186.54	187.06	?	_

20091112_RATP_SCD_0720	62	1	non	DISF_R	adv	NULL	NULL	NOLINK	0	idtext0088	non	#####	spk2	187.1	187.19	0.01	_
20091112_RATP_SCD_0720	62	2	non	DISF_R	adv	NULL	NULL	NOLINK	0	idtext0088	non	#####	spk2	187.2	187.39	0.01	_
20091112_RATP_SCD_0720	62	3	non	NULL	adv	NULL	B_GADV	NOLINK	0	idtext0088	non	#####	spk2	187.4	187.59	0.04	_
20091112_RATP_SCD_0720	62	4	ouais	NULL	adv	NULL	B_GADV	NOLINK	0	idtext0089	ouais	#####	spk2	187.63	187.7	0.01	_
20091112_RATP_SCD_0720	62	5	parce+que	NULL	csu	NULL	B_NULL	NOLINK	0	idtext0089	parce+que	#####	spk2	187.71	187.93	0.01	_
20091112_RATP_SCD_0720	62	6	ça	NULL	pro	NULL	B_GN	NOLINK	0	idtext0089	ça	#####	spk2	187.94	188.24	0.05	_
20091112_RATP_SCD_0720	62	7	c'	NULL	cln	NULL	B_GN	SUJ_IMP	8	idtext0090	ce	###s##	spk2	188.29	188.32	0.01	_
20091112_RATP_SCD_0720	62	8	est	NULL	v	NULL	B_GVf	ROOT	0	idtext0090	être	P#3##s##	spk2	188.33	188.38	0.01	_
20091112_RATP_SCD_0720	62	9	juste	DISF_R	adv	NULL	NULL	NOLINK	0	idtext0090	juste	###s##	spk2	188.39	188.69	0.01	_
20091112_RATP_SCD_0720	62	10	juste	NULL	adv	NULL	B_GADV	MOD	11	idtext0090	juste	###s##	spk2	188.7	188.91	0.01	_
20091112_RATP_SCD_0720	62	11	à	NULL	prep	NULL	B_GP	ATS	8	idtext0090	à	#####	spk2	188.92	188.98	0.01	_
20091112_RATP_SCD_0720	62	12	côté	NULL	nc	NULL	I_GP	OBJ	11	idtext0090	côté	##m#s##	spk2	188.99	189.37	0.01	_
20091112_RATP_SCD_0720	62	13	hein	DISF_M	pres	NULL	NULL	NOLINK	0	idtext0090	hein	#####	spk2	189.38	189.48	0.01	_
20091112_RATP_SCD_0720	62	14	c'	NULL	cln	NULL	B_GN	SUJ_IMP	15	idtext0090	ce	###s##	spk2	189.49	189.58	0.01	_
20091112_RATP_SCD_0720	62	15	est	NULL	v	NULL	B_GVf	ROOT	0	idtext0090	être	P#3##s##	spk2	189.59	189.78	0.10	_
20091112_RATP_SCD_0720	62	16	à	NULL	prep	NULL	B_GP	P_OBJ_LOC	19	idtext0091	à	#####	spk2	189.88	190.0	0.01	_
20091112_RATP_SCD_0720	62	17	Aubervilliers	NULL	nc	B_A	I_GP	OBJ	16	idtext0091	Aubervilliers	##m#s##	spk2	190.01	190.58	0.01	_
20091112_RATP_SCD_0720	62	18	vous	NULL	cln	NULL	B_GN	SUJ	19	idtext0091	cln	#2##p##	spk2	190.59	190.72	0.01	_
20091112_RATP_SCD_0720	62	19	avez	NULL	v	NULL	B_GVf	ROOT	0	idtext0091	avoir	P#2##p##	spk2	190.73	190.88	0.01	_
20091112_RATP_SCD_0720	62	20	maximum	NULL	adj	NULL	B_GN	MOD	23	idtext0091	maximum	#####	spk2	190.89	191.56	0.01	_
20091112_RATP_SCD_0720	62	21	hein	DISF_M	pres	NULL	NULL	NOLINK	0	idtext0091	hein	#####	spk2	191.57	191.66	0.01	_
20091112_RATP_SCD_0720	62	22	quinze	NULL	det	NULL	I_GN	DET	23	idtext0091	quinze	#####	spk2	191.67	191.99	0.01	_
20091112_RATP_SCD_0720	62	23	minutes	NULL	nc	NULL	I_GN	ROOT	0	idtext0091	minute	##f#p##	spk2	192.0	192.68	0.04	_
20091112_RATP_SCD_0720	62	24	si	NULL	csu	NULL	B_NULL	MOD	30	idtext0092	si	#####	spk2	192.72	192.77	0.01	_
20091112_RATP_SCD_0720	62	25	vous	NULL	cln	NULL	B_GN	SUJ	26	idtext0092	cln	#2##p##	spk2	192.78	192.86	0.01	_
20091112_RATP_SCD_0720	62	26	descendez	NULL	v	NULL	B_GVf	OBJ	24	idtext0092	descendre	P#2##p##	spk2	192.87	193.22	0.01	_
20091112_RATP_SCD_0720	62	27	à	NULL	prep	NULL	B_GP	P_OBJ_LOC	26	idtext0092	à	#####	spk2	193.23	193.25	0.01	_
20091112_RATP_SCD_0720	62	28	Aubervilliers-Quatre+Chemins	NULL	nc	B_A	I_GP	OBJ	27	idtext0092	Aubervilliers-Quatre+Chemins	#####	spk2	193.26	194.43	0.01	_
20091112_RATP_SCD_0720	62	29	vous	NULL	cln	NULL	B_GN	SUJ	30	idtext0092	cln	#2##p##	spk2	194.44	194.56	0.01	_
20091112_RATP_SCD_0720	62	30	avez	NULL	v	NULL	B_GVf	ROOT	0	idtext0092	avoir	P#2##p##	spk2	194.57	195.22	0.04	_
20091112_RATP_SCD_0720	62	31	maximum	NULL	nc	NULL	B_GN	ROOT	0	idtext0093	maximum	##m#s##	spk2	195.26	195.78	0.01	_
20091112_RATP_SCD_0720	62	32	quinze	NULL	adj	NULL	I_GN	MOD	31	idtext0093	quinze	#####	spk2	195.79	196.01	0.01	//
20091112_RATP_SCD_0720	62	33	minutes	NULL	nc	NULL	B_GN	ROOT	0	idtext0093	minute	##f#p##	spk2	196.02	196.27	0.01	_
20091112_RATP_SCD_0720	62	34	à	NULL	prep	NULL	B_GP	MOD	33	idtext0093	à	#####	spk2	196.28	196.32	0.01	_
20091112_RATP_SCD_0720	62	35	pied	NULL	nc	NULL	I_GP	OBJ	34	idtext0093	pied	###s##	spk2	196.33	196.54	?	//

20091112_RATP_SCD_0720	63	1	OK	NULL	adv	NULL	B_GADV	NOLINK	0	idtext0094	ok	#####	spk3	196.7	197.3	?	_

20091112_RATP_SCD_0720	64	1	hm	DISF_M	pres	NULL	NULL	NOLINK	0	idtext0095	hm	#####	spk2	197.44	197.87	?	//

20091112_RATP_SCD_0720	65	1	entendu	NULL	vppart	NULL	B_GVf	NOLINK	0	idtext0096	entendre	K##m#s##	spk3	197.92	198.49	?	//

20091112_RATP_SCD_0720	66	1	mais	NULL	coo	NULL	B_NULL	ROOT	0	idtext0097	mais	#####	spk2	198.54	198.62	0.01	_
20091112_RATP_SCD_0720	66	2	je	NULL	cln	NULL	B_GN	SUJ	5	idtext0097	cln	#1##s##	spk2	198.63	198.7	0.01	_
20091112_RATP_SCD_0720	66	3	vous	NULL	clo	NULL	B_GN	OBJ	5	idtext0097	cln	#2##p##	spk2	198.71	198.85	0.01	_
20091112_RATP_SCD_0720	66	4	en	NULL	clo	NULL	B_GN	DE_OBJ	5	idtext0097	en	#####	spk2	198.86	198.92	0.01	_
20091112_RATP_SCD_0720	66	5	prie	NULL	v	NULL	B_GVf	DEP_COORD	1	idtext0097	prier	PS#13##s##	spk2	198.93	199.16	?	//

20091112_RATP_SCD_0720	67	1	merci	NULL	adv	NULL	B_GADV	MOD	2	idtext0098	merci	#####	spk3	199.4	199.73	0.01	_
20091112_RATP_SCD_0720	67	2	beaucoup	NULL	adv	NULL	I_GADV	ROOT	0	idtext0098	beaucoup	#####	spk3	199.74	200.08	?	//

20091112_RATP_SCD_0720	68	1	monsieur	NULL	nc	NULL	B_GN	NOLINK	0	idtext0099	Monsieur	##m#s##	spk3	200.12	200.36	?	//

20091112_RATP_SCD_0720	69	1	bonne	NULL	adj	NULL	B_GN	MOD	2	idtext0100	bon	##f#s##	spk2	200.12	200.24	0.01	_
20091112_RATP_SCD_0720	69	2	fin	NULL	nc	NULL	I_GN	ROOT	0	idtext0100	fin	###s##	spk2	200.25	200.36	?	//

20091112_RATP_SCD_0720	70	1	de	NULL	prep	NULL	B_GP	ROOT	0	idtext0101	de	#####	spk2	200.4	200.42	0.01	_
20091112_RATP_SCD_0720	70	2	journée	NULL	nc	NULL	I_GP	OBJ	1	idtext0101	journée	##f#s##	spk2	200.43	200.73	0.01	_
20091112_RATP_SCD_0720	70	3	au+revoir	NULL	adv	NULL	B_GADV	NOLINK	0	idtext0101	au+revoir	#####	spk2	200.74	201.09	?	//

20091112_RATP_SCD_0720	71	1	au+revoir	NULL	adv	NULL	B_GADV	NOLINK	0	idtext0102	au+revoir	#####	spk3	201.13	201.5	?	//

