20091112_RATP_SCD_0575	1	1	NNAAMMEE	NULL	np	B_HU	B_GN	ROOT	0	idtext0000	ANONYM	NULL	spk1	3.39	3.61	0.04	_
20091112_RATP_SCD_0575	1	2	va	NULL	v	NULL	B_GVf	ROOT	0	idtext0001	aller	P#3##s##	spk1	3.65	3.71	0.01	_
20091112_RATP_SCD_0575	1	3	vous	NULL	clo	NULL	B_GN	A_OBJ	4	idtext0001	cln	#2##p##	spk1	3.72	3.85	0.01	_
20091112_RATP_SCD_0575	1	4	répondre	NULL	vinf	NULL	B_GVi	OBJ	2	idtext0001	répondre	W#####	spk1	3.86	4.58	?	//

20091112_RATP_SCD_0575	2	1	NNAAMMEE	NULL	np	B_HU	B_GN	ROOT	0	idtext0002	ANONYM	NULL	spk2	6.39	6.58	0.04	_
20091112_RATP_SCD_0575	2	2	bonjour	NULL	adv	NULL	B_GADV	NOLINK	0	idtext0003	bonjour	#####	spk2	6.62	7.29	?	//

20091112_RATP_SCD_0575	3	1	bonjour	NULL	adv	NULL	B_GADV	NOLINK	0	idtext0004	bonjour	#####	spk3	7.8	7.98	0.01	_
20091112_RATP_SCD_0575	3	2	monsieur	NULL	nc	NULL	B_GN	NOLINK	0	idtext0004	Monsieur	##m#s##	spk3	7.99	8.4	0.04	_
20091112_RATP_SCD_0575	3	3	euh	DISF_M	pres	NULL	NULL	NOLINK	0	idtext0005	euh	#####	spk3	8.44	8.55	0.01	_
20091112_RATP_SCD_0575	3	4	je	NULL	cln	NULL	B_GN	SUJ	6	idtext0005	cln	#1##s##	spk3	8.56	8.78	0.01	_
20091112_RATP_SCD_0575	3	5	vous	NULL	clo	NULL	B_GN	OBJ	6	idtext0005	cln	#2##p##	spk3	8.79	8.85	0.01	_
20091112_RATP_SCD_0575	3	6	appelle	NULL	v	NULL	B_GVf	ROOT	0	idtext0005	appeler	PS#13##s##	spk3	8.86	9.01	0.01	_
20091112_RATP_SCD_0575	3	7	pour	NULL	prep	NULL	B_GP	P_OBJ	6	idtext0005	pour	#####	spk3	9.02	9.15	0.01	_
20091112_RATP_SCD_0575	3	8	un	NULL	det	NULL	I_GP	DET	9	idtext0005	un	##m#s##i	spk3	9.16	9.18	0.01	_
20091112_RATP_SCD_0575	3	9	renseignement	NULL	nc	NULL	I_GP	OBJ	7	idtext0005	renseignement	##m#s##	spk3	9.19	9.68	0.01	_
20091112_RATP_SCD_0575	3	10	s'il+vous+plaît	NULL	adv	NULL	B_GADV	MOD	6	idtext0005	s'il+vous+plaît	#####	spk3	9.69	10.2	?	//

20091112_RATP_SCD_0575	4	1	je	NULL	cln	NULL	B_GN	SUJ	3	idtext0006	cln	#1##s##	spk2	10.29	10.31	0.01	_
20091112_RATP_SCD_0575	4	2	vous	NULL	clo	NULL	B_GN	OBJ	3	idtext0006	cln	#2##p##	spk2	10.32	10.37	0.01	_
20091112_RATP_SCD_0575	4	3	écoute	NULL	v	NULL	B_GVf	ROOT	0	idtext0006	écouter	PS#13##s##	spk2	10.38	10.78	?	//

20091112_RATP_SCD_0575	5	1	j'	NULL	cln	NULL	B_GN	SUJ	3	idtext0007	cln	#1##s##	spk3	10.84	11.03	0.01	_
20091112_RATP_SCD_0575	5	2	ai	NULL	v	NULL	B_GVf	AUX	3	idtext0007	avoir	P#1##s##	spk3	11.04	11.09	0.01	_
20091112_RATP_SCD_0575	5	3	perdu	NULL	vppart	NULL	I_GVf	ROOT	0	idtext0007	perdre	K##m#s##	spk3	11.1	11.65	0.01	_
20091112_RATP_SCD_0575	5	4	mon	NULL	det	NULL	B_GN	DET	5	idtext0007	mon	###s##o	spk3	11.66	11.92	0.01	_
20091112_RATP_SCD_0575	5	5	portefeuille	NULL	nc	NULL	I_GN	OBJ	3	idtext0007	portefeuille	##m#s##	spk3	11.93	12.48	0.01	_
20091112_RATP_SCD_0575	5	6	sur	NULL	prep	NULL	B_GP	MOD	5	idtext0007	sur	#####	spk3	12.49	12.65	0.01	_
20091112_RATP_SCD_0575	5	7	la	NULL	det	NULL	I_GP	DET	8	idtext0007	le	##m#s##d	spk3	12.66	12.73	0.01	_
20091112_RATP_SCD_0575	5	8	ligne	NULL	nc	B_T	I_GP	OBJ	6	idtext0007	ligne	##f#s##	spk3	12.74	13.18	0.01	_
20091112_RATP_SCD_0575	5	9	quatre	NULL	adj	I_T	I_GP	MOD	8	idtext0007	quatre	#####	spk3	13.19	13.56	0.01	/
20091112_RATP_SCD_0575	5	10	ce	NULL	det	NULL	B_GN	DET	11	idtext0007	ce	##m#s##e	spk3	13.57	13.65	0.01	_
20091112_RATP_SCD_0575	5	11	matin	NULL	nc	NULL	I_GN	MOD	8	idtext0007	matin	##m#s##	spk3	13.66	13.92	0.01	_
20091112_RATP_SCD_0575	5	12	à	NULL	prep	NULL	B_GP	MOD	11	idtext0007	à	#####	spk3	13.93	13.96	0.01	_
20091112_RATP_SCD_0575	5	13	neuf	NULL	det	B_H	I_GP	DET	14	idtext0007	neuf	#####	spk3	13.97	14.11	0.01	_
20091112_RATP_SCD_0575	5	14	heures	NULL	nc	I_H	I_GP	OBJ	12	idtext0007	heure	##f#p##	spk3	14.12	14.42	0.08	_
20091112_RATP_SCD_0575	5	15	à	NULL	prep	NULL	B_GP	ROOT	0	idtext0008	à	#####	spk3	14.5	14.54	0.01	_
20091112_RATP_SCD_0575	5	16	la	NULL	det	NULL	I_GP	DET	17	idtext0008	le	##m#s##d	spk3	14.55	14.62	0.01	_
20091112_RATP_SCD_0575	5	17	station	NULL	nc	B_A	I_GP	OBJ	15	idtext0008	station	##f#s##	spk3	14.63	14.92	0.01	_
20091112_RATP_SCD_0575	5	18	Barbès	NULL	np	I_A	I_GP	MOD	17	idtext0008	Barbès	#####	spk3	14.93	15.31	?	//

20091112_RATP_SCD_0575	6	1	alors	NULL	adv	NULL	B_GADV	NOLINK	0	idtext0009	alors	#####	spk2	15.82	16.16	?	//

20091112_RATP_SCD_0575	7	1	donc	NULL	coo	NULL	B_NULL	ROOT	0	idtext0010	donc	#####	spk2	16.29	16.63	0.01	//
20091112_RATP_SCD_0575	7	2	un	NULL	det	NULL	B_GN	DET	3	idtext0010	un	##m#s##i	spk2	16.64	16.75	0.01	_
20091112_RATP_SCD_0575	7	3	portefeuille	NULL	nc	NULL	I_GN	DEP_COORD	1	idtext0010	portefeuille	##m#s##	spk2	16.76	17.49	?	//

20091112_RATP_SCD_0575	8	1	avec	NULL	prep	NULL	B_GP	P_OBJ	5	idtext0011	avec	#####	spk2	17.53	17.65	0.01	_
20091112_RATP_SCD_0575	8	2	des	NULL	det	NULL	I_GP	DET	3	idtext0011	des	###p##i	spk2	17.66	17.73	0.01	_
20091112_RATP_SCD_0575	8	3	papiers	NULL	nc	NULL	I_GP	OBJ	1	idtext0011	papier	##m#p##	spk2	17.74	18.04	0.01	/
20091112_RATP_SCD_0575	8	4	j'	NULL	cln	NULL	B_GN	SUJ	5	idtext0011	cln	#1##s##	spk2	18.05	18.11	0.01	_
20091112_RATP_SCD_0575	8	5	imagine	NULL	v	NULL	B_GVf	ROOT	0	idtext0011	imaginer	PS#13##s##	spk2	18.12	18.49	?	//

20091112_RATP_SCD_0575	9	1	oh	DISF_M	pres	NULL	NULL	NOLINK	0	idtext0012	oh	#####	spk3	18.53	18.57	0.01	_
20091112_RATP_SCD_0575	9	2	oui	NULL	adv	NULL	B_GADV	NOLINK	0	idtext0012	oui	#####	spk3	18.58	18.71	0.01	_
20091112_RATP_SCD_0575	9	3	avec	NULL	prep	NULL	B_NULL	ROOT	0	idtext0012	avec	#####	spk3	18.72	18.88	0.01	_
20091112_RATP_SCD_0575	9	4	tout	NULL	adv	NULL	B_GADJ	OBJ	3	idtext0012	tout	##m#s##	spk3	18.89	19.05	0.01	_
20091112_RATP_SCD_0575	9	5	même	NULL	adj	NULL	I_GADJ	NOLINK	0	idtext0012	même	###s##	spk3	19.06	19.29	0.01	_
20091112_RATP_SCD_0575	9	6	hein	DISF_M	pres	NULL	NULL	NOLINK	0	idtext0012	hein	#####	spk3	19.3	19.56	?	//

20091112_RATP_SCD_0575	10	1	avec	DISF_R	prep	NULL	NULL	NOLINK	0	idtext0013	avec	#####	spk2	19.99	20.3	0.01	_
20091112_RATP_SCD_0575	10	2	euh	DISF_M	pres	NULL	NULL	NOLINK	0	idtext0013	euh	#####	spk2	20.31	20.33	0.01	_
20091112_RATP_SCD_0575	10	3	à	NULL	prep	NULL	B_GP	ROOT	0	idtext0013	à	#####	spk2	20.34	20.38	0.01	_
20091112_RATP_SCD_0575	10	4	quel	NULL	det	NULL	I_GP	DET	5	idtext0013	quel	##m#s##	spk2	20.39	20.57	0.01	_
20091112_RATP_SCD_0575	10	5	nom	NULL	nc	NULL	I_GP	OBJ	3	idtext0013	nom	##m#s##	spk2	20.58	20.92	?	//

20091112_RATP_SCD_0575	11	1	à	NULL	prep	NULL	B_NULL	NOLINK	0	idtext0014	à	#####	spk3	20.96	20.98	0.01	_
20091112_RATP_SCD_0575	11	2	NNAAMMEE	NULL	np	B_HU	B_GN	ROOT	0	idtext0015	ANONYM	NULL	spk3	20.99	21.6	0.42	_
20091112_RATP_SCD_0575	11	3	NNAAMMEE	NULL	np	B_HU	B_GN	ROOT	0	idtext0016	ANONYM	NULL	spk3	22.02	22.22	0.04	_
20091112_RATP_SCD_0575	11	4	deux	NULL	adj	NULL	B_GN	MOD	5	idtext0017	deux	#####	spk3	22.26	22.5	0.01	_
20091112_RATP_SCD_0575	11	5	S	NULL	nc	NULL	I_GN	ROOT	0	idtext0017	S	#####	spk3	22.51	23.08	0.04	_
20091112_RATP_SCD_0575	11	6	je	NULL	cln	NULL	B_GN	SUJ	9	idtext0018	cln	#1##s##	spk3	23.12	23.21	0.01	_
20091112_RATP_SCD_0575	11	7	l'	NULL	clo	NULL	B_GN	OBJ	9	idtext0018	cla	#3##s##	spk3	23.22	23.24	0.01	_
20091112_RATP_SCD_0575	11	8	ai	NULL	v	NULL	B_GVf	AUX	9	idtext0018	avoir	P#1##s##	spk3	23.25	23.32	0.01	_
20091112_RATP_SCD_0575	11	9	perdu	NULL	vppart	NULL	I_GVf	ROOT	0	idtext0018	perdre	K##m#s##	spk3	23.33	23.99	0.01	_
20091112_RATP_SCD_0575	11	10	sur	NULL	prep	NULL	B_NULL	P_OBJ	9	idtext0018	sur	#####	spk3	24.0	24.14	0.01	_
20091112_RATP_SCD_0575	11	11	un	NULL	det	NULL	B_NULL	NOLINK	0	idtext0018	un	##m#s##i	spk3	24.15	24.35	0.06	_
20091112_RATP_SCD_0575	11	12	dans	NULL	prep	NULL	B_GP	ROOT	0	idtext0019	dans	#####	spk3	24.41	24.51	0.01	_
20091112_RATP_SCD_0575	11	13	un	NULL	det	NULL	I_GP	DET	14	idtext0019	un	##m#s##i	spk3	24.52	24.54	0.01	_
20091112_RATP_SCD_0575	11	14	strapontin	NULL	nc	NULL	I_GP	OBJ	12	idtext0019	strapontin	##m#s##	spk3	24.55	24.98	0.01	_
20091112_RATP_SCD_0575	11	15	dans	NULL	prep	NULL	B_GP	ROOT	0	idtext0019	dans	#####	spk3	24.99	25.1	0.01	_
20091112_RATP_SCD_0575	11	16	le	NULL	det	NULL	I_GP	DET	17	idtext0019	le	##m#s##d	spk3	25.11	25.14	0.01	_
20091112_RATP_SCD_0575	11	17	métro	NULL	nc	NULL	I_GP	OBJ	15	idtext0019	métro	##m#s##	spk3	25.15	26.16	0.05	_
20091112_RATP_SCD_0575	11	18	euh	DISF_M	pres	NULL	NULL	NOLINK	0	idtext0020	euh	#####	spk3	26.21	26.7	0.04	_
20091112_RATP_SCD_0575	11	19	au+niveau+de	NULL	prep	NULL	B_GP	ROOT	0	idtext0021	au+niveau+de	#####	spk3	26.74	27.13	0.01	_
20091112_RATP_SCD_0575	11	20	l'	NULL	det	NULL	I_GP	DET	22	idtext0021	le	###s##d	spk3	27.14	27.24	0.01	_
20091112_RATP_SCD_0575	11	21	arrêt	DISF_R	nc	NULL	NULL	NOLINK	0	idtext0021	arrêt	##m#s##	spk3	27.25	27.53	0.01	_
20091112_RATP_SCD_0575	11	22	arrêt	NULL	nc	B_A	I_GP	OBJ	19	idtext0021	arrêt	##m#s##	spk3	27.54	27.74	0.01	_
20091112_RATP_SCD_0575	11	23	Barbès	NULL	np	I_A	I_GP	MOD	22	idtext0021	Barbès	#####	spk3	27.75	28.09	0.01	_
20091112_RATP_SCD_0575	11	24	de	NULL	prep	NULL	B_GP	DEP	22	idtext0021	de	#####	spk3	28.1	28.12	0.01	_
20091112_RATP_SCD_0575	11	25	la	NULL	det	NULL	I_GP	DET	26	idtext0021	le	##m#s##d	spk3	28.13	28.18	0.01	_
20091112_RATP_SCD_0575	11	26	ligne	NULL	nc	B_T	I_GP	OBJ	24	idtext0021	ligne	##f#s##	spk3	28.19	28.33	0.01	_
20091112_RATP_SCD_0575	11	27	quatre	NULL	adj	I_T	I_GP	MOD	26	idtext0021	quatre	#####	spk3	28.34	28.64	?	//

20091112_RATP_SCD_0575	12	1	d'accord	NULL	adv	NULL	B_GADV	NOLINK	0	idtext0022	d'accord	#####	spk2	29.21	29.42	0.01	_
20091112_RATP_SCD_0575	12	2	je	NULL	cln	NULL	B_GN	SUJ	4	idtext0023	cln	#1##s##	spk2	29.43	29.52	0.01	_
20091112_RATP_SCD_0575	12	3	vous	NULL	clo	NULL	B_GN	OBJ	4	idtext0023	cln	#2##p##	spk2	29.53	29.63	0.01	_
20091112_RATP_SCD_0575	12	4	fais	NULL	v	NULL	B_GVf	ROOT	0	idtext0023	faire	P#12##s##	spk2	29.64	29.69	0.01	_
20091112_RATP_SCD_0575	12	5	patienter	NULL	vinf	NULL	I_GVf	OBJ	4	idtext0023	patienter	W#####	spk2	29.7	30.07	?	//

20091112_RATP_SCD_0575	13	1	ouais	NULL	adv	NULL	B_GADV	NOLINK	0	idtext0024	ouais	#####	spk3	30.44	30.64	0.14	_
20091112_RATP_SCD_0575	13	2	merci	NULL	adv	NULL	B_GADV	MOD	3	idtext0025	merci	#####	spk3	30.78	31.03	0.01	_
20091112_RATP_SCD_0575	13	3	beaucoup	NULL	adv	NULL	I_GADV	ROOT	0	idtext0025	beaucoup	#####	spk3	31.04	32.22	?	//

20091112_RATP_SCD_0575	14	1	s'il+vous+plaît	NULL	adv	NULL	B_GADV	NOLINK	0	idtext0026	s'il+vous+plaît	#####	spk2	77.36	77.85	?	//

20091112_RATP_SCD_0575	15	1	oui	NULL	adv	NULL	B_GADV	NOLINK	0	idtext0027	oui	#####	spk3	77.89	78.15	?	//

20091112_RATP_SCD_0575	16	1	non	NULL	adv	NULL	B_GADV	NOLINK	0	idtext0028	non	#####	spk2	78.19	78.42	?	_

20091112_RATP_SCD_0575	17	1	je	NULL	cln	NULL	B_GN	SUJ	3	idtext0029	cln	#1##s##	spk2	78.46	78.5	0.01	_
20091112_RATP_SCD_0575	17	2	suis	NULL	v	NULL	B_GVf	AUX	3	idtext0029	être	P#1##s##	spk2	78.51	78.59	0.01	_
20091112_RATP_SCD_0575	17	3	désolé	NULL	vppart	NULL	I_GVf	ROOT	0	idtext0029	désoler	K##m#s##	spk2	78.6	79.06	0.01	/
20091112_RATP_SCD_0575	17	4	j'	NULL	cln	NULL	B_GN	SUJ	5	idtext0029	cln	#1##s##	spk2	79.07	79.16	0.01	_
20091112_RATP_SCD_0575	17	5	ai	NULL	v	NULL	B_GVf	ROOT	0	idtext0029	avoir	P#1##s##	spk2	79.17	79.19	0.01	_
20091112_RATP_SCD_0575	17	6	rien	NULL	pro	NULL	B_GN	OBJ	5	idtext0029	rien	#####	spk2	79.2	79.46	0.01	_
20091112_RATP_SCD_0575	17	7	à	NULL	prep	NULL	B_GP	MOD	6	idtext0029	à	#####	spk2	79.47	79.54	0.01	_
20091112_RATP_SCD_0575	17	8	ce	NULL	det	NULL	I_GP	DET	9	idtext0029	ce	##m#s##e	spk2	79.55	79.6	0.01	_
20091112_RATP_SCD_0575	17	9	nom	NULL	nc	NULL	I_GP	OBJ	7	idtext0029	nom	##m#s##	spk2	79.61	79.76	0.01	_
20091112_RATP_SCD_0575	17	10	là	NULL	adv	NULL	B_GADV	NOLINK	0	idtext0029	là	#####	spk2	79.77	79.94	0.01	_
20091112_RATP_SCD_0575	17	11	hein	DISF_M	pres	NULL	NULL	NOLINK	0	idtext0029	hein	#####	spk2	79.95	80.11	?	//

20091112_RATP_SCD_0575	18	1	sur	NULL	prep	NULL	B_GP	ROOT	0	idtext0030	sur	#####	spk2	81.13	81.25	0.01	_
20091112_RATP_SCD_0575	18	2	tout+le	NULL	det	NULL	I_GP	DET	3	idtext0030	tout+le	#####	spk2	81.26	81.43	0.01	_
20091112_RATP_SCD_0575	18	3	réseau	NULL	nc	NULL	I_GP	OBJ	1	idtext0030	réseau	##m#s##	spk2	81.44	81.79	0.01	_
20091112_RATP_SCD_0575	18	4	hein	DISF_M	pres	NULL	NULL	NOLINK	0	idtext0030	hein	#####	spk2	81.8	82.07	0.09	_
20091112_RATP_SCD_0575	18	5	j'	NULL	cln	NULL	B_GN	SUJ	7	idtext0031	cln	#1##s##	spk2	82.16	82.24	0.01	_
20091112_RATP_SCD_0575	18	6	ai	NULL	v	NULL	B_GVf	AUX	7	idtext0031	avoir	P#1##s##	spk2	82.25	82.27	0.01	_
20091112_RATP_SCD_0575	18	7	regardé	NULL	vppart	NULL	I_GVf	ROOT	0	idtext0031	regarder	K##m#s##	spk2	82.28	82.55	0.01	_
20091112_RATP_SCD_0575	18	8	sur	NULL	prep	NULL	B_GP	P_OBJ	7	idtext0031	sur	#####	spk2	82.56	82.69	0.01	_
20091112_RATP_SCD_0575	18	9	tout+le	NULL	det	NULL	I_GP	DET	10	idtext0031	tout+le	#####	spk2	82.7	82.84	0.01	_
20091112_RATP_SCD_0575	18	10	réseau	NULL	nc	NULL	I_GP	OBJ	8	idtext0031	réseau	##m#s##	spk2	82.85	83.13	0.01	_
20091112_RATP_SCD_0575	18	11	parce+que	NULL	csu	NULL	B_NULL	MOD	7	idtext0031	parce+que	#####	spk2	83.14	83.3	0.01	_
20091112_RATP_SCD_0575	18	12	avec	NULL	prep	NULL	B_GP	P_OBJ	16	idtext0031	avec	#####	spk2	83.31	83.49	0.01	_
20091112_RATP_SCD_0575	18	13	le	NULL	det	NULL	I_GP	DET	14	idtext0031	le	##m#s##d	spk2	83.5	83.62	0.01	_
20091112_RATP_SCD_0575	18	14	nom	NULL	nc	NULL	I_GP	OBJ	12	idtext0031	nom	##m#s##	spk2	83.63	83.9	0.01	_
20091112_RATP_SCD_0575	18	15	on	NULL	cln	NULL	B_GN	SUJ_IMP	16	idtext0031	cln	#3##s##	spk2	83.91	84.04	0.01	_
20091112_RATP_SCD_0575	18	16	peut	NULL	v	NULL	B_GVf	OBJ	11	idtext0031	pouvoir	P#3##s##	spk2	84.05	84.18	0.01	_
20091112_RATP_SCD_0575	18	17	savoir	NULL	vinf	NULL	I_GVf	OBJ	16	idtext0031	savoir	W#####	spk2	84.19	84.51	0.01	_
20091112_RATP_SCD_0575	18	18	mais	NULL	coo	NULL	B_NULL	NOLINK	0	idtext0031	mais	#####	spk2	84.52	84.77	0.31	_
20091112_RATP_SCD_0575	18	19	je	NULL	cln	NULL	B_GN	SUJ	20	idtext0032	cln	#1##s##	spk2	85.08	85.15	0.01	_
20091112_RATP_SCD_0575	18	20	vais	NULL	v	NULL	B_GVf	ROOT	0	idtext0032	aller	P#1##s##	spk2	85.16	85.21	0.01	_
20091112_RATP_SCD_0575	18	21	regarder	NULL	vinf	NULL	I_GVf	OBJ	20	idtext0032	regarder	W#####	spk2	85.22	85.41	0.01	_
20091112_RATP_SCD_0575	18	22	quand+même	NULL	adv	NULL	B_GADV	MOD	20	idtext0032	quand+même	#####	spk2	85.42	85.64	0.01	_
20091112_RATP_SCD_0575	18	23	sur	NULL	prep	NULL	B_GP	P_OBJ	20	idtext0032	sur	#####	spk2	85.65	85.78	0.01	_
20091112_RATP_SCD_0575	18	24	la	NULL	det	NULL	I_GP	DET	25	idtext0032	le	##m#s##d	spk2	85.79	85.95	0.01	_
20091112_RATP_SCD_0575	18	25	ligne	NULL	nc	B_T	I_GP	OBJ	23	idtext0032	ligne	##f#s##	spk2	85.96	86.12	0.01	_
20091112_RATP_SCD_0575	18	26	quatre	NULL	adj	I_T	I_GP	MOD	25	idtext0032	quatre	#####	spk2	86.13	86.95	0.88	//
20091112_RATP_SCD_0575	18	27	des+fois	NULL	adv	NULL	B_GADV	NOLINK	0	idtext0033	des+fois	#####	spk2	87.83	88.17	?	//

20091112_RATP_SCD_0575	19	1	que	NULL	csu	NULL	B_NULL	NOLINK	0	idtext0034	que	#####	spk2	88.28	88.49	?	_

20091112_RATP_SCD_0575	20	1	c'	NULL	cln	NULL	B_GN	SUJ_IMP	2	idtext0035	ce	###s##	spk3	88.25	88.27	0.01	_
20091112_RATP_SCD_0575	20	2	est	NULL	v	NULL	B_GVf	ROOT	0	idtext0035	être	P#3##s##	spk3	88.28	88.31	0.01	_
20091112_RATP_SCD_0575	20	3	un	NULL	det	NULL	B_NULL	ATS	2	idtext0035	un	##m#s##i	spk3	88.32	88.49	?	_

20091112_RATP_SCD_0575	21	1	portefeuille	NULL	nc	NULL	B_GN	ROOT	0	idtext0036	portefeuille	##m#s##	spk3	88.53	88.91	0.01	_
20091112_RATP_SCD_0575	21	2	noir	NULL	adj	NULL	I_GN	MOD	1	idtext0036	noir	##m#s##	spk3	88.92	89.19	?	//

20091112_RATP_SCD_0575	22	1	ouais	NULL	adv	NULL	B_GADV	NOLINK	0	idtext0037	ouais	#####	spk2	89.65	89.7	0.01	_
20091112_RATP_SCD_0575	22	2	si	NULL	csu	NULL	B_NULL	NOLINK	0	idtext0037	si	#####	spk2	89.71	89.79	0.01	_
20091112_RATP_SCD_0575	22	3	euh	DISF_M	pres	NULL	NULL	NOLINK	0	idtext0037	euh	#####	spk2	89.8	90.01	0.04	_
20091112_RATP_SCD_0575	22	4	on	NULL	cln	NULL	B_GN	SUJ	5	idtext0038	cln	#3##s##	spk2	90.05	90.15	0.01	_
20091112_RATP_SCD_0575	22	5	sait	NULL	v	NULL	B_GVf	ROOT	0	idtext0038	savoir	P#3##s##	spk2	90.16	90.29	0.01	_
20091112_RATP_SCD_0575	22	6	jamais	NULL	adv	NULL	B_GADV	MOD	5	idtext0038	jamais	#####	spk2	90.3	90.58	0.01	_
20091112_RATP_SCD_0575	22	7	parce+que	NULL	csu	NULL	B_NULL	MOD	5	idtext0038	parce+que	#####	spk2	90.59	90.84	0.01	_
20091112_RATP_SCD_0575	22	8	si	NULL	csu	NULL	B_NULL	NOLINK	0	idtext0038	si	#####	spk2	90.85	91.48	0.58	//
20091112_RATP_SCD_0575	22	9	alors	NULL	adv	NULL	B_GADV	NOLINK	0	idtext0039	alors	#####	spk2	92.06	92.18	0.01	_
20091112_RATP_SCD_0575	22	10	attendez	NULL	v	NULL	B_GVf	ROOT	0	idtext0039	attendre	P#2##p##	spk2	92.19	92.53	0.01	_
20091112_RATP_SCD_0575	22	11	portefeuille	NULL	nc	NULL	B_GN	OBJ	10	idtext0039	portefeuille	##m#s##	spk2	92.54	93.28	0.01	//
20091112_RATP_SCD_0575	22	12	ligne	NULL	nc	B_T	I_GN	MOD	11	idtext0039	ligne	##f#s##	spk2	93.29	93.62	0.01	_
20091112_RATP_SCD_0575	22	13	quatre	NULL	adj	I_T	I_GN	MOD	12	idtext0039	quatre	#####	spk2	93.63	94.32	?	_

20091112_RATP_SCD_0575	23	1	non	NULL	adv	NULL	B_GADV	NOLINK	0	idtext0040	non	#####	spk2	96.64	96.84	0.06	_
20091112_RATP_SCD_0575	23	2	j'	NULL	cln	NULL	B_GN	SUJ	6	idtext0041	cln	#1##s##	spk2	96.9	96.98	0.01	_
20091112_RATP_SCD_0575	23	3	en	NULL	clo	NULL	B_GN	OBJ	6	idtext0041	en	#####	spk2	96.99	97.08	0.01	_
20091112_RATP_SCD_0575	23	4	ai	NULL	v	NULL	B_GVfn	AUX	6	idtext0041	avoir	P#1##s##	spk2	97.09	97.12	0.01	_
20091112_RATP_SCD_0575	23	5	pas	NULL	advneg	NULL	I_GVfn	MOD	6	idtext0041	pas	#####	spk2	97.13	97.28	0.01	_
20091112_RATP_SCD_0575	23	6	eu	NULL	vppart	NULL	I_GVfn	ROOT	0	idtext0041	avoir	K##m#s##	spk2	97.29	97.74	?	//

20091112_RATP_SCD_0575	24	1	d'accord	NULL	adv	NULL	B_GADV	NOLINK	0	idtext0042	d'accord	#####	spk3	97.78	98.33	0.74	_
20091112_RATP_SCD_0575	24	2	euh	DISF_M	pres	NULL	NULL	NOLINK	0	idtext0043	euh	#####	spk3	99.07	99.34	0.01	_
20091112_RATP_SCD_0575	24	3	si	NULL	csu	NULL	B_NULL	ROOT	0	idtext0043	si	#####	spk3	99.35	99.47	0.01	_
20091112_RATP_SCD_0575	24	4	toutefois	NULL	adv	NULL	B_GADV	NOLINK	0	idtext0043	toutefois	#####	spk3	99.48	99.84	0.01	_
20091112_RATP_SCD_0575	24	5	vous	NULL	cln	NULL	B_GN	SUJ	7	idtext0043	cln	#2##p##	spk3	99.85	100.04	0.01	_
20091112_RATP_SCD_0575	24	6	le	NULL	clo	NULL	B_GN	OBJ	7	idtext0043	cla	#3#m#s##	spk3	100.05	100.11	0.01	_
20091112_RATP_SCD_0575	24	7	trouviez	NULL	v	NULL	B_GVf	OBJ	3	idtext0043	trouver	I#2##p##	spk3	100.12	100.59	0.04	_
20091112_RATP_SCD_0575	24	8	c'	NULL	cln	NULL	B_GN	SUJ_IMP	9	idtext0044	ce	###s##	spk3	100.63	100.65	0.01	_
20091112_RATP_SCD_0575	24	9	est	NULL	v	NULL	B_GVf	ROOT	0	idtext0044	être	P#3##s##	spk3	100.66	100.69	0.01	_
20091112_RATP_SCD_0575	24	10	possible	NULL	adj	NULL	B_GADJ	ATS	9	idtext0044	possible	###s##	spk3	100.7	100.99	0.01	_
20091112_RATP_SCD_0575	24	11	que	NULL	csu	NULL	B_NULL	OBJ	10	idtext0044	que	#####	spk3	101.0	101.02	0.01	_
20091112_RATP_SCD_0575	24	12	vous	NULL	cln	NULL	B_GN	SUJ	14	idtext0044	cln	#2##p##	spk3	101.03	101.13	0.01	_
20091112_RATP_SCD_0575	24	13	m'	NULL	clo	NULL	B_GN	OBJ	14	idtext0044	cla	#1##s##	spk3	101.14	101.16	0.01	_
20091112_RATP_SCD_0575	24	14	appeliez	NULL	v	NULL	B_GVf	OBJ	11	idtext0044	appeler	I#2##p##	spk3	101.17	101.63	0.09	_
20091112_RATP_SCD_0575	24	15	ou	NULL	coo	NULL	B_NULL	ROOT	0	idtext0045	ou	#####	spk3	101.72	101.78	0.01	_
20091112_RATP_SCD_0575	24	16	il	NULL	cln	NULL	B_GN	SUJ_IMP	17	idtext0045	cln	#3#m#s##	spk3	101.79	101.84	0.01	_
20091112_RATP_SCD_0575	24	17	faut	NULL	v	NULL	B_GVf	DEP_COORD	15	idtext0045	falloir	P#3##s##	spk3	101.85	101.95	0.01	_
20091112_RATP_SCD_0575	24	18	que	NULL	csu	NULL	B_NULL	OBJ	17	idtext0045	que	#####	spk3	101.96	101.98	0.01	_
20091112_RATP_SCD_0575	24	19	je	NULL	cln	NULL	B_GN	SUJ	20	idtext0045	cln	#1##s##	spk3	101.99	102.01	0.01	_
20091112_RATP_SCD_0575	24	20	rappelle	NULL	v	NULL	B_GVf	ROOT	0	idtext0045	rappeler	PS#13##s##	spk3	102.02	102.29	0.01	_
20091112_RATP_SCD_0575	24	21	moi	NULL	pro	NULL	B_GN	SUJ	20	idtext0045	moi	#####	spk3	102.3	102.46	?	_

20091112_RATP_SCD_0575	25	1	non	NULL	adv	NULL	B_GADV	NOLINK	0	idtext0046	non	#####	spk2	102.57	102.71	0.01	_
20091112_RATP_SCD_0575	25	2	il	NULL	cln	NULL	B_GN	SUJ_IMP	3	idtext0046	cln	#3#m#s##	spk2	102.72	102.89	0.01	_
20091112_RATP_SCD_0575	25	3	faut	NULL	v	NULL	B_GVf	ROOT	0	idtext0046	falloir	P#3##s##	spk2	102.9	103.21	0.04	_
20091112_RATP_SCD_0575	25	4	il	DISF_R	cln	NULL	NULL	NOLINK	0	idtext0047	cln	#3#m#s##	spk2	103.25	103.3	0.01	_
20091112_RATP_SCD_0575	25	5	faut	DISF_R	v	NULL	NULL	NOLINK	0	idtext0047	falloir	P#3##s##	spk2	103.31	103.36	0.01	_
20091112_RATP_SCD_0575	25	6	il	NULL	cln	NULL	B_GN	SUJ_IMP	7	idtext0047	cln	#3#m#s##	spk2	103.37	103.42	0.01	_
20091112_RATP_SCD_0575	25	7	faut	NULL	v	NULL	B_GVf	ROOT	0	idtext0047	falloir	P#3##s##	spk2	103.43	103.59	0.01	_
20091112_RATP_SCD_0575	25	8	que	NULL	csu	NULL	B_NULL	OBJ	7	idtext0047	que	#####	spk2	103.6	103.76	0.01	_
20091112_RATP_SCD_0575	25	9	vous	NULL	cln	NULL	B_GN	SUJ	11	idtext0047	cln	#2##p##	spk2	103.77	103.83	0.01	_
20091112_RATP_SCD_0575	25	10	vous	NULL	clr	NULL	B_GVf	AFF	11	idtext0047	cln	#2##p##	spk2	103.84	104.04	0.01	_
20091112_RATP_SCD_0575	25	11	rappeliez	NULL	v	NULL	I_GVf	OBJ	8	idtext0047	rappeler	I#2##p##	spk2	104.05	104.5	0.01	_
20091112_RATP_SCD_0575	25	12	hein	DISF_M	pres	NULL	NULL	NOLINK	0	idtext0047	hein	#####	spk2	104.51	104.66	?	//

20091112_RATP_SCD_0575	26	1	d'accord	NULL	adv	NULL	B_GADV	NOLINK	0	idtext0048	d'accord	#####	spk3	104.79	105.46	?	//

20091112_RATP_SCD_0575	27	1	euh	DISF_M	pres	NULL	NULL	NOLINK	0	idtext0049	euh	#####	spk2	105.53	105.59	0.01	_
20091112_RATP_SCD_0575	27	2	il	NULL	cln	NULL	B_GN	SUJ	3	idtext0049	cln	#3#m#s##	spk2	105.6	105.66	0.01	_
20091112_RATP_SCD_0575	27	3	était	NULL	v	NULL	B_GVf	ROOT	0	idtext0049	être	I#3##s##	spk2	105.67	105.88	0.01	_
20091112_RATP_SCD_0575	27	4	quelle	DISF_R	det	NULL	NULL	NOLINK	0	idtext0049	quel	##f#s##	spk2	105.89	106.28	0.01	//
20091112_RATP_SCD_0575	27	5	ce	NULL	det	NULL	B_GN	DET	6	idtext0049	ce	##m#s##e	spk2	106.29	106.31	0.01	_
20091112_RATP_SCD_0575	27	6	matin	NULL	nc	NULL	I_GN	MOD	3	idtext0049	matin	##m#s##	spk2	106.32	106.79	?	//

20091112_RATP_SCD_0575	28	1	c'	NULL	cln	NULL	B_GN	SUJ_IMP	2	idtext0050	ce	###s##	spk3	106.91	106.95	0.01	_
20091112_RATP_SCD_0575	28	2	était	NULL	v	NULL	B_GVf	ROOT	0	idtext0050	être	I#3##s##	spk3	106.96	107.14	0.01	_
20091112_RATP_SCD_0575	28	3	neuf	NULL	det	B_H	B_GN	DET	4	idtext0050	neuf	#####	spk3	107.15	107.28	0.01	_
20091112_RATP_SCD_0575	28	4	heures	NULL	nc	I_H	I_GN	ATS	2	idtext0050	heure	##f#p##	spk3	107.29	107.6	?	//

20091112_RATP_SCD_0575	29	1	ah	DISF_M	pres	NULL	NULL	NOLINK	0	idtext0051	ah	#####	spk2	109.33	109.58	0.01	_
20091112_RATP_SCD_0575	29	2	oui	NULL	adv	NULL	B_GADV	NOLINK	0	idtext0051	oui	#####	spk2	109.59	110.32	?	_

20091112_RATP_SCD_0575	30	1	on	NULL	cln	NULL	B_GN	SUJ_IMP	2	idtext0052	cln	#3##s##	spk3	110.81	110.84	0.01	_
20091112_RATP_SCD_0575	30	2	peut	NULL	v	NULL	B_GVf	ROOT	0	idtext0052	pouvoir	P#3##s##	spk3	110.85	111.03	0.01	_
20091112_RATP_SCD_0575	30	3	penser	NULL	vinf	NULL	I_GVf	OBJ	2	idtext0052	penser	W#####	spk3	111.04	111.4	0.01	_
20091112_RATP_SCD_0575	30	4	là	NULL	adv	NULL	B_GADV	MOD	2	idtext0052	là	#####	spk3	111.41	111.47	0.01	//
20091112_RATP_SCD_0575	30	5	que	NULL	csu	NULL	B_NULL	OBJ	2	idtext0052	que	#####	spk3	111.48	111.52	0.01	_
20091112_RATP_SCD_0575	30	6	si+jamais	NULL	csu	NULL	B_NULL	OBJ	5	idtext0052	si+jamais	#####	spk3	111.53	111.95	0.01	_
20091112_RATP_SCD_0575	30	7	on	NULL	cln	NULL	B_GN	SUJ	11	idtext0053	cln	#3##s##	spk3	111.96	112.09	0.01	_
20091112_RATP_SCD_0575	30	8	l'	NULL	clo	NULL	B_GN	OBJ	11	idtext0053	cla	#3##s##	spk3	112.1	112.12	0.01	_
20091112_RATP_SCD_0575	30	9	a	NULL	v	NULL	B_GVfn	AUX	11	idtext0053	avoir	P#3##s##	spk3	112.13	112.2	0.01	_
20091112_RATP_SCD_0575	30	10	pas	NULL	advneg	NULL	I_GVfn	MOD	11	idtext0053	pas	#####	spk3	112.21	112.31	0.01	_
20091112_RATP_SCD_0575	30	11	retrouvé	NULL	vppart	NULL	I_GVfn	OBJ	6	idtext0053	retrouver	K##m#s##	spk3	112.32	112.5	0.01	//
20091112_RATP_SCD_0575	30	12	maintenant	NULL	adv	NULL	B_GADV	MOD	11	idtext0053	maintenant	#####	spk3	112.51	113.01	0.01	_
20091112_RATP_SCD_0575	30	13	euh	DISF_M	pres	NULL	NULL	NOLINK	0	idtext0054	euh	#####	spk3	113.02	113.07	?	//

20091112_RATP_SCD_0575	31	1	on	NULL	cln	NULL	B_GN	SUJ_IMP	2	idtext0055	cln	#3##s##	spk3	113.12	113.15	0.01	_
20091112_RATP_SCD_0575	31	2	va	NULL	v	NULL	B_GVf	ROOT	0	idtext0055	aller	P#3##s##	spk3	113.16	113.22	0.01	_
20091112_RATP_SCD_0575	31	3	peut-être	NULL	adv	NULL	B_GADV	MOD	4	idtext0056	peut-être	#####	spk3	113.23	113.45	0.01	_
20091112_RATP_SCD_0575	31	4	pas	NULL	advneg	NULL	B_NULL	MOD	2	idtext0057	pas	#####	spk3	113.46	113.51	0.01	_
20091112_RATP_SCD_0575	31	5	le	NULL	clo	NULL	B_GN	OBJ	6	idtext0057	cla	#3#m#s##	spk3	113.52	113.54	0.01	_
20091112_RATP_SCD_0575	31	6	retrouver	NULL	vinf	NULL	B_GVi	OBJ	2	idtext0057	retrouver	W#####	spk3	113.55	113.93	0.01	/
20091112_RATP_SCD_0575	31	7	non	NULL	adv	NULL	B_GADV	NOLINK	0	idtext0057	non	#####	spk3	113.94	114.03	?	_

20091112_RATP_SCD_0575	32	1	ça	NULL	pro	NULL	B_GN	SUJ_IMP	2	idtext0058	ça	#####	spk2	114.07	114.12	0.01	_
20091112_RATP_SCD_0575	32	2	veut	NULL	v	NULL	B_GVf	ROOT	0	idtext0058	vouloir	P#3##s##	spk2	114.13	114.26	0.01	_
20091112_RATP_SCD_0575	32	3	rien	NULL	pro	NULL	B_GN	OBJ	2	idtext0058	rien	#####	spk2	114.27	114.55	0.01	_
20091112_RATP_SCD_0575	32	4	dire	NULL	vinf	NULL	B_GVi	OBJ	2	idtext0058	dire	W#####	spk2	114.56	114.91	0.01	_
20091112_RATP_SCD_0575	32	5	vous	GREF	cln	NULL	B_GN	SUJ	6	idtext0058	cln	#2##p##	spk2	114.92	115.0	0.01	_
20091112_RATP_SCD_0575	32	6	savez	GREF	v	NULL	B_GVf	ROOT	0	idtext0058	savoir	P#2##p##	spk2	115.01	115.63	0.28	/
20091112_RATP_SCD_0575	32	7	appelez	NULL	v	NULL	B_GVf	ROOT	0	idtext0059	appeler	P#2##p##	spk2	115.91	116.26	0.01	_
20091112_RATP_SCD_0575	32	8	nous	NULL	clo	NULL	B_GN	OBJ	7	idtext0059	cln	#1##p##	spk2	116.27	116.41	0.01	_
20091112_RATP_SCD_0575	32	9	quand+même	NULL	adv	NULL	B_GADV	NOLINK	0	idtext0059	quand+même	#####	spk2	116.42	116.76	0.04	_
20091112_RATP_SCD_0575	32	10	mais	NULL	coo	NULL	B_NULL	ROOT	0	idtext0060	mais	#####	spk2	116.8	116.92	0.01	_
20091112_RATP_SCD_0575	32	11	bon	DISF_M	pres	NULL	NULL	NOLINK	0	idtext0060	bon	#####	spk2	116.93	117.06	0.01	_
20091112_RATP_SCD_0575	32	12	vous	GREF	cln	NULL	B_GN	SUJ	13	idtext0060	cln	#2##p##	spk2	117.07	117.19	0.01	_
20091112_RATP_SCD_0575	32	13	savez	GREF	v	NULL	B_GVf	DEP_COORD	10	idtext0060	savoir	P#2##p##	spk2	117.2	117.62	0.06	_
20091112_RATP_SCD_0575	32	14	bon	DISF_M	pres	NULL	NULL	NOLINK	0	idtext0061	bon	#####	spk2	117.68	117.9	0.01	_
20091112_RATP_SCD_0575	32	15	même	NULL	adv	NULL	B_GADV	NOLINK	0	idtext0061	même	###s##	spk2	117.91	118.17	0.01	_
20091112_RATP_SCD_0575	32	16	moi	NULL	pro	NULL	B_GN	SUJ	25	idtext0061	moi	#####	spk2	118.18	118.36	0.01	//
20091112_RATP_SCD_0575	32	17	le	NULL	det	NULL	B_GN	DET	18	idtext0061	le	##m#s##d	spk2	118.37	118.48	0.01	_
20091112_RATP_SCD_0575	32	18	premier	NULL	adj	NULL	I_GN	SUJ	25	idtext0061	premier	##m#s##	spk2	118.49	118.81	0.01	_
20091112_RATP_SCD_0575	32	19	quand	NULL	csu	NULL	B_NULL	MOD	25	idtext0061	quand	#####	spk2	118.82	118.98	0.01	_
20091112_RATP_SCD_0575	32	20	je	NULL	cln	NULL	B_GN	SUJ	21	idtext0061	cln	#1##s##	spk2	118.99	119.02	0.01	_
20091112_RATP_SCD_0575	32	21	trouve	NULL	v	NULL	B_GVf	ROOT	0	idtext0061	trouver	PS#13##s##	spk2	119.03	119.19	0.01	_
20091112_RATP_SCD_0575	32	22	quelque+chose	NULL	pro	NULL	B_GN	OBJ	21	idtext0061	quelque+chose	#####	spk2	119.2	119.59	0.01	_
20091112_RATP_SCD_0575	32	23	je	NULL	cln	NULL	B_GN	SUJ	25	idtext0061	cln	#1##s##	spk2	119.6	119.72	0.01	_
20091112_RATP_SCD_0575	32	24	le	NULL	clo	NULL	B_GN	OBJ	25	idtext0061	cla	#3#m#s##	spk2	119.73	119.79	0.01	_
20091112_RATP_SCD_0575	32	25	donne	NULL	v	NULL	B_GVf	ROOT	0	idtext0061	donner	PS#13##s##	spk2	119.8	120.01	0.01	_
20091112_RATP_SCD_0575	32	26	là	NULL	adv	NULL	B_GADV	P_OBJ_LOC	25	idtext0061	là	#####	spk2	120.02	120.17	0.01	/
20091112_RATP_SCD_0575	32	27	où	NULL	prorel	NULL	B_NULL	P_OBJ_LOC	29	idtext0061	où	#####	spk2	120.18	120.28	0.01	_
20091112_RATP_SCD_0575	32	28	je	NULL	cln	NULL	B_GN	SUJ	29	idtext0061	cln	#1##s##	spk2	120.29	120.44	0.01	_
20091112_RATP_SCD_0575	32	29	sors	NULL	v	NULL	B_GVf	MOD_REL	26	idtext0061	sortir	P#12##s##	spk2	120.45	120.79	0.05	_
20091112_RATP_SCD_0575	32	30	pas	NULL	advneg	NULL	B_NULL	NOLINK	0	idtext0062	pas	#####	spk2	120.84	120.97	0.01	_
20091112_RATP_SCD_0575	32	31	là	NULL	adv	NULL	B_GADV	NOLINK	0	idtext0062	là	#####	spk2	120.98	121.11	0.01	_
20091112_RATP_SCD_0575	32	32	où	NULL	prorel	NULL	B_NULL	P_OBJ_LOC	35	idtext0062	où	#####	spk2	121.12	121.19	0.01	_
20091112_RATP_SCD_0575	32	33	je	NULL	cln	NULL	B_GN	SUJ	35	idtext0062	cln	#1##s##	spk2	121.2	121.24	0.01	_
20091112_RATP_SCD_0575	32	34	le	NULL	clo	NULL	B_GN	OBJ	35	idtext0062	cla	#3#m#s##	spk2	121.25	121.35	0.01	_
20091112_RATP_SCD_0575	32	35	trouve	NULL	v	NULL	B_GVf	ROOT	0	idtext0062	trouver	PS#13##s##	spk2	121.36	121.71	?	//

20091112_RATP_SCD_0575	33	1	ouais	NULL	adv	NULL	B_GADV	NOLINK	0	idtext0063	ouais	#####	spk3	121.83	122.08	?	//

20091112_RATP_SCD_0575	34	1	donc	NULL	coo	NULL	B_NULL	NOLINK	0	idtext0064	donc	#####	spk2	122.39	122.6	0.01	_
20091112_RATP_SCD_0575	34	2	évidemment	NULL	adv	NULL	B_GADV	NOLINK	0	idtext0064	évidemment	#####	spk2	122.61	123.08	0.01	_
20091112_RATP_SCD_0575	34	3	si	NULL	csu	NULL	B_NULL	ROOT	0	idtext0064	si	#####	spk2	123.09	123.23	0.01	_
20091112_RATP_SCD_0575	34	4	la	NULL	det	NULL	B_GN	DET	5	idtext0064	le	##m#s##d	spk2	123.24	123.29	0.01	_
20091112_RATP_SCD_0575	34	5	personne	NULL	nc	NULL	I_GN	NOLINK	0	idtext0064	personne	##f#s##	spk2	123.3	123.64	0.01	_
20091112_RATP_SCD_0575	34	6	après	NULL	prep	NULL	B_NULL	NOLINK	0	idtext0064	après	#####	spk2	123.65	124.15	0.04	_
20091112_RATP_SCD_0575	34	7	a	DISF_R	v	NULL	NULL	NOLINK	0	idtext0065	avoir	P#3##s##	spk2	124.19	124.38	0.01	_
20091112_RATP_SCD_0575	34	8	a	NULL	v	NULL	B_GVf	AUX	9	idtext0065	avoir	P#3##s##	spk2	124.39	124.43	0.01	_
20091112_RATP_SCD_0575	34	9	pris	NULL	vppart	NULL	I_GVf	ROOT	0	idtext0065	prendre	K##m###	spk2	124.44	124.68	0.01	_
20091112_RATP_SCD_0575	34	10	le	NULL	det	NULL	B_GN	DET	11	idtext0065	le	##m#s##d	spk2	124.69	124.84	0.01	_
20091112_RATP_SCD_0575	34	11	RER	NULL	nc	B_T	I_GN	OBJ	9	idtext0065	RER	#####	spk2	124.85	125.26	0.01	_
20091112_RATP_SCD_0575	34	12	après	NULL	prep	NULL	B_NULL	MOD	11	idtext0065	après	#####	spk2	125.27	125.7	0.01	_
20091112_RATP_SCD_0575	34	13	euh	DISF_M	pres	NULL	NULL	NOLINK	0	idtext0065	euh	#####	spk2	125.71	126.31	0.04	_
20091112_RATP_SCD_0575	34	14	bon	DISF_M	pres	NULL	NULL	NOLINK	0	idtext0066	bon	#####	spk2	126.35	126.67	0.01	_
20091112_RATP_SCD_0575	34	15	euh	DISF_M	pres	NULL	NULL	NOLINK	0	idtext0066	euh	#####	spk2	126.68	127.2	0.04	_
20091112_RATP_SCD_0575	34	16	ça	NULL	pro	NULL	B_GN	SUJ	17	idtext0067	ça	#####	spk2	127.24	127.34	0.01	_
20091112_RATP_SCD_0575	34	17	peut	NULL	v	NULL	B_GVf	ROOT	0	idtext0067	pouvoir	P#3##s##	spk2	127.35	127.43	0.01	_
20091112_RATP_SCD_0575	34	18	être	NULL	vinf	NULL	I_GVf	OBJ	17	idtext0067	être	W#####	spk2	127.44	127.6	0.01	_
20091112_RATP_SCD_0575	34	19	n'importe+où	NULL	pro	NULL	B_GN	ATS	18	idtext0067	n'importe+où	#####	spk2	127.61	128.01	0.01	_
20091112_RATP_SCD_0575	34	20	quoi	DISF_M	pres	NULL	NULL	NOLINK	0	idtext0067	quoi	#####	spk2	128.02	128.34	?	//

20091112_RATP_SCD_0575	35	1	ouais	NULL	adv	NULL	B_GADV	NOLINK	0	idtext0068	ouais	#####	spk3	128.56	128.76	?	//

20091112_RATP_SCD_0575	36	1	donc	NULL	coo	NULL	B_NULL	ROOT	0	idtext0069	donc	#####	spk2	128.8	128.92	0.01	_
20091112_RATP_SCD_0575	36	2	il	NULL	cln	NULL	B_GN	SUJ_IMP	4	idtext0069	cln	#3#m#s##	spk2	128.93	128.99	0.01	_
20091112_RATP_SCD_0575	36	3	y	NULL	clo	NULL	B_GN	AFF	4	idtext0069	y	#####	spk2	129.0	129.04	0.01	_
20091112_RATP_SCD_0575	36	4	a	NULL	v	NULL	B_GVf	DEP_COORD	1	idtext0069	avoir	P#3##s##	spk2	129.05	129.08	0.01	_
20091112_RATP_SCD_0575	36	5	pas	NULL	advneg	NULL	B_NULL	MOD	4	idtext0069	pas	#####	spk2	129.09	129.36	0.01	_
20091112_RATP_SCD_0575	36	6	de	NULL	prep	NULL	B_NULL	NOLINK	0	idtext0069	de	#####	spk2	129.37	130.07	0.04	_
20091112_RATP_SCD_0575	36	7	hum	DISF_M	pres	NULL	NULL	NOLINK	0	idtext0070	hum	#####	spk2	130.11	130.3	0.01	_
20091112_RATP_SCD_0575	36	8	je	NULL	cln	NULL	B_GN	SUJ	9	idtext0070	cln	#1##s##	spk2	130.31	130.4	0.01	_
20091112_RATP_SCD_0575	36	9	veux	NULL	v	NULL	B_GVf	ROOT	0	idtext0070	vouloir	P#12##s##	spk2	130.41	130.46	0.01	_
20091112_RATP_SCD_0575	36	10	dire	NULL	vinf	NULL	I_GVf	OBJ	9	idtext0070	dire	W#####	spk2	130.47	130.82	0.10	//
20091112_RATP_SCD_0575	36	11	c'	NULL	cln	NULL	B_GN	SUJ_IMP	12	idtext0071	ce	###s##	spk2	130.92	130.95	0.01	_
20091112_RATP_SCD_0575	36	12	est	NULL	v	NULL	B_GVfn	ROOT	0	idtext0071	être	P#3##s##	spk2	130.96	131.0	0.01	_
20091112_RATP_SCD_0575	36	13	pas	NULL	advneg	NULL	I_GVfn	MOD	12	idtext0071	pas	#####	spk2	131.01	131.13	0.01	_
20091112_RATP_SCD_0575	36	14	catastrophique	NULL	adj	NULL	B_GADJ	ATS	12	idtext0071	catastrophique	###s##	spk2	131.14	131.75	0.01	_
20091112_RATP_SCD_0575	36	15	en	NULL	prep	NULL	B_GP	P_OBJ	14	idtext0071	en	#####	spk2	131.76	131.83	0.01	_
20091112_RATP_SCD_0575	36	16	soi	NULL	pro	NULL	I_GP	OBJ	15	idtext0071	soi	#####	spk2	131.84	132.11	?	_

20091112_RATP_SCD_0575	37	1	hm+hm	DISF_M	pres	NULL	NULL	NOLINK	0	idtext0072	hm+hm	#####	spk3	132.74	133.08	?	//

20091112_RATP_SCD_0575	38	1	mais	NULL	coo	NULL	B_NULL	ROOT	0	idtext0073	mais	#####	spk2	133.6	133.78	0.01	_
20091112_RATP_SCD_0575	38	2	euh	DISF_M	pres	NULL	NULL	NOLINK	0	idtext0073	euh	#####	spk2	133.79	133.94	0.01	_
20091112_RATP_SCD_0575	38	3	bon	DISF_M	pres	NULL	NULL	NOLINK	0	idtext0073	bon	#####	spk2	133.95	134.17	0.01	_
20091112_RATP_SCD_0575	38	4	c'	NULL	cln	NULL	B_GN	SUJ_IMP	5	idtext0073	ce	###s##	spk2	134.18	134.26	0.01	_
20091112_RATP_SCD_0575	38	5	est	NULL	v	NULL	B_GVf	DEP_COORD	1	idtext0073	être	P#3##s##	spk2	134.27	134.3	0.01	_
20091112_RATP_SCD_0575	38	6	vrai	NULL	adj	NULL	B_GADJ	ATS	5	idtext0073	vrai	##m#s##	spk2	134.31	134.44	0.01	/
20091112_RATP_SCD_0575	38	7	que	NULL	csu	NULL	B_NULL	OBJ	6	idtext0073	que	#####	spk2	134.45	134.59	0.01	_
20091112_RATP_SCD_0575	38	8	appelez	NULL	v	NULL	B_GVf	OBJ	7	idtext0073	appeler	P#2##p##	spk2	134.6	134.87	0.01	_
20091112_RATP_SCD_0575	38	9	nous	NULL	cln	NULL	B_GN	NOLINK	0	idtext0073	cln	#1##p##	spk2	134.88	135.03	0.01	_
20091112_RATP_SCD_0575	38	10	vers	NULL	prep	NULL	B_GP	MOD	8	idtext0073	vers	#####	spk2	135.04	135.22	0.01	_
20091112_RATP_SCD_0575	38	11	dix-sept	NULL	det	B_H	I_GP	DET	12	idtext0073	dix-sept	#####	spk2	135.23	135.64	0.01	_
20091112_RATP_SCD_0575	38	12	heures	NULL	nc	I_H	I_GP	OBJ	10	idtext0073	heure	##f#p##	spk2	135.65	135.88	0.04	_
20091112_RATP_SCD_0575	38	13	euh	DISF_M	pres	NULL	NULL	NOLINK	0	idtext0074	euh	#####	spk2	135.92	136.32	0.04	_
20091112_RATP_SCD_0575	38	14	mais	NULL	coo	NULL	B_NULL	ROOT	0	idtext0075	mais	#####	spk2	136.36	136.5	0.01	_
20091112_RATP_SCD_0575	38	15	si	NULL	adv	NULL	B_GADV	NOLINK	0	idtext0075	si	#####	spk2	136.51	136.68	0.01	_
20091112_RATP_SCD_0575	38	16	dix	NULL	nc	NULL	B_GN	NOLINK	0	idtext0075	dix	##m###	spk2	136.69	137.02	0.01	_
20091112_RATP_SCD_0575	38	17	si	NULL	csu	NULL	B_NULL	DEP_COORD	14	idtext0075	si	#####	spk2	137.03	137.12	0.01	_
20091112_RATP_SCD_0575	38	18	à	NULL	prep	NULL	B_GP	OBJ	17	idtext0075	à	#####	spk2	137.13	137.17	0.01	_
20091112_RATP_SCD_0575	38	19	dix-sept	NULL	det	B_H	I_GP	DET	20	idtext0075	dix-sept	#####	spk2	137.18	137.56	0.01	_
20091112_RATP_SCD_0575	38	20	heures	NULL	nc	I_H	I_GP	OBJ	18	idtext0075	heure	##f#p##	spk2	137.57	137.67	0.04	_
20091112_RATP_SCD_0575	38	21	on	NULL	cln	NULL	B_GN	SUJ	23	idtext0076	cln	#3##s##	spk2	137.71	138.1	0.01	_
20091112_RATP_SCD_0575	38	22	n'	NULL	clneg	NULL	B_GVfn	MOD	23	idtext0076	n'	#####	spk2	138.11	138.17	0.01	_
20091112_RATP_SCD_0575	38	23	a	NULL	v	NULL	I_GVfn	ROOT	0	idtext0076	avoir	P#3##s##	spk2	138.18	138.21	0.01	_
20091112_RATP_SCD_0575	38	24	rien	NULL	pro	NULL	B_GN	OBJ	23	idtext0076	rien	#####	spk2	138.22	138.37	0.01	_
20091112_RATP_SCD_0575	38	25	trou	DISF_R	nc	NULL	NULL	NOLINK	0	idtext0076	trou	##m#s##	spk2	138.38	138.63	0.05	/
20091112_RATP_SCD_0575	38	26	on	NULL	cln	NULL	B_GN	SUJ	30	idtext0077	cln	#3##s##	spk2	138.68	138.78	0.01	_
20091112_RATP_SCD_0575	38	27	l'	NULL	clo	NULL	B_GN	OBJ	30	idtext0077	cla	#3##s##	spk2	138.79	138.81	0.01	_
20091112_RATP_SCD_0575	38	28	a	NULL	v	NULL	B_GVfn	AUX	30	idtext0077	avoir	P#3##s##	spk2	138.82	138.86	0.01	_
20091112_RATP_SCD_0575	38	29	pas	NULL	advneg	NULL	I_GVfn	MOD	30	idtext0077	pas	#####	spk2	138.87	139.03	0.01	_
20091112_RATP_SCD_0575	38	30	eu	NULL	vppart	NULL	I_GVfn	ROOT	0	idtext0077	avoir	K##m#s##	spk2	139.04	139.24	0.04	//
20091112_RATP_SCD_0575	38	31	on	NULL	cln	NULL	B_GN	SUJ	33	idtext0078	cln	#3##s##	spk2	139.28	139.31	0.01	_
20091112_RATP_SCD_0575	38	32	n'	NULL	clneg	NULL	B_GVfn	MOD	33	idtext0078	n'	#####	spk2	139.32	139.39	0.01	_
20091112_RATP_SCD_0575	38	33	a	NULL	v	NULL	I_GVfn	ROOT	0	idtext0078	avoir	P#3##s##	spk2	139.4	139.49	0.01	_
20091112_RATP_SCD_0575	38	34	rien	NULL	pro	NULL	B_GN	OBJ	33	idtext0078	rien	#####	spk2	139.5	139.7	0.01	_
20091112_RATP_SCD_0575	38	35	à	NULL	prep	NULL	B_GP	MOD	34	idtext0078	à	#####	spk2	139.71	139.73	0.01	_
20091112_RATP_SCD_0575	38	36	votre	NULL	det	NULL	I_GP	DET	37	idtext0078	votre	###s##o	spk2	139.74	139.95	0.01	_
20091112_RATP_SCD_0575	38	37	nom	NULL	nc	NULL	I_GP	OBJ	35	idtext0078	nom	##m#s##	spk2	139.96	140.17	0.62	_
20091112_RATP_SCD_0575	38	38	bon	DISF_M	pres	NULL	NULL	NOLINK	0	idtext0079	bon	#####	spk2	140.79	140.89	0.01	_
20091112_RATP_SCD_0575	38	39	après	NULL	prep	NULL	B_GP	MOD	41	idtext0079	après	#####	spk2	140.9	141.11	0.01	_
20091112_RATP_SCD_0575	38	40	ça	NULL	pro	NULL	I_GP	OBJ	39	idtext0079	ça	#####	spk2	141.12	141.29	0.01	_
20091112_RATP_SCD_0575	38	41	risque	NULL	v	NULL	B_GVf	ROOT	0	idtext0079	risquer	PS#13##s##	spk2	141.3	141.51	0.01	_
20091112_RATP_SCD_0575	38	42	d'	NULL	prep	NULL	B_GP	OBJ	41	idtext0079	d'	#####	spk2	141.52	141.54	0.01	_
20091112_RATP_SCD_0575	38	43	être	NULL	vinf	NULL	I_GP	OBJ	42	idtext0079	être	W#####	spk2	141.55	141.68	0.01	_
20091112_RATP_SCD_0575	38	44	un+peu	NULL	adv	NULL	B_GADV	MOD	43	idtext0079	un+peu	#####	spk2	141.69	142.4	0.53	_
20091112_RATP_SCD_0575	38	45	un+peu	NULL	adv	NULL	B_GADV	MOD	46	idtext0080	un+peu	#####	spk2	142.93	143.11	0.01	_
20091112_RATP_SCD_0575	38	46	plus	NULL	adv	NULL	I_GADV	MOD	47	idtext0080	plus	#####	spk2	143.12	143.24	0.01	_
20091112_RATP_SCD_0575	38	47	juste	NULL	adv	NULL	I_GADV	ROOT	0	idtext0080	juste	###s##	spk2	143.25	143.55	0.01	/
20091112_RATP_SCD_0575	38	48	quoi	DISF_M	pres	NULL	NULL	NOLINK	0	idtext0080	quoi	#####	spk2	143.56	143.71	0.17	_
20091112_RATP_SCD_0575	38	49	mais	NULL	coo	NULL	B_NULL	ROOT	0	idtext0081	mais	#####	spk2	143.88	143.97	0.01	_
20091112_RATP_SCD_0575	38	50	faites	NULL	v	NULL	B_GVf	DEP_COORD	49	idtext0081	faire	P#2##p##	spk2	143.98	144.15	0.01	_
20091112_RATP_SCD_0575	38	51	quand+même	NULL	adv	NULL	B_GADV	MOD	52	idtext0081	quand+même	#####	spk2	144.16	144.4	0.01	_
20091112_RATP_SCD_0575	38	52	toujours	NULL	adv	NULL	I_GADV	MOD	50	idtext0081	toujours	#####	spk2	144.41	144.64	0.01	/
20091112_RATP_SCD_0575	38	53	opposition	NULL	nc	NULL	B_GN	OBJ	50	idtext0081	opposition	##f#s##	spk2	144.65	145.14	0.01	_
20091112_RATP_SCD_0575	38	54	s'	NULL	csu	NULL	B_NULL	OBJ	53	idtext0081	se	#3##p##	spk2	145.15	145.17	0.01	_
20091112_RATP_SCD_0575	38	55	il	NULL	cln	NULL	B_GN	SUJ_IMP	57	idtext0081	cln	#3#m#s##	spk2	145.18	145.23	0.01	_
20091112_RATP_SCD_0575	38	56	y	NULL	clo	NULL	B_GN	AFF	57	idtext0081	y	#####	spk2	145.24	145.26	0.01	_
20091112_RATP_SCD_0575	38	57	a	NULL	v	NULL	B_GVf	OBJ	54	idtext0081	avoir	P#3##s##	spk2	145.27	145.29	0.01	_
20091112_RATP_SCD_0575	38	58	quelque+chose	NULL	pro	NULL	I_GP	OBJ	57	idtext0082	quelque+chose	#####	spk2	145.3	145.71	0.01	_
20091112_RATP_SCD_0575	38	59	de	NULL	prep	NULL	B_GP	DEP	58	idtext0082	de	#####	spk2	145.72	145.74	0.01	_
20091112_RATP_SCD_0575	38	60	valeur	NULL	nc	NULL	I_GP	OBJ	59	idtext0082	valeur	##f#s##	spk2	145.75	146.21	0.04	_
20091112_RATP_SCD_0575	38	61	style	NULL	nc	NULL	B_GN	NOLINK	0	idtext0083	style	##m#s##	spk2	146.25	146.53	0.01	_
20091112_RATP_SCD_0575	38	62	euh	DISF_M	pres	NULL	NULL	NOLINK	0	idtext0083	euh	#####	spk2	146.54	146.91	0.04	_
20091112_RATP_SCD_0575	38	63	carte	NULL	nc	NULL	B_GN	ROOT	0	idtext0084	carte	##f#s##	spk2	146.95	147.11	0.01	_
20091112_RATP_SCD_0575	38	64	bancaire	NULL	adj	NULL	I_GN	MOD	63	idtext0084	bancaire	###s##	spk2	147.12	147.49	0.01	_
20091112_RATP_SCD_0575	38	65	ou	NULL	coo	NULL	I_GN	COORD	64	idtext0084	ou	#####	spk2	147.5	147.63	0.01	_
20091112_RATP_SCD_0575	38	66	autre	NULL	adj	NULL	I_GN	DEP_COORD	65	idtext0084	autre	###s##	spk2	147.64	147.79	0.01	_
20091112_RATP_SCD_0575	38	67	hein	DISF_M	pres	NULL	NULL	NOLINK	0	idtext0084	hein	#####	spk2	147.8	147.93	?	//

20091112_RATP_SCD_0575	39	1	ouais	NULL	adv	NULL	B_GADV	NOLINK	0	idtext0085	ouais	#####	spk3	148.15	148.36	0.01	_
20091112_RATP_SCD_0575	39	2	ça	NULL	pro	NULL	B_GN	SUJ_IMP	6	idtext0085	ça	#####	spk3	148.37	148.47	0.01	_
20091112_RATP_SCD_0575	39	3	je	NULL	cln	NULL	B_GN	SUJ	6	idtext0085	cln	#1##s##	spk3	148.48	148.51	0.01	_
20091112_RATP_SCD_0575	39	4	l'	NULL	clo	NULL	B_GN	OBJ	6	idtext0085	cla	#3##s##	spk3	148.52	148.55	0.01	_
20091112_RATP_SCD_0575	39	5	ai	NULL	v	NULL	B_GVf	AUX	6	idtext0085	avoir	P#1##s##	spk3	148.56	148.67	0.01	_
20091112_RATP_SCD_0575	39	6	fait	NULL	vppart	NULL	I_GVf	ROOT	0	idtext0085	faire	P#3##s##	spk3	148.68	148.78	0.01	_
20091112_RATP_SCD_0575	39	7	déjà	NULL	adv	NULL	B_GADV	MOD	8	idtext0085	déjà	#####	spk3	148.79	149.04	0.01	_
20091112_RATP_SCD_0575	39	8	ouais	NULL	adv	NULL	I_GADV	ROOT	0	idtext0085	ouais	#####	spk3	149.05	149.26	?	//

20091112_RATP_SCD_0575	40	1	sinon	NULL	coo	NULL	B_NULL	NOLINK	0	idtext0086	sinon	#####	spk2	148.28	149.26	?	//

20091112_RATP_SCD_0575	41	1	on	NULL	cln	NULL	B_GN	SUJ	2	idtext0087	cln	#3##s##	spk2	149.3	149.36	0.01	_
20091112_RATP_SCD_0575	41	2	sait	NULL	v	NULL	B_GVf	ROOT	0	idtext0087	savoir	P#3##s##	spk2	149.37	149.49	0.01	_
20091112_RATP_SCD_0575	41	3	jamais	NULL	adv	NULL	B_GADV	MOD	2	idtext0087	jamais	#####	spk2	149.5	149.78	0.01	_
20091112_RATP_SCD_0575	41	4	hein	DISF_M	pres	NULL	NULL	NOLINK	0	idtext0087	hein	#####	spk2	149.79	150.02	?	//

20091112_RATP_SCD_0575	42	1	quelque+chose	NULL	pro	NULL	B_GN	NOLINK	0	idtext0088	quelque+chose	#####	spk3	150.15	150.57	0.01	_
20091112_RATP_SCD_0575	42	2	d'	NULL	prep	NULL	B_NULL	ROOT	0	idtext0088	d'	#####	spk3	150.58	150.6	0.01	_
20091112_RATP_SCD_0575	42	3	autre	NULL	adj	NULL	B_GADJ	OBJ	2	idtext0088	autre	###s##	spk3	150.61	150.74	0.04	_
20091112_RATP_SCD_0575	42	4	faire	NULL	vinf	NULL	B_GVi	ROOT	0	idtext0089	faire	W#####	spk3	150.78	150.89	0.01	//
20091112_RATP_SCD_0575	42	5	une	NULL	det	NULL	B_GN	DET	6	idtext0089	un	##f#s##i	spk3	150.9	150.95	0.01	_
20091112_RATP_SCD_0575	42	6	déclaration	NULL	nc	NULL	I_GN	OBJ	4	idtext0089	déclaration	##f#s##	spk3	150.96	151.25	0.01	_
20091112_RATP_SCD_0575	42	7	de	NULL	prep	NULL	B_GP	DEP	6	idtext0089	de	#####	spk3	151.26	151.28	0.01	_
20091112_RATP_SCD_0575	42	8	vol	NULL	nc	NULL	I_GP	OBJ	7	idtext0089	vol	##m#s##	spk3	151.29	151.41	0.01	/
20091112_RATP_SCD_0575	42	9	parce+que	NULL	csu	NULL	B_NULL	MOD	4	idtext0089	parce+que	#####	spk3	151.42	151.56	0.01	_
20091112_RATP_SCD_0575	42	10	je	NULL	cln	NULL	B_GN	SUJ	11	idtext0089	cln	#1##s##	spk3	151.57	151.59	0.01	_
20091112_RATP_SCD_0575	42	11	pense	NULL	v	NULL	B_GVf	OBJ	9	idtext0089	penser	PS#13##s##	spk3	151.6	151.76	0.01	_
20091112_RATP_SCD_0575	42	12	qu'	NULL	csu	NULL	B_NULL	OBJ	11	idtext0089	qu'	#####	spk3	151.77	151.82	0.01	_
20091112_RATP_SCD_0575	42	13	on	NULL	cln	NULL	B_GN	SUJ	16	idtext0089	cln	#3##s##	spk3	151.83	151.89	0.01	_
20091112_RATP_SCD_0575	42	14	l'	NULL	clo	NULL	B_GN	OBJ	16	idtext0089	cla	#3##s##	spk3	151.9	151.92	0.01	_
20091112_RATP_SCD_0575	42	15	a	NULL	v	NULL	B_GVf	AUX	16	idtext0089	avoir	P#3##s##	spk3	151.93	151.96	0.01	_
20091112_RATP_SCD_0575	42	16	piqué	NULL	vppart	NULL	I_GVf	OBJ	12	idtext0089	piquer	K##m#s##	spk3	151.97	152.18	0.01	_
20091112_RATP_SCD_0575	42	17	de	NULL	prep	NULL	B_GP	DE_OBJ	16	idtext0089	de	#####	spk3	152.19	152.26	0.01	_
20091112_RATP_SCD_0575	42	18	ma	NULL	det	NULL	I_GP	DET	19	idtext0089	mon	##f#s##o	spk3	152.27	152.36	0.01	_
20091112_RATP_SCD_0575	42	19	poche	NULL	nc	NULL	I_GP	OBJ	17	idtext0089	poche	###s##	spk3	152.37	152.63	0.01	_
20091112_RATP_SCD_0575	42	20	en+fait	GREF	adv	NULL	B_GADV	NOLINK	0	idtext0089	en+fait	#####	spk3	152.64	153.08	?	//

20091112_RATP_SCD_0575	43	1	ah	DISF_M	pres	NULL	NULL	NOLINK	0	idtext0090	ah	#####	spk2	153.2	153.47	0.01	_
20091112_RATP_SCD_0575	43	2	ça	NULL	pro	NULL	B_GN	NOLINK	0	idtext0090	ça	#####	spk2	153.48	153.78	0.05	_
20091112_RATP_SCD_0575	43	3	oui	NULL	adv	NULL	B_GADV	NOLINK	0	idtext0091	oui	#####	spk2	153.83	153.88	0.01	_
20091112_RATP_SCD_0575	43	4	les	NULL	det	NULL	B_GN	DET	5	idtext0091	le	###p##d	spk2	153.89	154.06	0.01	_
20091112_RATP_SCD_0575	43	5	pickpockets	NULL	nc	NULL	I_GN	ROOT	0	idtext0091	pickpocket	###p##	spk2	154.07	154.66	0.01	_
20091112_RATP_SCD_0575	43	6	euh	DISF_M	pres	NULL	NULL	NOLINK	0	idtext0091	euh	#####	spk2	154.67	154.74	0.01	_
20091112_RATP_SCD_0575	43	7	bon	DISF_M	pres	NULL	NULL	NOLINK	0	idtext0091	bon	#####	spk2	154.75	155.04	0.06	_
20091112_RATP_SCD_0575	43	8	bon	DISF_M	pres	NULL	NULL	NOLINK	0	idtext0092	bon	#####	spk2	155.1	155.26	0.01	_
20091112_RATP_SCD_0575	43	9	ligne	NULL	nc	B_T	B_GN	NOLINK	0	idtext0092	ligne	##f#s##	spk2	155.27	155.86	0.01	_
20091112_RATP_SCD_0575	43	10	quatre	NULL	adj	I_T	I_GN	MOD	9	idtext0092	quatre	#####	spk2	155.87	156.22	0.04	_
20091112_RATP_SCD_0575	43	11	ligne	DISF_R	nc	NULL	NULL	NOLINK	0	idtext0093	ligne	##f#s##	spk2	156.26	156.45	0.01	//
20091112_RATP_SCD_0575	43	12	euh	DISF_M	pres	NULL	NULL	NOLINK	0	idtext0093	euh	#####	spk2	156.46	156.73	0.01	_
20091112_RATP_SCD_0575	43	13	ligne	NULL	nc	B_T	B_GN	ROOT	0	idtext0093	ligne	##f#s##	spk2	156.74	156.95	0.01	_
20091112_RATP_SCD_0575	43	14	quatre	NULL	adj	I_T	I_GN	MOD	13	idtext0093	quatre	#####	spk2	156.96	157.22	0.01	_
20091112_RATP_SCD_0575	43	15	ligne	NULL	nc	B_T	I_GN	MOD	13	idtext0093	ligne	##f#s##	spk2	157.23	157.51	0.01	//
20091112_RATP_SCD_0575	43	16	un	NULL	adj	I_T	I_GN	MOD	15	idtext0093	un	#####	spk2	157.52	157.6	0.04	_
20091112_RATP_SCD_0575	43	17	oui	NULL	adv	NULL	B_GADV	NOLINK	0	idtext0094	oui	#####	spk2	157.64	157.81	0.01	_
20091112_RATP_SCD_0575	43	18	c'	NULL	cln	NULL	B_GN	SUJ_IMP	19	idtext0094	ce	###s##	spk2	157.82	157.91	0.01	_
20091112_RATP_SCD_0575	43	19	est	NULL	v	NULL	B_GVf	ROOT	0	idtext0094	être	P#3##s##	spk2	157.92	157.94	0.01	_
20091112_RATP_SCD_0575	43	20	vrai	NULL	adj	NULL	B_GADJ	ATS	19	idtext0094	vrai	##m#s##	spk2	157.95	158.08	0.01	/
20091112_RATP_SCD_0575	43	21	que	NULL	csu	NULL	B_NULL	OBJ	20	idtext0094	que	#####	spk2	158.09	158.17	0.01	_
20091112_RATP_SCD_0575	43	22	c'	NULL	cln	NULL	B_GN	SUJ_IMP	23	idtext0094	ce	###s##	spk2	158.18	158.21	0.01	_
20091112_RATP_SCD_0575	43	23	est	NULL	v	NULL	B_GVf	OBJ	21	idtext0094	être	P#3##s##	spk2	158.22	158.57	1.27	//
20091112_RATP_SCD_0575	43	24	c'	DISF_R	cln	NULL	NULL	NOLINK	0	idtext0095	ce	###s##	spk2	159.84	159.86	0.01	_
20091112_RATP_SCD_0575	43	25	est	DISF_R	v	NULL	NULL	NOLINK	0	idtext0095	être	P#3##s##	spk2	159.87	159.97	0.01	_
20091112_RATP_SCD_0575	43	26	c'	DISF_R	cln	NULL	NULL	NOLINK	0	idtext0095	ce	###s##	spk2	159.98	160.09	0.01	_
20091112_RATP_SCD_0575	43	27	est	DISF_R	v	NULL	NULL	NOLINK	0	idtext0095	être	P#3##s##	spk2	160.1	160.22	0.01	_
20091112_RATP_SCD_0575	43	28	c'	NULL	cln	NULL	B_GN	SUJ_IMP	29	idtext0095	ce	###s##	spk2	160.23	160.34	0.01	_
20091112_RATP_SCD_0575	43	29	est	NULL	v	NULL	B_GVf	ROOT	0	idtext0095	être	P#3##s##	spk2	160.35	160.44	0.01	_
20091112_RATP_SCD_0575	43	30	les	NULL	det	NULL	B_GN	DET	31	idtext0095	le	###p##d	spk2	160.45	160.5	0.01	_
20091112_RATP_SCD_0575	43	31	lignes	NULL	nc	NULL	I_GN	ATS	29	idtext0095	ligne	##f#p##	spk2	160.51	160.61	0.01	_
20091112_RATP_SCD_0575	43	32	favorites	NULL	adj	NULL	B_GN	MOD	31	idtext0095	favori	##f#p##	spk2	160.62	161.09	0.01	/
20091112_RATP_SCD_0575	43	33	ça	NULL	pro	NULL	I_GN	SUJ_IMP	29	idtext0095	ça	#####	spk2	161.1	161.25	0.01	_
20091112_RATP_SCD_0575	43	34	hein	DISF_M	pres	NULL	NULL	NOLINK	0	idtext0095	hein	#####	spk2	161.26	161.35	?	//

20091112_RATP_SCD_0575	44	1	ouais	NULL	adv	NULL	B_GADV	NOLINK	0	idtext0096	ouais	#####	spk3	161.48	161.76	0.10	_
20091112_RATP_SCD_0575	44	2	je	NULL	cln	NULL	B_GN	SUJ	3	idtext0097	cln	#1##s##	spk3	161.86	161.97	0.01	_
20091112_RATP_SCD_0575	44	3	pense	NULL	v	NULL	B_GVf	ROOT	0	idtext0097	penser	PS#13##s##	spk3	161.98	162.22	0.01	_
20091112_RATP_SCD_0575	44	4	que	NULL	csu	NULL	B_NULL	OBJ	3	idtext0097	que	#####	spk3	162.23	162.31	0.01	_
20091112_RATP_SCD_0575	44	5	j'	NULL	cln	NULL	B_GN	SUJ	8	idtext0097	cln	#1##s##	spk3	162.32	162.39	0.01	_
20091112_RATP_SCD_0575	44	6	y	NULL	clo	NULL	B_GN	AFF	8	idtext0097	y	#####	spk3	162.4	162.44	0.01	_
20091112_RATP_SCD_0575	44	7	suis	NULL	v	NULL	B_GVf	AUX	8	idtext0097	être	P#1##s##	spk3	162.45	162.55	0.01	_
20091112_RATP_SCD_0575	44	8	passé	NULL	vppart	NULL	I_GVf	OBJ	4	idtext0097	passer	K##m#s##	spk3	162.56	162.85	0.01	_
20091112_RATP_SCD_0575	44	9	là	NULL	adv	NULL	B_GADV	MOD	8	idtext0097	là	#####	spk3	162.86	163.06	?	//

20091112_RATP_SCD_0575	45	1	c'	NULL	cln	NULL	B_GN	SUJ_IMP	2	idtext0098	ce	###s##	spk2	163.85	163.89	0.01	_
20091112_RATP_SCD_0575	45	2	est	NULL	v	NULL	B_GVf	ROOT	0	idtext0098	être	P#3##s##	spk2	163.9	163.92	0.01	_
20091112_RATP_SCD_0575	45	3	possible	NULL	adj	NULL	B_GADJ	ATS	2	idtext0098	possible	###s##	spk2	163.93	164.26	0.01	_
20091112_RATP_SCD_0575	45	4	hein	DISF_M	pres	NULL	NULL	NOLINK	0	idtext0098	hein	#####	spk2	164.27	164.46	?	//

20091112_RATP_SCD_0575	46	1	bon	DISF_M	pres	NULL	NULL	NOLINK	0	idtext0099	bon	#####	spk3	164.54	164.78	0.01	_
20091112_RATP_SCD_0575	46	2	bon	DISF_M	pres	NULL	NULL	NOLINK	0	idtext0099	bon	#####	spk3	164.79	164.99	0.01	_
20091112_RATP_SCD_0575	46	3	bon	DISF_M	pres	NULL	NULL	NOLINK	0	idtext0099	bon	#####	spk3	165.0	165.2	0.01	_
20091112_RATP_SCD_0575	46	4	bon	DISF_M	pres	NULL	NULL	NOLINK	0	idtext0099	bon	#####	spk3	165.21	165.45	0.60	//
20091112_RATP_SCD_0575	46	5	oh	DISF_M	pres	NULL	NULL	NOLINK	0	idtext0100	oh	#####	spk3	166.05	166.17	0.01	_
20091112_RATP_SCD_0575	46	6	écoutez	DISF_M	pres	NULL	NULL	NOLINK	0	idtext0100	écoutez	#####	spk3	166.18	166.35	0.01	_
20091112_RATP_SCD_0575	46	7	je	NULL	cln	NULL	B_GN	SUJ	8	idtext0100	cln	#1##s##	spk3	166.36	166.42	0.01	_
20091112_RATP_SCD_0575	46	8	vais	NULL	v	NULL	B_GVf	ROOT	0	idtext0100	aller	P#1##s##	spk3	166.43	166.48	0.01	_
20091112_RATP_SCD_0575	46	9	quand+même	NULL	adv	NULL	B_GVi	MOD	11	idtext0100	quand+même	#####	spk3	166.49	166.83	0.01	_
20091112_RATP_SCD_0575	46	10	euh	DISF_M	pres	NULL	NULL	NOLINK	0	idtext0100	euh	#####	spk3	166.84	166.89	0.01	_
20091112_RATP_SCD_0575	46	11	aller	NULL	vinf	NULL	I_GVi	OBJ	8	idtext0100	aller	W#####	spk3	166.9	166.99	0.01	_
20091112_RATP_SCD_0575	46	12	faire	NULL	vinf	NULL	B_GVi	OBJ	11	idtext0100	faire	W#####	spk3	167.0	167.09	0.01	_
20091112_RATP_SCD_0575	46	13	ma	NULL	det	NULL	B_GN	DET	14	idtext0100	mon	##f#s##o	spk3	167.1	167.16	0.01	_
20091112_RATP_SCD_0575	46	14	déclaration	NULL	nc	NULL	I_GN	OBJ	12	idtext0100	déclaration	##f#s##	spk3	167.17	167.76	0.04	_
20091112_RATP_SCD_0575	46	15	et+puis	NULL	coo	NULL	B_NULL	ROOT	0	idtext0101	et+puis	#####	spk3	167.8	167.91	0.01	_
20091112_RATP_SCD_0575	46	16	je	NULL	cln	NULL	B_GN	SUJ	18	idtext0101	cln	#1##s##	spk3	167.92	167.94	0.01	_
20091112_RATP_SCD_0575	46	17	vous	NULL	clo	NULL	B_GN	OBJ	18	idtext0101	cln	#2##p##	spk3	167.95	168.0	0.01	_
20091112_RATP_SCD_0575	46	18	rappellerai	NULL	v	NULL	B_GVf	DEP_COORD	15	idtext0101	rappeler	F#1##s##	spk3	168.01	168.21	0.01	_
20091112_RATP_SCD_0575	46	19	à	NULL	prep	NULL	B_GP	MOD	18	idtext0101	à	#####	spk3	168.22	168.24	0.01	_
20091112_RATP_SCD_0575	46	20	dix-sept	NULL	det	B_H	I_GP	DET	21	idtext0101	dix-sept	#####	spk3	168.25	168.5	0.01	_
20091112_RATP_SCD_0575	46	21	heures	NULL	nc	I_H	I_GP	OBJ	19	idtext0101	heure	##f#p##	spk3	168.51	168.66	0.01	_
20091112_RATP_SCD_0575	46	22	et	NULL	coo	NULL	B_NULL	COORD	18	idtext0101	et	#####	spk3	168.67	168.69	0.01	_
20091112_RATP_SCD_0575	46	23	on	NULL	cln	NULL	B_GN	SUJ	24	idtext0101	cln	#3##s##	spk3	168.7	168.76	0.01	_
20091112_RATP_SCD_0575	46	24	verra	NULL	v	NULL	B_GVf	DEP_COORD	22	idtext0101	voir	F#3##s##	spk3	168.77	168.96	0.01	_
20091112_RATP_SCD_0575	46	25	bien	NULL	adv	NULL	B_GADV	MOD	24	idtext0101	bien	#####	spk3	168.97	169.2	?	_

20091112_RATP_SCD_0575	47	1	on	NULL	cln	NULL	B_GN	SUJ	2	idtext0102	cln	#3##s##	spk2	169.24	169.36	0.01	_
20091112_RATP_SCD_0575	47	2	sait	NULL	v	NULL	B_GVf	ROOT	0	idtext0102	savoir	P#3##s##	spk2	169.37	169.52	0.01	_
20091112_RATP_SCD_0575	47	3	jamais	NULL	adv	NULL	B_GADV	MOD	2	idtext0102	jamais	#####	spk2	169.53	169.83	0.04	_
20091112_RATP_SCD_0575	47	4	tout+à+fait	NULL	adv	NULL	B_GADV	NOLINK	0	idtext0103	tout+à+fait	#####	spk2	169.87	170.21	?	_

20091112_RATP_SCD_0575	48	1	OK	NULL	adv	NULL	B_GADV	NOLINK	0	idtext0104	ok	#####	spk3	170.28	170.72	0.04	_
20091112_RATP_SCD_0575	48	2	merci	NULL	adv	NULL	B_GADV	NOLINK	0	idtext0105	merci	#####	spk3	170.76	170.97	0.01	_
20091112_RATP_SCD_0575	48	3	monsieur	NULL	nc	NULL	B_GN	NOLINK	0	idtext0105	Monsieur	##m#s##	spk3	170.98	171.34	?	//

20091112_RATP_SCD_0575	49	1	je	NULL	cln	NULL	B_GN	SUJ	4	idtext0106	cln	#1##s##	spk2	171.38	171.4	0.01	_
20091112_RATP_SCD_0575	49	2	vous	NULL	clo	NULL	B_GN	OBJ	4	idtext0106	cln	#2##p##	spk2	171.41	171.46	0.01	_
20091112_RATP_SCD_0575	49	3	en	NULL	clo	NULL	B_GN	DE_OBJ	4	idtext0106	en	#####	spk2	171.47	171.49	0.01	_
20091112_RATP_SCD_0575	49	4	prie	NULL	v	NULL	B_GVf	ROOT	0	idtext0106	prier	PS#13##s##	spk2	171.5	171.68	?	//

20091112_RATP_SCD_0575	50	1	au+revoir	NULL	adv	NULL	B_GADV	NOLINK	0	idtext0107	au+revoir	#####	spk3	171.84	172.13	?	//

20091112_RATP_SCD_0575	51	1	bonne	NULL	adj	NULL	B_GN	MOD	2	idtext0108	bon	##f#s##	spk2	172.17	172.25	0.01	_
20091112_RATP_SCD_0575	51	2	fin	NULL	nc	NULL	I_GN	ROOT	0	idtext0108	fin	###s##	spk2	172.26	172.32	0.01	_
20091112_RATP_SCD_0575	51	3	de	NULL	prep	NULL	B_GP	DEP	2	idtext0108	de	#####	spk2	172.33	172.35	0.01	_
20091112_RATP_SCD_0575	51	4	journée	NULL	nc	NULL	I_GP	OBJ	3	idtext0108	journée	##f#s##	spk2	172.36	172.53	0.01	_
20091112_RATP_SCD_0575	51	5	au+revoir	NULL	adv	NULL	B_GADV	NOLINK	0	idtext0108	au+revoir	#####	spk2	172.54	172.81	?	//

