20091112_RATP_SCD_1299	1	1	NNAAMMEE	NULL	np	B_HU	B_GN	ROOT	0	idtext0000	ANONYM	NULL	spk1	2.77	2.96	0.04	_
20091112_RATP_SCD_1299	1	2	bonsoir	NULL	nc	NULL	B_GN	NOLINK	0	idtext0001	bonsoir	##m#s##	spk1	3.0	3.53	?	//

20091112_RATP_SCD_1299	2	1	oui	NULL	adv	NULL	B_GADV	NOLINK	0	idtext0002	oui	#####	spk2	3.67	4.02	0.01	_
20091112_RATP_SCD_1299	2	2	bonsoir	NULL	nc	NULL	B_GN	NOLINK	0	idtext0002	bonsoir	##m#s##	spk2	4.03	4.48	?	//

20091112_RATP_SCD_1299	3	1	je	NULL	cln	NULL	B_GN	SUJ	3	idtext0003	cln	#1##s##	spk2	4.52	4.71	0.01	_
20091112_RATP_SCD_1299	3	2	vous	NULL	clo	NULL	B_GN	OBJ	3	idtext0003	cln	#2##p##	spk2	4.72	4.77	0.01	_
20091112_RATP_SCD_1299	3	3	appelle	NULL	v	NULL	B_GVf	ROOT	0	idtext0003	appeler	PS#13##s##	spk2	4.78	5.12	0.01	_
20091112_RATP_SCD_1299	3	4	je	NULL	cln	NULL	B_GN	SUJ	5	idtext0003	cln	#1##s##	spk2	5.13	5.42	0.01	_
20091112_RATP_SCD_1299	3	5	suis	NULL	v	NULL	B_GVf	ROOT	0	idtext0003	être	P#1##s##	spk2	5.43	5.54	0.01	_
20091112_RATP_SCD_1299	3	6	un+peu	NULL	adv	NULL	B_GADV	MOD	5	idtext0003	un+peu	#####	spk2	5.55	6.73	0.01	_
20091112_RATP_SCD_1299	3	7	euh	DISF_M	pres	NULL	NULL	NOLINK	0	idtext0003	euh	#####	spk2	6.74	6.79	0.08	_
20091112_RATP_SCD_1299	3	8	alors	NULL	adv	NULL	B_GADV	NOLINK	0	idtext0004	alors	#####	spk2	6.87	7.2	0.01	_
20091112_RATP_SCD_1299	3	9	j'	NULL	cln	NULL	B_GN	SUJ	11	idtext0004	cln	#1##s##	spk2	7.21	7.23	0.01	_
20091112_RATP_SCD_1299	3	10	ai	NULL	v	NULL	B_GVf	AUX	11	idtext0004	avoir	P#1##s##	spk2	7.24	7.28	0.01	_
20091112_RATP_SCD_1299	3	11	pris	NULL	vppart	NULL	I_GVf	ROOT	0	idtext0004	prendre	K##m###	spk2	7.29	7.53	0.01	_
20091112_RATP_SCD_1299	3	12	le	NULL	det	NULL	B_GN	DET	13	idtext0004	le	##m#s##d	spk2	7.54	7.7	0.01	_
20091112_RATP_SCD_1299	3	13	bus	NULL	nc	NULL	I_GN	OBJ	11	idtext0004	bus	##m###	spk2	7.71	8.24	0.11	_
20091112_RATP_SCD_1299	3	14	euh	DISF_M	pres	NULL	NULL	NOLINK	0	idtext0005	euh	#####	spk2	8.35	8.57	0.01	_
20091112_RATP_SCD_1299	3	15	le	NULL	det	NULL	B_GN	DET	16	idtext0005	le	##m#s##d	spk2	8.58	8.81	0.01	_
20091112_RATP_SCD_1299	3	16	deux+cents	NULL	nc	B_T	I_GN	ROOT	0	idtext0005	deux+cents	#####	spk2	8.82	9.62	0.78	//
20091112_RATP_SCD_1299	3	17	euh	DISF_M	pres	NULL	NULL	NOLINK	0	idtext0006	euh	#####	spk2	10.4	10.46	0.01	_
20091112_RATP_SCD_1299	3	18	comment	NULL	adv	NULL	B_GADV	MOD	20	idtext0006	comment	#####	spk2	10.47	11.06	0.01	_
20091112_RATP_SCD_1299	3	19	on	NULL	cln	NULL	B_GN	SUJ	20	idtext0006	cln	#3##s##	spk2	11.07	11.24	0.01	_
20091112_RATP_SCD_1299	3	20	appelle	NULL	v	NULL	B_GVf	ROOT	0	idtext0006	appeler	PS#13##s##	spk2	11.25	11.45	0.01	_
20091112_RATP_SCD_1299	3	21	ça	NULL	pro	NULL	B_GN	OBJ	20	idtext0006	ça	#####	spk2	11.46	11.82	0.04	_
20091112_RATP_SCD_1299	3	22	le	NULL	det	NULL	B_GN	DET	23	idtext0007	le	##m#s##d	spk2	11.86	12.17	0.01	_
20091112_RATP_SCD_1299	3	23	deux+cent+quatre-vingt-deux	NULL	nc	B_T	I_GN	ROOT	0	idtext0007	deux+cent+quatre-vingt-deux	#####	spk2	12.18	14.71	0.04	_
20091112_RATP_SCD_1299	3	24	je	NULL	cln	NULL	B_GN	SUJ	25	idtext0008	cln	#1##s##	spk2	14.75	14.96	0.01	_
20091112_RATP_SCD_1299	3	25	crois	NULL	v	NULL	B_GVf	ROOT	0	idtext0008	croire	P#12##s##	spk2	14.97	15.37	0.54	_
20091112_RATP_SCD_1299	3	26	alors	NULL	adv	NULL	B_GADV	NOLINK	0	idtext0009	alors	#####	spk2	15.91	16.06	0.01	_
20091112_RATP_SCD_1299	3	27	attendez	NULL	v	NULL	B_GVf	NOLINK	0	idtext0009	attendre	P#2##p##	spk2	16.07	16.47	0.01	_
20091112_RATP_SCD_1299	3	28	que	NULL	csu	NULL	B_NULL	ROOT	0	idtext0009	que	#####	spk2	16.48	16.5	0.01	_
20091112_RATP_SCD_1299	3	29	je	NULL	cln	NULL	B_GN	SUJ	31	idtext0009	cln	#1##s##	spk2	16.51	16.74	0.01	_
20091112_RATP_SCD_1299	3	30	donc	NULL	coo	NULL	B_NULL	NOLINK	0	idtext0009	donc	#####	spk2	16.75	16.96	0.01	_
20091112_RATP_SCD_1299	3	31	deux+cent+quatre-vingt-cinq	NULL	nc	NULL	B_GN	OBJ	28	idtext0009	deux+cent+quatre-vingt-cinq	#####	spk2	16.97	18.31	?	//

20091112_RATP_SCD_1299	4	1	d'accord	NULL	adv	NULL	B_GADV	NOLINK	0	idtext0010	d'accord	#####	spk1	18.83	19.63	?	//

20091112_RATP_SCD_1299	5	1	pour	NULL	prep	NULL	B_GP	NOLINK	0	idtext0011	pour	#####	spk2	19.67	20.04	0.01	_
20091112_RATP_SCD_1299	5	2	euh	DISF_M	pres	NULL	NULL	NOLINK	0	idtext0011	euh	#####	spk2	20.05	20.07	0.01	_
20091112_RATP_SCD_1299	5	3	je	NULL	cln	NULL	I_GP	SUJ	4	idtext0011	cln	#1##s##	spk2	20.08	20.17	0.01	_
20091112_RATP_SCD_1299	5	4	connais	NULL	v	NULL	B_GVfn	ROOT	0	idtext0011	connaître	P#12##s##	spk2	20.18	20.4	0.01	_
20091112_RATP_SCD_1299	5	5	pas	NULL	advneg	NULL	I_GVfn	MOD	4	idtext0011	pas	#####	spk2	20.41	20.54	0.01	_
20091112_RATP_SCD_1299	5	6	bien	NULL	adv	NULL	B_GADV	MOD	4	idtext0011	bien	#####	spk2	20.55	20.73	0.01	_
20091112_RATP_SCD_1299	5	7	la	NULL	det	NULL	B_GN	DET	8	idtext0011	le	##m#s##d	spk2	20.74	20.81	0.01	_
20091112_RATP_SCD_1299	5	8	ligne	NULL	nc	NULL	I_GN	OBJ	4	idtext0011	ligne	##f#s##	spk2	20.82	21.05	0.01	_
20091112_RATP_SCD_1299	5	9	hein	DISF_M	pres	NULL	NULL	NOLINK	0	idtext0011	hein	#####	spk2	21.06	21.21	0.04	_
20091112_RATP_SCD_1299	5	10	parce+que	NULL	csu	NULL	B_NULL	ROOT	0	idtext0012	parce+que	#####	spk2	21.25	21.49	0.01	_
20091112_RATP_SCD_1299	5	11	moi	NULL	pro	NULL	B_GN	SUJ	13	idtext0012	moi	#####	spk2	21.5	21.6	0.01	_
20091112_RATP_SCD_1299	5	12	j'	NULL	cln	NULL	B_GN	SUJ	13	idtext0012	cln	#1##s##	spk2	21.61	21.69	0.01	_
20091112_RATP_SCD_1299	5	13	habite	NULL	v	NULL	B_GVf	OBJ	10	idtext0012	habiter	PS#13##s##	spk2	21.7	21.98	0.01	_
20091112_RATP_SCD_1299	5	14	sur	NULL	prep	NULL	B_GP	P_OBJ_LOC	13	idtext0012	sur	#####	spk2	21.99	22.14	0.01	_
20091112_RATP_SCD_1299	5	15	Neuilly-sur-Seine	NULL	nc	B_A	I_GP	OBJ	14	idtext0012	Neuilly-sur-Seine	##m#s##	spk2	22.15	22.86	0.04	_
20091112_RATP_SCD_1299	5	16	et	NULL	coo	NULL	B_NULL	ROOT	0	idtext0013	et	#####	spk2	22.9	22.98	0.01	_
20091112_RATP_SCD_1299	5	17	j'	NULL	cln	NULL	B_GN	SUJ	19	idtext0013	cln	#1##s##	spk2	22.99	23.05	0.01	_
20091112_RATP_SCD_1299	5	18	ai	NULL	v	NULL	B_GVf	AUX	19	idtext0013	avoir	P#1##s##	spk2	23.06	23.11	0.01	_
20091112_RATP_SCD_1299	5	19	pris	NULL	vppart	NULL	I_GVf	DEP_COORD	16	idtext0013	prendre	K##m###	spk2	23.12	23.31	0.01	_
20091112_RATP_SCD_1299	5	20	une	NULL	det	NULL	B_GN	DET	21	idtext0013	un	##f#s##i	spk2	23.32	23.41	0.01	_
20091112_RATP_SCD_1299	5	21	amende	NULL	nc	NULL	I_GN	OBJ	19	idtext0013	amende	##f#s##	spk2	23.42	24.01	0.45	/
20091112_RATP_SCD_1299	5	22	mais	NULL	coo	NULL	B_NULL	ROOT	0	idtext0014	mais	#####	spk2	24.46	24.53	0.01	_
20091112_RATP_SCD_1299	5	23	moi	NULL	pro	NULL	B_GN	SUJ	33	idtext0014	moi	#####	spk2	24.54	24.73	0.01	_
20091112_RATP_SCD_1299	5	24	ce+qui	NULL	prorel	NULL	B_NULL	SUJ	27	idtext0014	ce+qui	#####	spk2	24.74	24.9	0.01	_
20091112_RATP_SCD_1299	5	25	s'	NULL	clr	NULL	B_GVf	AFF	27	idtext0014	se	#3##p##	spk2	24.91	25.0	0.01	_
20091112_RATP_SCD_1299	5	26	est	NULL	v	NULL	I_GVf	AUX	27	idtext0014	être	P#3##s##	spk2	25.01	25.07	0.01	_
20091112_RATP_SCD_1299	5	27	passé	NULL	vppart	NULL	I_GVf	ROOT	0	idtext0014	passer	K##m#s##	spk2	25.08	25.45	0.01	//
20091112_RATP_SCD_1299	5	28	c'	NULL	cln	NULL	B_GN	SUJ_IMP	29	idtext0014	ce	###s##	spk2	25.46	25.55	0.01	_
20091112_RATP_SCD_1299	5	29	est	NULL	v	NULL	B_GVf	DEP_COORD	22	idtext0014	être	P#3##s##	spk2	25.56	25.66	0.01	_
20091112_RATP_SCD_1299	5	30	quand	NULL	csu	NULL	B_NULL	ATS	29	idtext0014	quand	#####	spk2	25.67	25.8	0.01	_
20091112_RATP_SCD_1299	5	31	j'	NULL	cln	NULL	B_GN	SUJ	33	idtext0014	cln	#1##s##	spk2	25.81	25.89	0.01	_
20091112_RATP_SCD_1299	5	32	ai	NULL	v	NULL	B_GVf	AUX	33	idtext0014	avoir	P#1##s##	spk2	25.9	25.97	0.01	_
20091112_RATP_SCD_1299	5	33	validé	NULL	vppart	NULL	I_GVf	OBJ	30	idtext0014	valider	K##m#s##	spk2	25.98	26.8	0.01	_
20091112_RATP_SCD_1299	5	34	dans	NULL	prep	NULL	B_GP	P_OBJ_LOC	33	idtext0014	dans	#####	spk2	26.81	27.0	0.01	_
20091112_RATP_SCD_1299	5	35	le	NULL	det	NULL	I_GP	DET	36	idtext0014	le	##m#s##d	spk2	27.01	27.18	0.01	_
20091112_RATP_SCD_1299	5	36	bus	NULL	nc	NULL	I_GP	OBJ	34	idtext0014	bus	##m###	spk2	27.19	27.47	?	//

20091112_RATP_SCD_1299	6	1	oui	NULL	adv	NULL	B_GADV	NOLINK	0	idtext0015	oui	#####	spk1	27.61	27.86	?	//

20091112_RATP_SCD_1299	7	1	je	NULL	cln	NULL	B_GN	SUJ	4	idtext0016	cln	#1##s##	spk2	28.01	28.04	0.01	_
20091112_RATP_SCD_1299	7	2	l'	NULL	clo	NULL	B_GN	OBJ	4	idtext0016	cla	#3##s##	spk2	28.05	28.07	0.01	_
20091112_RATP_SCD_1299	7	3	ai	NULL	v	NULL	B_GVf	AUX	4	idtext0016	avoir	P#1##s##	spk2	28.08	28.12	0.01	_
20091112_RATP_SCD_1299	7	4	entouré	NULL	vppart	NULL	I_GVf	ROOT	0	idtext0016	entourer	K##m#s##	spk2	28.13	28.58	0.01	_
20091112_RATP_SCD_1299	7	5	avec	NULL	prep	NULL	B_NULL	P_OBJ	4	idtext0016	avec	#####	spk2	28.59	28.83	0.01	_
20091112_RATP_SCD_1299	7	6	les	DISF_R	det	NULL	NULL	NOLINK	0	idtext0016	le	###p##d	spk2	28.84	29.06	0.01	_
20091112_RATP_SCD_1299	7	7	le	NULL	det	NULL	B_NULL	NOLINK	0	idtext0016	le	##m#s##d	spk2	29.07	29.47	0.04	_
20091112_RATP_SCD_1299	7	8	mon	DISF_R	det	NULL	NULL	NOLINK	0	idtext0017	mon	###s##o	spk2	29.51	29.8	0.01	_
20091112_RATP_SCD_1299	7	9	m()	DISF_T	tronc	NULL	NULL	NOLINK	0	idtext0017	m()	#####	spk2	29.81	29.91	0.01	_
20091112_RATP_SCD_1299	7	10	n()	DISF_T	tronc	NULL	NULL	NOLINK	0	idtext0017	n()	#####	spk2	29.92	30.06	0.01	_
20091112_RATP_SCD_1299	7	11	mes	DISF_R	det	NULL	NULL	NOLINK	0	idtext0017	mon	###p##o	spk2	30.07	30.33	0.01	_
20091112_RATP_SCD_1299	7	12	n()	DISF_T	tronc	NULL	NULL	NOLINK	0	idtext0017	n()	#####	spk2	30.34	30.36	0.01	_
20091112_RATP_SCD_1299	7	13	mes	NULL	det	NULL	B_GN	DET	14	idtext0017	mon	###p##o	spk2	30.37	30.54	0.01	_
20091112_RATP_SCD_1299	7	14	écouteurs	NULL	nc	NULL	I_GN	ROOT	0	idtext0017	écouteur	##m#p##	spk2	30.55	31.14	?	//

20091112_RATP_SCD_1299	8	1	d'accord	NULL	adv	NULL	B_GADV	NOLINK	0	idtext0018	d'accord	#####	spk1	32.59	33.89	?	//

20091112_RATP_SCD_1299	9	1	c'est-à-dire	NULL	coo	NULL	B_NULL	ROOT	0	idtext0019	c'est-à-dire	#####	spk2	32.47	33.6	0.01	_
20091112_RATP_SCD_1299	9	2	que	NULL	csu	NULL	B_NULL	OBJ	1	idtext0020	que	#####	spk2	33.61	33.64	0.01	_
20091112_RATP_SCD_1299	9	3	j'	NULL	cln	NULL	B_GN	SUJ	4	idtext0020	cln	#1##s##	spk2	33.65	33.67	0.01	_
20091112_RATP_SCD_1299	9	4	ai	NULL	v	NULL	B_GVf	OBJ	2	idtext0020	avoir	P#1##s##	spk2	33.68	33.89	?	//

20091112_RATP_SCD_1299	10	1	j'	NULL	cln	NULL	B_GN	SUJ	3	idtext0021	cln	#1##s##	spk2	33.93	33.95	0.01	_
20091112_RATP_SCD_1299	10	2	ai	NULL	v	NULL	B_GVf	AUX	3	idtext0021	avoir	P#1##s##	spk2	33.96	34.02	0.01	_
20091112_RATP_SCD_1299	10	3	mis	NULL	vppart	NULL	I_GVf	ROOT	0	idtext0021	mettre	J#12##s##	spk2	34.03	34.16	0.01	_
20091112_RATP_SCD_1299	10	4	mon	NULL	det	NULL	B_GN	DET	5	idtext0021	mon	###s##o	spk2	34.17	34.41	0.01	_
20091112_RATP_SCD_1299	10	5	MP3	NULL	np	NULL	I_GN	OBJ	3	idtext0021	MP3	#####	spk2	34.42	34.95	0.01	_
20091112_RATP_SCD_1299	10	6	je	NULL	cln	NULL	B_GN	SUJ	9	idtext0021	cln	#1##s##	spk2	34.96	35.05	0.01	_
20091112_RATP_SCD_1299	10	7	l'	NULL	clo	NULL	B_GN	OBJ	9	idtext0021	cla	#3##s##	spk2	35.06	35.08	0.01	_
20091112_RATP_SCD_1299	10	8	ai	NULL	v	NULL	B_GVf	AUX	9	idtext0021	avoir	P#1##s##	spk2	35.09	35.11	0.01	_
20091112_RATP_SCD_1299	10	9	entouré	NULL	vppart	NULL	I_GVf	ROOT	0	idtext0021	entourer	K##m#s##	spk2	35.12	35.45	0.01	_
20091112_RATP_SCD_1299	10	10	avec	NULL	prep	NULL	B_GP	P_OBJ	9	idtext0021	avec	#####	spk2	35.46	35.63	0.01	_
20091112_RATP_SCD_1299	10	11	le	NULL	det	NULL	I_GP	DET	12	idtext0021	le	##m#s##d	spk2	35.64	35.75	0.01	_
20091112_RATP_SCD_1299	10	12	fil	NULL	nc	NULL	I_GP	OBJ	10	idtext0021	fil	##m#s##	spk2	35.76	36.19	?	//

20091112_RATP_SCD_1299	11	1	oui	NULL	adv	NULL	B_GADV	NOLINK	0	idtext0022	oui	#####	spk1	36.39	37.12	?	//

20091112_RATP_SCD_1299	12	1	donc	NULL	coo	NULL	B_NULL	ROOT	0	idtext0023	donc	#####	spk2	37.21	37.39	0.01	_
20091112_RATP_SCD_1299	12	2	j'	NULL	cln	NULL	B_GN	SUJ	5	idtext0023	cln	#1##s##	spk2	37.4	37.45	0.01	_
20091112_RATP_SCD_1299	12	3	ai	NULL	v	NULL	B_GVfn	AUX	5	idtext0023	avoir	P#1##s##	spk2	37.46	37.54	0.01	_
20091112_RATP_SCD_1299	12	4	pas	NULL	advneg	NULL	I_GVfn	MOD	5	idtext0023	pas	#####	spk2	37.55	37.72	0.01	_
20091112_RATP_SCD_1299	12	5	trouvé	NULL	vppart	NULL	I_GVfn	DEP_COORD	1	idtext0023	trouver	K##m#s##	spk2	37.73	38.49	0.01	_
20091112_RATP_SCD_1299	12	6	euh	DISF_M	pres	NULL	NULL	NOLINK	0	idtext0023	euh	#####	spk2	38.5	39.12	0.04	_
20091112_RATP_SCD_1299	12	7	le	NULL	det	NULL	B_GN	DET	8	idtext0024	le	##m#s##d	spk2	39.16	39.25	0.01	_
20091112_RATP_SCD_1299	12	8	ticket	NULL	nc	NULL	I_GN	ROOT	0	idtext0024	ticket	##m#s##	spk2	39.26	39.92	0.01	_
20091112_RATP_SCD_1299	12	9	euh	DISF_M	pres	NULL	NULL	NOLINK	0	idtext0024	euh	#####	spk2	39.93	40.56	0.04	_
20091112_RATP_SCD_1299	12	10	ben	DISF_M	pres	NULL	NULL	NOLINK	0	idtext0025	ben	#####	spk2	40.6	40.68	0.01	_
20091112_RATP_SCD_1299	12	11	en	NULL	prep	NULL	B_GP	ROOT	0	idtext0025	en	#####	spk2	40.69	40.96	0.01	_
20091112_RATP_SCD_1299	12	12	sortant	NULL	vprespart	NULL	I_GP	OBJ	11	idtext0025	sortir	G#####	spk2	40.97	41.25	0.01	_
20091112_RATP_SCD_1299	12	13	du	NULL	prep	NULL	B_GP	P_OBJ_LOC	12	idtext0025	du	#####	spk2	41.26	41.41	0.01	_
20091112_RATP_SCD_1299	12	14	bus	NULL	nc	NULL	I_GP	OBJ	13	idtext0025	bus	##m###	spk2	41.42	41.85	?	//

20091112_RATP_SCD_1299	13	1	oui	NULL	adv	NULL	B_GADV	NOLINK	0	idtext0026	oui	#####	spk1	42.47	42.68	?	//

20091112_RATP_SCD_1299	14	1	donc	NULL	coo	NULL	B_NULL	ROOT	0	idtext0027	donc	#####	spk2	43.13	43.36	0.01	/
20091112_RATP_SCD_1299	14	2	moi	NULL	pro	NULL	B_GN	A_OBJ	11	idtext0027	moi	#####	spk2	43.37	43.51	0.01	_
20091112_RATP_SCD_1299	14	3	la	NULL	det	NULL	B_GN	DET	4	idtext0027	le	##m#s##d	spk2	43.52	43.64	0.01	_
20091112_RATP_SCD_1299	14	4	personne	NULL	nc	NULL	I_GN	OBJ	11	idtext0027	personne	##f#s##	spk2	43.65	44.11	0.01	_
20091112_RATP_SCD_1299	14	5	elle	DISF_R	cln	NULL	NULL	NOLINK	0	idtext0027	cln	#3#f#s##	spk2	44.12	44.24	0.01	_
20091112_RATP_SCD_1299	14	6	m'	DISF_R	clo	NULL	NULL	NOLINK	0	idtext0027	cla	#1##s##	spk2	44.25	44.31	0.01	_
20091112_RATP_SCD_1299	14	7	a	DISF_R	v	NULL	NULL	NOLINK	0	idtext0027	avoir	P#3##s##	spk2	44.32	44.76	0.01	//
20091112_RATP_SCD_1299	14	8	elle	NULL	cln	NULL	B_GN	SUJ	11	idtext0027	cln	#3#f#s##	spk2	44.77	44.84	0.01	_
20091112_RATP_SCD_1299	14	9	m'	NULL	clo	NULL	B_GN	A_OBJ	11	idtext0027	cla	#1##s##	spk2	44.85	44.9	0.01	_
20091112_RATP_SCD_1299	14	10	a	NULL	v	NULL	B_GVf	AUX	11	idtext0027	avoir	P#3##s##	spk2	44.91	45.01	0.01	_
20091112_RATP_SCD_1299	14	11	fait	NULL	vppart	NULL	I_GVf	DEP_COORD	1	idtext0027	faire	P#3##s##	spk2	45.02	45.3	0.01	_
20091112_RATP_SCD_1299	14	12	une	NULL	det	NULL	B_GN	DET	13	idtext0027	un	##f#s##i	spk2	45.31	45.41	0.01	_
20091112_RATP_SCD_1299	14	13	amende	NULL	nc	NULL	I_GN	OBJ	11	idtext0027	amende	##f#s##	spk2	45.42	46.02	?	//

20091112_RATP_SCD_1299	15	1	oui	NULL	adv	NULL	B_GADV	NOLINK	0	idtext0028	oui	#####	spk1	46.06	46.27	?	//

20091112_RATP_SCD_1299	16	1	et	NULL	coo	NULL	B_NULL	ROOT	0	idtext0029	et	#####	spk2	46.88	47.12	0.01	_
20091112_RATP_SCD_1299	16	2	je	NULL	cln	NULL	B_GN	SUJ	3	idtext0029	cln	#1##s##	spk2	47.13	47.17	0.01	_
20091112_RATP_SCD_1299	16	3	trouve	NULL	v	NULL	B_GVf	DEP_COORD	1	idtext0029	trouver	PS#13##s##	spk2	47.18	47.6	0.01	_
20091112_RATP_SCD_1299	16	4	enfin	NULL	adv	NULL	B_GADV	NOLINK	0	idtext0029	enfin	#####	spk2	47.61	47.93	0.04	_
20091112_RATP_SCD_1299	16	5	j'	DISF_R	cln	NULL	NULL	NOLINK	0	idtext0030	cln	#1##s##	spk2	47.97	48.0	0.01	_
20091112_RATP_SCD_1299	16	6	ai	DISF_R	v	NULL	NULL	NOLINK	0	idtext0030	avoir	P#1##s##	spk2	48.01	48.42	0.01	_
20091112_RATP_SCD_1299	16	7	j'	NULL	cln	NULL	B_GN	SUJ	8	idtext0030	cln	#1##s##	spk2	48.43	48.48	0.01	_
20091112_RATP_SCD_1299	16	8	ai	NULL	v	NULL	B_GVf	ROOT	0	idtext0030	avoir	P#1##s##	spk2	48.49	48.56	0.01	_
20091112_RATP_SCD_1299	16	9	le	NULL	det	NULL	B_GN	DET	10	idtext0030	le	##m#s##d	spk2	48.57	48.7	0.01	_
20091112_RATP_SCD_1299	16	10	justificatif	NULL	nc	NULL	I_GN	OBJ	8	idtext0030	justificatif	##m#s##	spk2	48.71	49.82	0.04	_
20091112_RATP_SCD_1299	16	11	euh	DISF_M	pres	NULL	NULL	NOLINK	0	idtext0031	euh	#####	spk2	49.86	50.0	0.01	_
20091112_RATP_SCD_1299	16	12	j'	NULL	cln	NULL	B_GN	SUJ	13	idtext0031	cln	#1##s##	spk2	50.01	50.09	0.01	_
20091112_RATP_SCD_1299	16	13	ai	NULL	v	NULL	B_GVf	ROOT	0	idtext0031	avoir	P#1##s##	spk2	50.1	50.15	0.01	_
20091112_RATP_SCD_1299	16	14	les	NULL	det	NULL	B_GN	DET	16	idtext0031	le	###p##d	spk2	50.16	50.29	0.01	_
20091112_RATP_SCD_1299	16	15	deux	NULL	adj	NULL	I_GN	MOD	16	idtext0031	deux	#####	spk2	50.3	50.63	0.01	_
20091112_RATP_SCD_1299	16	16	tickets	NULL	nc	NULL	I_GN	OBJ	13	idtext0031	ticket	##m#p##	spk2	50.64	51.0	0.04	_
20091112_RATP_SCD_1299	16	17	donc	NULL	coo	NULL	B_NULL	ROOT	0	idtext0032	donc	#####	spk2	51.04	51.25	0.01	_
20091112_RATP_SCD_1299	16	18	là	NULL	adv	NULL	B_GADV	DEP_COORD	17	idtext0032	là	#####	spk2	51.26	51.38	0.01	_
20091112_RATP_SCD_1299	16	19	du	NULL	prep	NULL	B_GP	DEP	18	idtext0032	du	#####	spk2	51.39	51.51	0.01	_
20091112_RATP_SCD_1299	16	20	retour	NULL	nc	NULL	I_GP	OBJ	19	idtext0032	retour	##m#s##	spk2	51.52	52.01	?	//

20091112_RATP_SCD_1299	17	1	alors	NULL	adv	NULL	B_GADV	NOLINK	0	idtext0033	alors	#####	spk1	52.63	52.84	0.01	_
20091112_RATP_SCD_1299	17	2	attendez	NULL	v	NULL	B_GVf	NOLINK	0	idtext0033	attendre	P#2##p##	spk1	52.85	53.32	0.01	_
20091112_RATP_SCD_1299	17	3	j'	NULL	cln	NULL	B_GN	SUJ	7	idtext0033	cln	#1##s##	spk1	53.33	53.47	0.01	_
20091112_RATP_SCD_1299	17	4	ai	NULL	v	NULL	B_GVfn	AUX	7	idtext0033	avoir	P#1##s##	spk1	53.48	53.52	0.01	_
20091112_RATP_SCD_1299	17	5	pas	NULL	advneg	NULL	I_GVfn	MOD	4	idtext0033	pas	#####	spk1	53.53	53.62	0.01	_
20091112_RATP_SCD_1299	17	6	bien	NULL	adv	NULL	I_GVfn	MOD	4	idtext0033	bien	#####	spk1	53.63	53.77	0.01	_
20091112_RATP_SCD_1299	17	7	compris	NULL	vppart	NULL	I_GVfn	ROOT	0	idtext0033	comprendre	J#12##s##	spk1	53.78	54.12	?	//

20091112_RATP_SCD_1299	18	1	celui-là	NULL	pro	NULL	B_GN	NOLINK	0	idtext0034	celui-là	#####	spk2	52.66	54.12	?	_

20091112_RATP_SCD_1299	19	1	donc	NULL	coo	NULL	B_NULL	ROOT	0	idtext0035	donc	#####	spk1	54.16	54.3	0.01	_
20091112_RATP_SCD_1299	19	2	en+fait	GREF	adv	NULL	B_GADV	NOLINK	0	idtext0035	en+fait	#####	spk1	54.31	54.67	0.01	_
20091112_RATP_SCD_1299	19	3	vous	NULL	cln	NULL	B_GN	SUJ	6	idtext0035	cln	#2##p##	spk1	54.68	54.8	0.01	_
20091112_RATP_SCD_1299	19	4	avez	NULL	v	NULL	B_GVf	AUX	5	idtext0035	avoir	P#2##p##	spk1	54.81	55.02	0.01	_
20091112_RATP_SCD_1299	19	5	été	NULL	vppart	NULL	I_GVf	AUX	6	idtext0035	être	K#####	spk1	55.03	55.26	0.01	_
20091112_RATP_SCD_1299	19	6	verbalisée	NULL	vppart	NULL	I_GVf	DEP_COORD	1	idtext0035	verbaliser	K##f#s##	spk1	55.27	55.85	0.01	_
20091112_RATP_SCD_1299	19	7	dans	NULL	prep	NULL	B_GP	P_OBJ_LOC	6	idtext0035	dans	#####	spk1	55.86	55.97	0.01	_
20091112_RATP_SCD_1299	19	8	le	NULL	det	NULL	I_GP	DET	9	idtext0035	le	##m#s##d	spk1	55.98	56.05	0.01	_
20091112_RATP_SCD_1299	19	9	bus	NULL	nc	B_T	I_GP	OBJ	7	idtext0035	bus	##m###	spk1	56.06	56.2	0.01	_
20091112_RATP_SCD_1299	19	10	deux+cent+quatre-vingt-cinq	NULL	adj	I_T	I_GP	MOD	9	idtext0035	deux+cent+quatre-vingt-cinq	#####	spk1	56.21	57.38	0.34	/
20091112_RATP_SCD_1299	19	11	alors+que	NULL	csu	NULL	B_NULL	ROOT	0	idtext0036	alors+que	#####	spk1	57.72	58.02	0.01	_
20091112_RATP_SCD_1299	19	12	vous	NULL	cln	NULL	B_GN	SUJ	13	idtext0036	cln	#2##p##	spk1	58.03	58.24	0.01	_
20091112_RATP_SCD_1299	19	13	avez	NULL	v	NULL	B_GVf	OBJ	11	idtext0036	avoir	P#2##p##	spk1	58.25	58.77	0.01	_
20091112_RATP_SCD_1299	19	14	un	NULL	det	NULL	B_GN	DET	15	idtext0036	un	##m#s##i	spk1	58.78	58.89	0.01	_
20091112_RATP_SCD_1299	19	15	ticket	NULL	nc	NULL	I_GN	OBJ	13	idtext0036	ticket	##m#s##	spk1	58.9	59.25	0.04	_
20091112_RATP_SCD_1299	19	16	mais	NULL	coo	NULL	B_NULL	ROOT	0	idtext0037	mais	#####	spk1	59.29	59.34	0.01	_
20091112_RATP_SCD_1299	19	17	que	NULL	csu	NULL	B_NULL	ROOT	0	idtext0037	que	#####	spk1	59.35	59.42	0.01	_
20091112_RATP_SCD_1299	19	18	vous	DISF_R	cln	NULL	NULL	NOLINK	0	idtext0037	cln	#2##p##	spk1	59.43	59.6	0.01	_
20091112_RATP_SCD_1299	19	19	n'	DISF_R	clneg	NULL	NULL	NOLINK	0	idtext0037	n'	#####	spk1	59.61	59.66	0.01	_
20091112_RATP_SCD_1299	19	20	a()	DISF_T	tronc	NULL	NULL	NOLINK	0	idtext0037	a()	#####	spk1	59.67	59.73	0.01	_
20091112_RATP_SCD_1299	19	21	vous	NULL	cln	NULL	B_GN	SUJ	23	idtext0037	cln	#2##p##	spk1	59.74	59.89	0.01	_
20091112_RATP_SCD_1299	19	22	ne	NULL	clneg	NULL	B_GVfn	MOD	23	idtext0037	ne	#####	spk1	59.9	59.99	0.01	_
20091112_RATP_SCD_1299	19	23	trouvez	NULL	v	NULL	I_GVfn	OBJ	17	idtext0037	trouver	P#2##p##	spk1	60.0	60.26	0.01	_
20091112_RATP_SCD_1299	19	24	plus	NULL	advneg	NULL	I_GVfn	MOD	23	idtext0037	plus	#####	spk1	60.27	60.41	0.01	_
20091112_RATP_SCD_1299	19	25	le	NULL	det	NULL	B_GN	DET	26	idtext0037	le	##m#s##d	spk1	60.42	60.44	0.01	_
20091112_RATP_SCD_1299	19	26	ticket	NULL	nc	NULL	I_GN	OBJ	23	idtext0037	ticket	##m#s##	spk1	60.45	60.72	0.01	_
20091112_RATP_SCD_1299	19	27	c'	NULL	cln	NULL	B_GN	SUJ_IMP	28	idtext0037	ce	###s##	spk1	60.73	60.81	0.01	_
20091112_RATP_SCD_1299	19	28	est	NULL	v	NULL	B_GVf	DEP_COORD	16	idtext0037	être	P#3##s##	spk1	60.82	60.85	0.01	_
20091112_RATP_SCD_1299	19	29	ça	NULL	pro	NULL	B_GN	ATS	28	idtext0037	ça	#####	spk1	60.86	61.04	?	_

20091112_RATP_SCD_1299	20	1	euh	DISF_M	pres	NULL	NULL	NOLINK	0	idtext0038	euh	#####	spk2	61.56	61.61	0.01	_
20091112_RATP_SCD_1299	20	2	si	NULL	csu	NULL	B_NULL	NOLINK	0	idtext0038	si	#####	spk2	61.62	61.68	0.01	_
20091112_RATP_SCD_1299	20	3	en+fait	GREF	adv	NULL	B_GADV	NOLINK	0	idtext0038	en+fait	#####	spk2	61.69	62.14	?	_

20091112_RATP_SCD_1299	21	1	euh	DISF_M	pres	NULL	NULL	NOLINK	0	idtext0039	euh	#####	spk1	61.28	61.3	0.01	_
20091112_RATP_SCD_1299	21	2	pas	NULL	advneg	NULL	B_NULL	NOLINK	0	idtext0039	pas	#####	spk1	61.31	61.63	0.01	_
20091112_RATP_SCD_1299	21	3	le	NULL	det	NULL	B_GN	DET	4	idtext0039	le	##m#s##d	spk1	61.64	61.74	0.01	_
20091112_RATP_SCD_1299	21	4	ticket	NULL	nc	NULL	I_GN	ROOT	0	idtext0039	ticket	##m#s##	spk1	61.75	62.14	?	//

20091112_RATP_SCD_1299	22	1	le	NULL	det	NULL	B_GN	DET	2	idtext0040	le	##m#s##d	spk2	62.32	62.49	0.01	_
20091112_RATP_SCD_1299	22	2	ticket	NULL	nc	NULL	I_GN	SUJ	5	idtext0040	ticket	##m#s##	spk2	62.5	62.82	0.01	_
20091112_RATP_SCD_1299	22	3	en+fait	GREF	adv	NULL	B_GADV	NOLINK	0	idtext0040	en+fait	#####	spk2	62.83	63.11	0.01	_
20091112_RATP_SCD_1299	22	4	c'	NULL	cln	NULL	B_GN	SUJ_IMP	5	idtext0040	ce	###s##	spk2	63.12	63.16	0.01	_
20091112_RATP_SCD_1299	22	5	est	NULL	v	NULL	B_GVfn	ROOT	0	idtext0040	être	P#3##s##	spk2	63.17	63.23	0.01	_
20091112_RATP_SCD_1299	22	6	pas	NULL	advneg	NULL	I_GVfn	MOD	5	idtext0040	pas	#####	spk2	63.24	63.35	0.01	_
20091112_RATP_SCD_1299	22	7	ça	NULL	pro	NULL	B_GN	ATS	5	idtext0040	ça	#####	spk2	63.36	63.58	0.01	_
20091112_RATP_SCD_1299	22	8	c'	NULL	cln	NULL	B_GN	SUJ_IMP	9	idtext0040	ce	###s##	spk2	63.59	63.61	0.01	_
20091112_RATP_SCD_1299	22	9	est	NULL	v	NULL	B_GVf	ROOT	0	idtext0040	être	P#3##s##	spk2	63.62	63.69	0.01	_
20091112_RATP_SCD_1299	22	10	que	NULL	csu	NULL	B_NULL	ATS	9	idtext0040	que	#####	spk2	63.7	63.73	0.01	_
20091112_RATP_SCD_1299	22	11	j'	NULL	cln	NULL	B_GN	SUJ	12	idtext0040	cln	#1##s##	spk2	63.74	63.77	0.01	_
20091112_RATP_SCD_1299	22	12	avais	NULL	v	NULL	B_GVf	OBJ	10	idtext0040	avoir	I#12##s##	spk2	63.78	64.05	0.01	_
20091112_RATP_SCD_1299	22	13	faim	NULL	nc	NULL	B_GN	OBJ	12	idtext0040	faim	##f#s##	spk2	64.06	64.56	0.32	//
20091112_RATP_SCD_1299	22	14	et	NULL	coo	NULL	B_NULL	ROOT	0	idtext0041	et	#####	spk2	64.88	65.0	0.01	_
20091112_RATP_SCD_1299	22	15	j'	NULL	cln	NULL	B_GN	SUJ	17	idtext0041	cln	#1##s##	spk2	65.01	65.03	0.01	_
20091112_RATP_SCD_1299	22	16	ai	NULL	v	NULL	B_GVf	AUX	17	idtext0041	avoir	P#1##s##	spk2	65.04	65.1	0.01	_
20091112_RATP_SCD_1299	22	17	mangé	NULL	vppart	NULL	I_GVf	DEP_COORD	14	idtext0041	manger	K##m#s##	spk2	65.11	65.51	0.01	_
20091112_RATP_SCD_1299	22	18	entre+temps	NULL	adv	NULL	B_GADV	MOD	17	idtext0041	entre+temps	#####	spk2	65.52	66.27	0.04	_
20091112_RATP_SCD_1299	22	19	juste	NULL	adv	NULL	B_GADV	NOLINK	0	idtext0042	juste	###s##	spk2	66.31	66.71	0.01	_
20091112_RATP_SCD_1299	22	20	et	NULL	coo	NULL	B_NULL	NOLINK	0	idtext0042	et	#####	spk2	66.72	66.98	0.01	_
20091112_RATP_SCD_1299	22	21	j'	NULL	cln	NULL	B_GN	SUJ	22	idtext0042	cln	#1##s##	spk2	66.99	67.01	0.01	_
20091112_RATP_SCD_1299	22	22	ai	NULL	v	NULL	B_GVf	ROOT	0	idtext0042	avoir	P#1##s##	spk2	67.02	67.06	0.01	_
20091112_RATP_SCD_1299	22	23	emba()	DISF_T	tronc	NULL	NULL	NOLINK	0	idtext0042	emba()	#####	spk2	67.07	67.35	0.04	_
20091112_RATP_SCD_1299	22	24	j'	NULL	cln	NULL	B_GN	SUJ	25	idtext0043	cln	#1##s##	spk2	67.39	67.41	0.01	_
20091112_RATP_SCD_1299	22	25	ai	NULL	v	NULL	B_GVf	ROOT	0	idtext0043	avoir	P#1##s##	spk2	67.42	67.92	0.01	_
20091112_RATP_SCD_1299	22	26	quand	NULL	csu	NULL	B_NULL	MOD	25	idtext0043	quand	#####	spk2	67.93	68.21	0.01	_
20091112_RATP_SCD_1299	22	27	j'	NULL	cln	NULL	B_GN	SUJ	29	idtext0043	cln	#1##s##	spk2	68.22	68.24	0.01	_
20091112_RATP_SCD_1299	22	28	ai	NULL	v	NULL	B_GVf	AUX	29	idtext0043	avoir	P#1##s##	spk2	68.25	68.31	0.01	_
20091112_RATP_SCD_1299	22	29	fait	NULL	vppart	NULL	I_GVf	OBJ	26	idtext0043	faire	P#3##s##	spk2	68.32	68.5	0.01	_
20091112_RATP_SCD_1299	22	30	le	NULL	det	NULL	B_NULL	NOLINK	0	idtext0043	le	##m#s##d	spk2	68.51	68.9	0.04	_
20091112_RATP_SCD_1299	22	31	pour	NULL	prep	NULL	B_GP	ROOT	0	idtext0044	pour	#####	spk2	68.94	69.05	0.01	_
20091112_RATP_SCD_1299	22	32	pas	NULL	advneg	NULL	I_GP	MOD	33	idtext0044	pas	#####	spk2	69.06	69.25	0.01	_
20091112_RATP_SCD_1299	22	33	perdre	NULL	vinf	NULL	I_GP	OBJ	31	idtext0044	perdre	W#####	spk2	69.26	69.87	0.01	_
20091112_RATP_SCD_1299	22	34	dans	NULL	prep	NULL	B_GP	P_OBJ_LOC	33	idtext0044	dans	#####	spk2	69.88	70.09	0.01	_
20091112_RATP_SCD_1299	22	35	la	NULL	det	NULL	I_GP	DET	36	idtext0044	le	##m#s##d	spk2	70.1	70.2	0.01	_
20091112_RATP_SCD_1299	22	36	poche	NULL	nc	NULL	I_GP	OBJ	34	idtext0044	poche	###s##	spk2	70.21	70.53	0.47	/
20091112_RATP_SCD_1299	22	37	je	NULL	cln	NULL	B_GN	SUJ	40	idtext0045	cln	#1##s##	spk2	71.0	71.02	0.01	_
20091112_RATP_SCD_1299	22	38	l'	NULL	clo	NULL	B_GN	OBJ	40	idtext0045	cla	#3##s##	spk2	71.03	71.05	0.01	_
20091112_RATP_SCD_1299	22	39	ai	NULL	v	NULL	B_GVf	AUX	40	idtext0045	avoir	P#1##s##	spk2	71.06	71.08	0.01	_
20091112_RATP_SCD_1299	22	40	entouré	NULL	vppart	NULL	I_GVf	ROOT	0	idtext0045	entourer	K##m#s##	spk2	71.09	71.53	0.01	_
20091112_RATP_SCD_1299	22	41	avec	NULL	prep	NULL	B_GP	P_OBJ	40	idtext0045	avec	#####	spk2	71.54	71.68	0.01	_
20091112_RATP_SCD_1299	22	42	le	NULL	det	NULL	I_GP	DET	43	idtext0045	le	##m#s##d	spk2	71.69	71.71	0.01	_
20091112_RATP_SCD_1299	22	43	fil	NULL	nc	NULL	I_GP	OBJ	41	idtext0045	fil	##m#s##	spk2	71.72	71.89	0.01	_
20091112_RATP_SCD_1299	22	44	de	NULL	prep	NULL	B_GP	DEP	43	idtext0045	de	#####	spk2	71.9	72.03	0.01	_
20091112_RATP_SCD_1299	22	45	mes	NULL	det	NULL	I_GP	DET	46	idtext0045	mon	###p##o	spk2	72.04	72.23	0.01	_
20091112_RATP_SCD_1299	22	46	écouteurs	NULL	nc	NULL	I_GP	OBJ	44	idtext0045	écouteur	##m#p##	spk2	72.24	72.77	?	//

20091112_RATP_SCD_1299	23	1	oui	NULL	adv	NULL	B_GADV	NOLINK	0	idtext0046	oui	#####	spk1	73.12	73.34	?	//

20091112_RATP_SCD_1299	24	1	avec	NULL	prep	NULL	B_GP	ROOT	0	idtext0047	avec	#####	spk2	73.84	74.08	0.01	_
20091112_RATP_SCD_1299	24	2	mon	NULL	det	NULL	I_GP	DET	3	idtext0047	mon	###s##o	spk2	74.09	74.25	0.01	_
20091112_RATP_SCD_1299	24	3	écouteur	NULL	nc	NULL	I_GP	OBJ	1	idtext0047	écouteur	##m#s##	spk2	74.26	74.81	?	//

20091112_RATP_SCD_1299	25	1	oui	NULL	adv	NULL	B_GADV	NOLINK	0	idtext0048	oui	#####	spk1	74.85	75.08	?	//

20091112_RATP_SCD_1299	26	1	mais	NULL	coo	NULL	B_NULL	ROOT	0	idtext0049	mais	#####	spk2	75.12	75.18	0.01	_
20091112_RATP_SCD_1299	26	2	le	NULL	det	NULL	B_GN	DET	3	idtext0049	le	##m#s##d	spk2	75.19	75.21	0.01	_
20091112_RATP_SCD_1299	26	3	problème	NULL	nc	NULL	I_GN	SUJ	5	idtext0049	problème	##m#s##	spk2	75.22	75.58	0.01	_
20091112_RATP_SCD_1299	26	4	c'	NULL	cln	NULL	B_GN	SUJ_IMP	5	idtext0049	ce	###s##	spk2	75.59	75.67	0.01	_
20091112_RATP_SCD_1299	26	5	est	NULL	v	NULL	B_GVf	DEP_COORD	1	idtext0049	être	P#3##s##	spk2	75.68	75.76	0.01	_
20091112_RATP_SCD_1299	26	6	que	NULL	csu	NULL	B_NULL	ATS	5	idtext0049	que	#####	spk2	75.77	75.79	0.01	_
20091112_RATP_SCD_1299	26	7	j'	NULL	cln	NULL	B_GN	SUJ	10	idtext0049	cln	#1##s##	spk2	75.8	75.87	0.01	_
20091112_RATP_SCD_1299	26	8	ai	NULL	v	NULL	B_GVfn	AUX	10	idtext0049	avoir	P#1##s##	spk2	75.88	75.92	0.01	_
20091112_RATP_SCD_1299	26	9	pas	NULL	advneg	NULL	I_GVfn	MOD	10	idtext0049	pas	#####	spk2	75.93	76.1	0.01	_
20091112_RATP_SCD_1299	26	10	pensé	NULL	vppart	NULL	I_GVfn	OBJ	6	idtext0049	penser	K##m#s##	spk2	76.11	76.37	0.01	_
20091112_RATP_SCD_1299	26	11	à	NULL	prep	NULL	B_GP	A_OBJ	10	idtext0049	à	#####	spk2	76.38	76.56	0.01	_
20091112_RATP_SCD_1299	26	12	ça	NULL	pro	NULL	I_GP	OBJ	11	idtext0049	ça	#####	spk2	76.57	76.75	0.01	_
20091112_RATP_SCD_1299	26	13	moi	NULL	pro	NULL	I_GP	SUJ	10	idtext0049	moi	#####	spk2	76.76	76.98	0.04	_
20091112_RATP_SCD_1299	26	14	j'	NULL	cln	NULL	B_GN	SUJ	16	idtext0050	cln	#1##s##	spk2	77.02	77.04	0.01	_
20091112_RATP_SCD_1299	26	15	étais	NULL	v	NULL	B_GVf	AUX	16	idtext0050	être	I#12##s##	spk2	77.05	77.25	0.01	_
20091112_RATP_SCD_1299	26	16	fatiguée	NULL	vppart	NULL	I_GVf	ROOT	0	idtext0050	fatiguer	K##f#s##	spk2	77.26	77.99	0.04	_
20091112_RATP_SCD_1299	26	17	et	NULL	coo	NULL	B_NULL	ROOT	0	idtext0051	et	#####	spk2	78.03	78.06	0.01	_
20091112_RATP_SCD_1299	26	18	ils	NULL	cln	NULL	B_GN	SUJ	20	idtext0051	cln	#3#m#p##	spk2	78.07	78.16	0.01	_
20091112_RATP_SCD_1299	26	19	sont	NULL	v	NULL	B_GVf	AUX	20	idtext0051	être	P#3##p##	spk2	78.17	78.35	0.01	_
20091112_RATP_SCD_1299	26	20	arrivés	NULL	vppart	NULL	I_GVf	DEP_COORD	17	idtext0051	arriver	K##m#p##	spk2	78.36	78.8	0.01	_
20091112_RATP_SCD_1299	26	21	donc	NULL	coo	NULL	B_NULL	NOLINK	0	idtext0051	donc	#####	spk2	78.81	79.09	0.01	_
20091112_RATP_SCD_1299	26	22	euh	DISF_M	pres	NULL	NULL	NOLINK	0	idtext0051	euh	#####	spk2	79.1	79.5	0.43	_
20091112_RATP_SCD_1299	26	23	moi	NULL	pro	NULL	B_GN	A_OBJ	30	idtext0052	moi	#####	spk2	79.93	80.07	0.01	_
20091112_RATP_SCD_1299	26	24	la	NULL	det	NULL	B_GN	DET	25	idtext0052	le	##m#s##d	spk2	80.08	80.21	0.01	_
20091112_RATP_SCD_1299	26	25	personne	NULL	nc	NULL	I_GN	OBJ	30	idtext0052	personne	##f#s##	spk2	80.22	80.7	0.01	_
20091112_RATP_SCD_1299	26	26	eh+ben	DISF_M	pres	NULL	NULL	NOLINK	0	idtext0052	eh+ben	#####	spk2	80.71	81.05	0.01	//
20091112_RATP_SCD_1299	26	27	elle	NULL	cln	NULL	B_GN	SUJ	30	idtext0052	cln	#3#f#s##	spk2	81.06	81.12	0.01	_
20091112_RATP_SCD_1299	26	28	m'	NULL	clo	NULL	B_GN	A_OBJ	30	idtext0052	cla	#1##s##	spk2	81.13	81.2	0.01	_
20091112_RATP_SCD_1299	26	29	a	NULL	v	NULL	B_GVf	AUX	30	idtext0052	avoir	P#3##s##	spk2	81.21	81.29	0.01	_
20091112_RATP_SCD_1299	26	30	verbalisée	NULL	vppart	NULL	I_GVf	ROOT	0	idtext0052	verbaliser	K##f#s##	spk2	81.3	82.0	0.04	_
20091112_RATP_SCD_1299	26	31	mais	NULL	coo	NULL	B_NULL	ROOT	0	idtext0053	mais	#####	spk2	82.04	82.2	0.01	_
20091112_RATP_SCD_1299	26	32	moi	NULL	pro	NULL	B_GN	SUJ	34	idtext0053	moi	#####	spk2	82.21	82.35	0.01	_
20091112_RATP_SCD_1299	26	33	j'	NULL	cln	NULL	B_GN	SUJ	34	idtext0053	cln	#1##s##	spk2	82.36	82.44	0.01	_
20091112_RATP_SCD_1299	26	34	ai	NULL	v	NULL	B_GVf	DEP_COORD	31	idtext0053	avoir	P#1##s##	spk2	82.45	82.51	0.01	_
20091112_RATP_SCD_1299	26	35	mon	NULL	det	NULL	B_GN	DET	36	idtext0053	mon	###s##o	spk2	82.52	82.63	0.01	_
20091112_RATP_SCD_1299	26	36	titre	NULL	nc	NULL	I_GN	OBJ	34	idtext0053	titre	##m#s##	spk2	82.64	82.75	0.01	_
20091112_RATP_SCD_1299	26	37	de	NULL	prep	NULL	B_GP	DEP	36	idtext0053	de	#####	spk2	82.76	82.98	0.01	_
20091112_RATP_SCD_1299	26	38	transport	NULL	nc	NULL	I_GP	OBJ	37	idtext0053	transport	##m#s##	spk2	82.99	83.57	0.01	_
20091112_RATP_SCD_1299	26	39	quoi	DISF_M	pres	NULL	NULL	NOLINK	0	idtext0053	quoi	#####	spk2	83.58	83.77	?	_

20091112_RATP_SCD_1299	27	1	d'accord	NULL	adv	NULL	B_GADV	NOLINK	0	idtext0054	d'accord	#####	spk1	84.25	84.52	0.01	_
20091112_RATP_SCD_1299	27	2	donc	NULL	coo	NULL	B_NULL	ROOT	0	idtext0054	donc	#####	spk1	84.53	84.69	0.01	_
20091112_RATP_SCD_1299	27	3	en+fait	GREF	adv	NULL	B_GADV	NOLINK	0	idtext0054	en+fait	#####	spk1	84.7	84.95	0.01	_
20091112_RATP_SCD_1299	27	4	vous	NULL	cln	NULL	B_GN	SUJ	5	idtext0054	cln	#2##p##	spk1	84.96	85.08	0.01	_
20091112_RATP_SCD_1299	27	5	avez	NULL	v	NULL	B_GVf	DEP_COORD	2	idtext0054	avoir	P#2##p##	spk1	85.09	85.3	0.01	_
20091112_RATP_SCD_1299	27	6	le	NULL	det	NULL	B_GN	DET	7	idtext0054	le	##m#s##d	spk1	85.31	85.41	0.01	_
20091112_RATP_SCD_1299	27	7	titre	NULL	nc	NULL	I_GN	OBJ	5	idtext0054	titre	##m#s##	spk1	85.42	85.66	0.01	_
20091112_RATP_SCD_1299	27	8	de	NULL	prep	NULL	B_GP	DEP	7	idtext0054	de	#####	spk1	85.67	85.76	0.01	_
20091112_RATP_SCD_1299	27	9	transport	NULL	nc	NULL	I_GP	OBJ	8	idtext0054	transport	##m#s##	spk1	85.77	86.31	?	//

20091112_RATP_SCD_1299	28	1	vous	NULL	cln	NULL	B_GN	SUJ	3	idtext0055	cln	#2##p##	spk1	86.35	86.42	0.01	_
20091112_RATP_SCD_1299	28	2	avez	NULL	v	NULL	B_GVf	AUX	3	idtext0055	avoir	P#2##p##	spk1	86.43	86.66	0.01	_
20091112_RATP_SCD_1299	28	3	payé	NULL	vppart	NULL	I_GVf	ROOT	0	idtext0055	payer	K##m#s##	spk1	86.67	87.02	0.01	_
20091112_RATP_SCD_1299	28	4	le	NULL	det	NULL	B_NULL	NOLINK	0	idtext0055	le	##m#s##d	spk1	87.03	87.62	?	//

20091112_RATP_SCD_1299	29	1	mais	NULL	coo	NULL	B_NULL	ROOT	0	idtext0056	mais	#####	spk2	86.35	86.56	0.01	_
20091112_RATP_SCD_1299	29	2	j'	NULL	cln	NULL	B_GN	SUJ	5	idtext0056	cln	#1##s##	spk2	86.57	86.6	0.01	_
20091112_RATP_SCD_1299	29	3	ai	NULL	v	NULL	B_GVfn	AUX	5	idtext0056	avoir	P#1##s##	spk2	86.61	86.66	0.01	_
20091112_RATP_SCD_1299	29	4	pas	NULL	advneg	NULL	I_GVfn	MOD	5	idtext0056	pas	#####	spk2	86.67	86.82	0.01	_
20091112_RATP_SCD_1299	29	5	pensé	NULL	vppart	NULL	I_GVfn	DEP_COORD	1	idtext0056	penser	K##m#s##	spk2	86.83	87.15	0.01	_
20091112_RATP_SCD_1299	29	6	à	NULL	prep	NULL	B_GP	P_OBJ	5	idtext0056	à	#####	spk2	87.16	87.4	0.01	_
20091112_RATP_SCD_1299	29	7	ça	NULL	pro	NULL	I_GP	OBJ	6	idtext0056	ça	#####	spk2	87.41	87.62	?	_

20091112_RATP_SCD_1299	30	1	d'accord	NULL	adv	NULL	B_GADV	NOLINK	0	idtext0057	d'accord	#####	spk1	87.66	87.97	0.01	_
20091112_RATP_SCD_1299	30	2	vous	NULL	cln	NULL	B_GN	SUJ	5	idtext0057	cln	#2##p##	spk1	87.98	88.09	0.01	_
20091112_RATP_SCD_1299	30	3	l'	NULL	clo	NULL	B_GN	OBJ	5	idtext0057	cla	#3##s##	spk1	88.1	88.15	0.01	_
20091112_RATP_SCD_1299	30	4	avez	NULL	v	NULL	B_GVf	AUX	5	idtext0057	avoir	P#2##p##	spk1	88.16	88.39	0.01	_
20091112_RATP_SCD_1299	30	5	payé	NULL	vppart	NULL	I_GVf	ROOT	0	idtext0057	payer	K##m#s##	spk1	88.4	88.64	0.01	_
20091112_RATP_SCD_1299	30	6	le	NULL	det	NULL	B_GN	DET	7	idtext0057	le	##m#s##d	spk1	88.65	88.76	0.01	_
20091112_RATP_SCD_1299	30	7	PV	NULL	nc	NULL	I_GN	OBJ	5	idtext0057	PV	#####	spk1	88.77	89.03	?	//

20091112_RATP_SCD_1299	31	1	ou	NULL	coo	NULL	B_NULL	NOLINK	0	idtext0058	ou	#####	spk1	89.07	89.11	0.01	_
20091112_RATP_SCD_1299	31	2	pas	NULL	advneg	NULL	B_NULL	NOLINK	0	idtext0058	pas	#####	spk1	89.12	89.72	0.04	_
20091112_RATP_SCD_1299	31	3	non	NULL	adv	NULL	B_GADV	MOD	5	idtext0060	non	#####	spk1	89.76	89.93	0.01	_
20091112_RATP_SCD_1299	31	4	d'accord	DISF_R	adv	NULL	NULL	NOLINK	0	idtext0060	d'accord	#####	spk1	89.94	90.43	0.01	_
20091112_RATP_SCD_1299	31	5	d'accord	NULL	adv	NULL	I_GADV	ROOT	0	idtext0060	d'accord	#####	spk1	90.44	91.64	?	_

20091112_RATP_SCD_1299	32	1	non	DISF_R	adv	NULL	NULL	NOLINK	0	idtext0059	non	#####	spk2	89.17	89.52	0.01	_
20091112_RATP_SCD_1299	32	2	non	NULL	adv	NULL	B_GADV	NOLINK	0	idtext0059	non	#####	spk2	89.53	89.72	0.17	_
20091112_RATP_SCD_1299	32	3	eh+ben	DISF_M	pres	NULL	NULL	NOLINK	0	idtext0061	eh+ben	#####	spk2	89.89	90.32	0.01	/
20091112_RATP_SCD_1299	32	4	j'	NULL	cln	NULL	B_GN	SUJ	5	idtext0061	cln	#1##s##	spk2	90.33	90.41	0.01	_
20091112_RATP_SCD_1299	32	5	ai	NULL	v	NULL	B_GVfn	ROOT	0	idtext0061	avoir	P#1##s##	spk2	90.42	90.48	0.01	_
20091112_RATP_SCD_1299	32	6	pas	NULL	advneg	NULL	I_GVfn	MOD	5	idtext0061	pas	#####	spk2	90.49	90.62	0.01	_
20091112_RATP_SCD_1299	32	7	PV	NULL	nc	NULL	B_GN	NOLINK	0	idtext0061	PV	#####	spk2	90.63	91.15	0.01	_
20091112_RATP_SCD_1299	32	8	le	NULL	det	NULL	B_NULL	NOLINK	0	idtext0061	le	##m#s##d	spk2	91.16	91.31	0.01	_
20091112_RATP_SCD_1299	32	9	payé	NULL	vppart	NULL	B_GVf	NOLINK	0	idtext0061	payer	K##m#s##	spk2	91.32	91.64	?	_

20091112_RATP_SCD_1299	33	1	vous	NULL	cln	NULL	B_GN	SUJ	2	idtext0062	cln	#2##p##	spk1	91.71	91.85	0.01	_
20091112_RATP_SCD_1299	33	2	patientez	NULL	v	NULL	B_GVf	ROOT	0	idtext0062	patienter	P#2##p##	spk1	91.86	92.21	0.01	_
20091112_RATP_SCD_1299	33	3	un	NULL	det	NULL	B_GN	DET	4	idtext0062	un	##m#s##i	spk1	92.22	92.3	0.01	_
20091112_RATP_SCD_1299	33	4	instant	NULL	nc	NULL	I_GN	MOD	2	idtext0062	instant	##m#s##	spk1	92.31	92.74	?	//

20091112_RATP_SCD_1299	34	1	merci	NULL	adv	NULL	B_GADV	NOLINK	0	idtext0063	merci	#####	spk1	93.03	93.35	?	//

20091112_RATP_SCD_1299	35	1	ouais	NULL	adv	NULL	B_GADV	NOLINK	0	idtext0064	ouais	#####	spk2	93.03	93.35	?	//

20091112_RATP_SCD_1299	36	1	madame	NULL	nc	NULL	B_GN	NOLINK	0	idtext0065	Monsieur	##f#s##	spk1	107.3	107.62	0.01	_
20091112_RATP_SCD_1299	36	2	s'il+vous+plaît	NULL	adv	NULL	B_GADV	NOLINK	0	idtext0065	s'il+vous+plaît	#####	spk1	107.63	108.44	?	//

20091112_RATP_SCD_1299	37	1	oui	NULL	adv	NULL	B_GADV	NOLINK	0	idtext0066	oui	#####	spk2	107.3	108.44	?	//

20091112_RATP_SCD_1299	38	1	alors	NULL	adv	NULL	B_GADV	NOLINK	0	idtext0067	alors	#####	spk1	108.5	108.76	0.01	_
20091112_RATP_SCD_1299	38	2	donc	NULL	coo	NULL	B_NULL	NOLINK	0	idtext0067	donc	#####	spk1	108.77	109.08	0.01	_
20091112_RATP_SCD_1299	38	3	là	NULL	adv	NULL	B_GADV	NOLINK	0	idtext0067	là	#####	spk1	109.09	109.18	0.01	_
20091112_RATP_SCD_1299	38	4	la	NULL	det	NULL	B_GN	DET	5	idtext0067	le	##m#s##d	spk1	109.19	109.3	0.01	_
20091112_RATP_SCD_1299	38	5	procédure	NULL	nc	NULL	I_GN	ROOT	0	idtext0067	procédure	##f#s##	spk1	109.31	110.16	0.01	//
20091112_RATP_SCD_1299	38	6	hein	DISF_M	pres	NULL	NULL	NOLINK	0	idtext0067	hein	#####	spk1	110.17	110.33	0.14	_
20091112_RATP_SCD_1299	38	7	c'	NULL	cln	NULL	B_GN	SUJ_IMP	8	idtext0068	ce	###s##	spk1	110.47	110.53	0.01	_
20091112_RATP_SCD_1299	38	8	est	NULL	v	NULL	B_GVf	ROOT	0	idtext0068	être	P#3##s##	spk1	110.54	110.75	0.01	_
20091112_RATP_SCD_1299	38	9	en+fait	GREF	adv	NULL	B_GADV	NOLINK	0	idtext0068	en+fait	#####	spk1	110.76	111.14	0.20	_
20091112_RATP_SCD_1299	38	10	de	NULL	prep	NULL	B_GP	ROOT	0	idtext0069	de	#####	spk1	111.34	111.59	0.01	_
20091112_RATP_SCD_1299	38	11	vous	NULL	clr	NULL	I_GP	AFF	12	idtext0069	cln	#2##p##	spk1	111.6	111.76	0.01	_
20091112_RATP_SCD_1299	38	12	présenter	NULL	vinf	NULL	I_GP	OBJ	10	idtext0069	présenter	W#####	spk1	111.77	112.61	?	//

20091112_RATP_SCD_1299	39	1	d'accord	NULL	adv	NULL	B_GADV	NOLINK	0	idtext0070	d'accord	#####	spk2	113.09	113.83	?	//

20091112_RATP_SCD_1299	40	1	alors	NULL	adv	NULL	B_GADV	NOLINK	0	idtext0071	alors	#####	spk1	113.96	114.15	0.01	_
20091112_RATP_SCD_1299	40	2	vous	NULL	cln	NULL	B_GN	SUJ	3	idtext0071	cln	#2##p##	spk1	114.16	114.23	0.01	_
20091112_RATP_SCD_1299	40	3	allez	NULL	v	NULL	B_GVf	ROOT	0	idtext0071	aller	P#2##p##	spk1	114.24	114.4	0.01	_
20091112_RATP_SCD_1299	40	4	vous	NULL	clr	NULL	B_GVi	AFF	5	idtext0071	cln	#2##p##	spk1	114.41	114.49	0.01	_
20091112_RATP_SCD_1299	40	5	présenter	NULL	vinf	NULL	I_GVi	OBJ	3	idtext0071	présenter	W#####	spk1	114.5	114.95	0.01	_
20091112_RATP_SCD_1299	40	6	avec	NULL	prep	NULL	B_GP	P_OBJ	5	idtext0071	avec	#####	spk1	114.96	115.09	0.01	_
20091112_RATP_SCD_1299	40	7	votre	NULL	det	NULL	I_GP	DET	8	idtext0071	votre	###s##o	spk1	115.1	115.42	0.01	_
20091112_RATP_SCD_1299	40	8	PV	NULL	nc	NULL	I_GP	OBJ	6	idtext0071	PV	#####	spk1	115.43	116.01	?	//

20091112_RATP_SCD_1299	41	1	à	NULL	prep	NULL	B_GP	ROOT	0	idtext0072	à	#####	spk1	116.38	116.4	0.01	_
20091112_RATP_SCD_1299	41	2	l'	NULL	det	NULL	I_GP	DET	3	idtext0072	le	###s##d	spk1	116.41	116.44	0.01	_
20091112_RATP_SCD_1299	41	3	adresse	NULL	nc	NULL	I_GP	OBJ	1	idtext0072	adresse	##f#s##	spk1	116.45	116.87	0.01	_
20091112_RATP_SCD_1299	41	4	suivante	NULL	adj	NULL	I_GP	MOD	3	idtext0072	suivant	##f#s##	spk1	116.88	117.59	0.35	/
20091112_RATP_SCD_1299	41	5	vingt-et-un	NULL	nc	B_A	B_GN	NOLINK	0	idtext0073	vingt-et-un	#####	spk1	117.94	118.65	0.01	_
20091112_RATP_SCD_1299	41	6	rue	NULL	nc	I_A	I_GN	MOD	5	idtext0073	rue	##f#s##	spk1	118.66	118.98	0.01	_
20091112_RATP_SCD_1299	41	7	Jules+Vallès	NULL	np	I_A	I_GN	MOD	6	idtext0073	Jules+Vallès	#####	spk1	118.99	119.95	?	_

20091112_RATP_SCD_1299	42	1	rue	NULL	nc	NULL	B_GN	NOLINK	0	idtext0074	rue	##f#s##	spk2	120.39	121.22	0.14	_
20091112_RATP_SCD_1299	42	2	Jules	NULL	nc	B_A	B_GN	NOLINK	0	idtext0075	Jules	###s##	spk2	121.36	122.24	?	//

20091112_RATP_SCD_1299	43	1	Vallès	NULL	nc	B_A	B_GN	NOLINK	0	idtext0076	Vallès	#####	spk1	122.3	123.17	?	//

20091112_RATP_SCD_1299	44	1	Vallès	NULL	nc	B_A	B_GN	NOLINK	0	idtext0077	Vallès	#####	spk2	124.74	125.79	?	//

20091112_RATP_SCD_1299	45	1	donc	NULL	coo	NULL	B_NULL	ROOT	0	idtext0078	donc	#####	spk1	124.87	125.35	0.01	_
20091112_RATP_SCD_1299	45	2	c'	NULL	cln	NULL	B_GN	SUJ_IMP	3	idtext0078	ce	###s##	spk1	125.36	125.38	0.01	_
20091112_RATP_SCD_1299	45	3	est	NULL	v	NULL	B_GVf	DEP_COORD	1	idtext0078	être	P#3##s##	spk1	125.39	125.59	0.01	_
20091112_RATP_SCD_1299	45	4	au	NULL	prep	NULL	B_NULL	NOLINK	0	idtext0078	au	#####	spk1	125.6	125.79	?	_

20091112_RATP_SCD_1299	46	1	centre	NULL	nc	NULL	B_GN	ROOT	0	idtext0079	centre	##m#s##	spk1	125.84	126.15	0.01	_
20091112_RATP_SCD_1299	46	2	recouvrement	NULL	nc	NULL	I_GN	MOD	1	idtext0079	recouvrement	##m#s##	spk1	126.16	126.79	0.01	_
20091112_RATP_SCD_1299	46	3	des	NULL	prep	NULL	B_GP	ROOT	0	idtext0079	des	#####	spk1	126.8	126.97	0.01	_
20091112_RATP_SCD_1299	46	4	infractions	NULL	nc	NULL	I_GP	OBJ	3	idtext0079	infraction	##f#p##	spk1	126.98	127.76	?	//

20091112_RATP_SCD_1299	47	1	d'accord	NULL	adv	NULL	B_GADV	NOLINK	0	idtext0080	d'accord	#####	spk2	128.02	128.92	?	//

20091112_RATP_SCD_1299	48	1	alors	NULL	adv	NULL	B_GADV	NOLINK	0	idtext0081	alors	#####	spk1	129.31	129.85	?	//

20091112_RATP_SCD_1299	49	1	du	NULL	prep	NULL	B_GP	ROOT	0	idtext0082	du	#####	spk1	130.61	130.67	0.01	_
20091112_RATP_SCD_1299	49	2	lundi	NULL	nc	NULL	I_GP	OBJ	1	idtext0082	lundi	##m#s##	spk1	130.68	130.92	0.01	_
20091112_RATP_SCD_1299	49	3	au	NULL	prep	NULL	B_GP	ROOT	0	idtext0082	au	#####	spk1	130.93	130.96	0.01	_
20091112_RATP_SCD_1299	49	4	vendredi	NULL	nc	NULL	I_GP	OBJ	3	idtext0082	vendredi	##m#s##	spk1	130.97	131.32	0.01	_
20091112_RATP_SCD_1299	49	5	de	NULL	prep	NULL	B_GP	DEP	4	idtext0082	de	#####	spk1	131.33	131.38	0.01	_
20091112_RATP_SCD_1299	49	6	huit	NULL	det	B_H	I_GP	DET	7	idtext0082	huit	#####	spk1	131.39	131.61	0.01	_
20091112_RATP_SCD_1299	49	7	heures	NULL	nc	I_H	I_GP	OBJ	5	idtext0082	heure	##f#p##	spk1	131.62	131.77	0.01	_
20091112_RATP_SCD_1299	49	8	trente	NULL	adj	I_H	I_GP	MOD	7	idtext0082	trente	#####	spk1	131.78	131.98	0.01	/
20091112_RATP_SCD_1299	49	9	à	NULL	prep	NULL	B_GP	MOD	7	idtext0082	à	#####	spk1	131.99	132.04	0.01	_
20091112_RATP_SCD_1299	49	10	dix-huit	NULL	det	B_H	I_GP	DET	11	idtext0082	dix-huit	#####	spk1	132.05	132.52	0.01	_
20091112_RATP_SCD_1299	49	11	heures	NULL	nc	I_H	I_GP	OBJ	9	idtext0082	heure	##f#p##	spk1	132.53	132.67	0.04	_
20091112_RATP_SCD_1299	49	12	donc	NULL	coo	NULL	B_NULL	ROOT	0	idtext0083	donc	#####	spk1	132.71	132.84	0.01	_
20091112_RATP_SCD_1299	49	13	ils	NULL	cln	NULL	B_GN	SUJ	15	idtext0083	cln	#3#m#p##	spk1	132.85	132.9	0.01	_
20091112_RATP_SCD_1299	49	14	sont	NULL	v	NULL	B_GVf	AUX	15	idtext0083	être	P#3##p##	spk1	132.91	133.0	0.01	_
20091112_RATP_SCD_1299	49	15	situés	NULL	vppart	NULL	I_GVf	DEP_COORD	12	idtext0083	situer	K##m#p##	spk1	133.01	133.29	0.01	_
20091112_RATP_SCD_1299	49	16	dans	NULL	prep	NULL	B_GP	P_OBJ_LOC	15	idtext0083	dans	#####	spk1	133.3	133.39	0.01	_
20091112_RATP_SCD_1299	49	17	le	NULL	det	NULL	I_GP	DET	19	idtext0083	le	##m#s##d	spk1	133.4	133.48	0.01	_
20091112_RATP_SCD_1299	49	18	onzième	NULL	adj	NULL	I_GP	MOD	19	idtext0083	onzième	###s##	spk1	133.49	133.82	0.01	_
20091112_RATP_SCD_1299	49	19	arrondissement	NULL	nc	NULL	I_GP	OBJ	16	idtext0084	arrondissement	##m#s##	spk1	133.83	134.43	?	//

20091112_RATP_SCD_1299	50	1	d'accord	NULL	adv	NULL	B_GADV	NOLINK	0	idtext0085	d'accord	#####	spk2	134.88	135.46	?	//

20091112_RATP_SCD_1299	51	1	au	NULL	prep	NULL	B_GP	ROOT	0	idtext0086	au	#####	spk1	135.5	135.8	0.01	_
20091112_RATP_SCD_1299	51	2	métro	NULL	nc	B_T	I_GP	OBJ	1	idtext0086	métro	##m#s##	spk1	135.81	136.35	0.01	_
20091112_RATP_SCD_1299	51	3	Charonne	NULL	np	I_T	I_GP	MOD	2	idtext0086	Charonne	#####	spk1	136.36	136.97	?	//

20091112_RATP_SCD_1299	52	1	Charonne	NULL	nc	B_A	B_GN	NOLINK	0	idtext0087	Charonne	#####	spk2	137.49	138.51	?	//

20091112_RATP_SCD_1299	53	1	donc	NULL	coo	NULL	B_NULL	ROOT	0	idtext0088	donc	#####	spk1	137.51	137.78	0.01	_
20091112_RATP_SCD_1299	53	2	vous	NULL	cln	NULL	B_GN	SUJ	4	idtext0088	cln	#2##p##	spk1	137.79	137.98	0.01	_
20091112_RATP_SCD_1299	53	3	vous	NULL	clr	NULL	B_GVf	AFF	4	idtext0088	cln	#2##p##	spk1	137.99	138.18	0.01	_
20091112_RATP_SCD_1299	53	4	présentez	NULL	v	NULL	I_GVf	DEP_COORD	1	idtext0088	présenter	P#2##p##	spk1	138.19	138.51	?	//

20091112_RATP_SCD_1299	54	1	avec	NULL	prep	NULL	B_GP	ROOT	0	idtext0089	avec	#####	spk1	138.64	138.77	0.01	_
20091112_RATP_SCD_1299	54	2	votre	NULL	det	NULL	I_GP	DET	3	idtext0089	votre	###s##o	spk1	138.78	138.9	0.01	_
20091112_RATP_SCD_1299	54	3	ticket	NULL	nc	NULL	I_GP	OBJ	1	idtext0089	ticket	##m#s##	spk1	138.91	139.24	?	//

20091112_RATP_SCD_1299	55	1	ouais	NULL	adv	NULL	B_GADV	NOLINK	0	idtext0090	ouais	#####	spk2	140.09	140.73	?	//

20091112_RATP_SCD_1299	56	1	et+puis	NULL	coo	NULL	B_NULL	ROOT	0	idtext0091	et+puis	#####	spk1	140.8	141.65	0.01	_
20091112_RATP_SCD_1299	56	2	euh	DISF_M	pres	NULL	NULL	NOLINK	0	idtext0091	euh	#####	spk1	141.66	142.02	0.01	_
20091112_RATP_SCD_1299	56	3	votre	NULL	det	NULL	B_GN	DET	4	idtext0091	votre	###s##o	spk1	142.03	142.37	0.01	_
20091112_RATP_SCD_1299	56	4	PV	NULL	nc	NULL	I_GN	DEP_COORD	1	idtext0091	PV	#####	spk1	142.38	142.84	?	//

20091112_RATP_SCD_1299	57	1	ouais	NULL	adv	NULL	B_GADV	NOLINK	0	idtext0092	ouais	#####	spk2	143.54	143.86	?	//

20091112_RATP_SCD_1299	58	1	hein	DISF_M	pres	NULL	NULL	NOLINK	0	idtext0093	hein	#####	spk1	143.9	144.09	0.01	_
20091112_RATP_SCD_1299	58	2	et+puis	NULL	coo	NULL	B_NULL	NOLINK	0	idtext0093	et+puis	#####	spk1	144.1	144.51	0.01	_
20091112_RATP_SCD_1299	58	3	vous	NULL	cln	NULL	B_GN	NOLINK	0	idtext0093	cln	#2##p##	spk1	144.52	145.66	?	_

20091112_RATP_SCD_1299	59	1	ben	DISF_M	pres	NULL	NULL	NOLINK	0	idtext0094	ben	#####	spk2	145.74	146.04	0.01	//
20091112_RATP_SCD_1299	59	2	ouais	NULL	adv	NULL	B_GADV	NOLINK	0	idtext0094	ouais	#####	spk2	146.05	146.12	0.01	_
20091112_RATP_SCD_1299	59	3	c'	NULL	cln	NULL	B_GN	SUJ_IMP	4	idtext0094	ce	###s##	spk2	146.13	146.19	0.01	_
20091112_RATP_SCD_1299	59	4	est	NULL	v	NULL	B_GVf	ROOT	0	idtext0094	être	P#3##s##	spk2	146.2	146.29	0.01	_
20091112_RATP_SCD_1299	59	5	bête	NULL	adj	NULL	B_GADJ	ATS	4	idtext0094	bête	###s##	spk2	146.3	146.56	0.05	_
20091112_RATP_SCD_1299	59	6	moi	NULL	pro	NULL	B_GN	SUJ	9	idtext0095	moi	#####	spk2	146.61	146.75	0.01	_
20091112_RATP_SCD_1299	59	7	j'	NULL	cln	NULL	B_GN	SUJ	9	idtext0095	cln	#1##s##	spk2	146.76	146.85	0.01	_
20091112_RATP_SCD_1299	59	8	étais	NULL	v	NULL	B_GVf	AUX	9	idtext0095	être	I#12##s##	spk2	146.86	147.07	0.01	_
20091112_RATP_SCD_1299	59	9	fatiguée	NULL	vppart	NULL	I_GVf	ROOT	0	idtext0095	fatiguer	K##f#s##	spk2	147.08	147.85	0.04	/
20091112_RATP_SCD_1299	59	10	j'	NULL	cln	NULL	B_GN	SUJ	11	idtext0096	cln	#1##s##	spk2	147.89	147.91	0.01	_
20091112_RATP_SCD_1299	59	11	avais	NULL	v	NULL	B_GVf	ROOT	0	idtext0096	avoir	I#12##s##	spk2	147.92	148.36	0.01	_
20091112_RATP_SCD_1299	59	12	je	NULL	cln	NULL	B_GN	SUJ	15	idtext0096	cln	#1##s##	spk2	148.37	148.39	0.01	_
20091112_RATP_SCD_1299	59	13	l'	NULL	clo	NULL	B_GN	OBJ	15	idtext0096	cla	#3##s##	spk2	148.4	148.43	0.01	_
20091112_RATP_SCD_1299	59	14	avais	NULL	v	NULL	B_GVf	AUX	15	idtext0096	avoir	I#12##s##	spk2	148.44	148.64	0.01	_
20091112_RATP_SCD_1299	59	15	mis	NULL	vppart	NULL	I_GVf	ROOT	0	idtext0096	mettre	J#12##s##	spk2	148.65	148.7	0.01	_
20091112_RATP_SCD_1299	59	16	euh	DISF_M	pres	NULL	NULL	NOLINK	0	idtext0096	euh	#####	spk2	148.71	148.73	0.01	_
20091112_RATP_SCD_1299	59	17	avec	NULL	prep	NULL	B_GP	P_OBJ	15	idtext0096	avec	#####	spk2	148.74	148.92	0.01	_
20091112_RATP_SCD_1299	59	18	mon	NULL	det	NULL	I_GP	DET	19	idtext0096	mon	###s##o	spk2	148.93	149.17	0.01	_
20091112_RATP_SCD_1299	59	19	écouteur	NULL	nc	NULL	I_GP	OBJ	17	idtext0096	écouteur	##m#s##	spk2	149.18	149.37	0.04	_
20091112_RATP_SCD_1299	59	20	que	NULL	csu	NULL	B_NULL	ROOT	0	idtext0097	que	#####	spk2	149.41	149.77	0.01	_
20091112_RATP_SCD_1299	59	21	j'	NULL	cln	NULL	B_GN	SUJ	23	idtext0097	cln	#1##s##	spk2	149.78	150.15	0.01	_
20091112_RATP_SCD_1299	59	22	avais	NULL	v	NULL	B_GVf	AUX	23	idtext0097	avoir	I#12##s##	spk2	150.16	151.01	0.01	_
20091112_RATP_SCD_1299	59	23	décidé	NULL	vppart	NULL	I_GVf	OBJ	20	idtext0097	décider	K##m#s##	spk2	151.02	151.43	0.01	_
20091112_RATP_SCD_1299	59	24	d'	NULL	prep	NULL	B_GP	OBJ	23	idtext0097	d'	#####	spk2	151.44	151.49	0.01	_
20091112_RATP_SCD_1299	59	25	arrêter	NULL	vinf	NULL	I_GP	OBJ	24	idtext0097	arrêter	W#####	spk2	151.5	151.95	0.38	/
20091112_RATP_SCD_1299	59	26	j'	NULL	cln	NULL	B_GN	SUJ	29	idtext0098	cln	#1##s##	spk2	152.33	152.39	0.01	_
20091112_RATP_SCD_1299	59	27	ai	NULL	v	NULL	B_GVfn	AUX	29	idtext0098	avoir	P#1##s##	spk2	152.4	152.54	0.01	_
20091112_RATP_SCD_1299	59	28	pas	NULL	advneg	NULL	I_GVfn	MOD	29	idtext0098	pas	#####	spk2	152.55	152.67	0.01	_
20091112_RATP_SCD_1299	59	29	pensé	NULL	vppart	NULL	I_GVfn	ROOT	0	idtext0098	penser	K##m#s##	spk2	152.68	153.03	0.01	_
20091112_RATP_SCD_1299	59	30	une	NULL	det	NULL	B_GN	DET	31	idtext0098	un	##f#s##i	spk2	153.04	153.22	0.01	_
20091112_RATP_SCD_1299	59	31	seconde	NULL	adj	NULL	I_GN	OBJ	29	idtext0098	seconde	###s##	spk2	153.23	153.69	0.04	_
20091112_RATP_SCD_1299	59	32	et	NULL	coo	NULL	B_NULL	ROOT	0	idtext0099	et	#####	spk2	153.73	153.91	0.01	_
20091112_RATP_SCD_1299	59	33	moi	NULL	pro	NULL	B_GN	SUJ	36	idtext0099	moi	#####	spk2	153.92	154.05	0.01	_
20091112_RATP_SCD_1299	59	34	mon	NULL	det	NULL	B_GN	DET	35	idtext0099	mon	###s##o	spk2	154.06	154.25	0.01	_
20091112_RATP_SCD_1299	59	35	sac	NULL	nc	NULL	I_GN	SUJ	36	idtext0099	sac	##m#s##	spk2	154.26	154.52	0.01	_
20091112_RATP_SCD_1299	59	36	était	NULL	v	NULL	B_GVf	DEP_COORD	32	idtext0099	être	I#3##s##	spk2	154.53	154.73	0.01	_
20091112_RATP_SCD_1299	59	37	plein	NULL	adj	NULL	B_GADJ	ATS	36	idtext0099	plein	##m#s##	spk2	154.74	155.12	0.01	_
20091112_RATP_SCD_1299	59	38	alors	NULL	adv	NULL	B_GADV	NOLINK	0	idtext0099	alors	#####	spk2	155.13	155.57	?	//

20091112_RATP_SCD_1299	60	1	hm+hm	DISF_M	pres	NULL	NULL	NOLINK	0	idtext0100	hm+hm	#####	spk1	155.91	156.01	?	//

20091112_RATP_SCD_1299	61	1	moi	NULL	pro	NULL	B_GN	SUJ	6	idtext0101	moi	#####	spk2	156.05	156.19	0.01	_
20091112_RATP_SCD_1299	61	2	par	NULL	prep	NULL	B_GP	MOD	6	idtext0101	par	#####	spk2	156.2	156.43	0.01	_
20091112_RATP_SCD_1299	61	3	humour	NULL	nc	NULL	I_GP	OBJ	2	idtext0101	humour	##m#s##	spk2	156.44	156.84	0.01	_
20091112_RATP_SCD_1299	61	4	j'	NULL	cln	NULL	B_GN	SUJ	6	idtext0101	cln	#1##s##	spk2	156.85	156.9	0.01	_
20091112_RATP_SCD_1299	61	5	ai	NULL	v	NULL	B_GVf	AUX	6	idtext0101	avoir	P#1##s##	spk2	156.91	156.94	0.01	_
20091112_RATP_SCD_1299	61	6	essayé	NULL	vppart	NULL	I_GVf	ROOT	0	idtext0101	essayer	K##m#s##	spk2	156.95	157.22	0.01	_
20091112_RATP_SCD_1299	61	7	au	NULL	prep	NULL	B_GP	MOD	6	idtext0101	au	#####	spk2	157.23	157.31	0.01	_
20091112_RATP_SCD_1299	61	8	début	NULL	nc	NULL	I_GP	OBJ	7	idtext0101	début	##m#s##	spk2	157.32	157.74	0.01	_
20091112_RATP_SCD_1299	61	9	j'	NULL	cln	NULL	B_GN	SUJ	10	idtext0101	cln	#1##s##	spk2	157.75	157.8	0.01	_
20091112_RATP_SCD_1299	61	10	étais	NULL	v	NULL	B_GVf	ROOT	0	idtext0101	être	I#12##s##	spk2	157.81	158.28	0.04	_
20091112_RATP_SCD_1299	61	11	parce+que	NULL	csu	NULL	B_NULL	ROOT	0	idtext0102	parce+que	#####	spk2	158.32	158.59	0.01	_
20091112_RATP_SCD_1299	61	12	j'	NULL	cln	NULL	B_GN	SUJ	14	idtext0102	cln	#1##s##	spk2	158.6	158.68	0.01	_
20091112_RATP_SCD_1299	61	13	avais	NULL	v	NULL	B_GVf	AUX	14	idtext0102	avoir	I#12##s##	spk2	158.69	158.9	0.01	_
20091112_RATP_SCD_1299	61	14	validé	NULL	vppart	NULL	I_GVf	OBJ	11	idtext0102	valider	K##m#s##	spk2	158.91	159.35	0.01	_
20091112_RATP_SCD_1299	61	15	moi	NULL	pro	NULL	B_GN	SUJ	14	idtext0102	moi	#####	spk2	159.36	159.54	0.01	_
20091112_RATP_SCD_1299	61	16	je	NULL	cln	NULL	B_GN	NOLINK	0	idtext0102	cln	#1##s##	spk2	159.55	159.87	0.05	_
20091112_RATP_SCD_1299	61	17	je	NULL	cln	NULL	B_GN	SUJ	18	idtext0103	cln	#1##s##	spk2	159.92	159.97	0.01	_
20091112_RATP_SCD_1299	61	18	suis	NULL	v	NULL	B_GVfn	ROOT	0	idtext0103	être	P#1##s##	spk2	159.98	160.09	0.01	_
20091112_RATP_SCD_1299	61	19	pas	NULL	advneg	NULL	I_GVfn	MOD	18	idtext0103	pas	#####	spk2	160.1	160.37	0.01	_
20091112_RATP_SCD_1299	61	20	quelqu'un	NULL	pro	NULL	B_GN	ATS	18	idtext0103	quelqu'un	#####	spk2	160.38	160.85	0.01	/
20091112_RATP_SCD_1299	61	21	qui	NULL	prorel	NULL	B_NULL	SUJ	22	idtext0103	qui	#####	spk2	160.86	161.04	0.01	_
20091112_RATP_SCD_1299	61	22	paie	NULL	v	NULL	B_GVfn	MOD_REL	20	idtext0103	payer	PS#13##s##	spk2	161.05	161.29	0.01	_
20091112_RATP_SCD_1299	61	23	pas	NULL	advneg	NULL	I_GVfn	MOD	22	idtext0103	pas	#####	spk2	161.3	161.64	0.01	_
20091112_RATP_SCD_1299	61	24	euh	DISF_M	pres	NULL	NULL	NOLINK	0	idtext0103	euh	#####	spk2	161.65	161.77	0.29	_
20091112_RATP_SCD_1299	61	25	en+plus	NULL	adv	NULL	B_GADV	NOLINK	0	idtext0104	en+plus	#####	spk2	162.06	162.42	0.01	_
20091112_RATP_SCD_1299	61	26	sur	NULL	prep	NULL	B_GP	MOD	33	idtext0104	sur	#####	spk2	162.43	162.65	0.01	_
20091112_RATP_SCD_1299	61	27	cette	NULL	det	NULL	I_GP	DET	28	idtext0104	cet	##f#s##e	spk2	162.66	162.91	0.01	_
20091112_RATP_SCD_1299	61	28	ligne	NULL	nc	NULL	I_GP	OBJ	26	idtext0104	ligne	##f#s##	spk2	162.92	163.18	0.01	_
20091112_RATP_SCD_1299	61	29	c'	NULL	cln	NULL	B_GN	SUJ_IMP	30	idtext0104	ce	###s##	spk2	163.19	163.21	0.01	_
20091112_RATP_SCD_1299	61	30	est	NULL	v	NULL	B_GVf	ROOT	0	idtext0104	être	P#3##s##	spk2	163.22	163.27	0.01	_
20091112_RATP_SCD_1299	61	31	la	NULL	det	NULL	B_GN	DET	32	idtext0104	le	##m#s##d	spk2	163.28	163.47	0.01	_
20091112_RATP_SCD_1299	61	32	zone	NULL	nc	NULL	I_GN	ATS	30	idtext0104	zone	##f#s##	spk2	163.48	163.67	0.01	_
20091112_RATP_SCD_1299	61	33	trois	NULL	nc	NULL	I_GN	MOD	32	idtext0104	trois	##m###	spk2	163.68	163.98	0.05	_
20091112_RATP_SCD_1299	61	34	donc	NULL	coo	NULL	B_NULL	ROOT	0	idtext0105	donc	#####	spk2	164.03	164.32	0.01	//
20091112_RATP_SCD_1299	61	35	euh	DISF_M	pres	NULL	NULL	NOLINK	0	idtext0105	euh	#####	spk2	164.33	164.4	0.01	_
20091112_RATP_SCD_1299	61	36	je	NULL	cln	NULL	B_GN	SUJ	37	idtext0105	cln	#1##s##	spk2	164.41	164.64	0.01	_
20091112_RATP_SCD_1299	61	37	peux	NULL	v	NULL	B_GVf	DEP_COORD	34	idtext0105	pouvoir	P#12##s##	spk2	164.65	164.79	0.01	_
20091112_RATP_SCD_1299	61	38	je	NULL	cln	NULL	B_GN	SUJ	40	idtext0105	cln	#1##s##	spk2	164.8	164.97	0.01	_
20091112_RATP_SCD_1299	61	39	le	NULL	clo	NULL	B_GN	OBJ	40	idtext0105	cla	#3#m#s##	spk2	164.98	165.04	0.01	_
20091112_RATP_SCD_1299	61	40	fais	NULL	v	NULL	B_GVf	ROOT	0	idtext0105	faire	P#12##s##	spk2	165.05	165.11	0.01	_
20091112_RATP_SCD_1299	61	41	automatiquement	NULL	adv	NULL	B_GADV	MOD	40	idtext0105	automatiquement	#####	spk2	165.12	165.95	0.51	_
20091112_RATP_SCD_1299	61	42	surtout	NULL	adv	NULL	B_GADV	NOLINK	0	idtext0106	surtout	#####	spk2	166.46	166.87	0.01	_
20091112_RATP_SCD_1299	61	43	euh	DISF_M	pres	NULL	NULL	NOLINK	0	idtext0106	euh	#####	spk2	166.88	166.9	0.01	_
20091112_RATP_SCD_1299	61	44	je	NULL	cln	NULL	B_GN	SUJ	45	idtext0106	cln	#1##s##	spk2	166.91	167.29	0.01	_
20091112_RATP_SCD_1299	61	45	sais	NULL	v	NULL	B_GVf	ROOT	0	idtext0106	savoir	P#12##s##	spk2	167.3	167.45	0.01	_
20091112_RATP_SCD_1299	61	46	bien	NULL	adv	NULL	B_GADV	MOD	47	idtext0106	bien	#####	spk2	167.46	167.62	0.01	_
20091112_RATP_SCD_1299	61	47	comment	NULL	adv	NULL	I_GADV	OBJ	45	idtext0106	comment	#####	spk2	167.63	167.86	0.01	_
20091112_RATP_SCD_1299	61	48	ça	NULL	pro	NULL	B_GN	SUJ_IMP	49	idtext0106	ça	#####	spk2	167.87	168.03	0.01	_
20091112_RATP_SCD_1299	61	49	tombe	NULL	v	NULL	B_GVf	ROOT	0	idtext0106	tomber	PS#13##s##	spk2	168.04	168.35	0.50	_
20091112_RATP_SCD_1299	61	50	donc	NULL	coo	NULL	B_NULL	NOLINK	0	idtext0107	donc	#####	spk2	168.85	169.04	0.01	_
20091112_RATP_SCD_1299	61	51	du+coup	NULL	adv	NULL	B_GADV	NOLINK	0	idtext0107	du+coup	#####	spk2	169.05	169.53	0.01	_
20091112_RATP_SCD_1299	61	52	euh	DISF_M	pres	NULL	NULL	NOLINK	0	idtext0107	euh	#####	spk2	169.54	169.91	0.01	_
20091112_RATP_SCD_1299	61	53	voilà	DISF_M	pres	NULL	NULL	NOLINK	0	idtext0107	voilà	#####	spk2	169.92	170.23	0.01	_
20091112_RATP_SCD_1299	61	54	donc	NULL	coo	NULL	B_NULL	NOLINK	0	idtext0107	donc	#####	spk2	170.24	170.47	0.01	_
20091112_RATP_SCD_1299	61	55	là	NULL	adv	NULL	B_GADV	NOLINK	0	idtext0107	là	#####	spk2	170.48	170.96	?	_

20091112_RATP_SCD_1299	62	1	d'accord	NULL	adv	NULL	B_GADV	MOD	3	idtext0108	d'accord	#####	spk1	171.09	171.42	0.01	//
20091112_RATP_SCD_1299	62	2	non	DISF_R	adv	NULL	NULL	NOLINK	0	idtext0108	non	#####	spk1	171.43	171.56	0.01	_
20091112_RATP_SCD_1299	62	3	non	NULL	adv	NULL	I_GADV	ROOT	0	idtext0108	non	#####	spk1	171.57	171.69	0.01	_
20091112_RATP_SCD_1299	62	4	mais	NULL	coo	NULL	B_NULL	ROOT	0	idtext0108	mais	#####	spk1	171.7	171.81	0.01	_
20091112_RATP_SCD_1299	62	5	présentez	NULL	v	NULL	B_GVf	DEP_COORD	4	idtext0108	présenter	P#2##p##	spk1	171.82	172.23	0.01	_
20091112_RATP_SCD_1299	62	6	vous	NULL	cln	NULL	B_GN	NOLINK	0	idtext0108	cln	#2##p##	spk1	172.24	172.34	0.01	_
20091112_RATP_SCD_1299	62	7	rapidement	NULL	adv	NULL	B_GADV	MOD	5	idtext0108	rapidement	#####	spk1	172.35	173.01	0.01	_
20091112_RATP_SCD_1299	62	8	hein	DISF_M	pres	NULL	NULL	NOLINK	0	idtext0108	hein	#####	spk1	173.02	173.07	0.04	_
20091112_RATP_SCD_1299	62	9	avec	NULL	prep	NULL	B_GP	ROOT	0	idtext0109	avec	#####	spk1	173.11	173.34	0.01	_
20091112_RATP_SCD_1299	62	10	votre	NULL	det	NULL	I_GP	DET	11	idtext0109	votre	###s##o	spk1	173.35	173.62	0.01	_
20091112_RATP_SCD_1299	62	11	ticket	NULL	nc	NULL	I_GP	OBJ	9	idtext0109	ticket	##m#s##	spk1	173.63	174.21	0.41	//
20091112_RATP_SCD_1299	62	12	euh	DISF_M	pres	NULL	NULL	NOLINK	0	idtext0110	euh	#####	spk1	174.62	174.74	0.01	_
20091112_RATP_SCD_1299	62	13	à	NULL	prep	NULL	B_GP	ROOT	0	idtext0110	à	#####	spk1	174.75	174.88	0.01	_
20091112_RATP_SCD_1299	62	14	l'	NULL	det	NULL	I_GP	DET	15	idtext0110	le	###s##d	spk1	174.89	174.92	0.01	_
20091112_RATP_SCD_1299	62	15	adresse	NULL	nc	NULL	I_GP	OBJ	13	idtext0110	adresse	##f#s##	spk1	174.93	175.17	0.01	_
20091112_RATP_SCD_1299	62	16	que	NULL	prorel	NULL	B_NULL	OBJ	20	idtext0110	que	#####	spk1	175.18	175.24	0.01	_
20091112_RATP_SCD_1299	62	17	je	NULL	cln	NULL	B_GN	SUJ	20	idtext0110	cln	#1##s##	spk1	175.25	175.44	0.01	_
20091112_RATP_SCD_1299	62	18	vous	NULL	clo	NULL	B_GN	A_OBJ	20	idtext0110	cln	#2##p##	spk1	175.45	175.52	0.01	_
20091112_RATP_SCD_1299	62	19	ai	NULL	v	NULL	B_GVf	AUX	20	idtext0110	avoir	P#1##s##	spk1	175.53	175.55	0.01	_
20091112_RATP_SCD_1299	62	20	indiquée	NULL	vppart	NULL	I_GVf	MOD_REL	15	idtext0110	indiquer	K##f#s##	spk1	175.56	176.06	?	//

20091112_RATP_SCD_1299	63	1	d'accord	NULL	adv	NULL	B_GADV	NOLINK	0	idtext0111	d'accord	#####	spk1	176.18	177.01	?	//

20091112_RATP_SCD_1299	64	1	d'accord	NULL	adv	NULL	B_GADV	NOLINK	0	idtext0112	d'accord	#####	spk2	176.18	177.01	?	//

20091112_RATP_SCD_1299	65	1	ça	NULL	pro	NULL	B_GN	SUJ_IMP	2	idtext0113	ça	#####	spk2	177.05	177.15	0.01	_
20091112_RATP_SCD_1299	65	2	marche	NULL	v	NULL	B_GVf	ROOT	0	idtext0113	marcher	PS#13##s##	spk2	177.16	177.63	?	_

20091112_RATP_SCD_1299	66	1	très+bien	NULL	adv	NULL	B_GADV	NOLINK	0	idtext0114	très+bien	#####	spk1	177.7	178.07	?	//

20091112_RATP_SCD_1299	67	1	OK	NULL	adv	NULL	B_GADV	NOLINK	0	idtext0115	ok	#####	spk2	177.67	178.07	?	_

20091112_RATP_SCD_1299	68	1	bonne	NULL	adj	NULL	B_GN	MOD	2	idtext0116	bon	##f#s##	spk1	178.11	178.36	0.01	_
20091112_RATP_SCD_1299	68	2	soirée	NULL	nc	NULL	I_GN	ROOT	0	idtext0116	soirée	##f#s##	spk1	178.37	178.6	0.01	_
20091112_RATP_SCD_1299	68	3	madame	NULL	nc	NULL	B_GN	NOLINK	0	idtext0116	Monsieur	##f#s##	spk1	178.61	178.99	?	//

20091112_RATP_SCD_1299	69	1	à	NULL	prep	NULL	B_GP	ROOT	0	idtext0117	à	#####	spk2	179.13	179.25	0.01	_
20091112_RATP_SCD_1299	69	2	vous	NULL	pro	NULL	I_GP	OBJ	1	idtext0117	vous	#####	spk2	179.26	179.31	0.01	_
20091112_RATP_SCD_1299	69	3	aussi	NULL	adv	NULL	B_GADV	MOD	4	idtext0117	aussi	#####	spk2	179.32	179.6	0.01	_
20091112_RATP_SCD_1299	69	4	au+revoir	NULL	adv	NULL	I_GADV	ROOT	0	idtext0117	au+revoir	#####	spk2	179.61	180.23	?	_

20091112_RATP_SCD_1299	70	1	merci	NULL	adv	NULL	B_GADV	MOD	2	idtext0118	merci	#####	spk1	179.23	179.6	0.01	_
20091112_RATP_SCD_1299	70	2	au+revoir	NULL	adv	NULL	I_GADV	ROOT	0	idtext0118	au+revoir	#####	spk1	179.61	180.23	?	//

