20091112_RATP_SCD_1329	1	1	NNAAMMEE	NULL	np	B_HU	B_GN	ROOT	0	idtext0000	ANONYM	NULL	spk1	3.33	3.58	0.04	_
20091112_RATP_SCD_1329	1	2	bonsoir	NULL	nc	NULL	B_GN	NOLINK	0	idtext0001	bonsoir	##m#s##	spk1	3.62	4.27	?	//

20091112_RATP_SCD_1329	2	1	oui	NULL	adv	NULL	B_GADV	NOLINK	0	idtext0002	oui	#####	spk2	4.41	4.66	0.01	_
20091112_RATP_SCD_1329	2	2	bonsoir	NULL	nc	NULL	B_GN	ROOT	0	idtext0002	bonsoir	##m#s##	spk2	4.67	4.95	0.01	_
20091112_RATP_SCD_1329	2	3	madame	NULL	nc	NULL	I_GN	MOD	2	idtext0002	Monsieur	##f#s##	spk2	4.96	5.49	?	//

20091112_RATP_SCD_1329	3	1	excusez	NULL	v	NULL	B_GVf	ROOT	0	idtext0003	excuser	P#2##p##	spk2	5.53	5.85	0.01	_
20091112_RATP_SCD_1329	3	2	-moi	NULL	clo	NULL	B_GN	OBJ	1	idtext0003	cla	#1##s##	spk2	5.86	5.98	0.01	_
20091112_RATP_SCD_1329	3	3	de	NULL	prep	NULL	B_GP	DE_OBJ	2	idtext0003	de	#####	spk2	5.99	6.02	0.01	_
20091112_RATP_SCD_1329	3	4	vous	NULL	clo	NULL	I_GP	OBJ	5	idtext0003	cln	#2##p##	spk2	6.03	6.13	0.01	_
20091112_RATP_SCD_1329	3	5	déranger	NULL	vinf	NULL	B_GVi	OBJ	3	idtext0003	déranger	W#####	spk2	6.14	6.76	0.01	_
20091112_RATP_SCD_1329	3	6	je	DISF_R	cln	NULL	NULL	NOLINK	0	idtext0003	cln	#1##s##	spk2	6.77	7.45	0.01	_
20091112_RATP_SCD_1329	3	7	bon	DISF_M	pres	NULL	NULL	NOLINK	0	idtext0003	bon	#####	spk2	7.46	7.62	0.01	_
20091112_RATP_SCD_1329	3	8	je	NULL	cln	NULL	B_GN	SUJ	9	idtext0003	cln	#1##s##	spk2	7.63	7.82	0.01	_
20091112_RATP_SCD_1329	3	9	suis	NULL	v	NULL	B_GVf	ROOT	0	idtext0003	être	P#1##s##	spk2	7.83	7.94	0.01	_
20091112_RATP_SCD_1329	3	10	sur	NULL	prep	NULL	B_GP	ATS	9	idtext0003	sur	#####	spk2	7.95	8.12	0.01	_
20091112_RATP_SCD_1329	3	11	la	NULL	det	NULL	I_GP	DET	12	idtext0003	le	##m#s##d	spk2	8.13	8.31	0.01	_
20091112_RATP_SCD_1329	3	12	ligne	NULL	nc	NULL	I_GP	OBJ	10	idtext0003	ligne	##f#s##	spk2	8.32	8.74	0.01	_
20091112_RATP_SCD_1329	3	13	enfin	NULL	adv	NULL	B_GADV	NOLINK	0	idtext0003	enfin	#####	spk2	8.75	9.06	0.01	_
20091112_RATP_SCD_1329	3	14	B	NULL	nc	NULL	B_GN	NOLINK	0	idtext0003	B	#####	spk2	9.07	9.3	0.01	_
20091112_RATP_SCD_1329	3	15	donc	NULL	coo	NULL	B_NULL	COORD	9	idtext0003	donc	#####	spk2	9.31	9.54	0.01	_
20091112_RATP_SCD_1329	3	16	je	NULL	cln	NULL	B_GN	SUJ	17	idtext0003	cln	#1##s##	spk2	9.55	9.68	0.01	_
20091112_RATP_SCD_1329	3	17	voulais	NULL	v	NULL	B_GVf	DEP_COORD	15	idtext0003	vouloir	I#12##s##	spk2	9.69	9.91	0.01	_
20091112_RATP_SCD_1329	3	18	savoir	NULL	vinf	NULL	I_GVf	OBJ	17	idtext0003	savoir	W#####	spk2	9.92	10.24	0.01	_
20091112_RATP_SCD_1329	3	19	comment	NULL	adv	NULL	B_GADV	MOD	20	idtext0003	comment	#####	spk2	10.25	10.41	0.01	_
20091112_RATP_SCD_1329	3	20	était	NULL	v	NULL	B_GVf	OBJ	17	idtext0003	être	I#3##s##	spk2	10.42	10.56	0.01	_
20091112_RATP_SCD_1329	3	21	le	NULL	det	NULL	B_GN	DET	22	idtext0003	le	##m#s##d	spk2	10.57	10.62	0.01	_
20091112_RATP_SCD_1329	3	22	trafic	NULL	nc	NULL	I_GN	ATS	20	idtext0003	trafic	##m#s##	spk2	10.63	11.02	0.01	_
20091112_RATP_SCD_1329	3	23	demain	NULL	adv	NULL	B_GADV	NOLINK	0	idtext0003	demain	#####	spk2	11.03	11.94	?	//

20091112_RATP_SCD_1329	4	1	parce+que	NULL	csu	NULL	B_NULL	NOLINK	0	idtext0004	parce+que	#####	spk2	12.06	12.29	?	_

20091112_RATP_SCD_1329	5	1	alors	NULL	adv	NULL	B_GADV	NOLINK	0	idtext0005	alors	#####	spk1	12.09	12.29	?	//

20091112_RATP_SCD_1329	6	1	concernant	NULL	prep	NULL	B_GP	MOD	9	idtext0006	concernant	#####	spk1	12.33	12.66	0.01	_
20091112_RATP_SCD_1329	6	2	le	NULL	det	NULL	I_GP	DET	3	idtext0006	le	##m#s##d	spk1	12.67	12.73	0.01	_
20091112_RATP_SCD_1329	6	3	trafic	NULL	nc	NULL	I_GP	OBJ	1	idtext0006	trafic	##m#s##	spk1	12.74	13.23	0.01	_
20091112_RATP_SCD_1329	6	4	du	NULL	prep	NULL	B_GP	DEP	3	idtext0006	du	#####	spk1	13.24	13.29	0.01	_
20091112_RATP_SCD_1329	6	5	RER+B	NULL	nc	B_T	I_GP	OBJ	4	idtext0006	RER+B	#####	spk1	13.3	14.17	0.01	_
20091112_RATP_SCD_1329	6	6	demain	NULL	adv	NULL	B_GADV	NOLINK	0	idtext0006	demain	#####	spk1	14.18	14.62	0.01	_
20091112_RATP_SCD_1329	6	7	nous	NULL	cln	NULL	B_GN	SUJ	9	idtext0006	cln	#1##p##	spk1	14.63	14.71	0.01	_
20091112_RATP_SCD_1329	6	8	n'	NULL	clneg	NULL	B_GVfn	MOD	9	idtext0006	n'	#####	spk1	14.72	14.79	0.01	_
20091112_RATP_SCD_1329	6	9	avons	NULL	v	NULL	I_GVfn	ROOT	0	idtext0006	avoir	P#1##p##	spk1	14.8	15.05	0.01	_
20091112_RATP_SCD_1329	6	10	aucune	NULL	det	NULL	B_GN	DET	11	idtext0006	aucun	##f#s##i	spk1	15.06	15.33	0.01	_
20091112_RATP_SCD_1329	6	11	information	NULL	nc	NULL	I_GN	OBJ	9	idtext0006	information	##f#s##	spk1	15.34	16.32	0.01	_
20091112_RATP_SCD_1329	6	12	actuellement	NULL	adv	NULL	B_GADV	MOD	9	idtext0006	actuellement	#####	spk1	16.33	16.97	?	//

20091112_RATP_SCD_1329	7	1	à	NULL	prep	NULL	B_GP	ROOT	0	idtext0007	à	#####	spk1	17.14	17.21	0.01	_
20091112_RATP_SCD_1329	7	2	vous	NULL	clo	NULL	I_GP	OBJ	3	idtext0007	cln	#2##p##	spk1	17.22	17.36	0.01	_
20091112_RATP_SCD_1329	7	3	communiquer	NULL	vinf	NULL	B_GVi	OBJ	1	idtext0007	communiquer	W#####	spk1	17.37	18.2	?	//

20091112_RATP_SCD_1329	8	1	ah	DISF_M	pres	NULL	NULL	NOLINK	0	idtext0008	ah	#####	spk2	17.14	17.23	0.01	/
20091112_RATP_SCD_1329	8	2	parce+que	NULL	csu	NULL	B_NULL	ROOT	0	idtext0008	parce+que	#####	spk2	17.24	17.49	0.01	_
20091112_RATP_SCD_1329	8	3	les	NULL	clo	NULL	B_GN	OBJ	4	idtext0008	cla	#3##p##	spk2	17.5	17.63	0.01	_
20091112_RATP_SCD_1329	8	4	est	NULL	v	NULL	B_GVf	OBJ	2	idtext0008	être	P#3##s##	spk2	17.64	17.7	0.01	_
20091112_RATP_SCD_1329	8	5	ce	NULL	cln	NULL	B_GN	SUJ	4	idtext0008	ce	#####	spk2	17.71	18.2	?	_

20091112_RATP_SCD_1329	9	1	si	NULL	csu	NULL	B_NULL	NOLINK	0	idtext0009	si	#####	spk2	18.24	18.3	0.01	_
20091112_RATP_SCD_1329	9	2	les	NULL	det	NULL	B_GN	DET	3	idtext0009	le	###p##d	spk2	18.31	18.48	0.01	_
20091112_RATP_SCD_1329	9	3	réunions	NULL	nc	NULL	I_GN	SUJ	6	idtext0009	réunion	##f#p##	spk2	18.49	18.82	0.01	_
20091112_RATP_SCD_1329	9	4	se	NULL	clr	NULL	B_GVf	AFF	6	idtext0009	se	#####	spk2	18.83	18.93	0.01	_
20091112_RATP_SCD_1329	9	5	sont	NULL	v	NULL	I_GVf	AUX	6	idtext0009	être	P#3##p##	spk2	18.94	19.19	0.01	_
20091112_RATP_SCD_1329	9	6	terminées	NULL	vppart	NULL	I_GVf	ROOT	0	idtext0009	(se)+terminer	K##f#p##	spk2	19.2	19.65	0.01	/
20091112_RATP_SCD_1329	9	7	ou	NULL	coo	NULL	B_NULL	COORD	6	idtext0009	ou	#####	spk2	19.66	19.75	0.01	_
20091112_RATP_SCD_1329	9	8	pas	NULL	advneg	NULL	B_NULL	DEP_COORD	7	idtext0009	pas	#####	spk2	19.76	20.03	?	_

20091112_RATP_SCD_1329	10	1	moi	NULL	pro	NULL	B_GN	SUJ	3	idtext0010	moi	#####	spk1	20.24	20.33	0.01	_
20091112_RATP_SCD_1329	10	2	je	NULL	cln	NULL	B_GN	SUJ	3	idtext0010	cln	#1##s##	spk1	20.34	20.42	0.01	_
20091112_RATP_SCD_1329	10	3	peux	NULL	v	NULL	B_GVfn	ROOT	0	idtext0010	pouvoir	P#12##s##	spk1	20.43	20.5	0.01	_
20091112_RATP_SCD_1329	10	4	pas	NULL	advneg	NULL	I_GVfn	MOD	3	idtext0010	pas	#####	spk1	20.51	20.6	0.01	_
20091112_RATP_SCD_1329	10	5	vous	NULL	clo	NULL	B_GN	A_OBJ	6	idtext0010	cln	#2##p##	spk1	20.61	20.79	0.01	_
20091112_RATP_SCD_1329	10	6	dire	NULL	vinf	NULL	B_GVi	OBJ	3	idtext0010	dire	W#####	spk1	20.8	20.97	?	//

20091112_RATP_SCD_1329	11	1	parce+que	NULL	csu	NULL	B_NULL	ROOT	0	idtext0011	parce+que	#####	spk2	21.09	21.26	0.01	_
20091112_RATP_SCD_1329	11	2	il	NULL	cln	NULL	B_GN	SUJ_IMP	4	idtext0011	cln	#3#m#s##	spk2	21.27	21.34	0.01	_
20091112_RATP_SCD_1329	11	3	y	NULL	clo	NULL	B_GN	AFF	4	idtext0011	y	#####	spk2	21.35	21.41	0.01	_
20091112_RATP_SCD_1329	11	4	avait	NULL	v	NULL	B_GVf	OBJ	1	idtext0011	avoir	I#3##s##	spk2	21.42	21.56	?	//

20091112_RATP_SCD_1329	12	1	il	NULL	cln	NULL	B_GN	SUJ_IMP	3	idtext0012	cln	#3#m#s##	spk2	21.6	21.65	0.01	_
20091112_RATP_SCD_1329	12	2	y	NULL	clo	NULL	B_GN	AFF	3	idtext0012	y	#####	spk2	21.66	21.68	0.01	_
20091112_RATP_SCD_1329	12	3	avait	NULL	v	NULL	B_GVf	ROOT	0	idtext0012	avoir	I#3##s##	spk2	21.69	21.84	?	//

20091112_RATP_SCD_1329	13	1	on	NULL	cln	NULL	B_GN	SUJ	2	idtext0013	cln	#3##s##	spk1	21.6	21.64	0.01	_
20091112_RATP_SCD_1329	13	2	a	NULL	v	NULL	B_GVf	ROOT	0	idtext0013	avoir	P#3##s##	spk1	21.65	21.84	?	//

20091112_RATP_SCD_1329	14	1	une	NULL	det	NULL	B_GN	DET	2	idtext0014	un	##f#s##i	spk2	21.88	21.93	0.01	_
20091112_RATP_SCD_1329	14	2	réunion	NULL	nc	NULL	I_GN	ROOT	0	idtext0014	réunion	##f#s##	spk2	21.94	22.15	0.01	_
20091112_RATP_SCD_1329	14	3	syndicale	NULL	adj	NULL	I_GN	MOD	2	idtext0014	syndical	##f#s##	spk2	22.16	22.36	0.01	//
20091112_RATP_SCD_1329	14	4	une	NULL	det	NULL	B_GN	DET	5	idtext0014	un	##f#s##i	spk2	22.37	22.53	0.01	_
20091112_RATP_SCD_1329	14	5	réunion	NULL	nc	NULL	I_GN	ROOT	0	idtext0014	réunion	##f#s##	spk2	22.54	22.78	?	//

20091112_RATP_SCD_1329	15	1	aujourd'hui	NULL	adv	NULL	B_GADV	NOLINK	0	idtext0015	aujourd'hui	#####	spk2	22.82	23.29	0.01	//
20091112_RATP_SCD_1329	15	2	et	NULL	coo	NULL	B_NULL	NOLINK	0	idtext0015	et	#####	spk2	23.3	23.66	?	_

20091112_RATP_SCD_1329	16	1	hm	DISF_M	pres	NULL	NULL	NOLINK	0	idtext0016	hm	#####	spk1	22.98	23.66	?	//

20091112_RATP_SCD_1329	17	1	on	NULL	cln	NULL	B_GN	SUJ	2	idtext0017	cln	#3##s##	spk1	23.8	23.86	0.01	_
20091112_RATP_SCD_1329	17	2	a	NULL	v	NULL	B_GVfn	ROOT	0	idtext0017	avoir	P#3##s##	spk1	23.87	24.13	0.01	_
20091112_RATP_SCD_1329	17	3	pas+du+tout	NULL	advneg	NULL	I_GVfn	MOD	2	idtext0017	pas+du+tout	#####	spk1	24.14	24.56	0.01	_
20091112_RATP_SCD_1329	17	4	d'	NULL	prep	NULL	B_GP	OBJ	2	idtext0017	d'	#####	spk1	24.57	24.6	0.01	_
20091112_RATP_SCD_1329	17	5	informations	NULL	nc	NULL	I_GP	OBJ	4	idtext0017	information	##f#p##	spk1	24.61	25.36	0.01	//
20091112_RATP_SCD_1329	17	6	donc	NULL	coo	NULL	B_NULL	COORD	2	idtext0017	donc	#####	spk1	25.37	25.53	0.01	_
20091112_RATP_SCD_1329	17	7	si	NULL	csu	NULL	B_NULL	MOD	12	idtext0017	si	#####	spk1	25.54	25.7	0.01	_
20091112_RATP_SCD_1329	17	8	vous	NULL	cln	NULL	B_GN	SUJ	9	idtext0017	cln	#2##p##	spk1	25.71	25.89	0.01	_
20091112_RATP_SCD_1329	17	9	avez	NULL	v	NULL	B_GVf	OBJ	7	idtext0017	avoir	P#2##p##	spk1	25.9	26.04	0.01	_
20091112_RATP_SCD_1329	17	10	internet	NULL	nc	NULL	B_GN	OBJ	9	idtext0017	internet	##m#s##	spk1	26.05	26.63	0.01	_
20091112_RATP_SCD_1329	17	11	il	NULL	cln	NULL	B_GN	SUJ_IMP	12	idtext0017	cln	#3#m#s##	spk1	26.64	26.69	0.01	_
20091112_RATP_SCD_1329	17	12	faudrait	NULL	v	NULL	B_GVf	DEP_COORD	6	idtext0017	falloir	C#3##s##	spk1	26.7	27.03	0.01	_
20091112_RATP_SCD_1329	17	13	consulter	NULL	vinf	NULL	I_GVf	OBJ	12	idtext0017	consulter	W#####	spk1	27.04	27.58	0.01	_
20091112_RATP_SCD_1329	17	14	voir	NULL	vinf	NULL	B_GVi	OBJ	12	idtext0017	voir	W#####	spk1	27.59	27.86	?	//

20091112_RATP_SCD_1329	18	1	oui	NULL	adv	NULL	B_GADV	NOLINK	0	idtext0018	oui	#####	spk2	27.9	28.03	0.01	/
20091112_RATP_SCD_1329	18	2	mais	NULL	coo	NULL	B_NULL	ROOT	0	idtext0018	mais	#####	spk2	28.04	28.16	0.01	_
20091112_RATP_SCD_1329	18	3	là	NULL	adv	NULL	B_GADV	NOLINK	0	idtext0018	là	#####	spk2	28.17	28.44	0.01	_
20091112_RATP_SCD_1329	18	4	euh	DISF_M	pres	NULL	NULL	NOLINK	0	idtext0018	euh	#####	spk2	28.45	28.52	0.01	/
20091112_RATP_SCD_1329	18	5	si	GREF	csu	NULL	B_NULL	ROOT	0	idtext0018	si	#####	spk2	28.53	28.61	0.01	_
20091112_RATP_SCD_1329	18	6	vous	GREF	cln	NULL	B_GN	SUJ	7	idtext0018	cln	#2##p##	spk2	28.62	28.77	0.01	_
20091112_RATP_SCD_1329	18	7	voulez	GREF	v	NULL	B_GVf	OBJ	5	idtext0018	vouloir	P#2##p##	spk2	28.78	29.03	0.01	_
20091112_RATP_SCD_1329	18	8	euh	DISF_M	pres	NULL	NULL	NOLINK	0	idtext0018	euh	#####	spk2	29.04	29.31	0.01	_
20091112_RATP_SCD_1329	18	9	internet	NULL	nc	NULL	B_GN	SUJ	11	idtext0018	internet	##m#s##	spk2	29.32	29.97	0.01	_
20091112_RATP_SCD_1329	18	10	ils	NULL	cln	NULL	B_GN	SUJ	12	idtext0018	cln	#3#m#p##	spk2	29.98	30.13	0.01	_
20091112_RATP_SCD_1329	18	11	avaient	NULL	v	NULL	B_GVf	AUX	12	idtext0018	avoir	I#3##p##	spk2	30.14	30.31	0.01	_
20091112_RATP_SCD_1329	18	12	mis	NULL	vppart	NULL	I_GVf	DEP_COORD	2	idtext0018	mettre	J#12##s##	spk2	30.32	30.43	0.01	_
20091112_RATP_SCD_1329	18	13	des	NULL	det	NULL	B_GN	DET	14	idtext0018	des	###p##i	spk2	30.44	30.57	0.01	_
20091112_RATP_SCD_1329	18	14	choses	NULL	nc	NULL	I_GN	OBJ	12	idtext0018	chose	##f#p##	spk2	30.58	30.87	0.01	/
20091112_RATP_SCD_1329	18	15	si	GREF	csu	NULL	B_NULL	ROOT	0	idtext0018	si	#####	spk2	30.88	30.95	0.01	_
20091112_RATP_SCD_1329	18	16	vous	GREF	cln	NULL	B_GN	SUJ	17	idtext0018	cln	#2##p##	spk2	30.96	31.03	0.01	_
20091112_RATP_SCD_1329	18	17	voulez	GREF	v	NULL	B_GVf	OBJ	15	idtext0018	vouloir	P#2##p##	spk2	31.04	31.27	0.01	//
20091112_RATP_SCD_1329	18	18	qui	NULL	prorel	NULL	B_NULL	SUJ	19	idtext0018	qui	#####	spk2	31.28	31.35	0.01	_
20091112_RATP_SCD_1329	18	19	étaient	NULL	v	NULL	B_GVf	MOD_REL	14	idtext0018	étayer	PS#3##p##	spk2	31.36	31.54	0.01	_
20091112_RATP_SCD_1329	18	20	fausses	NULL	adj	NULL	B_GADJ	ATS	19	idtext0018	faux	##f#p##	spk2	31.55	32.37	0.01	_
20091112_RATP_SCD_1329	18	21	euh	DISF_M	pres	NULL	NULL	NOLINK	0	idtext0018	euh	#####	spk2	32.38	32.47	?	//

20091112_RATP_SCD_1329	19	1	nous	NULL	pro	NULL	B_GN	SUJ	3	idtext0019	nous	#####	spk1	32.51	32.56	0.01	_
20091112_RATP_SCD_1329	19	2	on	NULL	cln	NULL	B_GN	SUJ	3	idtext0019	cln	#3##s##	spk1	32.57	32.66	0.01	_
20091112_RATP_SCD_1329	19	3	avait	NULL	v	NULL	B_GVf	ROOT	0	idtext0019	avoir	I#3##s##	spk1	32.67	32.84	0.01	_
20091112_RATP_SCD_1329	19	4	trois	NULL	adj	NULL	B_GADJ	ATS	3	idtext0019	trois	#####	spk1	32.85	33.11	0.01	_
20091112_RATP_SCD_1329	19	5	sur	NULL	prep	NULL	B_NULL	DEP	4	idtext0019	sur	#####	spk1	33.12	33.29	0.01	_
20091112_RATP_SCD_1329	19	6	quatre	NULL	adj	NULL	B_GADJ	OBJ	5	idtext0019	quatre	#####	spk1	33.3	33.53	?	_

20091112_RATP_SCD_1329	20	1	c'	NULL	cln	NULL	B_GN	SUJ_IMP	2	idtext0020	ce	###s##	spk1	33.61	33.64	0.01	_
20091112_RATP_SCD_1329	20	2	est	NULL	v	NULL	B_GVf	ROOT	0	idtext0020	être	P#3##s##	spk1	33.65	33.67	0.01	_
20091112_RATP_SCD_1329	20	3	les	NULL	det	NULL	B_GN	DET	4	idtext0020	le	###p##d	spk1	33.68	33.76	0.01	_
20091112_RATP_SCD_1329	20	4	informations	NULL	nc	NULL	I_GN	ATS	2	idtext0020	information	##f#p##	spk1	33.77	34.31	0.01	_
20091112_RATP_SCD_1329	20	5	qu'	NULL	prorel	NULL	B_NULL	OBJ	7	idtext0020	qu'	#####	spk1	34.32	34.37	0.01	_
20091112_RATP_SCD_1329	20	6	on	NULL	cln	NULL	B_GN	SUJ_IMP	7	idtext0020	cln	#3##s##	spk1	34.38	34.52	0.01	_
20091112_RATP_SCD_1329	20	7	avait	NULL	v	NULL	B_GVf	MOD_REL	4	idtext0020	avoir	I#3##s##	spk1	34.53	34.77	0.01	_
20091112_RATP_SCD_1329	20	8	hein	DISF_M	pres	NULL	NULL	NOLINK	0	idtext0020	hein	#####	spk1	34.78	34.86	?	//

20091112_RATP_SCD_1329	21	1	oui	NULL	adv	NULL	B_GADV	NOLINK	0	idtext0021	oui	#####	spk2	33.62	33.67	0.01	_
20091112_RATP_SCD_1329	21	2	mais	NULL	coo	NULL	B_NULL	ROOT	0	idtext0021	mais	#####	spk2	33.68	33.82	0.01	_
20091112_RATP_SCD_1329	21	3	il	DISF_R	cln	NULL	NULL	NOLINK	0	idtext0021	cln	#3#m#s##	spk2	33.83	33.88	0.01	_
20091112_RATP_SCD_1329	21	4	il	NULL	cln	NULL	B_GN	SUJ_IMP	7	idtext0021	cln	#3#m#s##	spk2	33.89	34.0	0.01	_
20091112_RATP_SCD_1329	21	5	n'	NULL	clneg	NULL	B_NULL	MOD	7	idtext0021	n'	#####	spk2	34.01	34.1	0.01	_
20091112_RATP_SCD_1329	21	6	y	NULL	clo	NULL	B_GN	NOLINK	0	idtext0021	y	#####	spk2	34.11	34.62	0.01	_
20091112_RATP_SCD_1329	21	7	avait	NULL	v	NULL	B_GVfn	DEP_COORD	2	idtext0021	avoir	I#3##s##	spk2	34.63	34.74	0.01	_
20091112_RATP_SCD_1329	21	8	pas	NULL	advneg	NULL	I_GVfn	MOD	7	idtext0021	pas	#####	spk2	34.75	34.86	?	_

20091112_RATP_SCD_1329	22	1	ce	NULL	det	NULL	B_GN	DET	2	idtext0022	ce	##m#s##e	spk2	34.92	35.11	0.01	_
20091112_RATP_SCD_1329	22	2	soir	NULL	nc	NULL	I_GN	ROOT	0	idtext0022	soir	##m#s##	spk2	35.12	35.31	0.01	_
20091112_RATP_SCD_1329	22	3	sur	NULL	prep	NULL	B_GP	P_OBJ	2	idtext0022	sur	#####	spk2	35.32	35.43	0.01	_
20091112_RATP_SCD_1329	22	4	Denfert	NULL	nc	B_A	I_GP	OBJ	3	idtext0022	Denfert	#####	spk2	35.44	35.89	?	//

20091112_RATP_SCD_1329	23	1	ouais	DISF_R	adv	NULL	NULL	NOLINK	0	idtext0023	ouais	#####	spk1	35.97	36.21	0.01	_
20091112_RATP_SCD_1329	23	2	ouais	DISF_R	adv	NULL	NULL	NOLINK	0	idtext0023	ouais	#####	spk1	36.22	36.38	0.01	_
20091112_RATP_SCD_1329	23	3	ouais	NULL	adv	NULL	B_GADV	NOLINK	0	idtext0023	ouais	#####	spk1	36.39	36.54	?	//

20091112_RATP_SCD_1329	24	1	ben	DISF_M	pres	NULL	NULL	NOLINK	0	idtext0024	ben	#####	spk1	36.58	36.64	0.01	_
20091112_RATP_SCD_1329	24	2	c'	NULL	cln	NULL	B_GN	SUJ_IMP	3	idtext0024	ce	###s##	spk1	36.65	36.74	0.01	_
20091112_RATP_SCD_1329	24	3	est	NULL	v	NULL	B_GVf	ROOT	0	idtext0024	être	P#3##s##	spk1	36.75	36.77	0.01	_
20091112_RATP_SCD_1329	24	4	ce+qu'	NULL	prorel	NULL	B_NULL	OBJ	6	idtext0024	ce+qu'	#####	spk1	36.78	36.86	0.01	_
20091112_RATP_SCD_1329	24	5	on	NULL	cln	NULL	B_GN	SUJ_IMP	6	idtext0024	cln	#3##s##	spk1	36.87	36.93	0.01	_
20091112_RATP_SCD_1329	24	6	avait	NULL	v	NULL	B_GVf	ATS	3	idtext0024	avoir	I#3##s##	spk1	36.94	37.21	?	//

20091112_RATP_SCD_1329	25	1	après	NULL	prep	NULL	B_NULL	NOLINK	0	idtext0025	après	#####	spk2	36.92	37.21	?	_

20091112_RATP_SCD_1329	26	1	comme	NULL	adv	NULL	B_GADV	MOD	16	idtext0026	comme	#####	spk1	37.25	37.38	0.01	_
20091112_RATP_SCD_1329	26	2	information	NULL	nc	NULL	B_GN	OBJ	1	idtext0026	information	##f#s##	spk1	37.39	38.02	0.01	_
20091112_RATP_SCD_1329	26	3	et	NULL	coo	NULL	B_NULL	COORD	1	idtext0026	et	#####	spk1	38.03	38.1	0.01	_
20091112_RATP_SCD_1329	26	4	on	DISF_R	cln	NULL	NULL	NOLINK	0	idtext0026	cln	#3##s##	spk1	38.11	38.36	0.01	_
20091112_RATP_SCD_1329	26	5	on	NULL	cln	NULL	B_GN	SUJ	6	idtext0027	cln	#3##s##	spk1	38.37	38.55	0.01	_
20091112_RATP_SCD_1329	26	6	a	NULL	v	NULL	B_GVfn	DEP_COORD	3	idtext0027	avoir	P#3##s##	spk1	38.56	38.61	0.01	_
20091112_RATP_SCD_1329	26	7	pas	NULL	advneg	NULL	I_GVfn	MOD	6	idtext0027	pas	#####	spk1	38.62	38.76	0.01	_
20091112_RATP_SCD_1329	26	8	plus	NULL	adv	NULL	B_GADV	MOD	6	idtext0027	plus	#####	spk1	38.77	39.1	0.01	_
20091112_RATP_SCD_1329	26	9	d'	NULL	prep	NULL	B_GP	MOD	16	idtext0027	d'	#####	spk1	39.11	39.13	0.01	_
20091112_RATP_SCD_1329	26	10	infos	NULL	nc	NULL	I_GP	OBJ	9	idtext0027	info	##f#p##	spk1	39.14	39.51	0.01	//
20091112_RATP_SCD_1329	26	11	hein	DISF_M	pres	NULL	NULL	NOLINK	0	idtext0027	hein	#####	spk1	39.52	39.7	0.01	_
20091112_RATP_SCD_1329	26	12	on	NULL	cln	NULL	B_GN	SUJ	16	idtext0027	cln	#3##s##	spk1	39.71	39.75	0.01	_
20091112_RATP_SCD_1329	26	13	est	NULL	v	NULL	B_GVfn	AUX	16	idtext0027	être	P#3##s##	spk1	39.76	39.85	0.01	_
20091112_RATP_SCD_1329	26	14	pas	NULL	advneg	NULL	I_GVfn	MOD	13	idtext0027	pas	#####	spk1	39.86	39.98	0.01	_
20091112_RATP_SCD_1329	26	15	plus	NULL	adv	NULL	I_GVfn	MOD	16	idtext0027	plus	#####	spk1	39.99	40.24	0.01	_
20091112_RATP_SCD_1329	26	16	informés	NULL	vppart	NULL	I_GVfn	ROOT	0	idtext0027	informer	K##m#p##	spk1	40.25	40.68	0.01	_
20091112_RATP_SCD_1329	26	17	hein	DISF_M	pres	NULL	NULL	NOLINK	0	idtext0027	hein	#####	spk1	40.69	40.9	?	//

20091112_RATP_SCD_1329	27	1	d'accord	NULL	adv	NULL	B_GADV	NOLINK	0	idtext0028	d'accord	#####	spk2	41.0	41.34	?	//

20091112_RATP_SCD_1329	28	1	euh	DISF_M	pres	NULL	NULL	NOLINK	0	idtext0029	euh	#####	spk2	41.4	41.89	0.01	_
20091112_RATP_SCD_1329	28	2	ben	DISF_M	pres	NULL	NULL	NOLINK	0	idtext0029	ben	#####	spk2	41.9	42.07	0.01	_
20091112_RATP_SCD_1329	28	3	parce+que	NULL	csu	NULL	B_NULL	NOLINK	0	idtext0029	parce+que	#####	spk2	42.08	42.55	0.01	_
20091112_RATP_SCD_1329	28	4	euh	DISF_M	pres	NULL	NULL	NOLINK	0	idtext0029	euh	#####	spk2	42.56	42.61	?	_

20091112_RATP_SCD_1329	29	1	que	NULL	csu	NULL	B_NULL	ROOT	0	idtext0030	que	#####	spk1	41.38	41.55	0.01	_
20091112_RATP_SCD_1329	29	2	ce+qu'	NULL	prorel	NULL	B_NULL	NOLINK	0	idtext0030	ce+qu'	#####	spk1	41.56	41.86	0.01	_
20091112_RATP_SCD_1329	29	3	il	NULL	cln	NULL	B_GN	SUJ_IMP	5	idtext0030	cln	#3#m#s##	spk1	41.87	41.93	0.01	_
20091112_RATP_SCD_1329	29	4	y	NULL	clo	NULL	B_GN	AFF	5	idtext0030	y	#####	spk1	41.94	41.97	0.01	_
20091112_RATP_SCD_1329	29	5	a	NULL	v	NULL	B_GVf	OBJ	1	idtext0030	avoir	P#3##s##	spk1	41.98	42.02	0.01	_
20091112_RATP_SCD_1329	29	6	malheureusement	NULL	adv	NULL	B_GADV	MOD	5	idtext0030	malheureusement	#####	spk1	42.03	42.61	?	_

20091112_RATP_SCD_1329	30	1	sur	NULL	prep	NULL	B_GP	ROOT	0	idtext0031	sur	#####	spk1	42.65	42.85	0.01	_
20091112_RATP_SCD_1329	30	2	le	NULL	det	NULL	I_GP	DET	3	idtext0031	le	##m#s##d	spk1	42.86	42.88	0.01	_
20091112_RATP_SCD_1329	30	3	site	NULL	nc	NULL	I_GP	OBJ	1	idtext0031	site	##m#s##	spk1	42.89	43.35	?	//

20091112_RATP_SCD_1329	31	1	ouais	NULL	adv	NULL	B_GADV	NOLINK	0	idtext0032	ouais	#####	spk2	43.52	43.72	0.01	_
20091112_RATP_SCD_1329	31	2	parce+que	NULL	csu	NULL	B_NULL	ROOT	0	idtext0032	parce+que	#####	spk2	43.73	44.09	0.01	_
20091112_RATP_SCD_1329	31	3	le	NULL	det	NULL	B_GN	DET	4	idtext0032	le	##m#s##d	spk2	44.1	44.17	0.01	_
20091112_RATP_SCD_1329	31	4	site	NULL	nc	NULL	I_GN	OBJ	8	idtext0032	site	##m#s##	spk2	44.18	44.38	0.01	_
20091112_RATP_SCD_1329	31	5	euh	DISF_M	pres	NULL	NULL	NOLINK	0	idtext0032	euh	#####	spk2	44.39	44.41	0.01	_
20091112_RATP_SCD_1329	31	6	je	NULL	cln	NULL	B_GN	SUJ	8	idtext0032	cln	#1##s##	spk2	44.42	44.56	0.01	_
20091112_RATP_SCD_1329	31	7	vous	NULL	clo	NULL	B_GN	A_OBJ	8	idtext0032	cln	#2##p##	spk2	44.57	44.63	0.01	_
20091112_RATP_SCD_1329	31	8	dis	NULL	v	NULL	B_GVf	OBJ	2	idtext0032	dire	PJ#12##s##	spk2	44.64	44.86	0.01	_
20091112_RATP_SCD_1329	31	9	il	NULL	cln	NULL	B_GN	SUJ	12	idtext0032	cln	#3#m#s##	spk2	44.87	44.95	0.01	_
20091112_RATP_SCD_1329	31	10	nous	NULL	clo	NULL	B_GN	A_OBJ	12	idtext0032	cln	#1##p##	spk2	44.96	45.12	0.01	_
20091112_RATP_SCD_1329	31	11	a	NULL	v	NULL	B_GVf	AUX	12	idtext0032	avoir	P#3##s##	spk2	45.13	45.16	0.01	_
20091112_RATP_SCD_1329	31	12	dit	NULL	vppart	NULL	I_GVf	ROOT	0	idtext0032	dire	J#3##s##	spk2	45.17	45.29	0.01	_
20091112_RATP_SCD_1329	31	13	que	NULL	csu	NULL	B_NULL	OBJ	12	idtext0032	que	#####	spk2	45.3	45.44	0.01	_
20091112_RATP_SCD_1329	31	14	les	NULL	det	NULL	B_NULL	OBJ	13	idtext0032	le	###p##d	spk2	45.45	45.57	?	//

20091112_RATP_SCD_1329	32	1	oui	NULL	adv	NULL	B_GADV	NOLINK	0	idtext0033	oui	#####	spk1	45.81	45.91	0.01	_
20091112_RATP_SCD_1329	32	2	vous	NULL	cln	NULL	B_GN	SUJ	3	idtext0033	cln	#2##p##	spk1	45.92	46.04	0.01	_
20091112_RATP_SCD_1329	32	3	êtes	NULL	v	NULL	B_GVfn	ROOT	0	idtext0033	être	P#2##p##	spk1	46.05	46.15	0.01	_
20091112_RATP_SCD_1329	32	4	pas	NULL	advneg	NULL	I_GVfn	MOD	3	idtext0033	pas	#####	spk1	46.16	46.23	0.01	_
20091112_RATP_SCD_1329	32	5	la	NULL	det	NULL	B_GN	DET	6	idtext0033	le	##m#s##d	spk1	46.24	46.31	0.01	_
20091112_RATP_SCD_1329	32	6	première	NULL	adj	NULL	I_GN	ATS	3	idtext0033	premier	##f#s##	spk1	46.32	46.61	?	_

20091112_RATP_SCD_1329	33	1	à	NULL	prep	NULL	B_GP	ROOT	0	idtext0034	à	#####	spk1	46.65	46.67	0.01	_
20091112_RATP_SCD_1329	33	2	nous	NULL	clo	NULL	I_GP	A_OBJ	4	idtext0034	cln	#1##p##	spk1	46.68	46.86	0.01	_
20091112_RATP_SCD_1329	33	3	le	NULL	clo	NULL	B_GN	OBJ	4	idtext0034	cla	#3#m#s##	spk1	46.87	46.9	0.01	_
20091112_RATP_SCD_1329	33	4	dire	NULL	vinf	NULL	B_GVi	OBJ	1	idtext0034	dire	W#####	spk1	46.91	47.13	?	//

20091112_RATP_SCD_1329	34	1	hein	DISF_M	pres	NULL	NULL	NOLINK	0	idtext0035	hein	#####	spk1	47.17	47.62	0.01	_
20091112_RATP_SCD_1329	34	2	effectivement	NULL	adv	NULL	B_GADV	NOLINK	0	idtext0035	effectivement	#####	spk1	47.63	47.97	?	_

20091112_RATP_SCD_1329	35	1	enfin	NULL	adv	NULL	B_GADV	NOLINK	0	idtext0036	enfin	#####	spk2	47.17	47.38	0.01	_
20091112_RATP_SCD_1329	35	2	vous	NULL	pro	NULL	B_GN	NOLINK	0	idtext0036	vous	#####	spk2	47.39	47.65	0.01	_
20091112_RATP_SCD_1329	35	3	c'	NULL	cln	NULL	B_GN	SUJ_IMP	4	idtext0036	ce	###s##	spk2	47.66	47.7	0.01	_
20091112_RATP_SCD_1329	35	4	est	NULL	v	NULL	B_GVfn	ROOT	0	idtext0036	être	P#3##s##	spk2	47.71	47.78	0.01	_
20091112_RATP_SCD_1329	35	5	pas	NULL	advneg	NULL	I_GVfn	MOD	4	idtext0036	pas	#####	spk2	47.79	47.97	?	_

20091112_RATP_SCD_1329	36	1	vous	NULL	cln	NULL	B_GN	NOLINK	0	idtext0037	cln	#2##p##	spk2	48.01	48.06	0.01	_
20091112_RATP_SCD_1329	36	2	à	NULL	prep	NULL	B_NULL	P_OBJ_LOC	5	idtext0037	à	#####	spk2	48.07	48.28	0.01	_
20091112_RATP_SCD_1329	36	3	auquel	NULL	prorel	NULL	B_NULL	NOLINK	0	idtext0037	auquel	#####	spk2	48.29	48.57	0.01	_
20091112_RATP_SCD_1329	36	4	j'	NULL	cln	NULL	B_GN	SUJ	5	idtext0037	cln	#1##s##	spk2	48.58	48.6	0.01	_
20091112_RATP_SCD_1329	36	5	incrimine	NULL	v	NULL	B_GVf	ROOT	0	idtext0037	incriminer	PS#13##s##	spk2	48.61	49.1	0.01	_
20091112_RATP_SCD_1329	36	6	hein	DISF_M	pres	NULL	NULL	NOLINK	0	idtext0037	hein	#####	spk2	49.11	49.24	?	//

20091112_RATP_SCD_1329	37	1	non	DISF_R	adv	NULL	NULL	NOLINK	0	idtext0038	non	#####	spk1	49.41	49.48	0.01	_
20091112_RATP_SCD_1329	37	2	non	DISF_R	adv	NULL	NULL	NOLINK	0	idtext0038	non	#####	spk1	49.49	49.54	0.01	_
20091112_RATP_SCD_1329	37	3	non	NULL	adv	NULL	B_GADV	NOLINK	0	idtext0038	non	#####	spk1	49.55	49.62	0.01	_
20091112_RATP_SCD_1329	37	4	je	NULL	cln	NULL	B_GN	SUJ	5	idtext0038	cln	#1##s##	spk1	49.63	49.69	0.01	_
20091112_RATP_SCD_1329	37	5	sais	NULL	v	NULL	B_GVf	ROOT	0	idtext0038	savoir	P#12##s##	spk1	49.7	49.75	0.01	_
20091112_RATP_SCD_1329	37	6	c'	NULL	cln	NULL	B_GN	SUJ_IMP	7	idtext0039	ce	###s##	spk1	49.76	49.84	0.01	_
20091112_RATP_SCD_1329	37	7	est	NULL	v	NULL	B_GVf	ROOT	0	idtext0039	être	P#3##s##	spk1	49.85	49.99	0.01	_
20091112_RATP_SCD_1329	37	8	pour	NULL	prep	NULL	B_GP	ATS	7	idtext0039	pour	#####	spk1	50.0	50.26	0.01	_
20091112_RATP_SCD_1329	37	9	ça	NULL	pro	NULL	I_GP	OBJ	8	idtext0039	ça	#####	spk1	50.27	50.39	0.01	_
20091112_RATP_SCD_1329	37	10	je	NULL	cln	NULL	B_GN	SUJ	12	idtext0039	cln	#1##s##	spk1	50.4	50.48	0.01	_
20091112_RATP_SCD_1329	37	11	vous	NULL	clo	NULL	B_GN	A_OBJ	12	idtext0039	cln	#2##p##	spk1	50.49	50.55	0.01	_
20091112_RATP_SCD_1329	37	12	dis	NULL	v	NULL	B_GVf	ROOT	0	idtext0039	dire	PJ#12##s##	spk1	50.56	50.72	0.01	_
20091112_RATP_SCD_1329	37	13	que	NULL	csu	NULL	B_NULL	OBJ	12	idtext0039	que	#####	spk1	50.73	50.89	0.01	_
20091112_RATP_SCD_1329	37	14	effectivement	NULL	adv	NULL	B_GADV	NOLINK	0	idtext0039	effectivement	#####	spk1	50.9	51.36	0.01	_
20091112_RATP_SCD_1329	37	15	on	NULL	cln	NULL	B_GN	SUJ	17	idtext0039	cln	#3##s##	spk1	51.37	51.44	0.01	_
20091112_RATP_SCD_1329	37	16	a	NULL	v	NULL	B_GVf	AUX	17	idtext0039	avoir	P#3##s##	spk1	51.45	51.52	0.01	_
20091112_RATP_SCD_1329	37	17	eu	NULL	vppart	NULL	I_GVf	OBJ	13	idtext0039	avoir	K##m#s##	spk1	51.53	51.61	0.01	_
20091112_RATP_SCD_1329	37	18	pas+mal+d'	NULL	det	NULL	B_GN	DET	19	idtext0039	pas+mal+d'	#####	spk1	51.62	51.99	0.01	_
20091112_RATP_SCD_1329	37	19	appels	NULL	nc	NULL	I_GN	OBJ	17	idtext0039	appel	##m#p##	spk1	52.0	52.29	0.01	_
20091112_RATP_SCD_1329	37	20	nous	NULL	clo	NULL	B_GN	A_OBJ	21	idtext0039	cln	#1##p##	spk1	52.3	52.44	0.01	_
20091112_RATP_SCD_1329	37	21	disant	NULL	vprespart	NULL	B_GVf	MOD	19	idtext0039	dire	G#####	spk1	52.45	52.73	0.01	_
20091112_RATP_SCD_1329	37	22	qu'	NULL	csu	NULL	B_NULL	OBJ	9	idtext0039	qu'	#####	spk1	52.74	52.81	0.01	_
20091112_RATP_SCD_1329	37	23	effectivement	NULL	adv	NULL	B_GADV	NOLINK	0	idtext0039	effectivement	#####	spk1	52.82	53.47	0.01	_
20091112_RATP_SCD_1329	37	24	il	NULL	cln	NULL	B_GN	SUJ_IMP	26	idtext0039	cln	#3#m#s##	spk1	53.48	53.54	0.01	_
20091112_RATP_SCD_1329	37	25	y	NULL	clo	NULL	B_GN	AFF	26	idtext0039	y	#####	spk1	53.55	53.57	0.01	_
20091112_RATP_SCD_1329	37	26	avait	NULL	v	NULL	B_GVf	OBJ	22	idtext0039	avoir	I#3##s##	spk1	53.58	53.71	0.01	_
20091112_RATP_SCD_1329	37	27	trois	NULL	adj	NULL	B_GN	MOD	28	idtext0039	trois	#####	spk1	53.72	53.91	0.01	_
20091112_RATP_SCD_1329	37	28	trains	NULL	nc	NULL	I_GN	OBJ	26	idtext0039	train	##m#p##	spk1	53.92	54.06	0.01	_
20091112_RATP_SCD_1329	37	29	sur	NULL	prep	NULL	B_NULL	MOD	28	idtext0039	sur	#####	spk1	54.07	54.15	0.01	_
20091112_RATP_SCD_1329	37	30	quatre	NULL	adj	NULL	B_GADJ	MOD	31	idtext0039	quatre	#####	spk1	54.16	54.36	0.01	_
20091112_RATP_SCD_1329	37	31	noté	NULL	vppart	NULL	B_GVf	OBJ	29	idtext0039	noter	K##m#s##	spk1	54.37	54.66	0.01	_
20091112_RATP_SCD_1329	37	32	sur	DISF_R	prep	NULL	NULL	NOLINK	0	idtext0039	sur	#####	spk1	54.67	54.92	0.01	_
20091112_RATP_SCD_1329	37	33	le	DISF_R	det	NULL	NULL	NOLINK	0	idtext0039	le	##m#s##d	spk1	54.93	55.24	0.01	_
20091112_RATP_SCD_1329	37	34	sur	NULL	prep	NULL	B_GP	P_OBJ	31	idtext0039	sur	#####	spk1	55.25	55.52	0.01	_
20091112_RATP_SCD_1329	37	35	le	NULL	det	NULL	I_GP	DET	36	idtext0039	le	##m#s##d	spk1	55.53	55.79	0.01	_
20091112_RATP_SCD_1329	37	36	site	NULL	nc	NULL	I_GP	OBJ	34	idtext0039	site	##m#s##	spk1	55.8	56.49	0.01	_
20091112_RATP_SCD_1329	37	37	et	NULL	coo	NULL	B_NULL	COORD	36	idtext0040	et	#####	spk1	56.5	56.77	0.01	_
20091112_RATP_SCD_1329	37	38	mais	NULL	coo	NULL	B_NULL	COORD	26	idtext0040	mais	#####	spk1	56.78	56.94	0.01	_
20091112_RATP_SCD_1329	37	39	bon	DISF_M	pres	NULL	NULL	NOLINK	0	idtext0040	bon	#####	spk1	56.95	57.18	0.01	/
20091112_RATP_SCD_1329	37	40	nous	NULL	pro	NULL	B_GN	SUJ	42	idtext0040	nous	#####	spk1	57.19	57.32	0.01	_
20091112_RATP_SCD_1329	37	41	on	NULL	cln	NULL	B_GN	SUJ	42	idtext0040	cln	#3##s##	spk1	57.33	57.55	0.01	_
20091112_RATP_SCD_1329	37	42	a	NULL	v	NULL	B_GVf	DEP_COORD	38	idtext0040	avoir	P#3##s##	spk1	57.56	57.65	0.01	_
20091112_RATP_SCD_1329	37	43	que	NULL	advneg	NULL	B_NULL	MOD	42	idtext0040	que	#####	spk1	57.66	57.78	0.01	_
20091112_RATP_SCD_1329	37	44	ça	NULL	pro	NULL	B_GN	OBJ	42	idtext0040	ça	#####	spk1	57.79	57.95	0.01	_
20091112_RATP_SCD_1329	37	45	comme	NULL	adv	NULL	B_GADV	DEP_COORD	37	idtext0040	comme	#####	spk1	57.96	58.14	0.01	_
20091112_RATP_SCD_1329	37	46	informations	NULL	nc	NULL	B_GN	OBJ	45	idtext0040	information	##f#p##	spk1	58.15	58.62	0.01	//
20091112_RATP_SCD_1329	37	47	on	NULL	cln	NULL	B_GN	SUJ_IMP	48	idtext0040	cln	#3##s##	spk1	58.63	58.65	0.01	_
20091112_RATP_SCD_1329	37	48	peut	NULL	v	NULL	B_GVfn	OBJ	43	idtext0040	pouvoir	P#3##s##	spk1	58.66	58.78	0.01	_
20091112_RATP_SCD_1329	37	49	pas	NULL	advneg	NULL	I_GVfn	MOD	48	idtext0040	pas	#####	spk1	58.79	58.95	0.01	_
20091112_RATP_SCD_1329	37	50	vous	NULL	clo	NULL	B_GN	A_OBJ	51	idtext0040	cln	#2##p##	spk1	58.96	59.07	0.01	_
20091112_RATP_SCD_1329	37	51	dire	NULL	vinf	NULL	B_GVi	OBJ	48	idtext0040	dire	W#####	spk1	59.08	59.24	0.01	_
20091112_RATP_SCD_1329	37	52	autre+chose	NULL	pro	NULL	B_GN	OBJ	51	idtext0040	autre+chose	#####	spk1	59.25	59.76	0.01	//
20091112_RATP_SCD_1329	37	53	hein	DISF_M	pres	NULL	NULL	NOLINK	0	idtext0040	hein	#####	spk1	59.77	59.83	0.01	_
20091112_RATP_SCD_1329	37	54	on	NULL	cln	NULL	B_GN	SUJ	55	idtext0040	cln	#3##s##	spk1	59.84	59.96	0.01	_
20091112_RATP_SCD_1329	37	55	a	NULL	v	NULL	B_GVf	ROOT	0	idtext0040	avoir	P#3##s##	spk1	59.97	60.05	?	//

20091112_RATP_SCD_1329	38	1	rien	NULL	pro	NULL	B_GN	NOLINK	0	idtext0041	rien	#####	spk1	60.12	60.58	0.01	_
20091112_RATP_SCD_1329	38	2	d'	NULL	prep	NULL	B_GP	ROOT	0	idtext0041	d'	#####	spk1	60.59	60.61	0.01	_
20091112_RATP_SCD_1329	38	3	autre	NULL	pro	NULL	I_GP	OBJ	2	idtext0041	autre	#####	spk1	60.62	60.75	0.01	_
20091112_RATP_SCD_1329	38	4	hein	DISF_M	pres	NULL	NULL	NOLINK	0	idtext0041	hein	#####	spk1	60.76	60.82	?	//

20091112_RATP_SCD_1329	39	1	et	NULL	coo	NULL	B_NULL	ROOT	0	idtext0042	et	#####	spk2	60.1	60.19	0.01	_
20091112_RATP_SCD_1329	39	2	même+si	NULL	csu	NULL	B_NULL	DEP_COORD	1	idtext0042	même+si	#####	spk2	60.2	60.55	0.01	_
20091112_RATP_SCD_1329	39	3	j'	NULL	cln	NULL	B_GN	SUJ	4	idtext0042	cln	#1##s##	spk2	60.56	60.59	0.01	_
20091112_RATP_SCD_1329	39	4	appelle	NULL	v	NULL	B_GVf	OBJ	2	idtext0042	appeler	PS#13##s##	spk2	60.6	60.82	?	//

20091112_RATP_SCD_1329	40	1	dans	NULL	prep	NULL	B_GP	ROOT	0	idtext0043	dans	#####	spk2	60.86	60.97	0.01	_
20091112_RATP_SCD_1329	40	2	un	NULL	det	NULL	I_GP	DET	3	idtext0043	un	##m#s##i	spk2	60.98	61.04	0.01	_
20091112_RATP_SCD_1329	40	3	quart	NULL	nc	NULL	I_GP	OBJ	1	idtext0043	quart	##m#s##	spk2	61.05	61.24	0.01	_
20091112_RATP_SCD_1329	40	4	d'	NULL	prep	NULL	B_GP	DEP	3	idtext0043	d'	#####	spk2	61.25	61.31	0.01	_
20091112_RATP_SCD_1329	40	5	heure	NULL	nc	NULL	I_GP	OBJ	4	idtext0043	heure	##f#s##	spk2	61.32	61.39	0.01	_
20091112_RATP_SCD_1329	40	6	vous	NULL	cln	NULL	B_GN	SUJ	8	idtext0043	cln	#2##p##	spk2	61.4	61.47	0.01	_
20091112_RATP_SCD_1329	40	7	en	NULL	clo	NULL	B_GN	OBJ	8	idtext0043	en	#####	spk2	61.48	61.5	0.01	_
20091112_RATP_SCD_1329	40	8	saurez	NULL	v	NULL	B_GVfn	ROOT	0	idtext0043	saurer	P#2##p##	spk2	61.51	61.64	0.01	_
20091112_RATP_SCD_1329	40	9	pas	NULL	advneg	NULL	I_GVfn	MOD	8	idtext0043	pas	#####	spk2	61.65	61.83	?	_

20091112_RATP_SCD_1329	41	1	plus	NULL	adv	NULL	B_GADV	NOLINK	0	idtext0044	plus	#####	spk2	61.87	62.27	?	//

20091112_RATP_SCD_1329	42	1	non	NULL	adv	NULL	B_GADV	NOLINK	0	idtext0045	non	#####	spk1	61.87	62.27	?	_

20091112_RATP_SCD_1329	43	1	non	NULL	adv	NULL	B_GADV	MOD	2	idtext0046	non	#####	spk1	62.35	62.55	0.01	_
20091112_RATP_SCD_1329	43	2	là	NULL	adv	NULL	I_GADV	ROOT	0	idtext0046	là	#####	spk1	62.56	62.65	0.01	_
20091112_RATP_SCD_1329	43	3	pour	NULL	prep	NULL	B_GP	ROOT	0	idtext0046	pour	#####	spk1	62.66	62.81	0.01	_
20091112_RATP_SCD_1329	43	4	l'	NULL	det	NULL	I_GP	DET	5	idtext0046	le	###s##d	spk1	62.82	62.84	0.01	_
20091112_RATP_SCD_1329	43	5	instant	NULL	nc	NULL	I_GP	OBJ	3	idtext0046	instant	##m#s##	spk1	62.85	63.07	0.01	_
20091112_RATP_SCD_1329	43	6	on	NULL	cln	NULL	B_GN	SUJ	7	idtext0046	cln	#3##s##	spk1	63.08	63.14	0.01	_
20091112_RATP_SCD_1329	43	7	a	NULL	v	NULL	B_GVfn	ROOT	0	idtext0046	avoir	P#3##s##	spk1	63.15	63.2	0.01	_
20091112_RATP_SCD_1329	43	8	pas	NULL	advneg	NULL	I_GVfn	MOD	7	idtext0046	pas	#####	spk1	63.21	63.85	0.01	_
20091112_RATP_SCD_1329	43	9	d'	NULL	det	NULL	B_NULL	OBJ	7	idtext0046	de	###p##i	spk1	63.86	64.09	?	_

20091112_RATP_SCD_1329	44	1	et	NULL	coo	NULL	B_NULL	ROOT	0	idtext0047	et	#####	spk2	64.35	64.55	0.01	_
20091112_RATP_SCD_1329	44	2	demain	NULL	adv	NULL	B_GADV	MOD	4	idtext0047	demain	#####	spk2	64.56	64.87	0.01	_
20091112_RATP_SCD_1329	44	3	vous	NULL	cln	NULL	B_GN	SUJ	4	idtext0047	cln	#2##p##	spk2	64.88	64.93	0.01	_
20091112_RATP_SCD_1329	44	4	êtes	NULL	v	NULL	B_GVf	DEP_COORD	1	idtext0047	être	P#2##p##	spk2	64.94	65.06	0.01	_
20091112_RATP_SCD_1329	44	5	de	DISF_R	prep	NULL	NULL	NOLINK	0	idtext0047	de	#####	spk2	65.07	65.18	0.01	_
20091112_RATP_SCD_1329	44	6	à	NULL	prep	NULL	B_NULL	P_OBJ_LOC	4	idtext0047	à	#####	spk2	65.19	65.34	0.01	_
20091112_RATP_SCD_1329	44	7	à	NULL	prep	NULL	B_GP	MOD	4	idtext0047	à	#####	spk2	65.35	65.46	0.01	_
20091112_RATP_SCD_1329	44	8	partir	NULL	vinf	NULL	I_GP	OBJ	7	idtext0047	partir	W#####	spk2	65.47	65.75	0.01	_
20091112_RATP_SCD_1329	44	9	de	NULL	prep	NULL	B_NULL	NOLINK	0	idtext0047	de	#####	spk2	65.76	65.87	?	_

20091112_RATP_SCD_1329	45	1	quelle	NULL	det	NULL	B_GN	DET	2	idtext0048	quel	##f#s##	spk2	65.93	66.1	0.01	_
20091112_RATP_SCD_1329	45	2	heure	NULL	nc	NULL	I_GN	ATS	4	idtext0048	heure	##f#s##	spk2	66.11	66.25	0.01	_
20091112_RATP_SCD_1329	45	3	on	NULL	cln	NULL	B_GN	SUJ_IMP	4	idtext0048	cln	#3##s##	spk2	66.26	66.31	0.01	_
20091112_RATP_SCD_1329	45	4	peut	NULL	v	NULL	B_GVf	ROOT	0	idtext0048	pouvoir	P#3##s##	spk2	66.32	66.51	?	//

20091112_RATP_SCD_1329	46	1	à+partir+de	NULL	prep	NULL	B_NULL	NOLINK	0	idtext0049	à+partir+de	#####	spk1	65.98	66.51	?	_

20091112_RATP_SCD_1329	47	1	sept	NULL	det	B_H	B_GN	DET	2	idtext0050	sept	#####	spk1	66.56	66.75	0.01	_
20091112_RATP_SCD_1329	47	2	heures	NULL	nc	I_H	I_GN	NOLINK	0	idtext0050	heure	##f#p##	spk1	66.76	67.0	?	//

20091112_RATP_SCD_1329	48	1	pardon	DISF_M	pres	NULL	NULL	NOLINK	0	idtext0051	pardon	#####	spk2	67.07	67.43	?	//

20091112_RATP_SCD_1329	49	1	à+partir+de	NULL	prep	NULL	B_GP	ROOT	0	idtext0052	à+partir+de	#####	spk1	67.48	67.92	0.01	_
20091112_RATP_SCD_1329	49	2	sept	NULL	det	B_H	I_GP	DET	3	idtext0052	sept	#####	spk1	67.93	68.24	0.01	_
20091112_RATP_SCD_1329	49	3	heures	NULL	nc	I_H	I_GP	OBJ	1	idtext0052	heure	##f#p##	spk1	68.25	68.4	?	//

20091112_RATP_SCD_1329	50	1	bon	DISF_M	pres	NULL	NULL	NOLINK	0	idtext0053	bon	#####	spk2	68.44	68.76	?	_

20091112_RATP_SCD_1329	51	1	en+tout+cas	NULL	adv	NULL	B_GADV	MOD	2	idtext0054	en+tout+cas	#####	spk2	68.94	69.21	0.01	_
20091112_RATP_SCD_1329	51	2	merci	NULL	adv	NULL	I_GADV	ROOT	0	idtext0054	merci	#####	spk2	69.22	69.57	?	//

20091112_RATP_SCD_1329	52	1	bonne	NULL	adj	NULL	B_GN	MOD	2	idtext0055	bon	##f#s##	spk2	69.61	69.72	0.01	_
20091112_RATP_SCD_1329	52	2	soirée	NULL	nc	NULL	I_GN	ROOT	0	idtext0055	soirée	##f#s##	spk2	69.73	70.15	?	//

20091112_RATP_SCD_1329	53	1	merci	NULL	adv	NULL	B_GADV	NOLINK	0	idtext0056	merci	#####	spk1	69.61	70.15	?	//

20091112_RATP_SCD_1329	54	1	bonne	NULL	adj	NULL	B_GN	MOD	2	idtext0057	bon	##f#s##	spk1	70.19	70.27	0.01	_
20091112_RATP_SCD_1329	54	2	soirée	NULL	nc	NULL	I_GN	ROOT	0	idtext0057	soirée	##f#s##	spk1	70.28	70.52	0.01	_
20091112_RATP_SCD_1329	54	3	à	NULL	prep	NULL	B_GP	ROOT	0	idtext0057	à	#####	spk1	70.53	70.56	0.01	_
20091112_RATP_SCD_1329	54	4	vous	NULL	pro	NULL	I_GP	OBJ	3	idtext0057	vous	#####	spk1	70.57	70.67	0.01	//
20091112_RATP_SCD_1329	54	5	madame	NULL	nc	NULL	I_GP	NOLINK	0	idtext0057	Monsieur	##f#s##	spk1	70.68	70.92	?	_

20091112_RATP_SCD_1329	55	1	au+revoir	NULL	adv	NULL	B_GADV	NOLINK	0	idtext0058	au+revoir	#####	spk1	70.96	71.49	?	//

20091112_RATP_SCD_1329	56	1	au+revoir	NULL	adv	NULL	B_GADV	NOLINK	0	idtext0059	au+revoir	#####	spk2	70.96	71.49	?	//

