20091112_RATP_SCD_0060	1	1	NNAAMMEE	NULL	np	B_HU	B_GN	ROOT	0	idtext0000	ANONYM	NULL	spk1	3.48	3.74	0.04	_
20091112_RATP_SCD_0060	1	2	va	NULL	v	NULL	B_GVf	ROOT	0	idtext0001	aller	P#3##s##	spk1	3.78	3.83	0.01	_
20091112_RATP_SCD_0060	1	3	vous	NULL	clo	NULL	B_GN	A_OBJ	4	idtext0001	cln	#2##p##	spk1	3.84	4.14	0.01	_
20091112_RATP_SCD_0060	1	4	répondre	NULL	vinf	NULL	B_GVi	OBJ	2	idtext0001	répondre	W#####	spk1	4.15	4.9	?	//

20091112_RATP_SCD_0060	2	1	NNAAMMEE	NULL	np	B_HU	B_GN	ROOT	0	idtext0002	ANONYM	NULL	spk2	5.22	5.42	0.04	_
20091112_RATP_SCD_0060	2	2	bonjour	NULL	adv	NULL	B_GADV	NOLINK	0	idtext0003	bonjour	#####	spk2	5.46	6.33	?	//

20091112_RATP_SCD_0060	3	1	oui	NULL	adv	NULL	B_GADV	MOD	2	idtext0004	oui	#####	spk3	6.57	7.0	0.01	_
20091112_RATP_SCD_0060	3	2	bonjour	NULL	adv	NULL	I_GADV	ROOT	0	idtext0004	bonjour	#####	spk3	7.01	7.35	0.01	//
20091112_RATP_SCD_0060	3	3	madame	NULL	nc	NULL	B_GN	NOLINK	0	idtext0004	Monsieur	##f#s##	spk3	7.36	8.46	0.01	_
20091112_RATP_SCD_0060	3	4	euh	DISF_M	pres	NULL	NULL	NOLINK	0	idtext0004	euh	#####	spk3	8.47	8.49	0.01	_
20091112_RATP_SCD_0060	3	5	je	NULL	cln	NULL	B_GN	SUJ	6	idtext0004	cln	#1##s##	spk3	8.5	8.72	0.01	_
20091112_RATP_SCD_0060	3	6	voudrais	NULL	v	NULL	B_GVf	ROOT	0	idtext0004	vouloir	C#12##s##	spk3	8.73	9.0	0.01	_
20091112_RATP_SCD_0060	3	7	un	NULL	det	NULL	B_GN	DET	9	idtext0004	un	##m#s##i	spk3	9.01	9.1	0.01	_
20091112_RATP_SCD_0060	3	8	petit	NULL	adj	NULL	I_GN	MOD	9	idtext0004	petit	##m#s##	spk3	9.11	9.21	0.01	_
20091112_RATP_SCD_0060	3	9	renseignement	NULL	nc	NULL	I_GN	OBJ	6	idtext0004	renseignement	##m#s##	spk3	9.22	9.88	0.01	_
20091112_RATP_SCD_0060	3	10	s'il+vous+plaît	NULL	adv	NULL	B_GADV	NOLINK	0	idtext0004	s'il+vous+plaît	#####	spk3	9.89	10.86	?	//

20091112_RATP_SCD_0060	4	1	oui	NULL	adv	NULL	B_GADV	NOLINK	0	idtext0005	oui	#####	spk2	11.02	11.25	?	//

20091112_RATP_SCD_0060	5	1	euh	DISF_M	pres	NULL	NULL	NOLINK	0	idtext0006	euh	#####	spk3	11.29	11.32	0.01	_
20091112_RATP_SCD_0060	5	2	je	NULL	cln	NULL	B_GN	SUJ	3	idtext0006	cln	#1##s##	spk3	11.33	11.77	0.01	_
20091112_RATP_SCD_0060	5	3	voulais	NULL	v	NULL	B_GVf	ROOT	0	idtext0006	vouloir	I#12##s##	spk3	11.78	12.29	0.01	_
20091112_RATP_SCD_0060	5	4	savoir	NULL	vinf	NULL	I_GVf	OBJ	3	idtext0006	savoir	W#####	spk3	12.3	12.82	0.01	_
20091112_RATP_SCD_0060	5	5	si	NULL	csu	NULL	B_NULL	OBJ	4	idtext0006	si	#####	spk3	12.83	12.92	0.01	_
20091112_RATP_SCD_0060	5	6	le	NULL	det	NULL	B_GN	DET	7	idtext0006	le	##m#s##d	spk3	12.93	13.17	0.01	_
20091112_RATP_SCD_0060	5	7	centre	NULL	nc	NULL	I_GN	OBJ	3	idtext0006	centre	##m#s##	spk3	13.18	13.59	0.01	_
20091112_RATP_SCD_0060	5	8	de	NULL	prep	NULL	B_GP	DEP	7	idtext0006	de	#####	spk3	13.6	13.7	0.01	_
20091112_RATP_SCD_0060	5	9	recouvrement	NULL	nc	NULL	I_GP	OBJ	8	idtext0006	recouvrement	##m#s##	spk3	13.71	14.45	0.01	_
20091112_RATP_SCD_0060	5	10	des	NULL	prep	NULL	B_GP	DEP	9	idtext0006	des	#####	spk3	14.46	14.62	0.01	_
20091112_RATP_SCD_0060	5	11	infractions	NULL	nc	NULL	I_GP	OBJ	10	idtext0006	infraction	##f#p##	spk3	14.63	15.95	0.08	_
20091112_RATP_SCD_0060	5	12	est	NULL	v	NULL	B_GVf	ROOT	0	idtext0007	être	P#3##s##	spk3	16.03	16.21	0.01	_
20091112_RATP_SCD_0060	5	13	bien	NULL	adv	NULL	B_GADV	MOD	12	idtext0007	bien	#####	spk3	16.22	16.82	0.01	_
20091112_RATP_SCD_0060	5	14	Jules	NULL	np	B_A	B_GN	NOLINK	0	idtext0007	Jules	###s##	spk3	16.83	17.58	0.01	//
20091112_RATP_SCD_0060	5	15	euh	DISF_M	pres	I_A	NULL	NOLINK	0	idtext0008	euh	#####	spk3	17.59	17.62	0.01	_
20091112_RATP_SCD_0060	5	16	Vallès	NULL	np	I_A	I_GN	MOD	14	idtext0008	Vallès	#####	spk3	17.63	18.49	?	//

20091112_RATP_SCD_0060	6	1	oui	NULL	adv	NULL	B_GADV	NOLINK	0	idtext0009	oui	#####	spk2	18.73	19.15	?	//

20091112_RATP_SCD_0060	7	1	oui	NULL	adv	NULL	B_GADV	NOLINK	0	idtext0010	oui	#####	spk3	19.33	20.16	0.01	//
20091112_RATP_SCD_0060	7	2	et	NULL	coo	NULL	B_NULL	NOLINK	0	idtext0011	et	#####	spk3	20.17	20.6	?	_

20091112_RATP_SCD_0060	8	1	oui	DISF_R	adv	NULL	NULL	NOLINK	0	idtext0012	oui	#####	spk2	19.33	19.56	0.01	_
20091112_RATP_SCD_0060	8	2	oui	NULL	adv	NULL	B_GADV	MOD	3	idtext0012	oui	#####	spk2	19.57	19.7	0.01	_
20091112_RATP_SCD_0060	8	3	tout+à+fait	NULL	adv	NULL	I_GADV	MOD	4	idtext0012	tout+à+fait	#####	spk2	19.71	20.35	0.01	_
20091112_RATP_SCD_0060	8	4	oui	NULL	adv	NULL	I_GADV	ROOT	0	idtext0012	oui	#####	spk2	20.36	20.6	?	_

20091112_RATP_SCD_0060	9	1	c'	NULL	cln	NULL	B_GN	SUJ_IMP	3	idtext0013	ce	###s##	spk3	20.64	20.66	0.01	_
20091112_RATP_SCD_0060	9	2	est	NULL	v	NULL	B_GVf	AUX	3	idtext0013	être	P#3##s##	spk3	20.67	20.8	0.01	_
20091112_RATP_SCD_0060	9	3	ouvert	NULL	vppart	NULL	I_GVf	ROOT	0	idtext0013	ouvrir	K##m#s##	spk3	20.81	21.12	0.01	_
20091112_RATP_SCD_0060	9	4	aujourd'hui	NULL	adv	NULL	B_GADV	MOD	3	idtext0013	aujourd'hui	#####	spk3	21.13	21.82	?	//

20091112_RATP_SCD_0060	10	1	oui	NULL	adv	NULL	B_GADV	NOLINK	0	idtext0014	oui	#####	spk2	21.86	22.65	0.01	_
20091112_RATP_SCD_0060	10	2	donc	NULL	coo	NULL	B_NULL	ROOT	0	idtext0015	donc	#####	spk2	22.66	22.97	0.01	_
20091112_RATP_SCD_0060	10	3	il	NULL	cln	NULL	B_GN	SUJ	5	idtext0016	cln	#3#m#s##	spk2	22.98	23.07	0.01	_
20091112_RATP_SCD_0060	10	4	est	NULL	v	NULL	B_GVf	AUX	5	idtext0016	être	P#3##s##	spk2	23.08	23.29	0.01	_
20091112_RATP_SCD_0060	10	5	ouvert	NULL	vppart	NULL	I_GVf	DEP_COORD	2	idtext0016	ouvrir	K##m#s##	spk2	23.3	23.89	0.01	_
20091112_RATP_SCD_0060	10	6	de	NULL	prep	NULL	B_GP	MOD	5	idtext0016	de	#####	spk2	23.9	24.11	0.01	_
20091112_RATP_SCD_0060	10	7	huit	NULL	det	B_H	I_GP	DET	8	idtext0016	huit	#####	spk2	24.12	24.45	0.01	_
20091112_RATP_SCD_0060	10	8	heures	NULL	nc	I_H	I_GP	OBJ	6	idtext0016	heure	##f#p##	spk2	24.46	24.74	0.01	_
20091112_RATP_SCD_0060	10	9	trente	NULL	adj	I_H	I_GP	MOD	8	idtext0016	trente	#####	spk2	24.75	25.47	0.53	/
20091112_RATP_SCD_0060	10	10	jusqu'à	NULL	prep	NULL	B_GP	ROOT	0	idtext0017	jusqu'à	#####	spk2	26.0	26.26	0.01	_
20091112_RATP_SCD_0060	10	11	dix-neuf	NULL	det	B_H	I_GP	DET	12	idtext0017	dix-neuf	#####	spk2	26.27	26.78	0.01	_
20091112_RATP_SCD_0060	10	12	heures	NULL	nc	I_H	I_GP	OBJ	10	idtext0017	heure	##f#p##	spk2	26.79	27.45	?	//

20091112_RATP_SCD_0060	11	1	d'accord	NULL	adv	NULL	B_GADV	NOLINK	0	idtext0018	d'accord	#####	spk3	27.63	28.25	0.01	_
20091112_RATP_SCD_0060	11	2	madame	NULL	nc	NULL	B_GN	NOLINK	0	idtext0018	Monsieur	##f#s##	spk3	28.26	28.58	?	//

20091112_RATP_SCD_0060	12	1	ben	DISF_M	pres	NULL	NULL	NOLINK	0	idtext0019	ben	#####	spk3	28.64	28.73	0.01	_
20091112_RATP_SCD_0060	12	2	je	NULL	cln	NULL	B_GN	SUJ	4	idtext0019	cln	#1##s##	spk3	28.74	28.83	0.01	_
20091112_RATP_SCD_0060	12	3	vous	NULL	clo	NULL	B_GN	OBJ	4	idtext0019	cln	#2##p##	spk3	28.84	28.93	0.01	_
20091112_RATP_SCD_0060	12	4	remercie	NULL	v	NULL	B_GVf	ROOT	0	idtext0019	remercier	PS#13##s##	spk3	28.94	29.33	0.01	_
20091112_RATP_SCD_0060	12	5	beaucoup	NULL	adv	NULL	B_GADV	MOD	4	idtext0019	beaucoup	#####	spk3	29.34	30.41	?	_

20091112_RATP_SCD_0060	13	1	euh	DISF_M	pres	NULL	NULL	NOLINK	0	idtext0020	euh	#####	spk2	28.62	28.73	0.01	_
20091112_RATP_SCD_0060	13	2	je	NULL	cln	NULL	B_GN	SUJ	5	idtext0020	cln	#1##s##	spk2	28.74	29.3	0.01	_
20091112_RATP_SCD_0060	13	3	vous	NULL	clo	NULL	B_GN	OBJ	5	idtext0020	cln	#2##p##	spk2	29.31	30.06	0.01	_
20091112_RATP_SCD_0060	13	4	en	NULL	clo	NULL	B_GN	DE_OBJ	5	idtext0020	en	#####	spk2	30.07	30.16	0.01	_
20091112_RATP_SCD_0060	13	5	prie	NULL	v	NULL	B_GVf	ROOT	0	idtext0020	prier	PS#13##s##	spk2	30.17	30.41	?	//

20091112_RATP_SCD_0060	14	1	au+revoir	NULL	adv	NULL	B_GADV	NOLINK	0	idtext0021	au+revoir	#####	spk3	30.45	30.95	?	//

20091112_RATP_SCD_0060	15	1	bonne	NULL	adj	NULL	B_GN	MOD	2	idtext0022	bon	##f#s##	spk2	31.0	31.1	0.01	_
20091112_RATP_SCD_0060	15	2	journée	NULL	nc	NULL	I_GN	ROOT	0	idtext0022	journée	##f#s##	spk2	31.11	31.35	0.01	_
20091112_RATP_SCD_0060	15	3	au+revoir	NULL	adv	NULL	B_GADV	NOLINK	0	idtext0022	au+revoir	#####	spk2	31.36	32.32	?	//

