20091112_RATP_SCD_0815	1	1	allo	NULL	adv	NULL	B_GADV	NOLINK	0	idtext0000	allo	#####	spk2	5.58	5.84	?	//

20091112_RATP_SCD_0815	2	1	NNAAMMEE	NULL	np	B_HU	B_GN	ROOT	0	idtext0001	ANONYM	NULL	spk1	7.14	7.6	0.05	_
20091112_RATP_SCD_0815	2	2	bonjour	NULL	adv	NULL	B_GADV	NOLINK	0	idtext0002	bonjour	#####	spk1	7.65	8.13	?	//

20091112_RATP_SCD_0815	3	1	oui	NULL	adv	NULL	B_GADV	MOD	2	idtext0003	oui	#####	spk2	8.35	8.57	0.01	_
20091112_RATP_SCD_0815	3	2	bonjour	NULL	adv	NULL	I_GADV	ROOT	0	idtext0003	bonjour	#####	spk2	8.58	9.19	0.01	_
20091112_RATP_SCD_0815	3	3	euh	DISF_M	pres	NULL	NULL	NOLINK	0	idtext0003	euh	#####	spk2	9.2	9.42	?	//

20091112_RATP_SCD_0815	4	1	je	NULL	cln	NULL	B_GN	SUJ	3	idtext0004	cln	#1##s##	spk2	9.46	9.89	0.01	_
20091112_RATP_SCD_0815	4	2	vous	NULL	clo	NULL	B_GN	OBJ	3	idtext0004	cln	#2##p##	spk2	9.9	10.13	0.01	_
20091112_RATP_SCD_0815	4	3	appelle	NULL	v	NULL	B_GVf	ROOT	0	idtext0004	appeler	PS#13##s##	spk2	10.14	10.38	0.04	_
20091112_RATP_SCD_0815	4	4	je	DISF_R	cln	NULL	NULL	NOLINK	0	idtext0005	cln	#1##s##	spk2	10.42	10.44	0.01	_
20091112_RATP_SCD_0815	4	5	je	NULL	cln	NULL	B_GN	SUJ	6	idtext0005	cln	#1##s##	spk2	10.45	10.47	0.01	_
20091112_RATP_SCD_0815	4	6	sais	NULL	v	NULL	B_GVfn	ROOT	0	idtext0005	savoir	P#12##s##	spk2	10.48	10.56	0.01	_
20091112_RATP_SCD_0815	4	7	pas	NULL	advneg	NULL	I_GVfn	MOD	6	idtext0005	pas	#####	spk2	10.57	10.75	0.01	_
20091112_RATP_SCD_0815	4	8	si	NULL	csu	NULL	B_NULL	OBJ	6	idtext0005	si	#####	spk2	10.76	10.87	0.01	_
20091112_RATP_SCD_0815	4	9	vous	NULL	cln	NULL	B_GN	SUJ	10	idtext0005	cln	#2##p##	spk2	10.88	11.22	0.01	_
20091112_RATP_SCD_0815	4	10	allez	NULL	v	NULL	B_GVf	OBJ	8	idtext0005	aller	P#2##p##	spk2	11.23	11.37	0.01	_
20091112_RATP_SCD_0815	4	11	vous	NULL	clo	NULL	B_GN	OBJ	12	idtext0005	cln	#2##p##	spk2	11.38	11.6	0.01	_
20091112_RATP_SCD_0815	4	12	pouvoir	NULL	vinf	NULL	B_GVi	OBJ	10	idtext0005	pouvoir	W#####	spk2	11.61	11.99	0.04	/
20091112_RATP_SCD_0815	4	13	mais	NULL	coo	NULL	B_NULL	ROOT	0	idtext0006	mais	#####	spk2	12.03	12.08	0.01	_
20091112_RATP_SCD_0815	4	14	en+tout+cas	NULL	adv	NULL	B_GADV	NOLINK	0	idtext0006	en+tout+cas	#####	spk2	12.09	12.37	0.01	_
20091112_RATP_SCD_0815	4	15	je	NULL	cln	NULL	B_GN	SUJ	16	idtext0006	cln	#1##s##	spk2	12.38	12.43	0.01	_
20091112_RATP_SCD_0815	4	16	voudrais	NULL	v	NULL	B_GVf	DEP_COORD	13	idtext0006	vouloir	C#12##s##	spk2	12.44	12.64	0.01	_
20091112_RATP_SCD_0815	4	17	un	NULL	det	NULL	B_GN	DET	18	idtext0006	un	##m#s##i	spk2	12.65	12.71	0.01	_
20091112_RATP_SCD_0815	4	18	numéro	NULL	nc	NULL	I_GN	OBJ	16	idtext0006	numéro	##m#s##	spk2	12.72	13.11	0.01	_
20091112_RATP_SCD_0815	4	19	de	NULL	prep	NULL	B_GP	DEP	18	idtext0006	de	#####	spk2	13.12	13.15	0.01	_
20091112_RATP_SCD_0815	4	20	téléphone	NULL	nc	NULL	I_GP	OBJ	19	idtext0006	téléphone	##m#s##	spk2	13.16	13.44	0.17	_
20091112_RATP_SCD_0815	4	21	voilà	DISF_M	pres	NULL	NULL	NOLINK	0	idtext0007	voilà	#####	spk2	13.61	13.86	0.01	_
20091112_RATP_SCD_0815	4	22	je	DISF_R	cln	NULL	NULL	NOLINK	0	idtext0007	cln	#1##s##	spk2	13.87	14.17	0.01	_
20091112_RATP_SCD_0815	4	23	je	NULL	cln	NULL	B_GN	SUJ	24	idtext0007	cln	#1##s##	spk2	14.18	14.34	0.01	_
20091112_RATP_SCD_0815	4	24	voudrais	NULL	v	NULL	B_GVf	ROOT	0	idtext0007	vouloir	C#12##s##	spk2	14.35	15.07	0.04	_
20091112_RATP_SCD_0815	4	25	euh	DISF_M	pres	NULL	NULL	NOLINK	0	idtext0008	euh	#####	spk2	15.11	15.14	0.01	_
20091112_RATP_SCD_0815	4	26	hum	DISF_M	pres	NULL	NULL	NOLINK	0	idtext0008	hum	#####	spk2	15.15	16.12	0.41	/
20091112_RATP_SCD_0815	4	27	régler	NULL	vinf	NULL	B_GVi	ROOT	0	idtext0009	régler	W#####	spk2	16.53	16.96	0.01	_
20091112_RATP_SCD_0815	4	28	des	NULL	det	NULL	B_GN	DET	29	idtext0009	des	###p##i	spk2	16.97	17.09	0.01	_
20091112_RATP_SCD_0815	4	29	problèmes	NULL	nc	NULL	I_GN	OBJ	27	idtext0009	problème	##m#p##	spk2	17.1	17.43	0.01	_
20091112_RATP_SCD_0815	4	30	de	NULL	prep	NULL	B_GP	DEP	29	idtext0009	de	#####	spk2	17.44	17.65	0.01	_
20091112_RATP_SCD_0815	4	31	transport	NULL	nc	NULL	I_GP	OBJ	30	idtext0009	transport	##m#s##	spk2	17.66	18.41	0.01	_
20091112_RATP_SCD_0815	4	32	de	DISF_R	prep	NULL	NULL	NOLINK	0	idtext0009	de	#####	spk2	18.42	18.77	0.01	_
20091112_RATP_SCD_0815	4	33	de	NULL	prep	NULL	B_GP	DEP	31	idtext0009	de	#####	spk2	18.78	18.96	0.01	_
20091112_RATP_SCD_0815	4	34	classes	NULL	nc	NULL	I_GP	OBJ	33	idtext0009	classe	##f#p##	spk2	18.97	19.42	0.04	_
20091112_RATP_SCD_0815	4	35	de	NULL	prep	NULL	B_GP	ROOT	0	idtext0010	de	#####	spk2	19.46	19.56	0.01	_
20091112_RATP_SCD_0815	4	36	groupes	NULL	nc	NULL	I_GP	OBJ	35	idtext0010	groupe	##m#p##	spk2	19.57	19.85	0.01	_
20091112_RATP_SCD_0815	4	37	classes	NULL	nc	NULL	I_GP	NOLINK	0	idtext0010	classe	##f#p##	spk2	19.86	20.58	0.04	_
20091112_RATP_SCD_0815	4	38	dans	NULL	prep	NULL	B_GP	ROOT	0	idtext0011	dans	#####	spk2	20.62	20.78	0.01	_
20091112_RATP_SCD_0815	4	39	le	NULL	det	NULL	I_GP	DET	40	idtext0011	le	##m#s##d	spk2	20.79	20.83	0.01	_
20091112_RATP_SCD_0815	4	40	cadre	NULL	nc	NULL	I_GP	OBJ	38	idtext0011	cadre	##m#s##	spk2	20.84	21.18	0.01	_
20091112_RATP_SCD_0815	4	41	de	DISF_R	prep	NULL	NULL	NOLINK	0	idtext0011	de	#####	spk2	21.19	21.51	0.01	_
20091112_RATP_SCD_0815	4	42	de	NULL	prep	NULL	B_GP	ROOT	0	idtext0011	de	#####	spk2	21.52	21.68	0.01	_
20091112_RATP_SCD_0815	4	43	projets	NULL	nc	NULL	I_GP	OBJ	42	idtext0011	projet	##m#p##	spk2	21.69	22.22	0.99	//
20091112_RATP_SCD_0815	4	44	euh	DISF_M	pres	NULL	NULL	NOLINK	0	idtext0012	euh	#####	spk2	23.21	23.95	?	//

20091112_RATP_SCD_0815	5	1	quand	NULL	csu	NULL	B_NULL	ROOT	0	idtext0013	quand	#####	spk1	23.99	24.04	0.01	_
20091112_RATP_SCD_0815	5	2	vous	NULL	cln	NULL	B_GN	SUJ	4	idtext0013	cln	#2##p##	spk1	24.05	24.1	0.01	_
20091112_RATP_SCD_0815	5	3	me	NULL	clo	NULL	B_GN	A_OBJ	4	idtext0013	cla	#1##s##	spk1	24.11	24.19	0.01	_
20091112_RATP_SCD_0815	5	4	dites	NULL	v	NULL	B_GVf	OBJ	1	idtext0013	dire	P#2##p##	spk1	24.2	24.34	0.01	_
20091112_RATP_SCD_0815	5	5	régler	NULL	vinf	NULL	I_GVf	OBJ	4	idtext0013	régler	W#####	spk1	24.35	24.7	0.01	_
20091112_RATP_SCD_0815	5	6	c'est-à-dire	NULL	coo	NULL	B_NULL	NOLINK	0	idtext0013	c'est-à-dire	#####	spk1	24.71	25.19	0.01	_
20091112_RATP_SCD_0815	5	7	régler	NULL	vinf	NULL	B_GVi	OBJ	4	idtext0013	régler	W#####	spk1	25.2	25.49	?	_

20091112_RATP_SCD_0815	6	1	alors	NULL	adv	NULL	B_GADV	NOLINK	0	idtext0014	alors	#####	spk2	25.55	25.88	?	//

20091112_RATP_SCD_0815	7	1	vous	NULL	cln	NULL	B_GN	SUJ	2	idtext0015	cln	#2##p##	spk1	25.55	25.63	0.01	_
20091112_RATP_SCD_0815	7	2	voulez	NULL	v	NULL	B_GVf	ROOT	0	idtext0015	vouloir	P#2##p##	spk1	25.64	25.88	?	//

20091112_RATP_SCD_0815	8	1	payer	NULL	vinf	NULL	B_GVi	ROOT	0	idtext0016	payer	W#####	spk1	25.92	26.21	0.01	_
20091112_RATP_SCD_0815	8	2	ou	NULL	coo	NULL	B_NULL	COORD	1	idtext0016	ou	#####	spk1	26.22	26.62	0.01	_
20091112_RATP_SCD_0815	8	3	il	NULL	cln	NULL	B_GN	SUJ_IMP	6	idtext0016	cln	#3#m#s##	spk1	26.63	26.68	0.01	_
20091112_RATP_SCD_0815	8	4	y	NULL	clo	NULL	B_GN	AFF	6	idtext0016	y	#####	spk1	26.69	26.72	0.01	_
20091112_RATP_SCD_0815	8	5	a	NULL	v	NULL	B_GVf	AUX	6	idtext0016	avoir	P#3##s##	spk1	26.73	26.75	0.01	_
20091112_RATP_SCD_0815	8	6	eu	NULL	vppart	NULL	I_GVf	ROOT	0	idtext0016	avoir	K##m#s##	spk1	26.76	26.84	0.01	_
20091112_RATP_SCD_0815	8	7	un	NULL	det	NULL	B_GN	DET	8	idtext0016	un	##m#s##i	spk1	26.85	26.91	0.01	_
20091112_RATP_SCD_0815	8	8	problème	NULL	nc	NULL	I_GN	OBJ	6	idtext0016	problème	##m#s##	spk1	26.92	27.38	?	//

20091112_RATP_SCD_0815	9	1	non	DISF_R	adv	NULL	NULL	NOLINK	0	idtext0017	non	#####	spk2	27.44	27.64	0.01	_
20091112_RATP_SCD_0815	9	2	non	DISF_R	adv	NULL	NULL	NOLINK	0	idtext0017	non	#####	spk2	27.65	27.76	0.01	_
20091112_RATP_SCD_0815	9	3	non	DISF_R	adv	NULL	NULL	NOLINK	0	idtext0017	non	#####	spk2	27.77	27.88	0.01	_
20091112_RATP_SCD_0815	9	4	non	NULL	adv	NULL	B_GADV	NOLINK	0	idtext0017	non	#####	spk2	27.89	28.14	0.04	_
20091112_RATP_SCD_0815	9	5	il	NULL	cln	NULL	B_GN	SUJ_IMP	7	idtext0018	cln	#3#m#s##	spk2	28.18	28.23	0.01	_
20091112_RATP_SCD_0815	9	6	y	NULL	clo	NULL	B_GN	AFF	7	idtext0018	y	#####	spk2	28.24	28.26	0.01	_
20091112_RATP_SCD_0815	9	7	a	NULL	v	NULL	B_GVf	NOLINK	0	idtext0018	avoir	P#3##s##	spk2	28.27	28.38	0.01	//
20091112_RATP_SCD_0815	9	8	euh	DISF_M	pres	NULL	NULL	NOLINK	0	idtext0018	euh	#####	spk2	28.39	28.52	0.01	_
20091112_RATP_SCD_0815	9	9	non	NULL	adv	NULL	B_GADV	NOLINK	0	idtext0018	non	#####	spk2	28.53	28.69	0.01	_
20091112_RATP_SCD_0815	9	10	je	DISF_R	cln	NULL	NULL	NOLINK	0	idtext0018	cln	#1##s##	spk2	28.7	29.37	0.01	_
20091112_RATP_SCD_0815	9	11	c'	NULL	cln	NULL	B_GN	SUJ_IMP	12	idtext0018	ce	###s##	spk2	29.38	29.51	0.01	_
20091112_RATP_SCD_0815	9	12	est	NULL	v	NULL	B_GVf	ROOT	0	idtext0018	être	P#3##s##	spk2	29.52	29.65	0.15	_
20091112_RATP_SCD_0815	9	13	voilà	DISF_M	pres	NULL	NULL	NOLINK	0	idtext0019	voilà	#####	spk2	29.8	29.98	0.01	_
20091112_RATP_SCD_0815	9	14	je	NULL	cln	NULL	B_GN	SUJ	15	idtext0019	cln	#1##s##	spk2	29.99	30.14	0.01	_
20091112_RATP_SCD_0815	9	15	suis	NULL	v	NULL	B_GVf	ROOT	0	idtext0019	être	P#1##s##	spk2	30.15	30.33	0.01	_
20091112_RATP_SCD_0815	9	16	une	NULL	det	NULL	B_GN	DET	18	idtext0019	un	##f#s##i	spk2	30.34	30.42	0.01	_
20091112_RATP_SCD_0815	9	17	grosse	NULL	adj	NULL	I_GN	MOD	18	idtext0019	gros	##f#s##	spk2	30.43	30.65	0.01	_
20091112_RATP_SCD_0815	9	18	association	NULL	nc	NULL	I_GN	ATS	15	idtext0019	association	##f#s##	spk2	30.66	31.19	0.01	_
20091112_RATP_SCD_0815	9	19	départementale	NULL	adj	NULL	I_GN	MOD	18	idtext0019	départemental	##f#s##	spk2	31.2	32.11	0.05	_
20091112_RATP_SCD_0815	9	20	en	NULL	prep	NULL	B_GP	ROOT	0	idtext0020	en	#####	spk2	32.16	32.26	0.01	_
20091112_RATP_SCD_0815	9	21	Seine-Saint-Denis	NULL	nc	B_A	I_GP	OBJ	20	idtext0020	Seine-Saint-Denis	##f#s##	spk2	32.27	33.0	0.25	/
20091112_RATP_SCD_0815	9	22	et	NULL	coo	NULL	B_NULL	ROOT	0	idtext0021	et	#####	spk2	33.25	33.72	0.01	_
20091112_RATP_SCD_0815	9	23	on	NULL	cln	NULL	B_GN	SUJ_IMP	24	idtext0021	cln	#3##s##	spk2	33.73	33.82	0.01	_
20091112_RATP_SCD_0815	9	24	travaille	NULL	v	NULL	B_GVf	DEP_COORD	22	idtext0021	travailler	PS#13##s##	spk2	33.83	34.29	0.01	_
20091112_RATP_SCD_0815	9	25	avec	NULL	prep	NULL	B_GP	P_OBJ	24	idtext0021	avec	#####	spk2	34.3	34.74	0.01	_
20091112_RATP_SCD_0815	9	26	euh	DISF_M	pres	NULL	NULL	NOLINK	0	idtext0021	euh	#####	spk2	34.75	34.97	0.01	_
20091112_RATP_SCD_0815	9	27	une	NULL	det	NULL	I_GP	DET	28	idtext0021	un	##f#s##i	spk2	34.98	35.14	0.01	_
20091112_RATP_SCD_0815	9	28	centaine	NULL	nc	NULL	I_GP	OBJ	25	idtext0021	centaine	##f#s##	spk2	35.15	35.5	0.01	_
20091112_RATP_SCD_0815	9	29	de	NULL	prep	NULL	B_GP	DEP	28	idtext0021	de	#####	spk2	35.51	35.64	0.01	_
20091112_RATP_SCD_0815	9	30	classes	NULL	nc	NULL	I_GP	OBJ	29	idtext0021	classe	##f#p##	spk2	35.65	36.24	0.06	_
20091112_RATP_SCD_0815	9	31	et	NULL	coo	NULL	B_NULL	ROOT	0	idtext0022	et	#####	spk2	36.3	36.55	0.01	_
20091112_RATP_SCD_0815	9	32	je	NULL	cln	NULL	B_GN	SUJ	33	idtext0022	cln	#1##s##	spk2	36.56	36.85	0.01	_
20091112_RATP_SCD_0815	9	33	veux	NULL	v	NULL	B_GVf	DEP_COORD	31	idtext0022	vouloir	P#12##s##	spk2	36.86	37.02	0.01	_
20091112_RATP_SCD_0815	9	34	organiser	NULL	vinf	NULL	I_GVf	OBJ	33	idtext0022	organiser	W#####	spk2	37.03	37.88	0.40	_
20091112_RATP_SCD_0815	9	35	le	NULL	det	NULL	B_GN	DET	36	idtext0023	le	##m#s##d	spk2	38.28	38.47	0.01	_
20091112_RATP_SCD_0815	9	36	déplacement	NULL	nc	NULL	I_GN	ROOT	0	idtext0023	déplacement	##m#s##	spk2	38.48	39.09	0.01	_
20091112_RATP_SCD_0815	9	37	à	NULL	prep	NULL	B_GP	ROOT	0	idtext0023	à	#####	spk2	39.1	39.14	0.01	_
20091112_RATP_SCD_0815	9	38	certains	NULL	det	NULL	I_GP	DET	39	idtext0023	certain	##m#p##i	spk2	39.15	39.45	0.01	_
20091112_RATP_SCD_0815	9	39	moments	NULL	nc	NULL	I_GP	OBJ	37	idtext0023	moment	##m#p##	spk2	39.46	39.73	0.01	_
20091112_RATP_SCD_0815	9	40	de	NULL	prep	NULL	B_GP	DEP	39	idtext0023	de	#####	spk2	39.74	39.79	0.01	_
20091112_RATP_SCD_0815	9	41	l'	NULL	det	NULL	I_GP	DET	42	idtext0023	le	###s##d	spk2	39.8	39.84	0.01	_
20091112_RATP_SCD_0815	9	42	année	NULL	nc	NULL	I_GP	OBJ	40	idtext0023	année	##f#s##	spk2	39.85	40.17	0.01	_
20091112_RATP_SCD_0815	9	43	de	NULL	prep	NULL	B_GP	DEP	42	idtext0023	de	#####	spk2	40.18	40.29	0.01	_
20091112_RATP_SCD_0815	9	44	ces	NULL	det	NULL	I_GP	DET	45	idtext0023	ce	###p##e	spk2	40.3	40.46	0.01	_
20091112_RATP_SCD_0815	9	45	classes	NULL	nc	NULL	I_GP	OBJ	43	idtext0023	classe	##f#p##	spk2	40.47	41.06	0.04	_
20091112_RATP_SCD_0815	9	46	par	NULL	prep	NULL	B_GP	ROOT	0	idtext0024	par	#####	spk2	41.1	41.33	0.01	_
20091112_RATP_SCD_0815	9	47	le	NULL	det	NULL	I_GP	DET	48	idtext0024	le	##m#s##d	spk2	41.34	41.49	0.01	_
20091112_RATP_SCD_0815	9	48	biais	NULL	nc	NULL	I_GP	OBJ	46	idtext0024	biais	##m###	spk2	41.5	41.74	0.01	_
20091112_RATP_SCD_0815	9	49	des	NULL	prep	NULL	B_GP	ROOT	0	idtext0024	des	#####	spk2	41.75	41.87	0.01	_
20091112_RATP_SCD_0815	9	50	transports	NULL	nc	NULL	I_GP	OBJ	49	idtext0024	transport	##m#p##	spk2	41.88	42.28	0.01	_
20091112_RATP_SCD_0815	9	51	en+commun	NULL	adv	NULL	B_GADV	NOLINK	0	idtext0024	en+commun	#####	spk2	42.29	42.67	?	//

20091112_RATP_SCD_0815	10	1	d'accord	NULL	adv	NULL	B_GADV	NOLINK	0	idtext0025	d'accord	#####	spk1	43.12	43.51	?	//

20091112_RATP_SCD_0815	11	1	voilà	DISF_M	pres	NULL	NULL	NOLINK	0	idtext0026	voilà	#####	spk2	43.12	43.51	?	//

20091112_RATP_SCD_0815	12	1	donc	NULL	coo	NULL	B_NULL	ROOT	0	idtext0027	donc	#####	spk2	43.93	44.21	0.01	_
20091112_RATP_SCD_0815	12	2	euh	DISF_M	pres	NULL	NULL	NOLINK	0	idtext0027	euh	#####	spk2	44.22	44.3	0.01	_
20091112_RATP_SCD_0815	12	3	je	NULL	cln	NULL	B_GN	SUJ	4	idtext0027	cln	#1##s##	spk2	44.31	44.5	0.01	_
20091112_RATP_SCD_0815	12	4	pensais	NULL	v	NULL	B_GVf	DEP_COORD	1	idtext0027	penser	I#12##s##	spk2	44.51	45.12	0.08	_
20091112_RATP_SCD_0815	12	5	bêtement	NULL	adv	NULL	B_GADV	NOLINK	0	idtext0028	bêtement	#####	spk2	45.2	45.66	?	_

20091112_RATP_SCD_0815	13	1	au	NULL	prep	NULL	B_GP	ROOT	0	idtext0029	au	#####	spk2	46.22	46.31	0.01	_
20091112_RATP_SCD_0815	13	2	départ	NULL	nc	NULL	I_GP	OBJ	1	idtext0029	départ	##m#s##	spk2	46.32	46.83	0.04	_
20091112_RATP_SCD_0815	13	3	qu'	NULL	csu	NULL	B_NULL	ROOT	0	idtext0030	qu'	#####	spk2	46.87	46.91	0.01	_
20091112_RATP_SCD_0815	13	4	il	NULL	cln	NULL	B_GN	SUJ	5	idtext0030	cln	#3#m#s##	spk2	46.92	47.03	0.01	_
20091112_RATP_SCD_0815	13	5	suffisait	NULL	v	NULL	B_GVf	OBJ	3	idtext0030	suffire	I#3##s##	spk2	47.04	47.7	0.05	_
20091112_RATP_SCD_0815	13	6	petit	NULL	adj	NULL	B_GADJ	NOLINK	0	idtext0031	petit	##m#s##	spk2	47.75	48.17	0.01	_
20091112_RATP_SCD_0815	13	7	un	NULL	det	NULL	B_NULL	NOLINK	0	idtext0031	un	##m#s##i	spk2	48.18	48.39	0.59	_
20091112_RATP_SCD_0815	13	8	que	NULL	csu	NULL	B_NULL	ROOT	0	idtext0032	que	#####	spk2	48.98	49.15	0.01	_
20091112_RATP_SCD_0815	13	9	je	NULL	cln	NULL	B_GN	SUJ	10	idtext0032	cln	#1##s##	spk2	49.16	49.32	0.01	_
20091112_RATP_SCD_0815	13	10	fasse	NULL	v	NULL	B_GVf	OBJ	8	idtext0032	faire	S#13##s##	spk2	49.33	49.57	0.01	_
20091112_RATP_SCD_0815	13	11	remplir	NULL	vinf	NULL	I_GVf	OBJ	10	idtext0032	remplir	W#####	spk2	49.58	50.03	0.01	_
20091112_RATP_SCD_0815	13	12	au	NULL	prep	NULL	B_GP	A_OBJ	11	idtext0032	au	#####	spk2	50.04	50.13	0.01	_
20091112_RATP_SCD_0815	13	13	prof	NULL	nc	NULL	I_GP	OBJ	12	idtext0032	prof	###s##	spk2	50.14	50.61	0.01	_
20091112_RATP_SCD_0815	13	14	et	NULL	coo	NULL	B_NULL	COORD	11	idtext0032	et	#####	spk2	50.62	50.75	0.01	_
20091112_RATP_SCD_0815	13	15	à	NULL	prep	NULL	B_GP	DEP_COORD	14	idtext0032	à	#####	spk2	50.76	50.82	0.01	_
20091112_RATP_SCD_0815	13	16	son	NULL	det	NULL	I_GP	DET	17	idtext0032	son	###s##o	spk2	50.83	51.0	0.01	_
20091112_RATP_SCD_0815	13	17	chef	NULL	nc	NULL	I_GP	OBJ	15	idtext0032	chef	###s##	spk2	51.01	51.19	0.01	_
20091112_RATP_SCD_0815	13	18	d'	NULL	prep	NULL	B_GP	DEP	17	idtext0032	d'	#####	spk2	51.2	51.25	0.01	_
20091112_RATP_SCD_0815	13	19	établissement	NULL	nc	NULL	I_GP	OBJ	18	idtext0032	établissement	##m#s##	spk2	51.26	51.98	0.45	//
20091112_RATP_SCD_0815	13	20	euh	DISF_M	pres	NULL	NULL	NOLINK	0	idtext0033	euh	#####	spk2	52.43	52.59	0.01	_
20091112_RATP_SCD_0815	13	21	un	NULL	det	NULL	B_GN	DET	22	idtext0033	un	##m#s##i	spk2	52.6	52.66	0.01	_
20091112_RATP_SCD_0815	13	22	formulaire	NULL	nc	NULL	I_GN	ROOT	0	idtext0033	formulaire	##m#s##	spk2	52.67	53.22	0.01	_
20091112_RATP_SCD_0815	13	23	de	NULL	prep	NULL	B_GP	DEP	22	idtext0033	de	#####	spk2	53.23	53.34	0.01	_
20091112_RATP_SCD_0815	13	24	sortie	NULL	nc	NULL	I_GP	OBJ	23	idtext0033	sortie	##f#s##	spk2	53.35	53.75	0.04	_
20091112_RATP_SCD_0815	13	25	et	NULL	coo	NULL	B_NULL	ROOT	0	idtext0034	et	#####	spk2	53.79	53.81	0.01	_
20091112_RATP_SCD_0815	13	26	petit	NULL	adj	NULL	B_GN	MOD	27	idtext0034	petit	##m#s##	spk2	53.82	54.17	0.01	/
20091112_RATP_SCD_0815	13	27	deux	NULL	nc	NULL	I_GN	DEP_COORD	25	idtext0034	deux	##m###	spk2	54.18	54.4	0.01	_
20091112_RATP_SCD_0815	13	28	que	NULL	csu	NULL	B_NULL	OBJ	27	idtext0034	que	#####	spk2	54.41	54.56	0.01	_
20091112_RATP_SCD_0815	13	29	je	NULL	cln	NULL	B_GN	SUJ	30	idtext0034	cln	#1##s##	spk2	54.57	54.76	0.01	_
20091112_RATP_SCD_0815	13	30	dote	NULL	v	NULL	B_GVf	OBJ	28	idtext0034	doter	PS#13##s##	spk2	54.77	55.04	0.01	_
20091112_RATP_SCD_0815	13	31	la	NULL	det	NULL	B_GN	DET	32	idtext0034	le	##m#s##d	spk2	55.05	55.18	0.01	_
20091112_RATP_SCD_0815	13	32	classe	NULL	nc	NULL	I_GN	OBJ	30	idtext0034	classe	##f#s##	spk2	55.19	55.48	0.01	_
20091112_RATP_SCD_0815	13	33	de	NULL	prep	NULL	B_GP	DEP	32	idtext0034	de	#####	spk2	55.49	55.66	0.01	_
20091112_RATP_SCD_0815	13	34	billets	NULL	nc	NULL	I_GP	OBJ	33	idtext0034	billet	##m#p##	spk2	55.67	55.91	0.01	_
20091112_RATP_SCD_0815	13	35	demi-tarif	NULL	nc	NULL	I_GP	MOD	32	idtext0034	demi-tarif	##m#s##	spk2	55.92	56.81	0.39	//
20091112_RATP_SCD_0815	13	36	et	NULL	coo	NULL	B_NULL	ROOT	0	idtext0035	et	#####	spk2	57.2	57.3	0.01	_
20091112_RATP_SCD_0815	13	37	on	NULL	cln	NULL	B_GN	SUJ_IMP	39	idtext0035	cln	#3##s##	spk2	57.31	57.39	0.01	_
20091112_RATP_SCD_0815	13	38	me	NULL	clo	NULL	B_GN	A_OBJ	39	idtext0035	cla	#1##s##	spk2	57.4	57.49	0.01	_
20091112_RATP_SCD_0815	13	39	dit	NULL	v	NULL	B_GVf	DEP_COORD	36	idtext0035	dire	J#3##s##	spk2	57.5	57.64	0.01	_
20091112_RATP_SCD_0815	13	40	que	NULL	csu	NULL	B_NULL	OBJ	39	idtext0035	que	#####	spk2	57.65	57.69	0.01	_
20091112_RATP_SCD_0815	13	41	c'	NULL	cln	NULL	B_GN	SUJ_IMP	42	idtext0035	ce	###s##	spk2	57.7	57.74	0.01	_
20091112_RATP_SCD_0815	13	42	est	NULL	v	NULL	B_GVfn	OBJ	40	idtext0035	être	P#3##s##	spk2	57.75	57.82	0.01	_
20091112_RATP_SCD_0815	13	43	pas+du+tout	NULL	advneg	NULL	I_GVfn	MOD	42	idtext0035	pas+du+tout	#####	spk2	57.83	58.19	0.01	_
20091112_RATP_SCD_0815	13	44	comme+ça	NULL	adv	NULL	B_GADV	ATS	42	idtext0035	comme+ça	#####	spk2	58.2	58.51	0.01	_
20091112_RATP_SCD_0815	13	45	que	NULL	csu	NULL	B_NULL	OBJ	44	idtext0035	que	#####	spk2	58.52	58.58	0.01	_
20091112_RATP_SCD_0815	13	46	ça	NULL	pro	NULL	B_GN	SUJ_IMP	47	idtext0035	ça	#####	spk2	58.59	58.68	0.01	_
20091112_RATP_SCD_0815	13	47	marche	NULL	v	NULL	B_GVf	OBJ	45	idtext0035	marcher	PS#13##s##	spk2	58.69	58.99	?	_

20091112_RATP_SCD_0815	14	1	non	NULL	adv	NULL	B_GADV	NOLINK	0	idtext0036	non	#####	spk1	59.03	59.26	?	_

20091112_RATP_SCD_0815	15	1	non	NULL	adv	NULL	B_GADV	NOLINK	0	idtext0037	non	#####	spk1	59.85	60.06	0.26	_
20091112_RATP_SCD_0815	15	2	alors	NULL	adv	NULL	B_GADV	NOLINK	0	idtext0038	alors	#####	spk1	60.32	60.59	0.01	_
20091112_RATP_SCD_0815	15	3	vous	NULL	cln	NULL	B_GN	SUJ	4	idtext0038	cln	#2##p##	spk1	60.6	60.69	0.01	_
20091112_RATP_SCD_0815	15	4	patientez	NULL	v	NULL	B_GVf	ROOT	0	idtext0038	patienter	P#2##p##	spk1	60.7	61.11	0.04	_
20091112_RATP_SCD_0815	15	5	ce+que	NULL	prorel	NULL	B_NULL	OBJ	7	idtext0039	ce+que	#####	spk1	61.15	61.24	0.01	_
20091112_RATP_SCD_0815	15	6	je	NULL	cln	NULL	B_GN	SUJ	7	idtext0039	cln	#1##s##	spk1	61.25	61.36	0.01	_
20091112_RATP_SCD_0815	15	7	vais	NULL	v	NULL	B_GVf	ROOT	0	idtext0039	aller	P#1##s##	spk1	61.37	61.46	0.01	_
20091112_RATP_SCD_0815	15	8	faire	NULL	vinf	NULL	I_GVf	OBJ	7	idtext0039	faire	W#####	spk1	61.47	61.63	0.01	_
20091112_RATP_SCD_0815	15	9	monsieur	NULL	nc	NULL	B_GN	OBJ	7	idtext0039	Monsieur	##m#s##	spk1	61.64	61.92	0.01	/
20091112_RATP_SCD_0815	15	10	je	NULL	cln	NULL	B_GN	SUJ	11	idtext0039	cln	#1##s##	spk1	61.93	62.03	0.01	_
20091112_RATP_SCD_0815	15	11	vais	NULL	v	NULL	B_GVf	ROOT	0	idtext0039	aller	P#1##s##	spk1	62.04	62.11	0.01	_
20091112_RATP_SCD_0815	15	12	vous	NULL	clo	NULL	B_GN	A_OBJ	13	idtext0039	cln	#2##p##	spk1	62.12	62.25	0.01	_
20091112_RATP_SCD_0815	15	13	donner	NULL	vinf	NULL	B_GVi	OBJ	11	idtext0039	donner	W#####	spk1	62.26	62.46	0.01	_
20091112_RATP_SCD_0815	15	14	toutes+les	NULL	det	NULL	B_GN	DET	15	idtext0039	toutes+les	#####	spk1	62.47	62.78	0.01	_
20091112_RATP_SCD_0815	15	15	informations	NULL	nc	NULL	I_GN	OBJ	13	idtext0039	information	##f#p##	spk1	62.79	63.45	0.01	_
20091112_RATP_SCD_0815	15	16	au+niveau+de	NULL	prep	NULL	B_NULL	MOD	15	idtext0039	au+niveau+de	#####	spk1	63.46	64.6	0.07	_
20091112_RATP_SCD_0815	15	17	d()	DISF_T	tronc	NULL	NULL	NOLINK	0	idtext0040	d()	#####	spk1	64.67	64.7	0.01	_
20091112_RATP_SCD_0815	15	18	des	DISF_R	det	NULL	NULL	NOLINK	0	idtext0040	des	###p##i	spk1	64.71	64.91	0.01	_
20091112_RATP_SCD_0815	15	19	des	NULL	det	NULL	B_GN	DET	20	idtext0040	des	###p##i	spk1	64.92	65.11	0.01	_
20091112_RATP_SCD_0815	15	20	classes	NULL	nc	NULL	I_GN	ROOT	0	idtext0040	classe	##f#p##	spk1	65.12	65.93	0.01	_
20091112_RATP_SCD_0815	15	21	euh	DISF_M	pres	NULL	NULL	NOLINK	0	idtext0040	euh	#####	spk1	65.94	65.99	?	//

20091112_RATP_SCD_0815	16	1	ouais	NULL	adv	NULL	B_GADV	NOLINK	0	idtext0041	ouais	#####	spk2	66.21	66.37	?	//

20091112_RATP_SCD_0815	17	1	pour	NULL	prep	NULL	B_GP	ROOT	0	idtext0042	pour	#####	spk1	66.43	66.52	0.01	_
20091112_RATP_SCD_0815	17	2	circuler	NULL	vinf	NULL	I_GP	OBJ	1	idtext0042	circuler	W#####	spk1	66.53	66.94	0.01	_
20091112_RATP_SCD_0815	17	3	dans	NULL	prep	NULL	B_GP	P_OBJ_LOC	2	idtext0042	dans	#####	spk1	66.95	67.04	0.01	_
20091112_RATP_SCD_0815	17	4	Paris	NULL	nc	B_A	I_GP	OBJ	3	idtext0042	Paris	##m#s##	spk1	67.05	67.33	0.01	_
20091112_RATP_SCD_0815	17	5	hein	DISF_M	pres	I_A	NULL	NOLINK	0	idtext0042	hein	#####	spk1	67.34	67.42	?	//

20091112_RATP_SCD_0815	18	1	patientez	NULL	v	NULL	B_GVf	NOLINK	0	idtext0043	patienter	P#2##p##	spk1	67.46	68.39	?	//

20091112_RATP_SCD_0815	19	1	merci	NULL	adv	NULL	B_GADV	NOLINK	0	idtext0044	merci	#####	spk2	67.52	68.39	?	//

20091112_RATP_SCD_0815	20	1	s'il+vous+plaît	NULL	adv	NULL	B_GADV	NOLINK	0	idtext0045	s'il+vous+plaît	#####	spk1	86.39	87.02	0.01	_
20091112_RATP_SCD_0815	20	2	monsieur	NULL	nc	NULL	B_GN	NOLINK	0	idtext0045	Monsieur	##m#s##	spk1	87.03	87.16	?	//

20091112_RATP_SCD_0815	21	1	oui	NULL	adv	NULL	B_GADV	NOLINK	0	idtext0046	oui	#####	spk2	87.2	87.79	?	//

20091112_RATP_SCD_0815	22	1	alors	NULL	adv	NULL	B_GADV	NOLINK	0	idtext0047	alors	#####	spk1	87.96	88.31	0.62	_
20091112_RATP_SCD_0815	22	2	pour	NULL	prep	NULL	B_GP	ROOT	0	idtext0048	pour	#####	spk1	88.93	89.31	0.01	_
20091112_RATP_SCD_0815	22	3	ça	NULL	pro	NULL	I_GP	OBJ	2	idtext0048	ça	#####	spk1	89.32	89.77	0.05	/
20091112_RATP_SCD_0815	22	4	euh	DISF_M	pres	NULL	NULL	NOLINK	0	idtext0049	euh	#####	spk1	89.82	90.54	0.05	_
20091112_RATP_SCD_0815	22	5	il	NULL	cln	NULL	B_GN	SUJ_IMP	6	idtext0050	cln	#3#m#s##	spk1	90.59	90.7	0.01	_
20091112_RATP_SCD_0815	22	6	existe	NULL	v	NULL	B_GVf	ROOT	0	idtext0050	exister	PS#13##s##	spk1	90.71	91.16	0.01	_
20091112_RATP_SCD_0815	22	7	le	NULL	det	NULL	B_NULL	P_OBJ	6	idtext0050	le	##m#s##d	spk1	91.17	91.47	0.01	_
20091112_RATP_SCD_0815	22	8	sur	NULL	prep	NULL	B_GP	P_OBJ	6	idtext0050	sur	#####	spk1	91.48	91.65	0.01	_
20091112_RATP_SCD_0815	22	9	le	NULL	det	NULL	I_GP	DET	10	idtext0050	le	##m#s##d	spk1	91.66	91.69	0.01	_
20091112_RATP_SCD_0815	22	10	site	NULL	nc	NULL	I_GP	OBJ	8	idtext0050	site	##m#s##	spk1	91.7	91.95	0.01	_
20091112_RATP_SCD_0815	22	11	RATP	NULL	np	B_ORG	I_GP	MOD	10	idtext0050	RATP	##f#s##	spk1	91.96	92.5	0.01	/
20091112_RATP_SCD_0815	22	12	point	NULL	nc	NULL	B_GN	NOLINK	0	idtext0050	point	##m#s##	spk1	92.51	92.72	0.01	_
20091112_RATP_SCD_0815	22	13	fr	NULL	adv	NULL	B_GADV	MOD	6	idtext0050	fr	#####	spk1	92.73	93.21	0.05	_
20091112_RATP_SCD_0815	22	14	le	NULL	det	NULL	B_GN	DET	15	idtext0051	le	##m#s##d	spk1	93.26	93.31	0.01	_
20091112_RATP_SCD_0815	22	15	formulaire	NULL	nc	NULL	I_GN	ROOT	0	idtext0051	formulaire	##m#s##	spk1	93.32	93.81	0.01	_
20091112_RATP_SCD_0815	22	16	groupe	NULL	nc	NULL	I_GN	MOD	15	idtext0051	groupe	##m#s##	spk1	93.82	94.08	0.01	_
20091112_RATP_SCD_0815	22	17	de	NULL	prep	NULL	B_GP	DEP	15	idtext0051	de	#####	spk1	94.09	94.29	0.01	_
20091112_RATP_SCD_0815	22	18	jeunes	NULL	nc	NULL	I_GP	OBJ	17	idtext0051	jeune	###p##	spk1	94.3	94.63	0.05	_
20091112_RATP_SCD_0815	22	19	qu'	NULL	prorel	NULL	B_NULL	OBJ	22	idtext0052	qu'	#####	spk1	94.68	94.77	0.01	_
20091112_RATP_SCD_0815	22	20	il	NULL	cln	NULL	B_GN	SUJ_IMP	21	idtext0052	cln	#3#m#s##	spk1	94.78	94.84	0.01	_
20091112_RATP_SCD_0815	22	21	faut	NULL	v	NULL	B_GVf	ROOT	0	idtext0052	falloir	P#3##s##	spk1	94.85	95.13	0.01	_
20091112_RATP_SCD_0815	22	22	télécharger	NULL	vinf	NULL	I_GVf	OBJ	21	idtext0052	télécharger	W#####	spk1	95.14	95.92	?	//

20091112_RATP_SCD_0815	23	1	ça	NULL	pro	NULL	B_GN	OBJ	4	idtext0053	ça	#####	spk2	96.04	96.16	0.01	_
20091112_RATP_SCD_0815	23	2	je	NULL	cln	NULL	B_GN	SUJ	4	idtext0053	cln	#1##s##	spk2	96.17	96.44	0.01	_
20091112_RATP_SCD_0815	23	3	l'	NULL	clo	NULL	B_GN	OBJ	4	idtext0053	cla	#3##s##	spk2	96.45	96.49	0.01	_
20091112_RATP_SCD_0815	23	4	ai	NULL	v	NULL	B_GVf	ROOT	0	idtext0053	avoir	P#1##s##	spk2	96.5	96.7	?	//

20091112_RATP_SCD_0815	24	1	d'accord	NULL	adv	NULL	B_GADV	NOLINK	0	idtext0054	d'accord	#####	spk1	96.89	97.37	0.01	_
20091112_RATP_SCD_0815	24	2	donc	NULL	coo	NULL	B_NULL	ROOT	0	idtext0055	donc	#####	spk1	97.38	97.61	0.01	_
20091112_RATP_SCD_0815	24	3	il	NULL	cln	NULL	B_GN	SUJ_IMP	4	idtext0055	cln	#3#m#s##	spk1	97.62	97.67	0.01	_
20091112_RATP_SCD_0815	24	4	faut	NULL	v	NULL	B_GVf	DEP_COORD	2	idtext0055	falloir	P#3##s##	spk1	97.68	97.75	0.01	_
20091112_RATP_SCD_0815	24	5	le	NULL	clo	NULL	B_GN	OBJ	6	idtext0055	cla	#3#m#s##	spk1	97.76	97.84	0.01	_
20091112_RATP_SCD_0815	24	6	remplir	NULL	vinf	NULL	B_GVi	OBJ	4	idtext0055	remplir	W#####	spk1	97.85	98.39	0.01	_
20091112_RATP_SCD_0815	24	7	correctement	NULL	adv	NULL	B_GADV	MOD	6	idtext0055	correctement	#####	spk1	98.4	99.25	?	//

20091112_RATP_SCD_0815	25	1	faire	NULL	vinf	NULL	B_GVi	ROOT	0	idtext0056	faire	W#####	spk1	99.57	99.67	0.01	_
20091112_RATP_SCD_0815	25	2	tamponner	NULL	vinf	NULL	B_GVi	OBJ	1	idtext0056	tamponner	W#####	spk1	99.68	100.04	0.01	_
20091112_RATP_SCD_0815	25	3	par	NULL	prep	NULL	B_GP	P_OBJ	2	idtext0056	par	#####	spk1	100.05	100.21	0.01	_
20091112_RATP_SCD_0815	25	4	le	NULL	det	NULL	I_GP	DET	5	idtext0056	le	##m#s##d	spk1	100.22	100.24	0.01	_
20091112_RATP_SCD_0815	25	5	responsable	NULL	nc	NULL	I_GP	OBJ	3	idtext0056	responsable	###s##	spk1	100.25	100.95	0.01	_
20091112_RATP_SCD_0815	25	6	donc	NULL	coo	NULL	B_NULL	COORD	5	idtext0056	donc	#####	spk1	100.96	101.5	0.01	_
20091112_RATP_SCD_0815	25	7	de	NULL	prep	NULL	B_GP	DEP_COORD	6	idtext0056	de	#####	spk1	101.51	101.65	0.01	_
20091112_RATP_SCD_0815	25	8	l'	NULL	det	NULL	I_GP	DET	9	idtext0056	le	###s##d	spk1	101.66	101.69	0.01	_
20091112_RATP_SCD_0815	25	9	établissement	NULL	nc	NULL	I_GP	OBJ	7	idtext0056	établissement	##m#s##	spk1	101.7	102.29	0.04	_
20091112_RATP_SCD_0815	25	10	ou	NULL	coo	NULL	B_NULL	ROOT	0	idtext0057	ou	#####	spk1	102.33	102.46	0.01	_
20091112_RATP_SCD_0815	25	11	du	NULL	prep	NULL	B_GP	DEP_COORD	10	idtext0057	du	#####	spk1	102.47	102.57	0.01	_
20091112_RATP_SCD_0815	25	12	groupe	NULL	nc	NULL	I_GP	OBJ	11	idtext0057	groupe	##m#s##	spk1	102.58	102.88	0.01	_
20091112_RATP_SCD_0815	25	13	en+tout+cas	NULL	adv	NULL	B_GADV	NOLINK	0	idtext0057	en+tout+cas	#####	spk1	102.89	103.3	?	//

20091112_RATP_SCD_0815	26	1	et	NULL	coo	NULL	B_NULL	ROOT	0	idtext0058	et	#####	spk1	104.06	104.15	0.01	_
20091112_RATP_SCD_0815	26	2	après	NULL	adv	NULL	B_GADV	NOLINK	0	idtext0058	après	#####	spk1	104.16	104.41	0.01	_
20091112_RATP_SCD_0815	26	3	il	NULL	cln	NULL	B_GN	SUJ_IMP	4	idtext0058	cln	#3#m#s##	spk1	104.42	104.47	0.01	_
20091112_RATP_SCD_0815	26	4	faut	NULL	v	NULL	B_GVf	DEP_COORD	1	idtext0058	falloir	P#3##s##	spk1	104.48	104.64	0.01	_
20091112_RATP_SCD_0815	26	5	le	NULL	clo	NULL	B_GN	OBJ	6	idtext0058	cla	#3#m#s##	spk1	104.65	104.67	0.01	_
20091112_RATP_SCD_0815	26	6	redonner	NULL	vinf	NULL	B_GVi	OBJ	4	idtext0058	redonner	W#####	spk1	104.68	105.36	0.01	_
20091112_RATP_SCD_0815	26	7	à	NULL	prep	NULL	B_GP	A_OBJ	6	idtext0058	à	#####	spk1	105.37	105.47	0.01	_
20091112_RATP_SCD_0815	26	8	l'	NULL	det	NULL	I_GP	DET	9	idtext0058	le	###s##d	spk1	105.48	105.5	0.01	_
20091112_RATP_SCD_0815	26	9	agent	NULL	nc	NULL	I_GP	OBJ	7	idtext0058	agent	###s##	spk1	105.51	105.91	0.01	_
20091112_RATP_SCD_0815	26	10	station	NULL	nc	NULL	I_GP	MOD	9	idtext0058	station	##f#s##	spk1	105.92	106.55	0.07	//
20091112_RATP_SCD_0815	26	11	qui	NULL	prorel	NULL	B_NULL	SUJ	22	idtext0059	qui	#####	spk1	106.62	106.75	0.01	_
20091112_RATP_SCD_0815	26	12	lui	NULL	pro	NULL	B_GN	SUJ	15	idtext0059	lui	#####	spk1	106.76	107.08	0.01	_
20091112_RATP_SCD_0815	26	13	seulement	NULL	adv	NULL	B_GADV	MOD	12	idtext0059	seulement	#####	spk1	107.09	107.55	0.01	_
20091112_RATP_SCD_0815	26	14	vous	NULL	clo	NULL	B_GN	A_OBJ	15	idtext0059	cln	#2##p##	spk1	107.56	107.67	0.01	_
20091112_RATP_SCD_0815	26	15	délivrera	NULL	v	NULL	B_GVf	ROOT	0	idtext0059	délivrer	F#3##s##	spk1	107.68	108.07	0.01	_
20091112_RATP_SCD_0815	26	16	des	DISF_R	det	NULL	NULL	NOLINK	0	idtext0059	des	###p##i	spk1	108.08	108.18	0.01	_
20091112_RATP_SCD_0815	26	17	ta	DISF_R	det	NULL	NULL	NOLINK	0	idtext0059	ton	##f#s##o	spk1	108.19	108.65	0.01	_
20091112_RATP_SCD_0815	26	18	des	NULL	det	NULL	B_GN	DET	19	idtext0059	des	###p##i	spk1	108.66	108.79	0.01	_
20091112_RATP_SCD_0815	26	19	tickets	NULL	nc	NULL	I_GN	OBJ	15	idtext0059	ticket	##m#p##	spk1	108.8	109.31	0.01	_
20091112_RATP_SCD_0815	26	20	à	NULL	prep	NULL	B_GP	MOD	19	idtext0059	à	#####	spk1	109.32	109.39	0.01	_
20091112_RATP_SCD_0815	26	21	tarif	NULL	nc	NULL	I_GP	OBJ	20	idtext0059	tarif	##m#s##	spk1	109.4	109.73	0.01	_
20091112_RATP_SCD_0815	26	22	réduit	NULL	vppart	NULL	B_GVf	MOD	21	idtext0059	réduire	K##m#s##	spk1	109.74	110.08	?	//

20091112_RATP_SCD_0815	27	1	c'est-à-dire	NULL	coo	NULL	B_NULL	ROOT	0	idtext0060	c'est-à-dire	#####	spk2	110.25	110.98	0.01	_
20091112_RATP_SCD_0815	27	2	que	NULL	csu	NULL	B_NULL	OBJ	1	idtext0061	que	#####	spk2	110.99	111.11	0.01	_
20091112_RATP_SCD_0815	27	3	je	NULL	cln	NULL	B_GN	OBJ	4	idtext0061	cln	#1##s##	spk2	111.12	111.31	0.01	_
20091112_RATP_SCD_0815	27	4	ne	NULL	clneg	NULL	B_NULL	OBJ	2	idtext0061	ne	#####	spk2	111.32	112.02	0.13	_
20091112_RATP_SCD_0815	27	5	peux	NULL	v	NULL	B_GVfn	NOLINK	0	idtext0062	pouvoir	P#12##s##	spk2	112.15	112.3	0.01	_
20091112_RATP_SCD_0815	27	6	pas	NULL	advneg	NULL	I_GVfn	MOD	9	idtext0062	pas	#####	spk2	112.31	112.77	0.01	_
20091112_RATP_SCD_0815	27	7	il	NULL	cln	NULL	B_GN	SUJ_IMP	9	idtext0062	cln	#3#m#s##	spk2	112.78	112.93	0.01	_
20091112_RATP_SCD_0815	27	8	y	NULL	clo	NULL	B_GN	AFF	9	idtext0062	y	#####	spk2	112.94	112.98	0.01	_
20091112_RATP_SCD_0815	27	9	a	NULL	v	NULL	B_GVf	ROOT	0	idtext0062	avoir	P#3##s##	spk2	112.99	113.01	0.01	_
20091112_RATP_SCD_0815	27	10	aucun	NULL	det	NULL	B_GN	DET	11	idtext0062	aucun	##m#s##i	spk2	113.02	113.34	0.01	_
20091112_RATP_SCD_0815	27	11	moyen	NULL	nc	NULL	I_GN	OBJ	9	idtext0062	moyen	##m#s##	spk2	113.35	113.93	?	//

20091112_RATP_SCD_0815	28	1	alors	NULL	adv	NULL	B_GADV	NOLINK	0	idtext0063	alors	#####	spk1	114.03	114.36	?	//

20091112_RATP_SCD_0815	29	1	pour+que	NULL	csu	NULL	B_NULL	ROOT	0	idtext0064	pour+que	#####	spk2	114.49	114.92	0.01	_
20091112_RATP_SCD_0815	29	2	j'	NULL	cln	NULL	B_GN	SUJ	3	idtext0064	cln	#1##s##	spk2	114.93	115.07	0.01	_
20091112_RATP_SCD_0815	29	3	achète	NULL	v	NULL	B_GVf	OBJ	1	idtext0064	acheter	PS#13##s##	spk2	115.08	115.5	0.01	_
20091112_RATP_SCD_0815	29	4	un	NULL	det	NULL	B_GN	DET	6	idtext0064	un	##m#s##i	spk2	115.51	115.57	0.01	_
20091112_RATP_SCD_0815	29	5	certain	NULL	adj	NULL	I_GN	MOD	6	idtext0064	certain	##m#s##	spk2	115.58	115.93	0.01	_
20091112_RATP_SCD_0815	29	6	nombre	NULL	nc	NULL	I_GN	OBJ	3	idtext0064	nombre	##m#s##	spk2	115.94	116.38	0.01	_
20091112_RATP_SCD_0815	29	7	de	NULL	prep	NULL	B_NULL	NOLINK	0	idtext0064	de	#####	spk2	116.39	116.6	?	_

20091112_RATP_SCD_0815	30	1	alors	NULL	adv	NULL	B_GADV	NOLINK	0	idtext0065	alors	#####	spk2	116.68	116.97	0.01	//
20091112_RATP_SCD_0815	30	2	parce+qu'	NULL	csu	NULL	B_NULL	NOLINK	0	idtext0065	parce+qu'	#####	spk2	116.98	117.18	0.01	_
20091112_RATP_SCD_0815	30	3	en+fait	GREF	adv	NULL	B_GADV	NOLINK	0	idtext0065	en+fait	#####	spk2	117.19	117.39	0.01	_
20091112_RATP_SCD_0815	30	4	alors	NULL	adv	NULL	B_GADV	NOLINK	0	idtext0066	alors	#####	spk2	117.4	117.6	0.01	_
20091112_RATP_SCD_0815	30	5	a()	DISF_T	tronc	NULL	NULL	NOLINK	0	idtext0066	a()	#####	spk2	117.61	117.81	0.04	_
20091112_RATP_SCD_0815	30	6	c'	DISF_R	cln	NULL	NULL	NOLINK	0	idtext0067	ce	###s##	spk2	117.85	117.91	0.01	_
20091112_RATP_SCD_0815	30	7	est	DISF_R	v	NULL	NULL	NOLINK	0	idtext0067	être	P#3##s##	spk2	117.92	117.94	0.01	_
20091112_RATP_SCD_0815	30	8	c'	NULL	cln	NULL	B_GN	SUJ_IMP	9	idtext0067	ce	###s##	spk2	117.95	117.97	0.01	_
20091112_RATP_SCD_0815	30	9	est	NULL	v	NULL	B_GVfn	ROOT	0	idtext0067	être	P#3##s##	spk2	117.98	118.0	0.01	_
20091112_RATP_SCD_0815	30	10	pas	NULL	advneg	NULL	I_GVfn	MOD	9	idtext0067	pas	#####	spk2	118.01	118.13	0.01	_
20091112_RATP_SCD_0815	30	11	le	NULL	det	NULL	B_NULL	DET	14	idtext0067	le	##m#s##d	spk2	118.14	118.16	0.01	_
20091112_RATP_SCD_0815	30	12	p()	DISF_T	tronc	NULL	NULL	NOLINK	0	idtext0067	p()	#####	spk2	118.17	118.19	0.01	_
20091112_RATP_SCD_0815	30	13	ah	DISF_M	pres	NULL	NULL	NOLINK	0	idtext0067	ah	#####	spk2	118.2	118.26	0.01	_
20091112_RATP_SCD_0815	30	14	oui	NULL	adv	NULL	B_GADV	ATS	9	idtext0067	oui	#####	spk2	118.27	118.32	0.01	_
20091112_RATP_SCD_0815	30	15	attendez	NULL	v	NULL	B_GVf	NOLINK	0	idtext0068	attendre	P#2##p##	spk2	118.33	118.64	0.01	_
20091112_RATP_SCD_0815	30	16	parce+que	NULL	csu	NULL	B_NULL	ROOT	0	idtext0068	parce+que	#####	spk2	118.65	118.83	0.01	_
20091112_RATP_SCD_0815	30	17	je	DISF_R	cln	NULL	NULL	NOLINK	0	idtext0068	cln	#1##s##	spk2	118.84	118.86	0.01	_
20091112_RATP_SCD_0815	30	18	n()	DISF_T	tronc	NULL	NULL	NOLINK	0	idtext0068	n()	#####	spk2	118.87	118.89	0.01	_
20091112_RATP_SCD_0815	30	19	j'	NULL	cln	NULL	B_GN	SUJ	22	idtext0068	cln	#1##s##	spk2	118.9	118.92	0.01	_
20091112_RATP_SCD_0815	30	20	avais	NULL	v	NULL	B_GVfn	AUX	22	idtext0068	avoir	I#12##s##	spk2	118.93	119.01	0.01	_
20091112_RATP_SCD_0815	30	21	pas	NULL	advneg	NULL	I_GVfn	MOD	22	idtext0068	pas	#####	spk2	119.02	119.13	0.01	_
20091112_RATP_SCD_0815	30	22	fini	NULL	vppart	NULL	I_GVfn	OBJ	16	idtext0068	finir	K##m#s##	spk2	119.14	119.46	0.01	_
20091112_RATP_SCD_0815	30	23	moi	NULL	pro	NULL	B_GN	SUJ	22	idtext0068	moi	#####	spk2	119.47	119.68	?	_

20091112_RATP_SCD_0815	31	1	excusez	NULL	v	NULL	B_GVf	ROOT	0	idtext0069	excuser	P#2##p##	spk2	120.12	120.34	0.01	_
20091112_RATP_SCD_0815	31	2	-moi	NULL	clo	NULL	B_GN	OBJ	1	idtext0069	cla	#1##s##	spk2	120.35	120.47	?	_

20091112_RATP_SCD_0815	32	1	j'	NULL	cln	NULL	B_GN	SUJ	3	idtext0070	cln	#1##s##	spk1	121.71	121.83	0.01	_
20091112_RATP_SCD_0815	32	2	ai	NULL	v	NULL	B_GVf	AUX	3	idtext0070	avoir	P#1##s##	spk1	121.84	121.97	0.01	_
20091112_RATP_SCD_0815	32	3	entendu	NULL	vppart	NULL	I_GVf	ROOT	0	idtext0070	entendre	K##m#s##	spk1	121.98	122.39	0.01	_
20091112_RATP_SCD_0815	32	4	que	NULL	csu	NULL	B_NULL	OBJ	3	idtext0070	que	#####	spk1	122.4	122.42	0.01	_
20091112_RATP_SCD_0815	32	5	vous	NULL	cln	NULL	B_GN	SUJ	7	idtext0070	cln	#2##p##	spk1	122.43	122.57	0.01	_
20091112_RATP_SCD_0815	32	6	me	NULL	clo	NULL	B_GN	A_OBJ	7	idtext0070	cla	#1##s##	spk1	122.58	122.66	0.01	_
20091112_RATP_SCD_0815	32	7	parliez	NULL	v	NULL	B_GVf	OBJ	4	idtext0070	parler	I#2##p##	spk1	122.67	123.03	0.01	_
20091112_RATP_SCD_0815	32	8	de+plus	NULL	adv	NULL	B_GADV	MOD	7	idtext0070	de+plus	#####	spk1	123.04	123.48	0.01	_
20091112_RATP_SCD_0815	32	9	de	NULL	prep	NULL	B_GP	DEP	8	idtext0070	de	#####	spk1	123.49	123.78	0.01	_
20091112_RATP_SCD_0815	32	10	cent	NULL	det	NULL	I_GP	DET	11	idtext0070	cent	#####	spk1	123.79	124.08	0.01	_
20091112_RATP_SCD_0815	32	11	élèves	NULL	nc	NULL	I_GP	OBJ	9	idtext0070	élève	###p##	spk1	124.09	124.35	0.04	_
20091112_RATP_SCD_0815	32	12	c'	NULL	cln	NULL	B_GN	SUJ_IMP	13	idtext0071	ce	###s##	spk1	124.39	124.43	0.01	_
20091112_RATP_SCD_0815	32	13	est	NULL	v	NULL	B_GVf	ROOT	0	idtext0071	être	P#3##s##	spk1	124.44	124.47	0.01	_
20091112_RATP_SCD_0815	32	14	ça	NULL	pro	NULL	B_GN	ATS	13	idtext0071	ça	#####	spk1	124.48	124.76	?	_

20091112_RATP_SCD_0815	33	1	non	NULL	adv	NULL	B_GADV	NOLINK	0	idtext0072	non	#####	spk2	125.15	125.37	0.10	_
20091112_RATP_SCD_0815	33	2	plus	NULL	adv	NULL	B_GADV	NOLINK	0	idtext0073	plus	#####	spk2	125.47	125.66	0.01	_
20091112_RATP_SCD_0815	33	3	de	NULL	prep	NULL	B_GP	ROOT	0	idtext0073	de	#####	spk2	125.67	125.82	0.01	_
20091112_RATP_SCD_0815	33	4	cent	NULL	nc	NULL	I_GP	OBJ	3	idtext0073	cent	##m#p##	spk2	125.83	126.15	0.01	_
20091112_RATP_SCD_0815	33	5	classes	NULL	nc	NULL	I_GP	NOLINK	0	idtext0073	classe	##f#p##	spk2	126.16	126.87	?	//

20091112_RATP_SCD_0815	34	1	cent	NULL	nc	NULL	B_GN	ROOT	0	idtext0074	cent	##m#p##	spk1	127.19	127.3	0.01	//
20091112_RATP_SCD_0815	34	2	classes	NULL	nc	NULL	I_GN	MOD	1	idtext0074	classe	##f#p##	spk1	127.31	127.51	?	//

20091112_RATP_SCD_0815	35	1	oui	NULL	adv	NULL	B_GADV	MOD	2	idtext0075	oui	#####	spk1	127.6	127.76	0.01	_
20091112_RATP_SCD_0815	35	2	d'accord	NULL	adv	NULL	I_GADV	ROOT	0	idtext0075	d'accord	#####	spk1	127.77	128.25	0.04	_
20091112_RATP_SCD_0815	35	3	parce+qu'	NULL	csu	NULL	B_NULL	ROOT	0	idtext0076	parce+qu'	#####	spk1	128.29	128.43	0.01	_
20091112_RATP_SCD_0815	35	4	il	NULL	cln	NULL	B_GN	SUJ_IMP	6	idtext0076	cln	#3#m#s##	spk1	128.44	128.49	0.01	_
20091112_RATP_SCD_0815	35	5	y	NULL	clo	NULL	B_GN	AFF	6	idtext0076	y	#####	spk1	128.5	128.52	0.01	_
20091112_RATP_SCD_0815	35	6	a	NULL	v	NULL	B_GVf	OBJ	3	idtext0076	avoir	P#3##s##	spk1	128.53	128.55	0.01	_
20091112_RATP_SCD_0815	35	7	énormément	NULL	adv	NULL	B_GADV	MOD	6	idtext0076	énormément	#####	spk1	128.56	128.8	0.01	_
20091112_RATP_SCD_0815	35	8	de	NULL	prep	NULL	B_GP	OBJ	6	idtext0076	de	#####	spk1	128.81	128.83	0.01	_
20091112_RATP_SCD_0815	35	9	tickets	NULL	nc	NULL	I_GP	OBJ	8	idtext0076	ticket	##m#p##	spk1	128.84	129.13	0.01	_
20091112_RATP_SCD_0815	35	10	à	NULL	prep	NULL	B_GP	DEP	9	idtext0076	à	#####	spk1	129.14	129.2	0.01	_
20091112_RATP_SCD_0815	35	11	acheter	NULL	vinf	NULL	I_GP	OBJ	10	idtext0076	acheter	W#####	spk1	129.21	129.5	0.01	_
20091112_RATP_SCD_0815	35	12	donc	NULL	coo	NULL	B_NULL	NOLINK	0	idtext0076	donc	#####	spk1	129.51	129.72	0.01	_
20091112_RATP_SCD_0815	35	13	alors	NULL	adv	NULL	B_GADV	NOLINK	0	idtext0076	alors	#####	spk1	129.73	129.99	?	_

20091112_RATP_SCD_0815	36	1	alors	NULL	adv	NULL	B_GADV	NOLINK	0	idtext0077	alors	#####	spk2	129.11	129.99	?	//

20091112_RATP_SCD_0815	37	1	alors	NULL	adv	NULL	B_GN	NOLINK	0	idtext0078	alors	#####	spk2	130.03	130.19	0.01	_
20091112_RATP_SCD_0815	37	2	petit	NULL	adj	NULL	I_GN	MOD	3	idtext0078	petit	##m#s##	spk2	130.2	130.61	0.01	_
20091112_RATP_SCD_0815	37	3	un	NULL	nc	NULL	I_GN	MOD	6	idtext0078	un	##m#s##	spk2	130.62	130.71	0.01	_
20091112_RATP_SCD_0815	37	4	il	NULL	cln	NULL	B_GN	SUJ_IMP	6	idtext0078	cln	#3#m#s##	spk2	130.72	130.77	0.01	_
20091112_RATP_SCD_0815	37	5	y	NULL	clo	NULL	B_GN	AFF	6	idtext0078	y	#####	spk2	130.78	130.8	0.01	_
20091112_RATP_SCD_0815	37	6	a	NULL	v	NULL	B_GVf	ROOT	0	idtext0078	avoir	P#3##s##	spk2	130.81	130.83	0.01	_
20091112_RATP_SCD_0815	37	7	énormément	NULL	adv	NULL	B_GADV	MOD	6	idtext0078	énormément	#####	spk2	130.84	131.29	0.01	_
20091112_RATP_SCD_0815	37	8	de	NULL	prep	NULL	B_GP	OBJ	6	idtext0078	de	#####	spk2	131.3	131.32	0.01	_
20091112_RATP_SCD_0815	37	9	tickets	NULL	nc	NULL	I_GP	OBJ	8	idtext0078	ticket	##m#p##	spk2	131.33	131.7	0.01	_
20091112_RATP_SCD_0815	37	10	à	NULL	prep	NULL	B_GP	DEP	9	idtext0078	à	#####	spk2	131.71	131.78	0.01	_
20091112_RATP_SCD_0815	37	11	acheter	NULL	vinf	NULL	I_GP	OBJ	10	idtext0078	acheter	W#####	spk2	131.79	132.15	0.06	_
20091112_RATP_SCD_0815	37	12	et	NULL	coo	NULL	B_NULL	ROOT	0	idtext0079	et	#####	spk2	132.21	132.3	0.01	_
20091112_RATP_SCD_0815	37	13	c'	NULL	cln	NULL	B_GN	SUJ_IMP	14	idtext0079	ce	###s##	spk2	132.31	132.41	0.01	_
20091112_RATP_SCD_0815	37	14	est	NULL	v	NULL	B_GVfn	DEP_COORD	12	idtext0079	être	P#3##s##	spk2	132.42	132.48	0.01	_
20091112_RATP_SCD_0815	37	15	pas	NULL	advneg	NULL	I_GVfn	MOD	14	idtext0079	pas	#####	spk2	132.49	132.67	0.01	_
20091112_RATP_SCD_0815	37	16	pour	NULL	prep	NULL	B_GP	ATS	14	idtext0079	pour	#####	spk2	132.68	132.87	0.01	_
20091112_RATP_SCD_0815	37	17	le	NULL	det	NULL	I_GP	DET	19	idtext0079	le	##m#s##d	spk2	132.88	132.98	0.01	_
20091112_RATP_SCD_0815	37	18	même	NULL	adj	NULL	I_GP	MOD	19	idtext0079	même	###s##	spk2	132.99	133.15	0.01	_
20091112_RATP_SCD_0815	37	19	jour	NULL	nc	NULL	I_GP	OBJ	16	idtext0079	jour	##m#s##	spk2	133.16	133.44	0.04	_
20091112_RATP_SCD_0815	37	20	parce+que	NULL	csu	NULL	B_NULL	ROOT	0	idtext0080	parce+que	#####	spk2	133.48	133.7	0.01	_
20091112_RATP_SCD_0815	37	21	c'	NULL	cln	NULL	B_GN	SUJ_IMP	22	idtext0080	ce	###s##	spk2	133.71	133.78	0.01	_
20091112_RATP_SCD_0815	37	22	est	NULL	v	NULL	B_GVf	OBJ	20	idtext0080	être	P#3##s##	spk2	133.79	133.83	0.01	_
20091112_RATP_SCD_0815	37	23	des	NULL	det	NULL	B_GN	DET	24	idtext0080	des	###p##i	spk2	133.84	134.02	0.01	_
20091112_RATP_SCD_0815	37	24	activités	NULL	nc	NULL	I_GN	ATS	22	idtext0080	activité	##f#p##	spk2	134.03	134.54	0.01	//
20091112_RATP_SCD_0815	37	25	qui	NULL	prorel	NULL	B_NULL	SUJ	26	idtext0080	qui	#####	spk2	134.55	134.69	0.01	_
20091112_RATP_SCD_0815	37	26	vont	NULL	v	NULL	B_GVf	MOD_REL	24	idtext0080	aller	P#3##p##	spk2	134.7	134.84	0.01	_
20091112_RATP_SCD_0815	37	27	se	NULL	clr	NULL	B_GVi	AFF	28	idtext0080	se	#####	spk2	134.85	134.9	0.01	_
20091112_RATP_SCD_0815	37	28	dérouler	NULL	vinf	NULL	I_GVi	OBJ	26	idtext0080	dérouler	W#####	spk2	134.91	135.32	0.01	_
20091112_RATP_SCD_0815	37	29	tout	NULL	adv	NULL	B_GADV	MOD	28	idtext0080	tout	##m#s##	spk2	135.33	135.58	0.01	_
20091112_RATP_SCD_0815	37	30	au+long+de	NULL	prep	NULL	B_GP	MOD	28	idtext0080	au+long+de	#####	spk2	135.59	135.88	0.01	_
20091112_RATP_SCD_0815	37	31	l'	NULL	det	NULL	I_GP	DET	32	idtext0080	le	###s##d	spk2	135.89	135.91	0.01	_
20091112_RATP_SCD_0815	37	32	année	NULL	nc	NULL	I_GP	OBJ	30	idtext0080	année	##f#s##	spk2	135.92	136.08	0.01	_
20091112_RATP_SCD_0815	37	33	scolaire	NULL	adj	NULL	I_GP	MOD	32	idtext0080	scolaire	###s##	spk2	136.09	136.61	?	//

20091112_RATP_SCD_0815	38	1	d'accord	NULL	adv	NULL	B_GADV	NOLINK	0	idtext0081	d'accord	#####	spk1	136.76	137.08	?	//

20091112_RATP_SCD_0815	39	1	et	DISF_R	coo	NULL	NULL	NOLINK	0	idtext0082	et	#####	spk2	137.34	137.51	0.01	_
20091112_RATP_SCD_0815	39	2	euh	DISF_M	pres	NULL	NULL	NOLINK	0	idtext0082	euh	#####	spk2	137.52	137.54	0.01	_
20091112_RATP_SCD_0815	39	3	et	DISF_R	coo	NULL	NULL	NOLINK	0	idtext0082	et	#####	spk2	137.55	137.59	0.01	_
20091112_RATP_SCD_0815	39	4	et	DISF_R	coo	NULL	NULL	NOLINK	0	idtext0082	et	#####	spk2	137.6	137.92	0.01	_
20091112_RATP_SCD_0815	39	5	et	NULL	coo	NULL	B_NULL	ROOT	0	idtext0082	et	#####	spk2	137.93	138.11	0.01	_
20091112_RATP_SCD_0815	39	6	comme+ça	NULL	adv	NULL	B_GADV	NOLINK	0	idtext0082	comme+ça	#####	spk2	138.12	138.39	0.01	/
20091112_RATP_SCD_0815	39	7	je	NULL	cln	NULL	B_GN	SUJ	10	idtext0082	cln	#1##s##	spk2	138.4	138.45	0.01	_
20091112_RATP_SCD_0815	39	8	vous	NULL	clo	NULL	B_GN	A_OBJ	10	idtext0082	cln	#2##p##	spk2	138.46	138.53	0.01	_
20091112_RATP_SCD_0815	39	9	aurai	NULL	v	NULL	B_GVf	AUX	10	idtext0082	avoir	F#1##s##	spk2	138.54	138.67	0.01	_
20091112_RATP_SCD_0815	39	10	donné	NULL	vppart	NULL	I_GVf	DEP_COORD	5	idtext0082	donner	K##m#s##	spk2	138.68	138.87	0.01	_
20091112_RATP_SCD_0815	39	11	toute+l'	NULL	det	NULL	B_GN	DET	12	idtext0082	toute+l'	#####	spk2	138.88	139.07	0.01	_
20091112_RATP_SCD_0815	39	12	information	NULL	nc	NULL	I_GN	OBJ	10	idtext0082	information	##f#s##	spk2	139.08	139.7	0.33	//
20091112_RATP_SCD_0815	39	13	et	NULL	coo	NULL	B_NULL	ROOT	0	idtext0083	et	#####	spk2	140.03	140.14	0.01	_
20091112_RATP_SCD_0815	39	14	moi	NULL	pro	NULL	B_GN	SUJ	16	idtext0083	moi	#####	spk2	140.15	140.38	0.01	_
20091112_RATP_SCD_0815	39	15	je	NULL	cln	NULL	B_GN	SUJ	16	idtext0083	cln	#1##s##	spk2	140.39	140.54	0.01	_
20091112_RATP_SCD_0815	39	16	suis	NULL	v	NULL	B_GVf	DEP_COORD	13	idtext0083	être	P#1##s##	spk2	140.55	140.75	0.01	_
20091112_RATP_SCD_0815	39	17	l'	NULL	det	NULL	B_GN	DET	18	idtext0083	le	###s##d	spk2	140.76	140.78	0.01	_
20091112_RATP_SCD_0815	39	18	opérateur	NULL	nc	NULL	I_GN	ATS	16	idtext0083	opérateur	##m#s##	spk2	140.79	141.57	0.04	_
20091112_RATP_SCD_0815	39	19	pour	NULL	prep	NULL	B_GP	ROOT	0	idtext0084	pour	#####	spk2	141.61	141.77	0.01	_
20091112_RATP_SCD_0815	39	20	le	NULL	det	NULL	I_GP	DET	21	idtext0084	le	##m#s##d	spk2	141.78	141.85	0.01	_
20091112_RATP_SCD_0815	39	21	compte	NULL	nc	NULL	I_GP	OBJ	19	idtext0084	compte	##m#s##	spk2	141.86	142.11	0.01	_
20091112_RATP_SCD_0815	39	22	de	NULL	prep	NULL	B_GP	DEP	21	idtext0084	de	#####	spk2	142.12	142.25	0.01	_
20091112_RATP_SCD_0815	39	23	la	NULL	det	NULL	I_GP	DET	24	idtext0084	le	##m#s##d	spk2	142.26	142.36	0.01	_
20091112_RATP_SCD_0815	39	24	classe	NULL	nc	NULL	I_GP	OBJ	22	idtext0084	classe	##f#s##	spk2	142.37	142.89	0.21	/
20091112_RATP_SCD_0815	39	25	qui	NULL	prorel	NULL	B_NULL	SUJ	27	idtext0085	qui	#####	spk2	143.1	143.29	0.01	_
20091112_RATP_SCD_0815	39	26	ai	NULL	v	NULL	B_GVf	AUX	27	idtext0085	avoir	P#1##s##	spk2	143.3	143.34	0.01	_
20091112_RATP_SCD_0815	39	27	reçu	NULL	vppart	NULL	I_GVf	ROOT	0	idtext0085	recevoir	K##m#s##	spk2	143.35	143.78	0.01	_
20091112_RATP_SCD_0815	39	28	les	NULL	det	NULL	B_GN	DET	29	idtext0085	le	###p##d	spk2	143.79	143.9	0.01	_
20091112_RATP_SCD_0815	39	29	sous	NULL	nc	NULL	I_GN	OBJ	27	idtext0085	sou	##m#p##	spk2	143.91	144.12	0.01	_
20091112_RATP_SCD_0815	39	30	du	NULL	prep	NULL	B_GP	DEP	29	idtext0085	du	#####	spk2	144.13	144.26	0.01	_
20091112_RATP_SCD_0815	39	31	conseil	NULL	nc	NULL	I_GP	OBJ	30	idtext0085	conseil	##m#s##	spk2	144.27	144.65	0.01	_
20091112_RATP_SCD_0815	39	32	général	NULL	adj	NULL	I_GP	MOD	31	idtext0085	général	##m#s##	spk2	144.66	145.1	0.04	_
20091112_RATP_SCD_0815	39	33	et+donc	NULL	coo	NULL	B_NULL	ROOT	0	idtext0086	et+donc	#####	spk2	145.14	145.41	0.01	_
20091112_RATP_SCD_0815	39	34	c'	NULL	cln	NULL	B_GN	SUJ_IMP	35	idtext0086	ce	###s##	spk2	145.42	145.45	0.01	_
20091112_RATP_SCD_0815	39	35	est	NULL	v	NULL	B_GVfn	DEP_COORD	33	idtext0086	être	P#3##s##	spk2	145.46	145.51	0.01	_
20091112_RATP_SCD_0815	39	36	pas	NULL	advneg	NULL	I_GVfn	MOD	35	idtext0086	pas	#####	spk2	145.52	145.67	0.01	_
20091112_RATP_SCD_0815	39	37	la	NULL	det	NULL	B_GN	DET	38	idtext0086	le	##m#s##d	spk2	145.68	145.79	0.01	_
20091112_RATP_SCD_0815	39	38	classe	NULL	nc	NULL	I_GN	ATS	35	idtext0086	classe	##f#s##	spk2	145.8	146.1	0.01	_
20091112_RATP_SCD_0815	39	39	qui	NULL	prorel	NULL	B_NULL	SUJ	40	idtext0086	qui	#####	spk2	146.11	146.28	0.01	_
20091112_RATP_SCD_0815	39	40	achète	NULL	v	NULL	B_GVf	MOD_REL	38	idtext0086	acheter	PS#13##s##	spk2	146.29	146.72	?	_

20091112_RATP_SCD_0815	40	1	d'accord	NULL	adv	NULL	B_GADV	NOLINK	0	idtext0087	d'accord	#####	spk2	147.18	147.44	?	//

20091112_RATP_SCD_0815	41	1	ben	DISF_M	pres	NULL	NULL	NOLINK	0	idtext0088	ben	#####	spk1	147.73	147.78	0.01	_
20091112_RATP_SCD_0815	41	2	ce+que	NULL	prorel	NULL	B_NULL	OBJ	4	idtext0088	ce+que	#####	spk1	147.79	147.96	0.01	_
20091112_RATP_SCD_0815	41	3	je	NULL	cln	NULL	B_GN	SUJ	4	idtext0088	cln	#1##s##	spk1	147.97	148.05	0.01	_
20091112_RATP_SCD_0815	41	4	vais	NULL	v	NULL	B_GVf	ROOT	0	idtext0088	aller	P#1##s##	spk1	148.06	148.16	0.01	_
20091112_RATP_SCD_0815	41	5	faire	NULL	vinf	NULL	I_GVf	OBJ	4	idtext0088	faire	W#####	spk1	148.17	148.99	0.01	_
20091112_RATP_SCD_0815	41	6	euh	DISF_M	pres	NULL	NULL	NOLINK	0	idtext0088	euh	#####	spk1	149.0	149.02	0.01	_
20091112_RATP_SCD_0815	41	7	monsieur	NULL	nc	NULL	B_GN	NOLINK	0	idtext0088	Monsieur	##m#s##	spk1	149.03	149.47	0.04	_
20091112_RATP_SCD_0815	41	8	donc	NULL	coo	NULL	B_NULL	ROOT	0	idtext0089	donc	#####	spk1	149.51	149.88	0.01	_
20091112_RATP_SCD_0815	41	9	je	NULL	cln	NULL	B_GN	SUJ	10	idtext0089	cln	#1##s##	spk1	149.89	150.0	0.01	_
20091112_RATP_SCD_0815	41	10	vais	NULL	v	NULL	B_GVf	DEP_COORD	8	idtext0089	aller	P#1##s##	spk1	150.01	150.12	0.01	_
20091112_RATP_SCD_0815	41	11	vous	NULL	clo	NULL	B_GN	OBJ	12	idtext0089	cln	#2##p##	spk1	150.13	150.3	0.01	_
20091112_RATP_SCD_0815	41	12	transférer	NULL	vinf	NULL	B_GVi	OBJ	10	idtext0089	transférer	W#####	spk1	150.31	150.78	0.01	_
20091112_RATP_SCD_0815	41	13	à	DISF_R	prep	NULL	NULL	NOLINK	0	idtext0089	à	#####	spk1	150.79	151.03	0.01	_
20091112_RATP_SCD_0815	41	14	avec	NULL	prep	NULL	B_GP	P_OBJ	12	idtext0089	avec	#####	spk1	151.04	151.33	0.01	_
20091112_RATP_SCD_0815	41	15	la	NULL	det	NULL	I_GP	DET	16	idtext0089	le	##m#s##d	spk1	151.34	151.43	0.01	_
20091112_RATP_SCD_0815	41	16	personne	NULL	nc	NULL	I_GP	OBJ	14	idtext0089	personne	##f#s##	spk1	151.44	152.01	0.33	/
20091112_RATP_SCD_0815	41	17	qui	NULL	prorel	NULL	B_NULL	SUJ	19	idtext0090	qui	#####	spk1	152.34	152.39	0.01	_
20091112_RATP_SCD_0815	41	18	s'	NULL	clr	NULL	B_GVf	AFF	19	idtext0090	se	#3##p##	spk1	152.4	152.47	0.01	_
20091112_RATP_SCD_0815	41	19	occupe	NULL	v	NULL	I_GVf	ROOT	0	idtext0090	occuper	PS#13##s##	spk1	152.48	153.47	0.01	_
20091112_RATP_SCD_0815	41	20	euh	DISF_M	pres	NULL	NULL	NOLINK	0	idtext0090	euh	#####	spk1	153.48	153.56	0.04	_
20091112_RATP_SCD_0815	41	21	donc	NULL	coo	NULL	B_NULL	NOLINK	0	idtext0091	donc	#####	spk1	153.6	153.96	0.01	_
20091112_RATP_SCD_0815	41	22	euh	DISF_M	pres	NULL	NULL	NOLINK	0	idtext0091	euh	#####	spk1	153.97	154.44	0.04	_
20091112_RATP_SCD_0815	41	23	vous	NULL	cln	NULL	B_GN	SUJ	26	idtext0092	cln	#2##p##	spk1	154.48	154.62	0.01	_
20091112_RATP_SCD_0815	41	24	êtes	NULL	v	NULL	B_GVf	AUX	26	idtext0092	être	P#2##p##	spk1	154.63	154.76	0.01	_
20091112_RATP_SCD_0815	41	25	jamais	NULL	adv	NULL	I_GVf	MOD	26	idtext0092	jamais	#####	spk1	154.77	155.02	0.01	_
20091112_RATP_SCD_0815	41	26	passé	NULL	vppart	NULL	I_GVf	ROOT	0	idtext0092	passer	K##m#s##	spk1	155.03	155.29	0.01	_
20091112_RATP_SCD_0815	41	27	par	NULL	prep	NULL	B_GP	P_OBJ	26	idtext0092	par	#####	spk1	155.3	155.48	0.01	_
20091112_RATP_SCD_0815	41	28	ce	NULL	det	NULL	I_GP	DET	29	idtext0092	ce	##m#s##e	spk1	155.49	155.68	0.01	_
20091112_RATP_SCD_0815	41	29	système	NULL	nc	NULL	I_GP	OBJ	27	idtext0092	système	##m#s##	spk1	155.69	156.29	0.04	_
20091112_RATP_SCD_0815	41	30	de	NULL	prep	NULL	B_NULL	NOLINK	0	idtext0093	de	#####	spk1	156.33	157.09	0.40	_
20091112_RATP_SCD_0815	41	31	de	NULL	prep	NULL	B_GP	ROOT	0	idtext0094	de	#####	spk1	157.49	157.68	0.01	_
20091112_RATP_SCD_0815	41	32	vente	NULL	nc	NULL	I_GP	OBJ	31	idtext0094	vente	##f#s##	spk1	157.69	157.94	0.01	_
20091112_RATP_SCD_0815	41	33	en	DISF_R	prep	NULL	NULL	NOLINK	0	idtext0094	en	#####	spk1	157.95	158.21	0.01	_
20091112_RATP_SCD_0815	41	34	en	NULL	prep	NULL	B_GP	ROOT	0	idtext0094	en	#####	spk1	158.22	158.36	0.01	_
20091112_RATP_SCD_0815	41	35	nombre	NULL	nc	NULL	I_GP	OBJ	34	idtext0094	nombre	##m#s##	spk1	158.37	158.67	0.01	//
20091112_RATP_SCD_0815	41	36	euh	DISF_M	pres	NULL	NULL	NOLINK	0	idtext0094	euh	#####	spk1	158.68	158.72	0.01	_
20091112_RATP_SCD_0815	41	37	de	NULL	prep	NULL	B_GP	DEP	35	idtext0094	de	#####	spk1	158.73	158.84	0.01	_
20091112_RATP_SCD_0815	41	38	billets	NULL	nc	NULL	I_GP	OBJ	37	idtext0094	billet	##m#p##	spk1	158.85	159.2	?	//

20091112_RATP_SCD_0815	42	1	non	NULL	adv	NULL	B_GADV	NOLINK	0	idtext0095	non	#####	spk2	159.25	159.49	0.01	_
20091112_RATP_SCD_0815	42	2	parce+que	NULL	csu	NULL	B_NULL	ROOT	0	idtext0096	parce+que	#####	spk2	159.5	159.95	0.01	_
20091112_RATP_SCD_0815	42	3	je	NULL	cln	NULL	B_GN	SUJ	4	idtext0096	cln	#1##s##	spk2	159.96	160.13	0.01	_
20091112_RATP_SCD_0815	42	4	crois	NULL	v	NULL	B_GVf	OBJ	2	idtext0096	croire	P#12##s##	spk2	160.14	160.43	?	//

20091112_RATP_SCD_0815	43	1	qu'	NULL	csu	NULL	B_NULL	ROOT	0	idtext0097	qu'	#####	spk2	160.47	160.49	0.01	_
20091112_RATP_SCD_0815	43	2	on	NULL	cln	NULL	B_GN	SUJ_IMP	5	idtext0097	cln	#3##s##	spk2	160.5	160.56	0.01	_
20091112_RATP_SCD_0815	43	3	s'	NULL	clr	NULL	B_GVf	AFF	5	idtext0097	se	#3##p##	spk2	160.57	160.63	0.01	_
20091112_RATP_SCD_0815	43	4	est	NULL	v	NULL	I_GVf	AUX	5	idtext0097	être	P#3##s##	spk2	160.64	160.76	0.01	_
20091112_RATP_SCD_0815	43	5	mis	NULL	vppart	NULL	I_GVf	OBJ	1	idtext0097	mettre	J#12##s##	spk2	160.77	161.17	?	//

20091112_RATP_SCD_0815	44	1	parce+que	NULL	csu	NULL	B_NULL	ROOT	0	idtext0098	parce+que	#####	spk1	160.47	160.86	0.01	_
20091112_RATP_SCD_0815	44	2	je	NULL	cln	NULL	B_GN	SUJ	3	idtext0098	cln	#1##s##	spk1	160.87	160.99	0.01	_
20091112_RATP_SCD_0815	44	3	pense	NULL	v	NULL	B_GVf	OBJ	1	idtext0098	penser	PS#13##s##	spk1	161.0	161.17	?	//

20091112_RATP_SCD_0815	45	1	que	NULL	csu	NULL	B_NULL	NOLINK	0	idtext0099	que	#####	spk1	161.21	161.27	0.01	_
20091112_RATP_SCD_0815	45	2	ça	NULL	pro	NULL	B_GN	SUJ_IMP	3	idtext0099	ça	#####	spk1	161.28	161.39	0.01	_
20091112_RATP_SCD_0815	45	3	serait	NULL	v	NULL	B_GVf	ROOT	0	idtext0099	être	C#3##s##	spk1	161.4	161.55	0.01	_
20091112_RATP_SCD_0815	45	4	le+mieux	NULL	adv	NULL	B_GADV	MOD	3	idtext0099	le+mieux	#####	spk1	161.56	161.8	?	_

20091112_RATP_SCD_0815	46	1	on	NULL	cln	NULL	B_GN	SUJ	3	idtext0100	cln	#3##s##	spk2	161.84	162.0	0.01	_
20091112_RATP_SCD_0815	46	2	a	NULL	v	NULL	B_GVf	AUX	3	idtext0100	avoir	P#3##s##	spk2	162.01	162.23	0.01	_
20091112_RATP_SCD_0815	46	3	été	NULL	vppart	NULL	I_GVf	ROOT	0	idtext0100	être	K#####	spk2	162.24	162.69	?	//

20091112_RATP_SCD_0815	47	1	parce+que	NULL	csu	NULL	B_NULL	ROOT	0	idtext0101	parce+que	#####	spk1	161.84	162.1	0.01	_
20091112_RATP_SCD_0815	47	2	là	NULL	adv	NULL	B_GADV	NOLINK	0	idtext0101	là	#####	spk1	162.11	162.22	0.01	_
20091112_RATP_SCD_0815	47	3	il	NULL	cln	NULL	B_GN	SUJ	4	idtext0101	cln	#3#m#s##	spk1	162.23	162.34	0.01	_
20091112_RATP_SCD_0815	47	4	va	NULL	v	NULL	B_GVf	OBJ	1	idtext0101	aller	P#3##s##	spk1	162.35	162.44	0.01	_
20091112_RATP_SCD_0815	47	5	y	NULL	clo	NULL	B_GN	AFF	6	idtext0101	y	#####	spk1	162.45	162.5	0.01	_
20091112_RATP_SCD_0815	47	6	avoir	NULL	vinf	NULL	B_GVi	OBJ	4	idtext0101	avoir	W#####	spk1	162.51	162.69	?	//

20091112_RATP_SCD_0815	48	1	une	NULL	det	NULL	B_GN	DET	2	idtext0102	un	##f#s##i	spk1	162.73	162.78	0.01	_
20091112_RATP_SCD_0815	48	2	quantité	NULL	nc	NULL	I_GN	ROOT	0	idtext0102	quantité	##f#s##	spk1	162.79	163.19	0.01	_
20091112_RATP_SCD_0815	48	3	de	NULL	prep	NULL	B_GP	DEP	2	idtext0102	de	#####	spk1	163.2	163.41	0.01	_
20091112_RATP_SCD_0815	48	4	titres	NULL	nc	NULL	I_GP	OBJ	3	idtext0102	titre	##m#p##	spk1	163.42	163.63	0.01	_
20091112_RATP_SCD_0815	48	5	de	NULL	prep	NULL	B_GP	DEP	4	idtext0102	de	#####	spk1	163.64	163.66	0.01	_
20091112_RATP_SCD_0815	48	6	transport	NULL	nc	NULL	I_GP	OBJ	5	idtext0102	transport	##m#s##	spk1	163.67	164.12	?	//

20091112_RATP_SCD_0815	49	1	bah	DISF_M	pres	NULL	NULL	NOLINK	0	idtext0103	bah	#####	spk2	164.49	164.54	0.01	_
20091112_RATP_SCD_0815	49	2	oui	NULL	adv	NULL	B_GADV	NOLINK	0	idtext0103	oui	#####	spk2	164.55	164.7	0.01	_
20091112_RATP_SCD_0815	49	3	puis	NULL	coo	NULL	B_NULL	ROOT	0	idtext0103	puis	#####	spk2	164.71	164.79	0.01	_
20091112_RATP_SCD_0815	49	4	en+plus	NULL	adv	NULL	B_GADV	NOLINK	0	idtext0103	en+plus	#####	spk2	164.8	165.04	0.01	_
20091112_RATP_SCD_0815	49	5	je	NULL	cln	NULL	B_GN	SUJ	6	idtext0103	cln	#1##s##	spk2	165.05	165.13	0.01	_
20091112_RATP_SCD_0815	49	6	voudrais	NULL	v	NULL	B_GVf	DEP_COORD	3	idtext0103	vouloir	C#12##s##	spk2	165.14	165.39	0.01	_
20091112_RATP_SCD_0815	49	7	surtout	NULL	adv	NULL	B_GADV	MOD	6	idtext0103	surtout	#####	spk2	165.4	165.89	0.33	_
20091112_RATP_SCD_0815	49	8	euh	DISF_M	pres	NULL	NULL	NOLINK	0	idtext0104	euh	#####	spk2	166.22	166.47	0.01	_
20091112_RATP_SCD_0815	49	9	moi	NULL	pro	NULL	B_GN	NOLINK	0	idtext0104	moi	#####	spk2	166.48	166.8	0.01	_
20091112_RATP_SCD_0815	49	10	euh	DISF_M	pres	NULL	NULL	NOLINK	0	idtext0104	euh	#####	spk2	166.81	167.03	0.01	_
20091112_RATP_SCD_0815	49	11	ne	NULL	clneg	NULL	B_GVin	MOD	13	idtext0104	ne	#####	spk2	167.04	167.21	0.01	_
20091112_RATP_SCD_0815	49	12	pas	NULL	advneg	NULL	I_GVin	MOD	13	idtext0104	pas	#####	spk2	167.22	167.4	0.01	_
20091112_RATP_SCD_0815	49	13	avoir	NULL	vinf	NULL	I_GVin	ROOT	0	idtext0104	avoir	W#####	spk2	167.41	167.85	0.01	_
20091112_RATP_SCD_0815	49	14	à	NULL	prep	NULL	B_GP	A_OBJ	13	idtext0104	à	#####	spk2	167.86	167.88	0.01	_
20091112_RATP_SCD_0815	49	15	aller	NULL	vinf	NULL	I_GP	OBJ	14	idtext0104	aller	W#####	spk2	167.89	168.11	0.01	_
20091112_RATP_SCD_0815	49	16	acheter	NULL	vinf	NULL	B_GVi	OBJ	15	idtext0104	acheter	W#####	spk2	168.12	168.7	0.05	_
20091112_RATP_SCD_0815	49	17	euh	DISF_M	pres	NULL	NULL	NOLINK	0	idtext0105	euh	#####	spk2	168.75	169.25	0.01	_
20091112_RATP_SCD_0815	49	18	euh	DISF_M	pres	NULL	NULL	NOLINK	0	idtext0105	euh	#####	spk2	169.26	169.55	0.22	_
20091112_RATP_SCD_0815	49	19	quinze	NULL	adj	NULL	B_GN	MOD	20	idtext0106	quinze	#####	spk2	169.77	170.08	0.01	_
20091112_RATP_SCD_0815	49	20	tickets	NULL	nc	NULL	I_GN	ROOT	0	idtext0106	ticket	##m#p##	spk2	170.09	170.47	0.01	_
20091112_RATP_SCD_0815	49	21	trente	NULL	adj	NULL	I_GN	MOD	20	idtext0106	trente	#####	spk2	170.48	170.76	0.01	/
20091112_RATP_SCD_0815	49	22	tickets	NULL	nc	NULL	B_GN	ROOT	0	idtext0106	ticket	##m#p##	spk2	170.77	171.14	0.01	_
20091112_RATP_SCD_0815	49	23	quarante	NULL	adj	NULL	I_GN	MOD	22	idtext0106	quarante	#####	spk2	171.15	171.56	0.01	_
20091112_RATP_SCD_0815	49	24	tickets	NULL	nc	NULL	B_GN	NOLINK	0	idtext0106	ticket	##m#p##	spk2	171.57	172.0	0.04	_
20091112_RATP_SCD_0815	49	25	tous+les	NULL	det	NULL	B_GN	DET	26	idtext0107	tous+les	#####	spk2	172.04	172.33	0.01	_
20091112_RATP_SCD_0815	49	26	jours	NULL	nc	NULL	I_GN	ROOT	0	idtext0107	jour	##m#p##	spk2	172.34	172.72	?	//

20091112_RATP_SCD_0815	50	1	non	DISF_R	adv	NULL	NULL	NOLINK	0	idtext0108	non	#####	spk1	172.79	173.03	0.01	_
20091112_RATP_SCD_0815	50	2	non	DISF_R	adv	NULL	NULL	NOLINK	0	idtext0108	non	#####	spk1	173.04	173.16	0.01	_
20091112_RATP_SCD_0815	50	3	non	NULL	adv	NULL	B_GADV	NOLINK	0	idtext0108	non	#####	spk1	173.17	173.28	0.07	_
20091112_RATP_SCD_0815	50	4	ben	DISF_M	pres	NULL	NULL	NOLINK	0	idtext0109	ben	#####	spk1	173.35	173.54	0.01	_
20091112_RATP_SCD_0815	50	5	je	NULL	cln	NULL	B_GN	SUJ	6	idtext0109	cln	#1##s##	spk1	173.55	173.59	0.01	_
20091112_RATP_SCD_0815	50	6	vais	NULL	v	NULL	B_GVf	ROOT	0	idtext0109	aller	P#1##s##	spk1	173.6	173.67	0.01	_
20091112_RATP_SCD_0815	50	7	vous	NULL	clo	NULL	B_GN	OBJ	8	idtext0109	cln	#2##p##	spk1	173.68	173.79	0.01	_
20091112_RATP_SCD_0815	50	8	transférer	NULL	vinf	NULL	B_GVi	OBJ	6	idtext0109	transférer	W#####	spk1	173.8	174.14	0.01	_
20091112_RATP_SCD_0815	50	9	au	NULL	prep	NULL	B_GP	MOD	8	idtext0109	au	#####	spk1	174.15	174.25	0.01	_
20091112_RATP_SCD_0815	50	10	service	NULL	nc	NULL	I_GP	OBJ	9	idtext0109	service	##m#s##	spk1	174.26	174.64	?	//

20091112_RATP_SCD_0815	51	1	qui	NULL	prorel	NULL	B_NULL	SUJ	3	idtext0110	qui	#####	spk1	174.7	174.91	0.01	_
20091112_RATP_SCD_0815	51	2	est	NULL	v	NULL	B_GVf	AUX	3	idtext0110	être	P#3##s##	spk1	174.92	174.95	0.01	_
20091112_RATP_SCD_0815	51	3	concerné	NULL	vppart	NULL	I_GVf	ROOT	0	idtext0110	concerner	K##m#s##	spk1	174.96	175.41	0.04	_
20091112_RATP_SCD_0815	51	4	parce+que	NULL	csu	NULL	B_NULL	ROOT	0	idtext0111	parce+que	#####	spk1	175.45	175.61	0.01	_
20091112_RATP_SCD_0815	51	5	en+plus	NULL	adv	NULL	B_GADV	NOLINK	0	idtext0111	en+plus	#####	spk1	175.62	176.05	0.01	_
20091112_RATP_SCD_0815	51	6	eux	NULL	pro	NULL	B_GN	NOLINK	0	idtext0111	eux	#####	spk1	176.06	176.29	0.01	_
20091112_RATP_SCD_0815	51	7	c'	NULL	cln	NULL	B_GN	SUJ_IMP	8	idtext0111	ce	###s##	spk1	176.3	176.35	0.01	_
20091112_RATP_SCD_0815	51	8	est	NULL	v	NULL	B_GVf	OBJ	4	idtext0111	être	P#3##s##	spk1	176.36	176.38	0.01	_
20091112_RATP_SCD_0815	51	9	à+partir+de	NULL	prep	NULL	B_NULL	NOLINK	0	idtext0111	à+partir+de	#####	spk1	176.39	177.28	0.39	_
20091112_RATP_SCD_0815	51	10	de	NULL	prep	NULL	B_GP	ROOT	0	idtext0112	de	#####	spk1	177.67	177.81	0.01	_
20091112_RATP_SCD_0815	51	11	dix	NULL	adj	NULL	I_GP	MOD	12	idtext0112	dix	#####	spk1	177.82	178.06	0.01	_
20091112_RATP_SCD_0815	51	12	carnets	NULL	nc	NULL	I_GP	OBJ	10	idtext0112	carnet	##m#p##	spk1	178.07	178.34	0.01	_
20091112_RATP_SCD_0815	51	13	de	NULL	prep	NULL	B_GP	DEP	12	idtext0112	de	#####	spk1	178.35	178.42	0.01	_
20091112_RATP_SCD_0815	51	14	dix	NULL	nc	NULL	I_GP	OBJ	13	idtext0112	dix	##m###	spk1	178.43	178.65	0.01	_
20091112_RATP_SCD_0815	51	15	donc	NULL	coo	NULL	B_NULL	COORD	12	idtext0112	donc	#####	spk1	178.66	178.86	0.01	_
20091112_RATP_SCD_0815	51	16	ça	NULL	pro	NULL	B_GN	SUJ_IMP	17	idtext0112	ça	#####	spk1	178.87	178.93	0.01	_
20091112_RATP_SCD_0815	51	17	fait	NULL	v	NULL	B_GVf	DEP_COORD	15	idtext0112	faire	P#3##s##	spk1	178.94	179.06	0.01	_
20091112_RATP_SCD_0815	51	18	cent	NULL	nc	NULL	B_GN	OBJ	17	idtext0112	cent	##m#p##	spk1	179.07	179.24	0.01	_
20091112_RATP_SCD_0815	51	19	tickets	NULL	nc	NULL	I_GN	MOD	18	idtext0112	ticket	##m#p##	spk1	179.25	179.66	0.04	_
20091112_RATP_SCD_0815	51	20	ou	NULL	coo	NULL	B_NULL	ROOT	0	idtext0113	ou	#####	spk1	179.7	179.74	0.01	_
20091112_RATP_SCD_0815	51	21	cent	NULL	det	B_P	B_GN	DET	23	idtext0113	cent	#####	spk1	179.75	179.88	0.01	_
20091112_RATP_SCD_0815	51	22	cinquante	NULL	det	I_P	I_GN	DET	23	idtext0113	cinquante	#####	spk1	179.89	180.29	0.01	//
20091112_RATP_SCD_0815	51	23	euros	NULL	nc	I_P	I_GN	DEP_COORD	20	idtext0113	euro	##m#p##	spk1	180.3	180.41	0.01	_
20091112_RATP_SCD_0815	51	24	d'	NULL	prep	NULL	B_GP	DEP	23	idtext0113	d'	#####	spk1	180.42	180.44	0.01	_
20091112_RATP_SCD_0815	51	25	achats	NULL	nc	NULL	I_GP	OBJ	24	idtext0113	achat	##m#p##	spk1	180.45	180.69	0.01	_
20091112_RATP_SCD_0815	51	26	hein	DISF_M	pres	NULL	NULL	NOLINK	0	idtext0113	hein	#####	spk1	180.7	180.78	0.01	_
20091112_RATP_SCD_0815	51	27	donc	NULL	coo	NULL	B_NULL	ROOT	0	idtext0113	donc	#####	spk1	180.79	180.91	0.01	_
20091112_RATP_SCD_0815	51	28	vous	DISF_R	cln	NULL	NULL	NOLINK	0	idtext0113	cln	#2##p##	spk1	180.92	181.0	0.01	_
20091112_RATP_SCD_0815	51	29	vous	NULL	cln	NULL	B_GN	SUJ	30	idtext0113	cln	#2##p##	spk1	181.01	181.35	0.01	_
20091112_RATP_SCD_0815	51	30	êtes	NULL	v	NULL	B_GVf	DEP_COORD	27	idtext0113	être	P#2##p##	spk1	181.36	181.49	0.01	_
20091112_RATP_SCD_0815	51	31	largement	NULL	adv	NULL	B_GADV	MOD	30	idtext0113	largement	#####	spk1	181.5	182.15	0.01	_
20091112_RATP_SCD_0815	51	32	euh	DISF_M	pres	NULL	NULL	NOLINK	0	idtext0113	euh	#####	spk1	182.16	182.4	?	//

20091112_RATP_SCD_0815	52	1	on	NULL	cln	NULL	B_GN	SUJ_IMP	2	idtext0114	cln	#3##s##	spk2	182.49	182.57	0.01	_
20091112_RATP_SCD_0815	52	2	sera	NULL	v	NULL	B_GVf	ROOT	0	idtext0114	être	F#3##s##	spk2	182.58	182.84	0.01	_
20091112_RATP_SCD_0815	52	3	au-dessus	NULL	adv	NULL	B_GADV	MOD	2	idtext0114	au-dessus	#####	spk2	182.85	183.38	?	_

20091112_RATP_SCD_0815	53	1	au-dessus	NULL	adv	NULL	B_GADV	NOLINK	0	idtext0115	au-dessus	#####	spk1	182.48	183.23	0.01	//
20091112_RATP_SCD_0815	53	2	hein	DISF_M	pres	NULL	NULL	NOLINK	0	idtext0115	hein	#####	spk1	183.24	183.38	?	//

20091112_RATP_SCD_0815	54	1	euh	DISF_M	pres	NULL	NULL	NOLINK	0	idtext0116	euh	#####	spk1	183.79	184.15	0.01	_
20091112_RATP_SCD_0815	54	2	et	NULL	coo	NULL	B_NULL	ROOT	0	idtext0116	et	#####	spk1	184.16	184.26	0.01	_
20091112_RATP_SCD_0815	54	3	vous	NULL	cln	NULL	B_GN	SUJ	6	idtext0116	cln	#2##p##	spk1	184.27	184.38	0.01	_
20091112_RATP_SCD_0815	54	4	m'	NULL	clo	NULL	B_GN	A_OBJ	6	idtext0116	cla	#1##s##	spk1	184.39	184.45	0.01	_
20091112_RATP_SCD_0815	54	5	avez	NULL	v	NULL	B_GVf	AUX	6	idtext0116	avoir	P#2##p##	spk1	184.46	184.54	0.01	_
20091112_RATP_SCD_0815	54	6	dit	NULL	vppart	NULL	I_GVf	DEP_COORD	2	idtext0116	dire	J#3##s##	spk1	184.55	184.63	0.01	_
20091112_RATP_SCD_0815	54	7	que	NULL	csu	NULL	B_NULL	OBJ	6	idtext0116	que	#####	spk1	184.64	184.67	0.01	_
20091112_RATP_SCD_0815	54	8	vous	NULL	cln	NULL	B_GN	SUJ	9	idtext0116	cln	#2##p##	spk1	184.68	184.78	0.01	_
20091112_RATP_SCD_0815	54	9	étiez	NULL	v	NULL	B_GVf	OBJ	7	idtext0116	être	I#2##p##	spk1	184.79	185.06	0.01	_
20091112_RATP_SCD_0815	54	10	une	NULL	det	NULL	B_GN	DET	11	idtext0116	un	##f#s##i	spk1	185.07	185.13	0.01	_
20091112_RATP_SCD_0815	54	11	association	NULL	nc	NULL	I_GN	ATS	9	idtext0116	association	##f#s##	spk1	185.14	185.83	?	//

20091112_RATP_SCD_0815	55	1	oui	NULL	adv	NULL	B_GADV	NOLINK	0	idtext0117	oui	#####	spk2	185.9	186.16	0.10	_
20091112_RATP_SCD_0815	55	2	tout+à+fait	NULL	adv	NULL	B_GADV	NOLINK	0	idtext0118	tout+à+fait	#####	spk2	186.26	186.73	0.49	_
20091112_RATP_SCD_0815	55	3	association	NULL	nc	NULL	B_GN	ROOT	0	idtext0119	association	##f#s##	spk2	187.22	188.0	0.01	_
20091112_RATP_SCD_0815	55	4	euh	DISF_M	pres	NULL	NULL	NOLINK	0	idtext0119	euh	#####	spk2	188.01	188.12	0.01	_
20091112_RATP_SCD_0815	55	5	au	NULL	prep	NULL	B_GP	MOD	3	idtext0119	au	#####	spk2	188.13	188.22	0.01	_
20091112_RATP_SCD_0815	55	6	niveau	NULL	nc	NULL	I_GP	OBJ	5	idtext0119	niveau	##m#s##	spk2	188.23	188.46	0.01	_
20091112_RATP_SCD_0815	55	7	départemental	NULL	adj	NULL	I_GP	MOD	6	idtext0119	départemental	##m#s##	spk2	188.47	189.4	0.05	_
20091112_RATP_SCD_0815	55	8	dans	NULL	prep	NULL	B_GP	ROOT	0	idtext0120	dans	#####	spk2	189.45	189.56	0.01	_
20091112_RATP_SCD_0815	55	9	le	NULL	det	NULL	I_GP	DET	10	idtext0120	le	##m#s##d	spk2	189.57	189.7	0.01	_
20091112_RATP_SCD_0815	55	10	département	NULL	nc	NULL	I_GP	OBJ	8	idtext0120	département	##m#s##	spk2	189.71	190.2	0.01	_
20091112_RATP_SCD_0815	55	11	du	NULL	prep	NULL	B_GP	DEP	10	idtext0120	du	#####	spk2	190.21	190.31	0.01	_
20091112_RATP_SCD_0815	55	12	quatre-vingt-treize	NULL	nc	B_T	I_GP	OBJ	11	idtext0120	quatre-vingt-treize	#####	spk2	190.32	190.95	0.28	_
20091112_RATP_SCD_0815	55	13	et	NULL	coo	NULL	B_NULL	ROOT	0	idtext0121	et	#####	spk2	191.23	191.29	0.01	_
20091112_RATP_SCD_0815	55	14	on	NULL	cln	NULL	B_GN	SUJ	15	idtext0121	cln	#3##s##	spk2	191.3	191.39	0.01	_
20091112_RATP_SCD_0815	55	15	bosse	NULL	v	NULL	B_GVf	DEP_COORD	13	idtext0121	bosser	PS#13##s##	spk2	191.4	191.62	0.01	_
20091112_RATP_SCD_0815	55	16	pour	NULL	prep	NULL	B_GP	P_OBJ	15	idtext0121	pour	#####	spk2	191.63	191.81	0.01	_
20091112_RATP_SCD_0815	55	17	le	NULL	det	NULL	I_GP	DET	18	idtext0121	le	##m#s##d	spk2	191.82	192.08	0.01	_
20091112_RATP_SCD_0815	55	18	conseil	NULL	nc	NULL	I_GP	OBJ	16	idtext0121	conseil	##m#s##	spk2	192.09	192.41	0.01	_
20091112_RATP_SCD_0815	55	19	général	NULL	adj	NULL	I_GP	MOD	18	idtext0121	général	##m#s##	spk2	192.42	192.92	?	//

20091112_RATP_SCD_0815	56	1	et	NULL	coo	NULL	B_NULL	ROOT	0	idtext0122	et	#####	spk2	193.79	193.89	0.01	_
20091112_RATP_SCD_0815	56	2	pour	NULL	prep	NULL	B_GP	DEP_COORD	1	idtext0122	pour	#####	spk2	193.9	194.06	0.01	_
20091112_RATP_SCD_0815	56	3	l'	NULL	det	NULL	I_GP	DET	4	idtext0122	le	###s##d	spk2	194.07	194.09	0.01	_
20091112_RATP_SCD_0815	56	4	inspection	NULL	nc	NULL	I_GP	OBJ	2	idtext0122	inspection	##f#s##	spk2	194.1	194.45	0.01	_
20091112_RATP_SCD_0815	56	5	académique	NULL	adj	NULL	I_GP	MOD	4	idtext0122	académique	###s##	spk2	194.46	195.01	0.34	/
20091112_RATP_SCD_0815	56	6	donc	NULL	coo	NULL	B_NULL	ROOT	0	idtext0123	donc	#####	spk2	195.35	195.5	0.01	_
20091112_RATP_SCD_0815	56	7	c'	NULL	cln	NULL	B_GN	SUJ_IMP	8	idtext0123	ce	###s##	spk2	195.51	195.53	0.01	_
20091112_RATP_SCD_0815	56	8	est	NULL	v	NULL	B_GVf	DEP_COORD	6	idtext0123	être	P#3##s##	spk2	195.54	195.57	0.01	_
20091112_RATP_SCD_0815	56	9	pour	NULL	prep	NULL	B_GP	ATS	8	idtext0123	pour	#####	spk2	195.58	195.78	0.01	_
20091112_RATP_SCD_0815	56	10	ça	NULL	pro	NULL	I_GP	OBJ	9	idtext0123	ça	#####	spk2	195.79	195.91	0.01	_
20091112_RATP_SCD_0815	56	11	quoi	DISF_M	pres	NULL	NULL	NOLINK	0	idtext0123	quoi	#####	spk2	195.92	196.11	?	_

20091112_RATP_SCD_0815	57	1	et+donc	NULL	coo	NULL	B_NULL	ROOT	0	idtext0124	et+donc	#####	spk1	196.96	197.18	0.01	_
20091112_RATP_SCD_0815	57	2	c'	NULL	cln	NULL	B_GN	SUJ_IMP	3	idtext0124	ce	###s##	spk1	197.19	197.26	0.01	_
20091112_RATP_SCD_0815	57	3	est	NULL	v	NULL	B_GVf	DEP_COORD	1	idtext0124	être	P#3##s##	spk1	197.27	197.34	0.01	_
20091112_RATP_SCD_0815	57	4	pour	NULL	prep	NULL	B_GP	ATS	3	idtext0124	pour	#####	spk1	197.35	197.51	0.01	_
20091112_RATP_SCD_0815	57	5	avoir	NULL	vinf	NULL	I_GP	OBJ	4	idtext0124	avoir	W#####	spk1	197.52	197.81	0.01	_
20091112_RATP_SCD_0815	57	6	des	NULL	det	NULL	B_GN	DET	7	idtext0124	des	###p##i	spk1	197.82	197.95	0.01	_
20091112_RATP_SCD_0815	57	7	tickets	NULL	nc	NULL	I_GN	OBJ	5	idtext0124	ticket	##m#p##	spk1	197.96	198.34	0.01	_
20091112_RATP_SCD_0815	57	8	groupes	NULL	nc	NULL	I_GN	MOD	7	idtext0124	groupe	##m#p##	spk1	198.35	198.52	0.01	_
20091112_RATP_SCD_0815	57	9	de	NULL	prep	NULL	B_GP	DEP	7	idtext0124	de	#####	spk1	198.53	198.59	0.01	_
20091112_RATP_SCD_0815	57	10	jeunes	NULL	nc	NULL	I_GP	OBJ	9	idtext0124	jeune	###p##	spk1	198.6	198.92	0.01	_
20091112_RATP_SCD_0815	57	11	hein	DISF_M	pres	NULL	NULL	NOLINK	0	idtext0124	hein	#####	spk1	198.93	199.04	?	//

20091112_RATP_SCD_0815	58	1	eh	DISF_M	pres	NULL	NULL	NOLINK	0	idtext0125	eh	#####	spk2	199.64	200.14	0.01	_
20091112_RATP_SCD_0815	58	2	oui	NULL	adv	NULL	B_GADV	NOLINK	0	idtext0125	oui	#####	spk2	200.15	200.25	?	_

20091112_RATP_SCD_0815	59	1	enfin	NULL	adv	NULL	B_GADV	NOLINK	0	idtext0126	enfin	#####	spk2	200.29	200.43	0.01	/
20091112_RATP_SCD_0815	59	2	ça	NULL	pro	NULL	B_GN	SUJ_IMP	7	idtext0126	ça	#####	spk2	200.44	200.67	0.01	_
20091112_RATP_SCD_0815	59	3	c'	DISF_R	cln	NULL	NULL	NOLINK	0	idtext0126	ce	###s##	spk2	200.68	200.77	0.01	_
20091112_RATP_SCD_0815	59	4	est	DISF_R	v	NULL	NULL	NOLINK	0	idtext0126	être	P#3##s##	spk2	200.78	200.92	0.01	_
20091112_RATP_SCD_0815	59	5	pour	DISF_R	prep	NULL	NULL	NOLINK	0	idtext0126	pour	#####	spk2	200.93	201.3	0.01	_
20091112_RATP_SCD_0815	59	6	c'	NULL	cln	NULL	B_GN	SUJ_IMP	7	idtext0126	ce	###s##	spk2	201.31	201.33	0.01	_
20091112_RATP_SCD_0815	59	7	est	NULL	v	NULL	B_GVf	ROOT	0	idtext0126	être	P#3##s##	spk2	201.34	201.53	0.01	_
20091112_RATP_SCD_0815	59	8	pour	NULL	prep	NULL	B_GP	ATS	7	idtext0126	pour	#####	spk2	201.54	201.73	0.01	_
20091112_RATP_SCD_0815	59	9	pouvoir	NULL	vinf	NULL	I_GP	OBJ	8	idtext0126	pouvoir	W#####	spk2	201.74	202.26	?	_

20091112_RATP_SCD_0815	60	1	pour	NULL	prep	NULL	B_GP	ROOT	0	idtext0127	pour	#####	spk1	200.4	200.74	0.01	_
20091112_RATP_SCD_0815	60	2	des	DISF_R	det	NULL	NULL	NOLINK	0	idtext0127	des	###p##i	spk1	200.75	200.84	0.01	_
20091112_RATP_SCD_0815	60	3	groupes	DISF_R	nc	NULL	NULL	NOLINK	0	idtext0127	groupe	##m#p##	spk1	200.85	201.22	0.01	_
20091112_RATP_SCD_0815	60	4	euh	DISF_M	pres	NULL	NULL	NOLINK	0	idtext0127	euh	#####	spk1	201.23	201.31	0.01	_
20091112_RATP_SCD_0815	60	5	des	NULL	det	NULL	I_GP	DET	6	idtext0127	des	###p##i	spk1	201.32	201.93	0.01	_
20091112_RATP_SCD_0815	60	6	classes	NULL	nc	NULL	I_GP	OBJ	1	idtext0127	classe	##f#p##	spk1	201.94	202.26	?	//

20091112_RATP_SCD_0815	61	1	faire	NULL	vinf	NULL	B_GVi	ROOT	0	idtext0128	faire	W#####	spk2	202.31	202.62	0.01	_
20091112_RATP_SCD_0815	61	2	circuler	NULL	vinf	NULL	B_GVi	OBJ	1	idtext0128	circuler	W#####	spk2	202.63	203.25	0.01	_
20091112_RATP_SCD_0815	61	3	des	NULL	det	NULL	B_GN	DET	4	idtext0128	des	###p##i	spk2	203.26	203.44	0.01	_
20091112_RATP_SCD_0815	61	4	classes	NULL	nc	NULL	I_GN	OBJ	2	idtext0128	classe	##f#p##	spk2	203.45	203.84	0.06	_
20091112_RATP_SCD_0815	61	5	en	NULL	prep	NULL	B_GP	ROOT	0	idtext0129	en	#####	spk2	203.9	204.08	0.01	_
20091112_RATP_SCD_0815	61	6	bénéficiant	NULL	vprespart	NULL	I_GP	OBJ	5	idtext0129	bénéficier	G#####	spk2	204.09	204.98	?	//

20091112_RATP_SCD_0815	62	1	du	NULL	prep	NULL	B_GP	ROOT	0	idtext0130	du	#####	spk1	205.18	205.35	0.01	_
20091112_RATP_SCD_0815	62	2	groupe	NULL	nc	NULL	I_GP	OBJ	1	idtext0130	groupe	##m#s##	spk1	205.36	205.81	0.01	_
20091112_RATP_SCD_0815	62	3	de	NULL	prep	NULL	B_GP	DEP	2	idtext0130	de	#####	spk1	205.82	205.97	0.01	_
20091112_RATP_SCD_0815	62	4	jeunes	NULL	nc	NULL	I_GP	OBJ	3	idtext0130	jeune	###p##	spk1	205.98	206.51	0.01	_
20091112_RATP_SCD_0815	62	5	hm	DISF_M	pres	NULL	NULL	NOLINK	0	idtext0130	hm	#####	spk1	206.52	206.62	?	//

20091112_RATP_SCD_0815	63	1	du	DISF_R	prep	NULL	NULL	NOLINK	0	idtext0131	du	#####	spk2	205.18	205.35	0.01	_
20091112_RATP_SCD_0815	63	2	d'	NULL	prep	NULL	B_GP	ROOT	0	idtext0131	d'	#####	spk2	205.36	205.74	0.01	_
20091112_RATP_SCD_0815	63	3	un	NULL	det	NULL	I_GP	DET	4	idtext0131	un	##m#s##i	spk2	205.75	205.92	0.01	_
20091112_RATP_SCD_0815	63	4	tarif	NULL	nc	NULL	I_GP	OBJ	2	idtext0131	tarif	##m#s##	spk2	205.93	206.27	0.01	_
20091112_RATP_SCD_0815	63	5	réduit	NULL	adj	NULL	I_GP	MOD	4	idtext0131	réduire	K##m#s##	spk2	206.28	206.62	?	//

20091112_RATP_SCD_0815	64	1	d'accord	NULL	adv	NULL	B_GADV	NOLINK	0	idtext0132	d'accord	#####	spk1	207.06	207.35	0.90	_
20091112_RATP_SCD_0815	64	2	d'accord	NULL	adv	NULL	B_GADV	NOLINK	0	idtext0133	d'accord	#####	spk1	208.25	208.55	?	/

20091112_RATP_SCD_0815	65	1	bon	DISF_M	pres	NULL	NULL	NOLINK	0	idtext0134	bon	#####	spk1	209.79	209.96	0.01	_
20091112_RATP_SCD_0815	65	2	je	NULL	cln	NULL	B_GN	SUJ	3	idtext0134	cln	#1##s##	spk1	209.97	210.05	0.01	_
20091112_RATP_SCD_0815	65	3	vais	NULL	v	NULL	B_GVf	ROOT	0	idtext0134	aller	P#1##s##	spk1	210.06	210.11	0.01	_
20091112_RATP_SCD_0815	65	4	essayer	NULL	vinf	NULL	I_GVf	OBJ	3	idtext0134	essayer	W#####	spk1	210.12	210.31	0.01	_
20091112_RATP_SCD_0815	65	5	de	NULL	prep	NULL	B_GP	OBJ	3	idtext0134	de	#####	spk1	210.32	210.34	0.01	_
20091112_RATP_SCD_0815	65	6	vous	NULL	clo	NULL	I_GP	OBJ	7	idtext0134	cln	#2##p##	spk1	210.35	210.43	0.01	_
20091112_RATP_SCD_0815	65	7	transférer	NULL	vinf	NULL	B_GVi	OBJ	5	idtext0134	transférer	W#####	spk1	210.44	210.73	0.01	_
20091112_RATP_SCD_0815	65	8	avec	NULL	prep	NULL	B_GP	P_OBJ	7	idtext0134	avec	#####	spk1	210.74	210.89	0.01	_
20091112_RATP_SCD_0815	65	9	la	NULL	det	NULL	I_GP	DET	10	idtext0134	le	##m#s##d	spk1	210.9	210.98	0.01	_
20091112_RATP_SCD_0815	65	10	personne	NULL	nc	NULL	I_GP	OBJ	8	idtext0134	personne	##f#s##	spk1	210.99	211.26	0.01	_
20091112_RATP_SCD_0815	65	11	qui	NULL	prorel	NULL	B_NULL	SUJ	13	idtext0134	qui	#####	spk1	211.27	211.39	0.01	_
20091112_RATP_SCD_0815	65	12	s'	NULL	clr	NULL	B_GVf	AFF	13	idtext0134	se	#3##p##	spk1	211.4	211.46	0.01	_
20091112_RATP_SCD_0815	65	13	occupe	NULL	v	NULL	I_GVf	MOD_REL	10	idtext0134	occuper	PS#13##s##	spk1	211.47	211.72	0.01	_
20091112_RATP_SCD_0815	65	14	de	NULL	prep	NULL	B_GP	DE_OBJ	13	idtext0134	de	#####	spk1	211.73	211.76	0.01	_
20091112_RATP_SCD_0815	65	15	ça	NULL	pro	NULL	I_GP	OBJ	14	idtext0134	ça	#####	spk1	211.77	211.82	0.01	_
20091112_RATP_SCD_0815	65	16	d'accord	NULL	adv	NULL	B_GADV	NOLINK	0	idtext0134	d'accord	#####	spk1	211.83	211.99	?	/

20091112_RATP_SCD_0815	66	1	d'accord	NULL	adv	NULL	B_GADV	NOLINK	0	idtext0135	d'accord	#####	spk1	212.03	212.25	0.01	_
20091112_RATP_SCD_0815	66	2	monsieur	NULL	nc	NULL	B_GN	NOLINK	0	idtext0135	Monsieur	##m#s##	spk1	212.26	212.55	0.01	_
20091112_RATP_SCD_0815	66	3	patientez	NULL	v	NULL	B_GVf	NOLINK	0	idtext0135	patienter	P#2##p##	spk1	212.56	212.97	?	//

20091112_RATP_SCD_0815	67	1	merci	NULL	adv	NULL	B_GADV	MOD	2	idtext0136	merci	#####	spk2	212.07	212.41	0.01	_
20091112_RATP_SCD_0815	67	2	beaucoup	NULL	adv	NULL	I_GADV	ROOT	0	idtext0136	beaucoup	#####	spk2	212.42	212.97	?	//

20091112_RATP_SCD_0815	68	1	merci	NULL	adv	NULL	B_GADV	NOLINK	0	idtext0137	merci	#####	spk1	213.01	213.33	?	//

20091112_RATP_SCD_0815	69	1	oui	NULL	adv	NULL	B_GADV	NOLINK	0	idtext0138	oui	#####	spk3	244.79	245.16	0.33	_
20091112_RATP_SCD_0815	69	2	NNAAMMEE	NULL	np	B_HU	B_GN	ROOT	0	idtext0139	ANONYM	NULL	spk3	245.49	245.68	?	_

20091112_RATP_SCD_0815	70	1	oui	NULL	adv	NULL	B_GADV	MOD	2	idtext0140	oui	#####	spk1	245.8	245.95	0.01	//
20091112_RATP_SCD_0815	70	2	bonjour	NULL	adv	NULL	I_GADV	ROOT	0	idtext0140	bonjour	#####	spk1	245.96	246.27	0.30	//
20091112_RATP_SCD_0815	70	3	NNAAMMEE	NULL	np	B_HU	B_GN	ROOT	0	idtext0141	ANONYM	NULL	spk1	246.57	246.76	0.01	_
20091112_RATP_SCD_0815	70	4	c'	NULL	cln	NULL	B_GN	SUJ_IMP	5	idtext0142	ce	###s##	spk1	246.77	246.77	0.00	_
20091112_RATP_SCD_0815	70	5	est	NULL	v	NULL	B_GVf	ROOT	0	idtext0142	être	P#3##s##	spk1	246.77	246.82	0.04	_
20091112_RATP_SCD_0815	70	6	NNAAMMEE	NULL	np	B_HU	B_GN	ROOT	0	idtext0143	ANONYM	NULL	spk1	246.86	247.33	0.04	_
20091112_RATP_SCD_0815	70	7	du	NULL	prep	NULL	B_GP	ROOT	0	idtext0144	du	#####	spk1	247.37	247.42	0.01	_
20091112_RATP_SCD_0815	70	8	service	NULL	nc	NULL	I_GP	OBJ	7	idtext0144	service	##m#s##	spk1	247.43	247.65	?	//

20091112_RATP_SCD_0815	71	1	Clients+à+Distance	NULL	np	B_ORG	B_GN	NOLINK	0	idtext0145	Clients+à+Distance	#####	spk1	247.69	248.7	?	//

20091112_RATP_SCD_0815	72	1	oui	NULL	adv	NULL	B_GADV	NOLINK	0	idtext0146	oui	#####	spk3	248.14	248.7	?	//

20091112_RATP_SCD_0815	73	1	euh	DISF_M	pres	NULL	NULL	NOLINK	0	idtext0147	euh	#####	spk1	248.93	249.43	0.04	_
20091112_RATP_SCD_0815	73	2	je	DISF_R	cln	NULL	NULL	NOLINK	0	idtext0148	cln	#1##s##	spk1	249.47	249.54	0.01	_
20091112_RATP_SCD_0815	73	3	je	NULL	cln	NULL	B_GN	SUJ	5	idtext0148	cln	#1##s##	spk1	249.55	249.72	0.01	_
20091112_RATP_SCD_0815	73	4	t'	NULL	clo	NULL	B_GN	OBJ	5	idtext0148	cln	#2##s##	spk1	249.73	249.78	0.01	_
20091112_RATP_SCD_0815	73	5	appelle	NULL	v	NULL	B_GVf	ROOT	0	idtext0148	appeler	PS#13##s##	spk1	249.79	250.05	0.01	_
20091112_RATP_SCD_0815	73	6	pour	NULL	prep	NULL	B_GP	MOD	5	idtext0148	pour	#####	spk1	250.06	250.21	0.01	_
20091112_RATP_SCD_0815	73	7	te	NULL	clo	NULL	I_GP	OBJ	8	idtext0148	cla	#2##s##	spk1	250.22	250.26	0.01	_
20091112_RATP_SCD_0815	73	8	transférer	NULL	vinf	NULL	B_GVi	OBJ	6	idtext0148	transférer	W#####	spk1	250.27	250.84	0.01	_
20091112_RATP_SCD_0815	73	9	un	NULL	det	NULL	B_GN	DET	11	idtext0148	un	##m#s##i	spk1	250.85	250.94	0.01	_
20091112_RATP_SCD_0815	73	10	nouveau	NULL	adj	NULL	I_GN	MOD	11	idtext0148	nouveau	##m#s##	spk1	250.95	251.18	0.01	_
20091112_RATP_SCD_0815	73	11	client	NULL	nc	NULL	I_GN	OBJ	8	idtext0148	client	##m#s##	spk1	251.19	251.7	?	//

20091112_RATP_SCD_0815	74	1	oui	NULL	adv	NULL	B_GADV	NOLINK	0	idtext0149	oui	#####	spk3	252.43	253.19	?	//

20091112_RATP_SCD_0815	75	1	alors	NULL	adv	NULL	B_GADV	NOLINK	0	idtext0150	alors	#####	spk1	252.79	253.19	?	//

20091112_RATP_SCD_0815	76	1	c'	NULL	cln	NULL	B_GN	SUJ_IMP	2	idtext0151	ce	###s##	spk1	253.25	253.29	0.01	_
20091112_RATP_SCD_0815	76	2	est	NULL	v	NULL	B_GVf	ROOT	0	idtext0151	être	P#3##s##	spk1	253.3	253.34	0.01	_
20091112_RATP_SCD_0815	76	3	une	NULL	det	NULL	B_GN	DET	4	idtext0151	un	##f#s##i	spk1	253.35	253.44	0.01	_
20091112_RATP_SCD_0815	76	4	association	NULL	nc	NULL	I_GN	ATS	2	idtext0151	association	##f#s##	spk1	253.45	254.17	0.01	/
20091112_RATP_SCD_0815	76	5	qui	NULL	prorel	NULL	B_NULL	SUJ	6	idtext0151	qui	#####	spk1	254.18	254.35	0.01	_
20091112_RATP_SCD_0815	76	6	travaille	NULL	v	NULL	B_GVf	MOD_REL	4	idtext0151	travailler	PS#13##s##	spk1	254.36	254.73	0.01	_
20091112_RATP_SCD_0815	76	7	pour	NULL	prep	NULL	B_GP	P_OBJ	6	idtext0151	pour	#####	spk1	254.74	254.88	0.01	_
20091112_RATP_SCD_0815	76	8	le	NULL	det	NULL	I_GP	DET	9	idtext0151	le	##m#s##d	spk1	254.89	255.18	0.01	_
20091112_RATP_SCD_0815	76	9	conseil	NULL	nc	NULL	I_GP	OBJ	7	idtext0151	conseil	##m#s##	spk1	255.19	255.58	0.01	_
20091112_RATP_SCD_0815	76	10	général	NULL	adj	NULL	I_GP	MOD	9	idtext0151	général	##m#s##	spk1	255.59	255.93	0.01	_
20091112_RATP_SCD_0815	76	11	de	NULL	prep	NULL	B_GP	DEP	9	idtext0151	de	#####	spk1	255.94	256.05	0.01	_
20091112_RATP_SCD_0815	76	12	la	NULL	det	NULL	I_GP	DET	13	idtext0151	le	##m#s##d	spk1	256.06	256.13	0.01	_
20091112_RATP_SCD_0815	76	13	Seine-Saint-Denis	NULL	nc	B_A	I_GP	OBJ	11	idtext0151	Seine-Saint-Denis	##f#s##	spk1	256.14	256.85	?	//

20091112_RATP_SCD_0815	77	1	oui	NULL	adv	NULL	B_GADV	NOLINK	0	idtext0152	oui	#####	spk3	257.03	257.42	?	//

20091112_RATP_SCD_0815	78	1	hein	DISF_M	pres	NULL	NULL	NOLINK	0	idtext0153	hein	#####	spk1	257.46	257.71	0.18	_
20091112_RATP_SCD_0815	78	2	et+donc	NULL	coo	NULL	B_NULL	ROOT	0	idtext0154	et+donc	#####	spk1	257.89	258.16	0.01	_
20091112_RATP_SCD_0815	78	3	elle	NULL	cln	NULL	B_GN	SUJ	4	idtext0155	cln	#3#f#s##	spk1	258.17	258.22	0.01	_
20091112_RATP_SCD_0815	78	4	voudrait	NULL	v	NULL	B_GVf	DEP_COORD	2	idtext0155	vouloir	C#3##s##	spk1	258.23	258.42	0.01	_
20091112_RATP_SCD_0815	78	5	faire	NULL	vinf	NULL	I_GVf	OBJ	4	idtext0156	faire	W#####	spk1	258.43	258.68	0.01	_
20091112_RATP_SCD_0815	78	6	une	NULL	det	NULL	B_GN	DET	10	idtext0156	un	##f#s##i	spk1	258.69	258.82	0.01	_
20091112_RATP_SCD_0815	78	7	très	NULL	adv	NULL	I_GN	MOD	9	idtext0156	très	#####	spk1	258.83	259.05	0.01	_
20091112_RATP_SCD_0815	78	8	très	NULL	adv	NULL	I_GN	MOD	9	idtext0156	très	#####	spk1	259.06	259.27	0.01	_
20091112_RATP_SCD_0815	78	9	grosse	NULL	adj	NULL	I_GN	MOD	10	idtext0156	gros	##f#s##	spk1	259.28	259.52	0.01	_
20091112_RATP_SCD_0815	78	10	commande	NULL	nc	NULL	I_GN	OBJ	4	idtext0156	commande	##f#s##	spk1	259.53	259.92	0.01	_
20091112_RATP_SCD_0815	78	11	de	NULL	prep	NULL	B_NULL	NOLINK	0	idtext0156	de	#####	spk1	259.93	260.36	0.10	_
20091112_RATP_SCD_0815	78	12	de	NULL	prep	NULL	B_GP	ROOT	0	idtext0157	de	#####	spk1	260.46	260.54	0.01	_
20091112_RATP_SCD_0815	78	13	tickets	NULL	nc	NULL	I_GP	OBJ	12	idtext0157	ticket	##m#p##	spk1	260.55	261.05	0.04	_
20091112_RATP_SCD_0815	78	14	pour	NULL	prep	NULL	B_NULL	NOLINK	0	idtext0158	pour	#####	spk1	261.09	261.37	0.01	_
20091112_RATP_SCD_0815	78	15	euh	DISF_M	pres	NULL	NULL	NOLINK	0	idtext0158	euh	#####	spk1	261.38	262.21	0.04	_
20091112_RATP_SCD_0815	78	16	pour	NULL	prep	NULL	B_GP	ROOT	0	idtext0159	pour	#####	spk1	262.25	262.36	0.01	_
20091112_RATP_SCD_0815	78	17	euh	DISF_M	pres	NULL	NULL	NOLINK	0	idtext0159	euh	#####	spk1	262.37	262.63	0.01	_
20091112_RATP_SCD_0815	78	18	des	NULL	det	NULL	I_GP	DET	20	idtext0159	des	###p##i	spk1	262.64	262.81	0.01	_
20091112_RATP_SCD_0815	78	19	futurs	NULL	adj	NULL	I_GP	MOD	20	idtext0159	futur	##m#p##	spk1	262.82	263.23	0.01	_
20091112_RATP_SCD_0815	78	20	groupes	NULL	nc	NULL	I_GP	OBJ	16	idtext0159	groupe	##m#p##	spk1	263.24	263.55	0.01	_
20091112_RATP_SCD_0815	78	21	de	NULL	prep	NULL	B_GP	ROOT	0	idtext0159	de	#####	spk1	263.56	263.71	0.01	_
20091112_RATP_SCD_0815	78	22	jeunes	NULL	nc	NULL	I_GP	OBJ	21	idtext0159	jeune	###p##	spk1	263.72	264.03	?	//

20091112_RATP_SCD_0815	79	1	d'accord	NULL	adv	NULL	B_GADV	NOLINK	0	idtext0160	d'accord	#####	spk3	264.39	265.07	?	//

20091112_RATP_SCD_0815	80	1	je	NULL	cln	NULL	B_GN	SUJ	4	idtext0161	cln	#1##s##	spk1	265.13	265.2	0.01	_
20091112_RATP_SCD_0815	80	2	te	NULL	clo	NULL	B_GN	A_OBJ	4	idtext0161	cla	#2##s##	spk1	265.21	265.23	0.01	_
20091112_RATP_SCD_0815	80	3	le	NULL	clo	NULL	B_GN	OBJ	4	idtext0161	cla	#3#m#s##	spk1	265.24	265.26	0.01	_
20091112_RATP_SCD_0815	80	4	transfère	NULL	v	NULL	B_GVf	ROOT	0	idtext0161	transférer	PS#13##s##	spk1	265.27	265.75	?	//

20091112_RATP_SCD_0815	81	1	hm	DISF_M	pres	NULL	NULL	NOLINK	0	idtext0162	hm	#####	spk3	265.86	266.04	?	//

20091112_RATP_SCD_0815	82	1	à+plus	NULL	adv	NULL	B_GADV	MOD	2	idtext0163	à+plus	#####	spk1	266.09	266.38	0.01	_
20091112_RATP_SCD_0815	82	2	salut	NULL	adv	NULL	I_GADV	ROOT	0	idtext0163	salut	#####	spk1	266.39	266.84	?	//

20091112_RATP_SCD_0815	83	1	merci	NULL	adv	NULL	B_GADV	NOLINK	0	idtext0164	merci	#####	spk3	266.89	267.47	?	//

