20091112_RATP_SCD_0911	1	1	NNAAMMEE	NULL	np	B_HU	B_GN	ROOT	0	idtext0000	ANONYM	NULL	spk1	7.11	7.57	0.04	_
20091112_RATP_SCD_0911	1	2	bonjour	NULL	adv	NULL	B_GADV	NOLINK	0	idtext0001	bonjour	#####	spk1	7.61	8.17	?	//

20091112_RATP_SCD_0911	2	1	oui	NULL	adv	NULL	B_GADV	MOD	2	idtext0002	oui	#####	spk2	8.26	8.46	0.01	_
20091112_RATP_SCD_0911	2	2	bonjour	NULL	adv	NULL	I_GADV	ROOT	0	idtext0002	bonjour	#####	spk2	8.47	8.85	?	//

20091112_RATP_SCD_0911	3	1	euh	DISF_M	pres	NULL	NULL	NOLINK	0	idtext0003	euh	#####	spk2	8.89	8.93	0.01	_
20091112_RATP_SCD_0911	3	2	en+fait	GREF	adv	NULL	B_GADV	NOLINK	0	idtext0003	en+fait	#####	spk2	8.94	9.33	0.01	_
20091112_RATP_SCD_0911	3	3	euh	DISF_M	pres	NULL	NULL	NOLINK	0	idtext0003	euh	#####	spk2	9.34	9.51	0.01	_
20091112_RATP_SCD_0911	3	4	j'	NULL	cln	NULL	B_GN	SUJ	5	idtext0003	cln	#1##s##	spk2	9.52	9.61	0.01	_
20091112_RATP_SCD_0911	3	5	appelle	NULL	v	NULL	B_GVf	ROOT	0	idtext0003	appeler	PS#13##s##	spk2	9.62	10.21	0.01	_
20091112_RATP_SCD_0911	3	6	euh	DISF_M	pres	NULL	NULL	NOLINK	0	idtext0003	euh	#####	spk2	10.22	10.24	0.01	_
20091112_RATP_SCD_0911	3	7	car	NULL	coo	NULL	B_NULL	MOD	5	idtext0003	car	#####	spk2	10.25	10.39	0.01	_
20091112_RATP_SCD_0911	3	8	je	DISF_R	cln	NULL	NULL	NOLINK	0	idtext0003	cln	#1##s##	spk2	10.4	10.49	0.01	_
20091112_RATP_SCD_0911	3	9	voudrais	DISF_R	v	NULL	NULL	NOLINK	0	idtext0003	vouloir	C#12##s##	spk2	10.5	10.79	0.01	_
20091112_RATP_SCD_0911	3	10	j'	NULL	cln	NULL	B_GN	SUJ	12	idtext0003	cln	#1##s##	spk2	10.8	10.93	0.01	_
20091112_RATP_SCD_0911	3	11	aurai	NULL	v	NULL	B_GVf	AUX	12	idtext0003	avoir	F#1##s##	spk2	10.94	11.08	0.01	_
20091112_RATP_SCD_0911	3	12	voulu	NULL	vppart	NULL	I_GVf	DEP_COORD	7	idtext0003	vouloir	K##m#s##	spk2	11.09	11.29	0.01	_
20091112_RATP_SCD_0911	3	13	postuler	NULL	vinf	NULL	B_GVi	OBJ	12	idtext0003	postuler	W#####	spk2	11.3	12.13	0.01	_
20091112_RATP_SCD_0911	3	14	euh	DISF_M	pres	NULL	NULL	NOLINK	0	idtext0003	euh	#####	spk2	12.14	12.17	0.01	_
20091112_RATP_SCD_0911	3	15	pour	NULL	prep	NULL	B_GP	P_OBJ	13	idtext0003	pour	#####	spk2	12.18	12.32	0.01	_
20091112_RATP_SCD_0911	3	16	la	NULL	det	NULL	I_GP	DET	17	idtext0003	le	##m#s##d	spk2	12.33	12.42	0.01	_
20091112_RATP_SCD_0911	3	17	RATP	NULL	np	B_ORG	I_GP	OBJ	15	idtext0003	RATP	##f#s##	spk2	12.43	13.36	0.01	_
20091112_RATP_SCD_0911	3	18	mais	NULL	coo	NULL	B_NULL	COORD	17	idtext0004	mais	#####	spk2	13.37	13.5	0.01	_
20091112_RATP_SCD_0911	3	19	le	NULL	det	NULL	B_GN	DET	20	idtext0004	le	##m#s##d	spk2	13.51	13.6	0.01	_
20091112_RATP_SCD_0911	3	20	souci	NULL	nc	NULL	I_GN	SUJ	24	idtext0004	souci	##m#s##	spk2	13.61	13.88	0.01	_
20091112_RATP_SCD_0911	3	21	sur	NULL	prep	NULL	B_GP	P_OBJ	20	idtext0004	sur	#####	spk2	13.89	14.08	0.01	_
20091112_RATP_SCD_0911	3	22	internet	NULL	nc	NULL	I_GP	OBJ	21	idtext0004	internet	##m#s##	spk2	14.09	14.46	0.01	_
20091112_RATP_SCD_0911	3	23	c'	NULL	cln	NULL	B_GN	SUJ_IMP	24	idtext0004	ce	###s##	spk2	14.47	14.51	0.01	_
20091112_RATP_SCD_0911	3	24	est	NULL	v	NULL	B_GVf	DEP_COORD	18	idtext0004	être	P#3##s##	spk2	14.52	14.55	0.01	_
20091112_RATP_SCD_0911	3	25	que	NULL	csu	NULL	B_NULL	ATS	24	idtext0004	que	#####	spk2	14.56	14.71	0.01	_
20091112_RATP_SCD_0911	3	26	euh	DISF_M	pres	NULL	NULL	NOLINK	0	idtext0004	euh	#####	spk2	14.72	14.74	0.01	_
20091112_RATP_SCD_0911	3	27	il	NULL	cln	NULL	B_GN	SUJ_IMP	29	idtext0004	cln	#3#m#s##	spk2	14.75	14.82	0.01	_
20091112_RATP_SCD_0911	3	28	y	NULL	clo	NULL	B_GN	AFF	29	idtext0004	y	#####	spk2	14.83	14.85	0.01	_
20091112_RATP_SCD_0911	3	29	a	NULL	v	NULL	B_GVf	OBJ	25	idtext0004	avoir	P#3##s##	spk2	14.86	15.74	0.01	_
20091112_RATP_SCD_0911	3	30	je	NULL	cln	NULL	I_GP	SUJ	31	idtext0004	cln	#1##s##	spk2	15.75	16.21	0.01	_
20091112_RATP_SCD_0911	3	31	sais	NULL	v	NULL	B_GVfn	ROOT	0	idtext0004	savoir	P#12##s##	spk2	16.22	16.41	0.01	_
20091112_RATP_SCD_0911	3	32	pas	NULL	advneg	NULL	I_GVfn	MOD	31	idtext0004	pas	#####	spk2	16.42	16.54	0.01	_
20091112_RATP_SCD_0911	3	33	ça	NULL	pro	NULL	B_GN	OBJ	31	idtext0004	ça	#####	spk2	16.55	16.67	0.01	_
20091112_RATP_SCD_0911	3	34	veut	NULL	v	NULL	B_GVfn	SUJ	25	idtext0004	vouloir	P#3##s##	spk2	16.68	16.8	0.01	_
20091112_RATP_SCD_0911	3	35	pas	NULL	advneg	NULL	I_GVfn	MOD	34	idtext0004	pas	#####	spk2	16.81	16.97	?	_

20091112_RATP_SCD_0911	4	1	valider	NULL	vinf	NULL	B_GVi	ROOT	0	idtext0005	valider	W#####	spk2	17.01	17.31	0.01	_
20091112_RATP_SCD_0911	4	2	euh	DISF_M	pres	NULL	NULL	NOLINK	0	idtext0005	euh	#####	spk2	17.32	17.38	0.01	_
20091112_RATP_SCD_0911	4	3	ma	NULL	det	NULL	B_GN	DET	4	idtext0005	mon	##f#s##o	spk2	17.39	17.62	0.01	_
20091112_RATP_SCD_0911	4	4	demande	NULL	nc	NULL	I_GN	OBJ	1	idtext0005	demande	##f#s##	spk2	17.63	17.92	?	//

20091112_RATP_SCD_0911	5	1	d'accord	NULL	adv	NULL	B_GADV	NOLINK	0	idtext0006	d'accord	#####	spk1	17.08	17.62	0.01	_
20091112_RATP_SCD_0911	5	2	bon	DISF_M	pres	NULL	NULL	NOLINK	0	idtext0006	bon	#####	spk1	17.63	17.92	?	//

20091112_RATP_SCD_0911	6	1	vous	NULL	cln	NULL	B_GN	SUJ	2	idtext0007	cln	#2##p##	spk1	18.0	18.05	0.01	_
20091112_RATP_SCD_0911	6	2	patientez	NULL	v	NULL	B_GVf	ROOT	0	idtext0007	patienter	P#2##p##	spk1	18.06	18.51	0.01	_
20091112_RATP_SCD_0911	6	3	je	NULL	cln	NULL	B_GN	SUJ	4	idtext0007	cln	#1##s##	spk1	18.52	18.59	0.01	_
20091112_RATP_SCD_0911	6	4	vais	NULL	v	NULL	B_GVf	ROOT	0	idtext0007	aller	P#1##s##	spk1	18.6	18.67	0.01	_
20091112_RATP_SCD_0911	6	5	vous	NULL	clo	NULL	B_GN	A_OBJ	6	idtext0007	cln	#2##p##	spk1	18.68	18.82	0.01	_
20091112_RATP_SCD_0911	6	6	donner	NULL	vinf	NULL	B_GVi	OBJ	4	idtext0007	donner	W#####	spk1	18.83	19.04	0.01	_
20091112_RATP_SCD_0911	6	7	les	NULL	det	NULL	B_GN	DET	8	idtext0007	le	###p##d	spk1	19.05	19.13	0.01	_
20091112_RATP_SCD_0911	6	8	démarches	NULL	nc	NULL	I_GN	OBJ	6	idtext0007	démarche	##f#p##	spk1	19.14	19.45	0.01	_
20091112_RATP_SCD_0911	6	9	à	NULL	prep	NULL	B_GP	MOD	8	idtext0007	à	#####	spk1	19.46	19.5	0.01	_
20091112_RATP_SCD_0911	6	10	suivre	NULL	vinf	NULL	I_GP	OBJ	9	idtext0007	suivre	W#####	spk1	19.51	19.74	0.01	_
20091112_RATP_SCD_0911	6	11	pour	NULL	prep	NULL	B_GP	MOD	10	idtext0007	pour	#####	spk1	19.75	20.1	0.01	_
20091112_RATP_SCD_0911	6	12	euh	DISF_M	pres	NULL	NULL	NOLINK	0	idtext0007	euh	#####	spk1	20.11	20.74	0.01	_
20091112_RATP_SCD_0911	6	13	faire	NULL	vinf	NULL	I_GP	OBJ	11	idtext0008	faire	W#####	spk1	20.75	21.03	0.01	_
20091112_RATP_SCD_0911	6	14	votre	NULL	det	NULL	B_GN	DET	15	idtext0008	votre	###s##o	spk1	21.04	21.18	0.01	_
20091112_RATP_SCD_0911	6	15	candidature	NULL	nc	NULL	I_GN	OBJ	13	idtext0008	candidature	##f#s##	spk1	21.19	21.73	0.01	_
20091112_RATP_SCD_0911	6	16	à	NULL	prep	NULL	B_GP	DEP	15	idtext0008	à	#####	spk1	21.74	21.77	0.01	_
20091112_RATP_SCD_0911	6	17	la	NULL	det	NULL	I_GP	DET	18	idtext0008	le	##m#s##d	spk1	21.78	21.84	0.01	_
20091112_RATP_SCD_0911	6	18	RATP	NULL	np	B_ORG	I_GP	OBJ	16	idtext0008	RATP	##f#s##	spk1	21.85	22.33	?	//

20091112_RATP_SCD_0911	7	1	merci	NULL	adv	NULL	B_GADV	NOLINK	0	idtext0009	merci	#####	spk1	22.37	23.06	?	//

20091112_RATP_SCD_0911	8	1	d'accord	NULL	adv	NULL	B_GADV	MOD	2	idtext0010	d'accord	#####	spk2	22.37	22.69	0.01	_
20091112_RATP_SCD_0911	8	2	merci	NULL	adv	NULL	I_GADV	ROOT	0	idtext0010	merci	#####	spk2	22.7	23.06	?	//

20091112_RATP_SCD_0911	9	1	s'il+vous+plaît	NULL	adv	NULL	B_GADV	NOLINK	0	idtext0011	s'il+vous+plaît	#####	spk1	45.95	46.43	?	//

20091112_RATP_SCD_0911	10	1	oui	NULL	adv	NULL	B_GADV	NOLINK	0	idtext0012	oui	#####	spk2	46.48	46.89	?	//

20091112_RATP_SCD_0911	11	1	donc	NULL	coo	NULL	B_NULL	ROOT	0	idtext0013	donc	#####	spk1	46.93	47.02	0.01	_
20091112_RATP_SCD_0911	11	2	vous	NULL	cln	NULL	B_GN	SUJ	3	idtext0013	cln	#2##p##	spk1	47.03	47.25	0.01	_
20091112_RATP_SCD_0911	11	3	allez	NULL	v	NULL	B_GVf	DEP_COORD	1	idtext0013	aller	P#2##p##	spk1	47.26	47.44	0.01	_
20091112_RATP_SCD_0911	11	4	faire	NULL	vinf	NULL	I_GVf	OBJ	3	idtext0013	faire	W#####	spk1	47.45	47.7	0.01	_
20091112_RATP_SCD_0911	11	5	dans	NULL	prep	NULL	B_GP	P_OBJ	3	idtext0013	dans	#####	spk1	47.71	47.8	0.01	_
20091112_RATP_SCD_0911	11	6	un	NULL	det	NULL	I_GP	DET	8	idtext0013	un	##m#s##i	spk1	47.81	47.92	0.01	_
20091112_RATP_SCD_0911	11	7	premier	NULL	adj	NULL	I_GP	MOD	8	idtext0013	premier	##m#s##	spk1	47.93	48.17	0.01	_
20091112_RATP_SCD_0911	11	8	temps	NULL	nc	NULL	I_GP	OBJ	5	idtext0013	temps	##m###	spk1	48.18	48.34	0.01	/
20091112_RATP_SCD_0911	11	9	un	NULL	det	NULL	B_GN	DET	10	idtext0013	un	##m#s##i	spk1	48.35	48.46	0.01	_
20091112_RATP_SCD_0911	11	10	courrier	NULL	nc	NULL	I_GN	OBJ	4	idtext0013	courrier	##m#s##	spk1	48.47	48.91	0.01	//
20091112_RATP_SCD_0911	11	11	plus	NULL	adv	NULL	B_GADV	MOD	10	idtext0013	plus	#####	spk1	48.92	49.15	0.01	_
20091112_RATP_SCD_0911	11	12	un	NULL	det	NULL	B_GN	DET	13	idtext0013	un	##m#s##i	spk1	49.16	49.28	0.01	_
20091112_RATP_SCD_0911	11	13	CV	NULL	nc	NULL	I_GN	OBJ	11	idtext0013	curriculum+vitae	##m###	spk1	49.29	49.87	?	//

20091112_RATP_SCD_0911	12	1	d'accord	NULL	adv	NULL	B_GADV	NOLINK	0	idtext0014	d'accord	#####	spk2	49.99	50.57	?	//

20091112_RATP_SCD_0911	13	1	l'	NULL	det	NULL	B_GN	DET	2	idtext0015	le	###s##d	spk1	50.93	51.01	0.01	_
20091112_RATP_SCD_0911	13	2	adresse	NULL	nc	NULL	I_GN	SUJ	4	idtext0015	adresse	##f#s##	spk1	51.02	51.47	0.01	_
20091112_RATP_SCD_0911	13	3	c'	NULL	cln	NULL	B_GN	SUJ_IMP	4	idtext0015	ce	###s##	spk1	51.48	51.51	0.01	_
20091112_RATP_SCD_0911	13	4	est	NULL	v	NULL	B_GVf	ROOT	0	idtext0015	être	P#3##s##	spk1	51.52	52.17	0.01	_
20091112_RATP_SCD_0911	13	5	RATP	NULL	np	B_ORG	B_GN	ATS	4	idtext0015	RATP	##f#s##	spk1	52.18	53.08	?	//

20091112_RATP_SCD_0911	14	1	oui	NULL	adv	NULL	B_GADV	NOLINK	0	idtext0016	oui	#####	spk2	53.3	53.63	?	//

20091112_RATP_SCD_0911	15	1	plus	NULL	adv	NULL	B_GADV	MOD	2	idtext0017	plus	#####	spk1	54.25	54.34	0.01	_
20091112_RATP_SCD_0911	15	2	loin	NULL	adv	NULL	I_GADV	ROOT	0	idtext0017	loin	#####	spk1	54.35	54.63	0.01	_
20091112_RATP_SCD_0911	15	3	D	NULL	nc	NULL	B_GN	ROOT	0	idtext0017	D	#####	spk1	54.64	55.43	0.01	_
20091112_RATP_SCD_0911	15	4	C	NULL	nc	NULL	B_GN	MOD	3	idtext0017	C	#####	spk1	55.44	56.0	0.01	_
20091112_RATP_SCD_0911	15	5	O	NULL	nc	NULL	I_GN	MOD	4	idtext0017	O	#####	spk1	56.01	56.3	?	//

20091112_RATP_SCD_0911	16	1	oui	NULL	adv	NULL	B_GADV	NOLINK	0	idtext0018	oui	#####	spk2	57.17	57.6	?	//

20091112_RATP_SCD_0911	17	1	plus	NULL	adv	NULL	B_GADV	MOD	2	idtext0019	plus	#####	spk1	58.39	58.5	0.01	_
20091112_RATP_SCD_0911	17	2	loin	NULL	adv	NULL	I_GADV	ROOT	0	idtext0019	loin	#####	spk1	58.51	58.83	0.01	_
20091112_RATP_SCD_0911	17	3	pôle	NULL	nc	NULL	B_GN	ROOT	0	idtext0019	pôle	##m#s##	spk1	58.84	59.36	0.01	_
20091112_RATP_SCD_0911	17	4	sélection	NULL	nc	NULL	I_GN	MOD	3	idtext0019	sélection	##f#s##	spk1	59.37	60.39	?	//

20091112_RATP_SCD_0911	18	1	hum	DISF_M	pres	NULL	NULL	NOLINK	0	idtext0020	hum	#####	spk2	61.97	62.26	0.01	_
20091112_RATP_SCD_0911	18	2	oui	NULL	adv	NULL	B_GADV	NOLINK	0	idtext0020	oui	#####	spk2	62.27	62.75	?	//

20091112_RATP_SCD_0911	19	1	et	NULL	coo	NULL	B_NULL	ROOT	0	idtext0021	et	#####	spk1	63.04	63.35	0.01	_
20091112_RATP_SCD_0911	19	2	évaluation	NULL	nc	NULL	B_GN	DEP_COORD	1	idtext0021	évaluation	##f#s##	spk1	63.36	64.03	0.01	_
20091112_RATP_SCD_0911	19	3	des	NULL	prep	NULL	B_GP	DEP	2	idtext0021	des	#####	spk1	64.04	64.14	0.01	_
20091112_RATP_SCD_0911	19	4	compétences	NULL	nc	NULL	I_GP	OBJ	3	idtext0021	compétence	##f#p##	spk1	64.15	64.8	?	//

20091112_RATP_SCD_0911	20	1	d'accord	NULL	adv	NULL	B_GADV	NOLINK	0	idtext0022	d'accord	#####	spk2	67.68	68.29	?	//

20091112_RATP_SCD_0911	21	1	et	NULL	coo	NULL	B_NULL	ROOT	0	idtext0023	et	#####	spk1	68.33	68.38	0.01	_
20091112_RATP_SCD_0911	21	2	l'	NULL	det	NULL	B_GN	DET	3	idtext0023	le	###s##d	spk1	68.39	68.42	0.01	_
20091112_RATP_SCD_0911	21	3	adresse	NULL	nc	NULL	I_GN	SUJ	5	idtext0023	adresse	##f#s##	spk1	68.43	68.69	0.01	_
20091112_RATP_SCD_0911	21	4	c'	NULL	cln	NULL	B_GN	SUJ_IMP	5	idtext0023	ce	###s##	spk1	68.7	68.78	0.01	_
20091112_RATP_SCD_0911	21	5	est	NULL	v	NULL	B_GVf	DEP_COORD	1	idtext0023	être	P#3##s##	spk1	68.79	68.86	0.01	_
20091112_RATP_SCD_0911	21	6	vingt-trois	NULL	nc	B_A	B_GN	ATS	5	idtext0023	vingt-trois	#####	spk1	68.87	69.36	0.01	_
20091112_RATP_SCD_0911	21	7	rue	NULL	nc	I_A	I_GN	MOD	6	idtext0023	rue	##f#s##	spk1	69.37	69.56	0.01	_
20091112_RATP_SCD_0911	21	8	Belliard	NULL	np	I_A	I_GN	MOD	7	idtext0023	Belliard	#####	spk1	69.57	70.36	?	//

20091112_RATP_SCD_0911	22	1	alors	NULL	adv	NULL	B_GADV	NOLINK	0	idtext0024	alors	#####	spk2	70.86	71.04	0.01	_
20091112_RATP_SCD_0911	22	2	attendez	NULL	v	NULL	B_GVf	NOLINK	0	idtext0024	attendre	P#2##p##	spk2	71.05	71.36	0.01	_
20091112_RATP_SCD_0911	22	3	deux	NULL	adj	NULL	B_GN	MOD	5	idtext0024	deux	#####	spk2	71.37	71.46	0.01	_
20091112_RATP_SCD_0911	22	4	petites	NULL	adj	NULL	I_GN	MOD	5	idtext0024	petit	##f#p##	spk2	71.47	71.73	0.01	_
20091112_RATP_SCD_0911	22	5	secondes	NULL	nc	NULL	I_GN	ROOT	0	idtext0024	seconde	##f#p##	spk2	71.74	72.36	0.01	_
20091112_RATP_SCD_0911	22	6	s'il+vous+plaît	NULL	adv	NULL	B_GADV	NOLINK	0	idtext0024	s'il+vous+plaît	#####	spk2	72.37	73.56	0.01	_
20091112_RATP_SCD_0911	22	7	des	NULL	det	NULL	B_GN	DET	8	idtext0025	des	###p##i	spk2	73.57	73.66	0.01	_
20091112_RATP_SCD_0911	22	8	compétences	NULL	nc	NULL	I_GN	ROOT	0	idtext0025	compétence	##f#p##	spk2	73.67	75.89	?	//

20091112_RATP_SCD_0911	23	1	allez	NULL	v	NULL	B_GVf	ROOT	0	idtext0026	aller	P#2##p##	spk2	76.79	76.98	0.01	_
20091112_RATP_SCD_0911	23	2	-y	NULL	clo	NULL	B_GN	P_OBJ_LOC	1	idtext0026	-y	#####	spk2	76.99	77.56	?	_

20091112_RATP_SCD_0911	24	1	l'	NULL	det	NULL	B_GN	DET	2	idtext0027	le	###s##d	spk1	77.69	77.71	0.01	_
20091112_RATP_SCD_0911	24	2	adresse	NULL	nc	NULL	I_GN	SUJ	4	idtext0027	adresse	##f#s##	spk1	77.72	78.25	0.01	_
20091112_RATP_SCD_0911	24	3	c'	NULL	cln	NULL	B_GN	SUJ_IMP	4	idtext0027	ce	###s##	spk1	78.26	78.28	0.01	_
20091112_RATP_SCD_0911	24	4	est	NULL	v	NULL	B_GVf	ROOT	0	idtext0027	être	P#3##s##	spk1	78.29	78.34	0.01	_
20091112_RATP_SCD_0911	24	5	vingt-trois	NULL	nc	B_A	B_GN	ATS	4	idtext0027	vingt-trois	#####	spk1	78.35	78.86	0.01	_
20091112_RATP_SCD_0911	24	6	rue	NULL	nc	I_A	I_GN	MOD	5	idtext0027	rue	##f#s##	spk1	78.87	79.08	0.01	_
20091112_RATP_SCD_0911	24	7	Belliard	NULL	np	I_A	I_GN	MOD	6	idtext0027	Belliard	#####	spk1	79.09	79.88	?	//

20091112_RATP_SCD_0911	25	1	oui	NULL	adv	NULL	B_GADV	NOLINK	0	idtext0028	oui	#####	spk2	80.05	80.52	?	//

20091112_RATP_SCD_0911	26	1	soixante-quinze	NULL	nc	NULL	B_GN	ROOT	0	idtext0029	soixante-quinze	#####	spk1	80.67	81.73	0.01	_
20091112_RATP_SCD_0911	26	2	et	NULL	coo	NULL	I_GN	COORD	1	idtext0029	et	#####	spk1	81.74	82.09	0.01	_
20091112_RATP_SCD_0911	26	3	huit+cent+quatre-vingt-neuf	NULL	nc	NULL	I_GN	DEP_COORD	2	idtext0029	huit+cent+quatre-vingt-neuf	#####	spk1	82.1	83.58	0.01	_
20091112_RATP_SCD_0911	26	4	soixante-quinze+huit+cent+quatre-vingt-neuf	NULL	nc	B_CP	B_GN	ROOT	0	idtext0029	soixante-quinze+huit+cent+quatre-vingt-neuf	#####	spk1	83.59	85.26	?	//

20091112_RATP_SCD_0911	27	1	huit+cent+quatre-vingt-neuf	NULL	nc	NULL	B_GN	NOLINK	0	idtext0030	huit+cent+quatre-vingt-neuf	#####	spk2	85.98	87.43	?	_

20091112_RATP_SCD_0911	28	1	Paris	NULL	np	B_A	B_GN	NOLINK	0	idtext0031	Paris	##m#s##	spk1	87.47	87.73	0.01	_
20091112_RATP_SCD_0911	28	2	cedex	NULL	nc	I_A	I_GN	MOD	1	idtext0031	cedex	##m###	spk1	87.74	88.15	0.01	_
20091112_RATP_SCD_0911	28	3	dix-huit	NULL	adj	I_A	I_GN	MOD	2	idtext0031	dix-huit	#####	spk1	88.16	89.11	?	//

20091112_RATP_SCD_0911	29	1	hum	DISF_M	pres	NULL	NULL	NOLINK	0	idtext0032	hum	#####	spk2	89.44	89.59	0.01	_
20091112_RATP_SCD_0911	29	2	d'accord	NULL	adv	NULL	B_GADV	NOLINK	0	idtext0032	d'accord	#####	spk2	89.6	90.05	?	//

20091112_RATP_SCD_0911	30	1	bonne	NULL	adj	NULL	B_GADJ	NOLINK	0	idtext0033	bon	##f#s##	spk2	90.27	90.63	?	_

20091112_RATP_SCD_0911	31	1	très+bien	NULL	adv	NULL	B_GADV	NOLINK	0	idtext0034	très+bien	#####	spk1	90.19	90.63	?	//

20091112_RATP_SCD_0911	32	1	je	NULL	cln	NULL	B_GN	SUJ	3	idtext0035	cln	#1##s##	spk2	90.77	90.84	0.01	_
20091112_RATP_SCD_0911	32	2	vous	NULL	clo	NULL	B_GN	OBJ	3	idtext0035	cln	#2##p##	spk2	90.85	90.9	0.01	_
20091112_RATP_SCD_0911	32	3	remercie	NULL	v	NULL	B_GVf	ROOT	0	idtext0035	remercier	PS#13##s##	spk2	90.91	91.3	?	//

20091112_RATP_SCD_0911	33	1	je	NULL	cln	NULL	B_GN	SUJ	4	idtext0036	cln	#1##s##	spk1	91.36	91.39	0.01	_
20091112_RATP_SCD_0911	33	2	vous	NULL	clo	NULL	B_GN	OBJ	4	idtext0036	cln	#2##p##	spk1	91.4	91.49	0.01	_
20091112_RATP_SCD_0911	33	3	en	NULL	clo	NULL	B_GN	DE_OBJ	4	idtext0036	en	#####	spk1	91.5	91.57	0.01	_
20091112_RATP_SCD_0911	33	4	prie	NULL	v	NULL	B_GVf	ROOT	0	idtext0036	prier	PS#13##s##	spk1	91.58	91.76	?	//

20091112_RATP_SCD_0911	34	1	bonne	NULL	adj	NULL	B_GN	MOD	2	idtext0037	bon	##f#s##	spk1	91.81	91.94	0.01	_
20091112_RATP_SCD_0911	34	2	soirée	NULL	nc	NULL	I_GN	ROOT	0	idtext0037	soirée	##f#s##	spk1	91.95	92.1	0.01	_
20091112_RATP_SCD_0911	34	3	au+revoir	NULL	adv	NULL	B_GADV	NOLINK	0	idtext0037	au+revoir	#####	spk1	92.11	92.44	?	//

20091112_RATP_SCD_0911	35	1	bonne	NULL	adj	NULL	B_GN	MOD	2	idtext0038	bon	##f#s##	spk2	91.81	91.95	0.01	_
20091112_RATP_SCD_0911	35	2	soirée	NULL	nc	NULL	I_GN	ROOT	0	idtext0038	soirée	##f#s##	spk2	91.96	92.44	?	//

20091112_RATP_SCD_0911	36	1	au+revoir	NULL	adv	NULL	B_GADV	NOLINK	0	idtext0039	au+revoir	#####	spk2	92.51	92.9	?	//

