20091112_RATP_SCD_1340	1	1	NNAAMMEE	NULL	np	B_HU	B_GN	ROOT	0	idtext0000	ANONYM	NULL	spk1	2.83	3.06	0.19	_
20091112_RATP_SCD_1340	1	2	bonsoir	NULL	nc	NULL	B_GN	NOLINK	0	idtext0001	bonsoir	##m#s##	spk1	3.25	4.3	?	//

20091112_RATP_SCD_1340	2	1	oui	NULL	adv	NULL	B_GADV	NOLINK	0	idtext0002	oui	#####	spk2	4.52	4.69	0.01	_
20091112_RATP_SCD_1340	2	2	bonsoir	NULL	nc	NULL	B_GN	ROOT	0	idtext0002	bonsoir	##m#s##	spk2	4.7	4.99	0.01	_
20091112_RATP_SCD_1340	2	3	mademoiselle	NULL	nc	NULL	I_GN	MOD	2	idtext0002	Monsieur	##f#s##	spk2	5.0	5.69	?	//

20091112_RATP_SCD_1340	3	1	bonsoir	NULL	nc	NULL	B_GN	ROOT	0	idtext0003	bonsoir	##m#s##	spk1	5.73	5.93	0.01	//
20091112_RATP_SCD_1340	3	2	monsieur	NULL	nc	NULL	I_GN	MOD	1	idtext0003	Monsieur	##m#s##	spk1	5.94	6.8	?	//

20091112_RATP_SCD_1340	4	1	hum	DISF_M	pres	NULL	NULL	NOLINK	0	idtext0004	hum	#####	spk2	5.8	6.08	0.01	/
20091112_RATP_SCD_1340	4	2	je	NULL	cln	NULL	B_GN	NOLINK	0	idtext0004	cln	#1##s##	spk2	6.09	6.21	0.01	_
20091112_RATP_SCD_1340	4	3	euh	DISF_M	pres	NULL	NULL	NOLINK	0	idtext0004	euh	#####	spk2	6.22	6.8	?	//

20091112_RATP_SCD_1340	5	1	je	NULL	cln	NULL	B_GN	SUJ	2	idtext0005	cln	#1##s##	spk2	6.84	6.99	0.01	_
20091112_RATP_SCD_1340	5	2	souhaitais	NULL	v	NULL	B_GVf	ROOT	0	idtext0005	souhaiter	I#12##s##	spk2	7.0	7.43	0.01	_
20091112_RATP_SCD_1340	5	3	prendre	NULL	vinf	NULL	I_GVf	OBJ	2	idtext0005	prendre	W#####	spk2	7.44	7.68	0.01	_
20091112_RATP_SCD_1340	5	4	le	NULL	det	NULL	B_GN	DET	5	idtext0005	le	##m#s##d	spk2	7.69	7.87	0.01	_
20091112_RATP_SCD_1340	5	5	RER	NULL	nc	B_T	I_GN	OBJ	3	idtext0005	RER	#####	spk2	7.88	8.23	0.01	_
20091112_RATP_SCD_1340	5	6	demain	NULL	adv	NULL	B_GADV	MOD	5	idtext0005	demain	#####	spk2	8.24	8.67	0.01	_
20091112_RATP_SCD_1340	5	7	le	NULL	det	NULL	B_GN	DET	8	idtext0005	le	##m#s##d	spk2	8.68	8.82	0.01	_
20091112_RATP_SCD_1340	5	8	RER+B	NULL	nc	B_T	I_GN	OBJ	3	idtext0005	RER+B	#####	spk2	8.83	9.52	?	//

20091112_RATP_SCD_1340	6	1	oui	NULL	adv	NULL	B_GADV	NOLINK	0	idtext0006	oui	#####	spk1	9.63	10.47	?	//

20091112_RATP_SCD_1340	7	1	pour	NULL	prep	NULL	B_GP	ROOT	0	idtext0007	pour	#####	spk2	10.51	10.68	0.01	_
20091112_RATP_SCD_1340	7	2	aller	NULL	vinf	NULL	I_GP	OBJ	1	idtext0007	aller	W#####	spk2	10.69	11.03	0.01	_
20091112_RATP_SCD_1340	7	3	euh	DISF_M	pres	NULL	NULL	NOLINK	0	idtext0007	euh	#####	spk2	11.04	11.11	0.01	_
20091112_RATP_SCD_1340	7	4	à	NULL	prep	NULL	B_GP	P_OBJ_LOC	2	idtext0007	à	#####	spk2	11.12	11.23	0.01	_
20091112_RATP_SCD_1340	7	5	euh	DISF_M	pres	NULL	NULL	NOLINK	0	idtext0007	euh	#####	spk2	11.24	11.52	0.01	_
20091112_RATP_SCD_1340	7	6	l'	NULL	det	NULL	I_GP	DET	7	idtext0007	le	###s##d	spk2	11.53	11.67	0.01	_
20091112_RATP_SCD_1340	7	7	aéroport	NULL	nc	NULL	I_GP	OBJ	4	idtext0007	aéroport	##m#s##	spk2	11.68	12.78	0.01	_
20091112_RATP_SCD_1340	7	8	d'	NULL	prep	NULL	B_GP	DEP	7	idtext0007	d'	#####	spk2	12.79	12.87	0.01	_
20091112_RATP_SCD_1340	7	9	Orly	NULL	nc	B_A	I_GP	OBJ	8	idtext0007	Orly	##f#s##	spk2	12.88	13.54	?	//

20091112_RATP_SCD_1340	8	1	oui	NULL	adv	NULL	B_GADV	NOLINK	0	idtext0008	oui	#####	spk1	13.77	14.48	?	//

20091112_RATP_SCD_1340	9	1	et	NULL	coo	NULL	B_NULL	ROOT	0	idtext0009	et	#####	spk2	13.69	13.77	0.01	_
20091112_RATP_SCD_1340	9	2	à	NULL	prep	NULL	B_GP	DEP_COORD	1	idtext0009	à	#####	spk2	13.78	13.82	0.01	_
20091112_RATP_SCD_1340	9	3	Antony	NULL	nc	B_A	I_GP	OBJ	2	idtext0009	Antony	##m#s##	spk2	13.83	14.48	?	//

20091112_RATP_SCD_1340	10	1	oui	NULL	adv	NULL	B_GADV	NOLINK	0	idtext0010	oui	#####	spk1	14.57	14.77	?	//

20091112_RATP_SCD_1340	11	1	et	NULL	coo	NULL	B_NULL	ROOT	0	idtext0011	et	#####	spk2	14.92	14.94	0.01	_
20091112_RATP_SCD_1340	11	2	je	NULL	cln	NULL	B_GN	SUJ	3	idtext0011	cln	#1##s##	spk2	14.95	15.25	0.01	_
20091112_RATP_SCD_1340	11	3	voulais	NULL	v	NULL	B_GVf	DEP_COORD	1	idtext0011	vouloir	I#12##s##	spk2	15.26	15.37	0.01	//
20091112_RATP_SCD_1340	11	4	et	NULL	coo	NULL	B_NULL	COORD	3	idtext0011	et	#####	spk2	15.38	15.4	0.01	_
20091112_RATP_SCD_1340	11	5	je	NULL	cln	NULL	B_GN	SUJ	6	idtext0011	cln	#1##s##	spk2	15.41	15.44	0.01	_
20091112_RATP_SCD_1340	11	6	voulais	NULL	v	NULL	B_GVf	DEP_COORD	4	idtext0011	vouloir	I#12##s##	spk2	15.45	15.71	0.01	_
20091112_RATP_SCD_1340	11	7	savoir	NULL	vinf	NULL	I_GVf	OBJ	6	idtext0011	savoir	W#####	spk2	15.72	15.99	0.01	_
20091112_RATP_SCD_1340	11	8	l'	NULL	det	NULL	B_GN	DET	9	idtext0011	le	###s##d	spk2	16.0	16.03	0.01	_
20091112_RATP_SCD_1340	11	9	état	NULL	nc	NULL	I_GN	OBJ	7	idtext0011	état	##m#s##	spk2	16.04	16.36	0.01	_
20091112_RATP_SCD_1340	11	10	du	NULL	prep	NULL	B_GP	DEP	9	idtext0011	du	#####	spk2	16.37	16.71	0.01	_
20091112_RATP_SCD_1340	11	11	des	NULL	det	NULL	I_GP	DET	12	idtext0011	des	###p##i	spk2	16.72	16.84	0.01	_
20091112_RATP_SCD_1340	11	12	transports	NULL	nc	NULL	I_GP	OBJ	10	idtext0011	transport	##m#p##	spk2	16.85	17.22	0.01	_
20091112_RATP_SCD_1340	11	13	demain	NULL	adv	NULL	B_GADV	NOLINK	0	idtext0011	demain	#####	spk2	17.23	17.33	?	//

20091112_RATP_SCD_1340	12	1	alors	NULL	adv	NULL	B_GADV	MOD	2	idtext0012	alors	#####	spk1	17.37	17.6	0.01	_
20091112_RATP_SCD_1340	12	2	malheureusement	NULL	adv	NULL	I_GADV	ROOT	0	idtext0012	malheureusement	#####	spk1	17.61	18.6	0.01	_
20091112_RATP_SCD_1340	12	3	on	NULL	cln	NULL	B_GN	SUJ	4	idtext0012	cln	#3##s##	spk1	18.61	18.68	0.01	_
20091112_RATP_SCD_1340	12	4	a	NULL	v	NULL	B_GVfn	ROOT	0	idtext0012	avoir	P#3##s##	spk1	18.69	18.77	0.01	_
20091112_RATP_SCD_1340	12	5	pas+du+tout	NULL	advneg	NULL	I_GVfn	MOD	4	idtext0012	pas+du+tout	#####	spk1	18.78	19.62	0.01	_
20091112_RATP_SCD_1340	12	6	d'	NULL	prep	NULL	B_GP	OBJ	4	idtext0012	d'	#####	spk1	19.63	19.66	0.01	_
20091112_RATP_SCD_1340	12	7	information	NULL	nc	NULL	I_GP	OBJ	6	idtext0012	information	##f#s##	spk1	19.67	20.27	0.01	_
20091112_RATP_SCD_1340	12	8	concernant	NULL	prep	NULL	B_NULL	MOD	4	idtext0012	concernant	#####	spk1	20.28	20.99	0.01	_
20091112_RATP_SCD_1340	12	9	euh	DISF_M	pres	NULL	NULL	NOLINK	0	idtext0012	euh	#####	spk1	21.0	21.26	0.01	_
20091112_RATP_SCD_1340	12	10	demain	NULL	adv	NULL	B_GADV	OBJ	8	idtext0012	demain	#####	spk1	21.27	21.98	0.04	_
20091112_RATP_SCD_1340	12	11	malheureusement	NULL	adv	NULL	B_GADV	NOLINK	0	idtext0013	malheureusement	#####	spk1	22.02	22.88	0.46	_
20091112_RATP_SCD_1340	12	12	là	NULL	adv	NULL	B_GADV	NOLINK	0	idtext0014	là	#####	spk1	23.34	23.84	0.01	_
20091112_RATP_SCD_1340	12	13	euh	DISF_M	pres	NULL	NULL	NOLINK	0	idtext0014	euh	#####	spk1	23.85	24.51	0.01	_
20091112_RATP_SCD_1340	12	14	sur	NULL	prep	NULL	B_GP	P_OBJ	24	idtext0014	sur	#####	spk1	24.52	24.69	0.01	_
20091112_RATP_SCD_1340	12	15	le	NULL	det	NULL	I_GP	DET	16	idtext0014	le	##m#s##d	spk1	24.7	25.04	0.01	_
20091112_RATP_SCD_1340	12	16	site	NULL	nc	NULL	I_GP	OBJ	14	idtext0014	site	##m#s##	spk1	25.05	25.24	0.01	_
20091112_RATP_SCD_1340	12	17	RATP	NULL	np	B_ORG	I_GP	MOD	16	idtext0014	RATP	##f#s##	spk1	25.25	26.3	0.01	_
20091112_RATP_SCD_1340	12	18	euh	DISF_M	pres	I_ORG	NULL	NOLINK	0	idtext0014	euh	#####	spk1	26.31	26.79	0.01	_
20091112_RATP_SCD_1340	12	19	il	DISF_R	cln	I_ORG	B_GN	NOLINK	0	idtext0014	cln	#3#m#s##	spk1	26.8	26.92	0.01	_
20091112_RATP_SCD_1340	12	20	y	DISF_R	clo	I_ORG	B_GN	NOLINK	0	idtext0014	y	#####	spk1	26.93	26.97	0.01	_
20091112_RATP_SCD_1340	12	21	a	DISF_R	v	I_ORG	B_GVf	NOLINK	0	idtext0014	avoir	P#3##s##	spk1	26.98	27.05	0.01	_
20091112_RATP_SCD_1340	12	22	il	NULL	cln	NULL	B_GN	SUJ_IMP	24	idtext0014	cln	#3#m#s##	spk1	27.06	27.32	0.01	_
20091112_RATP_SCD_1340	12	23	y	NULL	clo	NULL	B_GN	AFF	24	idtext0014	y	#####	spk1	27.33	27.36	0.01	_
20091112_RATP_SCD_1340	12	24	a	NULL	v	NULL	B_GVf	ROOT	0	idtext0014	avoir	P#3##s##	spk1	27.37	27.39	0.01	_
20091112_RATP_SCD_1340	12	25	encore	NULL	adv	NULL	B_GADV	MOD	26	idtext0014	encore	#####	spk1	27.4	27.78	0.01	_
20091112_RATP_SCD_1340	12	26	rien	NULL	pro	NULL	B_GN	OBJ	24	idtext0014	rien	#####	spk1	27.79	28.1	0.01	_
20091112_RATP_SCD_1340	12	27	non+plus	NULL	adv	NULL	B_GADV	MOD	26	idtext0014	non+plus	#####	spk1	28.11	28.74	0.41	/
20091112_RATP_SCD_1340	12	28	donc	NULL	coo	NULL	B_NULL	ROOT	0	idtext0015	donc	#####	spk1	29.15	29.24	0.01	_
20091112_RATP_SCD_1340	12	29	il	NULL	cln	NULL	B_GN	SUJ_IMP	30	idtext0015	cln	#3#m#s##	spk1	29.25	29.3	0.01	_
20091112_RATP_SCD_1340	12	30	faudrait	NULL	v	NULL	B_GVf	DEP_COORD	28	idtext0015	falloir	C#3##s##	spk1	29.31	29.67	0.01	_
20091112_RATP_SCD_1340	12	31	consulter	NULL	vinf	NULL	I_GVf	OBJ	30	idtext0015	consulter	W#####	spk1	29.68	30.24	0.01	_
20091112_RATP_SCD_1340	12	32	ce	NULL	det	NULL	B_GN	DET	33	idtext0015	ce	##m#s##e	spk1	30.25	30.53	0.01	_
20091112_RATP_SCD_1340	12	33	site	NULL	nc	NULL	I_GN	OBJ	31	idtext0015	site	##m#s##	spk1	30.54	30.78	0.01	_
20091112_RATP_SCD_1340	12	34	un+peu	NULL	adv	NULL	B_GADV	MOD	35	idtext0016	un+peu	#####	spk1	30.79	30.97	0.01	_
20091112_RATP_SCD_1340	12	35	plus+tard	NULL	adv	NULL	I_GADV	MOD	33	idtext0016	plus+tard	#####	spk1	30.98	32.41	0.04	_
20091112_RATP_SCD_1340	12	36	mais	NULL	coo	NULL	B_NULL	ROOT	0	idtext0017	mais	#####	spk1	32.45	32.68	0.01	_
20091112_RATP_SCD_1340	12	37	là	NULL	adv	NULL	B_GADV	NOLINK	0	idtext0017	là	#####	spk1	32.69	32.79	0.01	_
20091112_RATP_SCD_1340	12	38	je	NULL	cln	NULL	B_GN	SUJ	40	idtext0017	cln	#1##s##	spk1	32.8	32.97	0.01	_
20091112_RATP_SCD_1340	12	39	ne	NULL	clneg	NULL	B_GVfn	MOD	40	idtext0017	ne	#####	spk1	32.98	33.06	0.01	_
20091112_RATP_SCD_1340	12	40	peux	NULL	v	NULL	I_GVfn	DEP_COORD	36	idtext0017	pouvoir	P#12##s##	spk1	33.07	33.18	0.01	_
20091112_RATP_SCD_1340	12	41	pas	NULL	advneg	NULL	I_GVfn	MOD	40	idtext0017	pas	#####	spk1	33.19	33.37	0.01	_
20091112_RATP_SCD_1340	12	42	vous	NULL	clo	NULL	B_GN	A_OBJ	43	idtext0017	cln	#2##p##	spk1	33.38	33.47	0.01	_
20091112_RATP_SCD_1340	12	43	donner	NULL	vinf	NULL	B_GVi	OBJ	40	idtext0017	donner	W#####	spk1	33.48	33.97	0.01	_
20091112_RATP_SCD_1340	12	44	euh	DISF_M	pres	NULL	NULL	NOLINK	0	idtext0017	euh	#####	spk1	33.98	34.02	0.01	_
20091112_RATP_SCD_1340	12	45	d'	NULL	prep	NULL	B_GP	OBJ	43	idtext0017	d'	#####	spk1	34.03	34.06	0.01	_
20091112_RATP_SCD_1340	12	46	information	NULL	nc	NULL	I_GP	OBJ	45	idtext0017	information	##f#s##	spk1	34.07	34.53	0.01	_
20091112_RATP_SCD_1340	12	47	concernant	NULL	prep	NULL	B_GP	P_OBJ	46	idtext0017	concernant	#####	spk1	34.54	34.93	0.01	_
20091112_RATP_SCD_1340	12	48	cette	NULL	det	NULL	I_GP	DET	49	idtext0017	cet	##f#s##e	spk1	34.94	35.08	0.01	_
20091112_RATP_SCD_1340	12	49	ligne	NULL	nc	NULL	I_GP	OBJ	47	idtext0017	ligne	##f#s##	spk1	35.09	35.71	0.01	_
20091112_RATP_SCD_1340	12	50	malheureusement	NULL	adv	NULL	B_GADV	MOD	49	idtext0018	malheureusement	#####	spk1	35.72	36.79	?	//

20091112_RATP_SCD_1340	13	1	hm+hm	DISF_M	pres	NULL	NULL	NOLINK	0	idtext0019	hm+hm	#####	spk2	36.83	37.29	0.04	_
20091112_RATP_SCD_1340	13	2	est-ce+que	NULL	pri	NULL	B_NULL	NOLINK	0	idtext0020	est-ce+que	#####	spk2	37.33	37.61	0.01	_
20091112_RATP_SCD_1340	13	3	les	NULL	det	NULL	B_GN	DET	4	idtext0020	le	###p##d	spk2	37.62	37.81	0.01	_
20091112_RATP_SCD_1340	13	4	sites	NULL	nc	NULL	I_GN	SUJ	6	idtext0020	site	##m#p##	spk2	37.82	38.04	0.01	_
20091112_RATP_SCD_1340	13	5	sont	NULL	v	NULL	B_GVf	AUX	6	idtext0020	être	P#3##p##	spk2	38.05	38.14	0.01	_
20091112_RATP_SCD_1340	13	6	mis	NULL	vppart	NULL	I_GVf	ROOT	0	idtext0020	mettre	J#12##s##	spk2	38.15	38.27	0.01	_
20091112_RATP_SCD_1340	13	7	à	NULL	prep	NULL	B_GP	P_OBJ_LOC	6	idtext0020	à	#####	spk2	38.28	38.34	0.01	_
20091112_RATP_SCD_1340	13	8	jour	NULL	nc	NULL	I_GP	OBJ	7	idtext0020	jour	##m#s##	spk2	38.35	38.65	0.01	_
20091112_RATP_SCD_1340	13	9	même	NULL	adj	NULL	I_GP	MOD	8	idtext0020	même	###s##	spk2	38.66	39.7	0.01	_
20091112_RATP_SCD_1340	13	10	la	NULL	det	NULL	B_GN	DET	11	idtext0020	le	##m#s##d	spk2	39.71	39.88	0.01	_
20091112_RATP_SCD_1340	13	11	nuit	NULL	nc	NULL	I_GN	MOD	6	idtext0020	nuit	##f#s##	spk2	39.89	39.97	0.01	_
20091112_RATP_SCD_1340	13	12	euh	DISF_M	pres	NULL	NULL	NOLINK	0	idtext0020	euh	#####	spk2	39.98	40.05	?	//

20091112_RATP_SCD_1340	14	1	écoutez	DISF_M	pres	NULL	NULL	NOLINK	0	idtext0021	écoutez	#####	spk1	40.21	40.79	?	//

20091112_RATP_SCD_1340	15	1	là	NULL	adv	NULL	B_GADV	NOLINK	0	idtext0022	là	#####	spk1	40.83	41.41	0.01	//
20091112_RATP_SCD_1340	15	2	euh	DISF_M	pres	NULL	NULL	NOLINK	0	idtext0022	euh	#####	spk1	41.42	42.6	?	//

20091112_RATP_SCD_1340	16	1	apparemment	NULL	adv	NULL	B_GADV	MOD	3	idtext0023	apparemment	#####	spk1	42.66	43.2	0.01	_
20091112_RATP_SCD_1340	16	2	c'	NULL	cln	NULL	B_GN	SUJ_IMP	3	idtext0023	ce	###s##	spk1	43.21	43.24	0.01	_
20091112_RATP_SCD_1340	16	3	est	NULL	v	NULL	B_GVf	ROOT	0	idtext0023	être	P#3##s##	spk1	43.25	43.35	0.01	_
20091112_RATP_SCD_1340	16	4	ouais	NULL	adv	NULL	B_GADV	NOLINK	0	idtext0023	ouais	#####	spk1	43.36	43.9	?	//

20091112_RATP_SCD_1340	17	1	a+priori	NULL	adv	NULL	B_GADV	MOD	2	idtext0024	a+priori	#####	spk2	42.66	43.53	0.01	_
20091112_RATP_SCD_1340	17	2	non	NULL	adv	NULL	I_GADV	ROOT	0	idtext0024	non	#####	spk2	43.54	43.9	?	_

20091112_RATP_SCD_1340	18	1	non	NULL	adv	NULL	B_GADV	NOLINK	0	idtext0025	non	#####	spk1	43.94	44.08	0.01	_
20091112_RATP_SCD_1340	18	2	ça	NULL	pro	NULL	B_GN	SUJ_IMP	3	idtext0025	ça	#####	spk1	44.09	44.21	0.01	_
20091112_RATP_SCD_1340	18	3	va	NULL	v	NULL	B_GVf	ROOT	0	idtext0025	aller	P#3##s##	spk1	44.22	44.3	0.01	_
20091112_RATP_SCD_1340	18	4	être	NULL	vinf	NULL	I_GVf	OBJ	3	idtext0025	être	W#####	spk1	44.31	44.45	0.01	_
20091112_RATP_SCD_1340	18	5	plutôt	NULL	adv	NULL	B_GADV	MOD	6	idtext0025	plutôt	#####	spk1	44.46	44.73	0.01	_
20091112_RATP_SCD_1340	18	6	demain	NULL	adv	NULL	I_GADV	MOD	8	idtext0025	demain	#####	spk1	44.74	45.28	0.01	_
20091112_RATP_SCD_1340	18	7	euh	DISF_M	pres	NULL	NULL	NOLINK	0	idtext0025	euh	#####	spk1	45.29	45.31	0.01	_
20091112_RATP_SCD_1340	18	8	demain	NULL	adv	NULL	I_GADV	MOD	3	idtext0025	demain	#####	spk1	45.32	45.83	0.01	_
20091112_RATP_SCD_1340	18	9	dans	NULL	prep	NULL	B_GP	P_OBJ_LOC	8	idtext0025	dans	#####	spk1	45.84	45.95	0.01	_
20091112_RATP_SCD_1340	18	10	la	NULL	det	NULL	I_GP	DET	11	idtext0025	le	##m#s##d	spk1	45.96	46.11	0.01	_
20091112_RATP_SCD_1340	18	11	matinée	NULL	nc	NULL	I_GP	OBJ	9	idtext0025	matinée	##f#s##	spk1	46.12	46.61	0.01	_
20091112_RATP_SCD_1340	18	12	hein	DISF_M	pres	NULL	NULL	NOLINK	0	idtext0025	hein	#####	spk1	46.62	46.67	0.01	_
20091112_RATP_SCD_1340	18	13	très	NULL	adv	NULL	B_GADV	MOD	14	idtext0025	très	#####	spk1	46.68	46.94	0.01	_
20091112_RATP_SCD_1340	18	14	tôt	NULL	adv	NULL	I_GADV	MOD	11	idtext0025	tôt	#####	spk1	46.95	47.66	?	_

20091112_RATP_SCD_1340	19	1	OK	NULL	adv	NULL	B_GADV	NOLINK	0	idtext0026	ok	#####	spk2	48.49	49.07	?	_

20091112_RATP_SCD_1340	20	1	ouais	NULL	adv	NULL	B_GADV	NOLINK	0	idtext0027	ouais	#####	spk2	49.45	49.65	0.01	_
20091112_RATP_SCD_1340	20	2	parce+que	NULL	csu	NULL	B_NULL	ROOT	0	idtext0027	parce+que	#####	spk2	49.66	50.04	0.01	_
20091112_RATP_SCD_1340	20	3	j'	NULL	cln	NULL	B_GN	SUJ	4	idtext0027	cln	#1##s##	spk2	50.05	50.1	0.01	_
20091112_RATP_SCD_1340	20	4	ai	NULL	v	NULL	B_GVf	OBJ	2	idtext0027	avoir	P#1##s##	spk2	50.11	50.19	0.01	_
20091112_RATP_SCD_1340	20	5	un	NULL	det	NULL	B_GN	DET	6	idtext0027	un	##m#s##i	spk2	50.2	50.26	0.01	_
20091112_RATP_SCD_1340	20	6	avion	NULL	nc	NULL	I_GN	OBJ	4	idtext0027	avion	##m#s##	spk2	50.27	50.53	0.01	_
20091112_RATP_SCD_1340	20	7	à	NULL	prep	NULL	B_NULL	NOLINK	0	idtext0027	à	#####	spk2	50.54	50.64	?	_

20091112_RATP_SCD_1340	21	1	là	NULL	adv	NULL	B_GADV	NOLINK	0	idtext0028	là	#####	spk1	49.45	49.57	0.01	_
20091112_RATP_SCD_1340	21	2	je	NULL	cln	NULL	B_GN	SUJ	4	idtext0028	cln	#1##s##	spk1	49.58	49.67	0.01	_
20091112_RATP_SCD_1340	21	3	n'	NULL	clneg	NULL	B_GVfn	MOD	4	idtext0028	n'	#####	spk1	49.68	49.73	0.01	_
20091112_RATP_SCD_1340	21	4	ai	NULL	v	NULL	I_GVfn	ROOT	0	idtext0028	avoir	P#1##s##	spk1	49.74	49.78	0.01	_
20091112_RATP_SCD_1340	21	5	aucune	NULL	det	NULL	B_GN	DET	6	idtext0028	aucun	##f#s##i	spk1	49.79	50.0	0.01	_
20091112_RATP_SCD_1340	21	6	information	NULL	nc	NULL	I_GN	OBJ	4	idtext0028	information	##f#s##	spk1	50.01	50.64	?	//

20091112_RATP_SCD_1340	22	1	huit	NULL	det	B_H	B_GN	DET	2	idtext0029	huit	#####	spk2	50.68	50.89	0.01	_
20091112_RATP_SCD_1340	22	2	heures	NULL	nc	I_H	I_GN	ROOT	0	idtext0029	heure	##f#p##	spk2	50.9	51.98	0.01	//
20091112_RATP_SCD_1340	22	3	euh	DISF_M	pres	I_H	NULL	NOLINK	0	idtext0029	euh	#####	spk2	51.99	52.01	0.01	_
20091112_RATP_SCD_1340	22	4	et	NULL	coo	NULL	B_NULL	COORD	2	idtext0029	et	#####	spk2	52.02	52.06	0.01	_
20091112_RATP_SCD_1340	22	5	bon	DISF_M	pres	NULL	NULL	NOLINK	0	idtext0029	bon	#####	spk2	52.07	52.28	0.01	/
20091112_RATP_SCD_1340	22	6	donc	NULL	coo	NULL	B_NULL	NOLINK	0	idtext0029	donc	#####	spk2	52.29	52.55	0.01	_
20091112_RATP_SCD_1340	22	7	il	DISF_R	cln	NULL	NULL	NOLINK	0	idtext0029	cln	#3#m#s##	spk2	52.56	53.26	0.01	_
20091112_RATP_SCD_1340	22	8	il	DISF_R	cln	NULL	NULL	NOLINK	0	idtext0030	cln	#3#m#s##	spk2	53.27	53.32	0.01	_
20091112_RATP_SCD_1340	22	9	va	DISF_R	v	NULL	NULL	NOLINK	0	idtext0030	aller	P#3##s##	spk2	53.33	53.44	0.01	_
20091112_RATP_SCD_1340	22	10	falloir	DISF_R	vinf	NULL	NULL	NOLINK	0	idtext0030	falloir	W#####	spk2	53.45	53.64	0.01	_
20091112_RATP_SCD_1340	22	11	que	DISF_R	csu	NULL	NULL	NOLINK	0	idtext0030	que	#####	spk2	53.65	53.67	0.01	_
20091112_RATP_SCD_1340	22	12	je	DISF_R	cln	NULL	NULL	NOLINK	0	idtext0030	cln	#1##s##	spk2	53.68	53.79	0.01	_
20091112_RATP_SCD_1340	22	13	prenne	DISF_R	v	NULL	NULL	NOLINK	0	idtext0030	prendre	S#13##s##	spk2	53.8	54.61	0.01	_
20091112_RATP_SCD_1340	22	14	euh	DISF_M	pres	NULL	NULL	NOLINK	0	idtext0030	euh	#####	spk2	54.62	54.68	0.01	_
20091112_RATP_SCD_1340	22	15	il	NULL	cln	NULL	B_GN	SUJ	17	idtext0030	cln	#3#m#s##	spk2	54.69	54.74	0.01	_
20091112_RATP_SCD_1340	22	16	aurait	NULL	v	NULL	B_GVf	AUX	17	idtext0030	avoir	C#3##s##	spk2	54.75	54.93	0.01	_
20091112_RATP_SCD_1340	22	17	fallu	NULL	vppart	NULL	I_GVf	DEP_COORD	4	idtext0030	falloir	K#####	spk2	54.94	55.2	0.01	_
20091112_RATP_SCD_1340	22	18	que	NULL	csu	NULL	B_NULL	OBJ	17	idtext0030	que	#####	spk2	55.21	55.23	0.01	_
20091112_RATP_SCD_1340	22	19	je	NULL	cln	NULL	B_GN	SUJ	20	idtext0030	cln	#1##s##	spk2	55.24	55.39	0.01	_
20091112_RATP_SCD_1340	22	20	prenne	NULL	v	NULL	B_GVf	OBJ	18	idtext0030	prendre	S#13##s##	spk2	55.4	55.65	0.01	_
20091112_RATP_SCD_1340	22	21	un	NULL	det	NULL	B_GN	DET	22	idtext0030	un	##m#s##i	spk2	55.66	55.82	0.01	_
20091112_RATP_SCD_1340	22	22	RER	NULL	nc	B_T	I_GN	OBJ	20	idtext0030	RER	#####	spk2	55.83	56.16	0.01	_
20091112_RATP_SCD_1340	22	23	vers	NULL	prep	NULL	B_GP	MOD	22	idtext0030	vers	#####	spk2	56.17	56.41	0.01	_
20091112_RATP_SCD_1340	22	24	six	NULL	det	B_H	I_GP	DET	25	idtext0030	six	#####	spk2	56.42	56.55	0.01	_
20091112_RATP_SCD_1340	22	25	heures	NULL	nc	I_H	I_GP	OBJ	23	idtext0030	heure	##f#p##	spk2	56.56	56.78	?	//

20091112_RATP_SCD_1340	23	1	ah	DISF_M	pres	NULL	NULL	NOLINK	0	idtext0031	ah	#####	spk1	56.88	57.02	0.01	_
20091112_RATP_SCD_1340	23	2	oui	NULL	adv	NULL	B_GADV	NOLINK	0	idtext0031	oui	#####	spk1	57.03	57.22	?	_

20091112_RATP_SCD_1340	24	1	et	NULL	coo	NULL	B_NULL	NOLINK	0	idtext0032	et	#####	spk2	56.83	57.01	0.01	_
20091112_RATP_SCD_1340	24	2	demie	NULL	adj	NULL	B_GADJ	NOLINK	0	idtext0032	demie	#####	spk2	57.02	57.22	?	/

20091112_RATP_SCD_1340	25	1	et+puis	NULL	coo	NULL	B_NULL	NOLINK	0	idtext0033	et+puis	#####	spk1	57.89	58.0	0.01	_
20091112_RATP_SCD_1340	25	2	là	NULL	adv	NULL	B_GADV	NOLINK	0	idtext0033	là	#####	spk1	58.01	58.06	0.01	_
20091112_RATP_SCD_1340	25	3	je	DISF_R	cln	NULL	NULL	NOLINK	0	idtext0033	cln	#1##s##	spk1	58.07	58.29	0.01	_
20091112_RATP_SCD_1340	25	4	je	NULL	cln	NULL	B_GN	NOLINK	0	idtext0033	cln	#1##s##	spk1	58.3	58.9	?	_

20091112_RATP_SCD_1340	26	1	et+donc	NULL	coo	NULL	B_NULL	NOLINK	0	idtext0034	et+donc	#####	spk2	57.96	58.9	?	//

20091112_RATP_SCD_1340	27	1	hm	DISF_M	pres	NULL	NULL	NOLINK	0	idtext0035	hm	#####	spk1	58.94	59.07	?	//

20091112_RATP_SCD_1340	28	1	donc	NULL	coo	NULL	B_NULL	ROOT	0	idtext0036	donc	#####	spk2	59.65	59.75	0.01	_
20091112_RATP_SCD_1340	28	2	je	NULL	cln	NULL	B_GN	SUJ	4	idtext0036	cln	#1##s##	spk2	59.76	59.88	0.01	_
20091112_RATP_SCD_1340	28	3	ne	NULL	clneg	NULL	B_GVfn	MOD	4	idtext0036	ne	#####	spk2	59.89	59.93	0.01	_
20091112_RATP_SCD_1340	28	4	peux	NULL	v	NULL	I_GVfn	DEP_COORD	1	idtext0036	pouvoir	P#12##s##	spk2	59.94	60.02	0.01	_
20091112_RATP_SCD_1340	28	5	pas	NULL	advneg	NULL	B_GVin	MOD	6	idtext0036	pas	#####	spk2	60.03	60.26	0.01	_
20091112_RATP_SCD_1340	28	6	savoir	NULL	vinf	NULL	I_GVin	OBJ	4	idtext0036	savoir	W#####	spk2	60.27	60.62	0.01	_
20091112_RATP_SCD_1340	28	7	s'	NULL	csu	NULL	B_NULL	OBJ	6	idtext0036	se	#3##p##	spk2	60.63	60.79	0.01	_
20091112_RATP_SCD_1340	28	8	il	NULL	cln	NULL	B_GN	SUJ_IMP	10	idtext0036	cln	#3#m#s##	spk2	60.8	61.01	0.01	_
20091112_RATP_SCD_1340	28	9	y	NULL	clo	NULL	B_GN	AFF	10	idtext0036	y	#####	spk2	61.02	61.04	0.01	_
20091112_RATP_SCD_1340	28	10	aura	NULL	v	NULL	B_GVf	OBJ	7	idtext0036	avoir	F#3##s##	spk2	61.05	61.2	0.01	_
20091112_RATP_SCD_1340	28	11	des	NULL	det	NULL	B_GN	DET	12	idtext0036	des	###p##i	spk2	61.21	61.31	0.01	_
20091112_RATP_SCD_1340	28	12	trains	NULL	nc	NULL	I_GN	OBJ	10	idtext0036	train	##m#p##	spk2	61.32	61.55	?	//

20091112_RATP_SCD_1340	29	1	bah	DISF_M	pres	NULL	NULL	NOLINK	0	idtext0037	bah	#####	spk1	61.67	61.83	0.01	_
20091112_RATP_SCD_1340	29	2	je	NULL	cln	NULL	B_GN	SUJ	3	idtext0037	cln	#1##s##	spk1	61.84	61.96	0.01	_
20091112_RATP_SCD_1340	29	3	peux	NULL	v	NULL	B_GVf	ROOT	0	idtext0037	pouvoir	P#12##s##	spk1	61.97	62.12	?	//

20091112_RATP_SCD_1340	30	1	demain	NULL	adv	NULL	B_GADV	NOLINK	0	idtext0038	demain	#####	spk2	61.6	62.12	?	//

20091112_RATP_SCD_1340	31	1	pas	NULL	advneg	NULL	B_NULL	NOLINK	0	idtext0039	pas	#####	spk1	62.16	62.21	0.01	_
20091112_RATP_SCD_1340	31	2	vous	NULL	clo	NULL	B_GN	A_OBJ	3	idtext0039	cln	#2##p##	spk1	62.22	62.39	0.01	_
20091112_RATP_SCD_1340	31	3	dire	NULL	vinf	NULL	B_GVi	ROOT	0	idtext0039	dire	W#####	spk1	62.4	62.51	0.01	_
20091112_RATP_SCD_1340	31	4	malheureusement	NULL	adv	NULL	B_GADV	MOD	3	idtext0039	malheureusement	#####	spk1	62.52	63.15	0.01	_
20091112_RATP_SCD_1340	31	5	hein	DISF_M	pres	NULL	NULL	NOLINK	0	idtext0039	hein	#####	spk1	63.16	64.19	?	//

20091112_RATP_SCD_1340	32	1	bon	DISF_M	pres	NULL	NULL	NOLINK	0	idtext0040	bon	#####	spk2	64.35	64.67	?	_

20091112_RATP_SCD_1340	33	1	malheureusement	NULL	adv	NULL	B_GADV	NOLINK	0	idtext0041	malheureusement	#####	spk1	64.23	64.67	?	//

20091112_RATP_SCD_1340	34	1	j'	NULL	cln	NULL	B_GN	SUJ	2	idtext0042	cln	#1##s##	spk1	64.71	64.75	0.01	_
20091112_RATP_SCD_1340	34	2	ai	NULL	v	NULL	B_GVfn	ROOT	0	idtext0042	avoir	P#1##s##	spk1	64.76	64.78	0.01	_
20091112_RATP_SCD_1340	34	3	pas+du+tout	NULL	advneg	NULL	I_GVfn	MOD	2	idtext0042	pas+du+tout	#####	spk1	64.79	65.19	0.01	_
20091112_RATP_SCD_1340	34	4	cette	NULL	det	NULL	B_GN	DET	5	idtext0042	cet	##f#s##e	spk1	65.2	65.34	0.01	_
20091112_RATP_SCD_1340	34	5	information	NULL	nc	NULL	I_GN	OBJ	2	idtext0042	information	##f#s##	spk1	65.35	65.98	?	//

20091112_RATP_SCD_1340	35	1	d'accord	NULL	adv	NULL	B_GADV	NOLINK	0	idtext0043	d'accord	#####	spk2	66.56	67.04	?	//

20091112_RATP_SCD_1340	36	1	hein	DISF_M	pres	NULL	NULL	NOLINK	0	idtext0044	hein	#####	spk1	67.12	67.18	0.01	_
20091112_RATP_SCD_1340	36	2	d'accord	NULL	adv	NULL	B_GADV	NOLINK	0	idtext0044	d'accord	#####	spk1	67.19	67.58	?	_

20091112_RATP_SCD_1340	37	1	OK	NULL	adv	NULL	B_GADV	NOLINK	0	idtext0045	ok	#####	spk2	67.12	67.58	?	_

20091112_RATP_SCD_1340	38	1	merci	NULL	adv	NULL	B_GADV	MOD	2	idtext0046	merci	#####	spk2	67.62	67.81	0.01	_
20091112_RATP_SCD_1340	38	2	quand+même	NULL	adv	NULL	I_GADV	ROOT	0	idtext0046	quand+même	#####	spk2	67.82	68.17	?	//

20091112_RATP_SCD_1340	39	1	bonne	NULL	adj	NULL	B_GN	MOD	2	idtext0047	bon	##f#s##	spk1	68.26	68.36	0.01	_
20091112_RATP_SCD_1340	39	2	soirée	NULL	nc	NULL	I_GN	ROOT	0	idtext0047	soirée	##f#s##	spk1	68.37	68.59	?	//

20091112_RATP_SCD_1340	40	1	au+revoir	NULL	adv	NULL	B_GADV	NOLINK	0	idtext0048	au+revoir	#####	spk2	68.21	68.59	?	//

20091112_RATP_SCD_1340	41	1	monsieur	NULL	nc	NULL	B_GN	NOLINK	0	idtext0049	Monsieur	##m#s##	spk1	68.65	68.87	0.01	_
20091112_RATP_SCD_1340	41	2	au+revoir	NULL	adv	NULL	B_GADV	NOLINK	0	idtext0050	au+revoir	#####	spk1	68.88	69.18	?	//

