20091112_RATP_SCD_0673	1	1	NNAAMMEE	NULL	np	B_HU	B_GN	ROOT	0	idtext0000	ANONYM	NULL	spk1	5.1	5.29	0.05	_
20091112_RATP_SCD_0673	1	2	bonjour	NULL	adv	NULL	B_GADV	NOLINK	0	idtext0001	bonjour	#####	spk1	5.34	5.89	?	//

20091112_RATP_SCD_0673	2	1	allo	NULL	adv	NULL	B_GADV	MOD	2	idtext0002	allo	#####	spk2	6.6	6.85	0.01	//
20091112_RATP_SCD_0673	2	2	bonjour	NULL	adv	NULL	I_GADV	ROOT	0	idtext0002	bonjour	#####	spk2	6.86	7.34	?	_

20091112_RATP_SCD_0673	3	1	euh	DISF_M	pres	NULL	NULL	NOLINK	0	idtext0003	euh	#####	spk2	7.39	7.57	0.01	_
20091112_RATP_SCD_0673	3	2	je	NULL	cln	NULL	B_GN	SUJ	3	idtext0003	cln	#1##s##	spk2	7.58	7.63	0.01	_
20091112_RATP_SCD_0673	3	3	suis	NULL	v	NULL	B_GVf	ROOT	0	idtext0003	être	P#1##s##	spk2	7.64	7.74	0.01	_
20091112_RATP_SCD_0673	3	4	madame	NULL	nc	NULL	B_GN	ATS	3	idtext0003	Monsieur	##f#s##	spk2	7.75	8.46	?	//

20091112_RATP_SCD_0673	4	1	bonjour	NULL	adv	NULL	B_GADV	NOLINK	0	idtext0004	bonjour	#####	spk1	7.4	8.46	?	//

20091112_RATP_SCD_0673	5	1	NNAAMMEE	NULL	np	B_HU	B_GN	ROOT	0	idtext0005	ANONYM	NULL	spk2	8.79	8.98	0.04	_
20091112_RATP_SCD_0673	5	2	je	NULL	cln	NULL	B_GN	SUJ	3	idtext0006	cln	#1##s##	spk2	9.02	9.04	0.01	_
20091112_RATP_SCD_0673	5	3	crois	NULL	v	NULL	B_GVf	ROOT	0	idtext0006	croire	P#12##s##	spk2	9.05	9.18	0.01	_
20091112_RATP_SCD_0673	5	4	qu'	NULL	csu	NULL	B_NULL	OBJ	3	idtext0006	qu'	#####	spk2	9.19	9.25	0.01	_
20091112_RATP_SCD_0673	5	5	on	NULL	cln	NULL	B_GN	SUJ_IMP	8	idtext0006	cln	#3##s##	spk2	9.26	9.34	0.01	_
20091112_RATP_SCD_0673	5	6	s'	NULL	clr	NULL	B_GVf	AFF	8	idtext0006	se	#3##p##	spk2	9.35	9.41	0.01	_
20091112_RATP_SCD_0673	5	7	est	NULL	v	NULL	I_GVf	AUX	8	idtext0006	être	P#3##s##	spk2	9.42	9.56	0.01	_
20091112_RATP_SCD_0673	5	8	parlé	NULL	vppart	NULL	I_GVf	OBJ	4	idtext0006	parler	K##m#s##	spk2	9.57	9.86	0.01	_
20091112_RATP_SCD_0673	5	9	tout+à+l'heure	NULL	adv	NULL	B_GADV	MOD	8	idtext0006	tout+à+l'heure	#####	spk2	9.87	10.43	?	//

20091112_RATP_SCD_0673	6	1	ah	DISF_M	pres	NULL	NULL	NOLINK	0	idtext0007	ah	#####	spk1	10.58	10.79	?	//

20091112_RATP_SCD_0673	7	1	ça	NULL	pro	NULL	B_GN	SUJ_IMP	3	idtext0008	ça	#####	spk1	10.85	10.92	0.01	_
20091112_RATP_SCD_0673	7	2	me	NULL	clo	NULL	B_GN	A_OBJ	3	idtext0008	cla	#1##s##	spk1	10.93	10.97	0.01	_
20091112_RATP_SCD_0673	7	3	dit	NULL	v	NULL	B_GVf	ROOT	0	idtext0008	dire	J#3##s##	spk1	10.98	11.1	0.01	_
20091112_RATP_SCD_0673	7	4	rien	NULL	pro	NULL	B_GN	OBJ	3	idtext0008	rien	#####	spk1	11.11	11.43	?	_

20091112_RATP_SCD_0673	8	1	à	NULL	prep	NULL	B_GP	ROOT	0	idtext0009	à	#####	spk1	11.47	11.5	0.01	_
20091112_RATP_SCD_0673	8	2	quel	NULL	det	NULL	I_GP	DET	3	idtext0009	quel	##m#s##	spk1	11.51	11.69	0.01	_
20091112_RATP_SCD_0673	8	3	sujet	NULL	nc	NULL	I_GP	OBJ	1	idtext0009	sujet	##m#s##	spk1	11.7	12.05	?	//

20091112_RATP_SCD_0673	9	1	c'	NULL	cln	NULL	B_GN	SUJ_IMP	2	idtext0010	ce	###s##	spk2	13.44	13.46	0.01	_
20091112_RATP_SCD_0673	9	2	était	NULL	v	NULL	B_GVf	ROOT	0	idtext0010	être	I#3##s##	spk2	13.47	13.72	0.01	_
20091112_RATP_SCD_0673	9	3	pour	NULL	prep	NULL	B_GP	MOD	2	idtext0010	pour	#####	spk2	13.73	13.87	0.01	_
20091112_RATP_SCD_0673	9	4	partir	NULL	vinf	NULL	I_GP	OBJ	3	idtext0010	partir	W#####	spk2	13.88	14.36	0.01	_
20091112_RATP_SCD_0673	9	5	de	NULL	prep	NULL	B_GP	P_OBJ_LOC	4	idtext0010	de	#####	spk2	14.37	14.51	0.01	_
20091112_RATP_SCD_0673	9	6	la	NULL	det	NULL	I_GP	DET	7	idtext0010	le	##m#s##d	spk2	14.52	14.68	0.01	_
20091112_RATP_SCD_0673	9	7	rue	NULL	nc	B_A	I_GP	OBJ	5	idtext0010	rue	##f#s##	spk2	14.69	14.77	0.01	_
20091112_RATP_SCD_0673	9	8	du	NULL	prep	I_A	I_GP	DEP	7	idtext0010	du	#####	spk2	14.78	14.98	0.01	_
20091112_RATP_SCD_0673	9	9	Cherche-Midi	NULL	np	I_A	I_GP	OBJ	8	idtext0010	Cherche-Midi	#####	spk2	14.99	15.43	0.01	_
20091112_RATP_SCD_0673	9	10	à	NULL	prep	NULL	B_GP	MOD	7	idtext0010	à	#####	spk2	15.44	15.52	0.01	_
20091112_RATP_SCD_0673	9	11	l'	NULL	det	NULL	I_GP	DET	12	idtext0010	le	###s##d	spk2	15.53	15.58	0.01	_
20091112_RATP_SCD_0673	9	12	angle	NULL	nc	NULL	I_GP	OBJ	10	idtext0010	angle	##m#s##	spk2	15.59	15.72	0.01	_
20091112_RATP_SCD_0673	9	13	du	NULL	prep	NULL	B_GP	DEP	12	idtext0010	du	#####	spk2	15.73	15.83	0.01	_
20091112_RATP_SCD_0673	9	14	boulevard	NULL	nc	B_A	I_GP	OBJ	13	idtext0010	boulevard	##m#s##	spk2	15.84	16.17	0.01	_
20091112_RATP_SCD_0673	9	15	Raspail	NULL	np	I_A	I_GP	MOD	14	idtext0010	Raspail	#####	spk2	16.18	17.04	0.01	/
20091112_RATP_SCD_0673	9	16	en	NULL	prep	NULL	B_GP	MOD	4	idtext0011	en	#####	spk2	17.05	17.27	0.01	_
20091112_RATP_SCD_0673	9	17	autobus	NULL	nc	NULL	I_GP	OBJ	16	idtext0011	autobus	##m###	spk2	17.28	18.31	?	//

20091112_RATP_SCD_0673	10	1	pour	NULL	prep	NULL	B_GP	ROOT	0	idtext0012	pour	#####	spk1	18.35	18.43	0.01	_
20091112_RATP_SCD_0673	10	2	aller	NULL	vinf	NULL	I_GP	OBJ	1	idtext0012	aller	W#####	spk1	18.44	18.65	0.01	_
20091112_RATP_SCD_0673	10	3	rue	NULL	nc	B_A	B_GN	P_OBJ_LOC	2	idtext0012	rue	##f#s##	spk1	18.66	18.72	0.01	_
20091112_RATP_SCD_0673	10	4	de	NULL	prep	I_A	I_GN	DEP	3	idtext0012	de	#####	spk1	18.73	18.75	0.01	_
20091112_RATP_SCD_0673	10	5	la	NULL	det	I_A	I_GN	DET	6	idtext0012	le	##m#s##d	spk1	18.76	18.87	0.01	_
20091112_RATP_SCD_0673	10	6	Mare	NULL	np	I_A	I_GN	OBJ	4	idtext0012	Mare	#####	spk1	18.88	19.4	?	//

20091112_RATP_SCD_0673	11	1	oui	NULL	adv	NULL	B_GADV	NOLINK	0	idtext0013	oui	#####	spk2	19.7	19.82	0.01	_
20091112_RATP_SCD_0673	11	2	c'	NULL	cln	NULL	B_GN	SUJ_IMP	3	idtext0013	ce	###s##	spk2	19.83	19.91	0.01	_
20091112_RATP_SCD_0673	11	3	est	NULL	v	NULL	B_GVf	ROOT	0	idtext0013	être	P#3##s##	spk2	19.92	19.98	0.01	_
20091112_RATP_SCD_0673	11	4	ça	NULL	pro	NULL	B_GN	ATS	3	idtext0013	ça	#####	spk2	19.99	20.29	0.01	_
20091112_RATP_SCD_0673	11	5	et	NULL	coo	NULL	B_NULL	NOLINK	0	idtext0013	et	#####	spk2	20.3	20.34	?	_

20091112_RATP_SCD_0673	12	1	la	NULL	det	NULL	B_NULL	NOLINK	0	idtext0014	le	##m#s##d	spk2	20.38	20.56	?	//

20091112_RATP_SCD_0673	13	1	oui	NULL	adv	NULL	B_GADV	NOLINK	0	idtext0015	oui	#####	spk1	20.38	20.56	?	//

20091112_RATP_SCD_0673	14	1	personne	NULL	nc	NULL	B_GN	SUJ	4	idtext0016	personne	##f#s##	spk2	20.64	21.03	0.01	_
20091112_RATP_SCD_0673	14	2	me	DISF_R	clo	NULL	NULL	NOLINK	0	idtext0016	cla	#1##s##	spk2	21.04	21.42	0.01	_
20091112_RATP_SCD_0673	14	3	me	NULL	clo	NULL	B_GN	A_OBJ	4	idtext0016	cla	#1##s##	spk2	21.43	21.54	0.01	_
20091112_RATP_SCD_0673	14	4	dit	NULL	v	NULL	B_GVf	ROOT	0	idtext0016	dire	J#3##s##	spk2	21.55	22.02	0.01	_
20091112_RATP_SCD_0673	14	5	de	NULL	prep	NULL	B_GP	OBJ	4	idtext0016	de	#####	spk2	22.03	22.18	0.01	_
20091112_RATP_SCD_0673	14	6	voir	NULL	vinf	NULL	I_GP	OBJ	5	idtext0016	voir	W#####	spk2	22.19	22.73	0.01	_
20091112_RATP_SCD_0673	14	7	euh	DISF_M	pres	NULL	NULL	NOLINK	0	idtext0016	euh	#####	spk2	22.74	23.02	0.01	_
20091112_RATP_SCD_0673	14	8	aussi	NULL	adv	NULL	B_GADV	MOD	6	idtext0017	aussi	#####	spk2	23.03	23.43	0.01	_
20091112_RATP_SCD_0673	14	9	le	NULL	det	NULL	B_GN	DET	10	idtext0017	le	##m#s##d	spk2	23.44	23.46	0.01	_
20091112_RATP_SCD_0673	14	10	métro	NULL	nc	NULL	I_GN	OBJ	4	idtext0017	métro	##m#s##	spk2	23.47	24.05	?	//

20091112_RATP_SCD_0673	15	1	alors	NULL	adv	NULL	B_GADV	NOLINK	0	idtext0018	alors	#####	spk2	24.65	25.7	0.01	//
20091112_RATP_SCD_0673	15	2	euh	DISF_M	pres	NULL	NULL	NOLINK	0	idtext0018	euh	#####	spk2	25.71	25.8	?	//

20091112_RATP_SCD_0673	16	1	ah	DISF_M	pres	NULL	NULL	NOLINK	0	idtext0019	ah	#####	spk1	24.65	24.69	0.01	_
20091112_RATP_SCD_0673	16	2	mais	NULL	coo	NULL	B_NULL	ROOT	0	idtext0019	mais	#####	spk1	24.7	24.75	0.01	_
20091112_RATP_SCD_0673	16	3	je	NULL	cln	NULL	B_GN	SUJ	4	idtext0019	cln	#1##s##	spk1	24.76	24.78	0.01	_
20091112_RATP_SCD_0673	16	4	croyais	NULL	v	NULL	B_GVf	DEP_COORD	2	idtext0019	croire	I#12##s##	spk1	24.79	25.14	0.01	_
20091112_RATP_SCD_0673	16	5	que	NULL	csu	NULL	B_NULL	OBJ	4	idtext0019	que	#####	spk1	25.15	25.38	0.01	_
20091112_RATP_SCD_0673	16	6	vous	NULL	cln	NULL	B_GN	SUJ	8	idtext0019	cln	#2##p##	spk1	25.39	25.44	0.01	_
20091112_RATP_SCD_0673	16	7	en	NULL	clo	NULL	B_GN	DE_OBJ	8	idtext0019	en	#####	spk1	25.45	25.5	0.01	_
20091112_RATP_SCD_0673	16	8	vouliez	NULL	v	NULL	B_GVf	OBJ	5	idtext0019	vouloir	I#2##p##	spk1	25.51	25.8	?	//

20091112_RATP_SCD_0673	17	1	pas	NULL	advneg	NULL	B_NULL	NOLINK	0	idtext0020	pas	#####	spk1	25.84	25.92	0.01	_
20091112_RATP_SCD_0673	17	2	du	NULL	prep	NULL	B_GP	ROOT	0	idtext0020	du	#####	spk1	25.93	26.02	0.01	_
20091112_RATP_SCD_0673	17	3	métro	NULL	nc	NULL	I_GP	OBJ	2	idtext0020	métro	##m#s##	spk1	26.03	26.44	?	//

20091112_RATP_SCD_0673	18	1	comment	NULL	adv	NULL	B_GADV	NOLINK	0	idtext0021	comment	#####	spk2	27.17	27.61	?	//

20091112_RATP_SCD_0673	19	1	je	NULL	cln	NULL	B_GN	SUJ	2	idtext0022	cln	#1##s##	spk1	27.65	27.67	0.01	_
20091112_RATP_SCD_0673	19	2	croyais	NULL	v	NULL	B_GVf	ROOT	0	idtext0022	croire	I#12##s##	spk1	27.68	27.85	0.01	_
20091112_RATP_SCD_0673	19	3	que	NULL	csu	NULL	B_NULL	OBJ	2	idtext0022	que	#####	spk1	27.86	27.88	0.01	_
20091112_RATP_SCD_0673	19	4	vous	NULL	cln	NULL	B_GN	SUJ	5	idtext0022	cln	#2##p##	spk1	27.89	27.94	0.01	_
20091112_RATP_SCD_0673	19	5	vouliez	NULL	v	NULL	B_GVfn	OBJ	3	idtext0022	vouloir	I#2##p##	spk1	27.95	28.13	0.01	_
20091112_RATP_SCD_0673	19	6	pas	NULL	advneg	NULL	I_GVfn	MOD	5	idtext0022	pas	#####	spk1	28.14	28.24	?	_

20091112_RATP_SCD_0673	20	1	le	NULL	det	NULL	B_GN	DET	2	idtext0023	le	##m#s##d	spk1	28.28	28.3	0.01	_
20091112_RATP_SCD_0673	20	2	métro	NULL	nc	NULL	I_GN	ROOT	0	idtext0023	métro	##m#s##	spk1	28.31	29.03	?	//

20091112_RATP_SCD_0673	21	1	non	NULL	adv	NULL	B_GADV	NOLINK	0	idtext0024	non	#####	spk2	28.28	28.41	0.01	/
20091112_RATP_SCD_0673	21	2	moi	NULL	pro	NULL	B_GN	SUJ	5	idtext0024	moi	#####	spk2	28.42	28.5	0.01	_
20091112_RATP_SCD_0673	21	3	j'	NULL	cln	NULL	B_GN	SUJ	5	idtext0024	cln	#1##s##	spk2	28.51	28.53	0.01	_
20091112_RATP_SCD_0673	21	4	en	NULL	clo	NULL	B_GN	DE_OBJ	5	idtext0024	en	#####	spk2	28.54	28.81	0.01	_
20091112_RATP_SCD_0673	21	5	veux	NULL	v	NULL	B_GVf	ROOT	0	idtext0024	vouloir	P#12##s##	spk2	28.82	29.03	?	//

20091112_RATP_SCD_0673	22	1	pas	NULL	advneg	NULL	B_NULL	NOLINK	0	idtext0025	pas	#####	spk2	29.07	29.18	0.01	/
20091112_RATP_SCD_0673	22	2	du	NULL	prep	NULL	B_GP	ROOT	0	idtext0025	du	#####	spk2	29.19	29.31	0.01	_
20091112_RATP_SCD_0673	22	3	métro	NULL	nc	NULL	I_GP	OBJ	2	idtext0025	métro	##m#s##	spk2	29.32	29.8	0.01	_
20091112_RATP_SCD_0673	22	4	mais	NULL	coo	NULL	B_NULL	NOLINK	0	idtext0025	mais	#####	spk2	29.81	29.98	0.01	_
20091112_RATP_SCD_0673	22	5	lui	NULL	pro	NULL	B_GN	SUJ	7	idtext0025	lui	#####	spk2	29.99	30.08	0.01	_
20091112_RATP_SCD_0673	22	6	il	NULL	cln	NULL	B_GN	SUJ	7	idtext0025	cln	#3#m#s##	spk2	30.09	30.3	0.01	_
20091112_RATP_SCD_0673	22	7	insiste	NULL	v	NULL	B_GVf	ROOT	0	idtext0025	insister	PS#13##s##	spk2	30.31	30.88	0.01	_
20091112_RATP_SCD_0673	22	8	alors	NULL	adv	NULL	B_GADV	NOLINK	0	idtext0025	alors	#####	spk2	30.89	31.38	0.01	_
20091112_RATP_SCD_0673	22	9	euh	DISF_M	pres	NULL	NULL	NOLINK	0	idtext0025	euh	#####	spk2	31.39	31.45	?	//

20091112_RATP_SCD_0673	23	1	ah+bon	DISF_M	pres	NULL	NULL	NOLINK	0	idtext0026	ah+bon	#####	spk1	31.49	31.76	?	//

20091112_RATP_SCD_0673	24	1	alors	NULL	adv	NULL	B_GADV	NOLINK	0	idtext0027	alors	#####	spk1	31.93	32.3	0.01	_
20091112_RATP_SCD_0673	24	2	Sèvres-Babylone	NULL	nc	B_A	B_GN	NOLINK	0	idtext0027	Sèvres-Babylone	#####	spk1	32.31	33.34	?	//

20091112_RATP_SCD_0673	25	1	c'	NULL	cln	NULL	B_GN	SUJ_IMP	2	idtext0028	ce	###s##	spk2	31.83	31.85	0.01	_
20091112_RATP_SCD_0673	25	2	est	NULL	v	NULL	B_GVf	ROOT	0	idtext0028	être	P#3##s##	spk2	31.86	31.88	0.01	_
20091112_RATP_SCD_0673	25	3	quand+même	NULL	adv	NULL	B_GADV	MOD	2	idtext0028	quand+même	#####	spk2	31.89	33.34	?	_

20091112_RATP_SCD_0673	26	1	rue	NULL	nc	NULL	B_GN	NOLINK	0	idtext0029	rue	##f#s##	spk1	33.89	34.04	0.01	_
20091112_RATP_SCD_0673	26	2	de	NULL	prep	NULL	B_NULL	NOLINK	0	idtext0029	de	#####	spk1	34.05	34.07	0.01	_
20091112_RATP_SCD_0673	26	3	la	NULL	det	NULL	B_NULL	NOLINK	0	idtext0029	le	##m#s##d	spk1	34.08	34.21	?	_

20091112_RATP_SCD_0673	27	1	oui	NULL	adv	NULL	B_GADV	NOLINK	0	idtext0030	oui	#####	spk2	33.92	34.21	?	//

20091112_RATP_SCD_0673	28	1	Mare	NULL	nc	B_A	B_GN	NOLINK	0	idtext0031	Mare	#####	spk1	34.25	34.46	0.01	/
20091112_RATP_SCD_0673	28	2	on	NULL	cln	NULL	B_GN	SUJ	3	idtext0031	cln	#3##s##	spk1	34.47	34.51	0.01	_
20091112_RATP_SCD_0673	28	3	va	NULL	v	NULL	B_GVf	ROOT	0	idtext0031	aller	P#3##s##	spk1	34.52	34.6	0.01	_
20091112_RATP_SCD_0673	28	4	voir	NULL	vinf	NULL	I_GVf	OBJ	3	idtext0031	voir	W#####	spk1	34.61	34.78	0.01	_
20091112_RATP_SCD_0673	28	5	en	NULL	prep	NULL	B_GP	P_OBJ	3	idtext0031	en	#####	spk1	34.79	34.87	0.01	_
20091112_RATP_SCD_0673	28	6	métro	NULL	nc	NULL	I_GP	OBJ	5	idtext0031	métro	##m#s##	spk1	34.88	35.22	0.01	_
20091112_RATP_SCD_0673	28	7	ce+que	NULL	prorel	NULL	B_NULL	OBJ	9	idtext0031	ce+que	#####	spk1	35.23	35.38	0.01	_
20091112_RATP_SCD_0673	28	8	ça	NULL	pro	NULL	B_GN	SUJ_IMP	9	idtext0031	ça	#####	spk1	35.39	35.53	0.01	_
20091112_RATP_SCD_0673	28	9	donne	NULL	v	NULL	B_GVf	ROOT	0	idtext0031	donner	PS#13##s##	spk1	35.54	35.74	?	_

20091112_RATP_SCD_0673	29	1	parce+que	NULL	csu	NULL	B_NULL	ROOT	0	idtext0032	parce+que	#####	spk2	36.48	36.87	0.01	_
20091112_RATP_SCD_0673	29	2	lui	NULL	pro	NULL	B_GN	SUJ	4	idtext0032	lui	#####	spk2	36.88	37.02	0.01	_
20091112_RATP_SCD_0673	29	3	il	NULL	cln	NULL	B_GN	SUJ	4	idtext0032	cln	#3#m#s##	spk2	37.03	37.34	0.01	_
20091112_RATP_SCD_0673	29	4	prendra	NULL	v	NULL	B_GVf	OBJ	1	idtext0032	prendre	F#3##s##	spk2	37.35	37.65	0.01	_
20091112_RATP_SCD_0673	29	5	peut-être	NULL	adv	NULL	B_GADV	MOD	4	idtext0032	peut-être	#####	spk2	37.66	37.88	0.01	_
20091112_RATP_SCD_0673	29	6	l'	NULL	det	NULL	B_GN	DET	7	idtext0032	le	###s##d	spk2	37.89	37.93	0.01	_
20091112_RATP_SCD_0673	29	7	autobus	NULL	nc	NULL	I_GN	OBJ	4	idtext0032	autobus	##m###	spk2	37.94	38.41	0.01	//
20091112_RATP_SCD_0673	29	8	et	NULL	coo	NULL	B_NULL	COORD	4	idtext0032	et	#####	spk2	38.42	38.45	0.01	_
20091112_RATP_SCD_0673	29	9	moi	NULL	pro	NULL	B_GN	NOLINK	0	idtext0032	moi	#####	spk2	38.46	38.59	0.01	_
20091112_RATP_SCD_0673	29	10	le	NULL	det	NULL	B_GN	DET	11	idtext0032	le	##m#s##d	spk2	38.6	38.7	0.01	_
20091112_RATP_SCD_0673	29	11	métro	NULL	nc	NULL	I_GN	ROOT	0	idtext0032	métro	##m#s##	spk2	38.71	39.13	0.01	_
20091112_RATP_SCD_0673	29	12	euh	DISF_M	pres	NULL	NULL	NOLINK	0	idtext0032	euh	#####	spk2	39.14	39.26	0.01	_
20091112_RATP_SCD_0673	29	13	l'	NULL	det	NULL	B_GN	DET	14	idtext0032	le	###s##d	spk2	39.27	39.37	0.01	_
20091112_RATP_SCD_0673	29	14	autobus	NULL	nc	NULL	I_GN	ROOT	0	idtext0032	autobus	##m###	spk2	39.38	39.78	0.01	_
20091112_RATP_SCD_0673	29	15	moi	NULL	pro	NULL	I_GN	SUJ	17	idtext0032	moi	#####	spk2	39.79	39.91	0.01	_
20091112_RATP_SCD_0673	29	16	je	NULL	cln	NULL	B_GN	SUJ	17	idtext0032	cln	#1##s##	spk2	39.92	39.95	0.01	_
20091112_RATP_SCD_0673	29	17	prendrai	NULL	v	NULL	B_GVf	DEP_COORD	8	idtext0032	prendre	F#1##s##	spk2	39.96	40.25	0.01	_
20091112_RATP_SCD_0673	29	18	le	NULL	det	NULL	B_GN	DET	19	idtext0032	le	##m#s##d	spk2	40.26	40.28	0.01	_
20091112_RATP_SCD_0673	29	19	métro	NULL	nc	NULL	I_GN	OBJ	17	idtext0032	métro	##m#s##	spk2	40.29	40.62	0.01	//
20091112_RATP_SCD_0673	29	20	et	NULL	coo	NULL	B_NULL	COORD	19	idtext0032	et	#####	spk2	40.63	40.65	0.01	_
20091112_RATP_SCD_0673	29	21	lui	NULL	pro	NULL	B_GN	NOLINK	0	idtext0032	lui	#####	spk2	40.66	40.85	0.01	_
20091112_RATP_SCD_0673	29	22	l'	NULL	det	NULL	B_GN	DET	23	idtext0032	le	###s##d	spk2	40.86	40.88	0.01	_
20091112_RATP_SCD_0673	29	23	autobus	NULL	nc	NULL	I_GN	DEP_COORD	20	idtext0032	autobus	##m###	spk2	40.89	41.4	?	//

20091112_RATP_SCD_0673	30	1	un	NULL	det	NULL	B_GN	DET	2	idtext0033	un	##m#s##i	spk1	45.05	45.16	0.01	_
20091112_RATP_SCD_0673	30	2	instant	NULL	nc	NULL	I_GN	ROOT	0	idtext0033	instant	##m#s##	spk1	45.17	45.48	?	//

20091112_RATP_SCD_0673	31	1	oui	NULL	adv	NULL	B_GADV	NOLINK	0	idtext0034	oui	#####	spk2	46.09	46.35	?	//

20091112_RATP_SCD_0673	32	1	alors	NULL	adv	NULL	B_GADV	NOLINK	0	idtext0035	alors	#####	spk1	69.63	70.02	0.01	_
20091112_RATP_SCD_0673	32	2	à	NULL	prep	NULL	B_GP	ROOT	0	idtext0035	à	#####	spk1	70.03	70.05	0.01	_
20091112_RATP_SCD_0673	32	3	Sèvres-Babylone	NULL	nc	B_A	I_GP	OBJ	2	idtext0035	Sèvres-Babylone	#####	spk1	70.06	70.6	0.01	_
20091112_RATP_SCD_0673	32	4	le	NULL	det	NULL	B_GN	DET	5	idtext0035	le	##m#s##d	spk1	70.61	70.74	0.01	_
20091112_RATP_SCD_0673	32	5	métro	NULL	nc	B_T	I_GN	ROOT	0	idtext0035	métro	##m#s##	spk1	70.75	71.04	0.01	_
20091112_RATP_SCD_0673	32	6	ligne	NULL	nc	I_T	I_GN	MOD	5	idtext0035	ligne	##f#s##	spk1	71.05	71.23	0.01	_
20091112_RATP_SCD_0673	32	7	douze	NULL	adj	I_T	I_GN	MOD	6	idtext0035	douze	#####	spk1	71.24	71.57	0.01	/
20091112_RATP_SCD_0673	32	8	jusqu'à	NULL	prep	NULL	B_GP	MOD	5	idtext0035	jusqu'à	#####	spk1	71.58	71.94	0.01	_
20091112_RATP_SCD_0673	32	9	Pigalle	NULL	nc	B_A	I_GP	OBJ	8	idtext0035	Pigalle	#####	spk1	71.95	72.92	?	//

20091112_RATP_SCD_0673	33	1	douze	NULL	nc	NULL	B_GN	ROOT	0	idtext0036	douze	##m###	spk2	73.01	73.48	0.01	_
20091112_RATP_SCD_0673	33	2	Pigalle	NULL	nc	B_A	I_GN	MOD	1	idtext0036	Pigalle	#####	spk2	73.49	74.17	0.01	_
20091112_RATP_SCD_0673	33	3	oui	NULL	adv	NULL	B_GADV	NOLINK	0	idtext0036	oui	#####	spk2	74.18	74.68	?	//

20091112_RATP_SCD_0673	34	1	et	NULL	coo	NULL	B_NULL	ROOT	0	idtext0037	et	#####	spk1	74.85	74.95	0.01	_
20091112_RATP_SCD_0673	34	2	à	NULL	prep	NULL	B_GP	ROOT	0	idtext0037	à	#####	spk1	74.96	75.02	0.01	_
20091112_RATP_SCD_0673	34	3	Pigalle	NULL	nc	B_A	I_GP	OBJ	2	idtext0037	Pigalle	#####	spk1	75.03	75.42	0.01	_
20091112_RATP_SCD_0673	34	4	la	NULL	det	NULL	B_GN	DET	5	idtext0037	le	##m#s##d	spk1	75.43	75.52	0.01	_
20091112_RATP_SCD_0673	34	5	ligne	NULL	nc	B_T	I_GN	DEP_COORD	1	idtext0037	ligne	##f#s##	spk1	75.53	75.87	0.01	_
20091112_RATP_SCD_0673	34	6	deux	NULL	adj	I_T	I_GN	MOD	5	idtext0037	deux	#####	spk1	75.88	76.52	0.01	/
20091112_RATP_SCD_0673	34	7	direction	NULL	nc	NULL	I_GN	MOD	5	idtext0037	direction	##f#s##	spk1	76.53	77.1	0.01	_
20091112_RATP_SCD_0673	34	8	Nation	NULL	nc	B_A	B_GN	NOLINK	0	idtext0037	Nation	#####	spk1	77.11	77.47	0.01	_
20091112_RATP_SCD_0673	34	9	jusqu'à	NULL	prep	NULL	B_GP	ROOT	0	idtext0037	jusqu'à	#####	spk1	77.48	77.79	0.01	_
20091112_RATP_SCD_0673	34	10	Couronnes	NULL	nc	B_A	I_GP	OBJ	9	idtext0037	Couronnes	#####	spk1	77.8	78.37	?	//

20091112_RATP_SCD_0673	35	1	Nation	NULL	nc	B_A	B_GN	ROOT	0	idtext0038	Nation	#####	spk2	79.28	79.62	0.01	_
20091112_RATP_SCD_0673	35	2	jusqu'à	NULL	prep	NULL	B_GP	MOD	1	idtext0038	jusqu'à	#####	spk2	79.63	79.88	0.01	_
20091112_RATP_SCD_0673	35	3	Couronnes	NULL	nc	B_A	I_GP	OBJ	2	idtext0038	Couronnes	#####	spk2	79.89	80.81	?	//

20091112_RATP_SCD_0673	36	1	voilà	DISF_M	pres	NULL	NULL	NOLINK	0	idtext0039	voilà	#####	spk1	80.87	81.2	0.01	_
20091112_RATP_SCD_0673	36	2	et	NULL	coo	NULL	B_NULL	ROOT	0	idtext0039	et	#####	spk1	81.21	81.31	0.01	_
20091112_RATP_SCD_0673	36	3	après	NULL	adv	NULL	B_GADV	NOLINK	0	idtext0039	après	#####	spk1	81.32	81.64	0.01	_
20091112_RATP_SCD_0673	36	4	à	NULL	prep	NULL	B_GP	P_OBJ_LOC	7	idtext0039	à	#####	spk1	81.65	81.72	0.01	_
20091112_RATP_SCD_0673	36	5	Couronnes	NULL	nc	B_A	I_GP	OBJ	4	idtext0039	Couronnes	#####	spk1	81.73	82.19	0.01	_
20091112_RATP_SCD_0673	36	6	on	NULL	cln	NULL	B_GN	SUJ	7	idtext0039	cln	#3##s##	spk1	82.2	82.36	0.01	_
20091112_RATP_SCD_0673	36	7	est	NULL	v	NULL	B_GVf	DEP_COORD	2	idtext0039	être	P#3##s##	spk1	82.37	82.47	0.01	_
20091112_RATP_SCD_0673	36	8	à	NULL	prep	NULL	B_NULL	ATS	7	idtext0039	à	#####	spk1	82.48	83.48	0.01	_
20091112_RATP_SCD_0673	36	9	ah	DISF_M	pres	NULL	NULL	NOLINK	0	idtext0040	ah	#####	spk1	83.49	83.57	0.01	_
20091112_RATP_SCD_0673	36	10	oui	NULL	adv	NULL	B_GADV	MOD	11	idtext0040	oui	#####	spk1	83.58	83.69	0.01	_
20091112_RATP_SCD_0673	36	11	quand+même	NULL	adv	NULL	I_GADV	MOD	7	idtext0040	quand+même	#####	spk1	83.7	84.03	0.01	_
20091112_RATP_SCD_0673	36	12	un	NULL	det	NULL	B_GN	DET	13	idtext0040	un	##m#s##i	spk1	84.04	84.06	0.01	_
20091112_RATP_SCD_0673	36	13	quart	NULL	nc	NULL	I_GN	ATS	7	idtext0040	quart	##m#s##	spk1	84.07	84.26	0.01	_
20091112_RATP_SCD_0673	36	14	d'	NULL	prep	NULL	B_GP	DEP	13	idtext0040	d'	#####	spk1	84.27	84.31	0.01	_
20091112_RATP_SCD_0673	36	15	heure	NULL	nc	NULL	I_GP	OBJ	14	idtext0040	heure	##f#s##	spk1	84.32	84.43	0.01	_
20091112_RATP_SCD_0673	36	16	à	NULL	prep	NULL	B_GP	MOD	15	idtext0040	à	#####	spk1	84.44	84.48	0.01	_
20091112_RATP_SCD_0673	36	17	pied	NULL	nc	NULL	I_GP	OBJ	16	idtext0040	pied	###s##	spk1	84.49	84.74	0.01	_
20091112_RATP_SCD_0673	36	18	hein	DISF_M	pres	NULL	NULL	NOLINK	0	idtext0040	hein	#####	spk1	84.75	84.91	?	//

20091112_RATP_SCD_0673	37	1	ah	DISF_M	pres	NULL	NULL	NOLINK	0	idtext0041	ah	#####	spk2	85.43	85.92	0.01	//
20091112_RATP_SCD_0673	37	2	un	NULL	det	NULL	B_GN	DET	3	idtext0041	un	##m#s##i	spk2	85.93	86.12	0.01	_
20091112_RATP_SCD_0673	37	3	quart	NULL	nc	NULL	I_GN	ROOT	0	idtext0041	quart	##m#s##	spk2	86.13	86.3	?	//

20091112_RATP_SCD_0673	38	1	d'	NULL	prep	NULL	B_GP	ROOT	0	idtext0042	d'	#####	spk2	86.44	86.47	0.01	_
20091112_RATP_SCD_0673	38	2	heure	NULL	nc	NULL	I_GP	OBJ	1	idtext0042	heure	##f#s##	spk2	86.48	86.67	?	//

20091112_RATP_SCD_0673	39	1	sinon	NULL	coo	NULL	B_NULL	NOLINK	0	idtext0043	sinon	#####	spk1	86.34	86.67	?	//

20091112_RATP_SCD_0673	40	1	il	NULL	cln	NULL	B_GN	SUJ_IMP	3	idtext0044	cln	#3#m#s##	spk1	86.71	86.76	0.01	_
20091112_RATP_SCD_0673	40	2	y	NULL	clo	NULL	B_GN	AFF	3	idtext0044	y	#####	spk1	86.77	86.79	0.01	_
20091112_RATP_SCD_0673	40	3	a	NULL	v	NULL	B_GVf	NOLINK	0	idtext0044	avoir	P#3##s##	spk1	86.8	87.34	?	//

20091112_RATP_SCD_0673	41	1	oui	NULL	adv	NULL	B_GADV	NOLINK	0	idtext0045	oui	#####	spk1	87.95	88.11	0.01	_
20091112_RATP_SCD_0673	41	2	oh	DISF_M	pres	NULL	NULL	NOLINK	0	idtext0045	oh	#####	spk1	88.12	88.2	0.01	_
20091112_RATP_SCD_0673	41	3	remarquez	NULL	v	NULL	B_GVf	ROOT	0	idtext0045	remarquer	P#2##p##	spk1	88.21	88.61	0.01	_
20091112_RATP_SCD_0673	41	4	un	NULL	det	NULL	B_GN	DET	5	idtext0045	un	##m#s##i	spk1	88.62	88.72	0.01	_
20091112_RATP_SCD_0673	41	5	quart	NULL	nc	NULL	I_GN	OBJ	3	idtext0045	quart	##m#s##	spk1	88.73	88.95	0.01	_
20091112_RATP_SCD_0673	41	6	d'	NULL	prep	NULL	B_GP	DEP	5	idtext0045	d'	#####	spk1	88.96	89.01	0.01	_
20091112_RATP_SCD_0673	41	7	heure	NULL	nc	NULL	I_GP	OBJ	6	idtext0045	heure	##f#s##	spk1	89.02	89.33	0.01	/
20091112_RATP_SCD_0673	41	8	ça	NULL	pro	NULL	I_GP	SUJ_IMP	9	idtext0045	ça	#####	spk1	89.34	89.41	0.01	_
20091112_RATP_SCD_0673	41	9	fait	NULL	v	NULL	B_GVf	ROOT	0	idtext0045	faire	P#3##s##	spk1	89.42	89.55	0.01	_
20091112_RATP_SCD_0673	41	10	peut-être	NULL	adv	NULL	B_GADV	MOD	11	idtext0045	peut-être	#####	spk1	89.56	89.76	0.01	_
20091112_RATP_SCD_0673	41	11	beaucoup	NULL	adv	NULL	I_GADV	OBJ	9	idtext0045	beaucoup	#####	spk1	89.77	90.16	0.01	_
20091112_RATP_SCD_0673	41	12	hein	DISF_M	pres	NULL	NULL	NOLINK	0	idtext0045	hein	#####	spk1	90.17	90.24	?	//

20091112_RATP_SCD_0673	42	1	oui	NULL	adv	NULL	B_GADV	NOLINK	0	idtext0046	oui	#####	spk2	90.76	90.94	0.01	/
20091112_RATP_SCD_0673	42	2	ça	NULL	pro	NULL	B_GN	SUJ_IMP	3	idtext0046	ça	#####	spk2	90.95	91.05	0.01	_
20091112_RATP_SCD_0673	42	3	faut	NULL	v	NULL	B_GVf	ROOT	0	idtext0046	falloir	P#3##s##	spk2	91.06	91.27	0.01	_
20091112_RATP_SCD_0673	42	4	beaucoup	NULL	adv	NULL	B_GADV	MOD	3	idtext0046	beaucoup	#####	spk2	91.28	92.01	?	_

20091112_RATP_SCD_0673	43	1	euh	DISF_M	pres	NULL	NULL	NOLINK	0	idtext0047	euh	#####	spk1	92.05	92.34	0.01	_
20091112_RATP_SCD_0673	43	2	attendez	NULL	v	NULL	B_GVf	ROOT	0	idtext0047	attendre	P#2##p##	spk1	92.35	92.64	0.01	_
20091112_RATP_SCD_0673	43	3	voir	NULL	vinf	NULL	I_GVf	OBJ	2	idtext0047	voir	W#####	spk1	92.65	92.8	0.01	_
20091112_RATP_SCD_0673	43	4	que	NULL	csu	NULL	B_NULL	NOLINK	0	idtext0047	que	#####	spk1	92.81	92.92	0.01	_
20091112_RATP_SCD_0673	43	5	je	NULL	cln	NULL	B_GN	SUJ	6	idtext0047	cln	#1##s##	spk1	92.93	93.06	0.01	_
20091112_RATP_SCD_0673	43	6	regarde	NULL	v	NULL	B_GVf	OBJ	4	idtext0047	regarder	PS#13##s##	spk1	93.07	93.83	0.01	_
20091112_RATP_SCD_0673	43	7	à	NULL	prep	NULL	B_GP	MOD	6	idtext0048	à	#####	spk1	93.84	93.9	0.01	_
20091112_RATP_SCD_0673	43	8	pied	NULL	nc	NULL	I_GP	OBJ	7	idtext0048	pied	###s##	spk1	93.91	94.29	0.01	/
20091112_RATP_SCD_0673	43	9	ce+que	NULL	prorel	NULL	B_NULL	MOD	10	idtext0048	ce+que	#####	spk1	94.3	94.5	0.01	_
20091112_RATP_SCD_0673	43	10	ça	NULL	pro	NULL	B_GN	OBJ	2	idtext0048	ça	#####	spk1	94.51	94.73	?	_

20091112_RATP_SCD_0673	44	1	donne	NULL	v	NULL	B_GVf	NOLINK	0	idtext0049	donner	PS#13##s##	spk1	94.79	95.35	?	//

20091112_RATP_SCD_0673	45	1	et	NULL	coo	NULL	B_NULL	NOLINK	0	idtext0050	et	#####	spk2	94.83	95.35	?	_

20091112_RATP_SCD_0673	46	1	par	NULL	prep	NULL	B_GP	MOD	5	idtext0051	par	#####	spk2	95.39	95.5	0.01	_
20091112_RATP_SCD_0673	46	2	Trinité	NULL	nc	B_A	I_GP	OBJ	1	idtext0051	Trinité	#####	spk2	95.51	96.08	0.01	_
20091112_RATP_SCD_0673	46	3	il	NULL	cln	NULL	B_GN	SUJ_IMP	5	idtext0051	cln	#3#m#s##	spk2	96.09	96.14	0.01	_
20091112_RATP_SCD_0673	46	4	y	NULL	clo	NULL	B_GN	AFF	5	idtext0051	y	#####	spk2	96.15	96.17	0.01	_
20091112_RATP_SCD_0673	46	5	a	NULL	v	NULL	B_GVf	ROOT	0	idtext0051	avoir	P#3##s##	spk2	96.18	96.3	0.01	_
20091112_RATP_SCD_0673	46	6	rien	NULL	pro	NULL	I_GP	OBJ	5	idtext0051	rien	#####	spk2	96.31	96.65	?	_

20091112_RATP_SCD_0673	47	1	non	NULL	adv	NULL	B_GADV	NOLINK	0	idtext0052	non	#####	spk1	97.72	98.13	0.01	_
20091112_RATP_SCD_0673	47	2	sinon	NULL	coo	NULL	B_NULL	ROOT	0	idtext0052	sinon	#####	spk1	98.14	98.39	0.01	_
20091112_RATP_SCD_0673	47	3	après	NULL	adv	NULL	B_GADV	NOLINK	0	idtext0052	après	#####	spk1	98.4	98.73	0.01	_
20091112_RATP_SCD_0673	47	4	il	NULL	cln	NULL	B_GN	SUJ_IMP	5	idtext0052	cln	#3#m#s##	spk1	98.74	98.81	0.01	_
20091112_RATP_SCD_0673	47	5	faut	NULL	v	NULL	B_GVf	DEP_COORD	2	idtext0052	falloir	P#3##s##	spk1	98.82	98.97	0.01	_
20091112_RATP_SCD_0673	47	6	passer	NULL	vinf	NULL	I_GVf	OBJ	5	idtext0052	passer	W#####	spk1	98.98	99.36	0.01	_
20091112_RATP_SCD_0673	47	7	par	NULL	prep	NULL	B_NULL	NOLINK	0	idtext0052	par	#####	spk1	99.37	99.7	0.01	_
20091112_RATP_SCD_0673	47	8	euh	DISF_M	pres	NULL	NULL	NOLINK	0	idtext0052	euh	#####	spk1	99.71	99.75	0.01	_
20091112_RATP_SCD_0673	47	9	hum	DISF_M	pres	NULL	NULL	NOLINK	0	idtext0052	hum	#####	spk1	99.76	100.6	?	_

20091112_RATP_SCD_0673	48	1	attendez	NULL	v	NULL	B_GVf	NOLINK	0	idtext0053	attendre	P#2##p##	spk1	102.13	102.42	0.01	_
20091112_RATP_SCD_0673	48	2	je	NULL	cln	NULL	B_GN	SUJ	3	idtext0053	cln	#1##s##	spk1	102.43	102.48	0.01	_
20091112_RATP_SCD_0673	48	3	regarde	NULL	v	NULL	B_GVf	ROOT	0	idtext0053	regarder	PS#13##s##	spk1	102.49	102.68	0.01	_
20091112_RATP_SCD_0673	48	4	je	NULL	cln	NULL	B_GN	SUJ	5	idtext0053	cln	#1##s##	spk1	102.69	102.78	0.01	_
20091112_RATP_SCD_0673	48	5	fais	NULL	v	NULL	B_GVf	ROOT	0	idtext0053	faire	P#12##s##	spk1	102.79	102.88	0.01	_
20091112_RATP_SCD_0673	48	6	quelque+chose	NULL	pro	NULL	B_GN	OBJ	5	idtext0053	quelque+chose	#####	spk1	102.89	103.43	0.01	_
20091112_RATP_SCD_0673	48	7	que	NULL	prorel	NULL	B_NULL	OBJ	9	idtext0053	que	#####	spk1	103.44	103.57	0.01	_
20091112_RATP_SCD_0673	48	8	je	NULL	cln	NULL	B_GN	SUJ	9	idtext0053	cln	#1##s##	spk1	103.58	103.69	0.01	_
20091112_RATP_SCD_0673	48	9	peux	NULL	v	NULL	B_GVf	MOD_REL	6	idtext0053	pouvoir	P#12##s##	spk1	103.7	103.83	0.01	_
20091112_RATP_SCD_0673	48	10	pas	NULL	advneg	NULL	B_GVin	MOD	11	idtext0053	pas	#####	spk1	103.84	103.98	0.01	_
20091112_RATP_SCD_0673	48	11	faire	NULL	vinf	NULL	I_GVin	OBJ	9	idtext0053	faire	W#####	spk1	103.99	104.19	0.01	_
20091112_RATP_SCD_0673	48	12	deux	NULL	adj	NULL	B_GN	MOD	13	idtext0053	deux	#####	spk1	104.2	104.45	0.01	_
20091112_RATP_SCD_0673	48	13	choses	NULL	nc	NULL	I_GN	OBJ	11	idtext0053	chose	##f#p##	spk1	104.46	104.82	0.01	/
20091112_RATP_SCD_0673	48	14	en+même+temps	NULL	adv	NULL	B_GADV	MOD	11	idtext0053	en+même+temps	#####	spk1	104.83	105.28	0.01	_
20091112_RATP_SCD_0673	48	15	c'est-à-dire	NULL	coo	NULL	B_NULL	COORD	9	idtext0053	c'est-à-dire	#####	spk1	105.29	105.48	0.01	_
20091112_RATP_SCD_0673	48	16	que	NULL	csu	NULL	B_NULL	OBJ	15	idtext0053	que	#####	spk1	105.49	105.51	0.01	_
20091112_RATP_SCD_0673	48	17	je	NULL	cln	NULL	B_GN	SUJ	18	idtext0053	cln	#1##s##	spk1	105.52	105.56	0.01	_
20091112_RATP_SCD_0673	48	18	peux	NULL	v	NULL	B_GVfn	OBJ	16	idtext0053	pouvoir	P#12##s##	spk1	105.57	105.64	0.01	_
20091112_RATP_SCD_0673	48	19	avoir	NULL	vinf	NULL	I_GVfn	OBJ	18	idtext0053	avoir	W#####	spk1	105.65	105.84	0.01	_
20091112_RATP_SCD_0673	48	20	qu'	NULL	advneg	NULL	I_GVfn	MOD	19	idtext0053	qu'	#####	spk1	105.85	105.9	0.01	_
20091112_RATP_SCD_0673	48	21	un	NULL	det	NULL	B_GN	DET	23	idtext0053	un	##m#s##i	spk1	105.91	105.96	0.01	_
20091112_RATP_SCD_0673	48	22	seul	NULL	adj	NULL	I_GN	MOD	23	idtext0053	seul	##m#s##	spk1	105.97	106.17	0.01	_
20091112_RATP_SCD_0673	48	23	écran	NULL	nc	NULL	I_GN	OBJ	19	idtext0053	écran	##m#s##	spk1	106.18	106.55	?	//

20091112_RATP_SCD_0673	49	1	d'accord	NULL	adv	NULL	B_GADV	NOLINK	0	idtext0054	d'accord	#####	spk2	107.16	107.79	?	//

20091112_RATP_SCD_0673	50	1	donc	NULL	coo	NULL	B_NULL	ROOT	0	idtext0055	donc	#####	spk1	107.83	107.99	0.01	_
20091112_RATP_SCD_0673	50	2	là	NULL	adv	NULL	B_GADV	MOD	3	idtext0055	là	#####	spk1	108.0	108.18	0.01	_
20091112_RATP_SCD_0673	50	3	oui	NULL	adv	NULL	I_GADV	ROOT	0	idtext0055	oui	#####	spk1	108.19	108.36	0.01	_
20091112_RATP_SCD_0673	50	4	il	NULL	cln	NULL	B_GN	SUJ_IMP	6	idtext0055	cln	#3#m#s##	spk1	108.37	108.42	0.01	_
20091112_RATP_SCD_0673	50	5	y	NULL	clo	NULL	B_GN	AFF	6	idtext0055	y	#####	spk1	108.43	108.46	0.01	_
20091112_RATP_SCD_0673	50	6	a	NULL	v	NULL	B_GVf	DEP_COORD	1	idtext0055	avoir	P#3##s##	spk1	108.47	108.53	0.01	_
20091112_RATP_SCD_0673	50	7	dix	NULL	adj	NULL	I_GP	MOD	8	idtext0055	dix	#####	spk1	108.54	108.72	0.01	_
20091112_RATP_SCD_0673	50	8	minutes	NULL	nc	NULL	I_GP	OBJ	6	idtext0055	minute	##f#p##	spk1	108.73	109.05	0.01	_
20091112_RATP_SCD_0673	50	9	à	NULL	prep	NULL	B_GP	MOD	8	idtext0055	à	#####	spk1	109.06	109.11	0.01	_
20091112_RATP_SCD_0673	50	10	pied	NULL	nc	NULL	I_GP	OBJ	9	idtext0055	pied	###s##	spk1	109.12	109.38	?	//

20091112_RATP_SCD_0673	51	1	euh	DISF_M	pres	NULL	NULL	NOLINK	0	idtext0056	euh	#####	spk2	110.16	110.18	0.01	_
20091112_RATP_SCD_0673	51	2	de	DISF_R	prep	NULL	NULL	NOLINK	0	idtext0056	de	#####	spk2	110.19	110.93	0.01	_
20091112_RATP_SCD_0673	51	3	en	NULL	clo	NULL	B_GN	NOLINK	0	idtext0056	en	#####	spk2	110.94	111.14	?	_

20091112_RATP_SCD_0673	52	1	descendant	NULL	vprespart	NULL	B_GVf	ROOT	0	idtext0057	descendre	G#####	spk2	111.21	111.58	0.01	_
20091112_RATP_SCD_0673	52	2	à	NULL	prep	NULL	B_GP	P_OBJ_LOC	1	idtext0057	à	#####	spk2	111.59	111.68	0.01	_
20091112_RATP_SCD_0673	52	3	Couronnes	NULL	nc	B_A	I_GP	OBJ	2	idtext0057	Couronnes	#####	spk2	111.69	112.2	?	//

20091112_RATP_SCD_0673	53	1	de	DISF_R	prep	NULL	NULL	NOLINK	0	idtext0058	de	#####	spk1	111.21	111.5	0.01	_
20091112_RATP_SCD_0673	53	2	de	NULL	prep	NULL	B_GP	ROOT	0	idtext0058	de	#####	spk1	111.51	111.69	0.01	_
20091112_RATP_SCD_0673	53	3	Couronnes	NULL	nc	B_A	I_GP	OBJ	2	idtext0058	Couronnes	#####	spk1	111.7	112.2	?	//

20091112_RATP_SCD_0673	54	1	d'accord	NULL	adv	NULL	B_GADV	MOD	2	idtext0059	d'accord	#####	spk2	112.87	113.37	0.01	_
20091112_RATP_SCD_0673	54	2	OK	NULL	adv	NULL	I_GADV	ROOT	0	idtext0059	ok	#####	spk2	113.38	113.99	?	//

20091112_RATP_SCD_0673	55	1	euh	DISF_M	pres	NULL	NULL	NOLINK	0	idtext0060	euh	#####	spk1	112.89	112.96	0.01	_
20091112_RATP_SCD_0673	55	2	après	NULL	adv	NULL	B_GADV	NOLINK	0	idtext0060	après	#####	spk1	112.97	113.29	0.01	_
20091112_RATP_SCD_0673	55	3	il	NULL	cln	NULL	B_GN	SUJ_IMP	5	idtext0060	cln	#3#m#s##	spk1	113.3	113.35	0.01	_
20091112_RATP_SCD_0673	55	4	y	NULL	clo	NULL	B_GN	AFF	5	idtext0060	y	#####	spk1	113.36	113.39	0.01	_
20091112_RATP_SCD_0673	55	5	a	NULL	v	NULL	B_GVf	ROOT	0	idtext0060	avoir	P#3##s##	spk1	113.4	113.55	0.01	_
20091112_RATP_SCD_0673	55	6	plus	NULL	adv	NULL	B_GADV	MOD	7	idtext0060	plus	#####	spk1	113.56	113.67	0.01	_
20091112_RATP_SCD_0673	55	7	près	NULL	adv	NULL	I_GADV	OBJ	5	idtext0060	près	#####	spk1	113.68	113.99	?	_

20091112_RATP_SCD_0673	56	1	c'	NULL	cln	NULL	B_GN	SUJ_IMP	2	idtext0061	ce	###s##	spk1	114.09	114.19	0.01	_
20091112_RATP_SCD_0673	56	2	est	NULL	v	NULL	B_GVf	ROOT	0	idtext0061	être	P#3##s##	spk1	114.2	114.39	0.01	_
20091112_RATP_SCD_0673	56	3	euh	DISF_M	pres	NULL	NULL	NOLINK	0	idtext0061	euh	#####	spk1	114.4	114.73	0.01	_
20091112_RATP_SCD_0673	56	4	Pyrénées	NULL	nc	B_A	B_GN	ATS	2	idtext0061	Pyrénées	##f#p##	spk1	114.74	115.43	?	//

20091112_RATP_SCD_0673	57	1	mais	NULL	coo	NULL	B_NULL	ROOT	0	idtext0062	mais	#####	spk1	116.1	116.41	0.01	_
20091112_RATP_SCD_0673	57	2	Pyrénées	NULL	nc	B_A	B_GN	DEP_COORD	1	idtext0062	Pyrénées	##f#p##	spk1	116.42	116.85	?	//

20091112_RATP_SCD_0673	58	1	oui	NULL	adv	NULL	B_GADV	NOLINK	0	idtext0063	oui	#####	spk2	116.11	116.85	?	//

20091112_RATP_SCD_0673	59	1	il	NULL	cln	NULL	B_GN	SUJ_IMP	2	idtext0064	cln	#3#m#s##	spk1	116.89	116.94	0.01	_
20091112_RATP_SCD_0673	59	2	faut	NULL	v	NULL	B_GVf	ROOT	0	idtext0064	falloir	P#3##s##	spk1	116.95	117.0	0.01	_
20091112_RATP_SCD_0673	59	3	prendre	NULL	vinf	NULL	I_GVf	OBJ	2	idtext0064	prendre	W#####	spk1	117.01	117.27	0.01	_
20091112_RATP_SCD_0673	59	4	trois	NULL	det	NULL	B_GN	DET	5	idtext0064	trois	#####	spk1	117.28	117.58	0.01	_
20091112_RATP_SCD_0673	59	5	métros	NULL	nc	NULL	I_GN	OBJ	3	idtext0064	métro	##m#p##	spk1	117.59	117.98	?	//

20091112_RATP_SCD_0673	60	1	ah	DISF_M	pres	NULL	NULL	NOLINK	0	idtext0065	ah	#####	spk2	118.79	118.96	0.01	_
20091112_RATP_SCD_0673	60	2	oui	NULL	adv	NULL	B_GADV	NOLINK	0	idtext0065	oui	#####	spk2	118.97	119.13	?	_

20091112_RATP_SCD_0673	61	1	ça	NULL	pro	NULL	B_GN	SUJ_IMP	2	idtext0066	ça	#####	spk1	119.17	119.22	0.01	_
20091112_RATP_SCD_0673	61	2	veut	NULL	v	NULL	B_GVf	ROOT	0	idtext0066	vouloir	P#3##s##	spk1	119.23	119.28	0.01	_
20091112_RATP_SCD_0673	61	3	dire	NULL	vinf	NULL	I_GVf	OBJ	2	idtext0066	dire	W#####	spk1	119.29	119.42	0.01	_
20091112_RATP_SCD_0673	61	4	qu'	NULL	csu	NULL	B_NULL	OBJ	3	idtext0066	qu'	#####	spk1	119.43	119.45	0.01	_
20091112_RATP_SCD_0673	61	5	il	NULL	cln	NULL	B_GN	SUJ_IMP	7	idtext0066	cln	#3#m#s##	spk1	119.46	119.51	0.01	_
20091112_RATP_SCD_0673	61	6	y	NULL	clo	NULL	B_GN	AFF	7	idtext0066	y	#####	spk1	119.52	119.54	0.01	_
20091112_RATP_SCD_0673	61	7	a	NULL	v	NULL	B_GVf	OBJ	4	idtext0066	avoir	P#3##s##	spk1	119.55	119.6	0.01	_
20091112_RATP_SCD_0673	61	8	deux	NULL	det	NULL	B_GN	DET	9	idtext0066	deux	#####	spk1	119.61	119.82	0.01	_
20091112_RATP_SCD_0673	61	9	correspondances	NULL	nc	NULL	I_GN	OBJ	7	idtext0066	correspondance	##f#p##	spk1	119.83	120.8	?	//

20091112_RATP_SCD_0673	62	1	c'est-à-dire	NULL	coo	NULL	B_NULL	NOLINK	0	idtext0067	c'est-à-dire	#####	spk2	121.29	122.19	?	_

20091112_RATP_SCD_0673	63	1	alors	NULL	adv	NULL	B_GADV	NOLINK	0	idtext0068	alors	#####	spk1	122.23	122.51	0.01	_
20091112_RATP_SCD_0673	63	2	c'est-à-dire	NULL	coo	NULL	B_NULL	ROOT	0	idtext0068	c'est-à-dire	#####	spk1	122.52	123.3	0.01	_
20091112_RATP_SCD_0673	63	3	une	NULL	det	NULL	B_GN	DET	5	idtext0068	un	##f#s##i	spk1	123.31	123.45	0.01	_
20091112_RATP_SCD_0673	63	4	première	NULL	adj	NULL	I_GN	MOD	5	idtext0068	premier	##f#s##	spk1	123.46	123.81	0.01	_
20091112_RATP_SCD_0673	63	5	correspondance	NULL	nc	NULL	I_GN	OBJ	2	idtext0068	correspondance	##f#s##	spk1	123.82	124.46	0.01	_
20091112_RATP_SCD_0673	63	6	à	NULL	prep	NULL	B_GP	P_OBJ_LOC	5	idtext0068	à	#####	spk1	124.47	124.57	0.01	_
20091112_RATP_SCD_0673	63	7	Concorde	NULL	nc	B_A	I_GP	OBJ	6	idtext0068	Concorde	##m#s##	spk1	124.58	125.26	?	//

20091112_RATP_SCD_0673	64	1	ah	DISF_M	pres	NULL	NULL	NOLINK	0	idtext0069	ah	#####	spk2	125.8	125.97	0.01	_
20091112_RATP_SCD_0673	64	2	oui	NULL	adv	NULL	B_GADV	NOLINK	0	idtext0069	oui	#####	spk2	125.98	126.29	?	_

20091112_RATP_SCD_0673	65	1	d'accord	NULL	adv	NULL	B_GADV	NOLINK	0	idtext0070	d'accord	#####	spk2	126.33	126.9	?	//

20091112_RATP_SCD_0673	66	1	ensuite	NULL	adv	NULL	B_GADV	NOLINK	0	idtext0071	ensuite	#####	spk1	126.46	126.9	?	//

20091112_RATP_SCD_0673	67	1	la	NULL	det	NULL	B_GN	DET	2	idtext0072	le	##m#s##d	spk1	126.94	127.17	0.01	/
20091112_RATP_SCD_0673	67	2	une	NULL	nc	NULL	I_GN	ROOT	0	idtext0072	une	##f#s##	spk1	127.18	127.46	0.01	_
20091112_RATP_SCD_0673	67	3	jusqu'à	NULL	prep	NULL	B_GP	DEP	2	idtext0072	jusqu'à	#####	spk1	127.47	127.85	0.01	_
20091112_RATP_SCD_0673	67	4	Châtelet	NULL	nc	B_A	I_GP	OBJ	3	idtext0072	Châtelet	#####	spk1	127.86	128.48	?	//

20091112_RATP_SCD_0673	68	1	une	NULL	det	NULL	B_GN	DET	2	idtext0073	un	##f#s##i	spk2	129.25	129.49	0.01	_
20091112_RATP_SCD_0673	68	2	Châtelet	NULL	nc	B_A	I_GN	ROOT	0	idtext0073	Châtelet	#####	spk2	129.5	129.96	?	//

20091112_RATP_SCD_0673	69	1	oui	NULL	adv	NULL	B_GADV	NOLINK	0	idtext0074	oui	#####	spk2	130.07	130.98	?	//

20091112_RATP_SCD_0673	70	1	et	NULL	coo	NULL	B_NULL	ROOT	0	idtext0075	et	#####	spk1	130.11	130.32	0.01	_
20091112_RATP_SCD_0673	70	2	Châtelet	NULL	nc	B_A	B_GN	DEP_COORD	1	idtext0075	Châtelet	#####	spk1	130.33	130.98	?	/

20091112_RATP_SCD_0673	71	1	euh	DISF_M	pres	NULL	NULL	NOLINK	0	idtext0076	euh	#####	spk1	131.02	131.17	0.01	_
20091112_RATP_SCD_0673	71	2	correspondance	NULL	nc	NULL	B_GN	ROOT	0	idtext0076	correspondance	##f#s##	spk1	131.18	131.72	0.01	_
20091112_RATP_SCD_0673	71	3	avec	NULL	prep	NULL	B_GP	P_OBJ	2	idtext0076	avec	#####	spk1	131.73	131.92	0.01	_
20091112_RATP_SCD_0673	71	4	la	NULL	det	NULL	I_GP	DET	5	idtext0076	le	##m#s##d	spk1	131.93	132.12	0.01	_
20091112_RATP_SCD_0673	71	5	onze	NULL	nc	B_T	I_GP	OBJ	3	idtext0076	onze	##m###	spk1	132.13	132.46	0.01	_
20091112_RATP_SCD_0673	71	6	jusqu'à	NULL	prep	NULL	B_GP	ROOT	0	idtext0076	jusqu'à	#####	spk1	132.47	132.79	0.01	_
20091112_RATP_SCD_0673	71	7	Pyrénées	NULL	nc	B_A	I_GP	OBJ	6	idtext0076	Pyrénées	##f#p##	spk1	132.8	133.45	?	//

20091112_RATP_SCD_0673	72	1	onze	NULL	nc	NULL	B_GN	ROOT	0	idtext0077	onze	##m###	spk2	134.62	134.89	0.01	_
20091112_RATP_SCD_0673	72	2	Pyrénées	NULL	nc	B_A	I_GN	MOD	1	idtext0077	Pyrénées	##f#p##	spk2	134.9	136.0	0.01	_
20091112_RATP_SCD_0673	72	3	je	NULL	cln	NULL	B_GN	SUJ	5	idtext0078	cln	#1##s##	spk2	136.01	136.11	0.01	_
20091112_RATP_SCD_0673	72	4	vous	NULL	clo	NULL	B_GN	OBJ	5	idtext0078	cln	#2##p##	spk2	136.12	136.17	0.01	_
20091112_RATP_SCD_0673	72	5	remercie	NULL	v	NULL	B_GVf	ROOT	0	idtext0078	remercier	PS#13##s##	spk2	136.18	136.6	0.01	_
20091112_RATP_SCD_0673	72	6	monsieur	NULL	nc	NULL	B_GN	NOLINK	0	idtext0078	Monsieur	##m#s##	spk2	136.61	137.31	?	//

20091112_RATP_SCD_0673	73	1	et	NULL	coo	NULL	B_NULL	ROOT	0	idtext0079	et	#####	spk1	137.84	137.94	0.01	_
20091112_RATP_SCD_0673	73	2	quand	NULL	csu	NULL	B_NULL	MOD	8	idtext0079	quand	#####	spk1	137.95	138.13	0.01	_
20091112_RATP_SCD_0673	73	3	on	NULL	cln	NULL	B_GN	SUJ	4	idtext0079	cln	#3##s##	spk1	138.14	138.29	0.01	_
20091112_RATP_SCD_0673	73	4	est	NULL	v	NULL	B_GVf	OBJ	2	idtext0079	être	P#3##s##	spk1	138.3	138.42	0.01	_
20091112_RATP_SCD_0673	73	5	à	NULL	prep	NULL	B_GP	P_OBJ_LOC	4	idtext0079	à	#####	spk1	138.43	138.47	0.01	_
20091112_RATP_SCD_0673	73	6	Pyrénées	NULL	nc	B_A	I_GP	OBJ	5	idtext0079	Pyrénées	##f#p##	spk1	138.48	139.12	0.01	_
20091112_RATP_SCD_0673	73	7	on	NULL	cln	NULL	B_GN	SUJ	8	idtext0079	cln	#3##s##	spk1	139.13	139.36	0.01	_
20091112_RATP_SCD_0673	73	8	a	NULL	v	NULL	B_GVf	DEP_COORD	1	idtext0079	avoir	P#3##s##	spk1	139.37	139.7	0.01	_
20091112_RATP_SCD_0673	73	9	dix	NULL	det	NULL	B_GN	DET	10	idtext0079	dix	#####	spk1	139.71	139.84	0.01	_
20091112_RATP_SCD_0673	73	10	minutes	NULL	nc	NULL	I_GN	OBJ	8	idtext0079	minute	##f#p##	spk1	139.85	140.14	0.01	_
20091112_RATP_SCD_0673	73	11	à	NULL	prep	NULL	B_GP	MOD	10	idtext0079	à	#####	spk1	140.15	140.19	0.01	_
20091112_RATP_SCD_0673	73	12	pied	NULL	nc	NULL	I_GP	OBJ	11	idtext0079	pied	###s##	spk1	140.2	140.34	0.01	_
20091112_RATP_SCD_0673	73	13	toujours	NULL	adv	NULL	B_GADV	NOLINK	0	idtext0079	toujours	#####	spk1	140.35	140.81	?	//

20091112_RATP_SCD_0673	74	1	dix	NULL	adj	NULL	B_GN	MOD	2	idtext0080	dix	#####	spk2	140.98	141.06	0.01	_
20091112_RATP_SCD_0673	74	2	minutes	NULL	nc	NULL	I_GN	ROOT	0	idtext0080	minute	##f#p##	spk2	141.07	141.34	0.01	_
20091112_RATP_SCD_0673	74	3	à	NULL	prep	NULL	B_GP	MOD	2	idtext0080	à	#####	spk2	141.35	141.56	0.01	_
20091112_RATP_SCD_0673	74	4	pied	NULL	nc	NULL	I_GP	OBJ	3	idtext0080	pied	###s##	spk2	141.57	141.77	0.01	_
20091112_RATP_SCD_0673	74	5	très+bien	NULL	adv	NULL	B_GADV	NOLINK	0	idtext0080	très+bien	#####	spk2	141.78	142.21	?	//

20091112_RATP_SCD_0673	75	1	merci	NULL	adv	NULL	B_GADV	NOLINK	0	idtext0081	merci	#####	spk2	142.53	143.2	?	//

20091112_RATP_SCD_0673	76	1	et	NULL	coo	NULL	B_NULL	ROOT	0	idtext0082	et	#####	spk2	143.26	143.28	0.01	_
20091112_RATP_SCD_0673	76	2	je	NULL	cln	NULL	B_GN	SUJ	4	idtext0082	cln	#1##s##	spk2	143.29	143.37	0.01	_
20091112_RATP_SCD_0673	76	3	vous	NULL	clo	NULL	B_GN	A_OBJ	4	idtext0082	cln	#2##p##	spk2	143.38	143.56	0.01	_
20091112_RATP_SCD_0673	76	4	souhaite	NULL	v	NULL	B_GVf	DEP_COORD	1	idtext0082	souhaiter	PS#13##s##	spk2	143.57	143.91	?	//

20091112_RATP_SCD_0673	77	1	bonne	NULL	adj	NULL	B_GN	MOD	2	idtext0083	bon	##f#s##	spk1	143.25	143.43	0.01	_
20091112_RATP_SCD_0673	77	2	journée	NULL	nc	NULL	I_GN	ROOT	0	idtext0083	journée	##f#s##	spk1	143.44	143.91	?	//

20091112_RATP_SCD_0673	78	1	un	NULL	det	NULL	B_GADJ	NOLINK	0	idtext0084	un	##m#s##i	spk2	143.95	144.06	0.01	_
20091112_RATP_SCD_0673	78	2	bon	NULL	adj	NULL	I_GADJ	NOLINK	0	idtext0084	bon	##m#s##	spk2	144.07	144.23	?	_

20091112_RATP_SCD_0673	79	1	après-midi	NULL	nc	NULL	B_GN	NOLINK	0	idtext0085	après-midi	###s##	spk2	144.27	144.73	0.01	_
20091112_RATP_SCD_0673	79	2	au+revoir	NULL	adv	NULL	B_GADV	NOLINK	0	idtext0085	au+revoir	#####	spk2	144.74	145.37	?	//

20091112_RATP_SCD_0673	80	1	merci	NULL	adv	NULL	B_GADV	NOLINK	0	idtext0086	merci	#####	spk1	144.5	145.01	0.01	//
20091112_RATP_SCD_0673	80	2	vous	NULL	pro	NULL	B_GN	NOLINK	0	idtext0086	vous	#####	spk1	145.02	145.09	0.01	_
20091112_RATP_SCD_0673	80	3	aussi	NULL	adv	NULL	B_GADV	NOLINK	0	idtext0086	aussi	#####	spk1	145.1	145.37	?	_

20091112_RATP_SCD_0673	81	1	au+revoir	NULL	adv	NULL	B_GADV	NOLINK	0	idtext0087	au+revoir	#####	spk1	145.41	145.88	?	//

