20091112_RATP_SCD_1242	1	1	NNAAMMEE	NULL	np	B_HU	B_GN	ROOT	0	idtext0000	ANONYM	NULL	spk1	4.13	4.43	0.04	_
20091112_RATP_SCD_1242	1	2	bonsoir	NULL	nc	NULL	B_GN	NOLINK	0	idtext0001	bonsoir	##m#s##	spk1	4.47	4.91	?	//

20091112_RATP_SCD_1242	2	1	NNAAMMEE	NULL	np	B_HU	B_GN	ROOT	0	idtext0002	ANONYM	NULL	spk1	6.02	6.33	0.04	_
20091112_RATP_SCD_1242	2	2	bonsoir	NULL	nc	NULL	B_GN	NOLINK	0	idtext0003	bonsoir	##m#s##	spk1	6.37	6.75	?	//

20091112_RATP_SCD_1242	3	1	oui	NULL	adv	NULL	B_GADV	NOLINK	0	idtext0004	oui	#####	spk2	7.32	7.47	0.01	_
20091112_RATP_SCD_1242	3	2	bonsoir	NULL	nc	NULL	B_GN	NOLINK	0	idtext0004	bonsoir	##m#s##	spk2	7.48	7.98	?	//

20091112_RATP_SCD_1242	4	1	je	NULL	cln	NULL	B_GN	SUJ	3	idtext0005	cln	#1##s##	spk2	8.02	8.09	0.01	_
20091112_RATP_SCD_1242	4	2	vous	NULL	clo	NULL	B_GN	A_OBJ	3	idtext0005	cln	#2##p##	spk2	8.1	8.19	0.01	_
20091112_RATP_SCD_1242	4	3	téléphone	NULL	v	NULL	B_GVf	ROOT	0	idtext0005	téléphoner	PS#13##s##	spk2	8.2	8.67	0.01	_
20091112_RATP_SCD_1242	4	4	pour	NULL	prep	NULL	B_GP	MOD	3	idtext0005	pour	#####	spk2	8.68	8.84	0.01	_
20091112_RATP_SCD_1242	4	5	savoir	NULL	vinf	NULL	I_GP	OBJ	4	idtext0005	savoir	W#####	spk2	8.85	9.22	0.01	_
20091112_RATP_SCD_1242	4	6	si	NULL	csu	NULL	B_NULL	OBJ	5	idtext0005	si	#####	spk2	9.23	9.39	0.01	_
20091112_RATP_SCD_1242	4	7	demain	NULL	adv	NULL	B_GADV	MOD	10	idtext0005	demain	#####	spk2	9.4	9.84	0.01	_
20091112_RATP_SCD_1242	4	8	il	NULL	cln	NULL	B_GN	SUJ_IMP	10	idtext0005	cln	#3#m#s##	spk2	9.85	9.95	0.01	_
20091112_RATP_SCD_1242	4	9	y	NULL	clo	NULL	B_GN	AFF	10	idtext0005	y	#####	spk2	9.96	10.02	0.01	_
20091112_RATP_SCD_1242	4	10	a	NULL	v	NULL	B_GVf	OBJ	6	idtext0005	avoir	P#3##s##	spk2	10.03	10.23	0.01	_
20091112_RATP_SCD_1242	4	11	des	NULL	det	NULL	B_GN	DET	12	idtext0005	des	###p##i	spk2	10.24	10.43	0.01	_
20091112_RATP_SCD_1242	4	12	grèves	NULL	nc	NULL	I_GN	OBJ	10	idtext0005	grève	##f#p##	spk2	10.44	10.71	0.01	_
20091112_RATP_SCD_1242	4	13	qui	NULL	prorel	NULL	B_NULL	SUJ	15	idtext0005	qui	#####	spk2	10.72	10.85	0.01	_
20091112_RATP_SCD_1242	4	14	sont	NULL	v	NULL	B_GVf	AUX	15	idtext0005	être	P#3##p##	spk2	10.86	11.0	0.01	_
20091112_RATP_SCD_1242	4	15	prévues	NULL	vppart	NULL	I_GVf	MOD_REL	12	idtext0005	prévoir	K##f#p##	spk2	11.01	11.5	?	//

20091112_RATP_SCD_1242	5	1	ben	DISF_M	pres	NULL	NULL	NOLINK	0	idtext0006	ben	#####	spk1	11.54	11.65	0.01	_
20091112_RATP_SCD_1242	5	2	malheureusement	NULL	adv	NULL	B_GADV	MOD	3	idtext0006	malheureusement	#####	spk1	11.66	12.35	0.01	_
20091112_RATP_SCD_1242	5	3	oui	NULL	adv	NULL	I_GADV	ROOT	0	idtext0006	oui	#####	spk1	12.36	12.69	0.01	_
20091112_RATP_SCD_1242	5	4	en	NULL	prep	NULL	B_NULL	ROOT	0	idtext0006	en	#####	spk1	12.7	12.78	0.01	_
20091112_RATP_SCD_1242	5	5	ce+qui	NULL	prorel	NULL	B_NULL	SUJ	6	idtext0006	ce+qui	#####	spk1	12.79	12.96	0.01	_
20091112_RATP_SCD_1242	5	6	concerne	NULL	v	NULL	B_GVf	OBJ	4	idtext0006	concerner	PS#13##s##	spk1	12.97	13.51	0.01	_
20091112_RATP_SCD_1242	5	7	surtout	NULL	adv	NULL	B_GADV	MOD	9	idtext0006	surtout	#####	spk1	13.52	13.8	0.01	_
20091112_RATP_SCD_1242	5	8	le	NULL	det	NULL	B_GN	DET	9	idtext0006	le	##m#s##d	spk1	13.81	13.95	0.01	_
20091112_RATP_SCD_1242	5	9	RER+B	NULL	nc	B_T	I_GN	OBJ	6	idtext0006	RER+B	#####	spk1	13.96	14.62	0.01	_
20091112_RATP_SCD_1242	5	10	malheureusement	NULL	adv	NULL	B_GADV	NOLINK	0	idtext0006	malheureusement	#####	spk1	14.63	15.45	0.01	_
20091112_RATP_SCD_1242	5	11	euh	DISF_M	pres	NULL	NULL	NOLINK	0	idtext0006	euh	#####	spk1	15.46	15.48	0.01	_
20091112_RATP_SCD_1242	5	12	on	NULL	cln	NULL	B_GN	SUJ	13	idtext0006	cln	#3##s##	spk1	15.49	15.97	0.01	_
20091112_RATP_SCD_1242	5	13	a	NULL	v	NULL	B_GVf	ROOT	0	idtext0006	avoir	P#3##s##	spk1	15.98	16.05	0.01	_
20091112_RATP_SCD_1242	5	14	aucune	NULL	det	NULL	B_GN	DET	15	idtext0006	aucun	##f#s##i	spk1	16.06	16.3	0.01	_
20091112_RATP_SCD_1242	5	15	information	NULL	nc	NULL	I_GN	OBJ	13	idtext0006	information	##f#s##	spk1	16.31	16.89	0.01	_
20091112_RATP_SCD_1242	5	16	pour	NULL	prep	NULL	B_GP	P_OBJ	15	idtext0006	pour	#####	spk1	16.9	17.08	0.01	_
20091112_RATP_SCD_1242	5	17	le	NULL	det	NULL	I_GP	DET	18	idtext0006	le	##m#s##d	spk1	17.09	17.15	0.01	_
20091112_RATP_SCD_1242	5	18	moment	NULL	nc	NULL	I_GP	OBJ	16	idtext0006	moment	##m#s##	spk1	17.16	17.39	0.01	_
20091112_RATP_SCD_1242	5	19	je	NULL	cln	NULL	B_GN	SUJ	20	idtext0006	cln	#1##s##	spk1	17.4	17.56	0.01	_
20091112_RATP_SCD_1242	5	20	dis	NULL	v	NULL	B_GVf	ROOT	0	idtext0006	dire	PJ#12##s##	spk1	17.57	17.67	0.01	_
20091112_RATP_SCD_1242	5	21	bien	NULL	adv	NULL	B_GADV	NOLINK	0	idtext0006	bien	#####	spk1	17.68	17.89	0.01	_
20091112_RATP_SCD_1242	5	22	on	NULL	cln	NULL	B_GN	SUJ	23	idtext0006	cln	#3##s##	spk1	17.9	17.92	0.01	_
20091112_RATP_SCD_1242	5	23	a	NULL	v	NULL	B_GVf	ROOT	0	idtext0006	avoir	P#3##s##	spk1	17.93	17.95	0.01	_
20091112_RATP_SCD_1242	5	24	aucune	NULL	det	NULL	B_GN	DET	25	idtext0006	aucun	##f#s##i	spk1	17.96	18.18	0.01	_
20091112_RATP_SCD_1242	5	25	information	NULL	nc	NULL	I_GN	OBJ	23	idtext0006	information	##f#s##	spk1	18.19	18.97	?	//

20091112_RATP_SCD_1242	6	1	concernant	NULL	prep	NULL	B_GP	ROOT	0	idtext0007	concernant	#####	spk1	19.69	20.28	0.01	_
20091112_RATP_SCD_1242	6	2	le	DISF_R	det	NULL	NULL	NOLINK	0	idtext0007	le	##m#s##d	spk1	20.29	20.68	0.01	_
20091112_RATP_SCD_1242	6	3	le	NULL	det	NULL	I_GP	DET	4	idtext0008	le	##m#s##d	spk1	20.69	20.83	0.01	_
20091112_RATP_SCD_1242	6	4	mouvement	NULL	nc	NULL	I_GP	OBJ	1	idtext0008	mouvement	##m#s##	spk1	20.84	21.17	0.01	_
20091112_RATP_SCD_1242	6	5	social	NULL	adj	NULL	I_GP	MOD	4	idtext0008	social	##m#s##	spk1	21.18	21.68	0.01	/
20091112_RATP_SCD_1242	6	6	alors	NULL	adv	NULL	B_GADV	NOLINK	0	idtext0008	alors	#####	spk1	21.69	21.84	0.01	_
20091112_RATP_SCD_1242	6	7	je	NULL	cln	NULL	B_GN	SUJ	8	idtext0008	cln	#1##s##	spk1	21.85	22.05	0.01	_
20091112_RATP_SCD_1242	6	8	peux	NULL	v	NULL	B_GVf	ROOT	0	idtext0008	pouvoir	P#12##s##	spk1	22.06	22.19	0.01	_
20091112_RATP_SCD_1242	6	9	même	NULL	adv	NULL	B_GADV	MOD	10	idtext0008	même	###s##	spk1	22.2	22.49	0.01	_
20091112_RATP_SCD_1242	6	10	pas	NULL	advneg	NULL	B_NULL	ROOT	0	idtext0008	pas	#####	spk1	22.5	22.67	0.01	_
20091112_RATP_SCD_1242	6	11	vous	NULL	clo	NULL	B_GN	A_OBJ	12	idtext0008	cln	#2##p##	spk1	22.68	22.83	0.01	_
20091112_RATP_SCD_1242	6	12	dire	NULL	vinf	NULL	B_GVi	OBJ	8	idtext0008	dire	W#####	spk1	22.84	23.35	0.01	_
20091112_RATP_SCD_1242	6	13	si	NULL	csu	NULL	B_NULL	OBJ	12	idtext0008	si	#####	spk1	23.36	23.81	0.01	_
20091112_RATP_SCD_1242	6	14	c'	NULL	cln	NULL	B_GN	SUJ_IMP	15	idtext0008	ce	###s##	spk1	23.82	24.66	0.01	_
20091112_RATP_SCD_1242	6	15	est	NULL	v	NULL	B_GVf	OBJ	13	idtext0008	être	P#3##s##	spk1	24.67	25.24	0.01	_
20091112_RATP_SCD_1242	6	16	euh	DISF_M	pres	NULL	NULL	NOLINK	0	idtext0009	euh	#####	spk1	25.25	25.47	0.01	_
20091112_RATP_SCD_1242	6	17	si	NULL	csu	NULL	B_NULL	ATS	15	idtext0009	si	#####	spk1	25.48	25.63	0.01	_
20091112_RATP_SCD_1242	6	18	c'	NULL	cln	NULL	B_GN	SUJ_IMP	20	idtext0010	ce	###s##	spk1	25.64	25.67	0.01	_
20091112_RATP_SCD_1242	6	19	est	NULL	v	NULL	B_GVf	AUX	20	idtext0010	être	P#3##s##	spk1	25.68	25.74	0.01	_
20091112_RATP_SCD_1242	6	20	maintenu	NULL	vppart	NULL	I_GVf	OBJ	17	idtext0010	maintenir	K##m#s##	spk1	25.75	26.17	0.01	_
20091112_RATP_SCD_1242	6	21	ou	NULL	coo	NULL	B_NULL	COORD	20	idtext0010	ou	#####	spk1	26.18	26.25	0.01	_
20091112_RATP_SCD_1242	6	22	pas	NULL	advneg	NULL	B_NULL	DEP_COORD	21	idtext0010	pas	#####	spk1	26.26	26.63	?	_

20091112_RATP_SCD_1242	7	1	et	NULL	coo	NULL	B_NULL	ROOT	0	idtext0011	et	#####	spk2	27.07	27.12	0.01	_
20091112_RATP_SCD_1242	7	2	le	NULL	det	NULL	B_GN	DET	3	idtext0011	le	##m#s##d	spk2	27.13	27.22	0.01	_
20091112_RATP_SCD_1242	7	3	RER+D	NULL	nc	B_T	I_GN	DEP_COORD	1	idtext0011	RER+D	#####	spk2	27.23	28.24	?	//

20091112_RATP_SCD_1242	8	1	euh	DISF_M	pres	NULL	NULL	NOLINK	0	idtext0012	euh	#####	spk1	28.55	28.92	0.01	_
20091112_RATP_SCD_1242	8	2	D	NULL	nc	NULL	B_GN	NOLINK	0	idtext0012	D	#####	spk1	28.93	29.22	0.01	_
20091112_RATP_SCD_1242	8	3	non	NULL	adv	NULL	B_GADV	NOLINK	0	idtext0012	non	#####	spk1	29.23	29.49	?	_

20091112_RATP_SCD_1242	9	1	D	NULL	nc	NULL	B_GN	NOLINK	0	idtext0013	D	#####	spk2	30.1	30.29	0.01	/
20091112_RATP_SCD_1242	9	2	il	NULL	cln	NULL	B_GN	SUJ_IMP	4	idtext0013	cln	#3#m#s##	spk2	30.3	30.41	0.01	_
20091112_RATP_SCD_1242	9	3	y	NULL	clo	NULL	B_GN	AFF	4	idtext0013	y	#####	spk2	30.42	30.52	0.01	_
20091112_RATP_SCD_1242	9	4	a	NULL	v	NULL	B_GVf	ROOT	0	idtext0013	avoir	P#3##s##	spk2	30.53	30.55	0.01	_
20091112_RATP_SCD_1242	9	5	aucun	NULL	det	NULL	B_GN	DET	6	idtext0013	aucun	##m#s##i	spk2	30.56	30.82	0.01	_
20091112_RATP_SCD_1242	9	6	problème	NULL	nc	NULL	I_GN	OBJ	4	idtext0013	problème	##m#s##	spk2	30.83	31.84	?	//

20091112_RATP_SCD_1242	10	1	non	NULL	adv	NULL	B_GADV	NOLINK	0	idtext0014	non	#####	spk1	30.1	30.3	0.01	_
20091112_RATP_SCD_1242	10	2	D	NULL	nc	NULL	B_GN	ROOT	0	idtext0014	D	#####	spk1	30.31	30.6	0.01	_
20091112_RATP_SCD_1242	10	3	D	NULL	nc	NULL	I_GN	MOD	2	idtext0014	D	#####	spk1	30.61	30.91	0.01	_
20091112_RATP_SCD_1242	10	4	comme	NULL	adv	NULL	B_GADV	MOD	3	idtext0014	comme	#####	spk1	30.92	31.08	0.01	_
20091112_RATP_SCD_1242	10	5	Daniel	NULL	np	NULL	B_GN	OBJ	4	idtext0014	Daniel	##m#s##	spk1	31.09	31.52	0.01	_
20091112_RATP_SCD_1242	10	6	non	NULL	adv	NULL	B_GADV	NOLINK	0	idtext0014	non	#####	spk1	31.53	31.84	?	_

20091112_RATP_SCD_1242	11	1	non	NULL	adv	NULL	B_GADV	NOLINK	0	idtext0015	non	#####	spk1	32.05	32.22	?	_

20091112_RATP_SCD_1242	12	1	parce+que	NULL	csu	NULL	B_NULL	ROOT	0	idtext0016	parce+que	#####	spk2	32.84	33.02	0.01	_
20091112_RATP_SCD_1242	12	2	comme	NULL	adv	NULL	B_GADV	OBJ	1	idtext0016	comme	#####	spk2	33.03	33.17	0.01	_
20091112_RATP_SCD_1242	12	3	il	NULL	cln	NULL	B_GN	SUJ_IMP	4	idtext0016	cln	#3#m#s##	spk2	33.18	33.23	0.01	_
20091112_RATP_SCD_1242	12	4	faut	NULL	v	NULL	B_GVf	OBJ	2	idtext0016	falloir	P#3##s##	spk2	33.24	33.34	0.01	_
20091112_RATP_SCD_1242	12	5	que	NULL	csu	NULL	B_NULL	OBJ	4	idtext0016	que	#####	spk2	33.35	33.38	0.01	_
20091112_RATP_SCD_1242	12	6	j'	NULL	cln	NULL	B_GN	SUJ	7	idtext0016	cln	#1##s##	spk2	33.39	33.43	0.01	_
20091112_RATP_SCD_1242	12	7	aille	NULL	v	NULL	B_GVf	OBJ	5	idtext0016	ailler	PS#13##s##	spk2	33.44	33.55	0.01	_
20091112_RATP_SCD_1242	12	8	à	NULL	prep	NULL	B_GP	P_OBJ_LOC	7	idtext0016	à	#####	spk2	33.56	33.58	0.01	_
20091112_RATP_SCD_1242	12	9	l'	NULL	det	NULL	I_GP	DET	10	idtext0016	le	###s##d	spk2	33.59	33.62	0.01	_
20091112_RATP_SCD_1242	12	10	hôpital	NULL	nc	NULL	I_GP	OBJ	8	idtext0016	hôpital	##m#s##	spk2	33.63	34.01	0.01	_
20091112_RATP_SCD_1242	12	11	il	NULL	cln	NULL	B_GN	SUJ	12	idtext0016	cln	#3#m#s##	spk2	34.02	34.07	0.01	_
20091112_RATP_SCD_1242	12	12	vaut	NULL	v	NULL	B_GVf	ROOT	0	idtext0016	valoir	P#3##s##	spk2	34.08	34.15	0.01	_
20091112_RATP_SCD_1242	12	13	mieux	NULL	adv	NULL	B_GADV	MOD	12	idtext0016	mieux	#####	spk2	34.16	34.26	0.01	_
20091112_RATP_SCD_1242	12	14	que	NULL	csu	NULL	B_NULL	OBJ	12	idtext0016	que	#####	spk2	34.27	34.29	0.01	_
20091112_RATP_SCD_1242	12	15	je	NULL	cln	NULL	B_GN	SUJ	17	idtext0016	cln	#1##s##	spk2	34.3	34.37	0.01	_
20091112_RATP_SCD_1242	12	16	le	NULL	clo	NULL	B_GN	OBJ	17	idtext0016	cla	#3#m#s##	spk2	34.38	34.44	0.01	_
20091112_RATP_SCD_1242	12	17	sache	NULL	v	NULL	B_GVf	OBJ	14	idtext0016	savoir	S#13##s##	spk2	34.45	34.76	0.01	_
20091112_RATP_SCD_1242	12	18	quoi	DISF_M	pres	NULL	NULL	NOLINK	0	idtext0016	quoi	#####	spk2	34.77	34.98	?	_

20091112_RATP_SCD_1242	13	1	non	DISF_R	adv	NULL	NULL	NOLINK	0	idtext0017	non	#####	spk1	35.04	35.13	0.01	_
20091112_RATP_SCD_1242	13	2	non	NULL	adv	NULL	B_GADV	NOLINK	0	idtext0017	non	#####	spk1	35.14	35.3	0.01	_
20091112_RATP_SCD_1242	13	3	le	NULL	det	NULL	B_GN	DET	4	idtext0017	le	##m#s##d	spk1	35.31	35.47	0.01	_
20091112_RATP_SCD_1242	13	4	D	NULL	nc	NULL	I_GN	SUJ	19	idtext0017	D	#####	spk1	35.48	35.65	0.01	_
20091112_RATP_SCD_1242	13	5	comme	NULL	adv	NULL	B_GADV	MOD	4	idtext0017	comme	#####	spk1	35.66	35.82	0.01	_
20091112_RATP_SCD_1242	13	6	Daniel	NULL	np	NULL	B_GN	SUJ	9	idtext0017	Daniel	##m#s##	spk1	35.83	36.33	0.01	//
20091112_RATP_SCD_1242	13	7	c'	NULL	cln	NULL	B_GN	SUJ_IMP	9	idtext0017	ce	###s##	spk1	36.34	36.41	0.01	_
20091112_RATP_SCD_1242	13	8	est	NULL	v	NULL	B_GVf	AUX	9	idtext0017	être	P#3##s##	spk1	36.42	36.46	0.01	_
20091112_RATP_SCD_1242	13	9	géré	NULL	vppart	NULL	I_GVf	OBJ	5	idtext0017	gérer	K##m#s##	spk1	36.47	36.69	0.01	_
20091112_RATP_SCD_1242	13	10	par	NULL	prep	NULL	B_GP	ATS	9	idtext0017	par	#####	spk1	36.7	36.83	0.01	_
20091112_RATP_SCD_1242	13	11	la	NULL	det	NULL	I_GP	DET	12	idtext0017	le	##m#s##d	spk1	36.84	36.89	0.01	_
20091112_RATP_SCD_1242	13	12	SNCF	NULL	np	B_ORG	I_GP	OBJ	10	idtext0017	SNCF	##f#s##	spk1	36.9	37.36	0.01	_
20091112_RATP_SCD_1242	13	13	il	NULL	cln	NULL	B_GN	SUJ_IMP	15	idtext0017	cln	#3#m#s##	spk1	37.37	37.42	0.01	_
20091112_RATP_SCD_1242	13	14	y	NULL	clo	NULL	B_GN	AFF	15	idtext0017	y	#####	spk1	37.43	37.45	0.01	_
20091112_RATP_SCD_1242	13	15	a	NULL	v	NULL	B_GVf	OBJ	5	idtext0017	avoir	P#3##s##	spk1	37.46	37.49	0.01	_
20091112_RATP_SCD_1242	13	16	aucun	NULL	det	NULL	B_GN	DET	17	idtext0017	aucun	##m#s##i	spk1	37.5	37.67	0.01	_
20091112_RATP_SCD_1242	13	17	mouvement	NULL	nc	NULL	I_GN	OBJ	15	idtext0017	mouvement	##m#s##	spk1	37.68	38.44	0.01	/
20091112_RATP_SCD_1242	13	18	c'	NULL	cln	NULL	B_GN	SUJ_IMP	19	idtext0017	ce	###s##	spk1	38.45	38.48	0.01	_
20091112_RATP_SCD_1242	13	19	est	NULL	v	NULL	B_GVf	ROOT	0	idtext0017	être	P#3##s##	spk1	38.49	38.54	0.01	_
20091112_RATP_SCD_1242	13	20	le	NULL	det	NULL	B_GN	DET	21	idtext0017	le	##m#s##d	spk1	38.55	38.71	0.01	_
20091112_RATP_SCD_1242	13	21	B	NULL	nc	NULL	I_GN	ATS	19	idtext0017	B	#####	spk1	38.72	38.99	0.01	_
20091112_RATP_SCD_1242	13	22	comme	NULL	adv	NULL	B_GADV	MOD	21	idtext0017	comme	#####	spk1	39.0	39.19	0.01	_
20091112_RATP_SCD_1242	13	23	Bernard	NULL	np	NULL	B_GN	OBJ	22	idtext0017	Bernard	##m#s##	spk1	39.2	39.76	?	//

20091112_RATP_SCD_1242	14	1	d'accord	NULL	adv	NULL	B_GADV	MOD	2	idtext0018	d'accord	#####	spk2	39.97	40.55	0.01	_
20091112_RATP_SCD_1242	14	2	très+bien	NULL	adv	NULL	I_GADV	ROOT	0	idtext0018	très+bien	#####	spk2	40.56	41.1	?	_

20091112_RATP_SCD_1242	15	1	hm	DISF_M	pres	NULL	NULL	NOLINK	0	idtext0019	hm	#####	spk1	41.28	41.74	?	//

20091112_RATP_SCD_1242	16	1	merci	NULL	adv	NULL	B_GADV	NOLINK	0	idtext0020	merci	#####	spk2	42.14	42.49	?	//

20091112_RATP_SCD_1242	17	1	au+revoir	NULL	adv	NULL	B_GADV	NOLINK	0	idtext0021	au+revoir	#####	spk2	42.53	42.78	?	//

20091112_RATP_SCD_1242	18	1	mais	NULL	coo	NULL	B_NULL	NOLINK	0	idtext0022	mais	#####	spk1	42.54	42.78	?	_

20091112_RATP_SCD_1242	19	1	je	NULL	cln	NULL	B_GN	SUJ	4	idtext0023	cln	#1##s##	spk1	42.82	42.92	0.01	_
20091112_RATP_SCD_1242	19	2	vous	NULL	clo	NULL	B_GN	OBJ	4	idtext0023	cln	#2##p##	spk1	42.93	42.98	0.01	_
20091112_RATP_SCD_1242	19	3	en	NULL	clo	NULL	B_GN	DE_OBJ	4	idtext0023	en	#####	spk1	42.99	43.03	0.01	_
20091112_RATP_SCD_1242	19	4	prie	NULL	v	NULL	B_GVf	ROOT	0	idtext0023	prier	PS#13##s##	spk1	43.04	43.2	0.01	_
20091112_RATP_SCD_1242	19	5	au+revoir	NULL	adv	NULL	B_GADV	NOLINK	0	idtext0023	au+revoir	#####	spk1	43.21	43.73	?	//

