20091112_RATP_SCD_0084	1	1	NNAAMMEE	NULL	np	B_HU	B_GN	ROOT	0	idtext0000	ANONYM	NULL	spk4	3.07	3.68	0.01	_
20091112_RATP_SCD_0084	1	2	va	NULL	v	NULL	B_GVf	ROOT	0	idtext0001	aller	P#3##s##	spk4	3.69	3.76	0.01	_
20091112_RATP_SCD_0084	1	3	vous	NULL	clo	NULL	B_GN	A_OBJ	4	idtext0001	cln	#2##p##	spk4	3.77	3.84	0.01	_
20091112_RATP_SCD_0084	1	4	répondre	NULL	vinf	NULL	B_GVi	OBJ	2	idtext0001	répondre	W#####	spk4	3.85	4.34	?	//

20091112_RATP_SCD_0084	2	1	oui	NULL	adv	NULL	B_GADV	MOD	2	idtext0002	oui	#####	spk2	4.41	4.86	0.01	_
20091112_RATP_SCD_0084	2	2	bonjour	NULL	adv	NULL	I_GADV	ROOT	0	idtext0002	bonjour	#####	spk2	4.87	5.22	?	//

20091112_RATP_SCD_0084	3	1	NNAAMMEE	NULL	np	B_HU	B_GN	ROOT	0	idtext0003	ANONYM	NULL	spk1	5.26	5.43	0.01	_
20091112_RATP_SCD_0084	3	2	bonjour	DISF_R	adv	NULL	NULL	NOLINK	0	idtext0004	bonjour	#####	spk1	5.44	5.67	0.01	_
20091112_RATP_SCD_0084	3	3	bonjour	NULL	adv	NULL	B_GADV	NOLINK	0	idtext0004	bonjour	#####	spk1	5.68	5.84	0.01	_
20091112_RATP_SCD_0084	3	4	madame	NULL	nc	NULL	B_GN	NOLINK	0	idtext0004	Monsieur	##f#s##	spk1	5.85	6.15	?	//

20091112_RATP_SCD_0084	4	1	bonjour	NULL	adv	NULL	B_GADV	NOLINK	0	idtext0005	bonjour	#####	spk2	6.22	6.51	0.01	_
20091112_RATP_SCD_0084	4	2	monsieur	NULL	nc	NULL	B_GN	NOLINK	0	idtext0005	Monsieur	##m#s##	spk2	6.52	6.92	?	//

20091112_RATP_SCD_0084	5	1	euh	DISF_M	pres	NULL	NULL	NOLINK	0	idtext0006	euh	#####	spk2	7.38	7.87	0.01	_
20091112_RATP_SCD_0084	5	2	je	NULL	cln	NULL	B_GN	SUJ	3	idtext0006	cln	#1##s##	spk2	7.88	8.11	0.01	_
20091112_RATP_SCD_0084	5	3	voudrais	NULL	v	NULL	B_GVf	ROOT	0	idtext0006	vouloir	C#12##s##	spk2	8.12	8.6	0.01	_
20091112_RATP_SCD_0084	5	4	avoir	NULL	vinf	NULL	I_GVf	OBJ	3	idtext0006	avoir	W#####	spk2	8.61	8.9	0.01	_
20091112_RATP_SCD_0084	5	5	un	NULL	det	NULL	B_GN	DET	6	idtext0006	un	##m#s##i	spk2	8.91	8.95	0.01	_
20091112_RATP_SCD_0084	5	6	renseignement	NULL	nc	NULL	I_GN	OBJ	4	idtext0006	renseignement	##m#s##	spk2	8.96	9.5	0.01	_
20091112_RATP_SCD_0084	5	7	concernant	NULL	prep	NULL	B_NULL	NOLINK	0	idtext0006	concernant	#####	spk2	9.51	10.28	0.48	//
20091112_RATP_SCD_0084	5	8	euh	DISF_M	pres	NULL	NULL	NOLINK	0	idtext0007	euh	#####	spk2	10.76	10.91	0.01	_
20091112_RATP_SCD_0084	5	9	la	NULL	det	NULL	B_GN	DET	12	idtext0007	le	##m#s##d	spk2	10.92	11.22	0.01	_
20091112_RATP_SCD_0084	5	10	meilleure	NULL	adj	NULL	I_GN	MOD	12	idtext0007	meilleur	##f#s##	spk2	11.23	11.76	0.01	_
20091112_RATP_SCD_0084	5	11	euh	DISF_M	pres	NULL	NULL	NOLINK	0	idtext0007	euh	#####	spk2	11.77	11.79	0.01	//
20091112_RATP_SCD_0084	5	12	façon	NULL	nc	NULL	I_GN	ROOT	0	idtext0007	façon	##f#s##	spk2	11.8	12.14	0.01	_
20091112_RATP_SCD_0084	5	13	de	NULL	prep	NULL	B_GP	DEP	12	idtext0007	de	#####	spk2	12.15	12.26	0.01	_
20091112_RATP_SCD_0084	5	14	se	NULL	clr	NULL	I_GP	AFF	15	idtext0007	se	#####	spk2	12.27	12.43	0.01	_
20091112_RATP_SCD_0084	5	15	rendre	NULL	vinf	NULL	I_GP	OBJ	13	idtext0007	rendre	W#####	spk2	12.44	12.77	0.01	_
20091112_RATP_SCD_0084	5	16	à	NULL	prep	NULL	B_GP	P_OBJ_LOC	15	idtext0007	à	#####	spk2	12.78	12.98	0.01	_
20091112_RATP_SCD_0084	5	17	Saint-Paul	NULL	nc	B_A	I_GP	OBJ	16	idtext0007	Saint-Paul	##m#s##	spk2	12.99	13.79	?	//

20091112_RATP_SCD_0084	6	1	au	NULL	prep	NULL	B_GP	ROOT	0	idtext0008	au	#####	spk1	14.24	14.69	0.01	_
20091112_RATP_SCD_0084	6	2	métro	NULL	nc	B_T	I_GP	OBJ	1	idtext0008	métro	##m#s##	spk1	14.7	15.42	0.01	_
20091112_RATP_SCD_0084	6	3	Saint-Paul	NULL	np	I_T	I_GP	MOD	2	idtext0008	Saint-Paul	##m#s##	spk1	15.43	15.85	0.01	_
20091112_RATP_SCD_0084	6	4	oui	NULL	adv	NULL	B_GADV	NOLINK	0	idtext0009	oui	#####	spk1	15.86	16.05	?	//

20091112_RATP_SCD_0084	7	1	euh	DISF_M	pres	NULL	NULL	NOLINK	0	idtext0010	euh	#####	spk2	13.92	14.23	0.01	_
20091112_RATP_SCD_0084	7	2	au	NULL	prep	NULL	B_GP	ROOT	0	idtext0010	au	#####	spk2	14.24	14.69	0.01	_
20091112_RATP_SCD_0084	7	3	métro	NULL	nc	B_T	I_GP	OBJ	2	idtext0010	métro	##m#s##	spk2	14.7	15.42	0.01	_
20091112_RATP_SCD_0084	7	4	Saint-Paul	NULL	np	I_T	I_GP	MOD	3	idtext0010	Saint-Paul	##m#s##	spk2	15.43	15.85	0.01	_
20091112_RATP_SCD_0084	7	5	oui	NULL	adv	NULL	B_GADV	NOLINK	0	idtext0011	oui	#####	spk2	15.86	16.05	?	//

20091112_RATP_SCD_0084	8	1	oui	NULL	adv	NULL	B_GADV	NOLINK	0	idtext0012	oui	#####	spk1	16.17	16.44	?	//

20091112_RATP_SCD_0084	9	1	en	NULL	prep	NULL	B_GP	MOD	6	idtext0013	en	#####	spk2	16.49	16.58	0.01	_
20091112_RATP_SCD_0084	9	2	partant	NULL	vprespart	NULL	I_GP	OBJ	1	idtext0013	partir	G#####	spk2	16.59	17.13	0.01	_
20091112_RATP_SCD_0084	9	3	alors	NULL	adv	NULL	B_GADV	NOLINK	0	idtext0013	alors	#####	spk2	17.14	17.43	0.01	/
20091112_RATP_SCD_0084	9	4	euh	DISF_M	pres	NULL	NULL	NOLINK	0	idtext0013	euh	#####	spk2	17.44	17.64	0.01	_
20091112_RATP_SCD_0084	9	5	je	NULL	cln	NULL	B_GN	SUJ	6	idtext0013	cln	#1##s##	spk2	17.65	18.08	0.01	_
20091112_RATP_SCD_0084	9	6	suis	NULL	v	NULL	B_GVf	ROOT	0	idtext0013	être	P#1##s##	spk2	18.09	18.51	0.01	_
20091112_RATP_SCD_0084	9	7	soit	NULL	coo	NULL	B_NULL	NOLINK	0	idtext0013	soit	#####	spk2	18.52	18.77	0.01	_
20091112_RATP_SCD_0084	9	8	à	NULL	prep	NULL	B_GP	P_OBJ_LOC	6	idtext0013	à	#####	spk2	18.78	18.85	0.01	_
20091112_RATP_SCD_0084	9	9	Le+Peletier	NULL	nc	B_A	I_GP	OBJ	8	idtext0013	Le+Peletier	#####	spk2	18.86	19.63	0.44	_
20091112_RATP_SCD_0084	9	10	soit	NULL	coo	NULL	B_NULL	ROOT	0	idtext0014	soit	#####	spk2	20.07	20.63	0.01	_
20091112_RATP_SCD_0084	9	11	à	NULL	prep	NULL	B_GP	P_OBJ_LOC	10	idtext0014	à	#####	spk2	20.64	20.94	0.01	_
20091112_RATP_SCD_0084	9	12	Saint+Georges	NULL	nc	B_A	I_GP	OBJ	11	idtext0014	Saint+Georges	#####	spk2	20.95	21.57	?	//

20091112_RATP_SCD_0084	10	1	alors	NULL	adv	NULL	B_GADV	NOLINK	0	idtext0015	alors	#####	spk1	22.8	23.0	0.01	_
20091112_RATP_SCD_0084	10	2	en	NULL	prep	NULL	B_GP	MOD	6	idtext0015	en	#####	spk1	23.01	23.53	0.01	_
20091112_RATP_SCD_0084	10	3	partant	NULL	vprespart	NULL	I_GP	OBJ	2	idtext0015	partir	G#####	spk1	23.54	23.9	0.01	_
20091112_RATP_SCD_0084	10	4	par	NULL	prep	NULL	B_GP	P_OBJ	3	idtext0015	par	#####	spk1	23.91	24.05	0.01	_
20091112_RATP_SCD_0084	10	5	on	NULL	cln	NULL	I_GP	SUJ_IMP	6	idtext0015	cln	#3##s##	spk1	24.06	24.11	0.01	_
20091112_RATP_SCD_0084	10	6	va	NULL	v	NULL	B_GVf	ROOT	0	idtext0015	aller	P#3##s##	spk1	24.12	24.18	0.01	_
20091112_RATP_SCD_0084	10	7	regarder	NULL	vinf	NULL	I_GVf	OBJ	6	idtext0015	regarder	W#####	spk1	24.19	24.53	0.01	_
20091112_RATP_SCD_0084	10	8	hein	DISF_M	pres	NULL	NULL	NOLINK	0	idtext0015	hein	#####	spk1	24.54	24.57	0.01	_
20091112_RATP_SCD_0084	10	9	de	NULL	prep	NULL	B_GP	P_OBJ_LOC	6	idtext0015	de	#####	spk1	24.58	24.71	0.01	_
20091112_RATP_SCD_0084	10	10	Le+Peletier	NULL	nc	B_A	I_GP	OBJ	9	idtext0015	Le+Peletier	#####	spk1	24.72	25.17	0.01	_
20091112_RATP_SCD_0084	10	11	pour	NULL	prep	NULL	B_GP	MOD	10	idtext0016	pour	#####	spk1	25.18	25.31	0.01	_
20091112_RATP_SCD_0084	10	12	aller	NULL	vinf	NULL	I_GP	OBJ	11	idtext0016	aller	W#####	spk1	25.32	25.4	0.01	_
20091112_RATP_SCD_0084	10	13	à	NULL	prep	NULL	B_GP	P_OBJ_LOC	12	idtext0016	à	#####	spk1	25.41	25.47	0.01	_
20091112_RATP_SCD_0084	10	14	Saint-Paul	NULL	nc	B_A	I_GP	OBJ	13	idtext0016	Saint-Paul	##m#s##	spk1	25.48	26.09	?	//

20091112_RATP_SCD_0084	11	1	oui	NULL	adv	NULL	B_GADV	MOD	2	idtext0017	oui	#####	spk2	26.17	26.37	0.01	_
20091112_RATP_SCD_0084	11	2	d'accord	NULL	adv	NULL	I_GADV	ROOT	0	idtext0017	d'accord	#####	spk2	26.38	26.96	?	_

20091112_RATP_SCD_0084	12	1	en	NULL	prep	NULL	B_GP	ROOT	0	idtext0018	en	#####	spk1	27.08	27.19	0.01	_
20091112_RATP_SCD_0084	12	2	métro	NULL	nc	NULL	I_GP	OBJ	1	idtext0018	métro	##m#s##	spk1	27.2	27.68	?	//

20091112_RATP_SCD_0084	13	1	oui	NULL	adv	NULL	B_GADV	NOLINK	0	idtext0019	oui	#####	spk2	27.92	28.17	1.01	_
20091112_RATP_SCD_0084	13	2	euh	DISF_M	pres	NULL	NULL	NOLINK	0	idtext0020	euh	#####	spk2	29.18	29.55	0.01	_
20091112_RATP_SCD_0084	13	3	à+moins+qu'	NULL	csu	NULL	B_NULL	ROOT	0	idtext0020	à+moins+qu'	#####	spk2	29.56	29.82	0.01	_
20091112_RATP_SCD_0084	13	4	il	NULL	cln	NULL	B_GN	SUJ_IMP	6	idtext0020	cln	#3#m#s##	spk2	29.83	29.88	0.01	_
20091112_RATP_SCD_0084	13	5	y	NULL	clo	NULL	B_GN	AFF	6	idtext0020	y	#####	spk2	29.89	29.91	0.01	_
20091112_RATP_SCD_0084	13	6	ait	NULL	v	NULL	B_GVf	OBJ	3	idtext0020	avoir	S#3##s##	spk2	29.92	29.99	0.01	_
20091112_RATP_SCD_0084	13	7	un	NULL	det	NULL	B_GN	DET	8	idtext0020	un	##m#s##i	spk2	30.0	30.08	0.01	_
20091112_RATP_SCD_0084	13	8	bus	NULL	nc	NULL	I_GN	OBJ	6	idtext0020	bus	##m###	spk2	30.09	30.61	?	//

20091112_RATP_SCD_0084	14	1	ouais	NULL	adv	NULL	B_GADV	MOD	2	idtext0021	ouais	#####	spk1	30.66	30.76	0.01	_
20091112_RATP_SCD_0084	14	2	bien	NULL	adv	NULL	I_GADV	ROOT	0	idtext0021	bien	#####	spk1	30.77	30.86	0.01	_
20091112_RATP_SCD_0084	14	3	sur	NULL	prep	NULL	B_GP	NOLINK	0	idtext0021	sur	#####	spk1	30.87	31.03	0.01	_
20091112_RATP_SCD_0084	14	4	je	NULL	cln	NULL	I_GP	SUJ	5	idtext0021	cln	#1##s##	spk1	31.04	31.1	0.01	_
20091112_RATP_SCD_0084	14	5	vais	NULL	v	NULL	B_GVf	ROOT	0	idtext0021	aller	P#1##s##	spk1	31.11	31.16	0.01	_
20091112_RATP_SCD_0084	14	6	regarder	NULL	vinf	NULL	I_GVf	OBJ	5	idtext0021	regarder	W#####	spk1	31.17	31.4	0.01	_
20091112_RATP_SCD_0084	14	7	ce+que	NULL	prorel	NULL	B_NULL	OBJ	9	idtext0022	ce+que	#####	spk1	31.41	31.59	0.01	_
20091112_RATP_SCD_0084	14	8	j'	NULL	cln	NULL	B_GN	SUJ	9	idtext0022	cln	#1##s##	spk1	31.6	31.66	0.01	_
20091112_RATP_SCD_0084	14	9	ai	NULL	v	NULL	B_GVf	OBJ	5	idtext0022	avoir	P#1##s##	spk1	31.67	31.7	0.01	_
20091112_RATP_SCD_0084	14	10	de	NULL	prep	NULL	B_NULL	OBJ	9	idtext0022	de	#####	spk1	31.71	31.75	0.01	_
20091112_RATP_SCD_0084	14	11	direct	NULL	adj	NULL	B_GADJ	OBJ	10	idtext0022	direct	##m#s##	spk1	31.76	32.04	0.01	_
20091112_RATP_SCD_0084	14	12	un	NULL	det	NULL	B_GN	DET	13	idtext0023	un	##m#s##i	spk1	32.05	32.13	0.01	_
20091112_RATP_SCD_0084	14	13	instant	NULL	nc	NULL	I_GN	ROOT	0	idtext0023	instant	##m#s##	spk1	32.14	32.52	?	//

20091112_RATP_SCD_0084	15	1	vous	NULL	cln	NULL	B_GN	SUJ	2	idtext0024	cln	#2##p##	spk2	32.58	32.68	0.01	_
20091112_RATP_SCD_0084	15	2	êtes	NULL	v	NULL	B_GVf	ROOT	0	idtext0024	être	P#2##p##	spk2	32.69	32.79	0.01	_
20091112_RATP_SCD_0084	15	3	gentil	NULL	adj	NULL	B_GADJ	ATS	2	idtext0025	gentil	##m#s##	spk2	32.8	33.1	0.01	_
20091112_RATP_SCD_0084	15	4	merci	NULL	adv	NULL	B_GADV	NOLINK	0	idtext0025	merci	#####	spk2	33.11	33.6	?	//

20091112_RATP_SCD_0084	16	1	madame	NULL	nc	NULL	B_GN	NOLINK	0	idtext0026	Monsieur	##f#s##	spk1	46.11	46.84	?	//

20091112_RATP_SCD_0084	17	1	oui	NULL	adv	NULL	B_GADV	NOLINK	0	idtext0027	oui	#####	spk2	47.04	47.48	?	//

20091112_RATP_SCD_0084	18	1	alors	NULL	adv	NULL	B_GADV	NOLINK	0	idtext0028	alors	#####	spk1	46.99	47.48	?	//

20091112_RATP_SCD_0084	19	1	il	NULL	cln	NULL	B_GN	SUJ_IMP	3	idtext0029	cln	#3#m#s##	spk1	47.52	47.58	0.01	_
20091112_RATP_SCD_0084	19	2	y	NULL	clo	NULL	B_GN	AFF	3	idtext0029	y	#####	spk1	47.59	47.61	0.01	_
20091112_RATP_SCD_0084	19	3	a	NULL	v	NULL	B_GVf	ROOT	0	idtext0029	avoir	P#3##s##	spk1	47.62	47.64	0.01	_
20091112_RATP_SCD_0084	19	4	un	NULL	det	NULL	B_GN	DET	5	idtext0029	un	##m#s##i	spk1	47.65	47.83	0.01	_
20091112_RATP_SCD_0084	19	5	changement	NULL	nc	NULL	I_GN	OBJ	3	idtext0029	changement	##m#s##	spk1	47.84	48.22	0.01	_
20091112_RATP_SCD_0084	19	6	en+fait	GREF	adv	NULL	B_GADV	NOLINK	0	idtext0029	en+fait	#####	spk1	48.23	48.49	0.01	_
20091112_RATP_SCD_0084	19	7	en	NULL	prep	NULL	B_GP	MOD	10	idtext0029	en	#####	spk1	48.5	48.61	0.01	_
20091112_RATP_SCD_0084	19	8	métro	NULL	nc	NULL	I_GP	OBJ	7	idtext0029	métro	##m#s##	spk1	48.62	49.04	0.01	_
20091112_RATP_SCD_0084	19	9	c'	NULL	cln	NULL	B_GN	SUJ_IMP	10	idtext0030	ce	###s##	spk1	49.05	49.08	0.01	_
20091112_RATP_SCD_0084	19	10	est	NULL	v	NULL	B_GVf	ROOT	0	idtext0030	être	P#3##s##	spk1	49.09	49.14	0.01	_
20091112_RATP_SCD_0084	19	11	ce+qu'	NULL	prorel	NULL	B_NULL	NOLINK	0	idtext0030	ce+qu'	#####	spk1	49.15	49.2	0.01	_
20091112_RATP_SCD_0084	19	12	il	NULL	cln	NULL	B_GN	SUJ_IMP	14	idtext0030	cln	#3#m#s##	spk1	49.21	49.26	0.01	_
20091112_RATP_SCD_0084	19	13	y	NULL	clo	NULL	B_GN	AFF	14	idtext0030	y	#####	spk1	49.27	49.29	0.01	_
20091112_RATP_SCD_0084	19	14	a	NULL	v	NULL	B_GVf	NOLINK	0	idtext0030	avoir	P#3##s##	spk1	49.3	49.32	0.01	_
20091112_RATP_SCD_0084	19	15	de+plus	NULL	adv	NULL	B_GADJ	MOD	16	idtext0030	de+plus	#####	spk1	49.33	49.5	0.01	_
20091112_RATP_SCD_0084	19	16	rapide	NULL	adj	NULL	I_GADJ	ATS	10	idtext0030	rapide	###s##	spk1	49.51	50.14	0.19	//
20091112_RATP_SCD_0084	19	17	c'	NULL	cln	NULL	B_GN	SUJ_IMP	18	idtext0031	ce	###s##	spk1	50.33	50.53	0.01	_
20091112_RATP_SCD_0084	19	18	est	NULL	v	NULL	B_GVf	ROOT	0	idtext0031	être	P#3##s##	spk1	50.54	50.75	0.01	_
20091112_RATP_SCD_0084	19	19	de	NULL	prep	NULL	B_GP	P_OBJ_LOC	18	idtext0031	de	#####	spk1	50.76	50.93	0.01	_
20091112_RATP_SCD_0084	19	20	Le+Peletier	NULL	nc	B_A	I_GP	OBJ	19	idtext0031	Le+Peletier	#####	spk1	50.94	51.42	0.01	_
20091112_RATP_SCD_0084	19	21	vous	NULL	cln	NULL	B_GN	SUJ	22	idtext0032	cln	#2##p##	spk1	51.43	51.52	0.01	_
20091112_RATP_SCD_0084	19	22	prenez	NULL	v	NULL	B_GVf	ROOT	0	idtext0032	prendre	P#2##p##	spk1	51.53	51.89	0.01	_
20091112_RATP_SCD_0084	19	23	la	NULL	det	NULL	B_GN	DET	24	idtext0032	le	##m#s##d	spk1	51.9	52.04	0.01	_
20091112_RATP_SCD_0084	19	24	ligne	NULL	nc	NULL	I_GN	OBJ	22	idtext0032	ligne	##f#s##	spk1	52.05	52.25	0.01	_
20091112_RATP_SCD_0084	19	25	donc	NULL	coo	NULL	B_NULL	COORD	22	idtext0032	donc	#####	spk1	52.26	52.66	0.01	_
20091112_RATP_SCD_0084	19	26	sept	NULL	nc	NULL	B_GN	DEP_COORD	25	idtext0032	sept	##m###	spk1	52.67	52.94	0.01	_
20091112_RATP_SCD_0084	19	27	direction	NULL	nc	NULL	B_GN	MOD	26	idtext0033	direction	##f#s##	spk1	52.95	53.37	0.01	_
20091112_RATP_SCD_0084	19	28	mairie	NULL	nc	B_A	I_GN	MOD	27	idtext0033	mairie	##f#s##	spk1	53.38	53.58	0.01	_
20091112_RATP_SCD_0084	19	29	d'	NULL	prep	I_A	I_GN	DEP	28	idtext0033	d'	#####	spk1	53.59	53.63	0.01	_
20091112_RATP_SCD_0084	19	30	Ivry	NULL	np	I_A	I_GN	OBJ	29	idtext0033	Ivry	#####	spk1	53.64	54.12	?	//

20091112_RATP_SCD_0084	20	1	oui	NULL	adv	NULL	B_GADV	NOLINK	0	idtext0034	oui	#####	spk2	54.34	54.76	?	//

20091112_RATP_SCD_0084	21	1	vous	NULL	cln	NULL	B_GN	SUJ	2	idtext0035	cln	#2##p##	spk1	54.8	54.88	0.01	_
20091112_RATP_SCD_0084	21	2	descendez	NULL	v	NULL	B_GVf	ROOT	0	idtext0035	descendre	P#2##p##	spk1	54.89	55.3	0.01	_
20091112_RATP_SCD_0084	21	3	à	NULL	prep	NULL	B_GP	P_OBJ_LOC	2	idtext0035	à	#####	spk1	55.31	55.54	0.01	_
20091112_RATP_SCD_0084	21	4	Palais+Royal	NULL	nc	B_A	I_GP	OBJ	3	idtext0035	Palais+Royal	#####	spk1	55.55	56.37	?	//

20091112_RATP_SCD_0084	22	1	oui	NULL	adv	NULL	B_GADV	NOLINK	0	idtext0036	oui	#####	spk2	56.92	57.34	?	//

20091112_RATP_SCD_0084	23	1	et	NULL	coo	NULL	B_NULL	ROOT	0	idtext0037	et	#####	spk1	57.38	57.44	0.01	_
20091112_RATP_SCD_0084	23	2	là	NULL	adv	NULL	B_GADV	NOLINK	0	idtext0037	là	#####	spk1	57.45	57.56	0.01	_
20091112_RATP_SCD_0084	23	3	vous	NULL	cln	NULL	B_GN	SUJ	4	idtext0037	cln	#2##p##	spk1	57.57	57.67	0.01	_
20091112_RATP_SCD_0084	23	4	récupérez	NULL	v	NULL	B_GVf	DEP_COORD	1	idtext0037	récupérer	P#2##p##	spk1	57.68	58.22	0.01	_
20091112_RATP_SCD_0084	23	5	la	NULL	det	NULL	B_GN	DET	6	idtext0037	le	##m#s##d	spk1	58.23	58.36	0.01	_
20091112_RATP_SCD_0084	23	6	ligne	NULL	nc	B_T	I_GN	OBJ	4	idtext0037	ligne	##f#s##	spk1	58.37	59.13	0.01	_
20091112_RATP_SCD_0084	23	7	un	NULL	adj	I_T	I_GN	MOD	6	idtext0037	un	#####	spk1	59.14	59.43	0.01	_
20091112_RATP_SCD_0084	23	8	Château+de+Vincennes	NULL	nc	B_A	I_GN	MOD	6	idtext0038	Château+de+Vincennes	#####	spk1	59.44	60.13	0.01	_
20091112_RATP_SCD_0084	23	9	jusqu'à	NULL	prep	NULL	B_GP	MOD	6	idtext0039	jusqu'à	#####	spk1	60.14	60.4	0.01	_
20091112_RATP_SCD_0084	23	10	Saint-Paul	NULL	nc	B_A	I_GP	OBJ	9	idtext0039	Saint-Paul	##m#s##	spk1	60.41	60.98	?	//

20091112_RATP_SCD_0084	24	1	Château+de+Vincennes	NULL	nc	B_A	B_GN	NOLINK	0	idtext0040	Château+de+Vincennes	#####	spk2	61.66	62.86	0.51	_
20091112_RATP_SCD_0084	24	2	jusqu'à	NULL	prep	NULL	B_GP	ROOT	0	idtext0041	jusqu'à	#####	spk2	63.37	63.84	0.01	_
20091112_RATP_SCD_0084	24	3	Saint-Paul	NULL	nc	B_A	I_GP	OBJ	2	idtext0041	Saint-Paul	##m#s##	spk2	63.85	64.42	?	//

20091112_RATP_SCD_0084	25	1	oui	NULL	adv	NULL	B_GADV	NOLINK	0	idtext0042	oui	#####	spk1	64.48	64.73	?	//

20091112_RATP_SCD_0084	26	1	bon+ben	DISF_M	pres	NULL	NULL	NOLINK	0	idtext0043	bon+ben	#####	spk2	64.98	65.91	0.01	_
20091112_RATP_SCD_0084	26	2	c'	DISF_R	cln	NULL	NULL	NOLINK	0	idtext0044	ce	###s##	spk2	65.92	66.04	0.01	_
20091112_RATP_SCD_0084	26	3	est	DISF_R	v	NULL	NULL	NOLINK	0	idtext0044	être	P#3##s##	spk2	66.05	66.14	0.01	/
20091112_RATP_SCD_0084	26	4	c'	DISF_R	cln	NULL	NULL	NOLINK	0	idtext0044	ce	###s##	spk2	66.15	66.21	0.01	_
20091112_RATP_SCD_0084	26	5	est	DISF_R	v	NULL	NULL	NOLINK	0	idtext0044	être	P#3##s##	spk2	66.22	66.27	0.01	_
20091112_RATP_SCD_0084	26	6	pas	DISF_R	advneg	NULL	NULL	NOLINK	0	idtext0044	pas	#####	spk2	66.28	66.71	0.01	_
20091112_RATP_SCD_0084	26	7	euh	DISF_M	pres	NULL	NULL	NOLINK	0	idtext0044	euh	#####	spk2	66.72	66.81	0.01	_
20091112_RATP_SCD_0084	26	8	c'	NULL	cln	NULL	B_GN	SUJ_IMP	9	idtext0044	ce	###s##	spk2	66.82	66.92	0.01	_
20091112_RATP_SCD_0084	26	9	est	NULL	v	NULL	B_GVfn	ROOT	0	idtext0044	être	P#3##s##	spk2	66.93	66.98	0.01	_
20091112_RATP_SCD_0084	26	10	pas	NULL	advneg	NULL	I_GVfn	MOD	9	idtext0044	pas	#####	spk2	66.99	67.13	0.01	_
20091112_RATP_SCD_0084	26	11	long	NULL	adj	NULL	B_GN	ATS	9	idtext0044	long	##m#s##	spk2	67.14	67.31	0.01	_
20091112_RATP_SCD_0084	26	12	ça	NULL	pro	NULL	I_GN	SUJ_IMP	9	idtext0044	ça	#####	spk2	67.32	67.53	?	//

20091112_RATP_SCD_0084	27	1	il	NULL	cln	NULL	B_GN	SUJ_IMP	4	idtext0045	cln	#3#m#s##	spk1	67.6	67.65	0.01	_
20091112_RATP_SCD_0084	27	2	y	NULL	clo	NULL	B_GN	AFF	4	idtext0045	y	#####	spk1	67.66	67.73	0.01	_
20091112_RATP_SCD_0084	27	3	en	NULL	clo	NULL	B_GN	OBJ	4	idtext0045	en	#####	spk1	67.74	67.76	0.01	_
20091112_RATP_SCD_0084	27	4	a	NULL	v	NULL	B_GVf	ROOT	0	idtext0045	avoir	P#3##s##	spk1	67.77	67.85	0.01	_
20091112_RATP_SCD_0084	27	5	pour	NULL	prep	NULL	B_GP	P_OBJ	4	idtext0045	pour	#####	spk1	67.86	68.19	0.01	_
20091112_RATP_SCD_0084	27	6	un	NULL	det	NULL	I_GP	DET	7	idtext0045	un	##m#s##i	spk1	68.2	68.32	0.01	_
20091112_RATP_SCD_0084	27	7	quart	NULL	nc	NULL	I_GP	OBJ	5	idtext0045	quart	##m#s##	spk1	68.33	68.53	0.01	_
20091112_RATP_SCD_0084	27	8	d'	NULL	prep	NULL	B_GP	DEP	7	idtext0045	d'	#####	spk1	68.54	68.56	0.01	_
20091112_RATP_SCD_0084	27	9	heure	NULL	nc	NULL	I_GP	OBJ	8	idtext0045	heure	##f#s##	spk1	68.57	68.86	?	//

20091112_RATP_SCD_0084	28	1	oui	NULL	adv	NULL	B_GADV	NOLINK	0	idtext0046	oui	#####	spk2	69.33	69.5	0.01	/
20091112_RATP_SCD_0084	28	2	bon	DISF_R	adj	NULL	NULL	NOLINK	0	idtext0046	bon	##m#s##	spk2	69.51	69.67	0.01	_
20091112_RATP_SCD_0084	28	3	c'	NULL	cln	NULL	B_GN	SUJ_IMP	4	idtext0046	ce	###s##	spk2	69.68	69.79	0.01	_
20091112_RATP_SCD_0084	28	4	est	NULL	v	NULL	B_GVf	ROOT	0	idtext0046	être	P#3##s##	spk2	69.8	69.84	0.01	_
20091112_RATP_SCD_0084	28	5	bon	NULL	adj	NULL	B_GADJ	ATS	4	idtext0046	bon	##m#s##	spk2	69.85	70.06	?	//

20091112_RATP_SCD_0084	29	1	hm	DISF_M	pres	NULL	NULL	NOLINK	0	idtext0047	hm	#####	spk1	70.26	70.43	?	//

20091112_RATP_SCD_0084	30	1	euh	DISF_M	pres	NULL	NULL	NOLINK	0	idtext0048	euh	#####	spk2	70.53	70.55	0.01	_
20091112_RATP_SCD_0084	30	2	et	NULL	coo	NULL	B_NULL	ROOT	0	idtext0048	et	#####	spk2	70.56	71.21	0.01	_
20091112_RATP_SCD_0084	30	3	vous	NULL	cln	NULL	B_GN	SUJ	4	idtext0048	cln	#2##p##	spk2	71.22	71.46	0.01	_
20091112_RATP_SCD_0084	30	4	avez	NULL	v	NULL	B_GVf	DEP_COORD	2	idtext0048	avoir	P#2##p##	spk2	71.47	71.88	0.01	_
20091112_RATP_SCD_0084	30	5	des	NULL	det	NULL	B_GN	DET	6	idtext0048	des	###p##i	spk2	71.89	72.05	0.01	_
20091112_RATP_SCD_0084	30	6	bus	NULL	nc	NULL	I_GN	OBJ	4	idtext0048	bus	##m###	spk2	72.06	72.38	0.01	_
20091112_RATP_SCD_0084	30	7	euh	DISF_M	pres	NULL	NULL	NOLINK	0	idtext0048	euh	#####	spk2	72.39	72.64	0.01	_
20091112_RATP_SCD_0084	30	8	le	NULL	det	NULL	B_GN	DET	9	idtext0048	le	##m#s##d	spk2	72.65	72.81	0.01	_
20091112_RATP_SCD_0084	30	9	soixante	NULL	nc	B_T	I_GN	SUJ	12	idtext0048	soixante	##m###	spk2	72.82	73.5	0.01	//
20091112_RATP_SCD_0084	30	10	euh	DISF_M	pres	I_T	NULL	NOLINK	0	idtext0048	euh	#####	spk2	73.51	73.68	0.01	_
20091112_RATP_SCD_0084	30	11	s()	DISF_T	tronc	I_T	NULL	NOLINK	0	idtext0048	s()	#####	spk2	73.69	73.87	0.01	_
20091112_RATP_SCD_0084	30	12	attends	NULL	v	NULL	B_GVf	ROOT	0	idtext0048	attendre	P#12##s##	spk2	73.88	74.18	0.01	_
20091112_RATP_SCD_0084	30	13	que	NULL	csu	NULL	B_NULL	OBJ	12	idtext0048	que	#####	spk2	74.19	74.27	0.01	_
20091112_RATP_SCD_0084	30	14	je	NULL	cln	NULL	B_GN	SUJ	16	idtext0049	cln	#1##s##	spk2	74.28	74.37	0.01	_
20091112_RATP_SCD_0084	30	15	vous	NULL	clo	NULL	B_GN	A_OBJ	16	idtext0049	cln	#2##p##	spk2	74.38	74.45	0.01	_
20091112_RATP_SCD_0084	30	16	dise	NULL	v	NULL	B_GVfn	OBJ	13	idtext0049	dire	S#13##s##	spk2	74.46	74.61	0.01	_
20091112_RATP_SCD_0084	30	17	pas	NULL	advneg	NULL	I_GVfn	MOD	16	idtext0049	pas	#####	spk2	74.62	74.75	0.01	_
20091112_RATP_SCD_0084	30	18	de	NULL	det	NULL	B_GN	DET	19	idtext0049	de	###p##i	spk2	74.76	74.79	0.01	_
20091112_RATP_SCD_0084	30	19	bêtise	NULL	nc	NULL	I_GN	OBJ	16	idtext0049	bêtise	##f#s##	spk2	74.8	75.2	0.46	_
20091112_RATP_SCD_0084	30	20	soixante-sept	NULL	nc	B_T	B_GN	ROOT	0	idtext0050	soixante-sept	#####	spk2	75.66	76.33	0.01	//
20091112_RATP_SCD_0084	30	21	ou	NULL	coo	NULL	B_NULL	COORD	20	idtext0051	ou	#####	spk2	76.34	76.38	0.01	_
20091112_RATP_SCD_0084	30	22	soixante-quatorze	NULL	nc	NULL	B_GN	DEP_COORD	21	idtext0051	soixante-quatorze	#####	spk2	76.39	77.33	1.07	_
20091112_RATP_SCD_0084	30	23	ils	NULL	cln	NULL	B_GN	SUJ	24	idtext0052	cln	#3#m#p##	spk2	78.4	78.56	0.01	_
20091112_RATP_SCD_0084	30	24	sont	NULL	v	NULL	B_GVf	ROOT	0	idtext0052	être	P#3##p##	spk2	78.57	78.74	0.01	_
20091112_RATP_SCD_0084	30	25	à+proximité	NULL	adv	NULL	B_GADV	MOD	24	idtext0052	à+proximité	#####	spk2	78.75	79.49	?	//

20091112_RATP_SCD_0084	31	1	de	NULL	prep	NULL	B_GP	ROOT	0	idtext0053	de	#####	spk2	79.53	79.83	0.01	_
20091112_RATP_SCD_0084	31	2	Saint-Paul	NULL	nc	B_A	I_GP	OBJ	1	idtext0053	Saint-Paul	##m#s##	spk2	79.84	80.57	?	_

20091112_RATP_SCD_0084	32	1	bah	DISF_M	pres	NULL	NULL	NOLINK	0	idtext0054	bah	#####	spk1	79.9	80.57	?	//

20091112_RATP_SCD_0084	33	1	c'	NULL	cln	NULL	B_GN	SUJ_IMP	2	idtext0055	ce	###s##	spk1	82.22	82.26	0.01	_
20091112_RATP_SCD_0084	33	2	est	NULL	v	NULL	B_GVf	ROOT	0	idtext0055	être	P#3##s##	spk1	82.27	82.43	0.01	_
20091112_RATP_SCD_0084	33	3	le	NULL	det	NULL	B_GN	DET	4	idtext0055	le	##m#s##d	spk1	82.44	82.49	0.01	_
20091112_RATP_SCD_0084	33	4	soixante-seize	NULL	nc	B_T	I_GN	ATS	2	idtext0055	soixante-seize	#####	spk1	82.5	83.14	?	//

20091112_RATP_SCD_0084	34	1	mais	NULL	coo	NULL	B_NULL	ROOT	0	idtext0056	mais	#####	spk1	83.86	83.96	0.01	_
20091112_RATP_SCD_0084	34	2	il	NULL	cln	NULL	B_GN	SUJ_IMP	3	idtext0056	cln	#3#m#s##	spk1	83.97	84.07	0.01	_
20091112_RATP_SCD_0084	34	3	faut	NULL	v	NULL	B_GVf	DEP_COORD	1	idtext0056	falloir	P#3##s##	spk1	84.08	84.16	0.01	_
20091112_RATP_SCD_0084	34	4	changer	NULL	vinf	NULL	I_GVf	OBJ	3	idtext0056	changer	W#####	spk1	84.17	84.38	0.01	_
20091112_RATP_SCD_0084	34	5	ou	NULL	coo	NULL	B_NULL	NOLINK	0	idtext0056	ou	#####	spk1	84.39	84.59	?	_

20091112_RATP_SCD_0084	35	1	non	NULL	adv	NULL	B_GADV	NOLINK	0	idtext0057	non	#####	spk2	83.97	84.59	?	_

20091112_RATP_SCD_0084	36	1	soixante-sept	NULL	nc	B_T	B_GN	NOLINK	0	idtext0058	soixante-sept	#####	spk2	84.68	85.7	?	//

20091112_RATP_SCD_0084	37	1	à+proximité	NULL	adv	NULL	B_GADV	NOLINK	0	idtext0059	à+proximité	#####	spk1	86.3	86.81	0.01	_
20091112_RATP_SCD_0084	37	2	de	NULL	prep	NULL	B_GP	ROOT	0	idtext0059	de	#####	spk1	86.82	86.85	0.01	_
20091112_RATP_SCD_0084	37	3	Saint-Paul	NULL	nc	B_A	I_GP	OBJ	2	idtext0059	Saint-Paul	##m#s##	spk1	86.86	87.4	?	//

20091112_RATP_SCD_0084	38	1	oui	NULL	adv	NULL	B_GADV	NOLINK	0	idtext0060	oui	#####	spk2	87.66	87.92	?	//

20091112_RATP_SCD_0084	39	1	ouais	NULL	adv	NULL	B_GADV	NOLINK	0	idtext0061	ouais	#####	spk1	88.64	88.71	0.01	_
20091112_RATP_SCD_0084	39	2	mais	NULL	coo	NULL	B_NULL	ROOT	0	idtext0061	mais	#####	spk1	88.72	88.81	0.01	_
20091112_RATP_SCD_0084	39	3	d'où	NULL	adv	NULL	B_GADV	NOLINK	0	idtext0061	d'où	#####	spk1	88.82	88.95	0.01	_
20091112_RATP_SCD_0084	39	4	vous	NULL	cln	NULL	B_GN	SUJ	5	idtext0061	cln	#2##p##	spk1	88.96	89.04	0.01	_
20091112_RATP_SCD_0084	39	5	êtes	NULL	v	NULL	B_GVf	DEP_COORD	2	idtext0061	être	P#2##p##	spk1	89.05	89.28	0.01	_
20091112_RATP_SCD_0084	39	6	vous	NULL	pro	NULL	B_GN	SUJ	5	idtext0061	vous	#####	spk1	89.29	89.44	0.01	_
20091112_RATP_SCD_0084	39	7	pour	NULL	prep	NULL	B_GP	MOD	5	idtext0061	pour	#####	spk1	89.45	89.62	0.01	_
20091112_RATP_SCD_0084	39	8	le	NULL	clo	NULL	I_GP	OBJ	9	idtext0061	cla	#3#m#s##	spk1	89.63	89.65	0.01	_
20091112_RATP_SCD_0084	39	9	récupérer	NULL	vinf	NULL	B_GVi	OBJ	7	idtext0061	récupérer	W#####	spk1	89.66	90.13	?	//

20091112_RATP_SCD_0084	40	1	c'	NULL	cln	NULL	B_GN	SUJ_IMP	2	idtext0062	ce	###s##	spk1	90.26	90.28	0.01	_
20091112_RATP_SCD_0084	40	2	est	NULL	v	NULL	B_GVf	ROOT	0	idtext0062	être	P#3##s##	spk1	90.29	91.02	0.01	_
20091112_RATP_SCD_0084	40	3	moins	NULL	adv	NULL	B_GADJ	MOD	4	idtext0062	moins	#####	spk1	91.03	91.3	0.01	_
20091112_RATP_SCD_0084	40	4	pratique	NULL	adj	NULL	I_GADJ	ATS	2	idtext0062	pratique	###s##	spk1	91.31	92.04	?	//

20091112_RATP_SCD_0084	41	1	moi	NULL	pro	NULL	B_GN	SUJ	4	idtext0063	moi	#####	spk2	90.17	90.47	0.01	_
20091112_RATP_SCD_0084	41	2	je	DISF_R	cln	NULL	NULL	NOLINK	0	idtext0063	cln	#1##s##	spk2	90.48	90.74	0.01	_
20091112_RATP_SCD_0084	41	3	je	NULL	cln	NULL	B_GN	SUJ	4	idtext0063	cln	#1##s##	spk2	90.75	90.89	0.01	_
20091112_RATP_SCD_0084	41	4	suis	NULL	v	NULL	B_GVf	ROOT	0	idtext0063	être	P#1##s##	spk2	90.9	91.17	0.01	_
20091112_RATP_SCD_0084	41	5	à	NULL	prep	NULL	B_GP	P_OBJ_LOC	4	idtext0063	à	#####	spk2	91.18	91.36	0.01	_
20091112_RATP_SCD_0084	41	6	Saint+Georges	NULL	nc	B_A	I_GP	OBJ	5	idtext0063	Saint+Georges	#####	spk2	91.37	92.04	?	//

20091112_RATP_SCD_0084	42	1	bah	DISF_M	pres	NULL	NULL	NOLINK	0	idtext0064	bah	#####	spk1	93.36	93.43	0.01	_
20091112_RATP_SCD_0084	42	2	alors	NULL	adv	NULL	B_GADV	NOLINK	0	idtext0064	alors	#####	spk1	93.44	93.56	0.01	_
20091112_RATP_SCD_0084	42	3	attendez	NULL	v	NULL	B_GVf	NOLINK	0	idtext0064	attendre	P#2##p##	spk1	93.57	93.76	0.01	_
20091112_RATP_SCD_0084	42	4	on	NULL	cln	NULL	B_GN	SUJ_IMP	5	idtext0064	cln	#3##s##	spk1	93.77	93.79	0.01	_
20091112_RATP_SCD_0084	42	5	va	NULL	v	NULL	B_GVf	ROOT	0	idtext0064	aller	P#3##s##	spk1	93.8	93.92	0.01	_
20091112_RATP_SCD_0084	42	6	regarder	NULL	vinf	NULL	I_GVf	OBJ	5	idtext0064	regarder	W#####	spk1	93.93	94.22	0.01	_
20091112_RATP_SCD_0084	42	7	vous	NULL	cln	NULL	B_GN	SUJ	8	idtext0064	cln	#2##p##	spk1	94.23	94.34	0.01	_
20091112_RATP_SCD_0084	42	8	êtes	NULL	v	NULL	B_GVf	ROOT	0	idtext0064	être	P#2##p##	spk1	94.35	94.53	0.01	_
20091112_RATP_SCD_0084	42	9	à	NULL	prep	NULL	B_GP	P_OBJ_LOC	8	idtext0064	à	#####	spk1	94.54	94.59	0.01	_
20091112_RATP_SCD_0084	42	10	Saint+Georges	NULL	nc	B_A	I_GP	OBJ	9	idtext0064	Saint+Georges	#####	spk1	94.6	95.02	0.01	_
20091112_RATP_SCD_0084	42	11	alors	NULL	adv	NULL	B_GADV	NOLINK	0	idtext0065	alors	#####	spk1	95.03	95.25	?	//

20091112_RATP_SCD_0084	43	1	oui	NULL	adv	NULL	B_GADV	NOLINK	0	idtext0066	oui	#####	spk2	95.29	95.62	0.41	_
20091112_RATP_SCD_0084	43	2	oui	NULL	adv	NULL	B_GADV	NOLINK	0	idtext0067	oui	#####	spk2	96.03	96.23	0.01	_
20091112_RATP_SCD_0084	43	3	c'	NULL	cln	NULL	B_GN	SUJ_IMP	4	idtext0067	ce	###s##	spk2	96.24	96.36	0.01	_
20091112_RATP_SCD_0084	43	4	est	NULL	v	NULL	B_GVf	ROOT	0	idtext0067	être	P#3##s##	spk2	96.37	96.93	0.01	_
20091112_RATP_SCD_0084	43	5	je	NULL	cln	NULL	B_GN	SUJ	6	idtext0067	cln	#1##s##	spk2	96.94	97.14	0.01	_
20091112_RATP_SCD_0084	43	6	suis	NULL	v	NULL	B_GVf	ROOT	0	idtext0067	être	P#1##s##	spk2	97.15	97.29	0.01	_
20091112_RATP_SCD_0084	43	7	à	NULL	prep	NULL	B_GP	P_OBJ_LOC	6	idtext0067	à	#####	spk2	97.3	97.38	0.01	_
20091112_RATP_SCD_0084	43	8	Saint+Georges	NULL	nc	B_A	I_GP	OBJ	7	idtext0067	Saint+Georges	#####	spk2	97.39	97.81	0.01	_
20091112_RATP_SCD_0084	43	9	ou	NULL	coo	NULL	B_NULL	COORD	8	idtext0068	ou	#####	spk2	97.82	97.87	0.01	_
20091112_RATP_SCD_0084	43	10	Le+Peletier	NULL	nc	B_A	B_GN	DEP_COORD	9	idtext0068	Le+Peletier	#####	spk2	97.88	98.35	0.01	_
20091112_RATP_SCD_0084	43	11	quoi	DISF_M	pres	I_A	NULL	NOLINK	0	idtext0069	quoi	#####	spk2	98.36	98.54	0.01	_
20091112_RATP_SCD_0084	43	12	puisqu'	NULL	csu	NULL	B_NULL	MOD	6	idtext0069	puisqu'	#####	spk2	98.55	98.78	0.01	_
20091112_RATP_SCD_0084	43	13	il	NULL	cln	NULL	B_GN	SUJ	14	idtext0069	cln	#3#m#s##	spk2	98.79	98.86	0.01	_
20091112_RATP_SCD_0084	43	14	passe	NULL	v	NULL	B_GVf	OBJ	12	idtext0069	passer	PS#13##s##	spk2	98.87	99.35	0.01	_
20091112_RATP_SCD_0084	43	15	euh	DISF_M	pres	NULL	NULL	NOLINK	0	idtext0069	euh	#####	spk2	99.36	99.41	0.01	_
20091112_RATP_SCD_0084	43	16	devant	NULL	prep	NULL	B_GP	P_OBJ_LOC	14	idtext0069	devant	#####	spk2	99.42	99.7	0.01	_
20091112_RATP_SCD_0084	43	17	Le+Peletier	NULL	nc	B_A	I_GP	OBJ	16	idtext0069	Le+Peletier	#####	spk2	99.71	100.22	0.01	_
20091112_RATP_SCD_0084	43	18	le	NULL	det	NULL	B_GN	DET	19	idtext0070	le	##m#s##d	spk2	100.23	100.47	0.01	_
20091112_RATP_SCD_0084	43	19	bus	NULL	nc	NULL	I_GN	SUJ	14	idtext0070	bus	##m###	spk2	100.48	101.0	?	//

20091112_RATP_SCD_0084	44	1	alors	NULL	adv	NULL	B_GADV	NOLINK	0	idtext0071	alors	#####	spk1	101.1	101.48	0.01	_
20091112_RATP_SCD_0084	44	2	Saint+Georges	NULL	nc	B_A	B_GN	NOLINK	0	idtext0071	Saint+Georges	#####	spk1	101.49	102.46	?	//

20091112_RATP_SCD_0084	45	1	euh	DISF_M	pres	NULL	NULL	NOLINK	0	idtext0072	euh	#####	spk1	110.04	110.49	0.01	_
20091112_RATP_SCD_0084	45	2	Saint+Georges	NULL	nc	B_A	B_GN	NOLINK	0	idtext0072	Saint+Georges	#####	spk1	110.5	110.94	0.01	//
20091112_RATP_SCD_0084	45	3	dans+ces+cas-là	NULL	adv	NULL	B_GADV	MOD	4	idtext0073	dans+ces+cas-là	#####	spk1	110.95	111.47	0.01	_
20091112_RATP_SCD_0084	45	4	faudrait	NULL	v	NULL	B_GVf	ROOT	0	idtext0073	falloir	C#3##s##	spk1	111.48	111.69	0.01	_
20091112_RATP_SCD_0084	45	5	prendre	NULL	vinf	NULL	I_GVf	OBJ	4	idtext0073	prendre	W#####	spk1	111.7	111.91	0.01	_
20091112_RATP_SCD_0084	45	6	le	NULL	det	NULL	B_GN	DET	7	idtext0073	le	##m#s##d	spk1	111.92	112.05	0.01	_
20091112_RATP_SCD_0084	45	7	soixante-quatorze	NULL	nc	B_T	I_GN	OBJ	5	idtext0073	soixante-quatorze	#####	spk1	112.06	113.11	?	//

20091112_RATP_SCD_0084	46	1	moui	NULL	adv	NULL	B_GADV	NOLINK	0	idtext0074	moui	#####	spk2	113.15	113.45	?	//

20091112_RATP_SCD_0084	47	1	aller	NULL	vinf	NULL	B_GVi	ROOT	0	idtext0075	aller	W#####	spk1	113.5	113.63	0.01	_
20091112_RATP_SCD_0084	47	2	jusqu'à	NULL	prep	NULL	B_GP	P_OBJ_LOC	1	idtext0075	jusqu'à	#####	spk1	113.64	113.87	0.01	_
20091112_RATP_SCD_0084	47	3	Châtelet	NULL	nc	B_A	I_GP	OBJ	2	idtext0075	Châtelet	#####	spk1	113.88	114.48	?	//

20091112_RATP_SCD_0084	48	1	oui	NULL	adv	NULL	B_GADV	NOLINK	0	idtext0076	oui	#####	spk2	114.54	114.88	?	//

20091112_RATP_SCD_0084	49	1	et	NULL	coo	NULL	B_NULL	ROOT	0	idtext0077	et	#####	spk1	114.93	114.99	0.01	_
20091112_RATP_SCD_0084	49	2	après	NULL	prep	NULL	B_GP	DEP_COORD	1	idtext0077	après	#####	spk1	115.0	115.3	0.01	_
20091112_RATP_SCD_0084	49	3	finir	NULL	vinf	NULL	I_GP	OBJ	2	idtext0077	finir	W#####	spk1	115.31	115.52	0.01	_
20091112_RATP_SCD_0084	49	4	avec	NULL	prep	NULL	B_GP	P_OBJ	3	idtext0077	avec	#####	spk1	115.53	115.74	0.01	_
20091112_RATP_SCD_0084	49	5	le	NULL	det	NULL	I_GP	DET	6	idtext0077	le	##m#s##d	spk1	115.75	115.91	0.01	_
20091112_RATP_SCD_0084	49	6	soixante-neuf	NULL	nc	B_T	I_GP	OBJ	4	idtext0077	soixante-neuf	#####	spk1	115.92	116.82	0.19	_
20091112_RATP_SCD_0084	49	7	jusqu'à	NULL	prep	NULL	B_GP	ROOT	0	idtext0078	jusqu'à	#####	spk1	117.01	117.22	0.01	_
20091112_RATP_SCD_0084	49	8	Saint-Paul	NULL	nc	B_A	I_GP	OBJ	7	idtext0078	Saint-Paul	##m#s##	spk1	117.23	117.61	?	//

20091112_RATP_SCD_0084	50	1	bon	DISF_M	pres	NULL	NULL	NOLINK	0	idtext0079	bon	#####	spk2	118.08	118.37	0.22	//
20091112_RATP_SCD_0084	50	2	bah	DISF_M	pres	NULL	NULL	NOLINK	0	idtext0080	bah	#####	spk2	118.59	118.83	0.01	_
20091112_RATP_SCD_0084	50	3	le	NULL	det	NULL	B_GN	DET	4	idtext0080	le	##m#s##d	spk2	118.84	119.19	0.01	_
20091112_RATP_SCD_0084	50	4	métro	NULL	nc	NULL	I_GN	SUJ	5	idtext0080	métro	##m#s##	spk2	119.2	119.52	0.01	_
20091112_RATP_SCD_0084	50	5	est	NULL	v	NULL	B_GVf	ROOT	0	idtext0080	être	P#3##s##	spk2	119.53	119.7	0.01	_
20091112_RATP_SCD_0084	50	6	plus	NULL	adv	NULL	B_GADJ	MOD	7	idtext0080	plus	#####	spk2	119.71	119.93	0.01	_
20091112_RATP_SCD_0084	50	7	rapide	NULL	adj	NULL	I_GADJ	ATS	5	idtext0080	rapide	###s##	spk2	119.94	120.31	?	//

20091112_RATP_SCD_0084	51	1	je	NULL	cln	NULL	B_GN	SUJ	2	idtext0081	cln	#1##s##	spk2	120.35	120.38	0.01	_
20091112_RATP_SCD_0084	51	2	crois	NULL	v	NULL	B_GVf	ROOT	0	idtext0081	croire	P#12##s##	spk2	120.39	121.04	?	//

20091112_RATP_SCD_0084	52	1	ah	DISF_M	pres	NULL	NULL	NOLINK	0	idtext0082	ah	#####	spk1	120.37	120.49	0.01	_
20091112_RATP_SCD_0084	52	2	oui	NULL	adv	NULL	B_GADV	MOD	3	idtext0082	oui	#####	spk1	120.5	120.68	0.01	_
20091112_RATP_SCD_0084	52	3	tout+à+fait	NULL	adv	NULL	I_GADV	ROOT	0	idtext0082	tout+à+fait	#####	spk1	120.69	121.04	?	_

20091112_RATP_SCD_0084	53	1	bon	DISF_M	pres	NULL	NULL	NOLINK	0	idtext0083	bon	#####	spk2	121.33	121.61	0.55	_
20091112_RATP_SCD_0084	53	2	et	NULL	coo	NULL	B_NULL	ROOT	0	idtext0084	et	#####	spk2	122.16	122.32	0.01	_
20091112_RATP_SCD_0084	53	3	il	NULL	cln	NULL	B_GN	SUJ_IMP	5	idtext0084	cln	#3#m#s##	spk2	122.33	122.38	0.01	_
20091112_RATP_SCD_0084	53	4	me	NULL	clo	NULL	B_GN	A_OBJ	5	idtext0084	cla	#1##s##	spk2	122.39	122.41	0.01	_
20091112_RATP_SCD_0084	53	5	reste	NULL	v	NULL	B_GVfn	DEP_COORD	2	idtext0084	rester	PS#13##s##	spk2	122.42	122.64	0.01	_
20091112_RATP_SCD_0084	53	6	qu'	NULL	advneg	NULL	I_GVfn	MOD	5	idtext0084	qu'	#####	spk2	122.65	122.75	0.01	_
20091112_RATP_SCD_0084	53	7	à	NULL	prep	NULL	B_GP	ATS	5	idtext0084	à	#####	spk2	122.76	122.78	0.01	_
20091112_RATP_SCD_0084	53	8	vous	NULL	clo	NULL	I_GP	OBJ	9	idtext0084	cln	#2##p##	spk2	122.79	122.88	0.01	_
20091112_RATP_SCD_0084	53	9	remercier	NULL	vinf	NULL	B_GVi	OBJ	7	idtext0084	remercier	W#####	spk2	122.89	123.24	0.01	_
20091112_RATP_SCD_0084	53	10	pour	NULL	prep	NULL	B_GP	P_OBJ	9	idtext0084	pour	#####	spk2	123.25	123.4	0.01	_
20091112_RATP_SCD_0084	53	11	votre	NULL	det	NULL	I_GP	DET	12	idtext0084	votre	###s##o	spk2	123.41	123.61	0.01	_
20091112_RATP_SCD_0084	53	12	obligeance	NULL	nc	NULL	I_GP	OBJ	10	idtext0084	obligeance	##f#s##	spk2	123.62	124.11	?	//

20091112_RATP_SCD_0084	54	1	eh	DISF_M	pres	NULL	NULL	NOLINK	0	idtext0085	eh	#####	spk1	124.21	124.24	0.01	_
20091112_RATP_SCD_0084	54	2	bé	DISF_M	pres	NULL	NULL	NOLINK	0	idtext0085	bé	#####	spk1	124.25	124.31	0.01	_
20091112_RATP_SCD_0084	54	3	écoutez	DISF_M	pres	NULL	NULL	NOLINK	0	idtext0085	écoutez	#####	spk1	124.32	124.69	0.01	_
20091112_RATP_SCD_0084	54	4	je	NULL	cln	NULL	B_GN	SUJ	6	idtext0085	cln	#1##s##	spk1	124.7	124.72	0.01	_
20091112_RATP_SCD_0084	54	5	en	NULL	clo	NULL	B_GN	DE_OBJ	6	idtext0085	en	#####	spk1	124.73	124.8	0.01	_
20091112_RATP_SCD_0084	54	6	prie	NULL	v	NULL	B_GVf	ROOT	0	idtext0085	prier	PS#13##s##	spk1	124.81	125.01	?	//

20091112_RATP_SCD_0084	55	1	bonne	NULL	adj	NULL	B_GN	MOD	2	idtext0086	bon	##f#s##	spk1	125.05	125.18	0.01	_
20091112_RATP_SCD_0084	55	2	journée	NULL	nc	NULL	I_GN	ROOT	0	idtext0086	journée	##f#s##	spk1	125.19	125.36	0.01	_
20091112_RATP_SCD_0084	55	3	madame	NULL	nc	NULL	B_GN	NOLINK	0	idtext0086	Monsieur	##f#s##	spk1	125.37	125.62	?	//

20091112_RATP_SCD_0084	56	1	bonne	NULL	adj	NULL	B_GN	MOD	2	idtext0087	bon	##f#s##	spk2	125.76	125.95	0.01	_
20091112_RATP_SCD_0084	56	2	journée	NULL	nc	NULL	I_GN	ROOT	0	idtext0087	journée	##f#s##	spk2	125.96	126.22	0.01	_
20091112_RATP_SCD_0084	56	3	à	NULL	prep	NULL	B_GP	ROOT	0	idtext0087	à	#####	spk2	126.23	126.29	0.01	_
20091112_RATP_SCD_0084	56	4	vous	NULL	pro	NULL	I_GP	OBJ	3	idtext0087	vous	#####	spk2	126.3	126.6	?	_

20091112_RATP_SCD_0084	57	1	au+revoir	NULL	adv	NULL	B_GADV	NOLINK	0	idtext0088	au+revoir	#####	spk1	126.64	127.04	?	//

20091112_RATP_SCD_0084	58	1	au+revoir	NULL	adv	NULL	B_GADV	NOLINK	0	idtext0089	au+revoir	#####	spk2	126.64	127.04	?	//

