20091112_RATP_SCD_0271	1	1	NNAAMMEE	NULL	np	B_HU	B_GN	ROOT	0	idtext0000	ANONYM	NULL	spk1	6.29	6.48	0.05	_
20091112_RATP_SCD_0271	1	2	bonjour	NULL	adv	NULL	B_GADV	NOLINK	0	idtext0001	bonjour	#####	spk1	6.53	7.08	?	//

20091112_RATP_SCD_0271	2	1	oui	NULL	adv	NULL	B_GADV	MOD	2	idtext0002	oui	#####	spk2	7.59	7.84	0.01	_
20091112_RATP_SCD_0271	2	2	bonjour	NULL	adv	NULL	I_GADV	ROOT	0	idtext0002	bonjour	#####	spk2	7.85	8.22	0.01	_
20091112_RATP_SCD_0271	2	3	monsieur	NULL	nc	NULL	B_GN	NOLINK	0	idtext0002	Monsieur	##m#s##	spk2	8.23	8.5	0.01	_
20091112_RATP_SCD_0271	2	4	je	NULL	cln	NULL	B_GN	SUJ	6	idtext0002	cln	#1##s##	spk2	8.51	8.64	0.01	_
20091112_RATP_SCD_0271	2	5	vous	NULL	clo	NULL	B_GN	OBJ	6	idtext0002	cln	#2##p##	spk2	8.65	8.73	0.01	_
20091112_RATP_SCD_0271	2	6	appelle	NULL	v	NULL	B_GVf	ROOT	0	idtext0002	appeler	PS#13##s##	spk2	8.74	8.98	0.01	_
20091112_RATP_SCD_0271	2	7	parce+que	NULL	csu	NULL	B_NULL	MOD	6	idtext0002	parce+que	#####	spk2	8.99	9.49	0.01	_
20091112_RATP_SCD_0271	2	8	euh	DISF_M	pres	NULL	NULL	NOLINK	0	idtext0002	euh	#####	spk2	9.5	9.62	0.01	_
20091112_RATP_SCD_0271	2	9	ce	NULL	det	NULL	B_GN	DET	10	idtext0002	ce	##m#s##e	spk2	9.63	9.69	0.01	_
20091112_RATP_SCD_0271	2	10	matin	NULL	nc	NULL	I_GN	MOD	13	idtext0002	matin	##m#s##	spk2	9.7	10.05	0.01	_
20091112_RATP_SCD_0271	2	11	j'	NULL	cln	NULL	B_GN	SUJ	13	idtext0002	cln	#1##s##	spk2	10.06	10.13	0.01	_
20091112_RATP_SCD_0271	2	12	ai	NULL	v	NULL	B_GVf	AUX	13	idtext0002	avoir	P#1##s##	spk2	10.14	10.24	0.01	_
20091112_RATP_SCD_0271	2	13	pris	NULL	vppart	NULL	I_GVf	OBJ	7	idtext0002	prendre	K##m###	spk2	10.25	10.44	0.01	_
20091112_RATP_SCD_0271	2	14	les	NULL	det	NULL	B_GN	DET	15	idtext0002	le	###p##d	spk2	10.45	10.51	0.01	_
20091112_RATP_SCD_0271	2	15	transports	NULL	nc	NULL	I_GN	OBJ	13	idtext0002	transport	##m#p##	spk2	10.52	10.94	0.01	_
20091112_RATP_SCD_0271	2	16	en+commun	NULL	adv	NULL	B_GADV	MOD	17	idtext0002	en+commun	#####	spk2	10.95	11.29	0.01	_
20091112_RATP_SCD_0271	2	17	comme	NULL	adv	NULL	I_GADV	MOD	15	idtext0002	comme	#####	spk2	11.3	11.49	0.01	_
20091112_RATP_SCD_0271	2	18	d'+habitude	NULL	adv	NULL	B_GADV	OBJ	17	idtext0002	d'+habitude	#####	spk2	11.5	12.14	?	//

20091112_RATP_SCD_0271	3	1	hm+hm	DISF_M	pres	NULL	NULL	NOLINK	0	idtext0003	hm+hm	#####	spk1	12.2	12.45	?	//

20091112_RATP_SCD_0271	4	1	j'	NULL	cln	NULL	B_GN	SUJ	2	idtext0004	cln	#1##s##	spk2	12.49	12.77	0.01	_
20091112_RATP_SCD_0271	4	2	habite	NULL	v	NULL	B_GVf	ROOT	0	idtext0004	habiter	PS#13##s##	spk2	12.78	13.07	0.01	_
20091112_RATP_SCD_0271	4	3	en	NULL	prep	NULL	B_GP	P_OBJ_LOC	2	idtext0004	en	#####	spk2	13.08	13.17	0.01	_
20091112_RATP_SCD_0271	4	4	banlieue	NULL	nc	NULL	I_GP	OBJ	3	idtext0004	banlieue	##f#s##	spk2	13.18	13.42	0.01	_
20091112_RATP_SCD_0271	4	5	et	NULL	coo	NULL	B_NULL	COORD	4	idtext0004	et	#####	spk2	13.43	14.17	0.01	_
20091112_RATP_SCD_0271	4	6	euh	DISF_M	pres	NULL	NULL	NOLINK	0	idtext0004	euh	#####	spk2	14.18	14.2	0.01	_
20091112_RATP_SCD_0271	4	7	mon	NULL	det	NULL	B_GN	DET	8	idtext0004	mon	###s##o	spk2	14.21	14.76	0.01	_
20091112_RATP_SCD_0271	4	8	étuis	NULL	nc	NULL	I_GN	DEP_COORD	5	idtext0004	étui	##m#p##	spk2	14.77	15.13	0.01	_
20091112_RATP_SCD_0271	4	9	de	NULL	prep	NULL	B_GP	DEP	8	idtext0004	de	#####	spk2	15.14	15.37	0.01	_
20091112_RATP_SCD_0271	4	10	carte	NULL	nc	B_PRD	I_GP	OBJ	9	idtext0004	carte	##f#s##	spk2	15.38	15.65	0.01	_
20091112_RATP_SCD_0271	4	11	Navigo	NULL	np	I_PRD	I_GP	MOD	10	idtext0004	Navigo	#####	spk2	15.66	16.26	0.01	_
20091112_RATP_SCD_0271	4	12	euh	DISF_M	pres	I_PRD	NULL	NOLINK	0	idtext0004	euh	#####	spk2	16.27	16.47	0.01	_
20091112_RATP_SCD_0271	4	13	étant	NULL	vprespart	NULL	B_GVf	OBJ	18	idtext0004	être	G#####	spk2	16.48	16.86	0.01	_
20091112_RATP_SCD_0271	4	14	vieux	NULL	adj	NULL	B_GADJ	MOD	8	idtext0004	vieux	##m###	spk2	16.87	17.19	0.01	_
20091112_RATP_SCD_0271	4	15	ma	NULL	det	NULL	B_GN	DET	16	idtext0004	mon	##f#s##o	spk2	17.2	17.32	0.01	_
20091112_RATP_SCD_0271	4	16	carte	NULL	nc	NULL	I_GN	OBJ	14	idtext0004	carte	##f#s##	spk2	17.33	17.64	0.01	_
20091112_RATP_SCD_0271	4	17	à	NULL	prep	NULL	B_GP	DEP	16	idtext0004	à	#####	spk2	17.65	17.69	0.01	_
20091112_RATP_SCD_0271	4	18	glisser	NULL	vinf	NULL	I_GP	OBJ	17	idtext0004	glisser	W#####	spk2	17.7	18.32	0.26	/
20091112_RATP_SCD_0271	4	19	et	NULL	coo	NULL	B_NULL	ROOT	0	idtext0005	et	#####	spk2	18.58	18.6	0.01	_
20091112_RATP_SCD_0271	4	20	je	NULL	cln	NULL	B_GN	SUJ	24	idtext0005	cln	#1##s##	spk2	18.61	18.86	0.01	_
20091112_RATP_SCD_0271	4	21	m'	NULL	clr	NULL	B_GNr	AFF	24	idtext0005	cla	#1##s##	spk2	18.87	18.93	0.01	_
20091112_RATP_SCD_0271	4	22	en	NULL	clo	NULL	B_GN	DE_OBJ	24	idtext0005	en	#####	spk2	18.94	18.99	0.01	_
20091112_RATP_SCD_0271	4	23	suis	NULL	v	NULL	B_GVf	AUX	24	idtext0005	être	P#1##s##	spk2	19.0	19.15	0.01	_
20091112_RATP_SCD_0271	4	24	rendue	NULL	vppart	NULL	I_GVf	DEP_COORD	19	idtext0005	rendre	K##f#s##	spk2	19.16	19.41	0.01	_
20091112_RATP_SCD_0271	4	25	compte	NULL	nc	NULL	B_GN	OBJ	24	idtext0005	compte	##m#s##	spk2	19.42	19.65	0.01	_
20091112_RATP_SCD_0271	4	26	arrivée	NULL	adj	NULL	I_GN	MOD	25	idtext0005	arrivé	##f#s##	spk2	19.66	19.93	0.01	_
20091112_RATP_SCD_0271	4	27	à	NULL	prep	NULL	B_GP	P_OBJ_LOC	24	idtext0005	à	#####	spk2	19.94	19.96	0.01	_
20091112_RATP_SCD_0271	4	28	la	NULL	det	NULL	I_GP	DET	29	idtext0005	le	##m#s##d	spk2	19.97	20.06	0.01	_
20091112_RATP_SCD_0271	4	29	Gare+Saint-Lazare	NULL	nc	B_A	I_GP	OBJ	27	idtext0005	Gare+Saint-Lazare	#####	spk2	20.07	20.98	?	//

20091112_RATP_SCD_0271	5	1	hm	DISF_M	pres	NULL	NULL	NOLINK	0	idtext0006	hm	#####	spk1	21.02	21.34	?	//

20091112_RATP_SCD_0271	6	1	donc	NULL	coo	NULL	B_NULL	ROOT	0	idtext0007	donc	#####	spk2	21.71	22.32	0.01	_
20091112_RATP_SCD_0271	6	2	euh	DISF_M	pres	NULL	NULL	NOLINK	0	idtext0007	euh	#####	spk2	22.33	22.35	0.01	_
20091112_RATP_SCD_0271	6	3	j'	NULL	cln	NULL	B_GN	SUJ	5	idtext0007	cln	#1##s##	spk2	22.36	22.46	0.01	_
20091112_RATP_SCD_0271	6	4	ai	NULL	v	NULL	B_GVf	AUX	5	idtext0007	avoir	P#1##s##	spk2	22.47	22.53	0.01	_
20091112_RATP_SCD_0271	6	5	perdu	NULL	vppart	NULL	I_GVf	DEP_COORD	1	idtext0007	perdre	K##m#s##	spk2	22.54	22.81	0.01	_
20091112_RATP_SCD_0271	6	6	ma	NULL	det	NULL	B_GN	DET	7	idtext0007	mon	##f#s##o	spk2	22.82	22.94	0.01	_
20091112_RATP_SCD_0271	6	7	carte	NULL	nc	B_PRD	I_GN	OBJ	5	idtext0007	carte	##f#s##	spk2	22.95	23.19	0.01	_
20091112_RATP_SCD_0271	6	8	Navigo	NULL	np	I_PRD	I_GN	MOD	7	idtext0007	Navigo	#####	spk2	23.2	23.82	0.01	_
20091112_RATP_SCD_0271	6	9	et	NULL	coo	NULL	B_NULL	COORD	5	idtext0007	et	#####	spk2	23.83	24.2	0.01	_
20091112_RATP_SCD_0271	6	10	voilà	DISF_M	pres	NULL	NULL	NOLINK	0	idtext0007	voilà	#####	spk2	24.21	24.69	0.01	_
20091112_RATP_SCD_0271	6	11	je	NULL	cln	NULL	B_GN	SUJ	14	idtext0007	cln	#1##s##	spk2	24.7	24.81	0.01	_
20091112_RATP_SCD_0271	6	12	suis	NULL	v	NULL	B_GVf	AUX	14	idtext0007	être	P#1##s##	spk2	24.82	24.9	0.01	_
20091112_RATP_SCD_0271	6	13	un+peu	NULL	adv	NULL	I_GVf	MOD	14	idtext0007	un+peu	#####	spk2	24.91	25.13	0.01	_
20091112_RATP_SCD_0271	6	14	paumée	NULL	vppart	NULL	I_GVf	DEP_COORD	9	idtext0007	paumer	K##f#s##	spk2	25.14	25.57	0.01	_
20091112_RATP_SCD_0271	6	15	parce+que	NULL	csu	NULL	B_NULL	MOD	5	idtext0007	parce+que	#####	spk2	25.58	25.83	0.01	_
20091112_RATP_SCD_0271	6	16	c'	NULL	cln	NULL	B_GN	SUJ_IMP	17	idtext0007	ce	###s##	spk2	25.84	25.86	0.01	_
20091112_RATP_SCD_0271	6	17	est	NULL	v	NULL	B_GVf	OBJ	15	idtext0007	être	P#3##s##	spk2	25.87	26.01	0.01	_
20091112_RATP_SCD_0271	6	18	une	NULL	det	NULL	B_GN	DET	19	idtext0007	un	##f#s##i	spk2	26.02	26.15	0.01	_
20091112_RATP_SCD_0271	6	19	carte	NULL	nc	B_PRD	I_GN	ATS	17	idtext0007	carte	##f#s##	spk2	26.16	26.42	0.01	_
20091112_RATP_SCD_0271	6	20	Intégrale	NULL	np	I_PRD	I_GN	MOD	19	idtext0007	Intégrale	#####	spk2	26.43	27.01	0.01	_
20091112_RATP_SCD_0271	6	21	donc	NULL	coo	NULL	B_NULL	COORD	17	idtext0007	donc	#####	spk2	27.02	27.38	0.01	//
20091112_RATP_SCD_0271	6	22	euh	DISF_M	pres	NULL	NULL	NOLINK	0	idtext0007	euh	#####	spk2	27.39	27.48	0.01	_
20091112_RATP_SCD_0271	6	23	je	NULL	cln	NULL	B_GN	SUJ	24	idtext0007	cln	#1##s##	spk2	27.49	27.59	0.01	_
20091112_RATP_SCD_0271	6	24	sais	NULL	v	NULL	B_GVfn	DEP_COORD	21	idtext0007	savoir	P#12##s##	spk2	27.6	27.74	0.01	_
20091112_RATP_SCD_0271	6	25	pas	NULL	advneg	NULL	I_GVfn	MOD	24	idtext0007	pas	#####	spk2	27.75	27.87	0.01	_
20091112_RATP_SCD_0271	6	26	comment	NULL	adv	NULL	B_GADV	OBJ	24	idtext0007	comment	#####	spk2	27.88	28.15	0.01	_
20091112_RATP_SCD_0271	6	27	ça	NULL	pro	NULL	B_GN	SUJ_IMP	29	idtext0007	ça	#####	spk2	28.16	28.24	0.01	_
20091112_RATP_SCD_0271	6	28	se	NULL	clr	NULL	B_GVf	AFF	29	idtext0007	se	#####	spk2	28.25	28.31	0.01	_
20091112_RATP_SCD_0271	6	29	passe	NULL	v	NULL	I_GVf	OBJ	26	idtext0007	passer	PS#13##s##	spk2	28.32	28.85	?	//

20091112_RATP_SCD_0271	7	1	alors	NULL	adv	NULL	B_GADV	NOLINK	0	idtext0008	alors	#####	spk1	28.89	29.05	0.01	_
20091112_RATP_SCD_0271	7	2	ce+qu'	NULL	prorel	NULL	B_NULL	OBJ	4	idtext0008	ce+qu'	#####	spk1	29.06	29.19	0.01	_
20091112_RATP_SCD_0271	7	3	il	NULL	cln	NULL	B_GN	SUJ_IMP	4	idtext0008	cln	#3#m#s##	spk1	29.2	29.25	0.01	_
20091112_RATP_SCD_0271	7	4	faut	NULL	v	NULL	B_GVf	ROOT	0	idtext0008	falloir	P#3##s##	spk1	29.26	29.38	0.01	_
20091112_RATP_SCD_0271	7	5	faire	NULL	vinf	NULL	I_GVf	OBJ	4	idtext0008	faire	W#####	spk1	29.39	29.64	0.01	_
20091112_RATP_SCD_0271	7	6	c'	NULL	cln	NULL	B_GN	SUJ_IMP	7	idtext0008	ce	###s##	spk1	29.65	29.75	0.01	_
20091112_RATP_SCD_0271	7	7	est	NULL	v	NULL	B_GVf	ROOT	0	idtext0008	être	P#3##s##	spk1	29.76	30.6	0.01	_
20091112_RATP_SCD_0271	7	8	vous	NULL	cln	NULL	B_GN	SUJ	9	idtext0009	cln	#2##p##	spk1	30.61	30.69	0.01	_
20091112_RATP_SCD_0271	7	9	passez	NULL	v	NULL	B_GVf	ROOT	0	idtext0009	passer	P#2##p##	spk1	30.7	30.93	0.01	_
20091112_RATP_SCD_0271	7	10	dans	NULL	prep	NULL	B_GP	P_OBJ_LOC	9	idtext0009	dans	#####	spk1	30.94	31.08	0.01	_
20091112_RATP_SCD_0271	7	11	une	NULL	det	NULL	I_GP	DET	12	idtext0009	un	##f#s##i	spk1	31.09	31.14	0.01	_
20091112_RATP_SCD_0271	7	12	agence	NULL	nc	B_PRD	I_GP	OBJ	10	idtext0009	agence	##f#s##	spk1	31.15	31.45	0.01	//
20091112_RATP_SCD_0271	7	13	euh	DISF_M	pres	I_PRD	NULL	NOLINK	0	idtext0009	euh	#####	spk1	31.46	31.63	0.01	_
20091112_RATP_SCD_0271	7	14	Intégrale	NULL	np	I_PRD	I_GP	MOD	12	idtext0009	Intégrale	#####	spk1	31.64	32.15	0.01	_
20091112_RATP_SCD_0271	7	15	il	NULL	cln	NULL	B_GN	SUJ_IMP	18	idtext0009	cln	#3#m#s##	spk1	32.16	32.21	0.01	_
20091112_RATP_SCD_0271	7	16	y	NULL	clo	NULL	B_GN	AFF	18	idtext0009	y	#####	spk1	32.22	32.26	0.01	_
20091112_RATP_SCD_0271	7	17	en	NULL	clo	NULL	B_GN	OBJ	18	idtext0009	en	#####	spk1	32.27	32.29	0.01	_
20091112_RATP_SCD_0271	7	18	a	NULL	v	NULL	B_GVf	P_OBJ	9	idtext0009	avoir	P#3##s##	spk1	32.3	32.36	0.01	_
20091112_RATP_SCD_0271	7	19	dans	NULL	prep	NULL	B_GP	P_OBJ	9	idtext0009	dans	#####	spk1	32.37	32.51	0.01	_
20091112_RATP_SCD_0271	7	20	toutes+les	NULL	det	NULL	I_GP	DET	22	idtext0009	toutes+les	#####	spk1	32.52	32.79	0.01	_
20091112_RATP_SCD_0271	7	21	grandes	NULL	adj	NULL	I_GP	MOD	22	idtext0009	grand	##f#p##	spk1	32.8	32.99	0.01	_
20091112_RATP_SCD_0271	7	22	gares	NULL	nc	NULL	I_GP	OBJ	19	idtext0009	gare	##f#p##	spk1	33.0	33.2	0.01	_
20091112_RATP_SCD_0271	7	23	à	NULL	prep	NULL	B_GP	MOD	22	idtext0009	à	#####	spk1	33.21	33.34	0.01	_
20091112_RATP_SCD_0271	7	24	Paris	NULL	nc	B_A	I_GP	OBJ	23	idtext0009	Paris	##m#s##	spk1	33.35	34.09	?	//

20091112_RATP_SCD_0271	8	1	ouais	NULL	adv	NULL	B_GADV	NOLINK	0	idtext0010	ouais	#####	spk2	34.14	34.45	0.01	_
20091112_RATP_SCD_0271	8	2	bah	DISF_M	pres	NULL	NULL	NOLINK	0	idtext0010	bah	#####	spk2	34.46	34.55	0.01	_
20091112_RATP_SCD_0271	8	3	je	NULL	cln	NULL	B_GN	SUJ	4	idtext0010	cln	#1##s##	spk2	34.56	34.65	0.01	_
20091112_RATP_SCD_0271	8	4	peux	NULL	v	NULL	B_GVf	ROOT	0	idtext0010	pouvoir	P#12##s##	spk2	34.66	34.72	0.01	_
20091112_RATP_SCD_0271	8	5	aller	NULL	vinf	NULL	I_GVf	OBJ	4	idtext0010	aller	W#####	spk2	34.73	34.89	0.01	_
20091112_RATP_SCD_0271	8	6	à	NULL	prep	NULL	B_GP	P_OBJ_LOC	5	idtext0010	à	#####	spk2	34.9	35.01	0.01	_
20091112_RATP_SCD_0271	8	7	Franklin+Roosevelt	NULL	nc	B_A	I_GP	OBJ	6	idtext0010	Franklin+Roosevelt	#####	spk2	35.02	36.08	?	//

20091112_RATP_SCD_0271	9	1	oui	NULL	adv	NULL	B_GADV	NOLINK	0	idtext0011	oui	#####	spk1	36.12	36.24	?	//

20091112_RATP_SCD_0271	10	1	c'	NULL	cln	NULL	B_GN	SUJ_IMP	2	idtext0012	ce	###s##	spk2	36.28	36.3	0.01	_
20091112_RATP_SCD_0271	10	2	est	NULL	v	NULL	B_GVf	ROOT	0	idtext0012	être	P#3##s##	spk2	36.31	36.33	0.01	_
20091112_RATP_SCD_0271	10	3	plus	NULL	adv	NULL	B_GADV	MOD	6	idtext0012	plus	#####	spk2	36.34	36.42	0.01	_
20091112_RATP_SCD_0271	10	4	près+de	NULL	prep	NULL	B_GP	P_OBJ_LOC	2	idtext0012	près+de	#####	spk2	36.43	37.0	0.01	_
20091112_RATP_SCD_0271	10	5	mon	NULL	det	NULL	I_GP	DET	6	idtext0012	mon	###s##o	spk2	37.01	37.18	0.01	_
20091112_RATP_SCD_0271	10	6	lieu	NULL	nc	NULL	I_GP	OBJ	4	idtext0012	lieu	##m#s##	spk2	37.19	37.35	0.01	_
20091112_RATP_SCD_0271	10	7	de	NULL	prep	NULL	B_GP	DEP	6	idtext0012	de	#####	spk2	37.36	37.38	0.01	_
20091112_RATP_SCD_0271	10	8	travail	NULL	nc	NULL	I_GP	OBJ	7	idtext0012	travail	##m#s##	spk2	37.39	37.89	?	//

20091112_RATP_SCD_0271	11	1	alors	NULL	adv	NULL	B_GADV	NOLINK	0	idtext0013	alors	#####	spk1	37.93	38.04	0.01	_
20091112_RATP_SCD_0271	11	2	attendez	NULL	v	NULL	B_GVf	NOLINK	0	idtext0013	attendre	P#2##p##	spk1	38.05	38.56	0.01	_
20091112_RATP_SCD_0271	11	3	je	NULL	cln	NULL	B_GN	SUJ	4	idtext0013	cln	#1##s##	spk1	38.57	38.64	0.01	_
20091112_RATP_SCD_0271	11	4	regarde	NULL	v	NULL	B_GVf	ROOT	0	idtext0013	regarder	PS#13##s##	spk1	38.65	38.93	0.01	_
20091112_RATP_SCD_0271	11	5	si	NULL	csu	NULL	B_NULL	ROOT	0	idtext0013	si	#####	spk1	38.94	38.99	0.01	_
20091112_RATP_SCD_0271	11	6	il	NULL	cln	NULL	B_GN	SUJ_IMP	9	idtext0013	cln	#3#m#s##	spk1	39.0	39.05	0.01	_
20091112_RATP_SCD_0271	11	7	y	NULL	clo	NULL	B_GN	AFF	9	idtext0013	y	#####	spk1	39.06	39.08	0.01	_
20091112_RATP_SCD_0271	11	8	en	NULL	clo	NULL	B_GN	OBJ	9	idtext0013	en	#####	spk1	39.09	39.18	0.01	_
20091112_RATP_SCD_0271	11	9	a	NULL	v	NULL	B_GVf	OBJ	5	idtext0013	avoir	P#3##s##	spk1	39.19	39.23	0.01	_
20091112_RATP_SCD_0271	11	10	bien	NULL	adv	NULL	B_GADV	MOD	9	idtext0013	bien	#####	spk1	39.24	39.46	0.01	_
20091112_RATP_SCD_0271	11	11	une	NULL	pro	NULL	B_GN	NOLINK	0	idtext0013	une	#####	spk1	39.47	39.71	0.01	_
20091112_RATP_SCD_0271	11	12	à	NULL	prep	NULL	B_GP	P_OBJ_LOC	9	idtext0013	à	#####	spk1	39.72	39.78	0.01	_
20091112_RATP_SCD_0271	11	13	Franklin+Roosevelt	NULL	nc	B_A	I_GP	OBJ	12	idtext0013	Franklin+Roosevelt	#####	spk1	39.79	40.54	0.01	_
20091112_RATP_SCD_0271	11	14	il	NULL	cln	NULL	B_GN	SUJ_IMP	16	idtext0014	cln	#3#m#s##	spk1	40.55	40.6	0.01	_
20091112_RATP_SCD_0271	11	15	me	NULL	clo	NULL	B_GN	A_OBJ	16	idtext0014	cla	#1##s##	spk1	40.61	40.7	0.01	_
20091112_RATP_SCD_0271	11	16	semble	NULL	v	NULL	B_GVf	ROOT	0	idtext0014	sembler	PS#13##s##	spk1	40.71	40.93	0.01	_
20091112_RATP_SCD_0271	11	17	que	NULL	csu	NULL	B_NULL	OBJ	16	idtext0014	que	#####	spk1	40.94	41.1	0.01	_
20091112_RATP_SCD_0271	11	18	oui	NULL	adv	NULL	B_GADV	NOLINK	0	idtext0014	oui	#####	spk1	41.11	41.96	0.66	_
20091112_RATP_SCD_0271	11	19	alors	NULL	adv	NULL	B_GADV	NOLINK	0	idtext0015	alors	#####	spk1	42.62	43.16	0.01	_
20091112_RATP_SCD_0271	11	20	Franklin	NULL	nc	B_A	B_GN	ROOT	0	idtext0015	Franklin	##m#s##	spk1	43.17	43.75	0.01	_
20091112_RATP_SCD_0271	11	21	Franklin	DISF_R	nc	I_A	NULL	NOLINK	0	idtext0015	Franklin	##m#s##	spk1	43.76	44.38	0.01	_
20091112_RATP_SCD_0271	11	22	oui	NULL	adv	NULL	B_GADV	NOLINK	0	idtext0015	oui	#####	spk1	44.39	44.63	0.01	_
20091112_RATP_SCD_0271	11	23	il	NULL	cln	NULL	B_GN	SUJ_IMP	26	idtext0015	cln	#3#m#s##	spk1	44.64	44.71	0.01	_
20091112_RATP_SCD_0271	11	24	y	NULL	clo	NULL	B_GN	AFF	26	idtext0015	y	#####	spk1	44.72	44.77	0.01	_
20091112_RATP_SCD_0271	11	25	en	NULL	clo	NULL	B_GN	OBJ	26	idtext0015	en	#####	spk1	44.78	44.8	0.01	_
20091112_RATP_SCD_0271	11	26	a	NULL	v	NULL	B_GVf	P_OBJ	20	idtext0015	avoir	P#3##s##	spk1	44.81	44.86	0.01	_
20091112_RATP_SCD_0271	11	27	une	NULL	pro	NULL	I_GP	OBJ	26	idtext0015	une	#####	spk1	44.87	44.95	0.01	_
20091112_RATP_SCD_0271	11	28	sur	NULL	prep	NULL	B_GP	P_OBJ	27	idtext0015	sur	#####	spk1	44.96	45.09	0.01	_
20091112_RATP_SCD_0271	11	29	la	NULL	det	NULL	I_GP	DET	30	idtext0015	le	##m#s##d	spk1	45.1	45.2	0.01	_
20091112_RATP_SCD_0271	11	30	ligne	NULL	nc	B_T	I_GP	OBJ	28	idtext0015	ligne	##f#s##	spk1	45.21	45.79	0.01	_
20091112_RATP_SCD_0271	11	31	un	NULL	adj	I_T	I_GP	MOD	30	idtext0015	un	#####	spk1	45.8	45.95	0.01	_
20091112_RATP_SCD_0271	11	32	du	NULL	prep	NULL	B_GP	DEP	30	idtext0015	du	#####	spk1	45.96	46.06	0.01	_
20091112_RATP_SCD_0271	11	33	métro	NULL	nc	NULL	I_GP	OBJ	32	idtext0015	métro	##m#s##	spk1	46.07	46.96	?	//

20091112_RATP_SCD_0271	12	1	hm+hm	DISF_M	pres	NULL	NULL	NOLINK	0	idtext0016	hm+hm	#####	spk2	47.1	47.52	?	//

20091112_RATP_SCD_0271	13	1	et	NULL	coo	NULL	B_NULL	ROOT	0	idtext0017	et	#####	spk1	47.56	47.61	0.01	_
20091112_RATP_SCD_0271	13	2	là	NULL	adv	NULL	B_GADV	NOLINK	0	idtext0017	là	#####	spk1	47.62	47.74	0.01	_
20091112_RATP_SCD_0271	13	3	ils	NULL	cln	NULL	B_GN	SUJ	4	idtext0017	cln	#3#m#p##	spk1	47.75	47.8	0.01	_
20091112_RATP_SCD_0271	13	4	vont	NULL	v	NULL	B_GVf	DEP_COORD	1	idtext0017	aller	P#3##p##	spk1	47.81	47.94	0.01	_
20091112_RATP_SCD_0271	13	5	vous	NULL	clo	NULL	B_GN	A_OBJ	6	idtext0017	cln	#2##p##	spk1	47.95	48.08	0.01	_
20091112_RATP_SCD_0271	13	6	refaire	NULL	vinf	NULL	B_GVi	OBJ	4	idtext0017	refaire	W#####	spk1	48.09	48.45	0.01	_
20091112_RATP_SCD_0271	13	7	un	NULL	det	NULL	B_GN	DET	8	idtext0017	un	##m#s##i	spk1	48.46	48.51	0.01	_
20091112_RATP_SCD_0271	13	8	passe	NULL	nc	NULL	I_GN	OBJ	6	idtext0017	passe	###s##	spk1	48.52	48.8	0.01	_
20091112_RATP_SCD_0271	13	9	sur	NULL	prep	NULL	B_GP	P_OBJ	8	idtext0017	sur	#####	spk1	48.81	48.98	0.01	_
20091112_RATP_SCD_0271	13	10	place	NULL	nc	NULL	I_GP	OBJ	9	idtext0017	place	##f#s##	spk1	48.99	49.82	?	//

20091112_RATP_SCD_0271	14	1	d'accord	NULL	adv	NULL	B_GADV	NOLINK	0	idtext0018	d'accord	#####	spk2	49.98	50.74	0.01	_
20091112_RATP_SCD_0271	14	2	mais	NULL	coo	NULL	B_NULL	ROOT	0	idtext0018	mais	#####	spk2	50.75	51.02	0.01	_
20091112_RATP_SCD_0271	14	3	euh	DISF_M	pres	NULL	NULL	NOLINK	0	idtext0018	euh	#####	spk2	51.03	51.06	0.01	_
20091112_RATP_SCD_0271	14	4	au+niveau+de	NULL	prep	NULL	B_GP	P_OBJ_LOC	8	idtext0018	au+niveau+de	#####	spk2	51.07	52.64	0.01	_
20091112_RATP_SCD_0271	14	5	euh	DISF_M	pres	NULL	NULL	NOLINK	0	idtext0018	euh	#####	spk2	52.65	52.71	0.01	_
20091112_RATP_SCD_0271	14	6	ça	NULL	pro	NULL	I_GP	OBJ	4	idtext0018	ça	#####	spk2	52.72	52.87	0.01	_
20091112_RATP_SCD_0271	14	7	sera	NULL	v	NULL	B_GVf	AUX	8	idtext0018	être	F#3##s##	spk2	52.88	53.05	0.01	_
20091112_RATP_SCD_0271	14	8	rechargé	NULL	vppart	NULL	I_GVf	DEP_COORD	2	idtext0018	recharger	K##m#s##	spk2	53.06	53.89	0.01	_
20091112_RATP_SCD_0271	14	9	euh	DISF_M	pres	NULL	NULL	NOLINK	0	idtext0018	euh	#####	spk2	53.9	54.09	0.01	_
20091112_RATP_SCD_0271	14	10	pour	NULL	prep	NULL	B_NULL	P_OBJ	8	idtext0018	pour	#####	spk2	54.1	54.36	0.01	_
20091112_RATP_SCD_0271	14	11	les	NULL	det	NULL	B_NULL	OBJ	10	idtext0018	le	###p##d	spk2	54.37	55.3	?	_

20091112_RATP_SCD_0271	15	1	oui	NULL	adv	NULL	B_GADV	NOLINK	0	idtext0019	oui	#####	spk1	52.97	55.3	?	//

20091112_RATP_SCD_0271	16	1	d'accord	NULL	adv	NULL	B_GADV	NOLINK	0	idtext0020	d'accord	#####	spk2	55.8	56.42	0.01	_
20091112_RATP_SCD_0271	16	2	et	NULL	coo	NULL	B_NULL	ROOT	0	idtext0020	et	#####	spk2	56.43	56.75	0.01	_
20091112_RATP_SCD_0271	16	3	ça	NULL	pro	NULL	B_GN	SUJ_IMP	4	idtext0020	ça	#####	spk2	56.76	56.94	0.01	_
20091112_RATP_SCD_0271	16	4	posera	NULL	v	NULL	B_GVfn	DEP_COORD	2	idtext0020	poser	F#3##s##	spk2	56.95	57.27	0.01	_
20091112_RATP_SCD_0271	16	5	pas	NULL	advneg	NULL	I_GVfn	MOD	4	idtext0020	pas	#####	spk2	57.28	57.41	0.01	_
20091112_RATP_SCD_0271	16	6	de	NULL	det	NULL	B_GN	DET	7	idtext0020	de	###p##i	spk2	57.42	57.44	0.01	_
20091112_RATP_SCD_0271	16	7	problèmes	NULL	nc	NULL	I_GN	OBJ	4	idtext0020	problème	##m#p##	spk2	57.45	57.83	0.01	_
20091112_RATP_SCD_0271	16	8	par+rapport+à	NULL	prep	NULL	B_NULL	MOD	7	idtext0020	par+rapport+à	#####	spk2	57.84	58.61	0.01	_
20091112_RATP_SCD_0271	16	9	hm	DISF_M	pres	NULL	NULL	NOLINK	0	idtext0020	hm	#####	spk2	58.62	59.65	0.01	_
20091112_RATP_SCD_0271	16	10	ah	DISF_M	pres	NULL	NULL	NOLINK	0	idtext0020	ah	#####	spk2	59.66	59.86	0.01	_
20091112_RATP_SCD_0271	16	11	au	DISF_R	prep	NULL	NULL	NOLINK	0	idtext0021	au	#####	spk2	59.87	59.95	0.01	_
20091112_RATP_SCD_0271	16	12	au	NULL	prep	NULL	B_GP	OBJ	8	idtext0021	au	#####	spk2	59.96	60.13	0.01	_
20091112_RATP_SCD_0271	16	13	règlement	NULL	nc	NULL	I_GP	OBJ	12	idtext0021	règlement	##m#s##	spk2	60.14	61.2	0.01	_
20091112_RATP_SCD_0271	16	14	tous+les	NULL	det	NULL	B_GN	DET	15	idtext0021	tous+les	#####	spk2	61.21	61.48	0.01	_
20091112_RATP_SCD_0271	16	15	mois	NULL	nc	NULL	I_GN	MOD	8	idtext0021	mois	##m###	spk2	61.49	61.81	0.04	_
20091112_RATP_SCD_0271	16	16	parce+que	NULL	csu	NULL	B_NULL	ROOT	0	idtext0022	parce+que	#####	spk2	61.85	61.99	0.01	_
20091112_RATP_SCD_0271	16	17	je	NULL	cln	NULL	B_GN	SUJ	19	idtext0022	cln	#1##s##	spk2	62.0	62.02	0.01	_
20091112_RATP_SCD_0271	16	18	vous	NULL	clo	NULL	B_GN	A_OBJ	19	idtext0022	cln	#2##p##	spk2	62.03	62.08	0.01	_
20091112_RATP_SCD_0271	16	19	règle	NULL	v	NULL	B_GVf	OBJ	16	idtext0022	régler	PS#13##s##	spk2	62.09	62.2	0.01	_
20091112_RATP_SCD_0271	16	20	tous+les	NULL	det	NULL	B_GN	DET	21	idtext0022	tous+les	#####	spk2	62.21	62.43	0.01	_
20091112_RATP_SCD_0271	16	21	mois	NULL	nc	NULL	I_GN	OBJ	19	idtext0022	mois	##m###	spk2	62.44	62.62	0.01	_
20091112_RATP_SCD_0271	16	22	par	NULL	prep	NULL	B_NULL	NOLINK	0	idtext0022	par	#####	spk2	62.63	62.98	?	_

20091112_RATP_SCD_0271	17	1	ah	DISF_M	pres	NULL	NULL	NOLINK	0	idtext0023	ah	#####	spk1	63.02	63.05	0.01	/
20091112_RATP_SCD_0271	17	2	non	DISF_R	adv	NULL	NULL	NOLINK	0	idtext0023	non	#####	spk1	63.06	63.41	0.01	_
20091112_RATP_SCD_0271	17	3	non	DISF_R	adv	NULL	NULL	NOLINK	0	idtext0023	non	#####	spk1	63.42	63.51	0.01	_
20091112_RATP_SCD_0271	17	4	bah	DISF_M	pres	NULL	NULL	NOLINK	0	idtext0023	bah	#####	spk1	63.52	63.59	0.01	_
20091112_RATP_SCD_0271	17	5	non	NULL	adv	NULL	B_GADV	NOLINK	0	idtext0023	non	#####	spk1	63.6	63.92	?	_

20091112_RATP_SCD_0271	18	1	ça	NULL	pro	NULL	B_GN	SUJ_IMP	2	idtext0024	ça	#####	spk1	63.96	64.01	0.01	_
20091112_RATP_SCD_0271	18	2	changera	NULL	v	NULL	B_GVf	ROOT	0	idtext0024	changer	F#3##s##	spk1	64.02	64.33	0.01	_
20091112_RATP_SCD_0271	18	3	rien	NULL	pro	NULL	B_GN	OBJ	2	idtext0024	rien	#####	spk1	64.34	64.46	0.01	_
20091112_RATP_SCD_0271	18	4	madame	NULL	nc	NULL	I_GN	NOLINK	0	idtext0024	Monsieur	##f#s##	spk1	64.47	64.76	0.01	_
20091112_RATP_SCD_0271	18	5	hein	DISF_M	pres	NULL	NULL	NOLINK	0	idtext0024	hein	#####	spk1	64.77	64.83	?	//

20091112_RATP_SCD_0271	19	1	d'accord	NULL	adv	NULL	B_GADV	NOLINK	0	idtext0025	d'accord	#####	spk2	65.37	66.2	?	//

20091112_RATP_SCD_0271	20	1	ils	NULL	cln	NULL	B_GN	SUJ	3	idtext0026	cln	#3#m#p##	spk1	66.24	66.29	0.01	_
20091112_RATP_SCD_0271	20	2	vous	NULL	clo	NULL	B_GN	A_OBJ	3	idtext0026	cln	#2##p##	spk1	66.3	66.41	0.01	_
20091112_RATP_SCD_0271	20	3	rechargent	NULL	v	NULL	B_GVf	ROOT	0	idtext0026	recharger	PS#3##p##	spk1	66.42	66.7	0.01	_
20091112_RATP_SCD_0271	20	4	votre	NULL	det	NULL	B_GN	DET	5	idtext0026	votre	###s##o	spk1	66.71	66.93	0.01	_
20091112_RATP_SCD_0271	20	5	passe	NULL	nc	NULL	I_GN	OBJ	3	idtext0026	passe	###s##	spk1	66.94	67.18	0.01	_
20091112_RATP_SCD_0271	20	6	et	NULL	coo	NULL	B_NULL	COORD	3	idtext0026	et	#####	spk1	67.19	67.22	0.01	_
20091112_RATP_SCD_0271	20	7	ils	NULL	cln	NULL	B_GN	SUJ	9	idtext0026	cln	#3#m#p##	spk1	67.23	67.29	0.01	_
20091112_RATP_SCD_0271	20	8	vous	NULL	clo	NULL	B_GN	A_OBJ	9	idtext0026	cln	#2##p##	spk1	67.3	67.36	0.01	_
20091112_RATP_SCD_0271	20	9	refont	NULL	v	NULL	B_GVf	DEP_COORD	6	idtext0026	refaire	P#3##p##	spk1	67.37	67.65	0.01	_
20091112_RATP_SCD_0271	20	10	un	NULL	det	NULL	B_GN	DET	11	idtext0026	un	##m#s##i	spk1	67.66	67.73	0.01	_
20091112_RATP_SCD_0271	20	11	passe	NULL	nc	NULL	I_GN	OBJ	9	idtext0026	passe	###s##	spk1	67.74	67.98	0.01	_
20091112_RATP_SCD_0271	20	12	c'	NULL	cln	NULL	B_GN	SUJ_IMP	13	idtext0026	ce	###s##	spk1	67.99	68.01	0.01	_
20091112_RATP_SCD_0271	20	13	est	NULL	v	NULL	B_GVf	ROOT	0	idtext0026	être	P#3##s##	spk1	68.02	68.24	0.01	_
20091112_RATP_SCD_0271	20	14	tout	NULL	adv	NULL	B_GADV	ATS	13	idtext0026	tout	##m#s##	spk1	68.25	69.6	?	_

20091112_RATP_SCD_0271	21	1	d'accord	NULL	adv	NULL	B_GADV	NOLINK	0	idtext0027	d'accord	#####	spk2	69.65	69.94	0.01	_
20091112_RATP_SCD_0271	21	2	donc	NULL	coo	NULL	B_NULL	ROOT	0	idtext0027	donc	#####	spk2	69.95	70.09	0.01	_
20091112_RATP_SCD_0271	21	3	je	NULL	cln	NULL	B_GN	SUJ	4	idtext0027	cln	#1##s##	spk2	70.1	70.15	0.01	_
20091112_RATP_SCD_0271	21	4	refais	NULL	v	NULL	B_GVf	DEP_COORD	2	idtext0027	refaire	P#12##s##	spk2	70.16	70.39	0.01	_
20091112_RATP_SCD_0271	21	5	la	NULL	det	NULL	B_GN	DET	6	idtext0027	le	##m#s##d	spk2	70.4	70.51	0.01	_
20091112_RATP_SCD_0271	21	6	carte	NULL	nc	NULL	I_GN	OBJ	4	idtext0027	carte	##f#s##	spk2	70.52	70.8	0.01	//
20091112_RATP_SCD_0271	21	7	la	NULL	det	NULL	B_GN	DET	8	idtext0027	le	##m#s##d	spk2	70.81	70.9	0.01	_
20091112_RATP_SCD_0271	21	8	photo	NULL	nc	NULL	I_GN	OBJ	4	idtext0027	photo	##f#s##	spk2	70.91	71.34	0.01	_
20091112_RATP_SCD_0271	21	9	tout	NULL	adv	NULL	B_GADV	OBJ	8	idtext0027	tout	##m#s##	spk2	71.35	71.57	0.01	_
20091112_RATP_SCD_0271	21	10	ça	NULL	pro	NULL	B_GN	OBJ	9	idtext0027	ça	#####	spk2	71.58	72.16	?	_

20091112_RATP_SCD_0271	22	1	oui	NULL	adv	NULL	B_GADV	NOLINK	0	idtext0028	oui	#####	spk1	69.87	72.16	?	//

20091112_RATP_SCD_0271	23	1	et	NULL	coo	NULL	B_NULL	ROOT	0	idtext0029	et	#####	spk2	72.22	72.28	0.01	_
20091112_RATP_SCD_0271	23	2	je	NULL	cln	NULL	B_GN	SUJ	3	idtext0029	cln	#1##s##	spk2	72.29	72.31	0.01	_
20091112_RATP_SCD_0271	23	3	dois	NULL	v	NULL	B_GVf	DEP_COORD	1	idtext0029	devoir	P#12##s##	spk2	72.32	72.46	0.01	_
20091112_RATP_SCD_0271	23	4	rerégler	NULL	vinf	NULL	I_GVf	OBJ	3	idtext0029	rerégler	#####	spk2	72.47	73.03	0.01	_
20091112_RATP_SCD_0271	23	5	à+nouveau	NULL	adv	NULL	B_GADV	NOLINK	0	idtext0029	à+nouveau	#####	spk2	73.04	73.36	0.01	_
20091112_RATP_SCD_0271	23	6	dix	NULL	det	B_P	B_GN	DET	7	idtext0029	dix	#####	spk2	73.37	73.66	0.01	_
20091112_RATP_SCD_0271	23	7	euros	NULL	nc	I_P	I_GN	OBJ	3	idtext0029	euro	##m#p##	spk2	73.67	73.89	0.01	_
20091112_RATP_SCD_0271	23	8	pour	NULL	prep	NULL	B_NULL	NOLINK	0	idtext0029	pour	#####	spk2	73.9	74.39	0.01	_
20091112_RATP_SCD_0271	23	9	euh	DISF_M	pres	NULL	NULL	NOLINK	0	idtext0029	euh	#####	spk2	74.4	74.84	?	//

20091112_RATP_SCD_0271	24	1	pour	NULL	prep	NULL	B_NULL	NOLINK	0	idtext0030	pour	#####	spk1	74.88	75.85	?	_

20091112_RATP_SCD_0271	25	1	ah+bah	DISF_M	pres	NULL	NULL	NOLINK	0	idtext0031	ah+bah	#####	spk2	75.89	76.12	0.01	_
20091112_RATP_SCD_0271	25	2	pour	DISF_R	prep	NULL	NULL	NOLINK	0	idtext0031	pour	#####	spk2	76.13	76.44	0.01	_
20091112_RATP_SCD_0271	25	3	pour	NULL	prep	NULL	B_GP	ROOT	0	idtext0031	pour	#####	spk2	76.45	76.62	0.01	_
20091112_RATP_SCD_0271	25	4	la	NULL	clo	NULL	I_GP	OBJ	5	idtext0031	cla	#3#f#s##	spk2	76.63	76.72	0.01	_
20091112_RATP_SCD_0271	25	5	refaire	NULL	vinf	NULL	B_GVi	OBJ	3	idtext0031	refaire	W#####	spk2	76.73	77.1	0.01	_
20091112_RATP_SCD_0271	25	6	non	NULL	adv	NULL	B_GADV	NOLINK	0	idtext0031	non	#####	spk2	77.11	77.65	?	_

20091112_RATP_SCD_0271	26	1	non	NULL	adv	NULL	B_GADV	NOLINK	0	idtext0032	non	#####	spk1	77.69	77.87	0.01	_
20091112_RATP_SCD_0271	26	2	c'	NULL	cln	NULL	B_GN	SUJ_IMP	3	idtext0032	ce	###s##	spk1	77.88	77.91	0.01	_
20091112_RATP_SCD_0271	26	3	est	NULL	v	NULL	B_GVf	ROOT	0	idtext0032	être	P#3##s##	spk1	77.92	77.96	0.01	_
20091112_RATP_SCD_0271	26	4	gratuit	NULL	adj	NULL	B_GADJ	ATS	3	idtext0032	gratuit	##m#s##	spk1	77.97	78.38	0.01	_
20091112_RATP_SCD_0271	26	5	pour	NULL	prep	NULL	B_GP	P_OBJ	4	idtext0032	pour	#####	spk1	78.39	78.51	0.01	_
20091112_RATP_SCD_0271	26	6	les	NULL	det	NULL	I_GP	DET	7	idtext0032	le	###p##d	spk1	78.52	78.58	0.01	_
20091112_RATP_SCD_0271	26	7	passes	NULL	nc	NULL	I_GP	OBJ	5	idtext0032	passe	###p##	spk1	78.59	78.85	0.01	_
20091112_RATP_SCD_0271	26	8	Intégrale	NULL	np	B_PRD	I_GP	MOD	7	idtext0032	Intégrale	#####	spk1	78.86	79.83	?	//

20091112_RATP_SCD_0271	27	1	d'accord	NULL	adv	NULL	B_GADV	NOLINK	0	idtext0033	d'accord	#####	spk2	80.22	80.91	0.04	//
20091112_RATP_SCD_0271	27	2	comme	NULL	adv	NULL	B_GADV	ROOT	0	idtext0034	comme	#####	spk2	80.95	81.14	0.01	_
20091112_RATP_SCD_0271	27	3	c'	NULL	cln	NULL	B_GN	SUJ_IMP	4	idtext0034	ce	###s##	spk2	81.15	81.17	0.01	_
20091112_RATP_SCD_0271	27	4	est	NULL	v	NULL	B_GVf	OBJ	2	idtext0034	être	P#3##s##	spk2	81.18	81.27	0.01	_
20091112_RATP_SCD_0271	27	5	la	NULL	det	NULL	B_GN	DET	7	idtext0034	le	##m#s##d	spk2	81.28	81.39	0.01	_
20091112_RATP_SCD_0271	27	6	première	NULL	adj	NULL	I_GN	MOD	7	idtext0034	premier	##f#s##	spk2	81.4	81.73	0.01	_
20091112_RATP_SCD_0271	27	7	fois	NULL	nc	NULL	I_GN	ATS	4	idtext0034	foi	##f#p##	spk2	81.74	81.83	0.01	/
20091112_RATP_SCD_0271	27	8	que	NULL	csu	NULL	B_NULL	OBJ	7	idtext0034	que	#####	spk2	81.84	81.86	0.01	_
20091112_RATP_SCD_0271	27	9	je	NULL	cln	NULL	B_GN	SUJ	12	idtext0034	cln	#1##s##	spk2	81.87	81.95	0.01	_
20091112_RATP_SCD_0271	27	10	l'	NULL	clo	NULL	B_GN	OBJ	12	idtext0034	cla	#3##s##	spk2	81.96	81.99	0.01	_
20091112_RATP_SCD_0271	27	11	ai	NULL	v	NULL	B_GVf	AUX	12	idtext0034	avoir	P#1##s##	spk2	82.0	82.26	0.01	_
20091112_RATP_SCD_0271	27	12	perdue	NULL	vppart	NULL	I_GVf	OBJ	8	idtext0034	perdre	K##f#s##	spk2	82.27	82.63	0.01	_
20091112_RATP_SCD_0271	27	13	donc	NULL	coo	NULL	B_NULL	NOLINK	0	idtext0034	donc	#####	spk2	82.64	82.98	0.01	_
20091112_RATP_SCD_0271	27	14	euh	DISF_M	pres	NULL	NULL	NOLINK	0	idtext0034	euh	#####	spk2	82.99	83.33	?	//

20091112_RATP_SCD_0271	28	1	d'accord	NULL	adv	NULL	B_GADV	MOD	3	idtext0035	d'accord	#####	spk1	83.37	83.73	0.01	/
20091112_RATP_SCD_0271	28	2	non	DISF_R	adv	NULL	NULL	NOLINK	0	idtext0035	non	#####	spk1	83.74	83.99	0.01	_
20091112_RATP_SCD_0271	28	3	non	NULL	adv	NULL	I_GADV	ROOT	0	idtext0035	non	#####	spk1	84.0	84.26	0.01	_
20091112_RATP_SCD_0271	28	4	vous	NULL	clr	NULL	B_GVfn	AFF	5	idtext0035	cln	#2##p##	spk1	84.27	84.35	0.01	_
20091112_RATP_SCD_0271	28	5	inquiétez	NULL	v	NULL	I_GVfn	ROOT	0	idtext0035	inquiéter	P#2##p##	spk1	84.36	84.63	0.01	_
20091112_RATP_SCD_0271	28	6	pas	NULL	advneg	NULL	I_GVfn	MOD	5	idtext0035	pas	#####	spk1	84.64	84.92	?	_

20091112_RATP_SCD_0271	29	1	un+petit+peu	NULL	adv	NULL	B_GADV	NOLINK	0	idtext0036	un+petit+peu	#####	spk2	83.57	84.92	?	//

20091112_RATP_SCD_0271	30	1	ils	NULL	cln	NULL	B_GN	SUJ	2	idtext0037	cln	#3#m#p##	spk1	84.96	85.33	0.01	_
20091112_RATP_SCD_0271	30	2	refont	NULL	v	NULL	B_GVf	ROOT	0	idtext0037	refaire	P#3##p##	spk1	85.34	85.58	0.01	_
20091112_RATP_SCD_0271	30	3	gratuitement	NULL	adv	NULL	B_GADV	MOD	2	idtext0037	gratuitement	#####	spk1	85.59	86.06	0.01	_
20091112_RATP_SCD_0271	30	4	sur	NULL	prep	NULL	B_GP	P_OBJ	2	idtext0037	sur	#####	spk1	86.07	86.21	0.01	_
20091112_RATP_SCD_0271	30	5	place	NULL	nc	NULL	I_GP	OBJ	4	idtext0037	place	##f#s##	spk1	86.22	87.12	?	//

20091112_RATP_SCD_0271	31	1	d'accord	NULL	adv	NULL	B_GADV	NOLINK	0	idtext0038	d'accord	#####	spk2	87.4	87.72	0.01	_
20091112_RATP_SCD_0271	31	2	mais	NULL	coo	NULL	B_NULL	ROOT	0	idtext0038	mais	#####	spk2	87.73	88.06	0.01	_
20091112_RATP_SCD_0271	31	3	euh	DISF_M	pres	NULL	NULL	NOLINK	0	idtext0038	euh	#####	spk2	88.07	88.11	0.01	_
20091112_RATP_SCD_0271	31	4	je	NULL	cln	NULL	B_GN	SUJ	6	idtext0038	cln	#1##s##	spk2	88.12	88.19	0.01	_
20091112_RATP_SCD_0271	31	5	leur	NULL	clo	NULL	B_GN	A_OBJ	6	idtext0038	leur	#####	spk2	88.2	88.32	0.01	_
20091112_RATP_SCD_0271	31	6	dis	NULL	v	NULL	B_GVf	DEP_COORD	2	idtext0038	dire	PJ#12##s##	spk2	88.33	88.44	0.01	_
20091112_RATP_SCD_0271	31	7	juste	NULL	adv	NULL	B_GADV	MOD	12	idtext0038	juste	###s##	spk2	88.45	88.68	0.01	_
20091112_RATP_SCD_0271	31	8	que	NULL	csu	NULL	B_NULL	OBJ	6	idtext0038	que	#####	spk2	88.69	88.78	0.01	_
20091112_RATP_SCD_0271	31	9	je	NULL	cln	NULL	B_GN	SUJ	12	idtext0038	cln	#1##s##	spk2	88.79	88.87	0.01	_
20091112_RATP_SCD_0271	31	10	l'	NULL	clo	NULL	B_GN	OBJ	12	idtext0038	cla	#3##s##	spk2	88.88	88.92	0.01	_
20091112_RATP_SCD_0271	31	11	ai	NULL	v	NULL	B_GVf	AUX	12	idtext0038	avoir	P#1##s##	spk2	88.93	89.01	0.01	_
20091112_RATP_SCD_0271	31	12	perdue	NULL	vppart	NULL	I_GVf	OBJ	8	idtext0038	perdre	K##f#s##	spk2	89.02	89.75	0.04	_
20091112_RATP_SCD_0271	31	13	ils	NULL	cln	NULL	B_GN	SUJ	14	idtext0039	cln	#3#m#p##	spk2	89.79	90.11	0.01	_
20091112_RATP_SCD_0271	31	14	disent	NULL	v	NULL	B_GVf	ROOT	0	idtext0039	dire	PS#3##p##	spk2	90.12	90.32	0.01	_
20091112_RATP_SCD_0271	31	15	rien	NULL	pro	NULL	B_GN	OBJ	14	idtext0039	rien	#####	spk2	90.33	90.42	0.01	_
20091112_RATP_SCD_0271	31	16	il	NULL	cln	NULL	B_GN	SUJ_IMP	18	idtext0039	cln	#3#m#s##	spk2	90.43	90.48	0.01	_
20091112_RATP_SCD_0271	31	17	ne	NULL	clneg	NULL	B_GVfn	MOD	18	idtext0039	ne	#####	spk2	90.49	90.51	0.01	_
20091112_RATP_SCD_0271	31	18	faut	NULL	v	NULL	I_GVfn	ROOT	0	idtext0039	falloir	P#3##s##	spk2	90.52	90.57	0.01	_
20091112_RATP_SCD_0271	31	19	pas	NULL	advneg	NULL	I_GVfn	MOD	18	idtext0039	pas	#####	spk2	90.58	90.63	0.01	_
20091112_RATP_SCD_0271	31	20	un	NULL	det	NULL	B_GN	DET	21	idtext0039	un	##m#s##i	spk2	90.64	90.66	0.01	_
20091112_RATP_SCD_0271	31	21	justificatif	NULL	nc	NULL	I_GN	OBJ	18	idtext0039	justificatif	##m#s##	spk2	90.67	91.29	?	_

20091112_RATP_SCD_0271	32	1	il	NULL	cln	NULL	B_GN	SUJ_IMP	3	idtext0040	cln	#3#m#s##	spk2	91.35	91.45	0.01	_
20091112_RATP_SCD_0271	32	2	ne	NULL	clneg	NULL	B_GVfn	MOD	3	idtext0040	ne	#####	spk2	91.46	91.48	0.01	_
20091112_RATP_SCD_0271	32	3	faut	NULL	v	NULL	I_GVfn	ROOT	0	idtext0040	falloir	P#3##s##	spk2	91.49	91.61	0.01	_
20091112_RATP_SCD_0271	32	4	pas	NULL	advneg	NULL	I_GVfn	MOD	3	idtext0040	pas	#####	spk2	91.62	91.71	0.01	_
20091112_RATP_SCD_0271	32	5	une	NULL	det	NULL	B_GN	DET	6	idtext0040	un	##f#s##i	spk2	91.72	91.82	0.01	_
20091112_RATP_SCD_0271	32	6	attestation	NULL	nc	NULL	I_GN	OBJ	3	idtext0040	attestation	##f#s##	spk2	91.83	92.36	0.01	_
20091112_RATP_SCD_0271	32	7	sur	NULL	prep	NULL	B_GP	P_OBJ	6	idtext0040	sur	#####	spk2	92.37	92.59	0.01	_
20091112_RATP_SCD_0271	32	8	l'	NULL	det	NULL	I_GP	DET	9	idtext0040	le	###s##d	spk2	92.6	92.62	0.01	_
20091112_RATP_SCD_0271	32	9	honneur	NULL	nc	NULL	I_GP	OBJ	7	idtext0040	honneur	##m#s##	spk2	92.63	93.11	?	//

20091112_RATP_SCD_0271	33	1	non	DISF_R	adv	NULL	NULL	NOLINK	0	idtext0041	non	#####	spk1	91.35	91.76	0.01	_
20091112_RATP_SCD_0271	33	2	non	DISF_R	adv	NULL	NULL	NOLINK	0	idtext0041	non	#####	spk1	91.77	92.31	0.01	_
20091112_RATP_SCD_0271	33	3	non	NULL	adv	NULL	B_GADV	NOLINK	0	idtext0041	non	#####	spk1	92.32	93.11	?	_

20091112_RATP_SCD_0271	34	1	c'	NULL	cln	NULL	B_GN	SUJ_IMP	2	idtext0042	ce	###s##	spk1	93.15	93.17	0.01	_
20091112_RATP_SCD_0271	34	2	est	NULL	v	NULL	B_GVfn	ROOT	0	idtext0042	être	P#3##s##	spk1	93.18	93.2	0.01	_
20091112_RATP_SCD_0271	34	3	pas	NULL	advneg	NULL	I_GVfn	MOD	2	idtext0042	pas	#####	spk1	93.21	93.26	0.01	_
20091112_RATP_SCD_0271	34	4	nécessaire	NULL	adj	NULL	B_GADJ	ATS	2	idtext0042	nécessaire	###s##	spk1	93.27	93.61	0.01	//
20091112_RATP_SCD_0271	34	5	vous	NULL	cln	NULL	B_GN	SUJ	7	idtext0042	cln	#2##p##	spk1	93.62	93.75	0.01	_
20091112_RATP_SCD_0271	34	6	y	NULL	clo	NULL	B_GN	P_OBJ_LOC	7	idtext0042	y	#####	spk1	93.76	93.85	0.01	_
20091112_RATP_SCD_0271	34	7	allez	NULL	v	NULL	B_GVf	ROOT	0	idtext0042	aller	P#2##p##	spk1	93.86	93.95	0.01	_
20091112_RATP_SCD_0271	34	8	avec	NULL	prep	NULL	B_GP	P_OBJ	7	idtext0042	avec	#####	spk1	93.96	94.08	0.01	_
20091112_RATP_SCD_0271	34	9	votre	NULL	det	NULL	I_GP	DET	10	idtext0042	votre	###s##o	spk1	94.09	94.43	0.01	_
20091112_RATP_SCD_0271	34	10	pièce	NULL	nc	NULL	I_GP	OBJ	8	idtext0042	pièce	##f#s##	spk1	94.44	94.64	0.01	_
20091112_RATP_SCD_0271	34	11	d'	NULL	prep	NULL	B_GP	DEP	10	idtext0042	d'	#####	spk1	94.65	94.67	0.01	_
20091112_RATP_SCD_0271	34	12	identité	NULL	nc	NULL	I_GP	OBJ	11	idtext0042	identité	##f#s##	spk1	94.68	95.17	0.01	//
20091112_RATP_SCD_0271	34	13	vous	NULL	cln	NULL	B_GN	SUJ	14	idtext0042	cln	#2##p##	spk1	95.18	95.26	0.01	_
20091112_RATP_SCD_0271	34	14	dites	NULL	v	NULL	B_GVf	ROOT	0	idtext0042	dire	P#2##p##	spk1	95.27	95.4	0.01	_
20091112_RATP_SCD_0271	34	15	que	NULL	csu	NULL	B_NULL	OBJ	14	idtext0042	que	#####	spk1	95.41	95.43	0.01	_
20091112_RATP_SCD_0271	34	16	vous	NULL	cln	NULL	B_GN	SUJ	18	idtext0042	cln	#2##p##	spk1	95.44	95.49	0.01	_
20091112_RATP_SCD_0271	34	17	avez	NULL	v	NULL	B_GVf	AUX	18	idtext0042	avoir	P#2##p##	spk1	95.5	95.64	0.01	_
20091112_RATP_SCD_0271	34	18	perdu	NULL	vppart	NULL	I_GVf	OBJ	15	idtext0042	perdre	K##m#s##	spk1	95.65	95.88	0.01	_
20091112_RATP_SCD_0271	34	19	votre	NULL	det	NULL	B_GN	DET	20	idtext0042	votre	###s##o	spk1	95.89	96.06	0.01	_
20091112_RATP_SCD_0271	34	20	passe	NULL	nc	B_PRD	I_GN	OBJ	18	idtext0042	passe	###s##	spk1	96.07	96.29	0.01	_
20091112_RATP_SCD_0271	34	21	euh	DISF_M	pres	I_PRD	NULL	NOLINK	0	idtext0042	euh	#####	spk1	96.3	96.32	0.01	_
20091112_RATP_SCD_0271	34	22	Intégrale	NULL	np	I_PRD	I_GN	MOD	20	idtext0042	Intégrale	#####	spk1	96.33	96.86	0.01	_
20091112_RATP_SCD_0271	34	23	et	NULL	coo	NULL	B_NULL	COORD	18	idtext0042	et	#####	spk1	96.87	96.92	0.01	_
20091112_RATP_SCD_0271	34	24	que	NULL	csu	NULL	B_NULL	MOD	32	idtext0042	que	#####	spk1	96.93	97.08	0.01	_
20091112_RATP_SCD_0271	34	25	vous	NULL	cln	NULL	B_GN	SUJ	26	idtext0042	cln	#2##p##	spk1	97.09	97.16	0.01	_
20091112_RATP_SCD_0271	34	26	voulez	NULL	v	NULL	B_GVf	OBJ	24	idtext0042	vouloir	P#2##p##	spk1	97.17	97.33	0.01	_
20091112_RATP_SCD_0271	34	27	en	NULL	prep	NULL	B_GP	OBJ	26	idtext0042	en	#####	spk1	97.34	97.4	0.01	_
20091112_RATP_SCD_0271	34	28	refaire	NULL	vinf	NULL	I_GP	OBJ	27	idtext0042	refaire	W#####	spk1	97.41	97.66	0.01	_
20091112_RATP_SCD_0271	34	29	un	NULL	det	NULL	B_GN	DET	30	idtext0042	un	##m#s##i	spk1	97.67	97.74	0.01	_
20091112_RATP_SCD_0271	34	30	autre	NULL	pro	NULL	I_GN	OBJ	28	idtext0042	autre	#####	spk1	97.75	97.91	0.01	//
20091112_RATP_SCD_0271	34	31	c'	NULL	cln	NULL	B_GN	SUJ_IMP	32	idtext0042	ce	###s##	spk1	97.92	97.95	0.01	_
20091112_RATP_SCD_0271	34	32	est	NULL	v	NULL	B_GVf	DEP_COORD	23	idtext0042	être	P#3##s##	spk1	97.96	98.01	0.01	_
20091112_RATP_SCD_0271	34	33	tout	NULL	adv	NULL	B_GADV	ATS	32	idtext0042	tout	##m#s##	spk1	98.02	99.08	?	_

20091112_RATP_SCD_0271	35	1	d'accord	NULL	adv	NULL	B_GADV	NOLINK	0	idtext0043	d'accord	#####	spk2	99.15	99.7	?	//

20091112_RATP_SCD_0271	36	1	d'accord	NULL	adv	NULL	B_GADV	NOLINK	0	idtext0044	d'accord	#####	spk1	99.74	101.47	?	//

20091112_RATP_SCD_0271	37	1	bon+bah	DISF_M	pres	NULL	NULL	NOLINK	0	idtext0045	bon+bah	#####	spk2	99.75	100.12	0.01	_
20091112_RATP_SCD_0271	37	2	écoutez	DISF_M	pres	NULL	NULL	NOLINK	0	idtext0045	écoutez	#####	spk2	100.13	100.55	0.01	//
20091112_RATP_SCD_0271	37	3	je	NULL	cln	NULL	B_GN	SUJ	5	idtext0045	cln	#1##s##	spk2	100.56	100.62	0.01	_
20091112_RATP_SCD_0271	37	4	vous	NULL	clo	NULL	B_GN	OBJ	5	idtext0045	cln	#2##p##	spk2	100.63	100.68	0.01	_
20091112_RATP_SCD_0271	37	5	remercie	NULL	v	NULL	B_GVf	ROOT	0	idtext0045	remercier	PS#13##s##	spk2	100.69	101.03	0.01	_
20091112_RATP_SCD_0271	37	6	beaucoup	NULL	adv	NULL	B_GADV	MOD	5	idtext0045	beaucoup	#####	spk2	101.04	101.28	0.01	_
20091112_RATP_SCD_0271	37	7	monsieur	NULL	nc	NULL	B_GN	NOLINK	0	idtext0045	Monsieur	##m#s##	spk2	101.29	101.47	?	//

20091112_RATP_SCD_0271	38	1	bah	DISF_M	pres	NULL	NULL	NOLINK	0	idtext0046	bah	#####	spk1	101.52	101.57	0.01	_
20091112_RATP_SCD_0271	38	2	je	NULL	cln	NULL	B_GN	SUJ	5	idtext0046	cln	#1##s##	spk1	101.58	101.6	0.01	_
20091112_RATP_SCD_0271	38	3	vous	NULL	clo	NULL	B_GN	OBJ	5	idtext0046	cln	#2##p##	spk1	101.61	101.67	0.01	_
20091112_RATP_SCD_0271	38	4	en	NULL	clo	NULL	B_GN	DE_OBJ	5	idtext0046	en	#####	spk1	101.68	101.76	0.01	_
20091112_RATP_SCD_0271	38	5	prie	NULL	v	NULL	B_GVf	ROOT	0	idtext0046	prier	PS#13##s##	spk1	101.77	101.99	0.04	_
20091112_RATP_SCD_0271	38	6	bonne	NULL	adj	NULL	B_GN	MOD	7	idtext0047	bon	##f#s##	spk1	102.03	102.15	0.01	_
20091112_RATP_SCD_0271	38	7	journée	NULL	nc	NULL	I_GN	ROOT	0	idtext0047	journée	##f#s##	spk1	102.16	102.66	?	//

20091112_RATP_SCD_0271	39	1	merci	NULL	adv	NULL	B_GADV	NOLINK	0	idtext0048	merci	#####	spk2	102.7	103.08	0.01	//
20091112_RATP_SCD_0271	39	2	vous	NULL	pro	NULL	B_GN	NOLINK	0	idtext0048	vous	#####	spk2	103.09	103.23	0.01	_
20091112_RATP_SCD_0271	39	3	de+même	NULL	adv	NULL	B_GADV	NOLINK	0	idtext0048	de+même	#####	spk2	103.24	103.54	?	_

20091112_RATP_SCD_0271	40	1	au+revoir	NULL	adv	NULL	B_GADV	NOLINK	0	idtext0049	au+revoir	#####	spk1	102.71	103.54	?	//

20091112_RATP_SCD_0271	41	1	au+revoir	NULL	adv	NULL	B_GADV	NOLINK	0	idtext0050	au+revoir	#####	spk2	103.58	103.91	?	//

