20091112_RATP_SCD_1144	1	1	NNAAMMEE	NULL	np	B_HU	B_GN	ROOT	0	idtext0000	ANONYM	NULL	spk1	4.79	5.19	0.04	_
20091112_RATP_SCD_1144	1	2	bonjour	NULL	adv	NULL	B_GADV	NOLINK	0	idtext0001	bonjour	#####	spk1	5.23	5.74	0.01	_
20091112_RATP_SCD_1144	1	3	je	NULL	cln	NULL	B_GN	SUJ	5	idtext0001	cln	#1##s##	spk1	5.75	5.97	0.01	_
20091112_RATP_SCD_1144	1	4	vous	NULL	clo	NULL	B_GN	OBJ	5	idtext0001	cln	#2##p##	spk1	5.98	6.03	0.01	_
20091112_RATP_SCD_1144	1	5	écoute	NULL	v	NULL	B_GVf	ROOT	0	idtext0001	écouter	PS#13##s##	spk1	6.04	6.85	?	//

20091112_RATP_SCD_1144	2	1	oui	NULL	adv	NULL	B_GADV	MOD	2	idtext0002	oui	#####	spk2	7.51	7.7	0.01	_
20091112_RATP_SCD_1144	2	2	bonjour	NULL	adv	NULL	I_GADV	ROOT	0	idtext0002	bonjour	#####	spk2	7.71	7.99	?	//

20091112_RATP_SCD_1144	3	1	en+fait	GREF	adv	NULL	B_GADV	NOLINK	0	idtext0003	en+fait	#####	spk2	8.03	8.22	0.01	_
20091112_RATP_SCD_1144	3	2	c'	NULL	cln	NULL	B_GN	SUJ_IMP	3	idtext0003	ce	###s##	spk2	8.23	8.25	0.01	_
20091112_RATP_SCD_1144	3	3	est	NULL	v	NULL	B_GVf	ROOT	0	idtext0003	être	P#3##s##	spk2	8.26	8.34	0.01	_
20091112_RATP_SCD_1144	3	4	pour	NULL	prep	NULL	B_GP	ATS	3	idtext0003	pour	#####	spk2	8.35	8.48	0.01	_
20091112_RATP_SCD_1144	3	5	un	NULL	det	NULL	I_GP	DET	6	idtext0003	un	##m#s##i	spk2	8.49	8.51	0.01	_
20091112_RATP_SCD_1144	3	6	renseignement	NULL	nc	NULL	I_GP	OBJ	4	idtext0003	renseignement	##m#s##	spk2	8.52	9.09	0.01	_
20091112_RATP_SCD_1144	3	7	je	NULL	cln	NULL	B_GN	SUJ	8	idtext0003	cln	#1##s##	spk2	9.1	9.21	0.01	_
20091112_RATP_SCD_1144	3	8	voulais	NULL	v	NULL	B_GVf	ROOT	0	idtext0003	vouloir	I#12##s##	spk2	9.22	9.35	0.01	_
20091112_RATP_SCD_1144	3	9	savoir	NULL	vinf	NULL	I_GVf	OBJ	8	idtext0003	savoir	W#####	spk2	9.36	9.6	0.01	_
20091112_RATP_SCD_1144	3	10	à	NULL	prep	NULL	B_GP	MOD	13	idtext0003	à	#####	spk2	9.61	9.68	0.01	_
20091112_RATP_SCD_1144	3	11	quelle	NULL	det	NULL	I_GP	DET	12	idtext0003	quel	##f#s##	spk2	9.69	9.92	0.01	_
20091112_RATP_SCD_1144	3	12	heure	NULL	nc	NULL	I_GP	OBJ	10	idtext0003	heure	##f#s##	spk2	9.93	10.07	0.01	_
20091112_RATP_SCD_1144	3	13	partait	NULL	v	NULL	B_GVf	ROOT	0	idtext0003	partir	I#3##s##	spk2	10.08	10.48	0.01	_
20091112_RATP_SCD_1144	3	14	le	NULL	det	NULL	B_GN	DET	16	idtext0003	le	##m#s##d	spk2	10.49	10.62	0.01	_
20091112_RATP_SCD_1144	3	15	premier	NULL	adj	NULL	I_GN	MOD	16	idtext0003	premier	##m#s##	spk2	10.63	11.14	0.01	_
20091112_RATP_SCD_1144	3	16	métro	NULL	nc	NULL	I_GN	OBJ	13	idtext0003	métro	##m#s##	spk2	11.15	11.54	0.01	_
20091112_RATP_SCD_1144	3	17	en+fait	GREF	adv	NULL	B_GADV	NOLINK	0	idtext0003	en+fait	#####	spk2	11.55	11.9	0.01	_
20091112_RATP_SCD_1144	3	18	le	NULL	det	NULL	B_GN	DET	19	idtext0003	le	##m#s##d	spk2	11.91	12.04	0.01	_
20091112_RATP_SCD_1144	3	19	matin	NULL	nc	NULL	I_GN	OBJ	8	idtext0003	matin	##m#s##	spk2	12.05	12.56	0.01	_
20091112_RATP_SCD_1144	3	20	je	NULL	cln	NULL	B_GN	SUJ	21	idtext0003	cln	#1##s##	spk2	12.57	12.75	0.01	_
20091112_RATP_SCD_1144	3	21	suis	NULL	v	NULL	B_GVf	ROOT	0	idtext0003	être	P#1##s##	spk2	12.76	12.84	0.01	_
20091112_RATP_SCD_1144	3	22	dans	NULL	prep	NULL	B_NULL	P_OBJ_LOC	21	idtext0003	dans	#####	spk2	12.85	12.98	0.01	_
20091112_RATP_SCD_1144	3	23	le	NULL	det	NULL	B_NULL	NOLINK	0	idtext0003	le	##m#s##d	spk2	12.99	13.06	?	_

20091112_RATP_SCD_1144	4	1	Paris	DISF_R	nc	NULL	NULL	NOLINK	0	idtext0004	Paris	##m#s##	spk2	13.1	13.35	0.01	_
20091112_RATP_SCD_1144	4	2	Paris	NULL	nc	B_A	B_GN	NOLINK	0	idtext0004	Paris	##m#s##	spk2	13.36	13.6	?	//

20091112_RATP_SCD_1144	5	1	alors	NULL	adv	NULL	B_GADV	NOLINK	0	idtext0005	alors	#####	spk1	13.1	13.6	?	//

20091112_RATP_SCD_1144	6	1	onzième	NULL	adj	NULL	B_GADJ	NOLINK	0	idtext0006	onzième	###s##	spk2	13.64	14.06	?	_

20091112_RATP_SCD_1144	7	1	ouais	NULL	adv	NULL	B_GADV	NOLINK	0	idtext0007	ouais	#####	spk2	14.1	14.27	?	//

20091112_RATP_SCD_1144	8	1	tous	NULL	adj	NULL	B_GADJ	NOLINK	0	idtext0008	tout	##m#p##	spk1	14.1	14.27	?	_

20091112_RATP_SCD_1144	9	1	les	NULL	det	NULL	B_GN	DET	3	idtext0009	le	###p##d	spk1	14.31	14.52	0.01	_
20091112_RATP_SCD_1144	9	2	premiers	NULL	adj	NULL	I_GN	MOD	3	idtext0009	premier	##m#p##	spk1	14.53	14.9	0.01	_
20091112_RATP_SCD_1144	9	3	métros	NULL	nc	NULL	I_GN	SUJ	4	idtext0009	métro	##m#p##	spk1	14.91	15.24	0.01	_
20091112_RATP_SCD_1144	9	4	quittent	NULL	v	NULL	B_GVf	ROOT	0	idtext0009	quitter	PS#3##p##	spk1	15.25	15.68	0.01	_
20091112_RATP_SCD_1144	9	5	leur	NULL	det	NULL	B_GN	DET	6	idtext0009	leur	###s##o	spk1	15.69	15.87	0.01	_
20091112_RATP_SCD_1144	9	6	terminus	NULL	nc	NULL	I_GN	OBJ	4	idtext0009	terminus	##m###	spk1	15.88	16.37	0.01	_
20091112_RATP_SCD_1144	9	7	à	NULL	prep	NULL	B_GP	MOD	6	idtext0009	à	#####	spk1	16.38	16.45	0.01	_
20091112_RATP_SCD_1144	9	8	cinq	NULL	det	B_H	I_GP	DET	9	idtext0009	cinq	#####	spk1	16.46	16.76	0.01	_
20091112_RATP_SCD_1144	9	9	heures	NULL	nc	I_H	I_GP	OBJ	7	idtext0009	heure	##f#p##	spk1	16.77	16.95	0.01	_
20091112_RATP_SCD_1144	9	10	trente	NULL	adj	I_H	I_GP	MOD	9	idtext0009	trente	#####	spk1	16.96	17.34	0.01	_
20091112_RATP_SCD_1144	9	11	madame	NULL	nc	NULL	B_GN	ROOT	0	idtext0009	Monsieur	##f#s##	spk1	17.35	17.67	0.01	_
20091112_RATP_SCD_1144	9	12	précises	NULL	adj	NULL	I_GN	MOD	11	idtext0009	précis	##f#p##	spk1	17.68	18.42	?	//

20091112_RATP_SCD_1144	10	1	ah	DISF_M	pres	NULL	NULL	NOLINK	0	idtext0010	ah	#####	spk2	19.03	19.14	0.01	_
20091112_RATP_SCD_1144	10	2	cinq	NULL	det	B_H	B_GN	DET	3	idtext0010	cinq	#####	spk2	19.15	19.44	0.01	_
20091112_RATP_SCD_1144	10	3	heures	NULL	nc	I_H	I_GN	NOLINK	0	idtext0010	heure	##f#p##	spk2	19.45	19.57	?	//

20091112_RATP_SCD_1144	11	1	trente	NULL	nc	NULL	B_GN	NOLINK	0	idtext0011	trente	##m###	spk2	19.61	19.84	0.01	//
20091112_RATP_SCD_1144	11	2	ah	DISF_M	pres	NULL	NULL	NOLINK	0	idtext0011	ah	#####	spk2	19.85	20.04	0.01	_
20091112_RATP_SCD_1144	11	3	oui	NULL	adv	NULL	B_GADV	MOD	4	idtext0011	oui	#####	spk2	20.05	20.15	0.01	_
20091112_RATP_SCD_1144	11	4	d'accord	NULL	adv	NULL	I_GADV	ROOT	0	idtext0011	d'accord	#####	spk2	20.16	20.67	?	_

20091112_RATP_SCD_1144	12	1	à	NULL	prep	NULL	B_GP	ROOT	0	idtext0012	à	#####	spk1	19.64	19.94	0.01	_
20091112_RATP_SCD_1144	12	2	cinq	NULL	det	B_H	I_GP	DET	3	idtext0012	cinq	#####	spk1	19.95	20.09	0.01	_
20091112_RATP_SCD_1144	12	3	heures	NULL	nc	I_H	I_GP	OBJ	1	idtext0012	heure	##f#p##	spk1	20.1	20.24	0.01	_
20091112_RATP_SCD_1144	12	4	trente	NULL	adj	I_H	I_GP	MOD	3	idtext0012	trente	#####	spk1	20.25	20.67	?	//

20091112_RATP_SCD_1144	13	1	tous+les	NULL	det	NULL	B_GN	DET	3	idtext0013	tous+les	#####	spk1	20.78	21.08	0.01	_
20091112_RATP_SCD_1144	13	2	premiers	NULL	adj	NULL	I_GN	MOD	3	idtext0013	premier	##m#p##	spk1	21.09	21.41	0.01	_
20091112_RATP_SCD_1144	13	3	métros	NULL	nc	NULL	I_GN	SUJ	4	idtext0013	métro	##m#p##	spk1	21.42	21.73	0.01	_
20091112_RATP_SCD_1144	13	4	quittent	NULL	v	NULL	B_GVf	ROOT	0	idtext0013	quitter	PS#3##p##	spk1	21.74	22.01	0.01	_
20091112_RATP_SCD_1144	13	5	leur	DISF_R	det	NULL	NULL	NOLINK	0	idtext0013	leur	###s##o	spk1	22.02	22.18	0.01	_
20091112_RATP_SCD_1144	13	6	terminus	DISF_R	nc	NULL	NULL	NOLINK	0	idtext0013	terminus	##m###	spk1	22.19	23.18	0.01	_
20091112_RATP_SCD_1144	13	7	leur	DISF_R	det	NULL	NULL	NOLINK	0	idtext0013	leur	###s##o	spk1	23.19	23.45	0.01	_
20091112_RATP_SCD_1144	13	8	leur	NULL	det	NULL	B_GN	DET	9	idtext0013	leur	###s##o	spk1	23.46	23.69	0.01	_
20091112_RATP_SCD_1144	13	9	terminus	NULL	nc	NULL	I_GN	OBJ	4	idtext0013	terminus	##m###	spk1	23.7	24.11	0.01	_
20091112_RATP_SCD_1144	13	10	de	NULL	prep	NULL	B_GP	DEP	9	idtext0013	de	#####	spk1	24.12	24.2	0.01	_
20091112_RATP_SCD_1144	13	11	départ	NULL	nc	NULL	I_GP	OBJ	10	idtext0013	départ	##m#s##	spk1	24.21	24.7	?	//

20091112_RATP_SCD_1144	14	1	euh	DISF_M	pres	NULL	NULL	NOLINK	0	idtext0014	euh	#####	spk2	25.46	25.66	0.01	_
20091112_RATP_SCD_1144	14	2	mais	NULL	coo	NULL	B_NULL	ROOT	0	idtext0014	mais	#####	spk2	25.67	25.78	0.01	_
20091112_RATP_SCD_1144	14	3	qu'est-ce+que	NULL	pri	NULL	B_NULL	OBJ	5	idtext0014	qu'est-ce+que	#####	spk2	25.79	25.96	0.01	_
20091112_RATP_SCD_1144	14	4	vous	NULL	cln	NULL	B_GN	SUJ	5	idtext0014	cln	#2##p##	spk2	25.97	26.05	0.01	_
20091112_RATP_SCD_1144	14	5	appelez	NULL	v	NULL	B_GVf	DEP_COORD	2	idtext0014	appeler	P#2##p##	spk2	26.06	26.3	0.01	_
20091112_RATP_SCD_1144	14	6	terminus	DISF_R	nc	NULL	NULL	NOLINK	0	idtext0014	terminus	##m###	spk2	26.31	26.59	0.01	/
20091112_RATP_SCD_1144	14	7	euh	DISF_M	pres	NULL	NULL	NOLINK	0	idtext0014	euh	#####	spk2	26.6	26.66	0.01	_
20091112_RATP_SCD_1144	14	8	terminus	NULL	nc	NULL	B_GN	OBJ	5	idtext0014	terminus	##m###	spk2	26.67	27.04	0.01	_
20091112_RATP_SCD_1144	14	9	de	NULL	prep	NULL	B_NULL	NOLINK	0	idtext0014	de	#####	spk2	27.05	27.15	?	_

20091112_RATP_SCD_1144	15	1	départ	NULL	nc	NULL	B_GN	NOLINK	0	idtext0015	départ	##m#s##	spk2	27.19	27.59	0.01	/
20091112_RATP_SCD_1144	15	2	c'	NULL	cln	NULL	B_GN	SUJ_IMP	3	idtext0015	ce	###s##	spk2	27.6	27.65	0.01	_
20091112_RATP_SCD_1144	15	3	est	NULL	v	NULL	B_GVf	ROOT	0	idtext0015	être	P#3##s##	spk2	27.66	27.72	0.01	//
20091112_RATP_SCD_1144	15	4	quoi	NULL	pri	NULL	B_NULL	ATS	3	idtext0015	quoi	#####	spk2	27.73	27.92	0.01	_
20091112_RATP_SCD_1144	15	5	c'	NULL	cln	NULL	B_GN	SUJ_IMP	6	idtext0015	ce	###s##	spk2	27.93	27.95	0.01	_
20091112_RATP_SCD_1144	15	6	est	NULL	v	NULL	B_GVf	ROOT	0	idtext0015	être	P#3##s##	spk2	27.96	28.03	0.01	_
20091112_RATP_SCD_1144	15	7	par+rapport+à	NULL	prep	NULL	B_NULL	ATS	6	idtext0015	par+rapport+à	#####	spk2	28.04	28.59	?	_

20091112_RATP_SCD_1144	16	1	ben	DISF_M	pres	NULL	NULL	NOLINK	0	idtext0016	ben	#####	spk1	27.26	27.48	0.01	_
20091112_RATP_SCD_1144	16	2	leur	NULL	det	NULL	B_GN	DET	3	idtext0016	leur	###s##o	spk1	27.49	27.59	0.01	_
20091112_RATP_SCD_1144	16	3	point	NULL	nc	NULL	I_GN	ROOT	0	idtext0016	point	##m#s##	spk1	27.6	27.8	0.01	_
20091112_RATP_SCD_1144	16	4	de	NULL	prep	NULL	B_GP	DEP	3	idtext0016	de	#####	spk1	27.81	27.9	0.01	_
20091112_RATP_SCD_1144	16	5	départ	NULL	nc	NULL	I_GP	OBJ	4	idtext0016	départ	##m#s##	spk1	27.91	28.59	?	//

20091112_RATP_SCD_1144	17	1	parce+que	NULL	csu	NULL	B_NULL	ROOT	0	idtext0017	parce+que	#####	spk2	29.45	29.59	0.01	_
20091112_RATP_SCD_1144	17	2	moi	NULL	pro	NULL	B_GN	SUJ	5	idtext0017	moi	#####	spk2	29.6	29.73	0.01	_
20091112_RATP_SCD_1144	17	3	par+exemple	NULL	adv	NULL	B_GADV	NOLINK	0	idtext0017	par+exemple	#####	spk2	29.74	30.01	0.01	_
20091112_RATP_SCD_1144	17	4	je	NULL	cln	NULL	B_GN	SUJ	5	idtext0017	cln	#1##s##	spk2	30.02	30.15	0.01	_
20091112_RATP_SCD_1144	17	5	pars	NULL	v	NULL	B_GVf	OBJ	1	idtext0017	partir	P#12##s##	spk2	30.16	30.37	0.01	_
20091112_RATP_SCD_1144	17	6	de	NULL	prep	NULL	B_GP	P_OBJ_LOC	5	idtext0017	de	#####	spk2	30.38	30.78	0.01	_
20091112_RATP_SCD_1144	17	7	Ledru-Rollin	NULL	nc	B_A	I_GP	OBJ	6	idtext0017	Ledru-Rollin	#####	spk2	30.79	31.71	?	//

20091112_RATP_SCD_1144	18	1	alors	NULL	adv	NULL	B_GADV	NOLINK	0	idtext0018	alors	#####	spk1	31.9	32.13	0.01	_
20091112_RATP_SCD_1144	18	2	vous	NULL	cln	NULL	B_GN	NOLINK	0	idtext0018	cln	#2##p##	spk1	32.14	32.3	?	_

20091112_RATP_SCD_1144	19	1	voulez	NULL	v	NULL	B_GVf	ROOT	0	idtext0019	vouloir	P#2##p##	spk1	32.34	32.66	0.01	_
20091112_RATP_SCD_1144	19	2	l'	NULL	det	NULL	B_GN	DET	3	idtext0019	le	###s##d	spk1	32.67	32.7	0.01	_
20091112_RATP_SCD_1144	19	3	heure	NULL	nc	NULL	I_GN	OBJ	1	idtext0019	heure	##f#s##	spk1	32.71	32.89	0.01	_
20091112_RATP_SCD_1144	19	4	de	NULL	prep	NULL	B_GP	DEP	3	idtext0019	de	#####	spk1	32.9	33.09	0.01	_
20091112_RATP_SCD_1144	19	5	passage	NULL	nc	NULL	I_GP	OBJ	4	idtext0019	passage	##m#s##	spk1	33.1	33.78	?	//

20091112_RATP_SCD_1144	20	1	c'	NULL	cln	NULL	B_GN	SUJ_IMP	2	idtext0020	ce	###s##	spk2	32.41	32.43	0.01	_
20091112_RATP_SCD_1144	20	2	est	NULL	v	NULL	B_GVf	ROOT	0	idtext0020	être	P#3##s##	spk2	32.44	32.67	0.01	_
20091112_RATP_SCD_1144	20	3	pareil	NULL	adj	NULL	B_GADJ	ATS	2	idtext0020	pareil	##m#s##	spk2	32.68	32.97	0.01	_
20091112_RATP_SCD_1144	20	4	c'	NULL	cln	NULL	B_GN	SUJ_IMP	5	idtext0020	ce	###s##	spk2	32.98	33.0	0.01	_
20091112_RATP_SCD_1144	20	5	est	NULL	v	NULL	B_GVf	ROOT	0	idtext0020	être	P#3##s##	spk2	33.01	33.6	0.01	_
20091112_RATP_SCD_1144	20	6	ouais	NULL	adv	NULL	B_GADV	NOLINK	0	idtext0020	ouais	#####	spk2	33.61	33.78	?	//

20091112_RATP_SCD_1144	21	1	du	NULL	prep	NULL	B_NULL	ROOT	0	idtext0021	du	#####	spk1	33.82	33.92	0.01	_
20091112_RATP_SCD_1144	21	2	premier	NULL	adj	NULL	B_GADJ	OBJ	1	idtext0021	premier	##m#s##	spk1	33.93	34.27	?	//

20091112_RATP_SCD_1144	22	1	métro	NULL	nc	NULL	B_GN	ROOT	0	idtext0022	métro	##m#s##	spk1	34.31	35.01	0.01	_
20091112_RATP_SCD_1144	22	2	à	NULL	prep	NULL	B_NULL	MOD	1	idtext0022	à	#####	spk1	35.02	35.04	0.01	_
20091112_RATP_SCD_1144	22	3	la	NULL	det	NULL	B_NULL	NOLINK	0	idtext0022	le	##m#s##d	spk1	35.05	35.75	?	_

20091112_RATP_SCD_1144	23	1	oui	NULL	adv	NULL	B_GADV	NOLINK	0	idtext0023	oui	#####	spk2	34.31	34.56	0.01	_
20091112_RATP_SCD_1144	23	2	voilà	DISF_M	pres	NULL	NULL	NOLINK	0	idtext0023	voilà	#####	spk2	34.57	35.4	0.01	_
20091112_RATP_SCD_1144	23	3	ouais	DISF_M	pres	NULL	NULL	NOLINK	0	idtext0023	ouais	#####	spk2	35.41	35.75	?	//

20091112_RATP_SCD_1144	24	1	station	NULL	nc	NULL	B_GN	NOLINK	0	idtext0024	station	##f#s##	spk1	35.79	36.5	0.01	_
20091112_RATP_SCD_1144	24	2	laquelle	NULL	prorel	NULL	B_NULL	NOLINK	0	idtext0024	laquelle	#####	spk1	36.51	36.97	0.01	_
20091112_RATP_SCD_1144	24	3	Ledru-Rollin	NULL	nc	B_A	B_GN	NOLINK	0	idtext0024	Ledru-Rollin	#####	spk1	36.98	37.73	?	_

20091112_RATP_SCD_1144	25	1	euh	DISF_M	pres	NULL	NULL	NOLINK	0	idtext0025	euh	#####	spk2	37.79	37.87	0.01	_
20091112_RATP_SCD_1144	25	2	Ledru-Rollin	NULL	nc	B_A	B_GN	NOLINK	0	idtext0025	Ledru-Rollin	#####	spk2	37.88	38.63	0.01	_
20091112_RATP_SCD_1144	25	3	ouais	NULL	adv	NULL	B_GADV	NOLINK	0	idtext0025	ouais	#####	spk2	38.64	39.12	?	//

20091112_RATP_SCD_1144	26	1	pour	NULL	prep	NULL	B_GP	ROOT	0	idtext0026	pour	#####	spk1	39.19	39.32	0.01	_
20091112_RATP_SCD_1144	26	2	aller	NULL	vinf	NULL	I_GP	OBJ	1	idtext0026	aller	W#####	spk1	39.33	39.49	0.01	_
20091112_RATP_SCD_1144	26	3	jusqu'+où	NULL	prep	NULL	B_GP	P_OBJ_LOC	2	idtext0026	jusqu'+où	#####	spk1	39.5	39.94	0.01	_
20091112_RATP_SCD_1144	26	4	madame	NULL	nc	NULL	I_GP	NOLINK	0	idtext0026	Monsieur	##f#s##	spk1	39.95	40.41	?	//

20091112_RATP_SCD_1144	27	1	euh	DISF_M	pres	NULL	NULL	NOLINK	0	idtext0027	euh	#####	spk2	40.48	40.91	0.01	_
20091112_RATP_SCD_1144	27	2	c'	NULL	cln	NULL	B_GN	SUJ_IMP	3	idtext0027	ce	###s##	spk2	40.92	41.02	0.01	_
20091112_RATP_SCD_1144	27	3	était	NULL	v	NULL	B_GVf	ROOT	0	idtext0027	être	I#3##s##	spk2	41.03	41.22	0.01	_
20091112_RATP_SCD_1144	27	4	pour	NULL	prep	NULL	B_GP	MOD	3	idtext0027	pour	#####	spk2	41.23	41.34	0.01	_
20091112_RATP_SCD_1144	27	5	aller	NULL	vinf	NULL	I_GP	OBJ	4	idtext0027	aller	W#####	spk2	41.35	41.51	0.01	_
20091112_RATP_SCD_1144	27	6	jusqu'à	NULL	prep	NULL	B_GP	P_OBJ_LOC	5	idtext0027	jusqu'à	#####	spk2	41.52	41.73	0.01	_
20091112_RATP_SCD_1144	27	7	Gare+du+Nord	NULL	nc	B_A	I_GP	OBJ	6	idtext0027	Gare+du+Nord	#####	spk2	41.74	42.32	0.01	_
20091112_RATP_SCD_1144	27	8	donc	NULL	coo	NULL	B_NULL	COORD	3	idtext0027	donc	#####	spk2	42.33	42.52	0.01	_
20091112_RATP_SCD_1144	27	9	je	NULL	cln	NULL	B_GN	SUJ	10	idtext0027	cln	#1##s##	spk2	42.53	42.55	0.01	_
20091112_RATP_SCD_1144	27	10	dois	NULL	v	NULL	B_GVf	DEP_COORD	8	idtext0027	devoir	P#12##s##	spk2	42.56	42.65	0.01	_
20091112_RATP_SCD_1144	27	11	avoir	NULL	vinf	NULL	I_GVf	OBJ	10	idtext0027	avoir	W#####	spk2	42.66	42.8	0.01	_
20091112_RATP_SCD_1144	27	12	un	NULL	det	NULL	B_GN	DET	13	idtext0027	un	##m#s##i	spk2	42.81	42.83	0.01	_
20091112_RATP_SCD_1144	27	13	changement	NULL	nc	NULL	I_GN	OBJ	11	idtext0027	changement	##m#s##	spk2	42.84	43.22	0.01	_
20091112_RATP_SCD_1144	27	14	à	NULL	prep	NULL	B_GP	P_OBJ_LOC	13	idtext0027	à	#####	spk2	43.23	43.25	0.01	_
20091112_RATP_SCD_1144	27	15	Châtelet	NULL	nc	B_A	I_GP	OBJ	14	idtext0027	Châtelet	#####	spk2	43.26	43.84	?	//

20091112_RATP_SCD_1144	28	1	Gare+du+Nord	NULL	nc	B_A	B_GN	NOLINK	0	idtext0028	Gare+du+Nord	#####	spk1	43.89	44.52	0.01	/
20091112_RATP_SCD_1144	28	2	vous	NULL	cln	NULL	B_GN	SUJ	3	idtext0028	cln	#2##p##	spk1	44.53	44.6	0.01	_
20091112_RATP_SCD_1144	28	3	patientez	NULL	v	NULL	B_GVf	ROOT	0	idtext0028	patienter	P#2##p##	spk1	44.61	45.04	0.01	_
20091112_RATP_SCD_1144	28	4	un	NULL	det	NULL	B_GN	DET	5	idtext0028	un	##m#s##i	spk1	45.05	45.16	0.01	_
20091112_RATP_SCD_1144	28	5	instant	NULL	nc	NULL	I_GN	MOD	3	idtext0028	instant	##m#s##	spk1	45.17	45.49	0.01	_
20091112_RATP_SCD_1144	28	6	je	NULL	cln	NULL	B_GN	NOLINK	0	idtext0028	cln	#1##s##	spk1	45.5	45.67	?	_

20091112_RATP_SCD_1144	29	1	recherche	NULL	nc	NULL	B_GN	NOLINK	0	idtext0029	recherche	##f#s##	spk1	45.71	46.09	0.01	_
20091112_RATP_SCD_1144	29	2	ne	NULL	clneg	NULL	B_NULL	NOLINK	0	idtext0029	ne	#####	spk1	46.1	46.32	?	_

20091112_RATP_SCD_1144	30	1	merci	NULL	adv	NULL	B_GADV	NOLINK	0	idtext0030	merci	#####	spk2	45.71	46.32	?	//

20091112_RATP_SCD_1144	31	1	quittez	NULL	v	NULL	B_GVfn	ROOT	0	idtext0031	quitter	P#2##p##	spk1	46.36	46.76	0.01	_
20091112_RATP_SCD_1144	31	2	pas	NULL	advneg	NULL	I_GVfn	MOD	1	idtext0031	pas	#####	spk1	46.77	46.93	?	_

20091112_RATP_SCD_1144	32	1	merci	NULL	adv	NULL	B_GADV	NOLINK	0	idtext0032	merci	#####	spk2	47.45	47.61	?	//

20091112_RATP_SCD_1144	33	1	madame	NULL	nc	NULL	B_GN	NOLINK	0	idtext0033	Monsieur	##f#s##	spk1	117.2	118.05	?	//

20091112_RATP_SCD_1144	34	1	oui	NULL	adv	NULL	B_GADV	NOLINK	0	idtext0034	oui	#####	spk2	118.11	118.47	?	//

20091112_RATP_SCD_1144	35	1	l'	NULL	det	NULL	B_GN	DET	2	idtext0035	le	###s##d	spk1	118.51	118.53	0.01	_
20091112_RATP_SCD_1144	35	2	heure	NULL	nc	NULL	I_GN	SUJ	8	idtext0035	heure	##f#s##	spk1	118.54	118.71	0.01	_
20091112_RATP_SCD_1144	35	3	du	NULL	prep	NULL	B_GP	DEP	2	idtext0035	du	#####	spk1	118.72	118.85	0.01	_
20091112_RATP_SCD_1144	35	4	passage	NULL	nc	NULL	I_GP	OBJ	3	idtext0035	passage	##m#s##	spk1	118.86	119.26	0.01	_
20091112_RATP_SCD_1144	35	5	du	NULL	prep	NULL	B_GP	DEP	4	idtext0035	du	#####	spk1	119.27	119.33	0.01	_
20091112_RATP_SCD_1144	35	6	premier	NULL	adj	NULL	I_GP	MOD	7	idtext0035	premier	##m#s##	spk1	119.34	119.66	0.01	_
20091112_RATP_SCD_1144	35	7	métro	NULL	nc	NULL	I_GP	OBJ	5	idtext0035	métro	##m#s##	spk1	119.67	119.93	0.01	_
20091112_RATP_SCD_1144	35	8	est	NULL	v	NULL	B_GVf	ROOT	0	idtext0035	être	P#3##s##	spk1	119.94	120.01	0.01	_
20091112_RATP_SCD_1144	35	9	à	NULL	prep	NULL	B_GP	ATS	8	idtext0035	à	#####	spk1	120.02	120.12	0.01	_
20091112_RATP_SCD_1144	35	10	cinq	NULL	det	B_H	I_GP	DET	11	idtext0035	cinq	#####	spk1	120.13	120.43	0.01	_
20091112_RATP_SCD_1144	35	11	heures	NULL	nc	I_H	I_GP	OBJ	9	idtext0035	heure	##f#p##	spk1	120.44	120.57	0.01	_
20091112_RATP_SCD_1144	35	12	trente-trois	NULL	adj	I_H	I_GP	MOD	11	idtext0035	trente-trois	#####	spk1	120.58	121.25	0.01	_
20091112_RATP_SCD_1144	35	13	à	NULL	prep	NULL	B_GP	MOD	11	idtext0035	à	#####	spk1	121.26	121.31	0.01	_
20091112_RATP_SCD_1144	35	14	Ledru-Rollin	NULL	nc	B_A	I_GP	OBJ	13	idtext0035	Ledru-Rollin	#####	spk1	121.32	122.17	?	//

20091112_RATP_SCD_1144	36	1	ah	DISF_M	pres	NULL	NULL	NOLINK	0	idtext0036	ah	#####	spk2	122.72	122.83	0.01	_
20091112_RATP_SCD_1144	36	2	d'accord	NULL	adv	NULL	B_GADV	NOLINK	0	idtext0036	d'accord	#####	spk2	122.84	123.36	?	_

20091112_RATP_SCD_1144	37	1	oui	NULL	adv	NULL	B_GADV	NOLINK	0	idtext0037	oui	#####	spk1	123.4	123.62	?	//

20091112_RATP_SCD_1144	38	1	parce+qu'	NULL	csu	NULL	B_NULL	ROOT	0	idtext0038	parce+qu'	#####	spk1	123.69	123.92	0.01	_
20091112_RATP_SCD_1144	38	2	il	NULL	cln	NULL	B_GN	SUJ_IMP	4	idtext0038	cln	#3#m#s##	spk1	123.93	123.98	0.01	_
20091112_RATP_SCD_1144	38	3	y	NULL	clo	NULL	B_GN	AFF	4	idtext0038	y	#####	spk1	123.99	124.01	0.01	_
20091112_RATP_SCD_1144	38	4	a	NULL	v	NULL	B_GVf	OBJ	1	idtext0038	avoir	P#3##s##	spk1	124.02	124.05	0.01	_
20091112_RATP_SCD_1144	38	5	un	NULL	det	NULL	B_NULL	NOLINK	0	idtext0038	un	##m#s##i	spk1	124.06	124.11	?	_

20091112_RATP_SCD_1144	39	1	d'accord	NULL	adv	NULL	B_GADV	NOLINK	0	idtext0039	d'accord	#####	spk2	123.73	124.11	?	//

20091112_RATP_SCD_1144	40	1	terminus	NULL	nc	NULL	B_GN	ROOT	0	idtext0040	terminus	##m###	spk1	124.15	124.5	0.01	/
20091112_RATP_SCD_1144	40	2	intermédiaire	NULL	adj	NULL	I_GN	MOD	1	idtext0040	intermédiaire	###s##	spk1	124.51	125.32	0.01	_
20091112_RATP_SCD_1144	40	3	à	NULL	prep	NULL	B_GP	ROOT	0	idtext0040	à	#####	spk1	125.33	125.49	0.01	_
20091112_RATP_SCD_1144	40	4	République	NULL	nc	B_A	I_GP	OBJ	3	idtext0040	République	#####	spk1	125.5	126.63	0.01	_
20091112_RATP_SCD_1144	40	5	sur	NULL	prep	NULL	B_GP	ROOT	0	idtext0041	sur	#####	spk1	126.64	126.78	0.01	_
20091112_RATP_SCD_1144	40	6	la	NULL	det	NULL	I_GP	DET	7	idtext0041	le	##m#s##d	spk1	126.79	126.9	0.01	_
20091112_RATP_SCD_1144	40	7	ligne	NULL	nc	NULL	I_GP	OBJ	5	idtext0041	ligne	##f#s##	spk1	126.91	127.81	0.01	_
20091112_RATP_SCD_1144	40	8	euh	DISF_M	pres	NULL	NULL	NOLINK	0	idtext0041	euh	#####	spk1	127.82	127.85	0.01	_
20091112_RATP_SCD_1144	40	9	huit	NULL	nc	NULL	I_GP	MOD	7	idtext0041	huit	##m###	spk1	127.86	128.35	?	//

20091112_RATP_SCD_1144	41	1	d'accord	NULL	adv	NULL	B_GADV	NOLINK	0	idtext0042	d'accord	#####	spk2	129.18	129.44	0.01	_
20091112_RATP_SCD_1144	41	2	bon+ben	DISF_M	pres	NULL	NULL	NOLINK	0	idtext0042	bon+ben	#####	spk2	129.45	129.7	0.01	//
20091112_RATP_SCD_1144	41	3	c'	NULL	cln	NULL	B_GN	SUJ_IMP	4	idtext0042	ce	###s##	spk2	129.71	129.74	0.01	_
20091112_RATP_SCD_1144	41	4	est	NULL	v	NULL	B_GVf	ROOT	0	idtext0042	être	P#3##s##	spk2	129.75	129.8	0.01	_
20091112_RATP_SCD_1144	41	5	tôt	NULL	adv	NULL	B_GADV	ATS	4	idtext0042	tôt	#####	spk2	129.81	129.95	0.01	_
20091112_RATP_SCD_1144	41	6	et+donc	NULL	coo	NULL	B_NULL	COORD	4	idtext0042	et+donc	#####	spk2	129.96	130.21	0.01	_
20091112_RATP_SCD_1144	41	7	c'	NULL	cln	NULL	B_GN	SUJ_IMP	8	idtext0042	ce	###s##	spk2	130.22	130.31	0.01	_
20091112_RATP_SCD_1144	41	8	est	NULL	v	NULL	B_GVf	DEP_COORD	6	idtext0042	être	P#3##s##	spk2	130.32	130.38	0.01	_
20091112_RATP_SCD_1144	41	9	bon	NULL	adj	NULL	B_GADJ	ATS	8	idtext0042	bon	##m#s##	spk2	130.39	130.55	0.01	_
20091112_RATP_SCD_1144	41	10	non	NULL	adv	NULL	B_GADV	NOLINK	0	idtext0042	non	#####	spk2	130.56	130.72	0.01	_
20091112_RATP_SCD_1144	41	11	je	NULL	cln	NULL	B_GN	SUJ	12	idtext0042	cln	#1##s##	spk2	130.73	130.81	0.01	_
20091112_RATP_SCD_1144	41	12	devrais	NULL	v	NULL	B_GVf	ROOT	0	idtext0042	devoir	C#12##s##	spk2	130.82	130.96	0.01	_
20091112_RATP_SCD_1144	41	13	avoir	NULL	vinf	NULL	I_GVf	OBJ	12	idtext0042	avoir	W#####	spk2	130.97	131.24	0.01	_
20091112_RATP_SCD_1144	41	14	mon	NULL	det	NULL	B_GN	DET	15	idtext0042	mon	###s##o	spk2	131.25	131.39	0.01	_
20091112_RATP_SCD_1144	41	15	train	NULL	nc	NULL	I_GN	OBJ	13	idtext0042	train	##m#s##	spk2	131.4	132.15	0.01	_
20091112_RATP_SCD_1144	41	16	OK	NULL	adv	NULL	B_GADV	NOLINK	0	idtext0043	ok	#####	spk2	132.16	132.64	?	//

20091112_RATP_SCD_1144	42	1	d'accord	NULL	adv	NULL	B_GADV	NOLINK	0	idtext0044	d'accord	#####	spk2	132.68	133.13	?	//

20091112_RATP_SCD_1144	43	1	vous	NULL	cln	NULL	B_GN	SUJ	2	idtext0045	cln	#2##p##	spk1	132.68	132.88	0.01	_
20091112_RATP_SCD_1144	43	2	pouvez	NULL	v	NULL	B_GVf	ROOT	0	idtext0045	pouvoir	P#2##p##	spk1	132.89	133.13	?	//

20091112_RATP_SCD_1144	44	1	espérer	NULL	vinf	NULL	B_GVi	ROOT	0	idtext0046	espérer	W#####	spk1	133.2	133.55	0.01	_
20091112_RATP_SCD_1144	44	2	arriver	NULL	vinf	NULL	B_GVi	OBJ	1	idtext0046	arriver	W#####	spk1	133.56	133.76	0.01	_
20091112_RATP_SCD_1144	44	3	à	NULL	prep	NULL	B_GP	P_OBJ_LOC	2	idtext0046	à	#####	spk1	133.77	133.85	0.01	_
20091112_RATP_SCD_1144	44	4	la	NULL	det	NULL	I_GP	DET	5	idtext0046	le	##m#s##d	spk1	133.86	133.95	0.01	_
20091112_RATP_SCD_1144	44	5	Gare+du+Nord	NULL	nc	B_A	I_GP	OBJ	3	idtext0046	Gare+du+Nord	#####	spk1	133.96	134.44	0.01	_
20091112_RATP_SCD_1144	44	6	à	NULL	prep	NULL	B_GP	MOD	5	idtext0046	à	#####	spk1	134.45	134.59	0.01	_
20091112_RATP_SCD_1144	44	7	cinq	NULL	det	B_H	I_GP	DET	8	idtext0046	cinq	#####	spk1	134.6	134.83	0.01	_
20091112_RATP_SCD_1144	44	8	heures	NULL	nc	I_H	I_GP	OBJ	6	idtext0046	heure	##f#p##	spk1	134.84	135.01	0.01	_
20091112_RATP_SCD_1144	44	9	cinquante	NULL	adj	I_H	I_GP	MOD	8	idtext0046	cinquante	#####	spk1	135.02	135.54	0.01	_
20091112_RATP_SCD_1144	44	10	madame	NULL	nc	NULL	I_GP	NOLINK	0	idtext0046	Monsieur	##f#s##	spk1	135.55	135.81	0.01	_
20091112_RATP_SCD_1144	44	11	votre	NULL	det	NULL	B_GN	DET	12	idtext0046	votre	###s##o	spk1	135.82	136.1	0.01	_
20091112_RATP_SCD_1144	44	12	train	NULL	nc	NULL	I_GN	SUJ	13	idtext0046	train	##m#s##	spk1	136.11	136.2	0.01	_
20091112_RATP_SCD_1144	44	13	est	NULL	v	NULL	B_GVf	ROOT	0	idtext0046	être	P#3##s##	spk1	136.21	136.35	0.01	_
20091112_RATP_SCD_1144	44	14	à	NULL	prep	NULL	B_GP	ATS	13	idtext0046	à	#####	spk1	136.36	136.39	0.01	_
20091112_RATP_SCD_1144	44	15	quelle	NULL	det	NULL	I_GP	DET	16	idtext0046	quel	##f#s##	spk1	136.4	136.7	0.01	_
20091112_RATP_SCD_1144	44	16	heure	NULL	nc	NULL	I_GP	OBJ	14	idtext0046	heure	##f#s##	spk1	136.71	137.24	?	//

20091112_RATP_SCD_1144	45	1	oh	DISF_M	pres	NULL	NULL	NOLINK	0	idtext0047	oh	#####	spk2	137.39	137.7	0.01	_
20091112_RATP_SCD_1144	45	2	ça	NULL	pro	NULL	B_GN	SUJ_IMP	3	idtext0047	ça	#####	spk2	137.71	137.78	0.01	_
20091112_RATP_SCD_1144	45	3	va	NULL	v	NULL	B_GVf	ROOT	0	idtext0047	aller	P#3##s##	spk2	137.79	137.9	0.01	_
20091112_RATP_SCD_1144	45	4	il	NULL	cln	NULL	B_GN	SUJ	5	idtext0047	cln	#3#m#s##	spk2	137.91	137.98	0.01	_
20091112_RATP_SCD_1144	45	5	est	NULL	v	NULL	B_GVf	ROOT	0	idtext0047	être	P#3##s##	spk2	137.99	138.02	0.01	_
20091112_RATP_SCD_1144	45	6	à	NULL	prep	NULL	B_GP	ATS	5	idtext0047	à	#####	spk2	138.03	138.06	0.01	_
20091112_RATP_SCD_1144	45	7	six	NULL	det	B_H	I_GP	DET	8	idtext0047	six	#####	spk2	138.07	138.32	0.01	_
20091112_RATP_SCD_1144	45	8	heures	NULL	nc	I_H	I_GP	OBJ	6	idtext0047	heure	##f#p##	spk2	138.33	138.44	0.01	_
20091112_RATP_SCD_1144	45	9	et	NULL	coo	I_H	I_GP	COORD	8	idtext0047	et	#####	spk2	138.45	138.52	0.01	_
20091112_RATP_SCD_1144	45	10	demie	NULL	adj	I_H	I_GP	DEP_COORD	9	idtext0047	demie	#####	spk2	138.53	139.0	?	/

20091112_RATP_SCD_1144	46	1	ah	DISF_M	pres	NULL	NULL	NOLINK	0	idtext0048	ah	#####	spk1	139.08	139.21	0.01	_
20091112_RATP_SCD_1144	46	2	sans	NULL	prep	NULL	B_GP	ROOT	0	idtext0048	sans	#####	spk1	139.22	139.38	0.01	_
20091112_RATP_SCD_1144	46	3	problème	NULL	nc	NULL	I_GP	OBJ	2	idtext0048	problème	##m#s##	spk1	139.39	139.81	0.01	_
20091112_RATP_SCD_1144	46	4	madame	NULL	nc	NULL	I_GP	NOLINK	0	idtext0048	Monsieur	##f#s##	spk1	139.82	140.07	?	//

20091112_RATP_SCD_1144	47	1	ah	DISF_M	pres	NULL	NULL	NOLINK	0	idtext0049	ah	#####	spk2	140.12	140.17	0.01	_
20091112_RATP_SCD_1144	47	2	oui	NULL	adv	NULL	B_GADV	MOD	3	idtext0049	oui	#####	spk2	140.18	140.38	0.01	_
20091112_RATP_SCD_1144	47	3	d'accord	NULL	adv	NULL	I_GADV	ROOT	0	idtext0049	d'accord	#####	spk2	140.39	140.69	?	_

20091112_RATP_SCD_1144	48	1	sans	NULL	prep	NULL	B_GP	ROOT	0	idtext0050	sans	#####	spk2	140.73	140.87	0.01	_
20091112_RATP_SCD_1144	48	2	problème	NULL	nc	NULL	I_GP	OBJ	1	idtext0050	problème	##m#s##	spk2	140.88	141.25	0.01	_
20091112_RATP_SCD_1144	48	3	OK	NULL	adv	NULL	B_GADV	NOLINK	0	idtext0050	ok	#####	spk2	141.26	141.53	?	//

20091112_RATP_SCD_1144	49	1	sans	NULL	prep	NULL	B_GP	ROOT	0	idtext0051	sans	#####	spk1	140.73	140.87	0.01	_
20091112_RATP_SCD_1144	49	2	problème	NULL	nc	NULL	I_GP	OBJ	1	idtext0051	problème	##m#s##	spk1	140.88	141.53	?	//

20091112_RATP_SCD_1144	50	1	ben	DISF_M	pres	NULL	NULL	NOLINK	0	idtext0052	ben	#####	spk2	141.57	141.68	?	//

20091112_RATP_SCD_1144	51	1	hm	DISF_M	pres	NULL	NULL	NOLINK	0	idtext0053	hm	#####	spk1	141.57	141.68	?	//

20091112_RATP_SCD_1144	52	1	merci	NULL	adv	NULL	B_GADV	MOD	2	idtext0054	merci	#####	spk2	141.73	142.01	0.01	_
20091112_RATP_SCD_1144	52	2	beaucoup	NULL	adv	NULL	I_GADV	ROOT	0	idtext0054	beaucoup	#####	spk2	142.02	142.38	0.01	_
20091112_RATP_SCD_1144	52	3	hein	DISF_M	pres	NULL	NULL	NOLINK	0	idtext0054	hein	#####	spk2	142.39	142.48	?	//

20091112_RATP_SCD_1144	53	1	désolée	NULL	adj	NULL	B_GADJ	NOLINK	0	idtext0055	désolé	##f#s##	spk2	142.6	143.63	0.01	_
20091112_RATP_SCD_1144	53	2	hein	DISF_M	pres	NULL	NULL	NOLINK	0	idtext0055	hein	#####	spk2	143.64	144.6	0.01	_
20091112_RATP_SCD_1144	53	3	au+revoir	NULL	adv	NULL	B_GADV	MOD	4	idtext0056	au+revoir	#####	spk2	144.61	145.77	0.01	_
20091112_RATP_SCD_1144	53	4	OK	NULL	adv	NULL	I_GADV	ROOT	0	idtext0057	ok	#####	spk2	145.78	146.24	0.01	_
20091112_RATP_SCD_1144	53	5	merci	NULL	adv	NULL	B_GADV	MOD	7	idtext0058	merci	#####	spk2	146.25	146.89	0.01	//
20091112_RATP_SCD_1144	53	6	hein	DISF_M	pres	NULL	NULL	NOLINK	0	idtext0058	hein	#####	spk2	146.9	147.38	0.01	_
20091112_RATP_SCD_1144	53	7	au+revoir	NULL	adv	NULL	I_GADV	ROOT	0	idtext0059	au+revoir	#####	spk2	147.39	148.23	?	//

20091112_RATP_SCD_1144	54	1	je	NULL	cln	NULL	B_GN	SUJ	4	idtext0060	cln	#1##s##	spk1	142.53	142.6	0.01	_
20091112_RATP_SCD_1144	54	2	vous	NULL	clo	NULL	B_GN	OBJ	4	idtext0060	cln	#2##p##	spk1	142.61	142.89	0.01	_
20091112_RATP_SCD_1144	54	3	en	NULL	clo	NULL	B_GN	DE_OBJ	4	idtext0060	en	#####	spk1	142.9	143.01	0.01	_
20091112_RATP_SCD_1144	54	4	prie	NULL	v	NULL	B_GVf	ROOT	0	idtext0060	prier	PS#13##s##	spk1	143.02	143.19	0.01	_
20091112_RATP_SCD_1144	54	5	il	NULL	cln	NULL	B_GN	SUJ_IMP	7	idtext0060	cln	#3#m#s##	spk1	143.2	143.55	0.01	_
20091112_RATP_SCD_1144	54	6	y	NULL	clo	NULL	B_GN	AFF	7	idtext0060	y	#####	spk1	143.56	143.74	0.01	_
20091112_RATP_SCD_1144	54	7	a	NULL	v	NULL	B_GVfn	ROOT	0	idtext0060	avoir	P#3##s##	spk1	143.75	144.08	0.01	_
20091112_RATP_SCD_1144	54	8	pas	NULL	advneg	NULL	I_GVfn	MOD	7	idtext0060	pas	#####	spk1	144.09	144.41	0.01	_
20091112_RATP_SCD_1144	54	9	de	NULL	det	NULL	B_GN	DET	10	idtext0060	de	###p##i	spk1	144.42	144.58	0.01	_
20091112_RATP_SCD_1144	54	10	soucis	NULL	nc	NULL	I_GN	OBJ	7	idtext0060	souci	##m#p##	spk1	144.59	144.73	0.01	//
20091112_RATP_SCD_1144	54	11	il	NULL	cln	NULL	B_GN	SUJ_IMP	13	idtext0060	cln	#3#m#s##	spk1	144.74	144.87	0.01	_
20091112_RATP_SCD_1144	54	12	y	NULL	clo	NULL	B_GN	AFF	13	idtext0060	y	#####	spk1	144.88	144.9	0.01	_
20091112_RATP_SCD_1144	54	13	a	NULL	v	NULL	B_GVfn	ROOT	0	idtext0060	avoir	P#3##s##	spk1	144.91	144.94	0.01	_
20091112_RATP_SCD_1144	54	14	pas	NULL	advneg	NULL	I_GVfn	MOD	13	idtext0060	pas	#####	spk1	144.95	145.08	0.01	_
20091112_RATP_SCD_1144	54	15	de	NULL	det	NULL	B_GN	DET	16	idtext0060	de	###p##i	spk1	145.09	145.12	0.01	_
20091112_RATP_SCD_1144	54	16	mal	NULL	nc	NULL	I_GN	OBJ	13	idtext0060	mal	##m#s##	spk1	145.13	145.76	0.01	_
20091112_RATP_SCD_1144	54	17	madame	NULL	nc	NULL	I_GN	NOLINK	0	idtext0060	Monsieur	##f#s##	spk1	145.77	145.99	0.01	_
20091112_RATP_SCD_1144	54	18	il	NULL	cln	NULL	B_GN	SUJ_IMP	20	idtext0060	cln	#3#m#s##	spk1	146.0	146.26	0.01	_
20091112_RATP_SCD_1144	54	19	y	NULL	clo	NULL	B_GN	AFF	20	idtext0060	y	#####	spk1	146.27	146.56	0.01	_
20091112_RATP_SCD_1144	54	20	a	NULL	v	NULL	B_GVfn	ROOT	0	idtext0060	avoir	P#3##s##	spk1	146.57	146.66	0.01	_
20091112_RATP_SCD_1144	54	21	pas	NULL	advneg	NULL	I_GVfn	MOD	20	idtext0060	pas	#####	spk1	146.67	146.79	0.01	_
20091112_RATP_SCD_1144	54	22	de	NULL	det	NULL	B_GN	DET	23	idtext0060	de	###p##i	spk1	146.8	146.85	0.01	_
20091112_RATP_SCD_1144	54	23	mal	NULL	nc	NULL	I_GN	OBJ	20	idtext0060	mal	##m#s##	spk1	146.86	147.05	0.01	_
20091112_RATP_SCD_1144	54	24	je	NULL	cln	NULL	B_GN	SUJ	25	idtext0060	cln	#1##s##	spk1	147.06	147.08	0.01	_
20091112_RATP_SCD_1144	54	25	suis	NULL	v	NULL	B_GVf	ROOT	0	idtext0060	être	P#1##s##	spk1	147.09	147.23	0.01	_
20091112_RATP_SCD_1144	54	26	là	NULL	adv	NULL	B_GADV	MOD	25	idtext0060	là	#####	spk1	147.24	147.29	0.01	_
20091112_RATP_SCD_1144	54	27	pour	NULL	prep	NULL	B_GP	P_OBJ	25	idtext0060	pour	#####	spk1	147.3	147.58	0.01	_
20091112_RATP_SCD_1144	54	28	ça	NULL	pro	NULL	I_GP	OBJ	27	idtext0060	ça	#####	spk1	147.59	147.67	0.01	_
20091112_RATP_SCD_1144	54	29	au	DISF_R	prep	NULL	NULL	NOLINK	0	idtext0060	au	#####	spk1	147.68	147.75	0.01	_
20091112_RATP_SCD_1144	54	30	au	NULL	prep	NULL	B_GP	MOD	16	idtext0060	au	#####	spk1	147.76	147.85	0.01	_
20091112_RATP_SCD_1144	54	31	madame	NULL	nc	NULL	I_GP	OBJ	30	idtext0060	Monsieur	##f#s##	spk1	147.86	148.23	?	//

