20091112_RATP_SCD_0125	1	1	NNAAMMEE	NULL	np	B_HU	B_GN	ROOT	0	idtext0000	ANONYM	NULL	spk1	5.94	6.46	0.01	_
20091112_RATP_SCD_0125	1	2	bonjour	NULL	adv	NULL	B_GADV	NOLINK	0	idtext0001	bonjour	#####	spk1	6.47	6.81	?	//

20091112_RATP_SCD_0125	2	1	bonjour	NULL	adv	NULL	B_GADV	NOLINK	0	idtext0002	bonjour	#####	spk2	7.43	7.72	0.01	//
20091112_RATP_SCD_0125	2	2	monsieur	NULL	nc	NULL	B_GN	NOLINK	0	idtext0002	Monsieur	##m#s##	spk2	7.73	8.28	0.13	_
20091112_RATP_SCD_0125	2	3	euh	DISF_M	pres	NULL	NULL	NOLINK	0	idtext0003	euh	#####	spk2	8.41	8.77	0.01	_
20091112_RATP_SCD_0125	2	4	monsieur	NULL	nc	NULL	B_GN	NOLINK	0	idtext0003	Monsieur	##m#s##	spk2	8.78	9.55	0.01	_
20091112_RATP_SCD_0125	2	5	je	NULL	cln	NULL	B_GN	SUJ	6	idtext0003	cln	#1##s##	spk2	9.56	9.94	0.01	_
20091112_RATP_SCD_0125	2	6	suis	NULL	v	NULL	B_GVf	ROOT	0	idtext0003	être	P#1##s##	spk2	9.95	10.31	0.01	_
20091112_RATP_SCD_0125	2	7	à	DISF_R	prep	NULL	NULL	NOLINK	0	idtext0003	à	#####	spk2	10.32	10.39	0.01	_
20091112_RATP_SCD_0125	2	8	la	DISF_R	det	NULL	NULL	NOLINK	0	idtext0003	le	##m#s##d	spk2	10.4	10.99	0.01	_
20091112_RATP_SCD_0125	2	9	à	NULL	prep	NULL	B_GP	P_OBJ_LOC	6	idtext0003	à	#####	spk2	11.0	11.08	0.01	_
20091112_RATP_SCD_0125	2	10	la	NULL	det	NULL	I_GP	DET	11	idtext0003	le	##m#s##d	spk2	11.09	11.17	0.01	_
20091112_RATP_SCD_0125	2	11	station	NULL	nc	NULL	I_GP	OBJ	9	idtext0003	station	##f#s##	spk2	11.18	11.57	0.01	_
20091112_RATP_SCD_0125	2	12	de	NULL	prep	NULL	B_GP	DEP	11	idtext0003	de	#####	spk2	11.58	11.68	0.01	_
20091112_RATP_SCD_0125	2	13	métro	NULL	nc	NULL	I_GP	OBJ	12	idtext0003	métro	##m#s##	spk2	11.69	12.27	0.31	//
20091112_RATP_SCD_0125	2	14	euh	DISF_M	pres	NULL	NULL	NOLINK	0	idtext0004	euh	#####	spk2	12.58	13.16	0.01	_
20091112_RATP_SCD_0125	2	15	liberté	NULL	nc	NULL	B_GN	ROOT	0	idtext0004	liberté	##f#s##	spk2	13.17	14.29	0.01	_
20091112_RATP_SCD_0125	2	16	à	NULL	prep	NULL	B_GP	MOD	15	idtext0004	à	#####	spk2	14.3	14.38	0.01	_
20091112_RATP_SCD_0125	2	17	Charenton	NULL	nc	B_A	I_GP	OBJ	16	idtext0004	Charenton	#####	spk2	14.39	15.21	?	//

20091112_RATP_SCD_0125	3	1	hm	DISF_M	pres	NULL	NULL	NOLINK	0	idtext0005	hm	#####	spk1	15.53	16.0	?	//

20091112_RATP_SCD_0125	4	1	et	NULL	coo	NULL	B_NULL	NOLINK	0	idtext0006	et	#####	spk2	15.29	15.31	0.01	_
20091112_RATP_SCD_0125	4	2	je	NULL	cln	NULL	B_GN	NOLINK	0	idtext0006	cln	#1##s##	spk2	15.32	16.0	?	_

20091112_RATP_SCD_0125	5	1	et	NULL	coo	NULL	B_NULL	ROOT	0	idtext0007	et	#####	spk2	16.14	16.24	0.01	_
20091112_RATP_SCD_0125	5	2	je	NULL	cln	NULL	B_GN	SUJ	3	idtext0007	cln	#1##s##	spk2	16.25	16.36	0.01	_
20091112_RATP_SCD_0125	5	3	voudrais	NULL	v	NULL	B_GVf	DEP_COORD	1	idtext0007	vouloir	C#12##s##	spk2	16.37	16.76	0.01	_
20091112_RATP_SCD_0125	5	4	aller	NULL	vinf	NULL	I_GVf	OBJ	3	idtext0007	aller	W#####	spk2	16.77	17.54	0.01	_
20091112_RATP_SCD_0125	5	5	euh	DISF_M	pres	NULL	NULL	NOLINK	0	idtext0008	euh	#####	spk2	17.55	18.31	0.21	_
20091112_RATP_SCD_0125	5	6	rue	NULL	nc	B_A	B_GN	ROOT	0	idtext0009	rue	##f#s##	spk2	18.52	18.97	0.01	/
20091112_RATP_SCD_0125	5	7	Georges+Clemenceau	NULL	np	I_A	I_GN	MOD	6	idtext0009	Georges+Clemenceau	#####	spk2	18.98	19.9	0.01	_
20091112_RATP_SCD_0125	5	8	à	NULL	prep	NULL	B_GP	MOD	6	idtext0009	à	#####	spk2	19.91	20.0	0.01	_
20091112_RATP_SCD_0125	5	9	Maisons-Alfort	NULL	nc	B_A	I_GP	OBJ	8	idtext0009	Maisons-Alfort	##m#s##	spk2	20.01	20.87	0.39	//
20091112_RATP_SCD_0125	5	10	est-ce+que	NULL	pri	NULL	B_NULL	NOLINK	0	idtext0010	est-ce+que	#####	spk2	21.26	21.58	0.01	_
20091112_RATP_SCD_0125	5	11	vous	NULL	cln	NULL	B_GN	SUJ	12	idtext0010	cln	#2##p##	spk2	21.59	21.83	0.01	_
20091112_RATP_SCD_0125	5	12	avez	NULL	v	NULL	B_GVf	ROOT	0	idtext0010	avoir	P#2##p##	spk2	21.84	22.31	0.01	_
20091112_RATP_SCD_0125	5	13	euh	DISF_M	pres	NULL	NULL	NOLINK	0	idtext0010	euh	#####	spk2	22.32	22.71	0.01	_
20091112_RATP_SCD_0125	5	14	une	NULL	det	NULL	B_GN	DET	15	idtext0010	un	##f#s##i	spk2	22.72	22.9	0.01	_
20091112_RATP_SCD_0125	5	15	indication	NULL	nc	NULL	I_GN	OBJ	12	idtext0010	indication	##f#s##	spk2	22.91	23.53	0.01	_
20091112_RATP_SCD_0125	5	16	pour+que	NULL	csu	NULL	B_NULL	MOD	15	idtext0010	pour+que	#####	spk2	23.54	23.82	0.01	_
20091112_RATP_SCD_0125	5	17	je	NULL	cln	NULL	B_GN	SUJ	18	idtext0010	cln	#1##s##	spk2	23.83	23.85	0.01	_
20091112_RATP_SCD_0125	5	18	puisse	NULL	v	NULL	B_GVf	OBJ	16	idtext0010	pouvoir	S#1##s##	spk2	23.86	24.1	0.01	_
20091112_RATP_SCD_0125	5	19	m'	NULL	clr	NULL	B_GNr	AFF	21	idtext0010	cla	#1##s##	spk2	24.11	24.2	0.01	_
20091112_RATP_SCD_0125	5	20	y	NULL	clo	NULL	B_GN	P_OBJ_LOC	21	idtext0010	y	#####	spk2	24.21	24.26	0.01	_
20091112_RATP_SCD_0125	5	21	rendre	NULL	vinf	NULL	B_GVi	OBJ	18	idtext0010	rendre	W#####	spk2	24.27	24.73	0.01	_
20091112_RATP_SCD_0125	5	22	s'il+vous+plaît	NULL	adv	NULL	B_GADV	MOD	21	idtext0010	s'il+vous+plaît	#####	spk2	24.74	25.46	?	//

20091112_RATP_SCD_0125	6	1	alors	NULL	adv	NULL	B_GADV	NOLINK	0	idtext0011	alors	#####	spk1	25.6	25.85	0.01	_
20091112_RATP_SCD_0125	6	2	Georges+Clemenceau	NULL	nc	B_A	B_GN	NOLINK	0	idtext0011	Georges+Clemenceau	#####	spk1	25.86	26.84	?	//

20091112_RATP_SCD_0125	7	1	soit	NULL	coo	NULL	B_NULL	NOLINK	0	idtext0012	soit	#####	spk2	26.88	27.04	0.01	_
20091112_RATP_SCD_0125	7	2	par	NULL	prep	NULL	B_GP	ROOT	0	idtext0012	par	#####	spk2	27.05	27.24	0.01	_
20091112_RATP_SCD_0125	7	3	bus	NULL	nc	NULL	I_GP	OBJ	2	idtext0012	bus	##m###	spk2	27.25	27.53	0.01	_
20091112_RATP_SCD_0125	7	4	soit	NULL	coo	NULL	B_NULL	NOLINK	0	idtext0012	soit	#####	spk2	27.54	27.65	0.01	_
20091112_RATP_SCD_0125	7	5	par	NULL	prep	NULL	B_GP	ROOT	0	idtext0012	par	#####	spk2	27.66	27.84	0.01	_
20091112_RATP_SCD_0125	7	6	métro	NULL	nc	NULL	I_GP	OBJ	5	idtext0012	métro	##m#s##	spk2	27.85	28.46	0.01	_
20091112_RATP_SCD_0125	7	7	euh	DISF_M	pres	NULL	NULL	NOLINK	0	idtext0012	euh	#####	spk2	28.47	28.81	?	//

20091112_RATP_SCD_0125	8	1	alors	NULL	adv	NULL	B_GADV	NOLINK	0	idtext0013	alors	#####	spk1	30.73	31.35	0.01	_
20091112_RATP_SCD_0125	8	2	avenue	NULL	nc	B_A	B_GN	NOLINK	0	idtext0013	avenue	##f#s##	spk1	31.36	31.6	0.01	_
20091112_RATP_SCD_0125	8	3	Clemenceau	NULL	np	I_A	I_GN	MOD	2	idtext0013	Clemenceau	#####	spk1	31.61	33.05	0.04	_
20091112_RATP_SCD_0125	8	4	quel	NULL	det	NULL	B_GN	DET	5	idtext0014	quel	##m#s##	spk1	33.09	33.18	0.01	_
20091112_RATP_SCD_0125	8	5	numéro	NULL	nc	NULL	I_GN	ROOT	0	idtext0014	numéro	##m#s##	spk1	33.19	33.56	0.01	_
20091112_RATP_SCD_0125	8	6	de	NULL	prep	NULL	B_GP	DEP	5	idtext0014	de	#####	spk1	33.57	33.6	0.01	_
20091112_RATP_SCD_0125	8	7	l'	NULL	det	NULL	I_GP	DET	8	idtext0014	le	###s##d	spk1	33.61	33.69	0.01	_
20091112_RATP_SCD_0125	8	8	avenue	NULL	nc	NULL	I_GP	OBJ	6	idtext0014	avenue	##f#s##	spk1	33.7	33.9	0.01	_
20091112_RATP_SCD_0125	8	9	madame	NULL	nc	NULL	I_GP	NOLINK	0	idtext0014	Monsieur	##f#s##	spk1	33.91	34.12	?	//

20091112_RATP_SCD_0125	9	1	le	NULL	det	NULL	B_GN	DET	2	idtext0015	le	##m#s##d	spk2	34.16	34.2	0.01	_
20091112_RATP_SCD_0125	9	2	numéro	NULL	nc	NULL	I_GN	ROOT	0	idtext0015	numéro	##m#s##	spk2	34.21	34.54	0.01	_
20091112_RATP_SCD_0125	9	3	trente	NULL	nc	B_T	I_GN	MOD	2	idtext0015	trente	##m###	spk2	34.55	34.9	0.01	_
20091112_RATP_SCD_0125	9	4	numéro	NULL	nc	NULL	B_GN	ROOT	0	idtext0015	numéro	##m#s##	spk2	34.91	35.24	0.01	_
20091112_RATP_SCD_0125	9	5	trente-quatre	NULL	nc	B_T	I_GN	MOD	4	idtext0015	trente-quatre	#####	spk2	35.25	36.13	?	//

20091112_RATP_SCD_0125	10	1	trente-quatre	NULL	nc	NULL	B_GN	NOLINK	0	idtext0016	trente-quatre	#####	spk1	36.17	36.7	0.04	_
20091112_RATP_SCD_0125	10	2	vous	NULL	cln	NULL	B_GN	SUJ	3	idtext0017	cln	#2##p##	spk1	36.74	36.82	0.01	_
20091112_RATP_SCD_0125	10	3	patientez	NULL	v	NULL	B_GVf	ROOT	0	idtext0017	patienter	P#2##p##	spk1	36.83	37.27	0.01	_
20091112_RATP_SCD_0125	10	4	je	NULL	cln	NULL	B_GN	SUJ	5	idtext0017	cln	#1##s##	spk1	37.28	37.38	0.01	_
20091112_RATP_SCD_0125	10	5	vérifie	NULL	v	NULL	B_GVf	ROOT	0	idtext0017	vérifier	PS#13##s##	spk1	37.39	38.0	?	//

20091112_RATP_SCD_0125	11	1	merci	NULL	adv	NULL	B_GADV	NOLINK	0	idtext0018	merci	#####	spk2	38.25	38.66	0.01	//
20091112_RATP_SCD_0125	11	2	monsieur	NULL	nc	NULL	B_GN	NOLINK	0	idtext0018	Monsieur	##m#s##	spk2	38.67	39.22	?	//

20091112_RATP_SCD_0125	12	1	madame	NULL	nc	NULL	B_GN	NOLINK	0	idtext0019	Monsieur	##f#s##	spk1	60.92	61.63	?	//

20091112_RATP_SCD_0125	13	1	oui	NULL	adv	NULL	B_GADV	NOLINK	0	idtext0020	oui	#####	spk2	62.09	62.28	0.01	_
20091112_RATP_SCD_0125	13	2	monsieur	NULL	nc	NULL	B_GN	NOLINK	0	idtext0020	Monsieur	##m#s##	spk2	62.29	62.69	?	//

20091112_RATP_SCD_0125	14	1	alors	NULL	adv	NULL	B_GADV	NOLINK	0	idtext0021	alors	#####	spk1	62.73	62.97	0.01	_
20091112_RATP_SCD_0125	14	2	vous	NULL	cln	NULL	B_GN	SUJ	3	idtext0021	cln	#2##p##	spk1	62.98	63.06	0.01	_
20091112_RATP_SCD_0125	14	3	prenez	NULL	v	NULL	B_GVf	ROOT	0	idtext0021	prendre	P#2##p##	spk1	63.07	63.34	0.01	_
20091112_RATP_SCD_0125	14	4	la	NULL	det	NULL	B_GN	DET	5	idtext0021	le	##m#s##d	spk1	63.35	63.46	0.01	_
20091112_RATP_SCD_0125	14	5	ligne	NULL	nc	B_T	I_GN	OBJ	3	idtext0021	ligne	##f#s##	spk1	63.47	63.75	0.01	_
20091112_RATP_SCD_0125	14	6	huit	NULL	adj	I_T	I_GN	MOD	5	idtext0021	huit	#####	spk1	63.76	63.89	0.01	_
20091112_RATP_SCD_0125	14	7	du	NULL	prep	NULL	B_GP	DEP	5	idtext0021	du	#####	spk1	63.9	64.04	0.01	_
20091112_RATP_SCD_0125	14	8	métro	NULL	nc	NULL	I_GP	OBJ	7	idtext0021	métro	##m#s##	spk1	64.05	64.89	0.25	_
20091112_RATP_SCD_0125	14	9	à	NULL	prep	NULL	B_GP	ROOT	0	idtext0022	à	#####	spk1	65.14	65.19	0.01	_
20091112_RATP_SCD_0125	14	10	liberté	NULL	nc	NULL	I_GP	OBJ	9	idtext0022	liberté	##f#s##	spk1	65.2	65.68	0.01	_
20091112_RATP_SCD_0125	14	11	direction	NULL	nc	NULL	I_GP	NOLINK	0	idtext0022	direction	##f#s##	spk1	65.69	66.24	0.01	_
20091112_RATP_SCD_0125	14	12	Créteil	NULL	nc	B_A	B_GN	NOLINK	0	idtext0022	Créteil	#####	spk1	66.25	67.03	?	//

20091112_RATP_SCD_0125	15	1	ligne	NULL	nc	B_T	B_GN	ROOT	0	idtext0023	ligne	##f#s##	spk2	67.18	67.56	0.01	_
20091112_RATP_SCD_0125	15	2	huit	NULL	adj	I_T	I_GN	MOD	1	idtext0023	huit	#####	spk2	67.57	68.4	0.01	_
20091112_RATP_SCD_0125	15	3	direction	NULL	nc	NULL	B_GN	MOD	1	idtext0023	direction	##f#s##	spk2	68.41	68.99	0.01	_
20091112_RATP_SCD_0125	15	4	Créteil	NULL	nc	B_A	I_GN	MOD	3	idtext0023	Créteil	#####	spk2	69.0	69.85	?	//

20091112_RATP_SCD_0125	16	1	vous	NULL	cln	NULL	B_GN	SUJ	2	idtext0024	cln	#2##p##	spk1	69.95	70.01	0.01	_
20091112_RATP_SCD_0125	16	2	descendez	NULL	v	NULL	B_GVf	ROOT	0	idtext0024	descendre	P#2##p##	spk1	70.02	70.55	0.01	_
20091112_RATP_SCD_0125	16	3	à	NULL	prep	NULL	B_GP	P_OBJ_LOC	2	idtext0025	à	#####	spk1	70.56	70.62	0.01	_
20091112_RATP_SCD_0125	16	4	école	NULL	nc	NULL	I_GP	OBJ	3	idtext0025	école	##f#s##	spk1	70.63	70.95	0.01	_
20091112_RATP_SCD_0125	16	5	vétérinaire	NULL	nc	NULL	I_GP	MOD	4	idtext0025	vétérinaire	###s##	spk1	70.96	71.68	0.01	_
20091112_RATP_SCD_0125	16	6	de	NULL	prep	NULL	B_GP	DEP	4	idtext0025	de	#####	spk1	71.69	71.78	0.01	_
20091112_RATP_SCD_0125	16	7	Maisons-Alfort	NULL	nc	B_A	I_GP	OBJ	6	idtext0025	Maisons-Alfort	##m#s##	spk1	71.79	72.6	?	_

20091112_RATP_SCD_0125	17	1	oui	NULL	adv	NULL	B_GADV	NOLINK	0	idtext0026	oui	#####	spk2	73.05	73.52	?	//

20091112_RATP_SCD_0125	18	1	et	NULL	coo	NULL	B_NULL	ROOT	0	idtext0027	et	#####	spk1	74.42	74.44	0.01	_
20091112_RATP_SCD_0125	18	2	là	NULL	adv	NULL	B_GADV	NOLINK	0	idtext0027	là	#####	spk1	74.45	74.55	0.01	_
20091112_RATP_SCD_0125	18	3	vous	NULL	cln	NULL	B_GN	SUJ	4	idtext0027	cln	#2##p##	spk1	74.56	74.64	0.01	_
20091112_RATP_SCD_0125	18	4	prenez	NULL	v	NULL	B_GVf	DEP_COORD	1	idtext0027	prendre	P#2##p##	spk1	74.65	74.92	0.01	_
20091112_RATP_SCD_0125	18	5	le	NULL	det	NULL	B_GN	DET	6	idtext0027	le	##m#s##d	spk1	74.93	75.03	0.01	_
20091112_RATP_SCD_0125	18	6	bus	NULL	nc	B_T	I_GN	OBJ	4	idtext0027	bus	##m###	spk1	75.04	75.38	0.01	_
20091112_RATP_SCD_0125	18	7	cent	NULL	adj	I_T	I_GN	MOD	6	idtext0027	cent	#####	spk1	75.39	75.54	0.01	_
20091112_RATP_SCD_0125	18	8	sept	NULL	adj	I_T	I_GN	MOD	7	idtext0027	sept	#####	spk1	75.55	76.06	?	//

20091112_RATP_SCD_0125	19	1	bus	NULL	nc	B_T	B_GN	NOLINK	0	idtext0028	bus	##m###	spk2	76.78	77.29	0.01	/
20091112_RATP_SCD_0125	19	2	cent	NULL	adj	I_T	I_GN	MOD	1	idtext0028	cent	#####	spk2	77.3	77.57	0.01	_
20091112_RATP_SCD_0125	19	3	sept	NULL	adj	I_T	I_GN	MOD	2	idtext0028	sept	#####	spk2	77.58	78.17	?	//

20091112_RATP_SCD_0125	20	1	direction	NULL	nc	NULL	B_GN	NOLINK	0	idtext0029	direction	##f#s##	spk1	78.33	78.91	0.01	//
20091112_RATP_SCD_0125	20	2	la	NULL	det	NULL	B_GN	DET	3	idtext0029	le	##m#s##d	spk1	78.92	79.1	0.01	_
20091112_RATP_SCD_0125	20	3	pie	NULL	nc	NULL	I_GN	ROOT	0	idtext0029	pie	##f#s##	spk1	79.11	79.41	?	//

20091112_RATP_SCD_0125	21	1	direction	NULL	nc	NULL	B_GN	NOLINK	0	idtext0030	direction	##f#s##	spk2	80.26	80.79	0.01	_
20091112_RATP_SCD_0125	21	2	pardon	DISF_M	pres	NULL	NULL	NOLINK	0	idtext0030	pardon	#####	spk2	80.8	81.26	?	//

20091112_RATP_SCD_0125	22	1	la	NULL	det	NULL	B_GN	DET	2	idtext0031	le	##m#s##d	spk1	81.32	81.5	0.01	_
20091112_RATP_SCD_0125	22	2	pie	NULL	nc	NULL	I_GN	ROOT	0	idtext0031	pie	##f#s##	spk1	81.51	81.76	?	//

20091112_RATP_SCD_0125	23	1	comme	NULL	adv	NULL	B_GADV	NOLINK	0	idtext0032	comme	#####	spk1	82.14	82.62	0.01	_
20091112_RATP_SCD_0125	23	2	une	DISF_R	det	NULL	NULL	NOLINK	0	idtext0032	un	##f#s##i	spk1	82.63	82.78	0.01	_
20091112_RATP_SCD_0125	23	3	pie	DISF_R	nc	NULL	NULL	NOLINK	0	idtext0032	pie	##f#s##	spk1	82.79	82.86	0.01	_
20091112_RATP_SCD_0125	23	4	la	NULL	det	NULL	B_GN	DET	5	idtext0032	le	##m#s##d	spk1	82.87	82.94	0.01	_
20091112_RATP_SCD_0125	23	5	pie	NULL	nc	NULL	I_GN	ROOT	0	idtext0032	pie	##f#s##	spk1	82.95	83.1	0.01	_
20091112_RATP_SCD_0125	23	6	qui	NULL	prorel	NULL	B_NULL	SUJ	7	idtext0032	qui	#####	spk1	83.11	83.18	0.01	_
20091112_RATP_SCD_0125	23	7	chante	NULL	v	NULL	B_GVf	MOD_REL	5	idtext0032	chanter	PS#13##s##	spk1	83.19	83.77	?	_

20091112_RATP_SCD_0125	24	1	comme	DISF_R	adv	NULL	NULL	NOLINK	0	idtext0033	comme	#####	spk2	82.14	82.46	0.01	_
20091112_RATP_SCD_0125	24	2	comme	NULL	adv	NULL	B_GADV	NOLINK	0	idtext0033	comme	#####	spk2	82.47	82.85	0.01	_
20091112_RATP_SCD_0125	24	3	l'	NULL	det	NULL	B_GN	DET	4	idtext0033	le	###s##d	spk2	82.86	83.2	0.01	_
20091112_RATP_SCD_0125	24	4	oiseau	NULL	nc	NULL	I_GN	ROOT	0	idtext0033	oiseau	##m#s##	spk2	83.21	83.77	?	//

20091112_RATP_SCD_0125	25	1	ah	DISF_M	pres	NULL	NULL	NOLINK	0	idtext0034	ah	#####	spk2	83.94	84.06	0.01	_
20091112_RATP_SCD_0125	25	2	comme	NULL	adv	NULL	B_GADV	NOLINK	0	idtext0034	comme	#####	spk2	84.07	84.25	0.01	_
20091112_RATP_SCD_0125	25	3	l'	NULL	det	NULL	B_GN	DET	4	idtext0034	le	###s##d	spk2	84.26	84.28	0.01	_
20091112_RATP_SCD_0125	25	4	oiseau	NULL	nc	NULL	I_GN	ROOT	0	idtext0034	oiseau	##m#s##	spk2	84.29	84.7	?	//

20091112_RATP_SCD_0125	26	1	comme	NULL	adv	NULL	B_GADV	NOLINK	0	idtext0035	comme	#####	spk1	84.74	84.84	0.01	_
20091112_RATP_SCD_0125	26	2	l'	NULL	det	NULL	B_GN	DET	3	idtext0035	le	###s##d	spk1	84.85	84.87	0.01	_
20091112_RATP_SCD_0125	26	3	oiseau	NULL	nc	NULL	I_GN	ROOT	0	idtext0035	oiseau	##m#s##	spk1	84.88	85.13	0.01	_
20091112_RATP_SCD_0125	26	4	madame	NULL	nc	NULL	I_GN	NOLINK	0	idtext0035	Monsieur	##f#s##	spk1	85.14	85.46	?	//

20091112_RATP_SCD_0125	27	1	direction	NULL	nc	NULL	B_GN	NOLINK	0	idtext0036	direction	##f#s##	spk2	85.74	86.23	0.01	_
20091112_RATP_SCD_0125	27	2	la	NULL	det	NULL	B_GN	DET	3	idtext0036	le	##m#s##d	spk2	86.24	86.37	0.01	_
20091112_RATP_SCD_0125	27	3	pie	NULL	nc	NULL	I_GN	ROOT	0	idtext0036	pie	##f#s##	spk2	86.38	86.79	0.01	_
20091112_RATP_SCD_0125	27	4	oui	NULL	adv	NULL	B_GADV	NOLINK	0	idtext0036	oui	#####	spk2	86.8	87.08	?	//

20091112_RATP_SCD_0125	28	1	et	NULL	coo	NULL	B_NULL	ROOT	0	idtext0037	et	#####	spk1	87.12	87.14	0.01	_
20091112_RATP_SCD_0125	28	2	vous	NULL	cln	NULL	B_GN	SUJ	3	idtext0037	cln	#2##p##	spk1	87.15	87.2	0.01	_
20091112_RATP_SCD_0125	28	3	descendez	NULL	v	NULL	B_GVf	DEP_COORD	1	idtext0037	descendre	P#2##p##	spk1	87.21	87.49	0.01	_
20091112_RATP_SCD_0125	28	4	à	NULL	prep	NULL	B_GP	P_OBJ_LOC	3	idtext0037	à	#####	spk1	87.5	87.55	0.01	_
20091112_RATP_SCD_0125	28	5	l'	NULL	det	NULL	I_GP	DET	6	idtext0037	le	###s##d	spk1	87.56	87.61	0.01	_
20091112_RATP_SCD_0125	28	6	arrêt	NULL	nc	B_A	I_GP	OBJ	4	idtext0037	arrêt	##m#s##	spk1	87.62	88.06	0.01	_
20091112_RATP_SCD_0125	28	7	René+Coty	NULL	np	I_A	I_GP	MOD	6	idtext0037	René+Coty	#####	spk1	88.07	88.93	?	//

20091112_RATP_SCD_0125	29	1	René+Coty	NULL	nc	B_A	B_GN	NOLINK	0	idtext0038	René+Coty	#####	spk2	89.44	90.61	?	//

20091112_RATP_SCD_0125	30	1	et	NULL	coo	NULL	B_NULL	ROOT	0	idtext0039	et	#####	spk1	90.68	90.7	0.01	_
20091112_RATP_SCD_0125	30	2	là	NULL	adv	NULL	B_GADV	NOLINK	0	idtext0039	là	#####	spk1	90.71	90.8	0.01	_
20091112_RATP_SCD_0125	30	3	vous	NULL	cln	NULL	B_GN	SUJ	4	idtext0039	cln	#2##p##	spk1	90.81	90.93	0.01	_
20091112_RATP_SCD_0125	30	4	êtes	NULL	v	NULL	B_GVf	DEP_COORD	1	idtext0039	être	P#2##p##	spk1	90.94	91.08	0.01	_
20091112_RATP_SCD_0125	30	5	à	NULL	prep	NULL	B_GP	ATS	4	idtext0039	à	#####	spk1	91.09	91.14	0.01	_
20091112_RATP_SCD_0125	30	6	trois	NULL	det	NULL	I_GP	DET	7	idtext0039	trois	#####	spk1	91.15	91.7	0.01	_
20091112_RATP_SCD_0125	30	7	minutes	NULL	nc	NULL	I_GP	OBJ	5	idtext0039	minute	##f#p##	spk1	91.71	92.13	0.01	_
20091112_RATP_SCD_0125	30	8	à	NULL	prep	NULL	B_GP	MOD	7	idtext0039	à	#####	spk1	92.14	92.24	0.01	_
20091112_RATP_SCD_0125	30	9	pieds	NULL	nc	NULL	I_GP	OBJ	8	idtext0039	pied	###p##	spk1	92.25	92.58	?	//

20091112_RATP_SCD_0125	31	1	monsieur	NULL	nc	NULL	B_GN	NOLINK	0	idtext0040	Monsieur	##m#s##	spk2	93.04	93.22	0.01	/
20091112_RATP_SCD_0125	31	2	merci	NULL	adv	NULL	B_GADV	MOD	3	idtext0040	merci	#####	spk2	93.23	93.77	0.01	_
20091112_RATP_SCD_0125	31	3	infiniment	NULL	adv	NULL	I_GADV	ROOT	0	idtext0040	infiniment	#####	spk2	93.78	94.45	?	//

20091112_RATP_SCD_0125	32	1	ben	DISF_M	pres	NULL	NULL	NOLINK	0	idtext0041	ben	#####	spk1	94.49	94.54	0.01	_
20091112_RATP_SCD_0125	32	2	bonne	NULL	adj	NULL	B_GN	MOD	3	idtext0041	bon	##f#s##	spk1	94.55	94.73	0.01	_
20091112_RATP_SCD_0125	32	3	journée	NULL	nc	NULL	I_GN	ROOT	0	idtext0041	journée	##f#s##	spk1	94.74	94.95	0.01	_
20091112_RATP_SCD_0125	32	4	madame	NULL	nc	NULL	B_GN	NOLINK	0	idtext0041	Monsieur	##f#s##	spk1	94.96	95.32	?	//

20091112_RATP_SCD_0125	33	1	m()	DISF_T	tronc	NULL	NULL	NOLINK	0	idtext0042	m()	#####	spk2	95.36	95.46	0.01	_
20091112_RATP_SCD_0125	33	2	merci	NULL	adv	NULL	B_GADV	NOLINK	0	idtext0042	merci	#####	spk2	95.47	95.95	0.01	_
20091112_RATP_SCD_0125	33	3	vous	NULL	clo	NULL	B_GN	NOLINK	0	idtext0042	cln	#2##p##	spk2	95.96	96.09	0.01	_
20091112_RATP_SCD_0125	33	4	également	NULL	adv	NULL	B_GADV	NOLINK	0	idtext0042	également	#####	spk2	96.1	96.55	?	_

20091112_RATP_SCD_0125	34	1	monsieur	NULL	nc	NULL	B_GN	NOLINK	0	idtext0043	Monsieur	##m#s##	spk2	96.59	96.88	0.01	_
20091112_RATP_SCD_0125	34	2	au+revoir	NULL	adv	NULL	B_GADV	NOLINK	0	idtext0043	au+revoir	#####	spk2	96.89	97.43	?	//

20091112_RATP_SCD_0125	35	1	au+revoir	NULL	adv	NULL	B_GADV	NOLINK	0	idtext0044	au+revoir	#####	spk1	96.64	97.43	?	//

