20091112_RATP_SCD_0603	1	1	NNAAMMEE	NULL	np	B_HU	B_GN	ROOT	0	idtext0000	ANONYM	NULL	spk1	3.48	3.72	0.10	_
20091112_RATP_SCD_0603	1	2	va	NULL	v	NULL	B_GVf	ROOT	0	idtext0001	aller	P#3##s##	spk1	3.82	3.95	0.01	_
20091112_RATP_SCD_0603	1	3	vous	NULL	clo	NULL	B_GN	A_OBJ	4	idtext0001	cln	#2##p##	spk1	3.96	4.12	0.01	_
20091112_RATP_SCD_0603	1	4	répondre	NULL	vinf	NULL	B_GVi	OBJ	2	idtext0001	répondre	W#####	spk1	4.13	4.78	?	//

20091112_RATP_SCD_0603	2	1	NNAAMMEE	NULL	np	B_HU	B_GN	ROOT	0	idtext0002	ANONYM	NULL	spk2	5.84	6.03	0.05	_
20091112_RATP_SCD_0603	2	2	bonjour	NULL	adv	NULL	B_GADV	NOLINK	0	idtext0003	bonjour	#####	spk2	6.08	6.52	?	//

20091112_RATP_SCD_0603	3	1	oui	NULL	adv	NULL	B_GADV	MOD	2	idtext0004	oui	#####	spk3	6.89	7.09	0.01	_
20091112_RATP_SCD_0603	3	2	bonjour	NULL	adv	NULL	I_GADV	ROOT	0	idtext0004	bonjour	#####	spk3	7.1	7.39	0.01	/
20091112_RATP_SCD_0603	3	3	monsieur	NULL	nc	NULL	B_GN	NOLINK	0	idtext0004	Monsieur	##m#s##	spk3	7.4	7.52	0.01	_
20091112_RATP_SCD_0603	3	4	je	NULL	cln	NULL	B_GN	SUJ	6	idtext0004	cln	#1##s##	spk3	7.53	7.66	0.01	_
20091112_RATP_SCD_0603	3	5	m'	NULL	clr	NULL	B_GVf	AFF	6	idtext0004	cla	#1##s##	spk3	7.67	7.69	0.01	_
20091112_RATP_SCD_0603	3	6	excuse	NULL	v	NULL	I_GVf	ROOT	0	idtext0004	excuser	PS#13##s##	spk3	7.7	8.21	0.01	_
20091112_RATP_SCD_0603	3	7	de	NULL	prep	NULL	B_GP	DE_OBJ	6	idtext0004	de	#####	spk3	8.22	8.24	0.01	_
20091112_RATP_SCD_0603	3	8	vous	NULL	clo	NULL	I_GP	OBJ	9	idtext0004	cln	#2##p##	spk3	8.25	8.32	0.01	_
20091112_RATP_SCD_0603	3	9	déranger	NULL	vinf	NULL	B_GVi	OBJ	7	idtext0004	déranger	W#####	spk3	8.33	9.45	0.01	_
20091112_RATP_SCD_0603	3	10	euh	DISF_M	pres	NULL	NULL	NOLINK	0	idtext0005	euh	#####	spk3	9.46	9.99	0.01	_
20091112_RATP_SCD_0603	3	11	j'	NULL	cln	NULL	B_GN	SUJ	12	idtext0005	cln	#1##s##	spk3	10.0	10.02	0.01	_
20091112_RATP_SCD_0603	3	12	ai	NULL	v	NULL	B_GVf	ROOT	0	idtext0005	avoir	P#1##s##	spk3	10.03	10.83	0.01	_
20091112_RATP_SCD_0603	3	13	euh	DISF_M	pres	NULL	NULL	NOLINK	0	idtext0005	euh	#####	spk3	10.84	10.86	0.01	_
20091112_RATP_SCD_0603	3	14	une	NULL	det	NULL	B_GN	DET	15	idtext0005	un	##f#s##i	spk3	10.87	11.25	0.01	_
20091112_RATP_SCD_0603	3	15	personne	NULL	nc	NULL	I_GN	OBJ	12	idtext0005	personne	##f#s##	spk3	11.26	11.76	0.01	_
20091112_RATP_SCD_0603	3	16	âgée	NULL	adj	NULL	I_GN	MOD	15	idtext0005	âgé	##f#s##	spk3	11.77	12.21	0.01	/
20091112_RATP_SCD_0603	3	17	que	NULL	prorel	NULL	B_NULL	OBJ	20	idtext0005	que	#####	spk3	12.22	12.42	0.01	_
20091112_RATP_SCD_0603	3	18	je	NULL	cln	NULL	B_GN	SUJ	19	idtext0005	cln	#1##s##	spk3	12.43	12.57	0.01	_
20091112_RATP_SCD_0603	3	19	dois	NULL	v	NULL	B_GVf	OBJ	17	idtext0005	devoir	P#12##s##	spk3	12.58	12.79	0.01	_
20091112_RATP_SCD_0603	3	20	retrouver	NULL	vinf	NULL	I_GVf	MOD_REL	15	idtext0005	retrouver	W#####	spk3	12.8	13.62	0.01	_
20091112_RATP_SCD_0603	3	21	à	NULL	prep	NULL	B_GP	P_OBJ_LOC	20	idtext0005	à	#####	spk3	13.63	13.68	0.01	_
20091112_RATP_SCD_0603	3	22	la	NULL	det	NULL	I_GP	DET	23	idtext0005	le	##m#s##d	spk3	13.69	13.97	0.01	_
20091112_RATP_SCD_0603	3	23	Porte+Dorée	NULL	nc	B_A	I_GP	OBJ	21	idtext0005	Porte+Dorée	#####	spk3	13.98	15.17	?	//

20091112_RATP_SCD_0603	4	1	oui	NULL	adv	NULL	B_GADV	NOLINK	0	idtext0006	oui	#####	spk2	15.22	15.48	?	//

20091112_RATP_SCD_0603	5	1	et	NULL	coo	NULL	B_NULL	ROOT	0	idtext0007	et	#####	spk3	15.63	15.93	0.01	_
20091112_RATP_SCD_0603	5	2	euh	DISF_M	pres	NULL	NULL	NOLINK	0	idtext0007	euh	#####	spk3	15.94	15.98	0.01	_
20091112_RATP_SCD_0603	5	3	laquelle	NULL	prorel	NULL	B_NULL	NOLINK	0	idtext0007	laquelle	#####	spk3	15.99	16.31	0.01	_
20091112_RATP_SCD_0603	5	4	personne	NULL	nc	NULL	B_GN	SUJ	5	idtext0007	personne	##f#s##	spk3	16.32	16.83	0.01	_
20091112_RATP_SCD_0603	5	5	vient	NULL	v	NULL	B_GVf	DEP_COORD	1	idtext0007	venir	P#3##s##	spk3	16.84	17.05	0.01	_
20091112_RATP_SCD_0603	5	6	par	NULL	prep	NULL	B_GP	P_OBJ	5	idtext0007	par	#####	spk3	17.06	17.26	0.01	_
20091112_RATP_SCD_0603	5	7	le	NULL	det	NULL	I_GP	DET	8	idtext0007	le	##m#s##d	spk3	17.27	17.38	0.01	_
20091112_RATP_SCD_0603	5	8	métro	NULL	nc	NULL	I_GP	OBJ	6	idtext0007	métro	##m#s##	spk3	17.39	18.11	?	//

20091112_RATP_SCD_0603	6	1	hm	DISF_M	pres	NULL	NULL	NOLINK	0	idtext0008	hm	#####	spk2	18.25	18.62	?	//

20091112_RATP_SCD_0603	7	1	bon	DISF_M	pres	NULL	NULL	NOLINK	0	idtext0009	bon	#####	spk3	19.01	19.79	0.01	//
20091112_RATP_SCD_0603	7	2	euh	DISF_M	pres	NULL	NULL	NOLINK	0	idtext0010	euh	#####	spk3	19.8	20.58	0.01	_
20091112_RATP_SCD_0603	7	3	est-ce+qu'	NULL	pri	NULL	B_NULL	NOLINK	0	idtext0010	est-ce+qu'	#####	spk3	20.59	20.88	0.01	_
20091112_RATP_SCD_0603	7	4	il	NULL	cln	NULL	B_GN	SUJ_IMP	6	idtext0010	cln	#3#m#s##	spk3	20.89	20.94	0.01	_
20091112_RATP_SCD_0603	7	5	y	NULL	clo	NULL	B_GN	AFF	6	idtext0010	y	#####	spk3	20.95	21.04	0.01	_
20091112_RATP_SCD_0603	7	6	a	NULL	v	NULL	B_GVf	ROOT	0	idtext0010	avoir	P#3##s##	spk3	21.05	21.12	0.01	_
20091112_RATP_SCD_0603	7	7	plusieurs	NULL	det	NULL	B_GN	DET	8	idtext0010	plusieurs	###p##i	spk3	21.13	21.67	0.01	_
20091112_RATP_SCD_0603	7	8	sorties	NULL	nc	NULL	I_GN	OBJ	6	idtext0010	sortie	##f#p##	spk3	21.68	22.23	0.01	_
20091112_RATP_SCD_0603	7	9	ou	NULL	coo	NULL	B_NULL	COORD	8	idtext0010	ou	#####	spk3	22.24	22.45	0.01	_
20091112_RATP_SCD_0603	7	10	pas	NULL	advneg	NULL	B_NULL	DEP_COORD	9	idtext0010	pas	#####	spk3	22.46	22.88	?	_

20091112_RATP_SCD_0603	8	1	à	NULL	prep	NULL	B_GP	ROOT	0	idtext0011	à	#####	spk2	23.02	23.1	0.01	_
20091112_RATP_SCD_0603	8	2	la	NULL	det	NULL	I_GP	DET	3	idtext0011	le	##m#s##d	spk2	23.11	23.2	0.01	_
20091112_RATP_SCD_0603	8	3	Porte+Dorée	NULL	nc	B_A	I_GP	OBJ	1	idtext0011	Porte+Dorée	#####	spk2	23.21	23.65	?	//

20091112_RATP_SCD_0603	9	1	hum	DISF_M	pres	NULL	NULL	NOLINK	0	idtext0012	hum	#####	spk2	24.1	24.44	?	//

20091112_RATP_SCD_0603	10	1	oui	NULL	adv	NULL	B_GADV	NOLINK	0	idtext0013	oui	#####	spk3	24.13	24.44	?	//

20091112_RATP_SCD_0603	11	1	vous	NULL	cln	NULL	B_GN	SUJ	2	idtext0014	cln	#2##p##	spk2	24.48	24.53	0.01	_
20091112_RATP_SCD_0603	11	2	patientez	NULL	v	NULL	B_GVf	ROOT	0	idtext0014	patienter	P#2##p##	spk2	24.54	24.8	0.01	_
20091112_RATP_SCD_0603	11	3	je	NULL	cln	NULL	B_GN	SUJ	4	idtext0014	cln	#1##s##	spk2	24.81	24.88	0.01	_
20091112_RATP_SCD_0603	11	4	vérifie	NULL	v	NULL	B_GVf	ROOT	0	idtext0014	vérifier	PS#13##s##	spk2	24.89	25.22	0.01	_
20091112_RATP_SCD_0603	11	5	monsieur	NULL	nc	NULL	B_GN	NOLINK	0	idtext0014	Monsieur	##m#s##	spk2	25.23	25.56	?	//

20091112_RATP_SCD_0603	12	1	merci	NULL	adv	NULL	B_GADV	NOLINK	0	idtext0015	merci	#####	spk3	25.71	26.02	0.01	//
20091112_RATP_SCD_0603	12	2	monsieur	NULL	nc	NULL	B_GN	NOLINK	0	idtext0015	Monsieur	##m#s##	spk3	26.03	26.45	?	//

20091112_RATP_SCD_0603	13	1	monsieur	NULL	nc	NULL	B_GN	NOLINK	0	idtext0016	Monsieur	##m#s##	spk2	56.47	56.84	?	//

20091112_RATP_SCD_0603	14	1	oui	NULL	adv	NULL	B_GADV	NOLINK	0	idtext0017	oui	#####	spk3	57.14	57.54	?	//

20091112_RATP_SCD_0603	15	1	oui	NULL	adv	NULL	B_GADV	NOLINK	0	idtext0018	oui	#####	spk2	57.62	57.77	0.01	_
20091112_RATP_SCD_0603	15	2	vous	NULL	cln	NULL	B_GN	SUJ	3	idtext0018	cln	#2##p##	spk2	57.78	57.83	0.01	_
20091112_RATP_SCD_0603	15	3	avez	NULL	v	NULL	B_GVf	ROOT	0	idtext0018	avoir	P#2##p##	spk2	57.84	58.0	0.01	_
20091112_RATP_SCD_0603	15	4	plusieurs	NULL	det	NULL	B_GN	DET	5	idtext0018	plusieurs	###p##i	spk2	58.01	58.28	0.01	_
20091112_RATP_SCD_0603	15	5	sorties	NULL	nc	NULL	I_GN	OBJ	3	idtext0018	sortie	##f#p##	spk2	58.29	58.61	0.01	_
20091112_RATP_SCD_0603	15	6	autour+de	NULL	prep	NULL	B_GP	MOD	5	idtext0018	autour+de	#####	spk2	58.62	58.84	0.01	_
20091112_RATP_SCD_0603	15	7	la	NULL	det	NULL	I_GP	DET	8	idtext0018	le	##m#s##d	spk2	58.85	58.91	0.01	_
20091112_RATP_SCD_0603	15	8	Porte+Dorée	NULL	nc	B_A	I_GP	OBJ	6	idtext0018	Porte+Dorée	#####	spk2	58.92	59.45	0.01	_
20091112_RATP_SCD_0603	15	9	hein	DISF_M	pres	I_A	NULL	NOLINK	0	idtext0018	hein	#####	spk2	59.46	59.61	0.01	_
20091112_RATP_SCD_0603	15	10	vous	NULL	cln	NULL	B_GN	SUJ	12	idtext0018	cln	#2##p##	spk2	59.62	59.8	0.01	_
20091112_RATP_SCD_0603	15	11	en	NULL	clo	NULL	B_GN	OBJ	12	idtext0018	en	#####	spk2	59.81	59.83	0.01	_
20091112_RATP_SCD_0603	15	12	avez	NULL	v	NULL	B_GVf	ROOT	0	idtext0018	avoir	P#2##p##	spk2	59.84	59.99	0.01	_
20091112_RATP_SCD_0603	15	13	qui	NULL	prorel	NULL	B_NULL	SUJ	14	idtext0018	qui	#####	spk2	60.0	60.09	0.01	_
20091112_RATP_SCD_0603	15	14	donne	NULL	v	NULL	B_GVf	MOD_REL	5	idtext0018	donner	PS#13##s##	spk2	60.1	60.26	0.01	_
20091112_RATP_SCD_0603	15	15	sur	NULL	prep	NULL	B_GP	P_OBJ_LOC	14	idtext0018	sur	#####	spk2	60.27	60.38	0.01	_
20091112_RATP_SCD_0603	15	16	l'	NULL	det	NULL	I_GP	DET	17	idtext0018	le	###s##d	spk2	60.39	60.41	0.01	_
20091112_RATP_SCD_0603	15	17	avenue	NULL	nc	B_A	I_GP	OBJ	15	idtext0018	avenue	##f#s##	spk2	60.42	60.59	0.01	_
20091112_RATP_SCD_0603	15	18	Daumesnil	NULL	np	I_A	I_GP	MOD	17	idtext0018	Daumesnil	#####	spk2	60.6	61.32	?	//

20091112_RATP_SCD_0603	16	1	sur	NULL	prep	NULL	B_GP	ROOT	0	idtext0019	sur	#####	spk2	61.93	62.03	0.01	_
20091112_RATP_SCD_0603	16	2	le	NULL	det	NULL	I_GP	DET	3	idtext0019	le	##m#s##d	spk2	62.04	62.08	0.01	_
20091112_RATP_SCD_0603	16	3	boulevard	NULL	nc	B_A	I_GP	OBJ	1	idtext0019	boulevard	##m#s##	spk2	62.09	62.35	0.01	_
20091112_RATP_SCD_0603	16	4	Poniatowski	NULL	np	I_A	I_GP	MOD	3	idtext0019	Poniatowski	#####	spk2	62.36	63.3	?	//

20091112_RATP_SCD_0603	17	1	il	NULL	cln	NULL	B_GN	SUJ_IMP	3	idtext0020	cln	#3#m#s##	spk3	63.94	64.11	0.01	_
20091112_RATP_SCD_0603	17	2	y	NULL	clo	NULL	B_GN	AFF	3	idtext0020	y	#####	spk3	64.12	64.19	0.01	_
20091112_RATP_SCD_0603	17	3	a	NULL	v	NULL	B_GVf	ROOT	0	idtext0020	avoir	P#3##s##	spk3	64.2	64.23	0.01	_
20091112_RATP_SCD_0603	17	4	deux	NULL	adj	NULL	I_GP	MOD	5	idtext0020	deux	#####	spk3	64.24	64.48	0.01	_
20091112_RATP_SCD_0603	17	5	sorties	NULL	nc	NULL	I_GP	OBJ	3	idtext0020	sortie	##f#p##	spk3	64.49	64.9	?	//

20091112_RATP_SCD_0603	18	1	il	NULL	cln	NULL	B_GN	SUJ_IMP	4	idtext0021	cln	#3#m#s##	spk2	65.44	65.5	0.01	_
20091112_RATP_SCD_0603	18	2	y	NULL	clo	NULL	B_GN	AFF	4	idtext0021	y	#####	spk2	65.51	65.56	0.01	_
20091112_RATP_SCD_0603	18	3	en	NULL	clo	NULL	B_GN	OBJ	4	idtext0021	en	#####	spk2	65.57	65.59	0.01	_
20091112_RATP_SCD_0603	18	4	a	NULL	v	NULL	B_GVf	ROOT	0	idtext0021	avoir	P#3##s##	spk2	65.6	65.83	0.01	_
20091112_RATP_SCD_0603	18	5	un	NULL	nc	NULL	B_GN	OBJ	4	idtext0021	un	##m#s##	spk2	65.84	66.02	0.01	_
20091112_RATP_SCD_0603	18	6	deux	NULL	nc	NULL	I_GP	MOD	5	idtext0021	deux	##m###	spk2	66.03	66.19	0.01	_
20091112_RATP_SCD_0603	18	7	trois	NULL	nc	NULL	B_GN	NOLINK	0	idtext0021	trois	##m###	spk2	66.2	66.41	0.01	_
20091112_RATP_SCD_0603	18	8	il	NULL	cln	NULL	B_GN	SUJ_IMP	11	idtext0021	cln	#3#m#s##	spk2	66.42	66.47	0.01	_
20091112_RATP_SCD_0603	18	9	y	NULL	clo	NULL	B_GN	AFF	11	idtext0021	y	#####	spk2	66.48	66.54	0.01	_
20091112_RATP_SCD_0603	18	10	en	NULL	clo	NULL	B_GN	OBJ	11	idtext0021	en	#####	spk2	66.55	66.57	0.01	_
20091112_RATP_SCD_0603	18	11	a	NULL	v	NULL	B_GVf	ROOT	0	idtext0021	avoir	P#3##s##	spk2	66.58	66.61	0.01	_
20091112_RATP_SCD_0603	18	12	quatre	NULL	nc	NULL	I_GP	OBJ	11	idtext0021	quatre	##m###	spk2	66.62	66.97	?	_

20091112_RATP_SCD_0603	19	1	euh	DISF_M	pres	NULL	NULL	NOLINK	0	idtext0022	euh	#####	spk3	67.82	69.26	0.01	_
20091112_RATP_SCD_0603	19	2	ah	DISF_M	pres	NULL	NULL	NOLINK	0	idtext0023	ah	#####	spk3	69.27	69.79	0.01	_
20091112_RATP_SCD_0603	19	3	oui	NULL	adv	NULL	B_GADV	NOLINK	0	idtext0023	oui	#####	spk3	69.8	70.01	0.01	_
20091112_RATP_SCD_0603	19	4	il	NULL	cln	NULL	B_GN	SUJ	6	idtext0023	cln	#3#m#s##	spk3	70.02	70.66	0.01	_
20091112_RATP_SCD_0603	19	5	en	NULL	clo	NULL	B_GN	OBJ	6	idtext0023	en	#####	spk3	70.67	70.79	0.01	_
20091112_RATP_SCD_0603	19	6	a	NULL	v	NULL	B_GVf	ROOT	0	idtext0023	avoir	P#3##s##	spk3	70.8	70.88	0.01	_
20091112_RATP_SCD_0603	19	7	deux	DISF_R	nc	NULL	NULL	NOLINK	0	idtext0023	deux	##m###	spk3	70.89	71.4	0.01	_
20091112_RATP_SCD_0603	19	8	deux	NULL	nc	NULL	I_GN	OBJ	6	idtext0023	deux	##m###	spk3	71.41	71.77	0.01	_
20091112_RATP_SCD_0603	19	9	sur	NULL	prep	NULL	B_GP	MOD	6	idtext0023	sur	#####	spk3	71.78	71.95	0.01	_
20091112_RATP_SCD_0603	19	10	l'	NULL	det	NULL	I_GP	DET	11	idtext0023	le	###s##d	spk3	71.96	71.99	0.01	_
20091112_RATP_SCD_0603	19	11	avenue	NULL	nc	B_A	I_GP	OBJ	9	idtext0023	avenue	##f#s##	spk3	72.0	72.34	0.01	_
20091112_RATP_SCD_0603	19	12	Daumesnil	NULL	np	I_A	I_GP	MOD	11	idtext0023	Daumesnil	#####	spk3	72.35	73.41	?	//

20091112_RATP_SCD_0603	20	1	et	NULL	coo	NULL	B_NULL	ROOT	0	idtext0024	et	#####	spk2	73.58	73.68	0.01	_
20091112_RATP_SCD_0603	20	2	deux	NULL	nc	NULL	B_GN	DEP_COORD	1	idtext0024	deux	##m###	spk2	73.69	73.76	0.01	_
20091112_RATP_SCD_0603	20	3	sur	NULL	prep	NULL	B_GP	MOD	2	idtext0024	sur	#####	spk2	73.77	73.96	0.01	_
20091112_RATP_SCD_0603	20	4	le	NULL	det	NULL	I_GP	DET	5	idtext0024	le	##m#s##d	spk2	73.97	74.1	0.01	_
20091112_RATP_SCD_0603	20	5	boulevard	NULL	nc	B_A	I_GP	OBJ	3	idtext0024	boulevard	##m#s##	spk2	74.11	74.43	0.01	_
20091112_RATP_SCD_0603	20	6	Poniatowski	NULL	np	I_A	I_GP	MOD	5	idtext0024	Poniatowski	#####	spk2	74.44	75.18	?	//

20091112_RATP_SCD_0603	21	1	euh	DISF_M	pres	NULL	NULL	NOLINK	0	idtext0025	euh	#####	spk3	76.07	76.27	0.01	_
20091112_RATP_SCD_0603	21	2	bon	DISF_M	pres	NULL	NULL	NOLINK	0	idtext0025	bon	#####	spk3	76.28	76.58	0.01	//
20091112_RATP_SCD_0603	21	3	euh	DISF_M	pres	NULL	NULL	NOLINK	0	idtext0025	euh	#####	spk3	76.59	76.66	0.01	_
20091112_RATP_SCD_0603	21	4	je	NULL	cln	NULL	B_GN	SUJ	5	idtext0025	cln	#1##s##	spk3	76.67	76.69	0.01	_
20091112_RATP_SCD_0603	21	5	vais	NULL	v	NULL	B_GVf	ROOT	0	idtext0025	aller	P#1##s##	spk3	76.7	76.79	0.01	_
20091112_RATP_SCD_0603	21	6	prendre	NULL	vinf	NULL	I_GVf	OBJ	5	idtext0025	prendre	W#####	spk3	76.8	77.13	0.01	_
20091112_RATP_SCD_0603	21	7	le	NULL	det	NULL	B_NULL	OBJ	9	idtext0025	le	##m#s##d	spk3	77.14	77.49	0.01	_
20091112_RATP_SCD_0603	21	8	laquelle	DISF_R	prorel	NULL	NULL	NOLINK	0	idtext0025	laquelle	#####	spk3	77.5	77.97	0.01	_
20091112_RATP_SCD_0603	21	9	laquelle	NULL	prorel	NULL	B_NULL	SUJ	10	idtext0025	laquelle	#####	spk3	77.98	78.28	0.01	_
20091112_RATP_SCD_0603	21	10	est	NULL	v	NULL	B_GVf	OBJ	5	idtext0025	être	P#3##s##	spk3	78.29	78.43	0.01	_
20091112_RATP_SCD_0603	21	11	la	NULL	det	NULL	B_GN	DET	12	idtext0025	le	##m#s##d	spk3	78.44	78.53	0.01	_
20091112_RATP_SCD_0603	21	12	plus	NULL	adv	NULL	I_GN	MOD	13	idtext0025	plus	#####	spk3	78.54	78.65	0.01	_
20091112_RATP_SCD_0603	21	13	courte	NULL	adj	NULL	I_GN	ATS	10	idtext0025	court	##f#s##	spk3	78.66	78.78	0.01	//
20091112_RATP_SCD_0603	21	14	vous	NULL	cln	NULL	B_GN	SUJ	15	idtext0025	cln	#2##p##	spk3	78.79	78.96	0.01	_
20091112_RATP_SCD_0603	21	15	savez	NULL	v	NULL	B_GVfn	ROOT	0	idtext0025	savoir	P#2##p##	spk3	78.97	79.15	0.01	_
20091112_RATP_SCD_0603	21	16	pas	NULL	advneg	NULL	I_GVfn	MOD	15	idtext0025	pas	#####	spk3	79.16	79.4	0.01	_
20091112_RATP_SCD_0603	21	17	euh	DISF_M	pres	NULL	NULL	NOLINK	0	idtext0025	euh	#####	spk3	79.41	79.49	?	//

20091112_RATP_SCD_0603	22	1	euh	DISF_M	pres	NULL	NULL	NOLINK	0	idtext0026	euh	#####	spk3	79.53	80.52	?	//

20091112_RATP_SCD_0603	23	1	oh+là+là	DISF_M	pres	NULL	NULL	NOLINK	0	idtext0027	oh+là+là	#####	spk2	79.67	80.09	0.01	_
20091112_RATP_SCD_0603	23	2	je	NULL	cln	NULL	B_GN	SUJ	3	idtext0027	cln	#1##s##	spk2	80.1	80.24	0.01	_
20091112_RATP_SCD_0603	23	3	sais	NULL	v	NULL	B_GVfn	ROOT	0	idtext0027	savoir	P#12##s##	spk2	80.25	80.33	0.01	_
20091112_RATP_SCD_0603	23	4	pas	NULL	advneg	NULL	I_GVfn	MOD	3	idtext0027	pas	#####	spk2	80.34	80.52	?	_

20091112_RATP_SCD_0603	24	1	d'accord	NULL	adv	NULL	B_GADV	NOLINK	0	idtext0028	d'accord	#####	spk3	80.91	81.25	?	//

20091112_RATP_SCD_0603	25	1	de	NULL	prep	NULL	B_GP	ROOT	0	idtext0029	de	#####	spk3	81.68	82.08	0.01	_
20091112_RATP_SCD_0603	25	2	l'	NULL	det	NULL	I_GP	DET	3	idtext0029	le	###s##d	spk3	82.09	82.11	0.01	_
20091112_RATP_SCD_0603	25	3	avenue	NULL	nc	B_A	I_GP	OBJ	1	idtext0029	avenue	##f#s##	spk3	82.12	82.35	0.01	_
20091112_RATP_SCD_0603	25	4	Daumesnil	NULL	np	I_A	I_GP	MOD	3	idtext0029	Daumesnil	#####	spk3	82.36	82.98	0.01	_
20091112_RATP_SCD_0603	25	5	bon	DISF_M	pres	I_A	NULL	NOLINK	0	idtext0029	bon	#####	spk3	82.99	83.16	0.01	//
20091112_RATP_SCD_0603	25	6	moi	NULL	pro	NULL	I_GP	SUJ	8	idtext0030	moi	#####	spk3	83.17	83.31	0.01	_
20091112_RATP_SCD_0603	25	7	je	NULL	cln	NULL	B_GN	SUJ	8	idtext0030	cln	#1##s##	spk3	83.32	83.48	0.01	_
20091112_RATP_SCD_0603	25	8	vois	NULL	v	NULL	B_GVf	ROOT	0	idtext0030	voir	P#12##s##	spk3	83.49	83.6	0.01	_
20091112_RATP_SCD_0603	25	9	l'	NULL	det	NULL	B_GN	DET	10	idtext0030	le	###s##d	spk3	83.61	83.71	0.01	_
20091112_RATP_SCD_0603	25	10	avenue	NULL	nc	B_A	I_GN	OBJ	8	idtext0030	avenue	##f#s##	spk3	83.72	84.07	0.01	_
20091112_RATP_SCD_0603	25	11	Daumesnil	NULL	np	I_A	I_GN	MOD	10	idtext0030	Daumesnil	#####	spk3	84.08	85.2	0.01	_
20091112_RATP_SCD_0603	25	12	sortie	NULL	nc	NULL	I_GN	MOD	10	idtext0031	sortie	##f#s##	spk3	85.21	85.53	0.01	_
20091112_RATP_SCD_0603	25	13	avenue	NULL	nc	B_A	B_GN	NOLINK	0	idtext0031	avenue	##f#s##	spk3	85.54	85.79	0.01	_
20091112_RATP_SCD_0603	25	14	Daumesnil	NULL	np	I_A	I_GN	MOD	13	idtext0031	Daumesnil	#####	spk3	85.8	86.39	0.01	_
20091112_RATP_SCD_0603	25	15	à	NULL	prep	NULL	B_NULL	NOLINK	0	idtext0031	à	#####	spk3	86.4	86.49	0.01	_
20091112_RATP_SCD_0603	25	16	oui	NULL	adv	NULL	B_GADV	NOLINK	0	idtext0031	oui	#####	spk3	86.5	86.66	0.01	_
20091112_RATP_SCD_0603	25	17	oh	DISF_M	pres	NULL	NULL	NOLINK	0	idtext0031	oh	#####	spk3	86.67	86.77	0.01	_
20091112_RATP_SCD_0603	25	18	moui()	DISF_T	tronc	NULL	NULL	NOLINK	0	idtext0031	moui()	#####	spk3	86.78	86.91	0.01	//
20091112_RATP_SCD_0603	25	19	il	NULL	cln	NULL	B_GN	SUJ_IMP	21	idtext0031	cln	#3#m#s##	spk3	86.92	86.99	0.01	_
20091112_RATP_SCD_0603	25	20	y	NULL	clo	NULL	B_GN	AFF	21	idtext0031	y	#####	spk3	87.0	87.03	0.01	_
20091112_RATP_SCD_0603	25	21	avait	NULL	v	NULL	B_GVf	ROOT	0	idtext0031	avoir	I#3##s##	spk3	87.04	87.25	0.01	_
20091112_RATP_SCD_0603	25	22	sortie	NULL	nc	NULL	B_GN	OBJ	21	idtext0031	sortie	##f#s##	spk3	87.26	87.65	0.01	_
20091112_RATP_SCD_0603	25	23	avenue	NULL	nc	B_A	I_GN	MOD	22	idtext0031	avenue	##f#s##	spk3	87.66	87.91	0.01	_
20091112_RATP_SCD_0603	25	24	Daumesnil	NULL	np	I_A	I_GN	MOD	23	idtext0031	Daumesnil	#####	spk3	87.92	88.33	0.01	_
20091112_RATP_SCD_0603	25	25	dehors	NULL	adv	NULL	B_GADV	NOLINK	0	idtext0031	dehors	#####	spk3	88.34	88.64	?	//

20091112_RATP_SCD_0603	26	1	ouais	NULL	adv	NULL	B_GADV	NOLINK	0	idtext0032	ouais	#####	spk2	88.69	88.76	0.01	_
20091112_RATP_SCD_0603	26	2	c'	NULL	cln	NULL	B_GN	SUJ_IMP	3	idtext0032	ce	###s##	spk2	88.77	88.87	0.01	_
20091112_RATP_SCD_0603	26	3	est	NULL	v	NULL	B_GVf	ROOT	0	idtext0032	être	P#3##s##	spk2	88.88	88.91	0.01	_
20091112_RATP_SCD_0603	26	4	ça	NULL	pro	NULL	B_GN	ATS	3	idtext0032	ça	#####	spk2	88.92	89.12	?	_

20091112_RATP_SCD_0603	27	1	d'accord	NULL	adv	NULL	B_GADV	NOLINK	0	idtext0033	d'accord	#####	spk3	89.79	90.42	?	//

20091112_RATP_SCD_0603	28	1	et	NULL	coo	NULL	B_NULL	ROOT	0	idtext0034	et	#####	spk3	91.11	91.35	0.01	_
20091112_RATP_SCD_0603	28	2	qui	NULL	prorel	NULL	B_NULL	SUJ	3	idtext0034	qui	#####	spk3	91.36	91.56	0.01	_
20091112_RATP_SCD_0603	28	3	donnent	NULL	v	NULL	B_GVf	DEP_COORD	1	idtext0034	donner	PS#3##p##	spk3	91.57	91.73	0.01	_
20091112_RATP_SCD_0603	28	4	toutes+les	NULL	det	NULL	B_GN	DET	5	idtext0034	toutes+les	#####	spk3	91.74	91.93	0.01	_
20091112_RATP_SCD_0603	28	5	deux	NULL	nc	NULL	I_GN	OBJ	3	idtext0034	deux	##m###	spk3	91.94	92.16	0.01	/
20091112_RATP_SCD_0603	28	6	euh	DISF_M	pres	NULL	NULL	NOLINK	0	idtext0034	euh	#####	spk3	92.17	92.49	0.01	_
20091112_RATP_SCD_0603	28	7	c'	NULL	cln	NULL	B_GN	SUJ_IMP	8	idtext0034	ce	###s##	spk3	92.5	92.64	0.01	_
20091112_RATP_SCD_0603	28	8	est	NULL	v	NULL	B_GVf	ROOT	0	idtext0034	être	P#3##s##	spk3	92.65	92.76	0.01	_
20091112_RATP_SCD_0603	28	9	simplement	NULL	adv	NULL	B_GADV	MOD	12	idtext0034	simplement	#####	spk3	92.77	93.32	0.01	_
20091112_RATP_SCD_0603	28	10	sur	NULL	prep	NULL	B_GP	P_OBJ_LOC	8	idtext0034	sur	#####	spk3	93.33	93.44	0.01	_
20091112_RATP_SCD_0603	28	11	la	NULL	det	NULL	I_GP	DET	12	idtext0034	le	##m#s##d	spk3	93.45	93.53	0.01	_
20091112_RATP_SCD_0603	28	12	droite	NULL	nc	NULL	I_GP	OBJ	10	idtext0034	droite	##f#s##	spk3	93.54	93.87	0.01	_
20091112_RATP_SCD_0603	28	13	ou	NULL	coo	NULL	B_NULL	COORD	12	idtext0034	ou	#####	spk3	93.88	93.96	0.01	_
20091112_RATP_SCD_0603	28	14	sur	NULL	prep	NULL	B_GP	DEP_COORD	13	idtext0034	sur	#####	spk3	93.97	94.11	0.01	_
20091112_RATP_SCD_0603	28	15	la	NULL	det	NULL	I_GP	DET	16	idtext0034	le	##m#s##d	spk3	94.12	94.22	0.01	_
20091112_RATP_SCD_0603	28	16	gauche	NULL	nc	NULL	I_GP	OBJ	14	idtext0034	gauche	###s##	spk3	94.23	94.66	0.01	_
20091112_RATP_SCD_0603	28	17	je	NULL	cln	NULL	B_GN	SUJ	18	idtext0034	cln	#1##s##	spk3	94.67	94.72	0.01	_
20091112_RATP_SCD_0603	28	18	suppose	NULL	v	NULL	B_GVf	ROOT	0	idtext0034	supposer	PS#13##s##	spk3	94.73	95.39	?	//

20091112_RATP_SCD_0603	29	1	oui	NULL	adv	NULL	B_GADV	NOLINK	0	idtext0035	oui	#####	spk2	95.44	95.91	0.01	/
20091112_RATP_SCD_0603	29	2	une	NULL	det	NULL	B_NULL	ROOT	0	idtext0036	un	##f#s##i	spk2	95.92	96.05	0.01	_
20091112_RATP_SCD_0603	29	3	de	NULL	prep	NULL	B_GP	DEP	2	idtext0036	de	#####	spk2	96.06	96.11	0.01	_
20091112_RATP_SCD_0603	29	4	chaque	NULL	det	NULL	I_GP	DET	5	idtext0036	chaque	###s##i	spk2	96.12	96.3	0.01	_
20091112_RATP_SCD_0603	29	5	côté	NULL	nc	NULL	I_GP	OBJ	3	idtext0036	côté	##m#s##	spk2	96.31	96.51	0.01	_
20091112_RATP_SCD_0603	29	6	de	NULL	prep	NULL	B_GP	DEP	5	idtext0036	de	#####	spk2	96.52	96.54	0.01	_
20091112_RATP_SCD_0603	29	7	l'	NULL	det	NULL	I_GP	DET	8	idtext0036	le	###s##d	spk2	96.55	96.58	0.01	_
20091112_RATP_SCD_0603	29	8	avenue	NULL	nc	B_A	I_GP	OBJ	6	idtext0036	avenue	##f#s##	spk2	96.59	96.75	0.01	_
20091112_RATP_SCD_0603	29	9	Daumesnil	NULL	np	I_A	I_GP	MOD	8	idtext0036	Daumesnil	#####	spk2	96.76	97.24	?	//

20091112_RATP_SCD_0603	30	1	une	NULL	det	NULL	B_NULL	NOLINK	0	idtext0037	un	##f#s##i	spk3	97.28	97.54	?	//

20091112_RATP_SCD_0603	31	1	sur	NULL	prep	NULL	B_NULL	NOLINK	0	idtext0038	sur	#####	spk3	97.61	98.19	0.01	_
20091112_RATP_SCD_0603	31	2	le	NULL	det	NULL	B_NULL	NOLINK	0	idtext0038	le	##m#s##d	spk3	98.2	98.24	?	_

20091112_RATP_SCD_0603	32	1	numéro	NULL	nc	NULL	B_GN	NOLINK	0	idtext0039	numéro	##m#s##	spk2	97.69	98.24	?	//

20091112_RATP_SCD_0603	33	1	pair	NULL	adj	NULL	B_GN	MOD	2	idtext0040	pair	#####	spk2	98.28	98.51	0.01	_
20091112_RATP_SCD_0603	33	2	numéro	NULL	nc	NULL	I_GN	MOD	3	idtext0040	numéro	##m#s##	spk2	98.52	98.78	0.01	/
20091112_RATP_SCD_0603	33	3	côté	NULL	nc	NULL	B_GN	ROOT	0	idtext0040	côté	##m#s##	spk2	98.79	99.03	0.01	_
20091112_RATP_SCD_0603	33	4	numéro	NULL	nc	NULL	B_GN	ROOT	0	idtext0040	numéro	##m#s##	spk2	99.04	99.35	0.01	_
20091112_RATP_SCD_0603	33	5	impair	NULL	adj	NULL	I_GN	MOD	4	idtext0040	impair	##m#s##	spk2	99.36	99.72	?	//

20091112_RATP_SCD_0603	34	1	un	NULL	det	NULL	B_GN	DET	2	idtext0041	un	##m#s##i	spk3	100.38	100.55	0.01	_
20091112_RATP_SCD_0603	34	2	côté	NULL	nc	NULL	I_GN	ROOT	0	idtext0041	côté	##m#s##	spk3	100.56	100.97	0.01	_
20091112_RATP_SCD_0603	34	3	pair	NULL	adj	NULL	I_GN	MOD	2	idtext0041	pair	#####	spk3	100.98	101.54	0.01	_
20091112_RATP_SCD_0603	34	4	et	NULL	coo	NULL	B_NULL	COORD	2	idtext0041	et	#####	spk3	101.55	101.59	0.01	_
20091112_RATP_SCD_0603	34	5	euh	DISF_M	pres	NULL	NULL	NOLINK	0	idtext0041	euh	#####	spk3	101.6	101.72	0.01	_
20091112_RATP_SCD_0603	34	6	numéro	NULL	nc	NULL	B_GN	DEP_COORD	4	idtext0041	numéro	##m#s##	spk3	101.73	102.24	0.01	_
20091112_RATP_SCD_0603	34	7	impair	NULL	adj	NULL	I_GN	MOD	2	idtext0041	impair	##m#s##	spk3	102.25	102.85	?	//

20091112_RATP_SCD_0603	35	1	hm	DISF_M	pres	NULL	NULL	NOLINK	0	idtext0042	hm	#####	spk2	102.95	103.06	?	//

20091112_RATP_SCD_0603	36	1	d'accord	NULL	adv	NULL	B_GADV	NOLINK	0	idtext0043	d'accord	#####	spk3	103.1	103.91	0.01	_
20091112_RATP_SCD_0603	36	2	c'	NULL	cln	NULL	B_GN	SUJ_IMP	3	idtext0043	ce	###s##	spk3	103.92	103.96	0.01	_
20091112_RATP_SCD_0603	36	3	est	NULL	v	NULL	B_GVf	ROOT	0	idtext0043	être	P#3##s##	spk3	103.97	104.05	0.01	_
20091112_RATP_SCD_0603	36	4	très	NULL	adv	NULL	B_GN	MOD	5	idtext0043	très	#####	spk3	104.06	104.32	0.01	_
20091112_RATP_SCD_0603	36	5	aimable	NULL	adj	NULL	I_GN	ATS	3	idtext0043	aimable	###s##	spk3	104.33	104.64	0.01	_
20091112_RATP_SCD_0603	36	6	monsieur	NULL	nc	NULL	I_GN	NOLINK	0	idtext0043	Monsieur	##m#s##	spk3	104.65	104.85	?	//

20091112_RATP_SCD_0603	37	1	merci	NULL	adv	NULL	B_GADV	NOLINK	0	idtext0044	merci	#####	spk3	105.17	105.38	?	//

20091112_RATP_SCD_0603	38	1	bonne	NULL	adj	NULL	B_GN	MOD	2	idtext0045	bon	##f#s##	spk2	104.89	104.97	0.01	_
20091112_RATP_SCD_0603	38	2	journée	NULL	nc	NULL	I_GN	ROOT	0	idtext0045	journée	##f#s##	spk2	104.98	105.16	0.01	_
20091112_RATP_SCD_0603	38	3	monsieur	NULL	nc	NULL	B_GN	NOLINK	0	idtext0045	Monsieur	##m#s##	spk2	105.17	105.38	?	//

20091112_RATP_SCD_0603	39	1	au+revoir	NULL	adv	NULL	B_GADV	NOLINK	0	idtext0046	au+revoir	#####	spk2	105.42	105.65	?	//

20091112_RATP_SCD_0603	40	1	au+revoir	NULL	adv	NULL	B_GADV	NOLINK	0	idtext0047	au+revoir	#####	spk3	105.71	106.12	?	//

