20091112_RATP_SCD_0593	1	1	NNAAMMEE	NULL	np	B_HU	B_GN	ROOT	0	idtext0000	ANONYM	NULL	spk1	4.63	5.13	0.05	_
20091112_RATP_SCD_0593	1	2	bonjour	NULL	adv	NULL	B_GADV	NOLINK	0	idtext0001	bonjour	#####	spk1	5.18	5.89	?	//

20091112_RATP_SCD_0593	2	1	hum	DISF_M	pres	NULL	NULL	NOLINK	0	idtext0002	hum	#####	spk2	5.98	6.15	0.01	_
20091112_RATP_SCD_0593	2	2	oui	NULL	adv	NULL	B_GADV	MOD	3	idtext0002	oui	#####	spk2	6.16	6.41	0.01	_
20091112_RATP_SCD_0593	2	3	bonjour	NULL	adv	NULL	I_GADV	ROOT	0	idtext0002	bonjour	#####	spk2	6.42	6.63	0.01	_
20091112_RATP_SCD_0593	2	4	madame	NULL	nc	NULL	B_GN	NOLINK	0	idtext0002	Monsieur	##f#s##	spk2	6.64	6.87	?	//

20091112_RATP_SCD_0593	3	1	j'	NULL	cln	NULL	B_GN	SUJ	3	idtext0003	cln	#1##s##	spk2	6.91	6.93	0.01	_
20091112_RATP_SCD_0593	3	2	aurais	NULL	v	NULL	B_GVf	AUX	3	idtext0003	avoir	C#12##s##	spk2	6.94	7.09	0.01	_
20091112_RATP_SCD_0593	3	3	souhaité	NULL	vppart	NULL	I_GVf	ROOT	0	idtext0003	souhaiter	K##m#s##	spk2	7.1	7.29	0.01	_
20091112_RATP_SCD_0593	3	4	avoir	NULL	vinf	NULL	B_GVi	OBJ	3	idtext0003	avoir	W#####	spk2	7.3	7.49	0.01	_
20091112_RATP_SCD_0593	3	5	le	NULL	det	NULL	B_GN	DET	6	idtext0003	le	##m#s##d	spk2	7.5	7.52	0.01	_
20091112_RATP_SCD_0593	3	6	numéro	NULL	nc	NULL	I_GN	OBJ	4	idtext0003	numéro	##m#s##	spk2	7.53	7.83	0.01	_
20091112_RATP_SCD_0593	3	7	des	NULL	det	NULL	B_NULL	DEP	6	idtext0003	des	###p##i	spk2	7.84	8.4	0.07	_
20091112_RATP_SCD_0593	3	8	objets	NULL	nc	NULL	B_GN	ROOT	0	idtext0004	objet	##m#p##	spk2	8.47	8.69	0.01	_
20091112_RATP_SCD_0593	3	9	trouvés	NULL	adj	NULL	I_GN	MOD	8	idtext0004	trouver	K##m#p##	spk2	8.7	9.06	0.01	/
20091112_RATP_SCD_0593	3	10	parce+que	NULL	csu	NULL	B_NULL	ROOT	0	idtext0004	parce+que	#####	spk2	9.07	9.26	0.01	_
20091112_RATP_SCD_0593	3	11	j'	NULL	cln	NULL	B_GN	SUJ	12	idtext0004	cln	#1##s##	spk2	9.27	9.4	0.01	_
20091112_RATP_SCD_0593	3	12	ai	NULL	v	NULL	B_GVf	OBJ	10	idtext0004	avoir	P#1##s##	spk2	9.41	9.49	0.01	_
20091112_RATP_SCD_0593	3	13	ma	NULL	det	NULL	B_GN	DET	14	idtext0004	mon	##f#s##o	spk2	9.5	9.63	0.01	_
20091112_RATP_SCD_0593	3	14	femme	NULL	nc	NULL	I_GN	OBJ	12	idtext0004	femme	##f#s##	spk2	9.64	9.82	0.01	_
20091112_RATP_SCD_0593	3	15	qui	NULL	prorel	NULL	B_NULL	SUJ	17	idtext0004	qui	#####	spk2	9.83	9.94	0.01	_
20091112_RATP_SCD_0593	3	16	a	NULL	v	NULL	B_GVf	AUX	17	idtext0004	avoir	P#3##s##	spk2	9.95	9.97	0.01	_
20091112_RATP_SCD_0593	3	17	oublié	NULL	vppart	NULL	I_GVf	MOD_REL	14	idtext0004	oublier	K##m#s##	spk2	9.98	10.24	0.01	_
20091112_RATP_SCD_0593	3	18	son	NULL	det	NULL	B_GN	DET	19	idtext0004	son	###s##o	spk2	10.25	10.36	0.01	_
20091112_RATP_SCD_0593	3	19	sac	NULL	nc	NULL	I_GN	OBJ	17	idtext0004	sac	##m#s##	spk2	10.37	10.99	?	//

20091112_RATP_SCD_0593	4	1	dans	NULL	prep	NULL	B_NULL	NOLINK	0	idtext0005	dans	#####	spk2	11.86	13.11	0.04	_
20091112_RATP_SCD_0593	4	2	dans	NULL	prep	NULL	B_GP	ROOT	0	idtext0006	dans	#####	spk2	13.15	13.39	0.01	_
20091112_RATP_SCD_0593	4	3	un	NULL	pro	NULL	I_GP	OBJ	2	idtext0006	un	#####	spk2	13.4	13.59	0.01	_
20091112_RATP_SCD_0593	4	4	des	NULL	prep	NULL	B_GP	ROOT	0	idtext0006	des	#####	spk2	13.6	13.8	0.01	_
20091112_RATP_SCD_0593	4	5	métros	NULL	nc	NULL	I_GP	OBJ	4	idtext0006	métro	##m#p##	spk2	13.81	14.27	0.01	_
20091112_RATP_SCD_0593	4	6	ou	NULL	coo	NULL	B_NULL	COORD	5	idtext0006	ou	#####	spk2	14.28	14.33	0.01	_
20091112_RATP_SCD_0593	4	7	un	NULL	det	NULL	B_GN	DET	8	idtext0006	un	##m#s##i	spk2	14.34	14.36	0.01	_
20091112_RATP_SCD_0593	4	8	RER	NULL	nc	B_T	I_GN	DEP_COORD	6	idtext0006	RER	#####	spk2	14.37	14.55	0.01	/
20091112_RATP_SCD_0593	4	9	je	NULL	cln	NULL	B_GN	SUJ	10	idtext0006	cln	#1##s##	spk2	14.56	14.65	0.01	_
20091112_RATP_SCD_0593	4	10	sais	NULL	v	NULL	B_GVfn	ROOT	0	idtext0006	savoir	P#12##s##	spk2	14.66	14.77	0.01	_
20091112_RATP_SCD_0593	4	11	plus	NULL	advneg	NULL	I_GVfn	MOD	10	idtext0006	plus	#####	spk2	14.78	15.14	?	_

20091112_RATP_SCD_0593	5	1	oui	NULL	adv	NULL	B_GADV	NOLINK	0	idtext0007	oui	#####	spk1	15.48	15.7	0.04	_
20091112_RATP_SCD_0593	5	2	elle	NULL	cln	NULL	B_GN	SUJ	5	idtext0008	cln	#3#f#s##	spk1	15.74	15.82	0.01	_
20091112_RATP_SCD_0593	5	3	l'	NULL	clo	NULL	B_GN	OBJ	5	idtext0008	cla	#3##s##	spk1	15.83	15.86	0.01	_
20091112_RATP_SCD_0593	5	4	a	NULL	v	NULL	B_GVf	AUX	5	idtext0008	avoir	P#3##s##	spk1	15.87	15.94	0.01	_
20091112_RATP_SCD_0593	5	5	oublié	NULL	vppart	NULL	I_GVf	ROOT	0	idtext0008	oublier	K##m#s##	spk1	15.95	16.31	0.01	_
20091112_RATP_SCD_0593	5	6	euh	DISF_M	pres	NULL	NULL	NOLINK	0	idtext0008	euh	#####	spk1	16.32	16.54	0.01	_
20091112_RATP_SCD_0593	5	7	aujourd'hui	NULL	adv	NULL	B_GADV	MOD	5	idtext0008	aujourd'hui	#####	spk1	16.55	17.0	?	_

20091112_RATP_SCD_0593	6	1	oui	NULL	adv	NULL	B_GADV	NOLINK	0	idtext0009	oui	#####	spk2	17.37	17.65	0.01	_
20091112_RATP_SCD_0593	6	2	à	NULL	prep	NULL	B_GP	ROOT	0	idtext0009	à	#####	spk2	17.66	17.71	0.01	_
20091112_RATP_SCD_0593	6	3	Nation	NULL	nc	B_A	I_GP	OBJ	2	idtext0009	Nation	#####	spk2	17.72	18.1	0.01	_
20091112_RATP_SCD_0593	6	4	il	DISF_R	cln	I_A	B_GN	NOLINK	0	idtext0009	cln	#3#m#s##	spk2	18.11	18.19	0.01	_
20091112_RATP_SCD_0593	6	5	y	DISF_R	clo	I_A	B_GN	NOLINK	0	idtext0009	y	#####	spk2	18.2	18.22	0.01	_
20091112_RATP_SCD_0593	6	6	a	DISF_R	v	I_A	B_GVf	NOLINK	0	idtext0009	avoir	P#3##s##	spk2	18.23	18.39	0.01	_
20091112_RATP_SCD_0593	6	7	il	NULL	cln	NULL	B_GN	SUJ_IMP	9	idtext0009	cln	#3#m#s##	spk2	18.4	18.49	0.01	_
20091112_RATP_SCD_0593	6	8	y	NULL	clo	NULL	B_GN	AFF	9	idtext0009	y	#####	spk2	18.5	18.52	0.01	_
20091112_RATP_SCD_0593	6	9	a	NULL	v	NULL	B_GVf	ROOT	0	idtext0009	avoir	P#3##s##	spk2	18.53	18.55	0.01	_
20091112_RATP_SCD_0593	6	10	un	NULL	det	NULL	I_GP	DET	12	idtext0009	un	##m#s##i	spk2	18.56	18.8	0.01	_
20091112_RATP_SCD_0593	6	11	petit	NULL	adj	NULL	I_GP	MOD	12	idtext0009	petit	##m#s##	spk2	18.81	18.96	0.01	_
20091112_RATP_SCD_0593	6	12	quart	NULL	nc	NULL	I_GP	OBJ	9	idtext0009	quart	##m#s##	spk2	18.97	19.14	0.01	_
20091112_RATP_SCD_0593	6	13	d'	NULL	prep	NULL	B_GP	DEP	12	idtext0009	d'	#####	spk2	19.15	19.17	0.01	_
20091112_RATP_SCD_0593	6	14	heure	NULL	nc	NULL	I_GP	OBJ	13	idtext0009	heure	##f#s##	spk2	19.18	19.39	0.01	_
20091112_RATP_SCD_0593	6	15	vingt	NULL	adj	NULL	B_GN	MOD	16	idtext0009	vingt	#####	spk2	19.4	19.46	0.01	_
20091112_RATP_SCD_0593	6	16	minutes	NULL	nc	NULL	I_GN	ROOT	0	idtext0009	minute	##f#p##	spk2	19.47	19.86	?	//

20091112_RATP_SCD_0593	7	1	alors	NULL	adv	NULL	B_GADV	NOLINK	0	idtext0010	alors	#####	spk1	21.33	21.48	0.01	_
20091112_RATP_SCD_0593	7	2	on	NULL	cln	NULL	B_GN	SUJ_IMP	3	idtext0010	cln	#3##s##	spk1	21.49	21.61	0.01	_
20091112_RATP_SCD_0593	7	3	peut	NULL	v	NULL	B_GVf	ROOT	0	idtext0010	pouvoir	P#3##s##	spk1	21.62	21.72	0.01	_
20091112_RATP_SCD_0593	7	4	se	NULL	clr	NULL	B_GNr	AFF	3	idtext0010	se	#####	spk1	21.73	22.12	0.08	_
20091112_RATP_SCD_0593	7	5	je	NULL	cln	NULL	B_GN	SUJ	6	idtext0011	cln	#1##s##	spk1	22.2	22.26	0.01	_
20091112_RATP_SCD_0593	7	6	peux	NULL	v	NULL	B_GVf	ROOT	0	idtext0011	pouvoir	P#12##s##	spk1	22.27	22.35	0.01	_
20091112_RATP_SCD_0593	7	7	me	NULL	clr	NULL	B_GVi	AFF	8	idtext0011	cla	#1##s##	spk1	22.36	22.39	0.01	_
20091112_RATP_SCD_0593	7	8	renseigner	NULL	vinf	NULL	I_GVi	OBJ	6	idtext0011	renseigner	W#####	spk1	22.4	22.73	0.01	_
20091112_RATP_SCD_0593	7	9	si	NULL	csu	NULL	B_NULL	OBJ	8	idtext0011	si	#####	spk1	22.74	22.87	0.01	_
20091112_RATP_SCD_0593	7	10	vous	NULL	cln	NULL	B_GN	SUJ	11	idtext0011	cln	#2##p##	spk1	22.88	22.94	0.01	_
20091112_RATP_SCD_0593	7	11	voulez	NULL	v	NULL	B_GVf	OBJ	9	idtext0011	vouloir	P#2##p##	spk1	22.95	23.19	0.01	_
20091112_RATP_SCD_0593	7	12	déjà	NULL	adv	NULL	B_GADV	NOLINK	0	idtext0011	déjà	#####	spk1	23.2	23.47	?	_

20091112_RATP_SCD_0593	8	1	oui	NULL	adv	NULL	B_GADV	MOD	2	idtext0012	oui	#####	spk2	24.11	24.41	0.01	_
20091112_RATP_SCD_0593	8	2	s'il+vous+plaît	NULL	adv	NULL	I_GADV	MOD	3	idtext0012	s'il+vous+plaît	#####	spk2	24.42	25.17	0.01	_
20091112_RATP_SCD_0593	8	3	oui	NULL	adv	NULL	I_GADV	ROOT	0	idtext0012	oui	#####	spk2	25.18	25.34	?	_

20091112_RATP_SCD_0593	9	1	sur	NULL	prep	NULL	B_GP	ROOT	0	idtext0013	sur	#####	spk1	24.06	24.43	0.01	_
20091112_RATP_SCD_0593	9	2	le	NULL	det	NULL	I_GP	DET	3	idtext0013	le	##m#s##d	spk1	24.44	24.98	0.01	_
20091112_RATP_SCD_0593	9	3	réseau	NULL	nc	NULL	I_GP	OBJ	1	idtext0013	réseau	##m#s##	spk1	24.99	25.34	?	//

20091112_RATP_SCD_0593	10	1	ben	DISF_M	pres	NULL	NULL	NOLINK	0	idtext0014	ben	#####	spk2	26.33	26.62	0.01	_
20091112_RATP_SCD_0593	10	2	et	NULL	coo	NULL	B_NULL	ROOT	0	idtext0014	et	#####	spk2	26.63	26.71	0.01	_
20091112_RATP_SCD_0593	10	3	après	NULL	adv	NULL	B_GADV	MOD	6	idtext0014	après	#####	spk2	26.72	26.92	0.01	_
20091112_RATP_SCD_0593	10	4	j'	NULL	cln	NULL	B_GN	SUJ	6	idtext0014	cln	#1##s##	spk2	26.93	27.02	0.01	_
20091112_RATP_SCD_0593	10	5	aurais	NULL	v	NULL	B_GVf	AUX	6	idtext0014	avoir	C#12##s##	spk2	27.03	27.22	0.01	_
20091112_RATP_SCD_0593	10	6	souhaité	NULL	vppart	NULL	I_GVf	DEP_COORD	2	idtext0014	souhaiter	K##m#s##	spk2	27.23	27.5	0.01	_
20091112_RATP_SCD_0593	10	7	savoir	NULL	vinf	NULL	B_GVi	OBJ	6	idtext0014	savoir	W#####	spk2	27.51	27.8	0.01	_
20091112_RATP_SCD_0593	10	8	comment	NULL	adv	NULL	B_GADV	MOD	10	idtext0014	comment	#####	spk2	27.81	28.01	0.01	_
20091112_RATP_SCD_0593	10	9	il	NULL	cln	NULL	B_GN	SUJ	10	idtext0014	cln	#3#m#s##	spk2	28.02	28.09	0.01	_
20091112_RATP_SCD_0593	10	10	était	NULL	v	NULL	B_GVf	OBJ	7	idtext0014	être	I#3##s##	spk2	28.1	28.46	0.08	_
20091112_RATP_SCD_0593	10	11	enfin	NULL	adv	NULL	B_GADV	NOLINK	0	idtext0015	enfin	#####	spk2	28.54	28.7	0.01	_
20091112_RATP_SCD_0593	10	12	ce+qu'	NULL	prorel	NULL	B_NULL	OBJ	14	idtext0015	ce+qu'	#####	spk2	28.71	28.81	0.01	_
20091112_RATP_SCD_0593	10	13	il	NULL	cln	NULL	B_GN	SUJ_IMP	14	idtext0015	cln	#3#m#s##	spk2	28.82	28.89	0.01	_
20091112_RATP_SCD_0593	10	14	était	NULL	v	NULL	B_GVf	ROOT	0	idtext0015	être	I#3##s##	spk2	28.9	29.07	0.01	_
20091112_RATP_SCD_0593	10	15	possible	NULL	adj	NULL	B_GADJ	ATS	14	idtext0015	possible	###s##	spk2	29.08	29.34	0.01	_
20091112_RATP_SCD_0593	10	16	de	NULL	prep	NULL	B_GP	DEP	15	idtext0015	de	#####	spk2	29.35	29.52	0.01	_
20091112_RATP_SCD_0593	10	17	faire	NULL	vinf	NULL	I_GP	OBJ	16	idtext0015	faire	W#####	spk2	29.53	29.91	0.01	_
20091112_RATP_SCD_0593	10	18	et	NULL	coo	NULL	B_NULL	NOLINK	0	idtext0015	et	#####	spk2	29.92	30.25	?	_

20091112_RATP_SCD_0593	11	1	d'accord	NULL	adv	NULL	B_GADV	NOLINK	0	idtext0016	d'accord	#####	spk1	31.24	31.93	?	//

20091112_RATP_SCD_0593	12	1	si	NULL	csu	NULL	B_NULL	NOLINK	0	idtext0017	si	#####	spk2	31.09	31.25	0.01	_
20091112_RATP_SCD_0593	12	2	vous	NULL	pro	NULL	B_GN	NOLINK	0	idtext0017	vous	#####	spk2	31.26	31.43	0.01	_
20091112_RATP_SCD_0593	12	3	b()	DISF_T	tronc	NULL	NULL	NOLINK	0	idtext0017	b()	#####	spk2	31.44	31.54	0.01	_
20091112_RATP_SCD_0593	12	4	ou	NULL	coo	NULL	B_NULL	NOLINK	0	idtext0017	ou	#####	spk2	31.55	31.93	?	_

20091112_RATP_SCD_0593	13	1	quel	NULL	det	NULL	B_GN	DET	2	idtext0018	quel	##m#s##	spk2	31.97	32.1	0.01	_
20091112_RATP_SCD_0593	13	2	numéro	NULL	nc	NULL	I_GN	OBJ	3	idtext0018	numéro	##m#s##	spk2	32.11	32.51	0.01	_
20091112_RATP_SCD_0593	13	3	appeler	NULL	vinf	NULL	B_GVi	ROOT	0	idtext0018	appeler	W#####	spk2	32.52	32.88	0.01	_
20091112_RATP_SCD_0593	13	4	pour	NULL	prep	NULL	B_GP	MOD	3	idtext0018	pour	#####	spk2	32.89	33.14	0.01	_
20091112_RATP_SCD_0593	13	5	savoir	NULL	vinf	NULL	I_GP	OBJ	4	idtext0018	savoir	W#####	spk2	33.15	33.48	0.01	_
20091112_RATP_SCD_0593	13	6	si	NULL	csu	NULL	B_NULL	OBJ	5	idtext0018	si	#####	spk2	33.49	33.66	0.01	_
20091112_RATP_SCD_0593	13	7	euh	DISF_M	pres	NULL	NULL	NOLINK	0	idtext0018	euh	#####	spk2	33.67	33.9	0.04	_
20091112_RATP_SCD_0593	13	8	parce+que	NULL	csu	NULL	B_NULL	ROOT	0	idtext0019	parce+que	#####	spk2	33.94	34.14	0.01	_
20091112_RATP_SCD_0593	13	9	bon	DISF_M	pres	NULL	NULL	NOLINK	0	idtext0019	bon	#####	spk2	34.15	34.28	0.01	_
20091112_RATP_SCD_0593	13	10	je	NULL	cln	NULL	B_GN	SUJ	11	idtext0019	cln	#1##s##	spk2	34.29	34.38	0.01	_
20091112_RATP_SCD_0593	13	11	pense	NULL	v	NULL	B_GVf	OBJ	8	idtext0019	penser	PS#13##s##	spk2	34.39	34.6	0.01	_
20091112_RATP_SCD_0593	13	12	qu'	NULL	csu	NULL	B_NULL	OBJ	11	idtext0019	qu'	#####	spk2	34.61	34.63	0.01	_
20091112_RATP_SCD_0593	13	13	ils	NULL	cln	NULL	B_GN	SUJ	14	idtext0019	cln	#3#m#p##	spk2	34.64	34.69	0.01	_
20091112_RATP_SCD_0593	13	14	vont	NULL	v	NULL	B_GVf	OBJ	12	idtext0019	aller	P#3##p##	spk2	34.7	34.86	0.01	_
20091112_RATP_SCD_0593	13	15	sûrement	NULL	adv	NULL	B_GADV	MOD	14	idtext0019	sûrement	#####	spk2	34.87	35.13	0.01	_
20091112_RATP_SCD_0593	13	16	lui	NULL	clo	NULL	B_GN	A_OBJ	17	idtext0019	lui	#####	spk2	35.14	35.31	0.01	_
20091112_RATP_SCD_0593	13	17	prendre	NULL	vinf	NULL	B_GVi	OBJ	14	idtext0019	prendre	W#####	spk2	35.32	35.51	0.01	//
20091112_RATP_SCD_0593	13	18	ce+qu'	NULL	prorel	NULL	B_NULL	NOLINK	0	idtext0019	ce+qu'	#####	spk2	35.52	35.57	0.01	_
20091112_RATP_SCD_0593	13	19	il	NULL	cln	NULL	B_GN	SUJ_IMP	21	idtext0019	cln	#3#m#s##	spk2	35.58	35.63	0.01	_
20091112_RATP_SCD_0593	13	20	y	NULL	clo	NULL	B_GN	AFF	21	idtext0019	y	#####	spk2	35.64	35.66	0.01	_
20091112_RATP_SCD_0593	13	21	a	NULL	v	NULL	B_GVf	OBJ	17	idtext0019	avoir	P#3##s##	spk2	35.67	35.69	0.01	_
20091112_RATP_SCD_0593	13	22	à	NULL	prep	NULL	B_GP	MOD	17	idtext0019	à	#####	spk2	35.7	35.72	0.01	_
20091112_RATP_SCD_0593	13	23	l'	NULL	det	NULL	I_GP	DET	24	idtext0019	le	###s##d	spk2	35.73	35.77	0.01	_
20091112_RATP_SCD_0593	13	24	intérieur	NULL	nc	NULL	I_GP	OBJ	22	idtext0019	intérieur	##m#s##	spk2	35.78	36.2	0.04	_
20091112_RATP_SCD_0593	13	25	mais	NULL	coo	NULL	B_NULL	ROOT	0	idtext0020	mais	#####	spk2	36.24	36.4	0.01	_
20091112_RATP_SCD_0593	13	26	après	NULL	adv	NULL	B_GADV	NOLINK	0	idtext0020	après	#####	spk2	36.41	36.67	0.01	_
20091112_RATP_SCD_0593	13	27	ils	NULL	cln	NULL	B_GN	SUJ	28	idtext0020	cln	#3#m#p##	spk2	36.68	36.73	0.01	_
20091112_RATP_SCD_0593	13	28	vont	NULL	v	NULL	B_GVf	DEP_COORD	25	idtext0020	aller	P#3##p##	spk2	36.74	36.83	0.01	_
20091112_RATP_SCD_0593	13	29	peut-être	NULL	adv	NULL	B_GVi	MOD	30	idtext0020	peut-être	#####	spk2	36.84	37.06	0.01	_
20091112_RATP_SCD_0593	13	30	déposer	NULL	vinf	NULL	I_GVi	OBJ	28	idtext0020	déposer	W#####	spk2	37.07	37.41	0.01	_
20091112_RATP_SCD_0593	13	31	le	NULL	det	NULL	B_GN	DET	32	idtext0020	le	##m#s##d	spk2	37.42	37.46	0.01	_
20091112_RATP_SCD_0593	13	32	sac	NULL	nc	NULL	I_GN	OBJ	30	idtext0020	sac	##m#s##	spk2	37.47	37.7	0.01	_
20091112_RATP_SCD_0593	13	33	quelque+part	NULL	adv	NULL	B_GADV	NOLINK	0	idtext0020	quelque+part	#####	spk2	37.71	38.1	0.01	_
20091112_RATP_SCD_0593	13	34	je	NULL	cln	NULL	B_GN	SUJ	35	idtext0020	cln	#1##s##	spk2	38.11	38.23	0.01	_
20091112_RATP_SCD_0593	13	35	sais	NULL	v	NULL	B_GVfn	ROOT	0	idtext0020	savoir	P#12##s##	spk2	38.24	38.35	0.01	_
20091112_RATP_SCD_0593	13	36	pas	NULL	advneg	NULL	I_GVfn	MOD	35	idtext0020	pas	#####	spk2	38.36	38.48	?	_

20091112_RATP_SCD_0593	14	1	d'accord	NULL	adv	NULL	B_GADV	MOD	3	idtext0021	d'accord	#####	spk1	38.57	38.88	0.01	_
20091112_RATP_SCD_0593	14	2	ben	DISF_M	pres	NULL	NULL	NOLINK	0	idtext0021	ben	#####	spk1	38.89	39.01	0.01	_
20091112_RATP_SCD_0593	14	3	déjà	NULL	adv	NULL	I_GADV	ROOT	0	idtext0021	déjà	#####	spk1	39.02	39.23	0.01	_
20091112_RATP_SCD_0593	14	4	je	NULL	cln	NULL	B_GN	SUJ	5	idtext0021	cln	#1##s##	spk1	39.24	39.29	0.01	_
20091112_RATP_SCD_0593	14	5	vais	NULL	v	NULL	B_GVf	ROOT	0	idtext0021	aller	P#1##s##	spk1	39.3	39.39	0.01	_
20091112_RATP_SCD_0593	14	6	voir	NULL	vinf	NULL	I_GVf	OBJ	5	idtext0021	voir	W#####	spk1	39.4	39.52	0.01	_
20091112_RATP_SCD_0593	14	7	s'	NULL	csu	NULL	B_NULL	OBJ	6	idtext0021	se	#3##p##	spk1	39.53	39.68	0.01	_
20091112_RATP_SCD_0593	14	8	il	NULL	cln	NULL	B_GN	SUJ	11	idtext0021	cln	#3#m#s##	spk1	39.69	39.9	0.01	_
20091112_RATP_SCD_0593	14	9	a	NULL	v	NULL	B_GVf	AUX	10	idtext0021	avoir	P#3##s##	spk1	39.91	39.93	0.01	_
20091112_RATP_SCD_0593	14	10	été	NULL	vppart	NULL	I_GVf	AUX	11	idtext0021	être	K#####	spk1	39.94	40.16	0.01	_
20091112_RATP_SCD_0593	14	11	retrouvé	NULL	vppart	NULL	I_GVf	OBJ	7	idtext0021	retrouver	K##m#s##	spk1	40.17	40.89	0.16	_
20091112_RATP_SCD_0593	14	12	donc	NULL	coo	NULL	B_NULL	ROOT	0	idtext0022	donc	#####	spk1	41.05	41.27	0.01	_
20091112_RATP_SCD_0593	14	13	c'	NULL	cln	NULL	B_GN	SUJ_IMP	14	idtext0022	ce	###s##	spk1	41.28	41.32	0.01	_
20091112_RATP_SCD_0593	14	14	était	NULL	v	NULL	B_GVf	DEP_COORD	12	idtext0022	être	I#3##s##	spk1	41.33	41.45	0.01	_
20091112_RATP_SCD_0593	14	15	sur	NULL	prep	NULL	B_GP	ATS	14	idtext0022	sur	#####	spk1	41.46	41.56	0.01	_
20091112_RATP_SCD_0593	14	16	la	NULL	det	NULL	I_GP	DET	17	idtext0022	le	##m#s##d	spk1	41.57	41.68	0.01	_
20091112_RATP_SCD_0593	14	17	ligne	NULL	nc	NULL	I_GP	OBJ	15	idtext0022	ligne	##f#s##	spk1	41.69	41.92	0.01	_
20091112_RATP_SCD_0593	14	18	euh	DISF_M	pres	NULL	NULL	NOLINK	0	idtext0022	euh	#####	spk1	41.93	42.07	0.01	_
20091112_RATP_SCD_0593	14	19	une	NULL	det	NULL	B_NULL	NOLINK	0	idtext0022	un	##f#s##i	spk1	42.08	42.38	?	_

20091112_RATP_SCD_0593	15	1	non	NULL	adv	NULL	B_GADV	NOLINK	0	idtext0023	non	#####	spk2	42.88	43.02	0.01	_
20091112_RATP_SCD_0593	15	2	c'	NULL	cln	NULL	B_GN	SUJ_IMP	3	idtext0023	ce	###s##	spk2	43.03	43.05	0.01	_
20091112_RATP_SCD_0593	15	3	était	NULL	v	NULL	B_GVf	ROOT	0	idtext0023	être	I#3##s##	spk2	43.06	43.44	0.01	_
20091112_RATP_SCD_0593	15	4	ligne	NULL	nc	NULL	B_GN	ATS	3	idtext0023	ligne	##f#s##	spk2	43.45	44.67	0.01	_
20091112_RATP_SCD_0593	15	5	euh	DISF_M	pres	NULL	NULL	NOLINK	0	idtext0023	euh	#####	spk2	44.68	44.73	0.05	_
20091112_RATP_SCD_0593	15	6	c'	NULL	cln	NULL	B_GN	SUJ_IMP	7	idtext0024	ce	###s##	spk2	44.78	44.81	0.01	_
20091112_RATP_SCD_0593	15	7	est	NULL	v	NULL	B_GVf	ROOT	0	idtext0024	être	P#3##s##	spk2	44.82	44.92	0.01	_
20091112_RATP_SCD_0593	15	8	celle	NULL	pro	NULL	B_GN	ATS	7	idtext0024	celle	#####	spk2	44.93	45.18	0.01	_
20091112_RATP_SCD_0593	15	9	qui	NULL	prorel	NULL	B_NULL	NOLINK	0	idtext0024	qui	#####	spk2	45.19	45.39	0.04	_
20091112_RATP_SCD_0593	15	10	non	NULL	adv	NULL	B_GADV	MOD	11	idtext0025	non	#####	spk2	45.43	45.61	0.01	_
20091112_RATP_SCD_0593	15	11	alors	NULL	adv	NULL	I_GADV	ROOT	0	idtext0025	alors	#####	spk2	45.62	45.82	0.04	_
20091112_RATP_SCD_0593	15	12	non	NULL	adv	NULL	B_GADV	NOLINK	0	idtext0026	non	#####	spk2	45.86	46.2	0.01	_
20091112_RATP_SCD_0593	15	13	c'	NULL	cln	NULL	B_GN	SUJ_IMP	14	idtext0026	ce	###s##	spk2	46.21	46.28	0.01	_
20091112_RATP_SCD_0593	15	14	est	NULL	v	NULL	B_GVfn	ROOT	0	idtext0026	être	P#3##s##	spk2	46.29	46.35	0.01	_
20091112_RATP_SCD_0593	15	15	pas	NULL	advneg	NULL	I_GVfn	MOD	14	idtext0026	pas	#####	spk2	46.36	46.45	0.01	_
20091112_RATP_SCD_0593	15	16	le	NULL	det	NULL	B_GN	DET	17	idtext0026	le	##m#s##d	spk2	46.46	46.56	0.01	_
20091112_RATP_SCD_0593	15	17	métro	NULL	nc	NULL	I_GN	ATS	14	idtext0026	métro	##m#s##	spk2	46.57	46.98	0.01	//
20091112_RATP_SCD_0593	15	18	c'	NULL	cln	NULL	B_GN	SUJ_IMP	19	idtext0026	ce	###s##	spk2	46.99	47.09	0.01	_
20091112_RATP_SCD_0593	15	19	est	NULL	v	NULL	B_GVf	ROOT	0	idtext0026	être	P#3##s##	spk2	47.1	47.13	0.01	_
20091112_RATP_SCD_0593	15	20	le	NULL	det	NULL	B_GN	DET	21	idtext0026	le	##m#s##d	spk2	47.14	47.2	0.01	_
20091112_RATP_SCD_0593	15	21	RER+A	NULL	nc	B_T	I_GN	ATS	19	idtext0026	RER+A	#####	spk2	47.21	48.07	?	//

20091112_RATP_SCD_0593	16	1	le	NULL	det	NULL	B_GN	DET	2	idtext0027	le	##m#s##d	spk1	48.14	48.2	0.01	_
20091112_RATP_SCD_0593	16	2	RER+A	NULL	nc	B_T	I_GN	ROOT	0	idtext0027	RER+A	#####	spk1	48.21	48.91	?	//

20091112_RATP_SCD_0593	17	1	oui	NULL	adv	NULL	B_GADV	NOLINK	0	idtext0028	oui	#####	spk2	49.32	49.56	?	//

20091112_RATP_SCD_0593	18	1	d'accord	NULL	adv	NULL	B_GADV	NOLINK	0	idtext0029	d'accord	#####	spk1	49.87	50.22	?	//

20091112_RATP_SCD_0593	19	1	et	NULL	coo	NULL	B_NULL	ROOT	0	idtext0030	et	#####	spk2	50.63	50.8	0.01	_
20091112_RATP_SCD_0593	19	2	c'	NULL	cln	NULL	B_GN	SUJ_IMP	3	idtext0030	ce	###s##	spk2	50.81	50.86	0.01	_
20091112_RATP_SCD_0593	19	3	est	NULL	v	NULL	B_GVf	DEP_COORD	1	idtext0030	être	P#3##s##	spk2	50.87	51.05	0.01	/
20091112_RATP_SCD_0593	19	4	qui	NULL	prorel	NULL	B_NULL	SUJ	5	idtext0030	qui	#####	spk2	51.06	51.26	0.01	_
20091112_RATP_SCD_0593	19	5	vient	NULL	v	NULL	B_GVf	ATS	3	idtext0030	venir	P#3##s##	spk2	51.27	51.4	0.01	_
20091112_RATP_SCD_0593	19	6	en	NULL	prep	NULL	B_NULL	NOLINK	0	idtext0030	en	#####	spk2	51.41	51.83	0.05	_
20091112_RATP_SCD_0593	19	7	enfin	NULL	adv	NULL	B_GADV	MOD	8	idtext0031	enfin	#####	spk2	51.88	52.55	0.01	_
20091112_RATP_SCD_0593	19	8	bref	NULL	adv	NULL	I_GADV	ROOT	0	idtext0031	bref	##m#s##	spk2	52.56	52.83	?	//

20091112_RATP_SCD_0593	20	1	elle	NULL	cln	NULL	B_GN	SUJ	4	idtext0032	cln	#3#f#s##	spk2	52.87	53.01	0.01	_
20091112_RATP_SCD_0593	20	2	l'	NULL	clo	NULL	B_GN	OBJ	4	idtext0032	cla	#3##s##	spk2	53.02	53.15	0.01	_
20091112_RATP_SCD_0593	20	3	a	NULL	v	NULL	B_GVf	AUX	4	idtext0032	avoir	P#3##s##	spk2	53.16	53.2	0.01	_
20091112_RATP_SCD_0593	20	4	perdu	NULL	vppart	NULL	I_GVf	ROOT	0	idtext0032	perdre	K##m#s##	spk2	53.21	53.51	0.01	_
20091112_RATP_SCD_0593	20	5	euh	DISF_M	pres	NULL	NULL	NOLINK	0	idtext0032	euh	#####	spk2	53.52	54.01	?	//

20091112_RATP_SCD_0593	21	1	à	NULL	prep	NULL	B_GP	ROOT	0	idtext0033	à	#####	spk1	52.88	53.0	0.01	_
20091112_RATP_SCD_0593	21	2	Nation	NULL	nc	B_A	I_GP	OBJ	1	idtext0033	Nation	#####	spk1	53.01	54.01	?	//

20091112_RATP_SCD_0593	22	1	elle	NULL	cln	NULL	B_GN	SUJ	4	idtext0034	cln	#3#f#s##	spk2	54.09	54.16	0.01	_
20091112_RATP_SCD_0593	22	2	l'	NULL	clo	NULL	B_GN	OBJ	4	idtext0034	cla	#3##s##	spk2	54.17	54.23	0.01	_
20091112_RATP_SCD_0593	22	3	a	NULL	v	NULL	B_GVf	AUX	4	idtext0034	avoir	P#3##s##	spk2	54.24	54.31	0.01	_
20091112_RATP_SCD_0593	22	4	oublié	NULL	vppart	NULL	I_GVf	ROOT	0	idtext0034	oublier	K##m#s##	spk2	54.32	54.59	0.01	_
20091112_RATP_SCD_0593	22	5	à	NULL	prep	NULL	B_GP	P_OBJ_LOC	4	idtext0034	à	#####	spk2	54.6	54.75	0.01	_
20091112_RATP_SCD_0593	22	6	Nation	NULL	nc	B_A	I_GP	OBJ	5	idtext0034	Nation	#####	spk2	54.76	55.15	?	//

20091112_RATP_SCD_0593	23	1	d'accord	NULL	adv	NULL	B_GADV	NOLINK	0	idtext0035	d'accord	#####	spk1	56.3	56.78	0.23	_
20091112_RATP_SCD_0593	23	2	euh	DISF_M	pres	NULL	NULL	NOLINK	0	idtext0036	euh	#####	spk1	57.01	57.18	?	//

20091112_RATP_SCD_0593	24	1	quel	NULL	det	NULL	B_NULL	ATS	2	idtext0037	quel	##m#s##	spk1	57.66	57.83	0.01	_
20091112_RATP_SCD_0593	24	2	est	NULL	v	NULL	B_GVf	ROOT	0	idtext0037	être	P#3##s##	spk1	57.84	57.89	0.01	_
20091112_RATP_SCD_0593	24	3	son	NULL	det	NULL	B_GN	DET	4	idtext0037	son	###s##o	spk1	57.9	58.47	0.01	_
20091112_RATP_SCD_0593	24	4	nom	NULL	nc	NULL	I_GN	ATS	2	idtext0037	nom	##m#s##	spk1	58.48	58.55	0.01	_
20091112_RATP_SCD_0593	24	5	s'il+vous+plaît	NULL	adv	NULL	B_GADV	NOLINK	0	idtext0037	s'il+vous+plaît	#####	spk1	58.56	59.31	?	//

20091112_RATP_SCD_0593	25	1	NNAAMMEE	NULL	np	B_HU	B_GN	ROOT	0	idtext0038	ANONYM	NULL	spk2	59.57	59.81	0.33	//
20091112_RATP_SCD_0593	25	2	NNAAMMEE	NULL	np	B_HU	B_GN	ROOT	0	idtext0039	ANONYM	NULL	spk2	60.14	60.33	0.08	_
20091112_RATP_SCD_0593	25	3	il	NULL	cln	NULL	B_GN	SUJ_IMP	5	idtext0040	cln	#3#m#s##	spk2	60.41	60.57	0.01	_
20091112_RATP_SCD_0593	25	4	y	NULL	clo	NULL	B_GN	AFF	5	idtext0040	y	#####	spk2	60.58	60.6	0.01	_
20091112_RATP_SCD_0593	25	5	a	NULL	v	NULL	B_GVf	ROOT	0	idtext0040	avoir	P#3##s##	spk2	60.61	60.63	0.01	_
20091112_RATP_SCD_0593	25	6	sa	NULL	det	NULL	B_GN	DET	7	idtext0040	sa	##f#s##o	spk2	60.64	60.69	0.01	_
20091112_RATP_SCD_0593	25	7	carte	NULL	nc	NULL	I_GN	OBJ	5	idtext0040	carte	##f#s##	spk2	60.7	60.95	0.01	_
20091112_RATP_SCD_0593	25	8	bleue	NULL	adj	NULL	I_GP	MOD	7	idtext0040	bleu	##f#s##	spk2	60.96	61.15	0.01	_
20091112_RATP_SCD_0593	25	9	dedans	NULL	adv	NULL	B_GADV	NOLINK	0	idtext0040	dedans	#####	spk2	61.16	61.51	0.30	/
20091112_RATP_SCD_0593	25	10	je	NULL	cln	NULL	B_GN	SUJ	11	idtext0041	cln	#1##s##	spk2	61.81	61.93	0.01	_
20091112_RATP_SCD_0593	25	11	pense	NULL	v	NULL	B_GVfn	ROOT	0	idtext0041	penser	PS#13##s##	spk2	61.94	62.11	0.01	_
20091112_RATP_SCD_0593	25	12	pas	NULL	advneg	NULL	I_GVfn	MOD	11	idtext0041	pas	#####	spk2	62.12	62.25	0.01	_
20091112_RATP_SCD_0593	25	13	qu'	NULL	csu	NULL	B_NULL	OBJ	11	idtext0041	qu'	#####	spk2	62.26	62.29	0.01	_
20091112_RATP_SCD_0593	25	14	elle	NULL	cln	NULL	B_GN	SUJ	15	idtext0041	cln	#3#f#s##	spk2	62.3	62.42	0.01	_
20091112_RATP_SCD_0593	25	15	va	NULL	v	NULL	B_GVf	OBJ	13	idtext0041	aller	P#3##s##	spk2	62.43	62.6	0.01	_
20091112_RATP_SCD_0593	25	16	rester	NULL	vinf	NULL	I_GVf	OBJ	15	idtext0041	rester	W#####	spk2	62.61	62.95	0.01	/
20091112_RATP_SCD_0593	25	17	mais	NULL	coo	NULL	B_NULL	NOLINK	0	idtext0041	mais	#####	spk2	62.96	63.02	0.01	_
20091112_RATP_SCD_0593	25	18	euh	DISF_M	pres	NULL	NULL	NOLINK	0	idtext0041	euh	#####	spk2	63.03	63.18	0.14	_
20091112_RATP_SCD_0593	25	19	c'	NULL	cln	NULL	B_GN	SUJ_IMP	20	idtext0042	ce	###s##	spk2	63.32	63.39	0.01	_
20091112_RATP_SCD_0593	25	20	est	NULL	v	NULL	B_GVf	ROOT	0	idtext0042	être	P#3##s##	spk2	63.4	63.59	0.01	_
20091112_RATP_SCD_0593	25	21	un	NULL	det	NULL	B_GN	DET	22	idtext0042	un	##m#s##i	spk2	63.6	63.77	0.01	_
20091112_RATP_SCD_0593	25	22	sac	NULL	nc	NULL	I_GN	ATS	20	idtext0042	sac	##m#s##	spk2	63.78	63.99	0.01	_
20091112_RATP_SCD_0593	25	23	noir	NULL	adj	NULL	I_GN	MOD	22	idtext0042	noir	##m#s##	spk2	64.0	64.46	0.01	//
20091112_RATP_SCD_0593	25	24	euh	DISF_M	pres	NULL	NULL	NOLINK	0	idtext0042	euh	#####	spk2	64.47	65.19	0.04	_
20091112_RATP_SCD_0593	25	25	un+petit+peu	NULL	adv	NULL	B_GADJ	MOD	26	idtext0043	un+petit+peu	#####	spk2	65.23	65.71	0.01	_
20091112_RATP_SCD_0593	25	26	matelassé	NULL	adj	NULL	I_GADJ	ROOT	0	idtext0043	matelassé	##m#s##	spk2	65.72	66.54	0.05	/
20091112_RATP_SCD_0593	25	27	qui	NULL	prorel	NULL	B_NULL	SUJ	28	idtext0044	qui	#####	spk2	66.59	66.69	0.01	_
20091112_RATP_SCD_0593	25	28	est	NULL	v	NULL	B_GVfn	ROOT	0	idtext0044	être	P#3##s##	spk2	66.7	66.92	0.01	_
20091112_RATP_SCD_0593	25	29	pas	NULL	advneg	NULL	I_GVfn	MOD	28	idtext0044	pas	#####	spk2	66.93	67.06	0.01	_
20091112_RATP_SCD_0593	25	30	très	NULL	adv	NULL	B_GADJ	MOD	31	idtext0044	très	#####	spk2	67.07	67.27	0.01	_
20091112_RATP_SCD_0593	25	31	grand	NULL	adj	NULL	I_GADJ	ATS	28	idtext0044	grand	##m#s##	spk2	67.28	67.51	0.01	_
20091112_RATP_SCD_0593	25	32	il	NULL	cln	NULL	B_GN	SUJ	33	idtext0044	cln	#3#m#s##	spk2	67.52	67.57	0.01	_
20091112_RATP_SCD_0593	25	33	doit	NULL	v	NULL	B_GVf	ROOT	0	idtext0044	devoir	P#3##s##	spk2	67.58	67.67	0.01	_
20091112_RATP_SCD_0593	25	34	faire	NULL	vinf	NULL	I_GVf	OBJ	33	idtext0044	faire	W#####	spk2	67.68	68.05	0.01	_
20091112_RATP_SCD_0593	25	35	euh	DISF_M	pres	NULL	NULL	NOLINK	0	idtext0044	euh	#####	spk2	68.06	68.15	0.11	_
20091112_RATP_SCD_0593	25	36	enfin	NULL	adv	NULL	B_GADV	NOLINK	0	idtext0045	enfin	#####	spk2	68.26	69.08	0.04	_
20091112_RATP_SCD_0593	25	37	il	NULL	cln	NULL	B_GN	SUJ	38	idtext0046	cln	#3#m#s##	spk2	69.12	69.19	0.01	_
20091112_RATP_SCD_0593	25	38	est	NULL	v	NULL	B_GVfn	ROOT	0	idtext0046	être	P#3##s##	spk2	69.2	69.29	0.01	_
20091112_RATP_SCD_0593	25	39	pas	NULL	advneg	NULL	I_GVfn	MOD	38	idtext0046	pas	#####	spk2	69.3	69.39	0.01	_
20091112_RATP_SCD_0593	25	40	gigantesque	NULL	adj	NULL	B_GADJ	ATS	38	idtext0046	gigantesque	###s##	spk2	69.4	69.96	0.01	_
20091112_RATP_SCD_0593	25	41	il	NULL	cln	NULL	B_GN	SUJ	42	idtext0046	cln	#3#m#s##	spk2	69.97	70.02	0.01	_
20091112_RATP_SCD_0593	25	42	doit	NULL	v	NULL	B_GVf	ROOT	0	idtext0046	devoir	P#3##s##	spk2	70.03	70.12	0.01	_
20091112_RATP_SCD_0593	25	43	faire	NULL	vinf	NULL	I_GVf	OBJ	42	idtext0046	faire	W#####	spk2	70.13	70.27	0.01	_
20091112_RATP_SCD_0593	25	44	la	NULL	det	NULL	B_GN	DET	45	idtext0046	le	##m#s##d	spk2	70.28	70.39	0.01	_
20091112_RATP_SCD_0593	25	45	taille	NULL	nc	NULL	I_GN	OBJ	43	idtext0046	taille	##f#s##	spk2	70.4	70.57	0.01	_
20091112_RATP_SCD_0593	25	46	d'	NULL	prep	NULL	B_GP	DEP	45	idtext0046	d'	#####	spk2	70.58	70.61	0.01	_
20091112_RATP_SCD_0593	25	47	une	NULL	det	NULL	I_GP	DET	48	idtext0046	un	##f#s##i	spk2	70.62	70.72	0.01	_
20091112_RATP_SCD_0593	25	48	feuille	NULL	nc	NULL	I_GP	OBJ	46	idtext0046	feuille	##f#s##	spk2	70.73	70.99	0.01	_
20091112_RATP_SCD_0593	25	49	A4	NULL	adj	NULL	I_GP	MOD	48	idtext0046	A4	#####	spk2	71.0	71.32	0.04	_
20091112_RATP_SCD_0593	25	50	et	NULL	coo	NULL	B_NULL	ROOT	0	idtext0047	et	#####	spk2	71.36	71.44	0.01	_
20091112_RATP_SCD_0593	25	51	il	NULL	cln	NULL	B_GN	SUJ_IMP	53	idtext0047	cln	#3#m#s##	spk2	71.45	71.69	0.01	_
20091112_RATP_SCD_0593	25	52	y	NULL	clo	NULL	B_GN	AFF	53	idtext0047	y	#####	spk2	71.7	71.72	0.01	_
20091112_RATP_SCD_0593	25	53	a	NULL	v	NULL	B_GVf	DEP_COORD	50	idtext0047	avoir	P#3##s##	spk2	71.73	71.75	0.01	_
20091112_RATP_SCD_0593	25	54	une	DISF_R	det	NULL	NULL	NOLINK	0	idtext0047	un	##f#s##i	spk2	71.76	71.81	0.01	_
20091112_RATP_SCD_0593	25	55	euh	DISF_M	pres	NULL	NULL	NOLINK	0	idtext0047	euh	#####	spk2	71.82	71.84	0.01	_
20091112_RATP_SCD_0593	25	56	une	NULL	det	NULL	I_GP	DET	57	idtext0047	un	##f#s##i	spk2	71.85	72.29	0.01	_
20091112_RATP_SCD_0593	25	57	chaîne	NULL	nc	NULL	I_GP	OBJ	53	idtext0047	chaîne	##f#s##	spk2	72.3	72.77	?	//

20091112_RATP_SCD_0593	26	1	d'accord	NULL	adv	NULL	B_GADV	NOLINK	0	idtext0048	d'accord	#####	spk1	73.29	73.76	?	//

20091112_RATP_SCD_0593	27	1	NNAAMMEE	NULL	np	B_HU	B_GN	ROOT	0	idtext0049	ANONYM	NULL	spk1	74.09	74.28	0.06	_
20091112_RATP_SCD_0593	27	2	c'	NULL	cln	NULL	B_GN	SUJ_IMP	3	idtext0050	ce	###s##	spk1	74.34	74.36	0.01	_
20091112_RATP_SCD_0593	27	3	est	NULL	v	NULL	B_GVf	ROOT	0	idtext0050	être	P#3##s##	spk1	74.37	74.42	0.01	_
20091112_RATP_SCD_0593	27	4	bien	NULL	adv	NULL	B_GADV	ATS	3	idtext0050	bien	#####	spk1	74.43	74.64	0.04	_
20091112_RATP_SCD_0593	27	5	NNAAMMEE	NULL	np	B_HU	B_GN	ROOT	0	idtext0051	ANONYM	NULL	spk1	74.68	75.13	?	//

20091112_RATP_SCD_0593	28	1	non	NULL	adv	NULL	B_GADV	NOLINK	0	idtext0052	non	#####	spk2	75.19	75.33	?	_

20091112_RATP_SCD_0593	29	1	NNAAMMEE	NULL	np	B_HU	B_GN	ROOT	0	idtext0053	ANONYM	NULL	spk1	75.38	75.84	?	//

20091112_RATP_SCD_0593	30	1	non	DISF_R	adv	NULL	NULL	NOLINK	0	idtext0054	non	#####	spk2	76.33	76.46	0.01	_
20091112_RATP_SCD_0593	30	2	non	NULL	adv	NULL	B_GADV	NOLINK	0	idtext0054	non	#####	spk2	76.47	76.73	0.33	_
20091112_RATP_SCD_0593	30	3	NNAAMMEE	NULL	np	B_HU	B_GN	ROOT	0	idtext0055	ANONYM	NULL	spk2	77.06	77.25	0.07	_
20091112_RATP_SCD_0593	30	4	ça	NULL	pro	NULL	B_GN	SUJ_IMP	6	idtext0056	ça	#####	spk2	77.32	77.4	0.01	_
20091112_RATP_SCD_0593	30	5	c'	NULL	cln	NULL	B_GN	SUJ_IMP	6	idtext0056	ce	###s##	spk2	77.41	77.46	0.01	_
20091112_RATP_SCD_0593	30	6	est	NULL	v	NULL	B_GVf	ROOT	0	idtext0056	être	P#3##s##	spk2	77.47	77.55	0.01	_
20091112_RATP_SCD_0593	30	7	son	NULL	det	NULL	B_GN	DET	8	idtext0056	son	###s##o	spk2	77.56	77.75	0.01	_
20091112_RATP_SCD_0593	30	8	prénom	NULL	nc	NULL	I_GN	ATS	6	idtext0056	prénom	##m#s##	spk2	77.76	78.07	0.01	_
20091112_RATP_SCD_0593	30	9	et	NULL	coo	NULL	B_NULL	NOLINK	0	idtext0056	et	#####	spk2	78.08	78.22	0.05	_
20091112_RATP_SCD_0593	30	10	NNAAMMEE	NULL	np	B_HU	B_GN	ROOT	0	idtext0057	ANONYM	NULL	spk2	78.27	78.72	0.04	_
20091112_RATP_SCD_0593	30	11	c'	NULL	cln	NULL	B_GN	SUJ_IMP	12	idtext0058	ce	###s##	spk2	78.76	78.78	0.01	_
20091112_RATP_SCD_0593	30	12	est	NULL	v	NULL	B_GVf	ROOT	0	idtext0058	être	P#3##s##	spk2	78.79	78.85	0.32	_
20091112_RATP_SCD_0593	30	13	NNAAMMEE	NULL	np	B_HU	B_GN	ROOT	0	idtext0059	ANONYM	NULL	spk2	79.17	79.36	?	//

20091112_RATP_SCD_0593	31	1	NNAAMMEE	NULL	np	B_HU	B_GN	ROOT	0	idtext0060	ANONYM	NULL	spk1	80.13	80.32	?	//

20091112_RATP_SCD_0593	32	1	NNAAMMEE	NULL	np	B_HU	B_GN	ROOT	0	idtext0061	ANONYM	NULL	spk2	80.95	81.27	?	//

20091112_RATP_SCD_0593	33	1	d'accord	NULL	adv	NULL	B_GADV	NOLINK	0	idtext0062	d'accord	#####	spk1	81.31	81.78	?	//

20091112_RATP_SCD_0593	34	1	NNAAMMEE	NULL	np	B_HU	B_GN	ROOT	0	idtext0063	ANONYM	NULL	spk2	83.16	83.35	?	//

20091112_RATP_SCD_0593	35	1	c'	NULL	cln	NULL	B_GN	SUJ_IMP	2	idtext0064	ce	###s##	spk1	83.43	83.52	0.01	_
20091112_RATP_SCD_0593	35	2	est	NULL	v	NULL	B_GVf	ROOT	0	idtext0064	être	P#3##s##	spk1	83.53	83.79	0.30	_
20091112_RATP_SCD_0593	35	3	NNAAMMEE	NULL	np	B_HU	B_GN	ROOT	0	idtext0065	ANONYM	NULL	spk1	84.09	84.28	?	//

20091112_RATP_SCD_0593	36	1	NNAAMMEE	NULL	np	B_HU	B_GN	ROOT	0	idtext0066	ANONYM	NULL	spk1	85.95	86.14	?	//

20091112_RATP_SCD_0593	37	1	non	NULL	adv	NULL	B_GADV	NOLINK	0	idtext0067	non	#####	spk2	86.68	86.83	0.32	_
20091112_RATP_SCD_0593	37	2	NNAAMMEE	NULL	np	B_HU	B_GN	ROOT	0	idtext0068	ANONYM	NULL	spk2	87.15	87.34	?	_

20091112_RATP_SCD_0593	38	1	ah+ben	DISF_M	pres	NULL	NULL	NOLINK	0	idtext0069	ah+ben	#####	spk1	87.57	87.89	0.01	/
20091112_RATP_SCD_0593	38	2	dis	NULL	v	NULL	B_GVf	ROOT	0	idtext0069	dire	PJ#12##s##	spk1	87.9	88.03	0.01	_
20091112_RATP_SCD_0593	38	3	donc	NULL	coo	NULL	B_NULL	COORD	2	idtext0069	donc	#####	spk1	88.04	88.26	0.01	_
20091112_RATP_SCD_0593	38	4	je	NULL	cln	NULL	B_GN	SUJ	5	idtext0069	cln	#1##s##	spk1	88.27	88.54	0.01	_
20091112_RATP_SCD_0593	38	5	suis	NULL	v	NULL	B_GVfn	DEP_COORD	3	idtext0069	être	P#1##s##	spk1	88.55	88.66	0.01	_
20091112_RATP_SCD_0593	38	6	pas	NULL	advneg	NULL	I_GVfn	MOD	5	idtext0069	pas	#####	spk1	88.67	88.99	0.10	_
20091112_RATP_SCD_0593	38	7	voilà	DISF_M	pres	NULL	NULL	NOLINK	0	idtext0070	voilà	#####	spk1	89.09	90.07	0.04	_
20091112_RATP_SCD_0593	38	8	ça	NULL	pro	NULL	B_GN	SUJ_IMP	10	idtext0071	ça	#####	spk1	90.11	90.16	0.01	_
20091112_RATP_SCD_0593	38	9	y	NULL	clo	NULL	B_GN	AFF	10	idtext0071	y	#####	spk1	90.17	90.23	0.01	_
20091112_RATP_SCD_0593	38	10	est	NULL	v	NULL	B_GVf	ROOT	0	idtext0071	être	P#3##s##	spk1	90.24	90.33	0.01	_
20091112_RATP_SCD_0593	38	11	cette	NULL	det	NULL	B_GN	DET	12	idtext0071	cet	##f#s##e	spk1	90.34	90.65	0.01	_
20091112_RATP_SCD_0593	38	12	fois-ci	NULL	nc	NULL	I_GN	ATS	10	idtext0071	fois-ci	#####	spk1	90.66	90.94	0.01	/
20091112_RATP_SCD_0593	38	13	ça	NULL	pro	NULL	I_GN	SUJ_IMP	14	idtext0071	ça	#####	spk1	90.95	91.05	0.01	_
20091112_RATP_SCD_0593	38	14	doit	NULL	v	NULL	B_GVf	ROOT	0	idtext0071	devoir	P#3##s##	spk1	91.06	91.16	0.01	_
20091112_RATP_SCD_0593	38	15	être	NULL	vinf	NULL	I_GVf	OBJ	14	idtext0071	être	W#####	spk1	91.17	91.31	0.01	_
20091112_RATP_SCD_0593	38	16	bon	NULL	adj	NULL	B_GADJ	ATS	15	idtext0071	bon	##m#s##	spk1	91.32	91.46	0.32	_
20091112_RATP_SCD_0593	38	17	NNAAMMEE	NULL	np	B_HU	B_GN	ROOT	0	idtext0072	ANONYM	NULL	spk1	91.78	91.97	?	//

20091112_RATP_SCD_0593	39	1	c'	NULL	cln	NULL	B_GN	SUJ_IMP	2	idtext0073	ce	###s##	spk2	92.02	92.05	0.01	_
20091112_RATP_SCD_0593	39	2	est	NULL	v	NULL	B_GVf	ROOT	0	idtext0073	être	P#3##s##	spk2	92.06	92.27	0.01	_
20091112_RATP_SCD_0593	39	3	ça	NULL	pro	NULL	B_GN	ATS	2	idtext0073	ça	#####	spk2	92.28	92.42	0.01	_
20091112_RATP_SCD_0593	39	4	tout+à+fait	NULL	adv	NULL	B_GADV	NOLINK	0	idtext0073	tout+à+fait	#####	spk2	92.43	93.04	?	/

20091112_RATP_SCD_0593	40	1	d'accord	NULL	adv	NULL	B_GADV	MOD	2	idtext0074	d'accord	#####	spk1	93.31	93.75	0.01	_
20091112_RATP_SCD_0593	40	2	alors	NULL	adv	NULL	I_GADV	ROOT	0	idtext0074	alors	#####	spk1	93.76	94.35	0.05	_
20091112_RATP_SCD_0593	40	3	euh	DISF_M	pres	NULL	NULL	NOLINK	0	idtext0075	euh	#####	spk1	94.4	95.4	?	//

20091112_RATP_SCD_0593	41	1	alors	NULL	adv	NULL	B_GADV	NOLINK	0	idtext0076	alors	#####	spk1	97.56	97.68	0.01	_
20091112_RATP_SCD_0593	41	2	un	NULL	det	NULL	B_GN	DET	3	idtext0076	un	##m#s##i	spk1	97.69	97.82	0.01	_
20091112_RATP_SCD_0593	41	3	instant	NULL	nc	NULL	I_GN	ROOT	0	idtext0076	instant	##m#s##	spk1	97.83	98.08	0.01	_
20091112_RATP_SCD_0593	41	4	s'il+vous+plaît	NULL	adv	NULL	B_GADV	NOLINK	0	idtext0076	s'il+vous+plaît	#####	spk1	98.09	98.61	0.08	_
20091112_RATP_SCD_0593	41	5	je	NULL	cln	NULL	B_GN	SUJ	6	idtext0077	cln	#1##s##	spk1	98.69	98.71	0.01	_
20091112_RATP_SCD_0593	41	6	vais	NULL	v	NULL	B_GVf	ROOT	0	idtext0077	aller	P#1##s##	spk1	98.72	98.77	0.01	_
20091112_RATP_SCD_0593	41	7	rechercher	NULL	vinf	NULL	I_GVf	OBJ	6	idtext0077	rechercher	W#####	spk1	98.78	99.13	0.01	_
20091112_RATP_SCD_0593	41	8	sur	NULL	prep	NULL	B_GP	P_OBJ	6	idtext0077	sur	#####	spk1	99.14	99.29	0.01	_
20091112_RATP_SCD_0593	41	9	le	NULL	det	NULL	I_GP	DET	10	idtext0077	le	##m#s##d	spk1	99.3	99.32	0.01	_
20091112_RATP_SCD_0593	41	10	réseau	NULL	nc	NULL	I_GP	OBJ	8	idtext0077	réseau	##m#s##	spk1	99.33	99.75	?	//

20091112_RATP_SCD_0593	42	1	bien+sûr	NULL	adv	NULL	B_GADV	NOLINK	0	idtext0078	bien+sûr	#####	spk2	99.87	100.37	0.01	_
20091112_RATP_SCD_0593	42	2	madame	NULL	nc	NULL	B_GN	NOLINK	0	idtext0078	Monsieur	##f#s##	spk2	100.38	100.57	0.01	//
20091112_RATP_SCD_0593	42	3	merci	NULL	adv	NULL	B_GADV	MOD	4	idtext0078	merci	#####	spk2	100.58	100.81	0.01	_
20091112_RATP_SCD_0593	42	4	beaucoup	NULL	adv	NULL	I_GADV	ROOT	0	idtext0078	beaucoup	#####	spk2	100.82	101.11	?	//

20091112_RATP_SCD_0593	43	1	monsieur	NULL	nc	NULL	B_GN	NOLINK	0	idtext0079	Monsieur	##m#s##	spk1	136.51	137.33	?	//

20091112_RATP_SCD_0593	44	1	oui	NULL	adv	NULL	B_GADV	NOLINK	0	idtext0080	oui	#####	spk2	137.44	137.88	?	//

20091112_RATP_SCD_0593	45	1	oui	NULL	adv	NULL	B_GADV	NOLINK	0	idtext0081	oui	#####	spk1	137.92	138.15	0.15	_
20091112_RATP_SCD_0593	45	2	pour	NULL	prep	NULL	B_GP	ROOT	0	idtext0082	pour	#####	spk1	138.3	138.49	0.01	_
20091112_RATP_SCD_0593	45	3	le	NULL	det	NULL	I_GP	DET	4	idtext0082	le	##m#s##d	spk1	138.5	138.52	0.01	_
20091112_RATP_SCD_0593	45	4	moment	NULL	nc	NULL	I_GP	OBJ	2	idtext0082	moment	##m#s##	spk1	138.53	138.95	0.01	//
20091112_RATP_SCD_0593	45	5	rien	NULL	pro	NULL	I_GP	NOLINK	0	idtext0082	rien	#####	spk1	138.96	139.25	0.01	_
20091112_RATP_SCD_0593	45	6	à	NULL	prep	NULL	B_NULL	NOLINK	0	idtext0082	à	#####	spk1	139.26	139.44	0.08	_
20091112_RATP_SCD_0593	45	7	le	NULL	det	NULL	B_GN	DET	8	idtext0083	le	##m#s##d	spk1	139.52	139.74	0.01	_
20091112_RATP_SCD_0593	45	8	sac	NULL	nc	NULL	I_GN	SUJ	13	idtext0083	sac	##m#s##	spk1	139.75	139.96	0.01	_
20091112_RATP_SCD_0593	45	9	n'	NULL	clneg	NULL	B_GVfn	MOD	10	idtext0083	n'	#####	spk1	139.97	140.03	0.01	_
20091112_RATP_SCD_0593	45	10	a	NULL	v	NULL	I_GVfn	AUX	12	idtext0083	avoir	P#3##s##	spk1	140.04	140.1	0.01	_
20091112_RATP_SCD_0593	45	11	pas	NULL	advneg	NULL	I_GVfn	MOD	10	idtext0083	pas	#####	spk1	140.11	140.2	0.01	_
20091112_RATP_SCD_0593	45	12	été	NULL	vppart	NULL	I_GVfn	AUX	13	idtext0083	être	K#####	spk1	140.21	140.4	0.01	_
20091112_RATP_SCD_0593	45	13	retrouvé	NULL	vppart	NULL	I_GVfn	ROOT	0	idtext0083	retrouver	K##m#s##	spk1	140.41	140.85	?	//

20091112_RATP_SCD_0593	46	1	donc	NULL	coo	NULL	B_NULL	NOLINK	0	idtext0084	donc	#####	spk1	141.28	141.37	0.01	_
20091112_RATP_SCD_0593	46	2	là	NULL	adv	NULL	B_GADV	MOD	3	idtext0084	là	#####	spk1	141.38	141.53	0.01	_
20091112_RATP_SCD_0593	46	3	comme+ça	NULL	adv	NULL	I_GADV	ROOT	0	idtext0084	comme+ça	#####	spk1	141.54	141.8	?	//

20091112_RATP_SCD_0593	47	1	d'accord	NULL	adv	NULL	B_GADV	NOLINK	0	idtext0085	d'accord	#####	spk2	141.34	141.8	?	//

20091112_RATP_SCD_0593	48	1	fait	NULL	v	NULL	B_GVf	NOLINK	0	idtext0086	faire	P#3##s##	spk1	141.85	142.47	0.01	_
20091112_RATP_SCD_0593	48	2	un	NULL	det	NULL	B_GN	DET	3	idtext0086	un	##m#s##i	spk1	142.48	142.61	0.01	_
20091112_RATP_SCD_0593	48	3	quart	NULL	nc	NULL	I_GN	SUJ	7	idtext0086	quart	##m#s##	spk1	142.62	142.77	0.01	_
20091112_RATP_SCD_0593	48	4	d'	NULL	prep	NULL	B_GP	DEP	3	idtext0086	d'	#####	spk1	142.78	142.82	0.01	_
20091112_RATP_SCD_0593	48	5	heure	NULL	nc	NULL	I_GP	OBJ	4	idtext0086	heure	##f#s##	spk1	142.83	142.94	0.01	_
20091112_RATP_SCD_0593	48	6	c'	NULL	cln	NULL	B_GN	SUJ_IMP	7	idtext0086	ce	###s##	spk1	142.95	142.97	0.01	_
20091112_RATP_SCD_0593	48	7	est	NULL	v	NULL	B_GVf	ROOT	0	idtext0086	être	P#3##s##	spk1	142.98	143.07	0.01	_
20091112_RATP_SCD_0593	48	8	ça	NULL	pro	NULL	B_GN	ATS	7	idtext0086	ça	#####	spk1	143.08	143.3	?	_

20091112_RATP_SCD_0593	49	1	tout+à+fait	NULL	adv	NULL	B_GADV	MOD	2	idtext0087	tout+à+fait	#####	spk2	144.43	144.82	0.01	_
20091112_RATP_SCD_0593	49	2	oui	NULL	adv	NULL	I_GADV	ROOT	0	idtext0087	oui	#####	spk2	144.83	144.91	?	_

20091112_RATP_SCD_0593	50	1	d'accord	NULL	adv	NULL	B_GADV	NOLINK	0	idtext0088	d'accord	#####	spk1	145.36	145.87	0.04	_
20091112_RATP_SCD_0593	50	2	donc	NULL	coo	NULL	B_NULL	ROOT	0	idtext0089	donc	#####	spk1	145.91	146.21	0.01	_
20091112_RATP_SCD_0593	50	3	euh	DISF_M	pres	NULL	NULL	NOLINK	0	idtext0089	euh	#####	spk1	146.22	146.4	0.01	_
20091112_RATP_SCD_0593	50	4	je	NULL	cln	NULL	B_GN	SUJ	6	idtext0089	cln	#1##s##	spk1	146.41	146.46	0.01	_
20091112_RATP_SCD_0593	50	5	vous	NULL	clo	NULL	B_GN	OBJ	6	idtext0089	cln	#2##p##	spk1	146.47	146.56	0.01	_
20091112_RATP_SCD_0593	50	6	invite	NULL	v	NULL	B_GVf	DEP_COORD	2	idtext0089	inviter	PS#13##s##	spk1	146.57	146.81	0.01	_
20091112_RATP_SCD_0593	50	7	à	NULL	prep	NULL	B_GP	A_OBJ	6	idtext0089	à	#####	spk1	146.82	146.88	0.01	_
20091112_RATP_SCD_0593	50	8	nous	NULL	pro	NULL	I_GP	OBJ	7	idtext0089	nous	#####	spk1	146.89	147.32	0.04	_
20091112_RATP_SCD_0593	50	9	à	NULL	prep	NULL	B_GP	ROOT	0	idtext0090	à	#####	spk1	147.36	147.4	0.01	_
20091112_RATP_SCD_0593	50	10	rappeler	NULL	vinf	NULL	I_GP	OBJ	9	idtext0090	rappeler	W#####	spk1	147.41	147.93	0.01	_
20091112_RATP_SCD_0593	50	11	d'	NULL	prep	NULL	B_NULL	OBJ	10	idtext0090	d'	#####	spk1	147.94	147.96	0.01	_
20091112_RATP_SCD_0593	50	12	ici	NULL	adv	NULL	B_GADV	NOLINK	0	idtext0090	ici	#####	spk1	147.97	148.4	0.01	_
20091112_RATP_SCD_0593	50	13	euh	DISF_M	pres	NULL	NULL	NOLINK	0	idtext0090	euh	#####	spk1	148.41	148.94	?	//

20091112_RATP_SCD_0593	51	1	d'	NULL	prep	NULL	B_NULL	ROOT	0	idtext0091	d'	#####	spk1	149.25	149.27	0.01	_
20091112_RATP_SCD_0593	51	2	ici	NULL	adv	NULL	B_GADV	MOD	5	idtext0091	ici	#####	spk1	149.28	149.45	0.01	_
20091112_RATP_SCD_0593	51	3	une	NULL	det	NULL	B_GN	DET	5	idtext0091	un	##f#s##i	spk1	149.46	149.53	0.01	_
20091112_RATP_SCD_0593	51	4	petite	NULL	adj	NULL	I_GN	MOD	5	idtext0091	petit	##f#s##	spk1	149.54	149.88	0.01	_
20091112_RATP_SCD_0593	51	5	heure	NULL	nc	NULL	I_GN	OBJ	1	idtext0091	heure	##f#s##	spk1	149.89	150.06	?	//

20091112_RATP_SCD_0593	52	1	est-ce+que	NULL	pri	NULL	B_NULL	NOLINK	0	idtext0092	est-ce+que	#####	spk2	150.46	150.73	0.01	_
20091112_RATP_SCD_0593	52	2	il	NULL	cln	NULL	B_GN	SUJ_IMP	4	idtext0092	cln	#3#m#s##	spk2	150.74	150.9	0.01	_
20091112_RATP_SCD_0593	52	3	y	NULL	clo	NULL	B_GN	AFF	4	idtext0092	y	#####	spk2	150.91	150.95	0.01	_
20091112_RATP_SCD_0593	52	4	a	NULL	v	NULL	B_GVf	ROOT	0	idtext0092	avoir	P#3##s##	spk2	150.96	151.01	0.01	_
20091112_RATP_SCD_0593	52	5	un	NULL	det	NULL	B_GN	DET	6	idtext0092	un	##m#s##i	spk2	151.02	151.04	0.01	_
20091112_RATP_SCD_0593	52	6	numéro	NULL	nc	NULL	I_GN	OBJ	4	idtext0092	numéro	##m#s##	spk2	151.05	151.38	0.01	_
20091112_RATP_SCD_0593	52	7	direct	NULL	adj	NULL	I_GP	MOD	6	idtext0092	direct	##m#s##	spk2	151.39	151.7	0.01	/
20091112_RATP_SCD_0593	52	8	où	NULL	prorel	NULL	B_NULL	P_OBJ_LOC	12	idtext0092	où	#####	spk2	151.71	151.76	0.01	_
20091112_RATP_SCD_0593	52	9	je	NULL	cln	NULL	B_GN	SUJ	10	idtext0092	cln	#1##s##	spk2	151.77	151.84	0.01	_
20091112_RATP_SCD_0593	52	10	peux	NULL	v	NULL	B_GVf	MOD_REL	6	idtext0092	pouvoir	P#12##s##	spk2	151.85	151.94	0.01	_
20091112_RATP_SCD_0593	52	11	vous	NULL	clo	NULL	B_GN	A_OBJ	10	idtext0092	cln	#2##p##	spk2	151.95	152.07	0.01	_
20091112_RATP_SCD_0593	52	12	joindre	NULL	vinf	NULL	B_GVi	OBJ	10	idtext0092	joindre	W#####	spk2	152.08	152.31	0.01	_
20091112_RATP_SCD_0593	52	13	madame	NULL	nc	NULL	B_GN	NOLINK	0	idtext0092	Monsieur	##f#s##	spk2	152.32	152.66	?	//

20091112_RATP_SCD_0593	53	1	euh	DISF_M	pres	NULL	NULL	NOLINK	0	idtext0093	euh	#####	spk1	153.21	153.24	0.01	_
20091112_RATP_SCD_0593	53	2	non	NULL	adv	NULL	B_GADV	NOLINK	0	idtext0093	non	#####	spk1	153.25	153.44	0.01	_
20091112_RATP_SCD_0593	53	3	c'	NULL	cln	NULL	B_GN	SUJ_IMP	4	idtext0093	ce	###s##	spk1	153.45	153.56	0.01	_
20091112_RATP_SCD_0593	53	4	est	NULL	v	NULL	B_GVf	ROOT	0	idtext0093	être	P#3##s##	spk1	153.57	153.64	0.01	_
20091112_RATP_SCD_0593	53	5	le	NULL	det	NULL	B_NULL	ATS	4	idtext0093	le	##m#s##d	spk1	153.65	154.08	0.04	_
20091112_RATP_SCD_0593	53	6	c'	NULL	cln	NULL	B_GN	SUJ_IMP	7	idtext0094	ce	###s##	spk1	154.12	154.19	0.01	_
20091112_RATP_SCD_0593	53	7	est	NULL	v	NULL	B_GVf	ROOT	0	idtext0094	être	P#3##s##	spk1	154.2	154.25	0.01	_
20091112_RATP_SCD_0593	53	8	le	NULL	det	NULL	B_GN	DET	9	idtext0094	le	##m#s##d	spk1	154.26	154.29	0.01	_
20091112_RATP_SCD_0593	53	9	trente-deux+quarante-six	NULL	nc	B_TEL	I_GN	ATS	7	idtext0094	trente-deux+quarante-six	#####	spk1	154.3	155.21	?	_

20091112_RATP_SCD_0593	54	1	donc	NULL	coo	NULL	B_NULL	ROOT	0	idtext0095	donc	#####	spk1	155.32	155.5	0.01	_
20091112_RATP_SCD_0593	54	2	vous	NULL	cln	NULL	B_GN	SUJ	4	idtext0095	cln	#2##p##	spk1	155.51	155.58	0.01	_
20091112_RATP_SCD_0593	54	3	m'	NULL	clo	NULL	B_GN	OBJ	4	idtext0095	cla	#1##s##	spk1	155.59	155.66	0.01	_
20091112_RATP_SCD_0593	54	4	aurez	NULL	v	NULL	B_GVf	DEP_COORD	1	idtext0095	avoir	F#2##p##	spk1	155.67	155.8	0.01	_
20091112_RATP_SCD_0593	54	5	moi	NULL	pro	NULL	B_GN	OBJ	4	idtext0095	moi	#####	spk1	155.81	156.44	?	_

20091112_RATP_SCD_0593	55	1	trente-deux+quarante-six	NULL	nc	B_TEL	B_GN	NOLINK	0	idtext0096	trente-deux+quarante-six	#####	spk2	155.3	156.44	?	_

20091112_RATP_SCD_0593	56	1	ou	NULL	coo	NULL	B_NULL	NOLINK	0	idtext0097	ou	#####	spk1	156.85	156.87	0.01	_
20091112_RATP_SCD_0593	56	2	du+moins	NULL	adv	NULL	B_GADV	NOLINK	0	idtext0097	du+moins	#####	spk1	156.88	157.42	?	_

20091112_RATP_SCD_0593	57	1	d'accord	NULL	adv	NULL	B_GADV	NOLINK	0	idtext0098	d'accord	#####	spk2	156.86	157.42	?	//

20091112_RATP_SCD_0593	58	1	un	NULL	det	NULL	B_NULL	ROOT	0	idtext0099	un	##m#s##i	spk1	157.46	157.54	0.01	_
20091112_RATP_SCD_0593	58	2	de	NULL	prep	NULL	B_GP	DEP	1	idtext0099	de	#####	spk1	157.55	157.57	0.01	_
20091112_RATP_SCD_0593	58	3	mes	NULL	det	NULL	I_GP	DET	4	idtext0099	mon	###p##o	spk1	157.58	157.67	0.01	_
20091112_RATP_SCD_0593	58	4	collègues	NULL	nc	NULL	I_GP	OBJ	2	idtext0099	collègue	###p##	spk1	157.68	158.17	?	//

20091112_RATP_SCD_0593	59	1	OK	NULL	adv	NULL	B_GADV	NOLINK	0	idtext0100	ok	#####	spk2	158.72	158.96	?	_

20091112_RATP_SCD_0593	60	1	et+donc	NULL	coo	NULL	B_NULL	ROOT	0	idtext0101	et+donc	#####	spk1	159.0	159.46	0.01	_
20091112_RATP_SCD_0593	60	2	au+cas+où	NULL	csu	NULL	B_NULL	DEP_COORD	1	idtext0101	au+cas+où	#####	spk1	159.47	160.01	0.01	_
20091112_RATP_SCD_0593	60	3	il	NULL	cln	NULL	B_GN	SUJ	7	idtext0101	cln	#3#m#s##	spk1	160.02	160.07	0.01	_
20091112_RATP_SCD_0593	60	4	ne	NULL	clneg	NULL	B_GVfn	MOD	5	idtext0101	ne	#####	spk1	160.08	160.1	0.01	_
20091112_RATP_SCD_0593	60	5	serait	NULL	v	NULL	I_GVfn	AUX	7	idtext0101	être	C#3##s##	spk1	160.11	160.34	0.01	_
20091112_RATP_SCD_0593	60	6	pas	NULL	advneg	NULL	I_GVfn	MOD	5	idtext0101	pas	#####	spk1	160.35	160.46	0.01	_
20091112_RATP_SCD_0593	60	7	retrouvé	NULL	vppart	NULL	I_GVfn	OBJ	2	idtext0101	retrouver	K##m#s##	spk1	160.47	161.17	0.04	//
20091112_RATP_SCD_0593	60	8	euh	DISF_M	pres	NULL	NULL	NOLINK	0	idtext0102	euh	#####	spk1	161.21	161.55	0.01	_
20091112_RATP_SCD_0593	60	9	ben	DISF_M	pres	NULL	NULL	NOLINK	0	idtext0102	ben	#####	spk1	161.56	161.85	0.04	_
20091112_RATP_SCD_0593	60	10	vous	NULL	cln	NULL	B_GN	SUJ	11	idtext0103	cln	#2##p##	spk1	161.89	161.94	0.01	_
20091112_RATP_SCD_0593	60	11	pourrez	NULL	v	NULL	B_GVf	ROOT	0	idtext0103	pouvoir	F#2##p##	spk1	161.95	162.29	0.01	_
20091112_RATP_SCD_0593	60	12	appeler	NULL	vinf	NULL	I_GVf	OBJ	11	idtext0103	appeler	W#####	spk1	162.3	162.76	0.01	_
20091112_RATP_SCD_0593	60	13	euh	DISF_M	pres	NULL	NULL	NOLINK	0	idtext0103	euh	#####	spk1	162.77	162.9	0.01	_
20091112_RATP_SCD_0593	60	14	les	NULL	det	NULL	B_GN	DET	15	idtext0103	le	###p##d	spk1	162.91	163.1	0.01	_
20091112_RATP_SCD_0593	60	15	objets	NULL	nc	NULL	I_GN	OBJ	11	idtext0103	objet	##m#p##	spk1	163.11	163.32	0.01	_
20091112_RATP_SCD_0593	60	16	trouvés	NULL	adj	NULL	I_GN	MOD	15	idtext0103	trouver	K##m#p##	spk1	163.33	163.6	?	//

20091112_RATP_SCD_0593	61	1	OK	NULL	adv	NULL	B_GADV	NOLINK	0	idtext0104	ok	#####	spk2	164.22	164.58	0.06	_
20091112_RATP_SCD_0593	61	2	et	NULL	coo	NULL	B_NULL	ROOT	0	idtext0105	et	#####	spk2	164.64	164.82	0.01	_
20091112_RATP_SCD_0593	61	3	est-ce+que	NULL	pri	NULL	B_NULL	NOLINK	0	idtext0105	est-ce+que	#####	spk2	164.83	165.13	0.01	_
20091112_RATP_SCD_0593	61	4	je	NULL	cln	NULL	B_GN	SUJ	5	idtext0105	cln	#1##s##	spk2	165.14	165.26	0.01	_
20091112_RATP_SCD_0593	61	5	peux	NULL	v	NULL	B_GVf	DEP_COORD	2	idtext0105	pouvoir	P#12##s##	spk2	165.27	165.58	0.05	_
20091112_RATP_SCD_0593	61	6	oui	NULL	adv	NULL	B_GADV	NOLINK	0	idtext0106	oui	#####	spk2	165.63	165.93	0.01	_
20091112_RATP_SCD_0593	61	7	je	NULL	cln	NULL	B_GN	SUJ	8	idtext0106	cln	#1##s##	spk2	165.94	165.96	0.01	_
20091112_RATP_SCD_0593	61	8	veux	NULL	v	NULL	B_GVf	ROOT	0	idtext0106	vouloir	P#12##s##	spk2	165.97	166.05	0.01	_
20091112_RATP_SCD_0593	61	9	bien	NULL	adv	NULL	B_GADV	MOD	8	idtext0106	bien	#####	spk2	166.06	166.28	0.01	_
20091112_RATP_SCD_0593	61	10	le	NULL	det	NULL	B_GN	DET	11	idtext0106	le	##m#s##d	spk2	166.29	166.48	0.01	_
20091112_RATP_SCD_0593	61	11	numéro	NULL	nc	NULL	I_GN	OBJ	8	idtext0106	numéro	##m#s##	spk2	166.49	166.95	0.01	_
20091112_RATP_SCD_0593	61	12	euh	DISF_M	pres	NULL	NULL	NOLINK	0	idtext0106	euh	#####	spk2	166.96	166.98	0.01	_
20091112_RATP_SCD_0593	61	13	s'il+vous+plaît	NULL	adv	NULL	B_GADV	NOLINK	0	idtext0106	s'il+vous+plaît	#####	spk2	166.99	167.68	?	//

20091112_RATP_SCD_0593	62	1	alors	NULL	adv	NULL	B_GADV	NOLINK	0	idtext0107	alors	#####	spk1	167.83	168.09	0.01	_
20091112_RATP_SCD_0593	62	2	c'	NULL	cln	NULL	B_GN	SUJ_IMP	3	idtext0108	ce	###s##	spk1	168.1	168.12	0.01	_
20091112_RATP_SCD_0593	62	3	est	NULL	v	NULL	B_GVf	ROOT	0	idtext0108	être	P#3##s##	spk1	168.13	168.16	0.01	_
20091112_RATP_SCD_0593	62	4	le	NULL	det	NULL	B_GN	DET	5	idtext0108	le	##m#s##d	spk1	168.17	168.28	0.01	_
20091112_RATP_SCD_0593	62	5	zéro+huit	NULL	nc	B_TEL	I_GN	ATS	3	idtext0108	zéro+huit	#####	spk1	168.29	169.09	?	//

20091112_RATP_SCD_0593	63	1	OK	NULL	adv	NULL	B_GADV	NOLINK	0	idtext0109	ok	#####	spk2	169.59	170.36	?	_

20091112_RATP_SCD_0593	64	1	vingt+et+un	NULL	nc	NULL	B_GN	NOLINK	0	idtext0110	vingt+et+un	#####	spk1	169.43	170.36	?	_

20091112_RATP_SCD_0593	65	1	oui	NULL	adv	NULL	B_GADV	NOLINK	0	idtext0111	oui	#####	spk2	170.63	171.11	?	//

20091112_RATP_SCD_0593	66	1	zéro+zéro	NULL	nc	B_TEL	B_GN	NOLINK	0	idtext0112	zéro+zéro	#####	spk1	171.15	171.79	?	//

20091112_RATP_SCD_0593	67	1	oui	NULL	adv	NULL	B_GADV	NOLINK	0	idtext0113	oui	#####	spk2	172.43	172.8	?	//

20091112_RATP_SCD_0593	68	1	vingt-cinq	NULL	nc	NULL	B_GN	NOLINK	0	idtext0114	vingt-cinq	#####	spk1	172.85	173.51	0.12	_
20091112_RATP_SCD_0593	68	2	vingt-cinq	NULL	nc	NULL	B_GN	NOLINK	0	idtext0115	vingt-cinq	#####	spk1	173.63	174.27	?	_

20091112_RATP_SCD_0593	69	1	vingt-cinq	NULL	nc	NULL	B_GN	ROOT	0	idtext0116	vingt-cinq	#####	spk2	174.99	175.11	0.01	_
20091112_RATP_SCD_0593	69	2	vingt-cinq	NULL	nc	NULL	I_GN	MOD	1	idtext0116	vingt-cinq	#####	spk2	175.12	175.82	0.35	/
20091112_RATP_SCD_0593	69	3	et+donc	NULL	coo	NULL	B_NULL	NOLINK	0	idtext0117	et+donc	#####	spk2	176.17	176.55	0.01	_
20091112_RATP_SCD_0593	69	4	euh	DISF_M	pres	NULL	NULL	NOLINK	0	idtext0117	euh	#####	spk2	176.56	177.11	0.04	_
20091112_RATP_SCD_0593	69	5	ça	DISF_R	pro	NULL	NULL	NOLINK	0	idtext0118	ça	#####	spk2	177.15	177.31	0.01	_
20091112_RATP_SCD_0593	69	6	ça	NULL	pro	NULL	B_GN	SUJ_IMP	7	idtext0118	ça	#####	spk2	177.32	177.4	0.01	_
20091112_RATP_SCD_0593	69	7	sert	NULL	v	NULL	B_GVf	ROOT	0	idtext0118	servir	P#3##s##	spk2	177.41	177.5	0.01	_
20091112_RATP_SCD_0593	69	8	à	NULL	prep	NULL	B_GP	A_OBJ	7	idtext0118	à	#####	spk2	177.51	177.62	0.01	_
20091112_RATP_SCD_0593	69	9	rien	NULL	pro	NULL	I_GP	OBJ	8	idtext0118	rien	#####	spk2	177.63	177.74	0.01	_
20091112_RATP_SCD_0593	69	10	que	NULL	csu	NULL	B_NULL	MOD	9	idtext0118	que	#####	spk2	177.75	177.78	0.01	_
20091112_RATP_SCD_0593	69	11	je	NULL	cln	NULL	B_GN	SUJ	13	idtext0118	cln	#1##s##	spk2	177.79	177.82	0.01	_
20091112_RATP_SCD_0593	69	12	les	NULL	clo	NULL	B_GN	OBJ	13	idtext0118	cla	#3##p##	spk2	177.83	178.0	0.01	_
20091112_RATP_SCD_0593	69	13	appelle	NULL	v	NULL	B_GVf	OBJ	10	idtext0118	appeler	PS#13##s##	spk2	178.01	178.55	0.01	_
20091112_RATP_SCD_0593	69	14	sans+que	NULL	csu	NULL	B_NULL	MOD	13	idtext0118	sans+que	#####	spk2	178.56	178.76	0.01	_
20091112_RATP_SCD_0593	69	15	vous	NULL	pro	NULL	B_GN	OBJ	22	idtext0118	vous	#####	spk2	178.77	179.03	0.01	_
20091112_RATP_SCD_0593	69	16	vous	NULL	cln	NULL	B_GN	SUJ	18	idtext0118	cln	#2##p##	spk2	179.04	179.09	0.01	_
20091112_RATP_SCD_0593	69	17	me	NULL	clo	NULL	B_GN	A_OBJ	18	idtext0118	cla	#1##s##	spk2	179.1	179.14	0.01	_
20091112_RATP_SCD_0593	69	18	disiez	NULL	v	NULL	B_GVfn	OBJ	14	idtext0118	dire	I#2##p##	spk2	179.15	179.43	0.01	_
20091112_RATP_SCD_0593	69	19	pas	NULL	advneg	NULL	I_GVfn	MOD	18	idtext0118	pas	#####	spk2	179.44	179.6	0.01	_
20091112_RATP_SCD_0593	69	20	de	NULL	prep	NULL	B_GP	OBJ	18	idtext0118	de	#####	spk2	179.61	179.64	0.01	_
20091112_RATP_SCD_0593	69	21	les	NULL	clo	NULL	I_GP	OBJ	22	idtext0118	cla	#3##p##	spk2	179.65	179.82	0.01	_
20091112_RATP_SCD_0593	69	22	appeler	NULL	vinf	NULL	B_GVi	OBJ	20	idtext0118	appeler	W#####	spk2	179.83	180.25	?	//

20091112_RATP_SCD_0593	70	1	euh	DISF_M	pres	NULL	NULL	NOLINK	0	idtext0119	euh	#####	spk1	181.77	181.84	0.11	_
20091112_RATP_SCD_0593	70	2	pour	NULL	prep	NULL	B_GP	ROOT	0	idtext0120	pour	#####	spk1	181.95	182.12	0.01	_
20091112_RATP_SCD_0593	70	3	le	NULL	det	NULL	I_GP	DET	4	idtext0120	le	##m#s##d	spk1	182.13	182.22	0.01	_
20091112_RATP_SCD_0593	70	4	moment	NULL	nc	NULL	I_GP	OBJ	2	idtext0120	moment	##m#s##	spk1	182.23	182.7	0.01	_
20091112_RATP_SCD_0593	70	5	non	NULL	adv	NULL	B_GADV	NOLINK	0	idtext0120	non	#####	spk1	182.71	182.85	0.01	_
20091112_RATP_SCD_0593	70	6	parce+que	NULL	csu	NULL	B_NULL	NOLINK	0	idtext0120	parce+que	#####	spk1	182.86	183.1	0.01	_
20091112_RATP_SCD_0593	70	7	de+toutes+façons	NULL	adv	NULL	B_GADV	NOLINK	0	idtext0120	de+toutes+façons	#####	spk1	183.11	183.87	0.01	_
20091112_RATP_SCD_0593	70	8	l()	DISF_T	tronc	NULL	NULL	NOLINK	0	idtext0120	l()	#####	spk1	183.88	184.16	0.01	_
20091112_RATP_SCD_0593	70	9	le+temps+que	NULL	csu	NULL	B_NULL	NOLINK	0	idtext0120	le+temps+que	#####	spk1	184.17	185.59	0.04	_
20091112_RATP_SCD_0593	70	10	le	NULL	det	NULL	B_GN	DET	11	idtext0121	le	##m#s##d	spk1	185.63	185.94	0.01	_
20091112_RATP_SCD_0593	70	11	sac	NULL	nc	NULL	I_GN	SUJ	12	idtext0121	sac	##m#s##	spk1	185.95	186.27	0.01	_
20091112_RATP_SCD_0593	70	12	aille	NULL	v	NULL	B_GVf	ROOT	0	idtext0121	ailler	PS#13##s##	spk1	186.28	186.47	0.01	_
20091112_RATP_SCD_0593	70	13	rue	NULL	nc	B_A	B_GN	OBJ	12	idtext0121	rue	##f#s##	spk1	186.48	186.55	0.01	_
20091112_RATP_SCD_0593	70	14	des	NULL	prep	I_A	I_GN	DEP	13	idtext0121	des	#####	spk1	186.56	186.67	0.01	_
20091112_RATP_SCD_0593	70	15	Morillons	NULL	np	I_A	I_GN	OBJ	14	idtext0121	Morillons	#####	spk1	186.68	187.03	0.01	_
20091112_RATP_SCD_0593	70	16	il	NULL	cln	NULL	B_GN	SUJ_IMP	18	idtext0121	cln	#3#m#s##	spk1	187.04	187.09	0.01	_
20091112_RATP_SCD_0593	70	17	y	NULL	clo	NULL	B_GN	AFF	18	idtext0121	y	#####	spk1	187.1	187.14	0.01	_
20091112_RATP_SCD_0593	70	18	aura	NULL	v	NULL	B_GVf	ROOT	0	idtext0121	avoir	F#3##s##	spk1	187.15	187.28	0.01	_
20091112_RATP_SCD_0593	70	19	une	NULL	det	NULL	B_GN	DET	20	idtext0121	un	##f#s##i	spk1	187.29	187.38	0.01	_
20091112_RATP_SCD_0593	70	20	semaine	NULL	nc	NULL	I_GN	OBJ	18	idtext0121	semaine	##f#s##	spk1	187.39	187.87	?	//

20091112_RATP_SCD_0593	71	1	d'accord	NULL	adv	NULL	B_GADV	NOLINK	0	idtext0122	d'accord	#####	spk2	188.46	188.87	?	//

20091112_RATP_SCD_0593	72	1	le+temps+que	NULL	csu	NULL	B_NULL	ROOT	0	idtext0123	le+temps+que	#####	spk1	188.91	189.2	0.01	_
20091112_RATP_SCD_0593	72	2	ce	NULL	cln	NULL	B_GN	SUJ_IMP	4	idtext0123	ce	#####	spk1	189.21	189.31	0.01	_
20091112_RATP_SCD_0593	72	3	soit	NULL	v	NULL	B_GVf	AUX	4	idtext0123	être	S#3##s##	spk1	189.32	189.46	0.01	_
20091112_RATP_SCD_0593	72	4	enregistré	NULL	vppart	NULL	I_GVf	OBJ	1	idtext0123	enregistrer	K##m#s##	spk1	189.47	189.92	0.01	_
20091112_RATP_SCD_0593	72	5	en+fait	GREF	adv	NULL	B_GADV	NOLINK	0	idtext0123	en+fait	#####	spk1	189.93	190.14	0.01	_
20091112_RATP_SCD_0593	72	6	plutôt	NULL	adv	NULL	I_GADV	MOD	4	idtext0123	plutôt	#####	spk1	190.15	190.59	?	_

20091112_RATP_SCD_0593	73	1	OK	NULL	adv	NULL	B_GADV	NOLINK	0	idtext0124	ok	#####	spk2	190.72	191.03	?	_

20091112_RATP_SCD_0593	74	1	d'accord	NULL	adv	NULL	B_GADV	NOLINK	0	idtext0125	d'accord	#####	spk2	191.36	191.89	?	//

20091112_RATP_SCD_0593	75	1	voilà	DISF_M	pres	NULL	NULL	NOLINK	0	idtext0126	voilà	#####	spk1	191.35	191.89	?	//

20091112_RATP_SCD_0593	76	1	par+contre	NULL	adv	NULL	B_GADV	NOLINK	0	idtext0127	par+contre	#####	spk1	192.46	193.09	0.01	_
20091112_RATP_SCD_0593	76	2	n'	NULL	clneg	NULL	B_GVfn	MOD	3	idtext0127	n'	#####	spk1	193.1	193.19	0.01	_
20091112_RATP_SCD_0593	76	3	oubliez	NULL	v	NULL	I_GVfn	ROOT	0	idtext0127	oublier	P#2##p##	spk1	193.2	193.48	0.01	_
20091112_RATP_SCD_0593	76	4	pas	NULL	advneg	NULL	I_GVfn	MOD	3	idtext0127	pas	#####	spk1	193.49	193.59	0.01	_
20091112_RATP_SCD_0593	76	5	de	NULL	prep	NULL	B_GP	OBJ	3	idtext0127	de	#####	spk1	193.6	193.62	0.01	_
20091112_RATP_SCD_0593	76	6	nous	NULL	clo	NULL	I_GP	OBJ	7	idtext0127	cln	#1##p##	spk1	193.63	193.73	0.01	_
20091112_RATP_SCD_0593	76	7	rappeler	NULL	vinf	NULL	B_GVi	OBJ	5	idtext0127	rappeler	W#####	spk1	193.74	193.98	0.01	_
20091112_RATP_SCD_0593	76	8	aujourd'hui	NULL	adv	NULL	B_GADV	MOD	7	idtext0127	aujourd'hui	#####	spk1	193.99	194.5	0.01	_
20091112_RATP_SCD_0593	76	9	parce+que	NULL	csu	NULL	B_NULL	MOD	5	idtext0127	parce+que	#####	spk1	194.51	195.13	?	_

20091112_RATP_SCD_0593	77	1	euh	DISF_M	pres	NULL	NULL	NOLINK	0	idtext0128	euh	#####	spk2	192.56	195.13	?	//

20091112_RATP_SCD_0593	78	1	ben	DISF_M	pres	NULL	NULL	NOLINK	0	idtext0129	ben	#####	spk2	195.17	195.22	0.01	_
20091112_RATP_SCD_0593	78	2	je	NULL	cln	NULL	B_GN	SUJ	3	idtext0129	cln	#1##s##	spk2	195.23	195.31	0.01	_
20091112_RATP_SCD_0593	78	3	vais	NULL	v	NULL	B_GVf	ROOT	0	idtext0129	aller	P#1##s##	spk2	195.32	195.43	0.01	_
20091112_RATP_SCD_0593	78	4	vous	NULL	clo	NULL	B_GN	A_OBJ	5	idtext0129	cln	#2##p##	spk2	195.44	195.57	0.01	_
20091112_RATP_SCD_0593	78	5	rappeler	NULL	vinf	NULL	B_GVi	OBJ	3	idtext0129	rappeler	W#####	spk2	195.58	195.81	0.01	_
20091112_RATP_SCD_0593	78	6	toutes+les	NULL	det	NULL	B_GN	DET	7	idtext0129	toutes+les	#####	spk2	195.82	196.16	0.01	_
20091112_RATP_SCD_0593	78	7	heures	NULL	nc	NULL	I_GN	OBJ	5	idtext0129	heure	##f#p##	spk2	196.17	196.31	0.01	_
20091112_RATP_SCD_0593	78	8	de+toutes+façons	NULL	adv	NULL	B_GADV	MOD	5	idtext0129	de+toutes+façons	#####	spk2	196.32	196.83	0.04	_
20091112_RATP_SCD_0593	78	9	au+cas+où	NULL	csu	NULL	B_NULL	NOLINK	0	idtext0130	au+cas+où	#####	spk2	196.87	197.18	0.01	_
20091112_RATP_SCD_0593	78	10	pour	NULL	prep	NULL	B_GP	ROOT	0	idtext0130	pour	#####	spk2	197.19	197.3	0.01	_
20091112_RATP_SCD_0593	78	11	voir	NULL	vinf	NULL	I_GP	OBJ	10	idtext0130	voir	W#####	spk2	197.31	197.55	0.01	_
20091112_RATP_SCD_0593	78	12	hein	DISF_M	pres	NULL	NULL	NOLINK	0	idtext0130	hein	#####	spk2	197.56	197.69	0.01	_
20091112_RATP_SCD_0593	78	13	si	NULL	csu	NULL	B_NULL	NOLINK	0	idtext0130	si	#####	spk2	197.7	198.07	?	_

20091112_RATP_SCD_0593	79	1	eh+ben	DISF_M	pres	NULL	NULL	NOLINK	0	idtext0131	eh+ben	#####	spk1	198.28	198.49	0.01	_
20091112_RATP_SCD_0593	79	2	impeccable	NULL	adj	NULL	B_GADJ	NOLINK	0	idtext0131	impeccable	###s##	spk1	198.5	198.88	?	//

20091112_RATP_SCD_0593	80	1	eh+ben	DISF_M	pres	NULL	NULL	NOLINK	0	idtext0132	eh+ben	#####	spk2	199.44	199.68	0.01	_
20091112_RATP_SCD_0593	80	2	c'	NULL	cln	NULL	B_GN	SUJ_IMP	3	idtext0132	ce	###s##	spk2	199.69	199.73	0.01	_
20091112_RATP_SCD_0593	80	3	est	NULL	v	NULL	B_GVf	ROOT	0	idtext0132	être	P#3##s##	spk2	199.74	199.76	0.01	_
20091112_RATP_SCD_0593	80	4	génial	NULL	adj	NULL	B_GADJ	ATS	3	idtext0132	génial	##m#s##	spk2	199.77	200.08	0.04	//
20091112_RATP_SCD_0593	80	5	vous	NULL	cln	NULL	B_GN	SUJ	6	idtext0133	cln	#2##p##	spk2	200.12	200.17	0.01	_
20091112_RATP_SCD_0593	80	6	êtes	NULL	v	NULL	B_GVf	ROOT	0	idtext0133	être	P#2##p##	spk2	200.18	200.36	0.01	_
20091112_RATP_SCD_0593	80	7	madame	NULL	nc	NULL	B_GN	ATS	6	idtext0133	Monsieur	##f#s##	spk2	200.37	200.89	?	//

20091112_RATP_SCD_0593	81	1	enfin	NULL	adv	NULL	B_GADV	NOLINK	0	idtext0134	enfin	#####	spk1	201.07	201.27	0.01	_
20091112_RATP_SCD_0593	81	2	votre	NULL	det	NULL	B_NULL	NOLINK	0	idtext0134	votre	###s##o	spk1	201.28	201.52	0.01	_
20091112_RATP_SCD_0593	81	3	n()	DISF_T	tronc	NULL	NULL	NOLINK	0	idtext0134	n()	#####	spk1	201.53	201.63	?	//

20091112_RATP_SCD_0593	82	1	alors	NULL	adv	NULL	B_GADV	NOLINK	0	idtext0135	alors	#####	spk2	201.18	201.63	?	//

20091112_RATP_SCD_0593	83	1	NNAAMMEE	NULL	np	B_HU	B_GN	ROOT	0	idtext0136	ANONYM	NULL	spk1	201.95	202.14	?	//

20091112_RATP_SCD_0593	84	1	NNAAMMEE	NULL	np	B_HU	B_GN	ROOT	0	idtext0137	ANONYM	NULL	spk2	202.81	203.0	?	//

20091112_RATP_SCD_0593	85	1	eh+ben	DISF_M	pres	NULL	NULL	NOLINK	0	idtext0138	eh+ben	#####	spk2	203.66	203.83	0.01	_
20091112_RATP_SCD_0593	85	2	voilà	DISF_M	pres	NULL	NULL	NOLINK	0	idtext0138	voilà	#####	spk2	203.84	204.19	?	//

20091112_RATP_SCD_0593	86	1	comme	NULL	adv	NULL	B_GADV	NOLINK	0	idtext0139	comme	#####	spk1	204.23	204.34	0.32	_
20091112_RATP_SCD_0593	86	2	NNAAMMEE	NULL	np	B_HU	B_GN	ROOT	0	idtext0140	ANONYM	NULL	spk1	204.66	204.85	?	_

20091112_RATP_SCD_0593	87	1	eh+ben	DISF_M	pres	NULL	NULL	NOLINK	0	idtext0141	eh+ben	#####	spk2	205.18	205.41	0.01	_
20091112_RATP_SCD_0593	87	2	voilà	DISF_M	pres	NULL	NULL	NOLINK	0	idtext0141	voilà	#####	spk2	205.42	205.74	0.04	_
20091112_RATP_SCD_0593	87	3	parfait	NULL	adj	NULL	B_GADJ	NOLINK	0	idtext0142	parfait	##m#s##	spk2	205.78	206.18	?	//

20091112_RATP_SCD_0593	88	1	voilà	DISF_M	pres	NULL	NULL	NOLINK	0	idtext0143	voilà	#####	spk1	206.29	206.69	?	//

20091112_RATP_SCD_0593	89	1	euh	DISF_M	pres	NULL	NULL	NOLINK	0	idtext0144	euh	#####	spk2	207.22	207.24	0.01	_
20091112_RATP_SCD_0593	89	2	hum	DISF_M	pres	NULL	NULL	NOLINK	0	idtext0144	hum	#####	spk2	207.25	208.21	0.06	_
20091112_RATP_SCD_0593	89	3	bon+ben	DISF_M	pres	NULL	NULL	NOLINK	0	idtext0145	bon+ben	#####	spk2	208.27	208.57	0.01	_
20091112_RATP_SCD_0593	89	4	écoutez	DISF_M	pres	NULL	NULL	NOLINK	0	idtext0145	écoutez	#####	spk2	208.58	209.04	0.01	_
20091112_RATP_SCD_0593	89	5	vous	NULL	cln	NULL	B_GN	SUJ	6	idtext0145	cln	#2##p##	spk2	209.05	209.18	0.01	_
20091112_RATP_SCD_0593	89	6	êtes	NULL	v	NULL	B_GVf	ROOT	0	idtext0145	être	P#2##p##	spk2	209.19	209.26	0.01	_
20091112_RATP_SCD_0593	89	7	très	NULL	adv	NULL	B_GADJ	MOD	8	idtext0145	très	#####	spk2	209.27	209.45	0.01	_
20091112_RATP_SCD_0593	89	8	aimable	NULL	adj	NULL	I_GADJ	ATS	6	idtext0145	aimable	###s##	spk2	209.46	209.91	0.01	_
20091112_RATP_SCD_0593	89	9	et	NULL	coo	NULL	B_NULL	COORD	6	idtext0145	et	#####	spk2	209.92	209.94	0.01	_
20091112_RATP_SCD_0593	89	10	c'	NULL	cln	NULL	B_GN	SUJ_IMP	11	idtext0145	ce	###s##	spk2	209.95	210.06	0.01	_
20091112_RATP_SCD_0593	89	11	est	NULL	v	NULL	B_GVf	DEP_COORD	9	idtext0145	être	P#3##s##	spk2	210.07	210.09	0.01	_
20091112_RATP_SCD_0593	89	12	très	NULL	adv	NULL	B_GADJ	MOD	13	idtext0145	très	#####	spk2	210.1	210.35	0.01	_
20091112_RATP_SCD_0593	89	13	gentil	NULL	adj	NULL	I_GADJ	ATS	11	idtext0145	gentil	##m#s##	spk2	210.36	210.64	?	//

20091112_RATP_SCD_0593	90	1	trente-deux+quarante-six	NULL	nc	B_TEL	B_GN	ROOT	0	idtext0146	trente-deux+quarante-six	#####	spk2	210.68	211.37	0.01	_
20091112_RATP_SCD_0593	90	2	pour	NULL	prep	NULL	B_GP	MOD	1	idtext0146	pour	#####	spk2	211.38	211.52	0.01	_
20091112_RATP_SCD_0593	90	3	vous	NULL	clo	NULL	I_GP	OBJ	4	idtext0146	cln	#2##p##	spk2	211.53	211.63	0.01	_
20091112_RATP_SCD_0593	90	4	joindre	NULL	vinf	NULL	B_GVi	OBJ	2	idtext0146	joindre	W#####	spk2	211.64	211.97	?	//

20091112_RATP_SCD_0593	91	1	je	NULL	cln	NULL	B_GN	SUJ	4	idtext0147	cln	#1##s##	spk1	213.06	213.21	0.01	_
20091112_RATP_SCD_0593	91	2	vous	NULL	clo	NULL	B_GN	OBJ	4	idtext0147	cln	#2##p##	spk1	213.22	213.29	0.01	_
20091112_RATP_SCD_0593	91	3	en	NULL	clo	NULL	B_GN	DE_OBJ	4	idtext0147	en	#####	spk1	213.3	213.32	0.01	_
20091112_RATP_SCD_0593	91	4	prie	NULL	v	NULL	B_GVf	ROOT	0	idtext0147	prier	PS#13##s##	spk1	213.33	213.53	0.01	_
20091112_RATP_SCD_0593	91	5	monsieur	NULL	nc	NULL	B_GN	NOLINK	0	idtext0147	Monsieur	##m#s##	spk1	213.54	214.15	0.14	_
20091112_RATP_SCD_0593	91	6	au+revoir	NULL	adv	NULL	B_GADV	NOLINK	0	idtext0149	au+revoir	#####	spk1	214.29	214.74	?	//

20091112_RATP_SCD_0593	92	1	merci	NULL	adv	NULL	B_GADV	MOD	2	idtext0148	merci	#####	spk2	213.31	213.54	0.01	_
20091112_RATP_SCD_0593	92	2	beaucoup	NULL	adv	NULL	I_GADV	ROOT	0	idtext0148	beaucoup	#####	spk2	213.55	213.79	0.01	_
20091112_RATP_SCD_0593	92	3	madame	NULL	nc	NULL	B_GN	NOLINK	0	idtext0148	Monsieur	##f#s##	spk2	213.8	214.15	0.14	_
20091112_RATP_SCD_0593	92	4	au+revoir	NULL	adv	NULL	B_GADV	NOLINK	0	idtext0150	au+revoir	#####	spk2	214.29	214.74	?	//

