20091112_RATP_SCD_1145	1	1	NNAAMMEE	NULL	np	B_HU	B_GN	ROOT	0	idtext0000	ANONYM	NULL	spk1	4.23	4.6	0.04	_
20091112_RATP_SCD_1145	1	2	va	NULL	v	NULL	B_GVf	ROOT	0	idtext0001	aller	P#3##s##	spk1	4.64	4.81	0.01	_
20091112_RATP_SCD_1145	1	3	vous	NULL	clo	NULL	B_GN	A_OBJ	4	idtext0001	cln	#2##p##	spk1	4.82	4.97	0.01	_
20091112_RATP_SCD_1145	1	4	répondre	NULL	vinf	NULL	B_GVi	OBJ	2	idtext0001	répondre	W#####	spk1	4.98	5.68	?	//

20091112_RATP_SCD_1145	2	1	NNAAMMEE	NULL	np	B_HU	B_GN	ROOT	0	idtext0002	ANONYM	NULL	spk2	7.25	7.55	0.04	_
20091112_RATP_SCD_1145	2	2	bonjour	NULL	adv	NULL	B_GADV	NOLINK	0	idtext0003	bonjour	#####	spk2	7.59	8.03	0.01	_
20091112_RATP_SCD_1145	2	3	bonsoir	NULL	nc	NULL	B_GN	NOLINK	0	idtext0003	bonsoir	##m#s##	spk2	8.04	8.36	0.01	_
20091112_RATP_SCD_1145	2	4	pardon	DISF_M	pres	NULL	NULL	NOLINK	0	idtext0003	pardon	#####	spk2	8.37	8.81	?	//

20091112_RATP_SCD_1145	3	1	bonjour	NULL	adv	NULL	B_GADV	NOLINK	0	idtext0004	bonjour	#####	spk3	8.93	9.57	0.01	_
20091112_RATP_SCD_1145	3	2	euh	DISF_M	pres	NULL	NULL	NOLINK	0	idtext0004	euh	#####	spk3	9.58	9.67	0.01	_
20091112_RATP_SCD_1145	3	3	monsieur	NULL	nc	NULL	B_GN	NOLINK	0	idtext0004	Monsieur	##m#s##	spk3	9.68	10.02	?	//

20091112_RATP_SCD_1145	4	1	je	NULL	cln	NULL	B_GN	SUJ	2	idtext0005	cln	#1##s##	spk3	10.06	10.16	0.01	_
20091112_RATP_SCD_1145	4	2	voudrais	NULL	v	NULL	B_GVf	ROOT	0	idtext0005	vouloir	C#12##s##	spk3	10.17	10.48	0.01	_
20091112_RATP_SCD_1145	4	3	avoir	NULL	vinf	NULL	I_GVf	OBJ	2	idtext0005	avoir	W#####	spk3	10.49	10.71	0.01	_
20091112_RATP_SCD_1145	4	4	un	NULL	det	NULL	B_GN	DET	5	idtext0005	un	##m#s##i	spk3	10.72	10.78	0.01	_
20091112_RATP_SCD_1145	4	5	renseignement	NULL	nc	NULL	I_GN	OBJ	3	idtext0005	renseignement	##m#s##	spk3	10.79	11.32	0.01	_
20091112_RATP_SCD_1145	4	6	sur	NULL	prep	NULL	B_GP	P_OBJ	5	idtext0005	sur	#####	spk3	11.33	11.5	0.01	_
20091112_RATP_SCD_1145	4	7	la	NULL	det	NULL	I_GP	DET	8	idtext0005	le	##m#s##d	spk3	11.51	11.58	0.01	_
20091112_RATP_SCD_1145	4	8	ligne	NULL	nc	NULL	I_GP	OBJ	6	idtext0005	ligne	##f#s##	spk3	11.59	11.71	0.01	_
20091112_RATP_SCD_1145	4	9	de	NULL	prep	NULL	B_GP	DEP	8	idtext0005	de	#####	spk3	11.72	11.81	0.01	_
20091112_RATP_SCD_1145	4	10	tramway	NULL	nc	NULL	I_GP	OBJ	9	idtext0005	tramway	##m#s##	spk3	11.82	12.17	0.01	_
20091112_RATP_SCD_1145	4	11	T2	NULL	nc	B_T	I_GP	MOD	8	idtext0005	T2	#####	spk3	12.18	12.48	0.01	_
20091112_RATP_SCD_1145	4	12	s'il+vous+plaît	NULL	adv	NULL	B_GADV	NOLINK	0	idtext0005	s'il+vous+plaît	#####	spk3	12.49	13.08	?	//

20091112_RATP_SCD_1145	5	1	oui	NULL	adv	NULL	B_GADV	NOLINK	0	idtext0006	oui	#####	spk2	13.18	13.4	0.01	_
20091112_RATP_SCD_1145	5	2	je	NULL	cln	NULL	B_GN	SUJ	4	idtext0006	cln	#1##s##	spk2	13.41	13.43	0.01	_
20091112_RATP_SCD_1145	5	3	vous	NULL	clo	NULL	B_GN	OBJ	4	idtext0006	cln	#2##p##	spk2	13.44	13.57	0.01	_
20091112_RATP_SCD_1145	5	4	écoute	NULL	v	NULL	B_GVf	ROOT	0	idtext0006	écouter	PS#13##s##	spk2	13.58	13.91	?	//

20091112_RATP_SCD_1145	6	1	euh	DISF_M	pres	NULL	NULL	NOLINK	0	idtext0007	euh	#####	spk3	14.08	14.1	0.01	_
20091112_RATP_SCD_1145	6	2	hum	DISF_M	pres	NULL	NULL	NOLINK	0	idtext0007	hum	#####	spk3	14.11	14.18	0.01	_
20091112_RATP_SCD_1145	6	3	je	NULL	cln	NULL	B_GN	SUJ	4	idtext0007	cln	#1##s##	spk3	14.19	14.91	0.01	_
20091112_RATP_SCD_1145	6	4	voulais	NULL	v	NULL	B_GVf	ROOT	0	idtext0007	vouloir	I#12##s##	spk3	14.92	15.23	0.01	_
20091112_RATP_SCD_1145	6	5	savoir	NULL	vinf	NULL	I_GVf	OBJ	4	idtext0007	savoir	W#####	spk3	15.24	15.59	0.01	_
20091112_RATP_SCD_1145	6	6	quand+est-ce+qu'	NULL	pri	NULL	B_NULL	SUJ	7	idtext0007	quand+est-ce+qu'	#####	spk3	15.6	16.22	0.01	_
20091112_RATP_SCD_1145	6	7	allaient	NULL	v	NULL	B_GVf	OBJ	4	idtext0007	aller	I#3##p##	spk3	16.23	16.42	0.01	_
20091112_RATP_SCD_1145	6	8	se	NULL	clr	NULL	B_GVi	AFF	9	idtext0007	se	#####	spk3	16.43	16.6	0.01	_
20091112_RATP_SCD_1145	6	9	terminer	NULL	vinf	NULL	I_GVi	OBJ	7	idtext0007	(se)+terminer	W#####	spk3	16.61	17.27	0.01	_
20091112_RATP_SCD_1145	6	10	les	NULL	det	NULL	B_GN	DET	11	idtext0007	le	###p##d	spk3	17.28	17.4	0.01	_
20091112_RATP_SCD_1145	6	11	travaux	NULL	nc	NULL	I_GN	OBJ	9	idtext0007	travail	##m#p##	spk3	17.41	17.82	0.01	_
20091112_RATP_SCD_1145	6	12	de	NULL	prep	NULL	B_GP	DEP	11	idtext0007	de	#####	spk3	17.83	17.98	0.01	_
20091112_RATP_SCD_1145	6	13	prolongement	NULL	nc	NULL	I_GP	OBJ	12	idtext0007	prolongement	##m#s##	spk3	17.99	18.5	0.01	_
20091112_RATP_SCD_1145	6	14	jusqu'à	NULL	prep	NULL	B_NULL	NOLINK	0	idtext0007	jusqu'à	#####	spk3	18.51	19.58	?	_

20091112_RATP_SCD_1145	7	1	Paris	NULL	nc	B_A	B_GN	ROOT	0	idtext0008	Paris	##m#s##	spk3	20.45	20.65	0.01	_
20091112_RATP_SCD_1145	7	2	Porte+de+Versailles	NULL	nc	B_A	I_GN	MOD	1	idtext0008	Porte+de+Versailles	#####	spk3	20.66	21.29	?	//

20091112_RATP_SCD_1145	8	1	alors	NULL	adv	NULL	B_GADV	NOLINK	0	idtext0009	alors	#####	spk2	22.15	22.43	0.01	//
20091112_RATP_SCD_1145	8	2	euh	DISF_M	pres	NULL	NULL	NOLINK	0	idtext0009	euh	#####	spk2	22.44	22.58	0.01	_
20091112_RATP_SCD_1145	8	3	vous	NULL	cln	NULL	B_GN	SUJ	4	idtext0009	cln	#2##p##	spk2	22.59	22.69	0.01	_
20091112_RATP_SCD_1145	8	4	voulez	NULL	v	NULL	B_GVf	ROOT	0	idtext0009	vouloir	P#2##p##	spk2	22.7	22.96	0.01	_
20091112_RATP_SCD_1145	8	5	savoir	NULL	vinf	NULL	I_GVf	OBJ	4	idtext0009	savoir	W#####	spk2	22.97	23.21	0.01	_
20091112_RATP_SCD_1145	8	6	quand+est-ce-que	NULL	adv	NULL	B_GADV	MOD	8	idtext0009	quand+est-ce-que	#####	spk2	23.22	23.62	0.01	_
20091112_RATP_SCD_1145	8	7	ça	NULL	pro	NULL	B_GN	SUJ_IMP	8	idtext0009	ça	#####	spk2	23.63	23.81	0.01	_
20091112_RATP_SCD_1145	8	8	va	NULL	v	NULL	B_GVf	OBJ	4	idtext0009	aller	P#3##s##	spk2	23.82	23.9	0.01	_
20091112_RATP_SCD_1145	8	9	être	NULL	vinf	NULL	I_GVf	OBJ	8	idtext0009	être	W#####	spk2	23.91	24.22	0.01	_
20091112_RATP_SCD_1145	8	10	euh	DISF_M	pres	NULL	NULL	NOLINK	0	idtext0009	euh	#####	spk2	24.23	24.29	0.01	_
20091112_RATP_SCD_1145	8	11	la	NULL	det	NULL	B_GN	DET	12	idtext0009	le	##m#s##d	spk2	24.3	24.39	0.01	_
20091112_RATP_SCD_1145	8	12	fin	NULL	nc	NULL	I_GN	OBJ	8	idtext0009	fin	###s##	spk2	24.4	24.63	0.01	_
20091112_RATP_SCD_1145	8	13	des	NULL	prep	NULL	B_GP	DEP	12	idtext0009	des	#####	spk2	24.64	24.71	0.01	_
20091112_RATP_SCD_1145	8	14	travaux	NULL	nc	NULL	I_GP	OBJ	13	idtext0009	travail	##m#p##	spk2	24.72	25.3	0.01	_
20091112_RATP_SCD_1145	8	15	jusqu'à	NULL	prep	NULL	B_GP	MOD	14	idtext0009	jusqu'à	#####	spk2	25.31	25.6	0.01	_
20091112_RATP_SCD_1145	8	16	la	NULL	det	NULL	I_GP	DET	17	idtext0009	le	##m#s##d	spk2	25.61	25.72	0.01	_
20091112_RATP_SCD_1145	8	17	Porte+de+Versailles	NULL	nc	B_A	I_GP	OBJ	15	idtext0009	Porte+de+Versailles	#####	spk2	25.73	26.41	0.01	_
20091112_RATP_SCD_1145	8	18	avec	NULL	prep	NULL	B_GP	P_OBJ	17	idtext0009	avec	#####	spk2	26.42	26.54	0.01	_
20091112_RATP_SCD_1145	8	19	le	NULL	det	NULL	I_GP	DET	20	idtext0009	le	##m#s##d	spk2	26.55	26.62	0.01	_
20091112_RATP_SCD_1145	8	20	T2	NULL	nc	B_T	I_GP	OBJ	18	idtext0009	T2	#####	spk2	26.63	26.91	0.01	/
20091112_RATP_SCD_1145	8	21	vous	NULL	cln	NULL	B_GN	SUJ	22	idtext0009	cln	#2##p##	spk2	26.92	26.99	0.01	_
20091112_RATP_SCD_1145	8	22	patientez	NULL	v	NULL	B_GVf	ROOT	0	idtext0009	patienter	P#2##p##	spk2	27.0	27.45	0.01	_
20091112_RATP_SCD_1145	8	23	je	NULL	cln	NULL	B_GN	SUJ	24	idtext0009	cln	#1##s##	spk2	27.46	27.52	0.01	_
20091112_RATP_SCD_1145	8	24	vais	NULL	v	NULL	B_GVf	ROOT	0	idtext0009	aller	P#1##s##	spk2	27.53	27.59	0.01	_
20091112_RATP_SCD_1145	8	25	me	NULL	clr	NULL	B_GVi	AFF	26	idtext0009	cla	#1##s##	spk2	27.6	27.67	0.01	_
20091112_RATP_SCD_1145	8	26	renseigner	NULL	vinf	NULL	I_GVi	OBJ	24	idtext0009	renseigner	W#####	spk2	27.68	28.16	0.01	_
20091112_RATP_SCD_1145	8	27	hein	DISF_M	pres	NULL	NULL	NOLINK	0	idtext0009	hein	#####	spk2	28.17	28.24	?	//

20091112_RATP_SCD_1145	9	1	d'accord	NULL	adv	NULL	B_GADV	MOD	2	idtext0010	d'accord	#####	spk3	28.28	28.56	0.01	_
20091112_RATP_SCD_1145	9	2	merci	NULL	adv	NULL	I_GADV	ROOT	0	idtext0010	merci	#####	spk3	28.57	29.01	?	//

20091112_RATP_SCD_1145	10	1	s'il+vous+plaît	NULL	adv	NULL	B_GADV	NOLINK	0	idtext0011	s'il+vous+plaît	#####	spk2	88.97	89.87	?	//

20091112_RATP_SCD_1145	11	1	oui	NULL	adv	NULL	B_GADV	NOLINK	0	idtext0012	oui	#####	spk3	90.06	90.25	?	//

20091112_RATP_SCD_1145	12	1	donc	NULL	coo	NULL	B_NULL	ROOT	0	idtext0013	donc	#####	spk2	90.44	90.53	0.01	_
20091112_RATP_SCD_1145	12	2	normalement	NULL	adv	NULL	B_GADV	NOLINK	0	idtext0013	normalement	#####	spk2	90.54	91.3	0.01	_
20091112_RATP_SCD_1145	12	3	la	NULL	det	NULL	B_GN	DET	4	idtext0013	le	##m#s##d	spk2	91.31	91.41	0.01	_
20091112_RATP_SCD_1145	12	4	mise	NULL	nc	NULL	I_GN	SUJ	7	idtext0013	mise	##f#s##	spk2	91.42	91.58	0.01	_
20091112_RATP_SCD_1145	12	5	en	NULL	prep	NULL	B_GP	P_OBJ	4	idtext0013	en	#####	spk2	91.59	91.68	0.01	_
20091112_RATP_SCD_1145	12	6	service	NULL	nc	NULL	I_GP	OBJ	5	idtext0013	service	##m#s##	spk2	91.69	92.07	0.01	_
20091112_RATP_SCD_1145	12	7	est	NULL	v	NULL	B_GVf	DEP_COORD	1	idtext0013	être	P#3##s##	spk2	92.08	92.2	0.01	_
20091112_RATP_SCD_1145	12	8	fin	NULL	nc	NULL	B_GN	ATS	7	idtext0013	fin	###s##	spk2	92.21	92.44	0.01	_
20091112_RATP_SCD_1145	12	9	deux+mille+neuf	NULL	nc	B_D	I_GN	MOD	8	idtext0013	deux+mille+neuf	#####	spk2	92.45	93.21	?	//

20091112_RATP_SCD_1145	13	1	et	NULL	coo	NULL	B_NULL	ROOT	0	idtext0014	et	#####	spk3	93.53	93.69	0.01	_
20091112_RATP_SCD_1145	13	2	euh	DISF_M	pres	NULL	NULL	NOLINK	0	idtext0014	euh	#####	spk3	93.7	93.76	0.01	_
20091112_RATP_SCD_1145	13	3	vous	NULL	cln	NULL	B_GN	SUJ	4	idtext0014	cln	#2##p##	spk3	93.77	93.88	0.01	_
20091112_RATP_SCD_1145	13	4	avez	NULL	v	NULL	B_GVfn	DEP_COORD	1	idtext0014	avoir	P#2##p##	spk3	93.89	94.11	0.01	_
20091112_RATP_SCD_1145	13	5	pas	NULL	advneg	NULL	I_GVfn	MOD	4	idtext0014	pas	#####	spk3	94.12	94.4	0.01	_
20091112_RATP_SCD_1145	13	6	une	NULL	det	NULL	B_GN	DET	7	idtext0014	un	##f#s##i	spk3	94.41	94.74	0.01	_
20091112_RATP_SCD_1145	13	7	date	NULL	nc	NULL	I_GN	OBJ	4	idtext0014	date	##f#s##	spk3	94.75	95.05	?	//

20091112_RATP_SCD_1145	14	1	précise	NULL	v	NULL	B_GVf	NOLINK	0	idtext0015	préciser	PS#13##s##	spk3	95.09	95.93	?	_

20091112_RATP_SCD_1145	15	1	non	NULL	adv	NULL	B_GADV	NOLINK	0	idtext0016	non	#####	spk2	95.37	95.93	?	_

20091112_RATP_SCD_1145	16	1	non	NULL	adv	NULL	B_GADV	NOLINK	0	idtext0017	non	#####	spk2	96.17	96.46	0.01	/
20091112_RATP_SCD_1145	16	2	au+niveau+des	NULL	prep	NULL	B_GP	ROOT	0	idtext0017	au+niveau+des	#####	spk2	96.47	97.28	0.01	_
20091112_RATP_SCD_1145	16	3	la	DISF_R	det	NULL	NULL	NOLINK	0	idtext0017	le	##m#s##d	spk2	97.29	97.59	0.01	_
20091112_RATP_SCD_1145	16	4	la	NULL	det	NULL	I_GP	DET	5	idtext0017	le	##m#s##d	spk2	97.6	97.69	0.01	_
20091112_RATP_SCD_1145	16	5	fin	NULL	nc	NULL	I_GP	OBJ	2	idtext0017	fin	###s##	spk2	97.7	97.85	0.01	_
20091112_RATP_SCD_1145	16	6	des	NULL	prep	NULL	B_GP	DEP	5	idtext0017	des	#####	spk2	97.86	97.96	0.01	_
20091112_RATP_SCD_1145	16	7	travaux	NULL	nc	NULL	I_GP	OBJ	6	idtext0017	travail	##m#p##	spk2	97.97	98.29	0.01	_
20091112_RATP_SCD_1145	16	8	et	NULL	coo	NULL	B_NULL	COORD	7	idtext0017	et	#####	spk2	98.3	98.32	0.01	_
20091112_RATP_SCD_1145	16	9	de	NULL	prep	NULL	B_GP	DEP_COORD	8	idtext0017	de	#####	spk2	98.33	98.35	0.01	_
20091112_RATP_SCD_1145	16	10	la	NULL	det	NULL	I_GP	DET	11	idtext0017	le	##m#s##d	spk2	98.36	98.41	0.01	_
20091112_RATP_SCD_1145	16	11	mise	NULL	nc	NULL	I_GP	OBJ	9	idtext0017	mise	##f#s##	spk2	98.42	98.56	0.01	_
20091112_RATP_SCD_1145	16	12	en	NULL	prep	NULL	B_GP	MOD	11	idtext0017	en	#####	spk2	98.57	98.63	0.01	_
20091112_RATP_SCD_1145	16	13	service	NULL	nc	NULL	I_GP	OBJ	12	idtext0017	service	##m#s##	spk2	98.64	100.11	0.01	_
20091112_RATP_SCD_1145	16	14	euh	DISF_M	pres	NULL	NULL	NOLINK	0	idtext0017	euh	#####	spk2	100.12	100.14	0.01	_
20091112_RATP_SCD_1145	16	15	et	NULL	coo	NULL	B_NULL	COORD	13	idtext0018	et	#####	spk2	100.15	100.32	0.01	_
20091112_RATP_SCD_1145	16	16	il	NULL	cln	NULL	B_GN	SUJ_IMP	18	idtext0018	cln	#3#m#s##	spk2	100.33	100.4	0.01	_
20091112_RATP_SCD_1145	16	17	y	NULL	clo	NULL	B_GN	AFF	18	idtext0018	y	#####	spk2	100.41	100.44	0.01	_
20091112_RATP_SCD_1145	16	18	a	NULL	v	NULL	B_GVf	DEP_COORD	15	idtext0018	avoir	P#3##s##	spk2	100.45	100.64	0.01	_
20091112_RATP_SCD_1145	16	19	pff	DISF_M	pres	NULL	NULL	NOLINK	0	idtext0018	pff	#####	spk2	100.65	101.07	0.01	_
20091112_RATP_SCD_1145	16	20	c'	NULL	cln	NULL	I_GP	SUJ_IMP	21	idtext0018	ce	###s##	spk2	101.08	101.15	0.01	_
20091112_RATP_SCD_1145	16	21	est	NULL	v	NULL	B_GVf	ROOT	0	idtext0018	être	P#3##s##	spk2	101.16	101.22	0.01	_
20091112_RATP_SCD_1145	16	22	très	NULL	adv	NULL	B_GADJ	MOD	23	idtext0018	très	#####	spk2	101.23	101.33	0.01	_
20091112_RATP_SCD_1145	16	23	rare	NULL	adj	NULL	I_GADJ	ATS	21	idtext0018	rare	###s##	spk2	101.34	101.53	0.01	_
20091112_RATP_SCD_1145	16	24	de+toute+façon	NULL	adv	NULL	B_GADV	NOLINK	0	idtext0018	de+toute+façon	#####	spk2	101.54	101.93	0.01	_
20091112_RATP_SCD_1145	16	25	qu'	NULL	csu	NULL	B_NULL	OBJ	18	idtext0018	qu'	#####	spk2	101.94	101.99	0.01	_
20091112_RATP_SCD_1145	16	26	ils	NULL	cln	NULL	B_GN	SUJ	27	idtext0018	cln	#3#m#p##	spk2	102.0	102.05	0.01	_
20091112_RATP_SCD_1145	16	27	mettent	NULL	v	NULL	B_GVf	OBJ	25	idtext0018	mettre	PS#3##p##	spk2	102.06	102.24	0.01	_
20091112_RATP_SCD_1145	16	28	une	NULL	det	NULL	B_GN	DET	29	idtext0018	un	##f#s##i	spk2	102.25	102.36	0.01	_
20091112_RATP_SCD_1145	16	29	date	NULL	nc	NULL	I_GN	OBJ	27	idtext0018	date	##f#s##	spk2	102.37	102.53	0.01	_
20091112_RATP_SCD_1145	16	30	précise	NULL	v	NULL	B_GVf	ROOT	0	idtext0018	préciser	PS#13##s##	spk2	102.54	102.85	0.01	_
20091112_RATP_SCD_1145	16	31	parce+que	NULL	csu	NULL	B_NULL	MOD	30	idtext0018	parce+que	#####	spk2	102.86	103.6	0.01	_
20091112_RATP_SCD_1145	16	32	souvent	NULL	adv	NULL	B_GADV	MOD	34	idtext0019	souvent	#####	spk2	103.61	103.82	0.01	_
20091112_RATP_SCD_1145	16	33	des	NULL	det	NULL	B_GN	DET	34	idtext0019	des	###p##i	spk2	103.83	103.93	0.01	_
20091112_RATP_SCD_1145	16	34	travaux	NULL	nc	NULL	I_GN	OBJ	31	idtext0019	travail	##m#p##	spk2	103.94	104.18	0.01	_
20091112_RATP_SCD_1145	16	35	comme+ça	NULL	adv	NULL	B_GADV	MOD	34	idtext0019	comme+ça	#####	spk2	104.19	104.82	0.01	_
20091112_RATP_SCD_1145	16	36	euh	DISF_M	pres	NULL	NULL	NOLINK	0	idtext0019	euh	#####	spk2	104.83	105.33	0.01	_
20091112_RATP_SCD_1145	16	37	soit	NULL	coo	NULL	B_NULL	ROOT	0	idtext0019	soit	#####	spk2	105.34	105.42	0.01	_
20091112_RATP_SCD_1145	16	38	c'	NULL	cln	NULL	B_GN	SUJ_IMP	39	idtext0019	ce	###s##	spk2	105.43	105.53	0.01	_
20091112_RATP_SCD_1145	16	39	est	NULL	v	NULL	B_GVf	DEP_COORD	37	idtext0019	être	P#3##s##	spk2	105.54	105.57	0.01	_
20091112_RATP_SCD_1145	16	40	à	NULL	prep	NULL	B_GP	ATS	39	idtext0019	à	#####	spk2	105.58	105.64	0.01	_
20091112_RATP_SCD_1145	16	41	l'	NULL	det	NULL	I_GP	DET	42	idtext0019	le	###s##d	spk2	105.65	105.69	0.01	_
20091112_RATP_SCD_1145	16	42	heure	NULL	nc	NULL	I_GP	OBJ	40	idtext0019	heure	##f#s##	spk2	105.7	105.88	0.01	_
20091112_RATP_SCD_1145	16	43	ou	NULL	coo	NULL	B_NULL	NOLINK	0	idtext0019	ou	#####	spk2	105.89	106.25	0.01	_
20091112_RATP_SCD_1145	16	44	mais	NULL	coo	NULL	B_NULL	COORD	18	idtext0019	mais	#####	spk2	106.26	106.8	0.01	_
20091112_RATP_SCD_1145	16	45	souvent	NULL	adv	NULL	B_GADV	MOD	50	idtext0019	souvent	#####	spk2	106.81	107.11	0.01	_
20091112_RATP_SCD_1145	16	46	il	NULL	cln	NULL	B_GN	SUJ_IMP	48	idtext0019	cln	#3#m#s##	spk2	107.12	107.17	0.01	_
20091112_RATP_SCD_1145	16	47	y	NULL	clo	NULL	B_GN	AFF	48	idtext0019	y	#####	spk2	107.18	107.2	0.01	_
20091112_RATP_SCD_1145	16	48	a	NULL	v	NULL	B_GVf	DEP_COORD	44	idtext0019	avoir	P#3##s##	spk2	107.21	107.23	0.01	_
20091112_RATP_SCD_1145	16	49	du	NULL	det	NULL	B_GN	DET	50	idtext0019	du	##m#s##i	spk2	107.24	107.31	0.01	_
20091112_RATP_SCD_1145	16	50	retard	NULL	nc	NULL	I_GN	OBJ	48	idtext0019	retard	##m#s##	spk2	107.32	107.53	0.01	//
20091112_RATP_SCD_1145	16	51	hein	DISF_M	pres	NULL	NULL	NOLINK	0	idtext0019	hein	#####	spk2	107.54	107.56	0.01	_
20091112_RATP_SCD_1145	16	52	parce+que	NULL	csu	NULL	B_NULL	NOLINK	0	idtext0019	parce+que	#####	spk2	107.57	107.99	?	_

20091112_RATP_SCD_1145	17	1	c'	NULL	cln	NULL	B_GN	SUJ_IMP	2	idtext0020	ce	###s##	spk2	108.03	108.05	0.01	_
20091112_RATP_SCD_1145	17	2	est	NULL	v	NULL	B_GVf	ROOT	0	idtext0020	être	P#3##s##	spk2	108.06	108.08	0.01	_
20091112_RATP_SCD_1145	17	3	comme	NULL	adv	NULL	B_GADV	ATS	2	idtext0020	comme	#####	spk2	108.09	108.28	0.01	_
20091112_RATP_SCD_1145	17	4	c'	NULL	cln	NULL	B_GN	SUJ_IMP	5	idtext0020	ce	###s##	spk2	108.29	108.31	0.01	_
20091112_RATP_SCD_1145	17	5	est	NULL	v	NULL	B_GVf	OBJ	3	idtext0020	être	P#3##s##	spk2	108.32	108.35	0.01	_
20091112_RATP_SCD_1145	17	6	des	NULL	det	NULL	B_NULL	NOLINK	0	idtext0020	des	###p##i	spk2	108.36	108.45	?	_

20091112_RATP_SCD_1145	18	1	d'accord	NULL	adv	NULL	B_GADV	NOLINK	0	idtext0021	d'accord	#####	spk3	108.05	108.45	?	//

20091112_RATP_SCD_1145	19	1	gros	NULL	adj	NULL	B_GN	MOD	2	idtext0022	gros	##m###	spk2	108.49	108.61	0.01	_
20091112_RATP_SCD_1145	19	2	travaux	NULL	nc	NULL	I_GN	ROOT	0	idtext0022	travail	##m#p##	spk2	108.62	109.02	?	//

20091112_RATP_SCD_1145	20	1	ouais	NULL	adv	NULL	B_GADV	NOLINK	0	idtext0023	ouais	#####	spk3	109.32	109.56	?	//

20091112_RATP_SCD_1145	21	1	hein	DISF_M	pres	NULL	NULL	NOLINK	0	idtext0024	hein	#####	spk2	109.7	109.98	0.01	_
20091112_RATP_SCD_1145	21	2	donc	NULL	coo	NULL	B_NULL	NOLINK	0	idtext0024	donc	#####	spk2	109.99	110.29	0.01	_
20091112_RATP_SCD_1145	21	3	euh	DISF_M	pres	NULL	NULL	NOLINK	0	idtext0024	euh	#####	spk2	110.3	110.42	0.01	_
20091112_RATP_SCD_1145	21	4	mais	NULL	coo	NULL	B_NULL	ROOT	0	idtext0024	mais	#####	spk2	110.43	110.62	0.01	_
20091112_RATP_SCD_1145	21	5	bon	DISF_M	pres	NULL	NULL	NOLINK	0	idtext0024	bon	#####	spk2	110.63	110.82	0.01	//
20091112_RATP_SCD_1145	21	6	c'	NULL	cln	NULL	B_GN	SUJ_IMP	7	idtext0024	ce	###s##	spk2	110.83	110.93	0.01	_
20091112_RATP_SCD_1145	21	7	est	NULL	v	NULL	B_GVf	DEP_COORD	4	idtext0024	être	P#3##s##	spk2	110.94	111.07	0.01	_
20091112_RATP_SCD_1145	21	8	vraiment	NULL	adv	NULL	B_GADV	MOD	7	idtext0024	vraiment	#####	spk2	111.08	111.5	0.01	_
20091112_RATP_SCD_1145	21	9	à	DISF_R	prep	NULL	NULL	NOLINK	0	idtext0024	à	#####	spk2	111.51	111.84	0.01	_
20091112_RATP_SCD_1145	21	10	on	GREF	cln	NULL	I_GP	SUJ_IMP	11	idtext0024	cln	#3##s##	spk2	111.85	111.92	0.01	_
20091112_RATP_SCD_1145	21	11	va	GREF	v	NULL	B_GVf	ROOT	0	idtext0024	aller	P#3##s##	spk2	111.93	112.01	0.01	_
20091112_RATP_SCD_1145	21	12	dire	GREF	vinf	NULL	I_GVf	OBJ	11	idtext0024	dire	W#####	spk2	112.02	112.22	0.01	_
20091112_RATP_SCD_1145	21	13	à	NULL	prep	NULL	B_GP	ATS	7	idtext0024	à	#####	spk2	112.23	112.38	0.01	_
20091112_RATP_SCD_1145	21	14	quelques	NULL	det	NULL	B_GN	DET	15	idtext0024	quelque	###p##i	spk2	112.39	112.68	0.01	_
20091112_RATP_SCD_1145	21	15	semaines	NULL	nc	NULL	I_GN	OBJ	13	idtext0024	semaine	##f#p##	spk2	112.69	112.96	0.01	_
20091112_RATP_SCD_1145	21	16	près	NULL	adv	NULL	B_GADV	MOD	15	idtext0024	près	#####	spk2	112.97	113.23	0.01	_
20091112_RATP_SCD_1145	21	17	hein	DISF_M	pres	NULL	NULL	NOLINK	0	idtext0024	hein	#####	spk2	113.24	113.51	0.01	_
20091112_RATP_SCD_1145	21	18	euh	DISF_M	pres	NULL	NULL	NOLINK	0	idtext0024	euh	#####	spk2	113.52	113.72	?	//

20091112_RATP_SCD_1145	22	1	enfin	NULL	adv	NULL	B_GADV	NOLINK	0	idtext0025	enfin	#####	spk3	113.78	113.87	0.01	_
20091112_RATP_SCD_1145	22	2	est-ce+que	NULL	pri	NULL	B_NULL	NOLINK	0	idtext0025	est-ce+que	#####	spk3	113.88	114.43	0.01	_
20091112_RATP_SCD_1145	22	3	par+exemple	NULL	adv	NULL	B_GADV	NOLINK	0	idtext0025	par+exemple	#####	spk3	114.44	114.93	0.01	_
20091112_RATP_SCD_1145	22	4	ça	DISF_R	pro	NULL	NULL	NOLINK	0	idtext0025	ça	#####	spk3	114.94	115.05	0.01	_
20091112_RATP_SCD_1145	22	5	va	DISF_R	v	NULL	NULL	NOLINK	0	idtext0025	aller	P#3##s##	spk3	115.06	115.22	0.01	_
20091112_RATP_SCD_1145	22	6	euh	DISF_M	pres	NULL	NULL	NOLINK	0	idtext0025	euh	#####	spk3	115.23	115.91	0.01	_
20091112_RATP_SCD_1145	22	7	ça	NULL	pro	NULL	B_GN	SUJ_IMP	8	idtext0025	ça	#####	spk3	115.92	116.01	0.01	_
20091112_RATP_SCD_1145	22	8	va	NULL	v	NULL	B_GVf	ROOT	0	idtext0025	aller	P#3##s##	spk3	116.02	116.11	0.01	_
20091112_RATP_SCD_1145	22	9	se	NULL	clr	NULL	B_GVi	AFF	10	idtext0025	se	#####	spk3	116.12	116.17	0.01	_
20091112_RATP_SCD_1145	22	10	terminer	NULL	vinf	NULL	I_GVi	OBJ	8	idtext0025	(se)+terminer	W#####	spk3	116.18	116.55	0.01	_
20091112_RATP_SCD_1145	22	11	fin	NULL	nc	NULL	B_GN	OBJ	10	idtext0025	fin	###s##	spk3	116.56	116.73	0.01	_
20091112_RATP_SCD_1145	22	12	décembre	NULL	nc	NULL	I_GN	MOD	11	idtext0025	décembre	##m#s##	spk3	116.74	117.27	0.01	_
20091112_RATP_SCD_1145	22	13	ou	NULL	coo	NULL	B_NULL	COORD	12	idtext0025	ou	#####	spk3	117.28	117.32	0.01	_
20091112_RATP_SCD_1145	22	14	fin	NULL	nc	NULL	B_GN	DEP_COORD	13	idtext0025	fin	###s##	spk3	117.33	117.53	0.01	_
20091112_RATP_SCD_1145	22	15	novembre	NULL	nc	NULL	I_GN	MOD	14	idtext0025	novembre	##m#s##	spk3	117.54	117.85	0.01	_
20091112_RATP_SCD_1145	22	16	par+exemple	NULL	adv	NULL	B_GADV	MOD	10	idtext0025	par+exemple	#####	spk3	117.86	118.42	?	//

20091112_RATP_SCD_1145	23	1	non	DISF_R	adv	NULL	NULL	NOLINK	0	idtext0026	non	#####	spk2	118.58	118.68	0.01	_
20091112_RATP_SCD_1145	23	2	non	NULL	adv	NULL	B_GADV	MOD	4	idtext0026	non	#####	spk2	118.69	118.83	0.01	_
20091112_RATP_SCD_1145	23	3	je	DISF_R	cln	NULL	NULL	NOLINK	0	idtext0026	cln	#1##s##	spk2	118.84	118.95	0.01	_
20091112_RATP_SCD_1145	23	4	comme	NULL	adv	NULL	I_GADV	ROOT	0	idtext0026	comme	#####	spk2	118.96	119.16	0.01	_
20091112_RATP_SCD_1145	23	5	je	NULL	cln	NULL	B_GN	SUJ	7	idtext0026	cln	#1##s##	spk2	119.17	119.23	0.01	_
20091112_RATP_SCD_1145	23	6	vous	NULL	clo	NULL	B_GN	A_OBJ	7	idtext0026	cln	#2##p##	spk2	119.24	119.33	0.01	_
20091112_RATP_SCD_1145	23	7	dis	NULL	v	NULL	B_GVf	OBJ	4	idtext0026	dire	PJ#12##s##	spk2	119.34	119.84	0.01	_
20091112_RATP_SCD_1145	23	8	au+niveau+de	NULL	prep	NULL	B_GP	P_OBJ_LOC	7	idtext0026	au+niveau+de	#####	spk2	119.85	120.48	0.01	_
20091112_RATP_SCD_1145	23	9	la	DISF_R	det	NULL	NULL	NOLINK	0	idtext0026	le	##m#s##d	spk2	120.49	120.84	0.01	_
20091112_RATP_SCD_1145	23	10	de	DISF_R	prep	NULL	NULL	NOLINK	0	idtext0026	de	#####	spk2	120.85	120.87	0.01	_
20091112_RATP_SCD_1145	23	11	l'	NULL	det	NULL	I_GP	DET	12	idtext0026	le	###s##d	spk2	120.88	120.9	0.01	_
20091112_RATP_SCD_1145	23	12	information	NULL	nc	NULL	I_GP	OBJ	8	idtext0026	information	##f#s##	spk2	120.91	121.4	0.01	_
20091112_RATP_SCD_1145	23	13	qu'	NULL	prorel	NULL	B_NULL	OBJ	18	idtext0026	qu'	#####	spk2	121.41	121.5	0.01	_
20091112_RATP_SCD_1145	23	14	on	NULL	cln	NULL	B_GN	SUJ_IMP	15	idtext0026	cln	#3##s##	spk2	121.51	121.59	0.01	_
20091112_RATP_SCD_1145	23	15	vient	NULL	v	NULL	B_GVf	ROOT	0	idtext0026	venir	P#3##s##	spk2	121.6	121.74	0.01	_
20091112_RATP_SCD_1145	23	16	de	NULL	prep	NULL	B_GP	OBJ	15	idtext0026	de	#####	spk2	121.75	121.77	0.01	_
20091112_RATP_SCD_1145	23	17	me	NULL	clo	NULL	I_GP	A_OBJ	18	idtext0026	cla	#1##s##	spk2	121.78	121.91	0.01	_
20091112_RATP_SCD_1145	23	18	donner	NULL	vinf	NULL	B_GVi	MOD_REL	12	idtext0026	donner	W#####	spk2	121.92	122.23	0.01	_
20091112_RATP_SCD_1145	23	19	c'	NULL	cln	NULL	B_GN	SUJ_IMP	21	idtext0026	ce	###s##	spk2	122.24	122.37	0.01	_
20091112_RATP_SCD_1145	23	20	est	NULL	v	NULL	B_GVf	AUX	21	idtext0026	être	P#3##s##	spk2	122.38	122.44	0.01	_
20091112_RATP_SCD_1145	23	21	mise	NULL	vppart	NULL	I_GVf	MOD_REL	12	idtext0026	miser	PS#13##s##	spk2	122.45	122.69	0.01	_
20091112_RATP_SCD_1145	23	22	en	NULL	prep	NULL	B_GP	P_OBJ	21	idtext0026	en	#####	spk2	122.7	122.78	0.01	_
20091112_RATP_SCD_1145	23	23	service	NULL	nc	NULL	I_GP	DET	24	idtext0026	service	##m#s##	spk2	122.79	123.79	0.01	_
20091112_RATP_SCD_1145	23	24	fin	NULL	nc	NULL	I_GP	OBJ	22	idtext0027	fin	###s##	spk2	123.8	124.05	0.01	_
20091112_RATP_SCD_1145	23	25	deux+mille+neuf	NULL	nc	B_D	B_GN	MOD	24	idtext0027	deux+mille+neuf	#####	spk2	124.06	124.47	0.01	_
20091112_RATP_SCD_1145	23	26	vous	NULL	cln	NULL	B_GN	SUJ	27	idtext0027	cln	#2##p##	spk2	124.48	124.65	0.01	_
20091112_RATP_SCD_1145	23	27	voyez	NULL	v	NULL	B_GVf	ROOT	0	idtext0027	voir	P#2##p##	spk2	124.66	125.1	?	//

20091112_RATP_SCD_1145	24	1	bon	DISF_M	pres	NULL	NULL	NOLINK	0	idtext0028	bon	#####	spk3	125.23	125.59	?	_

20091112_RATP_SCD_1145	25	1	d'accord	NULL	adv	NULL	B_GADV	NOLINK	0	idtext0029	d'accord	#####	spk3	125.72	126.2	?	//

20091112_RATP_SCD_1145	26	1	donc	NULL	coo	NULL	B_NULL	NOLINK	0	idtext0030	donc	#####	spk2	125.84	126.2	?	//

20091112_RATP_SCD_1145	27	1	euh	DISF_M	pres	NULL	NULL	NOLINK	0	idtext0031	euh	#####	spk2	126.24	126.38	0.01	_
20091112_RATP_SCD_1145	27	2	c'	NULL	cln	NULL	B_GN	SUJ_IMP	4	idtext0031	ce	###s##	spk2	126.39	126.49	0.01	_
20091112_RATP_SCD_1145	27	3	est	NULL	v	NULL	B_GVf	AUX	4	idtext0031	être	P#3##s##	spk2	126.5	126.54	0.01	_
20091112_RATP_SCD_1145	27	4	mise	NULL	vppart	NULL	I_GVf	ROOT	0	idtext0031	miser	PS#13##s##	spk2	126.55	126.68	0.01	_
20091112_RATP_SCD_1145	27	5	en	NULL	prep	NULL	B_GP	P_OBJ	4	idtext0031	en	#####	spk2	126.69	126.75	0.01	_
20091112_RATP_SCD_1145	27	6	service	NULL	nc	NULL	I_GP	OBJ	5	idtext0031	service	##m#s##	spk2	126.76	127.01	0.01	_
20091112_RATP_SCD_1145	27	7	c'est-à-dire	NULL	coo	NULL	B_NULL	MOD	4	idtext0031	c'est-à-dire	#####	spk2	127.02	127.27	0.01	_
20091112_RATP_SCD_1145	27	8	que	NULL	csu	NULL	B_NULL	OBJ	7	idtext0031	que	#####	spk2	127.28	127.3	0.01	_
20091112_RATP_SCD_1145	27	9	ça	NULL	pro	NULL	B_GN	SUJ_IMP	10	idtext0031	ça	#####	spk2	127.31	127.36	0.01	_
20091112_RATP_SCD_1145	27	10	va	NULL	v	NULL	B_GVf	OBJ	8	idtext0031	aller	P#3##s##	spk2	127.37	127.49	0.01	_
20091112_RATP_SCD_1145	27	11	commencer	DISF_R	vinf	NULL	NULL	NOLINK	0	idtext0031	commencer	W#####	spk2	127.5	127.76	0.01	_
20091112_RATP_SCD_1145	27	12	commencer	NULL	vinf	NULL	I_GVf	OBJ	10	idtext0031	commencer	W#####	spk2	127.77	128.18	0.01	_
20091112_RATP_SCD_1145	27	13	à	DISF_R	prep	NULL	NULL	NOLINK	0	idtext0031	à	#####	spk2	128.19	128.47	0.01	_
20091112_RATP_SCD_1145	27	14	à	DISF_R	prep	NULL	NULL	NOLINK	0	idtext0031	à	#####	spk2	128.48	129.2	0.01	_
20091112_RATP_SCD_1145	27	15	à	NULL	prep	NULL	B_GP	A_OBJ	10	idtext0032	à	#####	spk2	129.21	129.3	0.01	_
20091112_RATP_SCD_1145	27	16	prendre	NULL	vinf	NULL	I_GP	OBJ	15	idtext0032	prendre	W#####	spk2	129.31	129.51	0.01	_
20091112_RATP_SCD_1145	27	17	du	NULL	prep	NULL	B_GP	P_OBJ_LOC	16	idtext0032	du	#####	spk2	129.52	129.61	0.01	_
20091112_RATP_SCD_1145	27	18	voyageur	NULL	nc	NULL	I_GP	OBJ	17	idtext0032	voyageur	##m#s##	spk2	129.62	130.13	?	//

20091112_RATP_SCD_1145	28	1	donc	NULL	coo	NULL	B_NULL	NOLINK	0	idtext0033	donc	#####	spk2	130.8	130.96	0.01	_
20091112_RATP_SCD_1145	28	2	normalement	NULL	adv	NULL	B_GADV	NOLINK	0	idtext0033	normalement	#####	spk2	130.97	131.45	?	_

20091112_RATP_SCD_1145	29	1	bon	DISF_M	pres	NULL	NULL	NOLINK	0	idtext0034	bon	#####	spk3	130.8	130.94	0.01	_
20091112_RATP_SCD_1145	29	2	d'accord	NULL	adv	NULL	B_GADV	NOLINK	0	idtext0034	d'accord	#####	spk3	130.95	131.45	?	//

20091112_RATP_SCD_1145	30	1	ça	NULL	pro	NULL	B_GN	SUJ_IMP	2	idtext0035	ça	#####	spk2	131.49	131.55	0.01	_
20091112_RATP_SCD_1145	30	2	devrait	NULL	v	NULL	B_GVf	ROOT	0	idtext0035	devoir	C#3##s##	spk2	131.56	131.68	0.01	_
20091112_RATP_SCD_1145	30	3	se	NULL	clr	NULL	B_GVi	AFF	4	idtext0035	se	#####	spk2	131.69	131.71	0.01	_
20091112_RATP_SCD_1145	30	4	finir	NULL	vinf	NULL	I_GVi	OBJ	2	idtext0035	finir	W#####	spk2	131.72	132.25	0.01	_
20091112_RATP_SCD_1145	30	5	un+peu	NULL	adv	NULL	B_GADV	MOD	6	idtext0035	un+peu	#####	spk2	132.26	132.53	0.01	_
20091112_RATP_SCD_1145	30	6	avant	NULL	adv	NULL	I_GADV	MOD	2	idtext0035	avant	#####	spk2	132.54	132.85	0.01	_
20091112_RATP_SCD_1145	30	7	puisque	NULL	csu	NULL	B_NULL	MOD	4	idtext0035	puisque	#####	spk2	132.86	133.15	0.01	_
20091112_RATP_SCD_1145	30	8	il	NULL	cln	NULL	B_GN	SUJ_IMP	9	idtext0035	cln	#3#m#s##	spk2	133.16	133.21	0.01	_
20091112_RATP_SCD_1145	30	9	faut	NULL	v	NULL	B_GVf	OBJ	7	idtext0035	falloir	P#3##s##	spk2	133.22	133.38	0.01	_
20091112_RATP_SCD_1145	30	10	que	NULL	csu	NULL	B_NULL	OBJ	9	idtext0035	que	#####	spk2	133.39	133.43	0.01	_
20091112_RATP_SCD_1145	30	11	ça	NULL	pro	NULL	B_GN	SUJ_IMP	12	idtext0035	ça	#####	spk2	133.44	133.54	0.01	_
20091112_RATP_SCD_1145	30	12	soit	NULL	v	NULL	B_GVf	OBJ	10	idtext0035	être	S#3##s##	spk2	133.55	134.97	0.01	_
20091112_RATP_SCD_1145	30	13	euh	DISF_M	pres	NULL	NULL	NOLINK	0	idtext0036	euh	#####	spk2	134.98	135.16	0.01	_
20091112_RATP_SCD_1145	30	14	prêt	NULL	adj	NULL	B_GADJ	ATS	12	idtext0036	prêt	##m#s##	spk2	135.17	135.4	0.01	_
20091112_RATP_SCD_1145	30	15	à	NULL	prep	NULL	B_GP	DEP	14	idtext0036	à	#####	spk2	135.41	135.63	0.01	_
20091112_RATP_SCD_1145	30	16	circuler	NULL	vinf	NULL	I_GP	OBJ	15	idtext0036	circuler	W#####	spk2	135.64	136.32	0.01	_
20091112_RATP_SCD_1145	30	17	euh	DISF_M	pres	NULL	NULL	NOLINK	0	idtext0036	euh	#####	spk2	136.33	136.35	0.01	_
20091112_RATP_SCD_1145	30	18	fin	NULL	nc	NULL	B_GN	SUJ	12	idtext0036	fin	###s##	spk2	136.36	136.56	0.01	_
20091112_RATP_SCD_1145	30	19	deux+mille+neuf	NULL	nc	B_D	I_GN	MOD	18	idtext0036	deux+mille+neuf	#####	spk2	136.57	137.14	?	//

20091112_RATP_SCD_1145	31	1	bon	DISF_M	pres	NULL	NULL	NOLINK	0	idtext0037	bon	#####	spk3	137.2	137.32	0.01	_
20091112_RATP_SCD_1145	31	2	d'accord	NULL	adv	NULL	B_GADV	NOLINK	0	idtext0037	d'accord	#####	spk3	137.33	137.6	?	//

20091112_RATP_SCD_1145	32	1	et	NULL	coo	NULL	B_NULL	ROOT	0	idtext0038	et	#####	spk3	137.96	138.14	0.01	_
20091112_RATP_SCD_1145	32	2	euh	DISF_M	pres	NULL	NULL	NOLINK	0	idtext0038	euh	#####	spk3	138.15	138.31	0.01	_
20091112_RATP_SCD_1145	32	3	je	NULL	cln	NULL	B_GN	SUJ	4	idtext0038	cln	#1##s##	spk3	138.32	138.34	0.01	_
20091112_RATP_SCD_1145	32	4	voulais	NULL	v	NULL	B_GVf	ROOT	0	idtext0038	vouloir	I#12##s##	spk3	138.35	138.54	0.01	_
20091112_RATP_SCD_1145	32	5	savoir	NULL	vinf	NULL	I_GVf	OBJ	4	idtext0038	savoir	W#####	spk3	138.55	138.99	0.01	_
20091112_RATP_SCD_1145	32	6	aussi	NULL	adv	NULL	B_GADV	MOD	4	idtext0038	aussi	#####	spk3	139.0	139.34	0.01	_
20091112_RATP_SCD_1145	32	7	euh	DISF_M	pres	NULL	NULL	NOLINK	0	idtext0038	euh	#####	spk3	139.35	140.3	0.01	_
20091112_RATP_SCD_1145	32	8	jusqu'	NULL	prep	NULL	B_NULL	DEP_COORD	1	idtext0039	jusqu'	#####	spk3	140.31	140.59	0.01	_
20091112_RATP_SCD_1145	32	9	au	NULL	prep	NULL	B_GP	P_OBJ_LOC	8	idtext0039	au	#####	spk3	140.6	140.69	0.01	_
20091112_RATP_SCD_1145	32	10	terminus	NULL	nc	NULL	I_GP	OBJ	9	idtext0039	terminus	##m###	spk3	140.7	141.31	0.01	_
20091112_RATP_SCD_1145	32	11	euh	DISF_M	pres	NULL	NULL	NOLINK	0	idtext0039	euh	#####	spk3	141.32	142.52	0.01	_
20091112_RATP_SCD_1145	32	12	du	NULL	prep	NULL	B_GP	DEP	10	idtext0039	du	#####	spk3	142.53	143.12	0.01	_
20091112_RATP_SCD_1145	32	13	T2	NULL	nc	B_T	I_GP	OBJ	12	idtext0039	T2	#####	spk3	143.13	143.4	0.01	_
20091112_RATP_SCD_1145	32	14	ben	DISF_M	pres	I_T	NULL	NOLINK	0	idtext0039	ben	#####	spk3	143.41	143.51	0.01	/
20091112_RATP_SCD_1145	32	15	qui	NULL	prorel	NULL	B_NULL	SUJ	16	idtext0039	qui	#####	spk3	143.52	143.7	0.01	_
20091112_RATP_SCD_1145	32	16	va	NULL	v	NULL	B_GVf	MOD_REL	13	idtext0039	aller	P#3##s##	spk3	143.71	144.03	0.01	_
20091112_RATP_SCD_1145	32	17	vers	NULL	prep	NULL	B_GP	P_OBJ_LOC	16	idtext0039	vers	#####	spk3	144.04	144.21	0.01	_
20091112_RATP_SCD_1145	32	18	la	NULL	det	NULL	I_GP	DET	19	idtext0039	le	##m#s##d	spk3	144.22	144.29	0.01	_
20091112_RATP_SCD_1145	32	19	Porte+de+Versailles	NULL	nc	B_A	I_GP	OBJ	17	idtext0039	Porte+de+Versailles	#####	spk3	144.3	144.87	0.01	_
20091112_RATP_SCD_1145	32	20	toujours	NULL	adv	NULL	B_GADV	MOD	19	idtext0039	toujours	#####	spk3	144.88	145.6	0.01	//
20091112_RATP_SCD_1145	32	21	euh	DISF_M	pres	NULL	NULL	NOLINK	0	idtext0040	euh	#####	spk3	145.61	145.63	0.01	_
20091112_RATP_SCD_1145	32	22	je	NULL	cln	NULL	B_GN	SUJ	23	idtext0040	cln	#1##s##	spk3	145.64	145.81	0.01	_
20091112_RATP_SCD_1145	32	23	voulais	NULL	v	NULL	B_GVf	ROOT	0	idtext0040	vouloir	I#12##s##	spk3	145.82	146.14	0.01	_
20091112_RATP_SCD_1145	32	24	savoir	NULL	vinf	NULL	I_GVf	OBJ	23	idtext0040	savoir	W#####	spk3	146.15	146.53	0.01	_
20091112_RATP_SCD_1145	32	25	euh	DISF_M	pres	NULL	NULL	NOLINK	0	idtext0040	euh	#####	spk3	146.54	146.56	0.01	_
20091112_RATP_SCD_1145	32	26	si	NULL	csu	NULL	B_NULL	OBJ	23	idtext0040	si	#####	spk3	146.57	146.82	0.01	_
20091112_RATP_SCD_1145	32	27	vous	NULL	cln	NULL	B_GN	SUJ	29	idtext0040	cln	#2##p##	spk3	146.83	146.92	0.01	_
20091112_RATP_SCD_1145	32	28	savez	DISF_R	v	NULL	NULL	NOLINK	0	idtext0040	savoir	P#2##p##	spk3	146.93	147.08	0.01	_
20091112_RATP_SCD_1145	32	29	connaissez	NULL	v	NULL	B_GVf	OBJ	26	idtext0040	connaître	P#2##p##	spk3	147.09	147.58	0.01	_
20091112_RATP_SCD_1145	32	30	le	NULL	det	NULL	B_GN	DET	31	idtext0040	le	##m#s##d	spk3	147.59	147.79	0.01	_
20091112_RATP_SCD_1145	32	31	bus	NULL	nc	NULL	I_GN	OBJ	29	idtext0040	bus	##m###	spk3	147.8	148.08	0.01	_
20091112_RATP_SCD_1145	32	32	euh	DISF_M	pres	NULL	NULL	NOLINK	0	idtext0040	euh	#####	spk3	148.09	148.18	0.01	_
20091112_RATP_SCD_1145	32	33	qui	NULL	prorel	NULL	B_NULL	SUJ	34	idtext0040	qui	#####	spk3	148.19	148.46	0.01	_
20091112_RATP_SCD_1145	32	34	va	NULL	v	NULL	B_GVf	MOD_REL	31	idtext0040	aller	P#3##s##	spk3	148.47	148.62	0.01	_
20091112_RATP_SCD_1145	32	35	jusqu'à	NULL	prep	NULL	B_GP	P_OBJ_LOC	34	idtext0040	jusqu'à	#####	spk3	148.63	149.2	0.01	_
20091112_RATP_SCD_1145	32	36	l'	NULL	det	NULL	I_GP	DET	37	idtext0040	le	###s##d	spk3	149.21	149.27	0.01	_
20091112_RATP_SCD_1145	32	37	Aquaboulevard	NULL	np	B_L	I_GP	OBJ	35	idtext0040	Aquaboulevard	#####	spk3	149.28	150.02	?	//

20091112_RATP_SCD_1145	33	1	de	NULL	prep	NULL	B_GP	ROOT	0	idtext0041	de	#####	spk2	151.27	151.44	0.01	_
20091112_RATP_SCD_1145	33	2	Porte+de+Versailles	NULL	nc	B_A	I_GP	OBJ	1	idtext0041	Porte+de+Versailles	#####	spk2	151.45	152.19	0.01	_
20091112_RATP_SCD_1145	33	3	à	NULL	prep	NULL	B_GP	ROOT	0	idtext0041	à	#####	spk2	152.2	152.22	0.01	_
20091112_RATP_SCD_1145	33	4	l'	NULL	det	NULL	I_GP	DET	5	idtext0041	le	###s##d	spk2	152.23	152.26	0.01	_
20091112_RATP_SCD_1145	33	5	Aquaboulevard	NULL	np	B_L	I_GP	OBJ	3	idtext0041	Aquaboulevard	#####	spk2	152.27	152.81	0.01	_
20091112_RATP_SCD_1145	33	6	il	NULL	cln	NULL	B_GN	SUJ_IMP	8	idtext0041	cln	#3#m#s##	spk2	152.82	152.88	0.01	_
20091112_RATP_SCD_1145	33	7	y	NULL	clo	NULL	B_GN	AFF	8	idtext0041	y	#####	spk2	152.89	152.93	0.01	_
20091112_RATP_SCD_1145	33	8	aurait	NULL	v	NULL	B_GVf	ROOT	0	idtext0041	avoir	C#3##s##	spk2	152.94	153.06	0.01	_
20091112_RATP_SCD_1145	33	9	un	NULL	det	NULL	B_GN	DET	10	idtext0041	un	##m#s##i	spk2	153.07	153.13	0.01	_
20091112_RATP_SCD_1145	33	10	bus	NULL	nc	NULL	I_GN	OBJ	8	idtext0041	bus	##m###	spk2	153.14	153.28	0.01	_
20091112_RATP_SCD_1145	33	11	c'	NULL	cln	NULL	B_GN	SUJ_IMP	12	idtext0041	ce	###s##	spk2	153.29	153.39	0.01	_
20091112_RATP_SCD_1145	33	12	est	NULL	v	NULL	B_GVf	ROOT	0	idtext0041	être	P#3##s##	spk2	153.4	153.42	0.01	_
20091112_RATP_SCD_1145	33	13	ça	NULL	pro	NULL	B_GN	ATS	12	idtext0041	ça	#####	spk2	153.43	153.97	0.01	_
20091112_RATP_SCD_1145	33	14	ben	DISF_M	pres	NULL	NULL	NOLINK	0	idtext0041	ben	#####	spk2	153.98	154.1	0.01	_
20091112_RATP_SCD_1145	33	15	à	NULL	prep	NULL	B_GP	MOD	10	idtext0041	à	#####	spk2	154.11	154.15	0.01	_
20091112_RATP_SCD_1145	33	16	mon	NULL	det	NULL	I_GP	DET	17	idtext0041	mon	###s##o	spk2	154.16	154.34	0.01	_
20091112_RATP_SCD_1145	33	17	avis	NULL	nc	NULL	I_GP	OBJ	15	idtext0041	avis	##m###	spk2	154.35	154.7	0.01	//
20091112_RATP_SCD_1145	33	18	euh	DISF_M	pres	NULL	NULL	NOLINK	0	idtext0041	euh	#####	spk2	154.71	154.76	0.01	_
20091112_RATP_SCD_1145	33	19	pff	DISF_M	pres	NULL	NULL	NOLINK	0	idtext0041	pff	#####	spk2	154.77	155.91	0.01	_
20091112_RATP_SCD_1145	33	20	je	NULL	cln	NULL	B_GN	SUJ	21	idtext0041	cln	#1##s##	spk2	155.92	156.05	0.01	_
20091112_RATP_SCD_1145	33	21	sais	NULL	v	NULL	B_GVf	ROOT	0	idtext0041	savoir	P#12##s##	spk2	156.06	156.11	0.01	_
20091112_RATP_SCD_1145	33	22	même	NULL	adv	NULL	B_GADV	MOD	23	idtext0041	même	###s##	spk2	156.12	156.25	0.01	_
20091112_RATP_SCD_1145	33	23	pas	NULL	advneg	NULL	B_NULL	ROOT	0	idtext0041	pas	#####	spk2	156.26	156.34	0.01	_
20091112_RATP_SCD_1145	33	24	si	NULL	csu	NULL	B_NULL	OBJ	21	idtext0041	si	#####	spk2	156.35	156.42	0.01	_
20091112_RATP_SCD_1145	33	25	ça	NULL	pro	NULL	B_GN	SUJ_IMP	26	idtext0041	ça	#####	spk2	156.43	156.53	0.01	_
20091112_RATP_SCD_1145	33	26	va	NULL	v	NULL	B_GVf	OBJ	24	idtext0041	aller	P#3##s##	spk2	156.54	156.66	0.01	_
20091112_RATP_SCD_1145	33	27	valoir	NULL	vinf	NULL	I_GVf	OBJ	26	idtext0041	valoir	W#####	spk2	156.67	156.96	0.01	_
20091112_RATP_SCD_1145	33	28	le	NULL	det	NULL	B_GN	DET	29	idtext0041	le	##m#s##d	spk2	156.97	156.99	0.01	_
20091112_RATP_SCD_1145	33	29	coup	NULL	nc	NULL	I_GN	OBJ	27	idtext0041	coup	##m#s##	spk2	157.0	157.13	0.01	_
20091112_RATP_SCD_1145	33	30	de	NULL	prep	NULL	B_GP	DEP	29	idtext0041	de	#####	spk2	157.14	157.16	0.01	_
20091112_RATP_SCD_1145	33	31	prendre	NULL	vinf	NULL	I_GP	OBJ	30	idtext0041	prendre	W#####	spk2	157.17	157.38	0.01	_
20091112_RATP_SCD_1145	33	32	le	NULL	det	NULL	B_GN	DET	33	idtext0041	le	##m#s##d	spk2	157.39	157.48	0.01	_
20091112_RATP_SCD_1145	33	33	bus	NULL	nc	NULL	I_GN	OBJ	31	idtext0041	bus	##m###	spk2	157.49	157.67	0.01	_
20091112_RATP_SCD_1145	33	34	hein	DISF_M	pres	NULL	NULL	NOLINK	0	idtext0041	hein	#####	spk2	157.68	158.48	0.01	_
20091112_RATP_SCD_1145	33	35	patientez	NULL	v	NULL	B_GVf	NOLINK	0	idtext0042	patienter	P#2##p##	spk2	158.49	158.91	0.01	_
20091112_RATP_SCD_1145	33	36	je	NULL	cln	NULL	B_GN	SUJ	37	idtext0042	cln	#1##s##	spk2	158.92	159.0	0.01	_
20091112_RATP_SCD_1145	33	37	vais	NULL	v	NULL	B_GVf	ROOT	0	idtext0042	aller	P#1##s##	spk2	159.01	159.06	0.01	_
20091112_RATP_SCD_1145	33	38	regarder	NULL	vinf	NULL	I_GVf	OBJ	37	idtext0042	regarder	W#####	spk2	159.07	159.73	?	//

20091112_RATP_SCD_1145	34	1	d'accord	NULL	adv	NULL	B_GADV	MOD	2	idtext0043	d'accord	#####	spk3	159.77	160.06	0.01	_
20091112_RATP_SCD_1145	34	2	merci	NULL	adv	NULL	I_GADV	ROOT	0	idtext0043	merci	#####	spk3	160.07	160.34	?	//

20091112_RATP_SCD_1145	35	1	s'il+vous+plaît	NULL	adv	NULL	B_GADV	NOLINK	0	idtext0044	s'il+vous+plaît	#####	spk2	278.16	278.71	?	//

20091112_RATP_SCD_1145	36	1	monsieur	NULL	nc	NULL	B_GN	NOLINK	0	idtext0045	Monsieur	##m#s##	spk3	278.76	280.14	?	//

20091112_RATP_SCD_1145	37	1	donc	NULL	coo	NULL	B_NULL	ROOT	0	idtext0046	donc	#####	spk2	280.53	280.65	0.01	_
20091112_RATP_SCD_1145	37	2	à	NULL	prep	NULL	B_GP	P_OBJ_LOC	6	idtext0046	à	#####	spk2	280.66	280.68	0.01	_
20091112_RATP_SCD_1145	37	3	la	NULL	det	NULL	I_GP	DET	4	idtext0046	le	##m#s##d	spk2	280.69	280.8	0.01	_
20091112_RATP_SCD_1145	37	4	Porte+de+Versailles	NULL	nc	B_A	I_GP	OBJ	2	idtext0046	Porte+de+Versailles	#####	spk2	280.81	281.38	0.01	_
20091112_RATP_SCD_1145	37	5	il	NULL	cln	NULL	B_GN	SUJ_IMP	6	idtext0046	cln	#3#m#s##	spk2	281.39	281.44	0.01	_
20091112_RATP_SCD_1145	37	6	faudra	NULL	v	NULL	B_GVf	DEP_COORD	1	idtext0046	falloir	F#3##s##	spk2	281.45	281.63	0.01	_
20091112_RATP_SCD_1145	37	7	emprunter	NULL	vinf	NULL	I_GVf	OBJ	6	idtext0046	emprunter	W#####	spk2	281.64	282.07	0.01	_
20091112_RATP_SCD_1145	37	8	le	NULL	det	NULL	B_GN	DET	9	idtext0046	le	##m#s##d	spk2	282.08	282.12	0.01	_
20091112_RATP_SCD_1145	37	9	T3	NULL	nc	B_T	I_GN	OBJ	7	idtext0046	T3	#####	spk2	282.13	282.7	?	//

20091112_RATP_SCD_1145	38	1	oui	NULL	adv	NULL	B_GADV	NOLINK	0	idtext0047	oui	#####	spk3	283.38	283.6	?	//

20091112_RATP_SCD_1145	39	1	direction	NULL	nc	NULL	B_GN	ROOT	0	idtext0048	direction	##f#s##	spk2	283.76	284.18	0.01	_
20091112_RATP_SCD_1145	39	2	Pont+du+Garigliano	NULL	nc	B_A	I_GN	MOD	1	idtext0048	Pont+du+Garigliano	#####	spk2	284.19	285.31	?	//

20091112_RATP_SCD_1145	40	1	oui	NULL	adv	NULL	B_GADV	NOLINK	0	idtext0049	oui	#####	spk3	285.48	285.77	?	//

20091112_RATP_SCD_1145	41	1	descendre	NULL	vinf	NULL	B_GVi	ROOT	0	idtext0050	descendre	W#####	spk2	285.92	286.31	0.01	_
20091112_RATP_SCD_1145	41	2	à	NULL	prep	NULL	B_GP	P_OBJ_LOC	1	idtext0050	à	#####	spk2	286.32	286.4	0.01	_
20091112_RATP_SCD_1145	41	3	Balard	NULL	nc	B_A	I_GP	OBJ	2	idtext0050	Balard	#####	spk2	286.41	286.91	?	//

20091112_RATP_SCD_1145	42	1	hm+hm	DISF_M	pres	NULL	NULL	NOLINK	0	idtext0051	hm+hm	#####	spk3	287.44	287.77	?	//

20091112_RATP_SCD_1145	43	1	et	NULL	coo	NULL	B_NULL	ROOT	0	idtext0052	et	#####	spk2	288.12	288.17	0.01	_
20091112_RATP_SCD_1145	43	2	quand	NULL	csu	NULL	B_NULL	MOD	9	idtext0052	quand	#####	spk2	288.18	288.32	0.01	_
20091112_RATP_SCD_1145	43	3	vous	NULL	cln	NULL	B_GN	SUJ	4	idtext0052	cln	#2##p##	spk2	288.33	288.45	0.01	_
20091112_RATP_SCD_1145	43	4	êtes	NULL	v	NULL	B_GVf	OBJ	2	idtext0052	être	P#2##p##	spk2	288.46	288.62	0.01	_
20091112_RATP_SCD_1145	43	5	à	NULL	prep	NULL	B_GP	P_OBJ_LOC	4	idtext0052	à	#####	spk2	288.63	288.68	0.01	_
20091112_RATP_SCD_1145	43	6	Balard	NULL	nc	B_A	I_GP	OBJ	5	idtext0052	Balard	#####	spk2	288.69	289.03	0.01	//
20091112_RATP_SCD_1145	43	7	hein	DISF_M	pres	I_A	NULL	NOLINK	0	idtext0052	hein	#####	spk2	289.04	289.14	0.01	_
20091112_RATP_SCD_1145	43	8	vous	NULL	cln	NULL	B_GN	SUJ	9	idtext0052	cln	#2##p##	spk2	289.15	289.34	0.01	_
20091112_RATP_SCD_1145	43	9	êtes	NULL	v	NULL	B_GVf	DEP_COORD	1	idtext0052	être	P#2##p##	spk2	289.35	289.47	0.01	_
20091112_RATP_SCD_1145	43	10	tout	NULL	adv	NULL	B_GADJ	MOD	11	idtext0052	tout	##m#s##	spk2	289.48	289.61	0.01	_
20091112_RATP_SCD_1145	43	11	proche	NULL	adj	NULL	I_GADJ	ATS	9	idtext0052	proche	###s##	spk2	289.62	289.94	0.01	_
20091112_RATP_SCD_1145	43	12	hein	DISF_M	pres	NULL	NULL	NOLINK	0	idtext0052	hein	#####	spk2	289.95	290.04	0.01	_
20091112_RATP_SCD_1145	43	13	parce+que	NULL	csu	NULL	B_NULL	MOD	9	idtext0052	parce+que	#####	spk2	290.05	290.3	0.01	_
20091112_RATP_SCD_1145	43	14	ça	NULL	pro	NULL	B_GN	SUJ_IMP	15	idtext0052	ça	#####	spk2	290.31	290.43	0.01	_
20091112_RATP_SCD_1145	43	15	va	NULL	v	NULL	B_GVf	OBJ	13	idtext0052	aller	P#3##s##	spk2	290.44	290.5	0.01	_
20091112_RATP_SCD_1145	43	16	vous	NULL	clo	NULL	B_GN	A_OBJ	17	idtext0052	cln	#2##p##	spk2	290.51	290.57	0.01	_
20091112_RATP_SCD_1145	43	17	faire	NULL	vinf	NULL	B_GVi	OBJ	15	idtext0052	faire	W#####	spk2	290.58	290.75	0.01	_
20091112_RATP_SCD_1145	43	18	prendre	NULL	vinf	NULL	B_GVi	OBJ	17	idtext0052	prendre	W#####	spk2	290.76	290.96	0.01	_
20091112_RATP_SCD_1145	43	19	un	NULL	det	NULL	B_GN	DET	20	idtext0052	un	##m#s##i	spk2	290.97	291.03	0.01	_
20091112_RATP_SCD_1145	43	20	bus	NULL	nc	NULL	I_GN	OBJ	18	idtext0052	bus	##m###	spk2	291.04	291.26	0.01	_
20091112_RATP_SCD_1145	43	21	pour	NULL	prep	NULL	B_GP	P_OBJ	20	idtext0052	pour	#####	spk2	291.27	291.49	0.01	_
20091112_RATP_SCD_1145	43	22	une	NULL	det	NULL	I_GP	DET	23	idtext0052	un	##f#s##i	spk2	291.5	291.61	0.01	_
20091112_RATP_SCD_1145	43	23	station	NULL	nc	NULL	I_GP	OBJ	21	idtext0052	station	##f#s##	spk2	291.62	292.47	0.01	_
20091112_RATP_SCD_1145	43	24	ça	NULL	pro	NULL	I_GP	SUJ_IMP	25	idtext0053	ça	#####	spk2	292.48	292.58	0.01	_
20091112_RATP_SCD_1145	43	25	sert	NULL	v	NULL	B_GVf	ROOT	0	idtext0053	servir	P#3##s##	spk2	292.59	292.74	0.01	_
20091112_RATP_SCD_1145	43	26	trop	NULL	adv	NULL	B_GADV	MOD	25	idtext0053	trop	#####	spk2	292.75	292.9	0.01	_
20091112_RATP_SCD_1145	43	27	à	NULL	prep	NULL	B_GP	P_OBJ	25	idtext0053	à	#####	spk2	292.91	292.97	0.01	_
20091112_RATP_SCD_1145	43	28	rien	NULL	pro	NULL	I_GP	OBJ	27	idtext0053	rien	#####	spk2	292.98	293.24	?	_

20091112_RATP_SCD_1145	44	1	bon	DISF_M	pres	NULL	NULL	NOLINK	0	idtext0054	bon	#####	spk3	293.92	294.14	?	_

20091112_RATP_SCD_1145	45	1	merci	NULL	adv	NULL	B_GADV	NOLINK	0	idtext0055	merci	#####	spk3	294.26	294.86	?	//

20091112_RATP_SCD_1145	46	1	quand	NULL	csu	NULL	B_NULL	ROOT	0	idtext0056	quand	#####	spk2	294.19	294.27	0.01	_
20091112_RATP_SCD_1145	46	2	vous	NULL	cln	NULL	B_GN	SUJ	3	idtext0056	cln	#2##p##	spk2	294.28	294.39	0.01	_
20091112_RATP_SCD_1145	46	3	descendez	NULL	v	NULL	B_GVf	OBJ	1	idtext0056	descendre	P#2##p##	spk2	294.4	294.74	0.01	_
20091112_RATP_SCD_1145	46	4	à	NULL	prep	NULL	B_NULL	NOLINK	0	idtext0056	à	#####	spk2	294.75	294.86	?	_

20091112_RATP_SCD_1145	47	1	Balard	NULL	nc	B_A	B_GN	NOLINK	0	idtext0057	Balard	#####	spk2	294.9	295.12	0.01	/
20091112_RATP_SCD_1145	47	2	vous	NULL	cln	NULL	B_GN	SUJ	3	idtext0057	cln	#2##p##	spk2	295.13	295.22	0.01	_
20091112_RATP_SCD_1145	47	3	traversez	NULL	v	NULL	B_GVf	ROOT	0	idtext0057	traverser	P#2##p##	spk2	295.23	295.69	0.01	_
20091112_RATP_SCD_1145	47	4	le	NULL	det	NULL	B_GN	DET	5	idtext0057	le	##m#s##d	spk2	295.7	295.73	0.01	_
20091112_RATP_SCD_1145	47	5	boulevard	NULL	nc	NULL	I_GN	OBJ	3	idtext0057	boulevard	##m#s##	spk2	295.74	296.31	?	//

20091112_RATP_SCD_1145	48	1	alors	NULL	adv	NULL	B_GADV	NOLINK	0	idtext0058	alors	#####	spk2	297.43	297.79	0.01	_
20091112_RATP_SCD_1145	48	2	et	NULL	coo	NULL	B_NULL	ROOT	0	idtext0058	et	#####	spk2	297.8	297.87	0.01	_
20091112_RATP_SCD_1145	48	3	vous	NULL	cln	NULL	B_GN	SUJ	4	idtext0058	cln	#2##p##	spk2	297.88	297.93	0.01	_
20091112_RATP_SCD_1145	48	4	allez	NULL	v	NULL	B_GVf	DEP_COORD	2	idtext0058	aller	P#2##p##	spk2	297.94	298.25	0.01	_
20091112_RATP_SCD_1145	48	5	euh	DISF_M	pres	NULL	NULL	NOLINK	0	idtext0058	euh	#####	spk2	298.26	298.85	0.01	_
20091112_RATP_SCD_1145	48	6	dans	NULL	prep	NULL	B_GP	P_OBJ_LOC	4	idtext0058	dans	#####	spk2	298.86	298.99	0.01	_
20091112_RATP_SCD_1145	48	7	la	NULL	det	NULL	I_GP	DET	8	idtext0058	le	##m#s##d	spk2	299.0	299.14	0.01	_
20091112_RATP_SCD_1145	48	8	rue	NULL	nc	NULL	I_GP	OBJ	6	idtext0058	rue	##f#s##	spk2	299.15	299.26	0.01	_
20091112_RATP_SCD_1145	48	9	qui	NULL	prorel	NULL	B_NULL	SUJ	10	idtext0058	qui	#####	spk2	299.27	299.39	0.01	_
20091112_RATP_SCD_1145	48	10	fait	NULL	v	NULL	B_GVf	MOD_REL	8	idtext0058	faire	P#3##s##	spk2	299.4	299.52	0.01	_
20091112_RATP_SCD_1145	48	11	la	NULL	det	NULL	B_GN	DET	12	idtext0058	le	##m#s##d	spk2	299.53	299.62	0.01	_
20091112_RATP_SCD_1145	48	12	perpendiculaire	NULL	adj	NULL	I_GN	OBJ	10	idtext0058	perpendiculaire	###s##	spk2	299.63	300.84	?	//

20091112_RATP_SCD_1145	49	1	oui	NULL	adv	NULL	B_GADV	NOLINK	0	idtext0059	oui	#####	spk3	301.04	301.38	?	//

20091112_RATP_SCD_1145	50	1	et	NULL	coo	NULL	B_NULL	ROOT	0	idtext0060	et	#####	spk2	301.49	301.54	0.01	_
20091112_RATP_SCD_1145	50	2	vous	DISF_R	cln	NULL	NULL	NOLINK	0	idtext0060	cln	#2##p##	spk2	301.55	301.75	0.01	_
20091112_RATP_SCD_1145	50	3	la	DISF_R	clo	NULL	NULL	NOLINK	0	idtext0060	cla	#3#f#s##	spk2	301.76	301.94	0.01	_
20091112_RATP_SCD_1145	50	4	vous	NULL	cln	NULL	B_GN	SUJ	6	idtext0060	cln	#2##p##	spk2	301.95	302.1	0.01	_
20091112_RATP_SCD_1145	50	5	la	NULL	clo	NULL	B_GN	OBJ	6	idtext0060	cla	#3#f#s##	spk2	302.11	302.22	0.01	_
20091112_RATP_SCD_1145	50	6	remontez	NULL	v	NULL	B_GVf	DEP_COORD	1	idtext0060	remonter	P#2##p##	spk2	302.23	302.53	0.01	_
20091112_RATP_SCD_1145	50	7	et	NULL	coo	NULL	B_NULL	COORD	6	idtext0060	et	#####	spk2	302.54	302.57	0.01	_
20091112_RATP_SCD_1145	50	8	vous	NULL	cln	NULL	B_GN	SUJ	9	idtext0060	cln	#2##p##	spk2	302.58	302.64	0.01	_
20091112_RATP_SCD_1145	50	9	allez	NULL	v	NULL	B_GVf	DEP_COORD	7	idtext0060	aller	P#2##p##	spk2	302.65	302.84	0.01	_
20091112_RATP_SCD_1145	50	10	tomber	NULL	vinf	NULL	I_GVf	OBJ	9	idtext0060	tomber	W#####	spk2	302.85	303.09	0.01	_
20091112_RATP_SCD_1145	50	11	sur	DISF_R	prep	NULL	NULL	NOLINK	0	idtext0060	sur	#####	spk2	303.1	303.21	0.01	_
20091112_RATP_SCD_1145	50	12	dans	NULL	prep	NULL	B_GP	P_OBJ_LOC	9	idtext0060	dans	#####	spk2	303.22	303.43	0.01	_
20091112_RATP_SCD_1145	50	13	l'	NULL	det	NULL	I_GP	DET	14	idtext0060	le	###s##d	spk2	303.44	303.46	0.01	_
20091112_RATP_SCD_1145	50	14	Aquaboulevard	NULL	np	B_L	I_GP	OBJ	12	idtext0060	Aquaboulevard	#####	spk2	303.47	304.15	?	//

20091112_RATP_SCD_1145	51	1	bon	DISF_M	pres	NULL	NULL	NOLINK	0	idtext0061	bon	#####	spk3	304.27	304.48	0.01	_
20091112_RATP_SCD_1145	51	2	d'accord	NULL	adv	NULL	B_GADV	NOLINK	0	idtext0061	d'accord	#####	spk3	304.49	304.93	?	//

20091112_RATP_SCD_1145	52	1	merci	NULL	adv	NULL	B_GADV	NOLINK	0	idtext0062	merci	#####	spk3	304.97	305.19	0.01	_
20091112_RATP_SCD_1145	52	2	monsieur	NULL	nc	NULL	B_GN	NOLINK	0	idtext0062	Monsieur	##m#s##	spk3	305.2	305.48	?	//

20091112_RATP_SCD_1145	53	1	je	NULL	cln	NULL	B_GN	SUJ	4	idtext0063	cln	#1##s##	spk2	305.52	305.54	0.01	_
20091112_RATP_SCD_1145	53	2	vous	NULL	clo	NULL	B_GN	OBJ	4	idtext0063	cln	#2##p##	spk2	305.55	305.67	0.01	_
20091112_RATP_SCD_1145	53	3	en	NULL	clo	NULL	B_GN	DE_OBJ	4	idtext0063	en	#####	spk2	305.68	305.73	0.01	_
20091112_RATP_SCD_1145	53	4	prie	NULL	v	NULL	B_GVf	ROOT	0	idtext0063	prier	PS#13##s##	spk2	305.74	305.91	0.01	_
20091112_RATP_SCD_1145	53	5	au+revoir	NULL	adv	NULL	B_GADV	NOLINK	0	idtext0063	au+revoir	#####	spk2	305.92	306.26	?	//

20091112_RATP_SCD_1145	54	1	au+revoir	NULL	adv	NULL	B_GADV	NOLINK	0	idtext0064	au+revoir	#####	spk3	306.34	306.75	?	//

