20091112_RATP_SCD_0333	1	1	NNAAMMEE	NULL	np	B_HU	B_GN	ROOT	0	idtext0000	ANONYM	NULL	spk1	6.0	7.56	0.01	_
20091112_RATP_SCD_0333	1	2	bonjour	NULL	adv	NULL	B_GADV	NOLINK	0	idtext0001	bonjour	#####	spk1	7.57	8.92	?	//

20091112_RATP_SCD_0333	2	1	allo	NULL	adv	NULL	B_GADV	NOLINK	0	idtext0002	allo	#####	spk2	8.97	9.46	?	//

20091112_RATP_SCD_0333	3	1	oui	NULL	adv	NULL	B_GADV	MOD	2	idtext0003	oui	#####	spk1	9.53	9.74	0.01	_
20091112_RATP_SCD_0333	3	2	bonjour	NULL	adv	NULL	I_GADV	ROOT	0	idtext0003	bonjour	#####	spk1	9.75	10.04	?	//

20091112_RATP_SCD_0333	4	1	allo	NULL	adv	NULL	B_GADV	NOLINK	0	idtext0004	allo	#####	spk2	10.09	10.17	0.01	_
20091112_RATP_SCD_0333	4	2	vous	NULL	cln	NULL	B_GN	SUJ	4	idtext0004	cln	#2##p##	spk2	10.18	10.23	0.01	_
20091112_RATP_SCD_0333	4	3	m'	NULL	clo	NULL	B_GN	OBJ	4	idtext0004	cla	#1##s##	spk2	10.24	10.27	0.01	_
20091112_RATP_SCD_0333	4	4	entendez	NULL	v	NULL	B_GVf	ROOT	0	idtext0004	entendre	P#2##p##	spk2	10.28	10.64	0.01	_
20091112_RATP_SCD_0333	4	5	oui	NULL	adv	NULL	B_GADV	MOD	6	idtext0004	oui	#####	spk2	10.65	10.81	0.01	_
20091112_RATP_SCD_0333	4	6	bonjour	NULL	adv	NULL	I_GADV	MOD	4	idtext0004	bonjour	#####	spk2	10.82	11.12	0.01	/
20091112_RATP_SCD_0333	4	7	madame	NULL	nc	NULL	B_GN	NOLINK	0	idtext0004	Monsieur	##f#s##	spk2	11.13	11.95	0.01	_
20091112_RATP_SCD_0333	4	8	je	NULL	cln	NULL	B_GN	SUJ	9	idtext0005	cln	#1##s##	spk2	11.96	12.1	0.01	_
20091112_RATP_SCD_0333	4	9	suis	NULL	v	NULL	B_GVf	ROOT	0	idtext0005	être	P#1##s##	spk2	12.11	12.2	0.01	_
20091112_RATP_SCD_0333	4	10	assistante	NULL	nc	NULL	B_GN	ATS	9	idtext0005	assistant	##f#s##	spk2	12.21	12.57	0.01	_
20091112_RATP_SCD_0333	4	11	sociale	NULL	adj	NULL	I_GN	MOD	10	idtext0005	social	##f#s##	spk2	12.58	12.9	0.01	_
20091112_RATP_SCD_0333	4	12	sur	NULL	prep	NULL	B_GP	P_OBJ_LOC	9	idtext0005	sur	#####	spk2	12.91	12.99	0.01	_
20091112_RATP_SCD_0333	4	13	l'	NULL	det	NULL	I_GP	DET	14	idtext0005	le	###s##d	spk2	13.0	13.02	0.01	_
20091112_RATP_SCD_0333	4	14	hôpital	NULL	nc	NULL	I_GP	OBJ	12	idtext0005	hôpital	##m#s##	spk2	13.03	13.28	0.01	_
20091112_RATP_SCD_0333	4	15	de	NULL	prep	NULL	B_GP	DEP	14	idtext0005	de	#####	spk2	13.29	13.35	0.01	_
20091112_RATP_SCD_0333	4	16	Maison+Blanche	NULL	nc	B_A	I_GP	OBJ	15	idtext0005	Maison+Blanche	#####	spk2	13.36	14.2	?	//

20091112_RATP_SCD_0333	5	1	oui	NULL	adv	NULL	B_GADV	NOLINK	0	idtext0006	oui	#####	spk1	14.25	14.62	?	//

20091112_RATP_SCD_0333	6	1	et	NULL	coo	NULL	B_NULL	ROOT	0	idtext0007	et	#####	spk2	14.68	14.77	0.01	_
20091112_RATP_SCD_0333	6	2	j'	NULL	cln	NULL	B_GN	SUJ	4	idtext0007	cln	#1##s##	spk2	14.78	14.82	0.01	_
20091112_RATP_SCD_0333	6	3	aurais	NULL	v	NULL	B_GVf	AUX	4	idtext0007	avoir	C#12##s##	spk2	14.83	14.98	0.01	_
20091112_RATP_SCD_0333	6	4	voulu	NULL	vppart	NULL	I_GVf	DEP_COORD	1	idtext0007	vouloir	K##m#s##	spk2	14.99	15.21	0.01	_
20091112_RATP_SCD_0333	6	5	avoir	NULL	vinf	NULL	B_GVi	OBJ	4	idtext0007	avoir	W#####	spk2	15.22	15.45	0.01	_
20091112_RATP_SCD_0333	6	6	le	DISF_R	det	NULL	NULL	NOLINK	0	idtext0007	le	##m#s##d	spk2	15.46	15.87	0.01	_
20091112_RATP_SCD_0333	6	7	le	NULL	det	NULL	B_GN	DET	8	idtext0007	le	##m#s##d	spk2	15.88	16.01	0.01	_
20091112_RATP_SCD_0333	6	8	service	NULL	nc	NULL	I_GN	OBJ	5	idtext0007	service	##m#s##	spk2	16.02	16.39	0.01	_
20091112_RATP_SCD_0333	6	9	qui	NULL	prorel	NULL	B_NULL	SUJ	11	idtext0007	qui	#####	spk2	16.4	16.49	0.01	_
20091112_RATP_SCD_0333	6	10	s'	NULL	clr	NULL	B_GVf	AFF	11	idtext0007	se	#3##p##	spk2	16.5	16.52	0.01	_
20091112_RATP_SCD_0333	6	11	occupe	NULL	v	NULL	I_GVf	MOD_REL	8	idtext0007	occuper	PS#13##s##	spk2	16.53	16.7	0.01	_
20091112_RATP_SCD_0333	6	12	des	NULL	det	NULL	B_GN	DET	13	idtext0007	des	###p##i	spk2	16.71	16.93	0.01	_
20091112_RATP_SCD_0333	6	13	objets	NULL	nc	NULL	I_GN	OBJ	11	idtext0007	objet	##m#p##	spk2	16.94	17.34	0.01	_
20091112_RATP_SCD_0333	6	14	trouvés	NULL	vppart	NULL	B_GVf	MOD	13	idtext0007	trouver	K##m#p##	spk2	17.35	17.83	0.01	_
20091112_RATP_SCD_0333	6	15	ou	NULL	coo	NULL	B_NULL	COORD	14	idtext0007	ou	#####	spk2	17.84	17.92	0.01	_
20091112_RATP_SCD_0333	6	16	perdus	NULL	vppart	NULL	B_GVf	DEP_COORD	15	idtext0007	perdre	K##m#p##	spk2	17.93	18.41	0.01	_
20091112_RATP_SCD_0333	6	17	enfin	NULL	adv	NULL	B_GADV	NOLINK	0	idtext0007	enfin	#####	spk2	18.42	18.64	?	//

20091112_RATP_SCD_0333	7	1	c'	NULL	cln	NULL	B_GN	SUJ_IMP	2	idtext0008	ce	###s##	spk1	18.68	18.7	0.01	_
20091112_RATP_SCD_0333	7	2	est	NULL	v	NULL	B_GVf	ROOT	0	idtext0008	être	P#3##s##	spk1	18.71	18.78	0.01	_
20091112_RATP_SCD_0333	7	3	moi	NULL	pro	NULL	B_GN	ATS	2	idtext0008	moi	#####	spk1	18.79	19.44	?	_

20091112_RATP_SCD_0333	8	1	c'	NULL	cln	NULL	B_GN	SUJ_IMP	2	idtext0009	ce	###s##	spk2	19.5	19.53	0.01	_
20091112_RATP_SCD_0333	8	2	est	NULL	v	NULL	B_GVf	ROOT	0	idtext0009	être	P#3##s##	spk2	19.54	19.77	0.01	_
20091112_RATP_SCD_0333	8	3	vous	NULL	clo	NULL	B_GN	ATS	2	idtext0009	cln	#2##p##	spk2	19.78	20.2	?	_

20091112_RATP_SCD_0333	9	1	dites	NULL	v	NULL	B_GVf	ROOT	0	idtext0010	dire	P#2##p##	spk1	20.24	20.39	0.01	_
20091112_RATP_SCD_0333	9	2	-moi	NULL	clo	NULL	B_GN	A_OBJ	1	idtext0010	cla	#1##s##	spk1	20.4	20.55	0.01	_
20091112_RATP_SCD_0333	9	3	tout	NULL	adv	NULL	B_GADV	NOLINK	0	idtext0010	tout	##m#s##	spk1	20.56	20.82	?	/

20091112_RATP_SCD_0333	10	1	ah	DISF_M	pres	NULL	NULL	NOLINK	0	idtext0011	ah	#####	spk2	21.74	21.95	0.01	_
20091112_RATP_SCD_0333	10	2	donc	NULL	coo	NULL	B_NULL	ROOT	0	idtext0011	donc	#####	spk2	21.96	22.13	0.01	_
20091112_RATP_SCD_0333	10	3	il	NULL	cln	NULL	B_GN	SUJ_IMP	5	idtext0011	cln	#3#m#s##	spk2	22.14	22.19	0.01	_
20091112_RATP_SCD_0333	10	4	y	NULL	clo	NULL	B_GN	AFF	5	idtext0011	y	#####	spk2	22.2	22.22	0.01	_
20091112_RATP_SCD_0333	10	5	a	NULL	v	NULL	B_GVf	DEP_COORD	2	idtext0011	avoir	P#3##s##	spk2	22.23	22.25	0.01	_
20091112_RATP_SCD_0333	10	6	un	NULL	det	NULL	B_GN	DET	7	idtext0011	un	##m#s##i	spk2	22.26	22.35	0.01	_
20091112_RATP_SCD_0333	10	7	type	NULL	nc	NULL	I_GN	OBJ	5	idtext0011	type	##m#s##	spk2	22.36	22.55	0.01	_
20091112_RATP_SCD_0333	10	8	qui	NULL	prorel	NULL	B_NULL	SUJ	10	idtext0011	qui	#####	spk2	22.56	22.66	0.01	_
20091112_RATP_SCD_0333	10	9	est	NULL	v	NULL	B_GVf	AUX	10	idtext0011	être	P#3##s##	spk2	22.67	22.69	0.01	_
20091112_RATP_SCD_0333	10	10	hospitalisé	NULL	vppart	NULL	I_GVf	MOD_REL	7	idtext0011	hospitaliser	K##m#s##	spk2	22.7	23.34	0.01	/
20091112_RATP_SCD_0333	10	11	qui	NULL	prorel	NULL	B_NULL	SUJ	13	idtext0011	qui	#####	spk2	23.35	23.41	0.01	_
20091112_RATP_SCD_0333	10	12	est	NULL	v	NULL	B_GVf	AUX	13	idtext0011	être	P#3##s##	spk2	23.42	23.5	0.01	_
20091112_RATP_SCD_0333	10	13	arrivé	NULL	vppart	NULL	I_GVf	MOD_REL	7	idtext0011	arriver	K##m#s##	spk2	23.51	23.79	0.01	_
20091112_RATP_SCD_0333	10	14	en	NULL	prep	NULL	B_GP	P_OBJ	13	idtext0011	en	#####	spk2	23.8	23.86	0.01	_
20091112_RATP_SCD_0333	10	15	voyage	NULL	nc	NULL	I_GP	OBJ	14	idtext0011	voyage	##m#s##	spk2	23.87	24.07	0.01	_
20091112_RATP_SCD_0333	10	16	pathologique	NULL	adj	NULL	I_GP	MOD	15	idtext0011	pathologique	###s##	spk2	24.08	24.66	0.01	/
20091112_RATP_SCD_0333	10	17	il	NULL	cln	NULL	B_GN	SUJ	20	idtext0011	cln	#3#m#s##	spk2	24.67	24.72	0.01	_
20091112_RATP_SCD_0333	10	18	a	NULL	v	NULL	B_GVf	AUX	20	idtext0011	avoir	P#3##s##	spk2	24.73	24.78	0.01	_
20091112_RATP_SCD_0333	10	19	tout	NULL	adv	NULL	I_GVf	MOD	20	idtext0011	tout	##m#s##	spk2	24.79	24.93	0.01	_
20091112_RATP_SCD_0333	10	20	perdu	NULL	vppart	NULL	I_GVf	ROOT	0	idtext0011	perdre	K##m#s##	spk2	24.94	25.51	?	//

20091112_RATP_SCD_0333	11	1	oui	NULL	adv	NULL	B_GADV	NOLINK	0	idtext0012	oui	#####	spk1	25.69	26.11	?	//

20091112_RATP_SCD_0333	12	1	donc	NULL	coo	NULL	B_NULL	ROOT	0	idtext0013	donc	#####	spk2	26.15	26.28	0.01	_
20091112_RATP_SCD_0333	12	2	je	NULL	cln	NULL	B_GN	SUJ	3	idtext0013	cln	#1##s##	spk2	26.29	26.31	0.01	_
20091112_RATP_SCD_0333	12	3	voulais	NULL	v	NULL	B_GVf	DEP_COORD	1	idtext0013	vouloir	I#12##s##	spk2	26.32	26.51	0.01	_
20091112_RATP_SCD_0333	12	4	savoir	NULL	vinf	NULL	I_GVf	OBJ	3	idtext0013	savoir	W#####	spk2	26.52	26.89	0.01	_
20091112_RATP_SCD_0333	12	5	si	NULL	csu	NULL	B_NULL	OBJ	4	idtext0013	si	#####	spk2	26.9	26.95	0.01	_
20091112_RATP_SCD_0333	12	6	vous	NULL	cln	NULL	B_GN	SUJ	7	idtext0013	cln	#2##p##	spk2	26.96	27.08	0.01	_
20091112_RATP_SCD_0333	12	7	aviez	NULL	v	NULL	B_GVf	OBJ	5	idtext0013	avoir	I#2##p##	spk2	27.09	27.44	0.01	_
20091112_RATP_SCD_0333	12	8	pièce	NULL	nc	NULL	B_GN	OBJ	7	idtext0013	pièce	##f#s##	spk2	27.45	27.68	0.01	_
20091112_RATP_SCD_0333	12	9	d'	NULL	prep	NULL	B_GP	DEP	8	idtext0013	d'	#####	spk2	27.69	27.77	0.01	_
20091112_RATP_SCD_0333	12	10	identité	NULL	nc	NULL	I_GP	OBJ	9	idtext0013	identité	##f#s##	spk2	27.78	28.46	0.01	_
20091112_RATP_SCD_0333	12	11	et	NULL	coo	NULL	B_NULL	COORD	8	idtext0013	et	#####	spk2	28.47	28.72	0.01	_
20091112_RATP_SCD_0333	12	12	euh	DISF_M	pres	NULL	NULL	NOLINK	0	idtext0013	euh	#####	spk2	28.73	28.98	0.01	_
20091112_RATP_SCD_0333	12	13	carte	NULL	nc	NULL	B_GN	DEP_COORD	11	idtext0013	carte	##f#s##	spk2	28.99	29.32	0.01	_
20091112_RATP_SCD_0333	12	14	de	NULL	prep	NULL	B_GP	DEP	13	idtext0013	de	#####	spk2	29.33	29.65	0.01	_
20091112_RATP_SCD_0333	12	15	retrait	NULL	nc	NULL	I_GP	OBJ	14	idtext0013	retrait	##m#s##	spk2	29.66	30.23	0.01	_
20091112_RATP_SCD_0333	12	16	donc	NULL	coo	NULL	B_NULL	COORD	7	idtext0013	donc	#####	spk2	30.24	30.4	0.01	_
20091112_RATP_SCD_0333	12	17	je	NULL	cln	NULL	B_GN	SUJ	19	idtext0013	cln	#1##s##	spk2	30.41	30.46	0.01	_
20091112_RATP_SCD_0333	12	18	vous	NULL	clo	NULL	B_GN	A_OBJ	19	idtext0013	cln	#2##p##	spk2	30.47	30.57	0.01	_
20091112_RATP_SCD_0333	12	19	donne	NULL	v	NULL	B_GVf	DEP_COORD	16	idtext0013	donner	PS#13##s##	spk2	30.58	30.74	0.01	_
20091112_RATP_SCD_0333	12	20	son	NULL	det	NULL	B_GN	DET	21	idtext0013	son	###s##o	spk2	30.75	30.88	0.01	_
20091112_RATP_SCD_0333	12	21	nom	NULL	nc	NULL	I_GN	OBJ	19	idtext0013	nom	##m#s##	spk2	30.89	31.26	?	//

20091112_RATP_SCD_0333	13	1	oui	NULL	adv	NULL	B_GADV	NOLINK	0	idtext0014	oui	#####	spk1	31.3	32.09	?	//

20091112_RATP_SCD_0333	14	1	monsieur	NULL	nc	NULL	B_GN	NOLINK	0	idtext0015	Monsieur	##m#s##	spk2	32.15	35.53	0.01	_
20091112_RATP_SCD_0333	14	2	NNAAMMEE	NULL	np	B_HU	B_GN	ROOT	0	idtext0016	ANONYM	NULL	spk2	35.54	35.91	?	//

20091112_RATP_SCD_0333	15	1	donc	NULL	coo	NULL	B_NULL	ROOT	0	idtext0017	donc	#####	spk1	35.97	36.42	0.01	_
20091112_RATP_SCD_0333	15	2	l'	NULL	det	NULL	B_GN	DET	3	idtext0017	le	###s##d	spk1	36.43	36.88	0.01	_
20091112_RATP_SCD_0333	15	3	orthographe	NULL	nc	NULL	I_GN	SUJ	11	idtext0017	orthographe	##f#s##	spk1	36.89	37.28	0.01	_
20091112_RATP_SCD_0333	15	4	du	NULL	prep	NULL	B_GP	DEP	3	idtext0017	du	#####	spk1	37.29	37.34	0.01	_
20091112_RATP_SCD_0333	15	5	nom	NULL	nc	NULL	I_GP	OBJ	4	idtext0017	nom	##m#s##	spk1	37.35	37.47	0.01	_
20091112_RATP_SCD_0333	15	6	c'	NULL	cln	NULL	B_GN	SUJ_IMP	11	idtext0017	ce	###s##	spk1	37.48	37.54	0.01	_
20091112_RATP_SCD_0333	15	7	est	NULL	v	NULL	B_GVf	NOLINK	0	idtext0017	être	P#3##s##	spk1	37.55	38.2	0.01	_
20091112_RATP_SCD_0333	15	8	NNAAMMEE	NULL	np	B_HU	B_GN	ROOT	0	idtext0018	ANONYM	NULL	spk1	38.21	38.86	0.01	_
20091112_RATP_SCD_0333	15	9	il	NULL	cln	NULL	B_GN	SUJ	11	idtext0019	cln	#3#m#s##	spk1	38.87	39.05	0.01	_
20091112_RATP_SCD_0333	15	10	a	NULL	v	NULL	B_GVf	AUX	11	idtext0019	avoir	P#3##s##	spk1	39.06	39.13	0.01	_
20091112_RATP_SCD_0333	15	11	perdu	NULL	vppart	NULL	I_GVf	DEP_COORD	1	idtext0019	perdre	K##m#s##	spk1	39.14	39.55	0.01	/
20091112_RATP_SCD_0333	15	12	quand	NULL	adv	NULL	B_GADV	MOD	13	idtext0019	quand	#####	spk1	39.56	39.91	0.01	_
20091112_RATP_SCD_0333	15	13	où	NULL	adv	NULL	I_GADV	MOD	14	idtext0019	où	#####	spk1	39.92	40.22	0.01	_
20091112_RATP_SCD_0333	15	14	comment	NULL	adv	NULL	I_GADV	MOD	11	idtext0019	comment	#####	spk1	40.23	40.85	?	_

20091112_RATP_SCD_0333	16	1	alors	NULL	adv	NULL	B_GADV	NOLINK	0	idtext0020	alors	#####	spk2	40.9	41.33	0.01	_
20091112_RATP_SCD_0333	16	2	donc	NULL	coo	NULL	B_NULL	ROOT	0	idtext0020	donc	#####	spk2	41.34	41.62	0.01	_
20091112_RATP_SCD_0333	16	3	il	NULL	cln	NULL	B_GN	SUJ	6	idtext0020	cln	#3#m#s##	spk2	41.63	41.81	0.01	_
20091112_RATP_SCD_0333	16	4	s'	NULL	clr	NULL	B_GVf	AFF	6	idtext0020	se	#3##p##	spk2	41.82	41.84	0.01	_
20091112_RATP_SCD_0333	16	5	est	NULL	v	NULL	I_GVf	AUX	6	idtext0020	être	P#3##s##	spk2	41.85	41.87	0.01	_
20091112_RATP_SCD_0333	16	6	retrouvé	NULL	vppart	NULL	I_GVf	DEP_COORD	2	idtext0020	retrouver	K##m#s##	spk2	41.88	42.23	0.01	_
20091112_RATP_SCD_0333	16	7	à	NULL	prep	NULL	B_GP	MOD	6	idtext0020	à	#####	spk2	42.24	42.28	0.01	_
20091112_RATP_SCD_0333	16	8	l'	NULL	det	NULL	I_GP	DET	9	idtext0020	le	###s##d	spk2	42.29	42.32	0.01	_
20091112_RATP_SCD_0333	16	9	hôpital	NULL	nc	NULL	I_GP	OBJ	7	idtext0020	hôpital	##m#s##	spk2	42.33	42.72	0.01	_
20091112_RATP_SCD_0333	16	10	le	NULL	det	NULL	B_GN	DET	12	idtext0020	le	##m#s##d	spk2	42.73	42.91	0.01	_
20091112_RATP_SCD_0333	16	11	sept	NULL	det	B_D	I_GN	DET	12	idtext0020	sept	#####	spk2	42.92	43.21	0.01	_
20091112_RATP_SCD_0333	16	12	novembre	NULL	nc	I_D	I_GN	MOD	6	idtext0020	novembre	##m#s##	spk2	43.22	43.72	0.01	_
20091112_RATP_SCD_0333	16	13	donc	NULL	coo	NULL	B_NULL	COORD	6	idtext0020	donc	#####	spk2	43.73	43.83	0.01	_
20091112_RATP_SCD_0333	16	14	il	NULL	cln	NULL	B_GN	SUJ	17	idtext0020	cln	#3#m#s##	spk2	43.84	43.91	0.01	_
20091112_RATP_SCD_0333	16	15	l'	NULL	clo	NULL	B_GN	OBJ	17	idtext0020	cla	#3##s##	spk2	43.92	43.94	0.01	_
20091112_RATP_SCD_0333	16	16	a	NULL	v	NULL	B_GVf	AUX	17	idtext0020	avoir	P#3##s##	spk2	43.95	44.02	0.01	_
20091112_RATP_SCD_0333	16	17	perdu	NULL	vppart	NULL	I_GVf	DEP_COORD	13	idtext0020	perdre	K##m#s##	spk2	44.03	44.36	0.01	_
20091112_RATP_SCD_0333	16	18	peut-être	NULL	adv	NULL	B_GADV	MOD	17	idtext0020	peut-être	#####	spk2	44.37	44.74	0.01	_
20091112_RATP_SCD_0333	16	19	entre	NULL	prep	NULL	B_GP	MOD	17	idtext0020	entre	#####	spk2	44.75	45.05	0.01	_
20091112_RATP_SCD_0333	16	20	le	NULL	det	NULL	I_GP	DET	21	idtext0020	le	##m#s##d	spk2	45.06	45.23	0.01	_
20091112_RATP_SCD_0333	16	21	six	NULL	nc	NULL	I_GP	OBJ	19	idtext0020	six	##m###	spk2	45.24	45.5	0.01	_
20091112_RATP_SCD_0333	16	22	et	NULL	coo	NULL	B_NULL	COORD	21	idtext0020	et	#####	spk2	45.51	45.53	0.01	_
20091112_RATP_SCD_0333	16	23	le	NULL	det	NULL	B_GN	DET	24	idtext0020	le	##m#s##d	spk2	45.54	45.82	0.01	_
20091112_RATP_SCD_0333	16	24	sept	NULL	nc	NULL	I_GN	DEP_COORD	22	idtext0020	sept	##m###	spk2	45.83	46.21	?	_

20091112_RATP_SCD_0333	17	1	d'accord	NULL	adv	NULL	B_GADV	NOLINK	0	idtext0021	d'accord	#####	spk1	46.25	46.57	0.01	_
20091112_RATP_SCD_0333	17	2	donc	NULL	coo	NULL	B_NULL	ROOT	0	idtext0021	donc	#####	spk1	46.58	46.71	0.01	_
20091112_RATP_SCD_0333	17	3	je	NULL	cln	NULL	B_GN	SUJ	4	idtext0021	cln	#1##s##	spk1	46.72	46.78	0.01	_
20091112_RATP_SCD_0333	17	4	vais	NULL	v	NULL	B_GVf	DEP_COORD	2	idtext0021	aller	P#1##s##	spk1	46.79	46.85	0.01	_
20091112_RATP_SCD_0333	17	5	regarder	NULL	vinf	NULL	I_GVf	OBJ	4	idtext0021	regarder	W#####	spk1	46.86	47.87	0.01	//
20091112_RATP_SCD_0333	17	6	c'	NULL	cln	NULL	B_GN	SUJ_IMP	7	idtext0022	ce	###s##	spk1	47.88	47.99	0.01	_
20091112_RATP_SCD_0333	17	7	était	NULL	v	NULL	B_GVf	ROOT	0	idtext0022	être	I#3##s##	spk1	48.0	48.14	0.01	_
20091112_RATP_SCD_0333	17	8	dans	NULL	prep	NULL	B_GP	ATS	7	idtext0022	dans	#####	spk1	48.15	48.31	0.01	_
20091112_RATP_SCD_0333	17	9	une	NULL	det	NULL	I_GP	DET	10	idtext0022	un	##f#s##i	spk1	48.32	48.51	0.01	_
20091112_RATP_SCD_0333	17	10	sacoche	NULL	nc	NULL	I_GP	OBJ	8	idtext0022	sacoche	##f#s##	spk1	48.52	48.93	0.01	_
20091112_RATP_SCD_0333	17	11	quelque+chose	NULL	pro	NULL	I_GP	OBJ	4	idtext0022	quelque+chose	#####	spk1	48.94	49.99	?	//

20091112_RATP_SCD_0333	18	1	alors	NULL	adv	NULL	B_GADV	NOLINK	0	idtext0023	alors	#####	spk2	50.05	50.24	0.01	_
20091112_RATP_SCD_0333	18	2	il	NULL	cln	NULL	B_GN	SUJ	3	idtext0023	cln	#3#m#s##	spk2	50.25	50.3	0.01	_
20091112_RATP_SCD_0333	18	3	dit	NULL	v	NULL	B_GVf	ROOT	0	idtext0023	dire	J#3##s##	spk2	50.31	50.52	0.01	_
20091112_RATP_SCD_0333	18	4	avoir	NULL	vinf	NULL	I_GVf	OBJ	3	idtext0023	avoir	W#####	spk2	50.53	50.76	0.01	_
20091112_RATP_SCD_0333	18	5	deux	NULL	det	NULL	B_GN	DET	6	idtext0023	deux	#####	spk2	50.77	51.1	0.01	_
20091112_RATP_SCD_0333	18	6	valises	NULL	nc	NULL	I_GN	OBJ	4	idtext0023	valise	##f#p##	spk2	51.11	51.48	0.01	_
20091112_RATP_SCD_0333	18	7	Deslay	NULL	np	B_PRD	I_GN	MOD	6	idtext0023	Deslay	#####	spk2	51.49	51.96	0.01	_
20091112_RATP_SCD_0333	18	8	un	NULL	det	NULL	B_GN	DET	9	idtext0023	un	##m#s##i	spk2	51.97	52.28	0.01	_
20091112_RATP_SCD_0333	18	9	sac	NULL	nc	NULL	I_GN	OBJ	3	idtext0023	sac	##m#s##	spk2	52.29	52.5	0.01	_
20091112_RATP_SCD_0333	18	10	à	NULL	prep	NULL	B_GP	DEP	9	idtext0023	à	#####	spk2	52.51	52.59	0.01	_
20091112_RATP_SCD_0333	18	11	dos	NULL	nc	NULL	I_GP	OBJ	10	idtext0023	dos	##m###	spk2	52.6	52.81	0.01	_
20091112_RATP_SCD_0333	18	12	euh	DISF_M	pres	NULL	NULL	NOLINK	0	idtext0023	euh	#####	spk2	52.82	53.04	0.01	_
20091112_RATP_SCD_0333	18	13	un	NULL	det	NULL	B_GN	DET	14	idtext0023	un	##m#s##i	spk2	53.05	53.6	0.01	_
20091112_RATP_SCD_0333	18	14	sac	NULL	nc	NULL	I_GN	ROOT	0	idtext0023	sac	##m#s##	spk2	53.61	54.0	0.01	_
20091112_RATP_SCD_0333	18	15	à	NULL	prep	NULL	B_GP	ROOT	0	idtext0023	à	#####	spk2	54.01	54.03	0.01	_
20091112_RATP_SCD_0333	18	16	dos	NULL	nc	NULL	I_GP	OBJ	15	idtext0023	dos	##m###	spk2	54.04	54.31	0.01	_
20091112_RATP_SCD_0333	18	17	euh	DISF_M	pres	NULL	NULL	NOLINK	0	idtext0023	euh	#####	spk2	54.32	55.28	?	//

20091112_RATP_SCD_0333	19	1	donc	NULL	coo	NULL	B_NULL	ROOT	0	idtext0024	donc	#####	spk1	55.32	55.4	0.01	_
20091112_RATP_SCD_0333	19	2	c'	NULL	cln	NULL	B_GN	SUJ_IMP	3	idtext0024	ce	###s##	spk1	55.41	55.49	0.01	_
20091112_RATP_SCD_0333	19	3	est	NULL	v	NULL	B_GVf	DEP_COORD	1	idtext0024	être	P#3##s##	spk1	55.5	55.55	?	//

20091112_RATP_SCD_0333	20	1	euh	DISF_M	pres	NULL	NULL	NOLINK	0	idtext0025	euh	#####	spk2	55.59	55.87	0.01	_
20091112_RATP_SCD_0333	20	2	voilà	DISF_M	pres	NULL	NULL	NOLINK	0	idtext0025	voilà	#####	spk2	55.88	56.42	?	//

20091112_RATP_SCD_0333	21	1	c'	NULL	cln	NULL	B_GN	SUJ_IMP	2	idtext0026	ce	###s##	spk1	56.46	56.48	0.01	_
20091112_RATP_SCD_0333	21	2	est	NULL	v	NULL	B_GVf	ROOT	0	idtext0026	être	P#3##s##	spk1	56.49	56.51	0.01	_
20091112_RATP_SCD_0333	21	3	dans	NULL	prep	NULL	B_GP	ATS	2	idtext0026	dans	#####	spk1	56.52	56.58	0.01	_
20091112_RATP_SCD_0333	21	4	des	NULL	det	NULL	I_GP	DET	5	idtext0026	des	###p##i	spk1	56.59	56.72	0.01	_
20091112_RATP_SCD_0333	21	5	valises	NULL	nc	NULL	I_GP	OBJ	3	idtext0026	valise	##f#p##	spk1	56.73	57.51	?	//

20091112_RATP_SCD_0333	22	1	bah	DISF_M	pres	NULL	NULL	NOLINK	0	idtext0027	bah	#####	spk2	57.73	57.92	0.01	_
20091112_RATP_SCD_0333	22	2	il	NULL	cln	NULL	B_GN	SUJ	3	idtext0027	cln	#3#m#s##	spk2	57.93	58.01	0.01	_
20091112_RATP_SCD_0333	22	3	a	NULL	v	NULL	B_GVf	ROOT	0	idtext0027	avoir	P#3##s##	spk2	58.02	58.12	0.01	_
20091112_RATP_SCD_0333	22	4	voilà	DISF_M	pres	NULL	NULL	NOLINK	0	idtext0027	voilà	#####	spk2	58.13	58.54	?	_

20091112_RATP_SCD_0333	23	1	alors	DISF_R	adv	NULL	NULL	NOLINK	0	idtext0028	alors	#####	spk1	58.67	59.03	0.01	_
20091112_RATP_SCD_0333	23	2	alors	NULL	adv	NULL	B_GADV	NOLINK	0	idtext0028	alors	#####	spk1	59.04	59.49	0.01	_
20091112_RATP_SCD_0333	23	3	ce+que	NULL	prorel	NULL	B_NULL	OBJ	5	idtext0028	ce+que	#####	spk1	59.5	59.64	0.01	_
20091112_RATP_SCD_0333	23	4	j'	NULL	cln	NULL	B_GN	SUJ	5	idtext0028	cln	#1##s##	spk1	59.65	59.79	0.01	_
20091112_RATP_SCD_0333	23	5	ai	NULL	v	NULL	B_GVf	ROOT	0	idtext0028	avoir	P#1##s##	spk1	59.8	59.85	0.01	_
20091112_RATP_SCD_0333	23	6	besoin	NULL	nc	NULL	B_GN	OBJ	5	idtext0028	besoin	##m#s##	spk1	59.86	59.98	0.01	_
20091112_RATP_SCD_0333	23	7	de	NULL	prep	NULL	B_GP	DE_OBJ	5	idtext0028	de	#####	spk1	59.99	60.01	0.01	_
20091112_RATP_SCD_0333	23	8	savoir	NULL	vinf	NULL	I_GP	OBJ	7	idtext0028	savoir	W#####	spk1	60.02	60.38	0.01	_
20091112_RATP_SCD_0333	23	9	alors	NULL	adv	NULL	B_GADV	NOLINK	0	idtext0028	alors	#####	spk1	60.39	60.56	0.01	_
20091112_RATP_SCD_0333	23	10	valise	NULL	nc	NULL	B_GN	NOLINK	0	idtext0028	valise	##f#s##	spk1	60.57	61.57	?	//

20091112_RATP_SCD_0333	24	1	une	NULL	det	NULL	B_GN	DET	2	idtext0029	un	##f#s##i	spk2	61.61	61.83	0.01	_
20091112_RATP_SCD_0333	24	2	valise	NULL	nc	NULL	I_GN	ROOT	0	idtext0029	valise	##f#s##	spk2	61.84	62.16	0.01	_
20091112_RATP_SCD_0333	24	3	et	NULL	coo	NULL	B_NULL	COORD	2	idtext0029	et	#####	spk2	62.17	62.22	0.01	_
20091112_RATP_SCD_0333	24	4	un	NULL	det	NULL	B_GN	DET	5	idtext0029	un	##m#s##i	spk2	62.23	62.35	0.01	_
20091112_RATP_SCD_0333	24	5	sac	NULL	nc	NULL	I_GN	DEP_COORD	3	idtext0029	sac	##m#s##	spk2	62.36	62.56	0.01	_
20091112_RATP_SCD_0333	24	6	à	NULL	prep	NULL	B_GP	P_OBJ	5	idtext0029	à	#####	spk2	62.57	62.61	0.01	_
20091112_RATP_SCD_0333	24	7	dos	NULL	nc	NULL	I_GP	OBJ	6	idtext0029	dos	##m###	spk2	62.62	62.78	0.01	_
20091112_RATP_SCD_0333	24	8	bleu	NULL	adj	NULL	I_GP	MOD	5	idtext0029	bleu	##m#s##	spk2	62.79	63.14	0.01	_
20091112_RATP_SCD_0333	24	9	y	NULL	clo	NULL	B_GN	AFF	10	idtext0029	y	#####	spk2	63.15	63.31	0.01	_
20091112_RATP_SCD_0333	24	10	a	NULL	v	NULL	B_GVf	ROOT	0	idtext0029	avoir	P#3##s##	spk2	63.32	63.53	0.01	_
20091112_RATP_SCD_0333	24	11	une	NULL	det	NULL	B_GN	DET	12	idtext0029	un	##f#s##i	spk2	63.54	63.77	0.01	_
20091112_RATP_SCD_0333	24	12	valise	NULL	nc	NULL	I_GN	OBJ	10	idtext0029	valise	##f#s##	spk2	63.78	64.13	0.01	_
20091112_RATP_SCD_0333	24	13	Deslay	NULL	np	B_PRD	I_GN	MOD	12	idtext0029	Deslay	#####	spk2	64.14	64.62	0.01	_
20091112_RATP_SCD_0333	24	14	à	NULL	prep	NULL	B_GP	P_OBJ_LOC	12	idtext0029	à	#####	spk2	64.63	64.68	0.01	_
20091112_RATP_SCD_0333	24	15	roulettes	NULL	nc	NULL	I_GP	OBJ	14	idtext0029	roulette	##f#p##	spk2	64.69	65.11	0.01	_
20091112_RATP_SCD_0333	24	16	avec	NULL	prep	NULL	B_NULL	NOLINK	0	idtext0029	avec	#####	spk2	65.12	65.26	?	_

20091112_RATP_SCD_0333	25	1	alors	NULL	adv	NULL	B_GADV	NOLINK	0	idtext0030	alors	#####	spk1	65.31	65.71	0.01	//
20091112_RATP_SCD_0333	25	2	une	NULL	det	NULL	B_GN	DET	3	idtext0030	un	##f#s##i	spk1	65.72	65.8	0.01	_
20091112_RATP_SCD_0333	25	3	valise	NULL	nc	NULL	I_GN	ROOT	0	idtext0030	valise	##f#s##	spk1	65.81	66.26	0.01	_
20091112_RATP_SCD_0333	25	4	sac	NULL	nc	NULL	I_GN	MOD	3	idtext0030	sac	##m#s##	spk1	66.27	66.51	0.01	_
20091112_RATP_SCD_0333	25	5	à	NULL	prep	NULL	B_GP	ROOT	0	idtext0030	à	#####	spk1	66.52	66.66	0.01	_
20091112_RATP_SCD_0333	25	6	dos	NULL	nc	NULL	I_GP	OBJ	5	idtext0030	dos	##m###	spk1	66.67	66.77	0.01	_
20091112_RATP_SCD_0333	25	7	en+dehors	NULL	adv	NULL	B_GADV	NOLINK	0	idtext0030	en+dehors	#####	spk1	66.78	69.2	0.01	_
20091112_RATP_SCD_0333	25	8	des	NULL	det	NULL	B_GN	DET	9	idtext0030	des	###p##i	spk1	69.21	69.29	0.01	_
20091112_RATP_SCD_0333	25	9	papiers	NULL	nc	NULL	I_GN	ROOT	0	idtext0030	papier	##m#p##	spk1	69.3	69.58	0.01	_
20091112_RATP_SCD_0333	25	10	d'	NULL	prep	NULL	B_GP	DEP	9	idtext0030	d'	#####	spk1	69.59	69.65	0.01	_
20091112_RATP_SCD_0333	25	11	identité	NULL	nc	NULL	I_GP	OBJ	10	idtext0030	identité	##f#s##	spk1	69.66	70.12	0.01	_
20091112_RATP_SCD_0333	25	12	il	NULL	cln	NULL	B_GN	SUJ_IMP	14	idtext0030	cln	#3#m#s##	spk1	70.13	70.18	0.01	_
20091112_RATP_SCD_0333	25	13	y	NULL	clo	NULL	B_GN	AFF	14	idtext0030	y	#####	spk1	70.19	70.21	0.01	_
20091112_RATP_SCD_0333	25	14	avait	NULL	v	NULL	B_GVf	ROOT	0	idtext0030	avoir	I#3##s##	spk1	70.22	70.31	0.01	_
20091112_RATP_SCD_0333	25	15	autre+chose	NULL	pro	NULL	B_GN	OBJ	14	idtext0030	autre+chose	#####	spk1	70.32	70.7	0.01	_
20091112_RATP_SCD_0333	25	16	à	NULL	prep	NULL	B_GP	MOD	14	idtext0030	à	#####	spk1	70.71	70.73	0.01	_
20091112_RATP_SCD_0333	25	17	l'	NULL	det	NULL	I_GP	DET	18	idtext0030	le	###s##d	spk1	70.74	70.79	0.01	_
20091112_RATP_SCD_0333	25	18	intérieur	NULL	nc	NULL	I_GP	OBJ	16	idtext0030	intérieur	##m#s##	spk1	70.8	71.61	?	//

20091112_RATP_SCD_0333	26	1	bah	DISF_M	pres	NULL	NULL	NOLINK	0	idtext0031	bah	#####	spk2	71.65	71.71	0.01	_
20091112_RATP_SCD_0333	26	2	il	NULL	cln	NULL	B_GN	SUJ_IMP	3	idtext0031	cln	#3#m#s##	spk2	71.72	71.77	0.01	_
20091112_RATP_SCD_0333	26	3	devait	NULL	v	NULL	B_GVf	ROOT	0	idtext0031	devoir	I#3##s##	spk2	71.78	71.94	0.01	_
20091112_RATP_SCD_0333	26	4	y	NULL	clo	NULL	B_GN	AFF	5	idtext0031	y	#####	spk2	71.95	71.97	0.01	_
20091112_RATP_SCD_0333	26	5	avoir	NULL	vinf	NULL	B_GVi	OBJ	3	idtext0031	avoir	W#####	spk2	71.98	72.16	0.01	_
20091112_RATP_SCD_0333	26	6	des	NULL	det	NULL	B_GN	DET	7	idtext0031	des	###p##i	spk2	72.17	72.36	0.01	_
20091112_RATP_SCD_0333	26	7	vêtements	NULL	nc	NULL	I_GN	OBJ	5	idtext0031	vêtement	##m#p##	spk2	72.37	72.77	?	//

20091112_RATP_SCD_0333	27	1	des	NULL	det	NULL	B_GN	DET	2	idtext0032	des	###p##i	spk1	72.82	72.94	0.01	_
20091112_RATP_SCD_0333	27	2	vêtements	NULL	nc	NULL	I_GN	SUJ	5	idtext0032	vêtement	##m#p##	spk1	72.95	74.32	0.01	_
20091112_RATP_SCD_0333	27	3	il	NULL	cln	NULL	B_GN	SUJ	5	idtext0032	cln	#3#m#s##	spk1	74.33	74.45	0.01	_
20091112_RATP_SCD_0333	27	4	a	NULL	v	NULL	B_GVf	AUX	5	idtext0032	avoir	P#3##s##	spk1	74.46	74.53	0.01	_
20091112_RATP_SCD_0333	27	5	perdu	NULL	vppart	NULL	I_GVf	ROOT	0	idtext0032	perdre	K##m#s##	spk1	74.54	74.92	0.01	_
20091112_RATP_SCD_0333	27	6	où	NULL	adv	NULL	B_GADV	MOD	5	idtext0032	où	#####	spk1	74.93	75.17	0.01	_
20091112_RATP_SCD_0333	27	7	sur	NULL	prep	NULL	B_GP	P_OBJ_LOC	5	idtext0032	sur	#####	spk1	75.18	75.28	0.01	_
20091112_RATP_SCD_0333	27	8	quelle	NULL	det	NULL	I_GP	DET	9	idtext0032	quel	##f#s##	spk1	75.29	75.42	0.01	_
20091112_RATP_SCD_0333	27	9	ligne	NULL	nc	NULL	I_GP	OBJ	7	idtext0032	ligne	##f#s##	spk1	75.43	75.59	0.01	_
20091112_RATP_SCD_0333	27	10	de	NULL	prep	NULL	B_GP	DEP	9	idtext0032	de	#####	spk1	75.6	75.62	0.01	_
20091112_RATP_SCD_0333	27	11	métro	NULL	nc	NULL	I_GP	OBJ	10	idtext0032	métro	##m#s##	spk1	75.63	76.05	?	//

20091112_RATP_SCD_0333	28	1	bah	DISF_M	pres	NULL	NULL	NOLINK	0	idtext0033	bah	#####	spk2	76.17	76.29	0.01	_
20091112_RATP_SCD_0333	28	2	justement	NULL	adv	NULL	B_GADV	NOLINK	0	idtext0033	justement	#####	spk2	76.3	76.72	0.01	_
20091112_RATP_SCD_0333	28	3	il	NULL	cln	NULL	B_GN	SUJ	4	idtext0033	cln	#3#m#s##	spk2	76.73	76.78	0.01	_
20091112_RATP_SCD_0333	28	4	est	NULL	v	NULL	B_GVf	ROOT	0	idtext0033	être	P#3##s##	spk2	76.79	76.81	0.01	_
20091112_RATP_SCD_0333	28	5	incapable	NULL	adj	NULL	B_GADJ	ATS	4	idtext0033	incapable	###s##	spk2	76.82	77.2	0.01	_
20091112_RATP_SCD_0333	28	6	de	NULL	prep	NULL	B_GP	DEP	5	idtext0033	de	#####	spk2	77.21	77.23	0.01	_
20091112_RATP_SCD_0333	28	7	il	NULL	cln	NULL	I_GP	SUJ	8	idtext0033	cln	#3#m#s##	spk2	77.24	77.3	0.01	_
20091112_RATP_SCD_0333	28	8	a	NULL	v	NULL	B_GVf	ROOT	0	idtext0033	avoir	P#3##s##	spk2	77.31	77.33	0.01	_
20091112_RATP_SCD_0333	28	9	une	NULL	det	NULL	B_GN	DET	10	idtext0033	un	##f#s##i	spk2	77.34	77.41	0.01	_
20091112_RATP_SCD_0333	28	10	perte	NULL	nc	NULL	I_GN	OBJ	8	idtext0033	perte	##f#s##	spk2	77.42	77.58	0.01	_
20091112_RATP_SCD_0333	28	11	de	NULL	prep	NULL	B_GP	DEP	10	idtext0033	de	#####	spk2	77.59	77.67	0.01	_
20091112_RATP_SCD_0333	28	12	faculté	NULL	nc	NULL	I_GP	OBJ	11	idtext0033	faculté	##f#s##	spk2	77.68	78.12	0.01	_
20091112_RATP_SCD_0333	28	13	alors	NULL	adv	NULL	B_GADV	NOLINK	0	idtext0033	alors	#####	spk2	78.13	79.05	0.01	_
20091112_RATP_SCD_0333	28	14	euh	DISF_M	pres	NULL	NULL	NOLINK	0	idtext0033	euh	#####	spk2	79.06	79.12	?	//

20091112_RATP_SCD_0333	29	1	oh+mince	NULL	pres	NULL	B_NULL	NOLINK	0	idtext0034	oh+mince	#####	spk1	79.16	79.9	?	//

20091112_RATP_SCD_0333	30	1	ouais	DISF_M	pres	NULL	NULL	NOLINK	0	idtext0035	ouais	#####	spk2	79.95	80.01	0.01	_
20091112_RATP_SCD_0333	30	2	bah	DISF_M	pres	NULL	NULL	NOLINK	0	idtext0035	bah	#####	spk2	80.02	80.07	0.01	_
20091112_RATP_SCD_0333	30	3	oui	NULL	adv	NULL	B_GADV	NOLINK	0	idtext0035	oui	#####	spk2	80.08	80.13	0.01	_
20091112_RATP_SCD_0333	30	4	c'	NULL	cln	NULL	B_GN	SUJ_IMP	5	idtext0035	ce	###s##	spk2	80.14	80.52	0.01	_
20091112_RATP_SCD_0333	30	5	est	NULL	v	NULL	B_GVf	ROOT	0	idtext0035	être	P#3##s##	spk2	80.53	80.87	?	//

20091112_RATP_SCD_0333	31	1	euh	DISF_M	pres	NULL	NULL	NOLINK	0	idtext0036	euh	#####	spk1	81.34	83.26	?	//

20091112_RATP_SCD_0333	32	1	je	NULL	cln	NULL	B_GN	SUJ	2	idtext0037	cln	#1##s##	spk2	83.32	83.37	0.01	_
20091112_RATP_SCD_0333	32	2	vais	NULL	v	NULL	B_GVfn	ROOT	0	idtext0037	aller	P#1##s##	spk2	83.38	83.46	0.01	_
20091112_RATP_SCD_0333	32	3	pas	NULL	advneg	NULL	I_GVfn	MOD	2	idtext0037	pas	#####	spk2	83.47	83.52	0.01	_
20091112_RATP_SCD_0333	32	4	vous	NULL	clo	NULL	B_GN	A_OBJ	5	idtext0037	cln	#2##p##	spk2	83.53	83.58	0.01	_
20091112_RATP_SCD_0333	32	5	faciliter	NULL	vinf	NULL	B_GVi	OBJ	2	idtext0037	faciliter	W#####	spk2	83.59	83.94	0.01	_
20091112_RATP_SCD_0333	32	6	la	NULL	det	NULL	B_GN	DET	7	idtext0037	le	##m#s##d	spk2	83.95	84.05	0.01	_
20091112_RATP_SCD_0333	32	7	tâche	NULL	nc	NULL	I_GN	OBJ	5	idtext0037	tâche	##f#s##	spk2	84.06	84.38	0.01	_
20091112_RATP_SCD_0333	32	8	hein	DISF_M	pres	NULL	NULL	NOLINK	0	idtext0037	hein	#####	spk2	84.39	84.44	0.01	_
20091112_RATP_SCD_0333	32	9	quand+même	NULL	adv	NULL	B_GADV	MOD	7	idtext0037	quand+même	#####	spk2	84.45	84.99	?	_

20091112_RATP_SCD_0333	33	1	non	NULL	adv	NULL	B_GADV	NOLINK	0	idtext0038	non	#####	spk1	85.36	85.62	?	_

20091112_RATP_SCD_0333	34	1	bah	DISF_M	pres	NULL	NULL	NOLINK	0	idtext0039	bah	#####	spk2	85.66	85.71	0.01	_
20091112_RATP_SCD_0333	34	2	impossible	NULL	adj	NULL	B_GADJ	MOD	9	idtext0039	impossible	###s##	spk2	85.72	85.97	0.01	_
20091112_RATP_SCD_0333	34	3	de	NULL	prep	NULL	B_GP	DEP	2	idtext0039	de	#####	spk2	85.98	86.09	0.01	_
20091112_RATP_SCD_0333	34	4	savoir	NULL	vinf	NULL	I_GP	OBJ	3	idtext0039	savoir	W#####	spk2	86.1	86.39	0.01	_
20091112_RATP_SCD_0333	34	5	où+est-ce+qu'	NULL	pri	NULL	B_NULL	NOLINK	0	idtext0039	où+est-ce+qu'	#####	spk2	86.4	86.66	0.01	_
20091112_RATP_SCD_0333	34	6	il	DISF_R	cln	NULL	NULL	NOLINK	0	idtext0039	cln	#3#m#s##	spk2	86.67	86.73	0.01	_
20091112_RATP_SCD_0333	34	7	il	NULL	cln	NULL	B_GN	SUJ	9	idtext0039	cln	#3#m#s##	spk2	86.74	86.86	0.01	_
20091112_RATP_SCD_0333	34	8	a	NULL	v	NULL	B_GVf	AUX	9	idtext0039	avoir	P#3##s##	spk2	86.87	86.93	0.01	_
20091112_RATP_SCD_0333	34	9	dû	NULL	vppart	NULL	I_GVf	ROOT	0	idtext0039	devoir	K##m#s##	spk2	86.94	87.03	0.01	_
20091112_RATP_SCD_0333	34	10	errer	NULL	vinf	NULL	B_GVi	OBJ	9	idtext0039	errer	W#####	spk2	87.04	87.7	0.01	_
20091112_RATP_SCD_0333	34	11	dans	NULL	prep	NULL	B_GP	P_OBJ	10	idtext0039	dans	#####	spk2	87.71	87.96	0.01	_
20091112_RATP_SCD_0333	34	12	le	NULL	det	NULL	I_GP	DET	13	idtext0039	le	##m#s##d	spk2	87.97	87.99	0.01	_
20091112_RATP_SCD_0333	34	13	métro	NULL	nc	NULL	I_GP	OBJ	11	idtext0039	métro	##m#s##	spk2	88.0	88.28	0.01	_
20091112_RATP_SCD_0333	34	14	à	NULL	prep	NULL	B_GP	MOD	13	idtext0039	à	#####	spk2	88.29	88.36	0.01	_
20091112_RATP_SCD_0333	34	15	mon	NULL	det	NULL	I_GP	DET	16	idtext0039	mon	###s##o	spk2	88.37	88.57	0.01	_
20091112_RATP_SCD_0333	34	16	avis	NULL	nc	NULL	I_GP	OBJ	14	idtext0039	avis	##m###	spk2	88.58	89.05	0.01	_
20091112_RATP_SCD_0333	34	17	faire	NULL	vinf	NULL	B_GVi	OBJ	9	idtext0039	faire	W#####	spk2	89.06	89.22	0.01	_
20091112_RATP_SCD_0333	34	18	aller	NULL	vinf	NULL	B_GVi	OBJ	17	idtext0039	aller	W#####	spk2	89.23	89.59	0.01	_
20091112_RATP_SCD_0333	34	19	à+droite	NULL	adv	NULL	B_GADV	MOD	20	idtext0039	à+droite	#####	spk2	89.6	89.93	0.01	_
20091112_RATP_SCD_0333	34	20	à+gauche	NULL	adv	NULL	I_GADV	ROOT	0	idtext0039	à+gauche	#####	spk2	89.94	90.13	?	_

20091112_RATP_SCD_0333	35	1	oui	NULL	adv	NULL	B_GADV	NOLINK	0	idtext0040	oui	#####	spk1	90.21	90.47	?	//

20091112_RATP_SCD_0333	36	1	euh	DISF_M	pres	NULL	NULL	NOLINK	0	idtext0041	euh	#####	spk2	90.51	90.94	?	//

20091112_RATP_SCD_0333	37	1	bon	DISF_M	pres	NULL	NULL	NOLINK	0	idtext0042	bon	#####	spk1	91.85	92.37	0.01	_
20091112_RATP_SCD_0333	37	2	là	NULL	adv	NULL	B_GADV	NOLINK	0	idtext0043	là	#####	spk1	92.38	92.74	0.01	/
20091112_RATP_SCD_0333	37	3	ce+que	NULL	prorel	NULL	B_NULL	OBJ	5	idtext0043	ce+que	#####	spk1	92.75	92.96	0.01	_
20091112_RATP_SCD_0333	37	4	je	NULL	cln	NULL	B_GN	SUJ	5	idtext0043	cln	#1##s##	spk1	92.97	93.06	0.01	_
20091112_RATP_SCD_0333	37	5	vais	NULL	v	NULL	B_GVf	ROOT	0	idtext0043	aller	P#1##s##	spk1	93.07	93.32	0.01	_
20091112_RATP_SCD_0333	37	6	faire	NULL	vinf	NULL	I_GVf	OBJ	5	idtext0043	faire	W#####	spk1	93.33	93.49	0.01	_
20091112_RATP_SCD_0333	37	7	déjà	NULL	adv	NULL	B_GADV	MOD	9	idtext0043	déjà	#####	spk1	93.5	93.75	0.01	_
20091112_RATP_SCD_0333	37	8	c'	NULL	cln	NULL	B_GN	SUJ_IMP	9	idtext0043	ce	###s##	spk1	93.76	93.79	0.01	_
20091112_RATP_SCD_0333	37	9	est	NULL	v	NULL	B_GVf	ROOT	0	idtext0043	être	P#3##s##	spk1	93.8	93.87	0.01	_
20091112_RATP_SCD_0333	37	10	que	NULL	csu	NULL	B_NULL	ATS	9	idtext0043	que	#####	spk1	93.88	93.9	0.01	_
20091112_RATP_SCD_0333	37	11	je	NULL	cln	NULL	B_GN	SUJ	12	idtext0043	cln	#1##s##	spk1	93.91	93.98	0.01	_
20091112_RATP_SCD_0333	37	12	vais	NULL	v	NULL	B_GVf	OBJ	10	idtext0043	aller	P#1##s##	spk1	93.99	94.06	0.01	_
20091112_RATP_SCD_0333	37	13	regarder	NULL	vinf	NULL	I_GVf	OBJ	12	idtext0043	regarder	W#####	spk1	94.07	94.71	0.01	_
20091112_RATP_SCD_0333	37	14	euh	DISF_M	pres	NULL	NULL	NOLINK	0	idtext0043	euh	#####	spk1	94.72	95.28	0.01	_
20091112_RATP_SCD_0333	37	15	donc	NULL	coo	NULL	B_NULL	COORD	12	idtext0044	donc	#####	spk1	95.29	95.37	0.01	_
20091112_RATP_SCD_0333	37	16	euh	DISF_M	pres	NULL	NULL	NOLINK	0	idtext0044	euh	#####	spk1	95.38	95.4	0.01	_
20091112_RATP_SCD_0333	37	17	je	NULL	cln	NULL	B_GN	SUJ	18	idtext0045	cln	#1##s##	spk1	95.41	97.23	0.01	_
20091112_RATP_SCD_0333	37	18	vais	NULL	v	NULL	B_GVf	DEP_COORD	15	idtext0045	aller	P#1##s##	spk1	97.24	97.72	0.01	_
20091112_RATP_SCD_0333	37	19	mettre	NULL	vinf	NULL	I_GVf	OBJ	18	idtext0045	mettre	W#####	spk1	97.73	97.92	0.01	_
20091112_RATP_SCD_0333	37	20	avant	NULL	prep	NULL	B_GP	MOD	18	idtext0045	avant	#####	spk1	97.93	98.31	0.01	_
20091112_RATP_SCD_0333	37	21	six	NULL	adj	NULL	I_GP	MOD	22	idtext0045	six	#####	spk1	98.32	98.52	0.01	_
20091112_RATP_SCD_0333	37	22	semaines	NULL	nc	NULL	I_GP	OBJ	20	idtext0045	semaine	##f#p##	spk1	98.53	98.82	0.01	_
20091112_RATP_SCD_0333	37	23	donc	NULL	coo	NULL	B_NULL	COORD	18	idtext0045	donc	#####	spk1	98.83	99.0	0.01	_
20091112_RATP_SCD_0333	37	24	alors	NULL	adv	NULL	B_GADV	MOD	25	idtext0045	alors	#####	spk1	99.01	99.16	0.01	_
20091112_RATP_SCD_0333	37	25	à+peu+près	NULL	adv	NULL	I_GADV	DEP_COORD	23	idtext0045	à+peu+près	#####	spk1	99.17	99.8	0.01	_
20091112_RATP_SCD_0333	37	26	aux	DISF_R	prep	NULL	NULL	NOLINK	0	idtext0045	aux	#####	spk1	99.81	100.31	0.01	_
20091112_RATP_SCD_0333	37	27	aux	NULL	prep	NULL	B_GP	P_OBJ_LOC	25	idtext0045	aux	#####	spk1	100.32	100.42	0.01	_
20091112_RATP_SCD_0333	37	28	alentours	NULL	nc	NULL	I_GP	OBJ	27	idtext0045	alentour	##m#p##	spk1	100.43	100.76	0.01	_
20091112_RATP_SCD_0333	37	29	du	NULL	prep	NULL	B_GP	DEP	28	idtext0045	du	#####	spk1	100.77	100.9	0.01	_
20091112_RATP_SCD_0333	37	30	cinq	NULL	nc	B_D	I_GP	OBJ	29	idtext0045	cinq	##m###	spk1	100.91	101.17	0.01	/
20091112_RATP_SCD_0333	37	31	jusqu'à	NULL	prep	NULL	B_GP	MOD	30	idtext0045	jusqu'à	#####	spk1	101.18	101.5	0.01	_
20091112_RATP_SCD_0333	37	32	aujourd'hui	NULL	adv	NULL	I_GP	MOD	33	idtext0045	aujourd'hui	#####	spk1	101.51	101.93	0.01	_
20091112_RATP_SCD_0333	37	33	voir	NULL	vinf	NULL	I_GP	OBJ	31	idtext0045	voir	W#####	spk1	101.94	103.09	0.01	_
20091112_RATP_SCD_0333	37	34	si	NULL	csu	NULL	B_NULL	OBJ	33	idtext0045	si	#####	spk1	103.1	103.28	0.01	_
20091112_RATP_SCD_0333	37	35	en	NULL	prep	NULL	B_GP	MOD	43	idtext0045	en	#####	spk1	103.29	103.38	0.01	_
20091112_RATP_SCD_0333	37	36	tapant	NULL	vprespart	NULL	I_GP	OBJ	35	idtext0045	taper	G#####	spk1	103.39	103.8	0.01	_
20091112_RATP_SCD_0333	37	37	son	NULL	det	NULL	B_GN	DET	38	idtext0045	son	###s##o	spk1	103.81	103.9	0.01	_
20091112_RATP_SCD_0333	37	38	nom	NULL	nc	NULL	I_GN	OBJ	36	idtext0045	nom	##m#s##	spk1	103.91	104.05	0.01	/
20091112_RATP_SCD_0333	37	39	j'	NULL	cln	NULL	B_GN	SUJ	40	idtext0045	cln	#1##s##	spk1	104.06	104.13	0.01	_
20091112_RATP_SCD_0333	37	40	ai	NULL	v	NULL	B_GVf	ROOT	0	idtext0045	avoir	P#1##s##	spk1	104.14	104.18	0.01	_
20091112_RATP_SCD_0333	37	41	quelque+chose	NULL	pro	NULL	B_GN	OBJ	40	idtext0045	quelque+chose	#####	spk1	104.19	104.72	0.01	/
20091112_RATP_SCD_0333	37	42	qui	NULL	prorel	NULL	B_NULL	SUJ	43	idtext0045	qui	#####	spk1	104.73	104.86	0.01	_
20091112_RATP_SCD_0333	37	43	ressort	NULL	v	NULL	B_GVf	MOD_REL	41	idtext0045	ressortir	P#3##s##	spk1	104.87	105.71	?	_

20091112_RATP_SCD_0333	38	1	c'	NULL	cln	NULL	B_GN	SUJ_IMP	2	idtext0046	ce	###s##	spk2	105.75	105.78	0.01	_
20091112_RATP_SCD_0333	38	2	est	NULL	v	NULL	B_GVf	ROOT	0	idtext0046	être	P#3##s##	spk2	105.79	105.85	0.01	_
20091112_RATP_SCD_0333	38	3	jusqu'	NULL	prep	NULL	B_NULL	ATS	2	idtext0046	jusqu'	#####	spk2	105.86	106.07	0.01	_
20091112_RATP_SCD_0333	38	4	au	NULL	prep	NULL	B_GP	P_OBJ_LOC	3	idtext0046	au	#####	spk2	106.08	106.25	0.01	_
20091112_RATP_SCD_0333	38	5	sept	NULL	nc	NULL	I_GP	OBJ	4	idtext0046	sept	##m###	spk2	106.26	106.39	0.01	_
20091112_RATP_SCD_0333	38	6	en+tout+cas	NULL	adv	NULL	B_GADV	MOD	8	idtext0046	en+tout+cas	#####	spk2	106.4	106.76	0.01	_
20091112_RATP_SCD_0333	38	7	ça	NULL	pro	NULL	B_GN	SUJ_IMP	8	idtext0046	ça	#####	spk2	106.77	106.87	0.01	_
20091112_RATP_SCD_0333	38	8	commence	NULL	v	NULL	B_GVf	ROOT	0	idtext0046	commencer	PS#13##s##	spk2	106.88	107.22	0.01	_
20091112_RATP_SCD_0333	38	9	à	NULL	prep	NULL	B_GP	A_OBJ	8	idtext0046	à	#####	spk2	107.23	107.32	0.01	_
20091112_RATP_SCD_0333	38	10	l'	NULL	det	NULL	I_GP	DET	11	idtext0046	le	###s##d	spk2	107.33	107.38	0.01	_
20091112_RATP_SCD_0333	38	11	hôpital	NULL	nc	NULL	I_GP	OBJ	9	idtext0046	hôpital	##m#s##	spk2	107.39	107.75	0.01	_
20091112_RATP_SCD_0333	38	12	le	NULL	det	NULL	B_GN	DET	13	idtext0046	le	##m#s##d	spk2	107.76	107.86	0.01	_
20091112_RATP_SCD_0333	38	13	sept	NULL	nc	NULL	I_GN	OBJ	8	idtext0046	sept	##m###	spk2	107.87	108.01	0.01	_
20091112_RATP_SCD_0333	38	14	au	NULL	prep	NULL	B_GP	MOD	13	idtext0046	au	#####	spk2	108.02	108.04	0.01	_
20091112_RATP_SCD_0333	38	15	matin	NULL	nc	NULL	I_GP	OBJ	14	idtext0046	matin	##m#s##	spk2	108.05	108.3	?	//

20091112_RATP_SCD_0333	39	1	il	NULL	cln	NULL	B_GN	SUJ	4	idtext0047	cln	#3#m#s##	spk1	108.41	108.47	0.01	_
20091112_RATP_SCD_0333	39	2	s'	NULL	clr	NULL	B_GVf	AFF	4	idtext0047	se	#3##p##	spk1	108.48	108.5	0.01	_
20091112_RATP_SCD_0333	39	3	est	NULL	v	NULL	I_GVf	AUX	4	idtext0047	être	P#3##s##	spk1	108.51	108.53	0.01	_
20091112_RATP_SCD_0333	39	4	retrouvé	NULL	vppart	NULL	I_GVf	ROOT	0	idtext0047	retrouver	K##m#s##	spk1	108.54	109.12	0.01	_
20091112_RATP_SCD_0333	39	5	le	NULL	det	NULL	B_GN	DET	6	idtext0047	le	##m#s##d	spk1	109.13	109.24	0.01	_
20091112_RATP_SCD_0333	39	6	sept	NULL	nc	NULL	I_GN	MOD	4	idtext0047	sept	##m###	spk1	109.25	109.37	?	_

20091112_RATP_SCD_0333	40	1	donc	NULL	coo	NULL	B_NULL	ROOT	0	idtext0048	donc	#####	spk2	109.41	109.74	0.01	_
20091112_RATP_SCD_0333	40	2	c'	NULL	cln	NULL	B_GN	SUJ_IMP	3	idtext0048	ce	###s##	spk2	109.75	109.77	0.01	_
20091112_RATP_SCD_0333	40	3	est	NULL	v	NULL	B_GVf	DEP_COORD	1	idtext0048	être	P#3##s##	spk2	109.78	109.96	0.01	_
20091112_RATP_SCD_0333	40	4	euh	DISF_M	pres	NULL	NULL	NOLINK	0	idtext0048	euh	#####	spk2	109.97	110.19	0.01	_
20091112_RATP_SCD_0333	40	5	voilà	DISF_M	pres	NULL	NULL	NOLINK	0	idtext0048	voilà	#####	spk2	110.2	110.51	0.01	_
20091112_RATP_SCD_0333	40	6	c'	NULL	cln	NULL	B_GN	SUJ_IMP	7	idtext0048	ce	###s##	spk2	110.52	110.56	0.01	_
20091112_RATP_SCD_0333	40	7	est	NULL	v	NULL	B_GVf	ROOT	0	idtext0048	être	P#3##s##	spk2	110.57	110.59	0.01	_
20091112_RATP_SCD_0333	40	8	la	NULL	det	NULL	B_GN	DET	9	idtext0048	le	##m#s##d	spk2	110.6	110.77	0.01	_
20091112_RATP_SCD_0333	40	9	veille	NULL	nc	NULL	I_GN	ATS	7	idtext0048	veille	##f#s##	spk2	110.78	110.96	0.01	_
20091112_RATP_SCD_0333	40	10	ou	NULL	coo	NULL	B_NULL	COORD	9	idtext0048	ou	#####	spk2	110.97	110.99	0.01	_
20091112_RATP_SCD_0333	40	11	le	NULL	det	NULL	B_GN	DET	12	idtext0048	le	##m#s##d	spk2	111.0	111.02	0.01	_
20091112_RATP_SCD_0333	40	12	jour	NULL	nc	NULL	I_GN	DEP_COORD	10	idtext0048	jour	##m#s##	spk2	111.03	111.16	?	//

20091112_RATP_SCD_0333	41	1	bon	DISF_M	pres	NULL	NULL	NOLINK	0	idtext0049	bon	#####	spk1	111.2	111.26	0.01	_
20091112_RATP_SCD_0333	41	2	d'accord	NULL	adv	NULL	B_GADV	NOLINK	0	idtext0049	d'accord	#####	spk1	111.27	111.69	0.01	/
20091112_RATP_SCD_0333	41	3	donc	NULL	coo	NULL	B_NULL	ROOT	0	idtext0049	donc	#####	spk1	111.7	111.82	0.01	_
20091112_RATP_SCD_0333	41	4	je	NULL	cln	NULL	B_GN	SUJ	5	idtext0049	cln	#1##s##	spk1	111.83	111.96	0.01	_
20091112_RATP_SCD_0333	41	5	vais	NULL	v	NULL	B_GVf	DEP_COORD	3	idtext0049	aller	P#1##s##	spk1	111.97	112.04	0.01	_
20091112_RATP_SCD_0333	41	6	regarder	NULL	vinf	NULL	I_GVf	OBJ	5	idtext0049	regarder	W#####	spk1	112.05	112.35	0.01	_
20091112_RATP_SCD_0333	41	7	entre	NULL	prep	NULL	B_GP	P_OBJ	5	idtext0049	entre	#####	spk1	112.36	112.64	0.01	_
20091112_RATP_SCD_0333	41	8	le	NULL	det	NULL	I_GP	DET	9	idtext0049	le	##m#s##d	spk1	112.65	112.77	0.01	_
20091112_RATP_SCD_0333	41	9	cinq	NULL	nc	NULL	I_GP	OBJ	7	idtext0049	cinq	##m###	spk1	112.78	113.03	0.01	_
20091112_RATP_SCD_0333	41	10	et	NULL	coo	NULL	B_NULL	COORD	9	idtext0049	et	#####	spk1	113.04	113.1	0.01	_
20091112_RATP_SCD_0333	41	11	sept	NULL	nc	NULL	B_GN	DEP_COORD	10	idtext0049	sept	##m###	spk1	113.11	113.82	0.01	_
20091112_RATP_SCD_0333	41	12	voir	NULL	vinf	NULL	B_GVi	ROOT	0	idtext0049	voir	W#####	spk1	113.83	114.01	0.01	_
20091112_RATP_SCD_0333	41	13	si	NULL	csu	NULL	B_NULL	MOD	20	idtext0049	si	#####	spk1	114.02	114.15	0.01	_
20091112_RATP_SCD_0333	41	14	j'	NULL	cln	NULL	B_GN	SUJ	15	idtext0049	cln	#1##s##	spk1	114.16	114.18	0.01	_
20091112_RATP_SCD_0333	41	15	ai	NULL	v	NULL	B_GVf	OBJ	13	idtext0049	avoir	P#1##s##	spk1	114.19	114.22	0.01	_
20091112_RATP_SCD_0333	41	16	quelque+chose	NULL	pro	NULL	B_GN	OBJ	15	idtext0049	quelque+chose	#####	spk1	114.23	114.62	0.01	_
20091112_RATP_SCD_0333	41	17	qui	NULL	prorel	NULL	B_NULL	SUJ	18	idtext0049	qui	#####	spk1	114.63	114.73	0.01	_
20091112_RATP_SCD_0333	41	18	ressort	NULL	v	NULL	B_GVf	MOD_REL	16	idtext0049	ressortir	P#3##s##	spk1	114.74	115.03	0.01	//
20091112_RATP_SCD_0333	41	19	je	NULL	cln	NULL	B_GN	SUJ	20	idtext0049	cln	#1##s##	spk1	115.04	115.18	0.01	_
20091112_RATP_SCD_0333	41	20	vais	NULL	v	NULL	B_GVf	OBJ	12	idtext0049	aller	P#1##s##	spk1	115.19	115.26	0.01	_
20091112_RATP_SCD_0333	41	21	vérifier	NULL	vinf	NULL	I_GVf	OBJ	20	idtext0049	vérifier	W#####	spk1	115.27	115.67	0.01	_
20091112_RATP_SCD_0333	41	22	sur	NULL	prep	NULL	B_GP	P_OBJ	20	idtext0049	sur	#####	spk1	115.68	115.83	0.01	_
20091112_RATP_SCD_0333	41	23	l'	NULL	det	NULL	I_GP	DET	24	idtext0049	le	###s##d	spk1	115.84	115.86	0.01	_
20091112_RATP_SCD_0333	41	24	ensemble	NULL	nc	NULL	I_GP	OBJ	22	idtext0049	ensemble	##m#s##	spk1	115.87	116.21	0.01	_
20091112_RATP_SCD_0333	41	25	du	NULL	prep	NULL	B_GP	DEP	24	idtext0049	du	#####	spk1	116.22	116.35	0.01	_
20091112_RATP_SCD_0333	41	26	réseau	NULL	nc	NULL	I_GP	OBJ	25	idtext0049	réseau	##m#s##	spk1	116.36	117.23	0.01	_
20091112_RATP_SCD_0333	41	27	voir	NULL	vinf	NULL	B_GVi	ROOT	0	idtext0050	voir	W#####	spk1	117.24	117.42	0.01	_
20091112_RATP_SCD_0333	41	28	si	NULL	csu	NULL	B_NULL	OBJ	27	idtext0050	si	#####	spk1	117.43	117.48	0.01	_
20091112_RATP_SCD_0333	41	29	il	NULL	cln	NULL	B_GN	SUJ_IMP	31	idtext0050	cln	#3#m#s##	spk1	117.49	117.54	0.01	_
20091112_RATP_SCD_0333	41	30	y	NULL	clo	NULL	B_GN	AFF	31	idtext0050	y	#####	spk1	117.55	117.57	0.01	_
20091112_RATP_SCD_0333	41	31	a	NULL	v	NULL	B_GVf	OBJ	28	idtext0050	avoir	P#3##s##	spk1	117.58	117.61	0.01	_
20091112_RATP_SCD_0333	41	32	quelque+chose	NULL	pro	NULL	I_GP	OBJ	31	idtext0050	quelque+chose	#####	spk1	117.62	117.99	0.01	_
20091112_RATP_SCD_0333	41	33	à	NULL	prep	NULL	B_GP	P_OBJ	32	idtext0050	à	#####	spk1	118.0	118.1	0.01	_
20091112_RATP_SCD_0333	41	34	prendre	NULL	vinf	NULL	I_GP	OBJ	33	idtext0050	prendre	W#####	spk1	118.11	118.47	0.01	_
20091112_RATP_SCD_0333	41	35	vous	NULL	cln	NULL	B_GN	SUJ	36	idtext0050	cln	#2##p##	spk1	118.48	118.57	0.01	_
20091112_RATP_SCD_0333	41	36	patientez	NULL	v	NULL	B_GVf	ROOT	0	idtext0050	patienter	P#2##p##	spk1	118.58	118.94	0.01	_
20091112_RATP_SCD_0333	41	37	un	NULL	det	NULL	B_GN	DET	38	idtext0050	un	##m#s##i	spk1	118.95	119.05	0.01	_
20091112_RATP_SCD_0333	41	38	instant	NULL	nc	NULL	I_GN	MOD	36	idtext0050	instant	##m#s##	spk1	119.06	119.43	?	//

20091112_RATP_SCD_0333	42	1	oui	NULL	adv	NULL	B_GADV	MOD	2	idtext0051	oui	#####	spk2	119.47	119.75	0.01	_
20091112_RATP_SCD_0333	42	2	merci	NULL	adv	NULL	I_GADV	ROOT	0	idtext0051	merci	#####	spk2	119.76	119.94	?	//

20091112_RATP_SCD_0333	43	1	merci	NULL	adv	NULL	B_GADV	NOLINK	0	idtext0052	merci	#####	spk1	119.98	120.43	?	//

20091112_RATP_SCD_0333	44	1	madame	NULL	nc	NULL	B_GN	NOLINK	0	idtext0053	Monsieur	##f#s##	spk1	134.05	134.83	0.01	_
20091112_RATP_SCD_0333	44	2	s'il+vous+plaît	NULL	adv	NULL	B_GADV	NOLINK	0	idtext0053	s'il+vous+plaît	#####	spk1	134.84	135.75	?	//

20091112_RATP_SCD_0333	45	1	allo	NULL	adv	NULL	B_GADV	NOLINK	0	idtext0054	allo	#####	spk2	135.89	136.29	?	//

20091112_RATP_SCD_0333	46	1	en	NULL	prep	NULL	B_GP	MOD	6	idtext0055	en	#####	spk1	136.33	136.43	0.01	_
20091112_RATP_SCD_0333	46	2	tapant	NULL	vprespart	NULL	I_GP	OBJ	1	idtext0055	taper	G#####	spk1	136.44	136.83	0.01	_
20091112_RATP_SCD_0333	46	3	son	NULL	det	NULL	B_GN	DET	4	idtext0055	son	###s##o	spk1	136.84	136.98	0.01	_
20091112_RATP_SCD_0333	46	4	nom	NULL	nc	NULL	I_GN	OBJ	2	idtext0055	nom	##m#s##	spk1	136.99	137.14	0.01	_
20091112_RATP_SCD_0333	46	5	j'	NULL	cln	NULL	B_GN	SUJ	6	idtext0055	cln	#1##s##	spk1	137.15	137.27	0.01	_
20091112_RATP_SCD_0333	46	6	ai	NULL	v	NULL	B_GVf	ROOT	0	idtext0055	avoir	P#1##s##	spk1	137.28	137.3	0.01	_
20091112_RATP_SCD_0333	46	7	rien	NULL	pro	NULL	B_GN	OBJ	6	idtext0055	rien	#####	spk1	137.31	137.63	0.01	_
20091112_RATP_SCD_0333	46	8	qui	NULL	prorel	NULL	B_NULL	SUJ	9	idtext0055	qui	#####	spk1	137.64	137.82	0.01	_
20091112_RATP_SCD_0333	46	9	ressort	NULL	v	NULL	B_GVf	MOD_REL	7	idtext0055	ressortir	P#3##s##	spk1	137.83	138.63	?	_

20091112_RATP_SCD_0333	47	1	y	NULL	clo	NULL	B_GN	AFF	2	idtext0056	y	#####	spk2	138.67	138.75	0.01	_
20091112_RATP_SCD_0333	47	2	a	NULL	v	NULL	B_GVf	ROOT	0	idtext0056	avoir	P#3##s##	spk2	138.76	138.81	0.01	_
20091112_RATP_SCD_0333	47	3	rien	NULL	pro	NULL	B_GN	OBJ	2	idtext0056	rien	#####	spk2	138.82	139.19	?	_

20091112_RATP_SCD_0333	48	1	euh	DISF_M	pres	NULL	NULL	NOLINK	0	idtext0057	euh	#####	spk1	139.51	140.04	0.01	//
20091112_RATP_SCD_0333	48	2	ouais	NULL	adv	NULL	B_GADV	NOLINK	0	idtext0057	ouais	#####	spk1	140.05	140.33	0.01	_
20091112_RATP_SCD_0333	48	3	donc	NULL	coo	NULL	B_NULL	ROOT	0	idtext0057	donc	#####	spk1	140.34	140.57	0.01	_
20091112_RATP_SCD_0333	48	4	il	NULL	cln	NULL	B_GN	SUJ_IMP	6	idtext0057	cln	#3#m#s##	spk1	140.58	140.65	0.01	_
20091112_RATP_SCD_0333	48	5	vous	NULL	clo	NULL	B_GN	A_OBJ	6	idtext0057	cln	#2##p##	spk1	140.66	140.71	0.01	_
20091112_RATP_SCD_0333	48	6	faudrait	NULL	v	NULL	B_GVf	DEP_COORD	3	idtext0057	falloir	C#3##s##	spk1	140.72	141.24	0.01	_
20091112_RATP_SCD_0333	48	7	écoutez	DISF_M	pres	NULL	NULL	NOLINK	0	idtext0057	écoutez	#####	spk1	141.25	141.6	0.01	_
20091112_RATP_SCD_0333	48	8	s'	NULL	csu	NULL	B_NULL	OBJ	6	idtext0057	se	#3##p##	spk1	141.61	141.77	0.01	_
20091112_RATP_SCD_0333	48	9	ils	NULL	cln	NULL	B_GN	SUJ	12	idtext0057	cln	#3#m#p##	spk1	141.78	141.87	0.01	_
20091112_RATP_SCD_0333	48	10	ont	NULL	v	NULL	B_GVfn	AUX	12	idtext0057	avoir	P#3##p##	spk1	141.88	141.94	0.01	_
20091112_RATP_SCD_0333	48	11	pas	NULL	advneg	NULL	I_GVfn	MOD	12	idtext0057	pas	#####	spk1	141.95	142.06	0.01	_
20091112_RATP_SCD_0333	48	12	tapé	NULL	vppart	NULL	I_GVfn	OBJ	8	idtext0057	taper	K##m#s##	spk1	142.07	142.43	0.01	_
20091112_RATP_SCD_0333	48	13	son	NULL	det	NULL	B_GN	DET	14	idtext0057	son	###s##o	spk1	142.44	142.72	0.01	_
20091112_RATP_SCD_0333	48	14	identité	NULL	nc	NULL	I_GN	OBJ	12	idtext0057	identité	##f#s##	spk1	142.73	143.28	0.01	_
20091112_RATP_SCD_0333	48	15	ils	NULL	cln	NULL	B_GN	SUJ	17	idtext0057	cln	#3#m#p##	spk1	143.29	143.34	0.01	_
20091112_RATP_SCD_0333	48	16	ont	NULL	v	NULL	B_GVf	AUX	17	idtext0057	avoir	P#3##p##	spk1	143.35	143.41	0.01	_
20091112_RATP_SCD_0333	48	17	tapé	NULL	vppart	NULL	I_GVf	ROOT	0	idtext0057	taper	K##m#s##	spk1	143.42	143.74	0.01	_
20091112_RATP_SCD_0333	48	18	le	NULL	det	NULL	B_GN	DET	19	idtext0057	le	##m#s##d	spk1	143.75	143.83	0.01	_
20091112_RATP_SCD_0333	48	19	descriptif	NULL	nc	NULL	I_GN	OBJ	17	idtext0057	descriptif	#####	spk1	143.84	144.48	0.01	_
20091112_RATP_SCD_0333	48	20	des	NULL	prep	NULL	B_GP	DEP	19	idtext0057	des	#####	spk1	144.49	144.66	0.01	_
20091112_RATP_SCD_0333	48	21	valises	NULL	nc	NULL	I_GP	OBJ	20	idtext0057	valise	##f#p##	spk1	144.67	145.3	0.01	_
20091112_RATP_SCD_0333	48	22	ou	NULL	coo	NULL	B_NULL	COORD	21	idtext0057	ou	#####	spk1	145.31	145.46	0.01	_
20091112_RATP_SCD_0333	48	23	des	NULL	det	NULL	B_GN	DET	24	idtext0057	des	###p##i	spk1	145.47	145.58	0.01	_
20091112_RATP_SCD_0333	48	24	sacs	NULL	nc	NULL	I_GN	DEP_COORD	22	idtext0057	sac	##m#p##	spk1	145.59	145.9	0.01	_
20091112_RATP_SCD_0333	48	25	à	NULL	prep	NULL	B_GP	P_OBJ_LOC	24	idtext0057	à	#####	spk1	145.91	145.98	0.01	_
20091112_RATP_SCD_0333	48	26	dos	NULL	nc	NULL	I_GP	OBJ	25	idtext0057	dos	##m###	spk1	145.99	146.92	0.01	_
20091112_RATP_SCD_0333	48	27	il	NULL	cln	NULL	B_GN	SUJ_IMP	28	idtext0058	cln	#3#m#s##	spk1	146.93	147.04	0.01	_
20091112_RATP_SCD_0333	48	28	faudrait	NULL	v	NULL	B_GVf	ROOT	0	idtext0058	falloir	C#3##s##	spk1	147.05	147.43	0.01	_
20091112_RATP_SCD_0333	48	29	que	NULL	csu	NULL	B_NULL	OBJ	28	idtext0058	que	#####	spk1	147.44	147.49	0.01	_
20091112_RATP_SCD_0333	48	30	je	NULL	cln	NULL	B_GN	SUJ	31	idtext0058	cln	#1##s##	spk1	147.5	147.58	0.01	_
20091112_RATP_SCD_0333	48	31	sache	NULL	v	NULL	B_GVf	OBJ	29	idtext0058	savoir	S#13##s##	spk1	147.59	147.82	0.01	_
20091112_RATP_SCD_0333	48	32	au+moins	NULL	adv	NULL	B_GADV	MOD	31	idtext0058	au+moins	#####	spk1	147.83	148.5	0.01	_
20091112_RATP_SCD_0333	48	33	si	NULL	csu	NULL	B_NULL	OBJ	31	idtext0058	si	#####	spk1	148.51	148.59	0.01	_
20091112_RATP_SCD_0333	48	34	c'	NULL	cln	NULL	B_GN	SUJ_IMP	35	idtext0058	ce	###s##	spk1	148.6	148.62	0.01	_
20091112_RATP_SCD_0333	48	35	est	NULL	v	NULL	B_GVf	OBJ	33	idtext0058	être	P#3##s##	spk1	148.63	148.65	0.01	_
20091112_RATP_SCD_0333	48	36	sur	NULL	prep	NULL	B_GP	ATS	35	idtext0058	sur	#####	spk1	148.66	148.76	0.01	_
20091112_RATP_SCD_0333	48	37	le	NULL	det	NULL	I_GP	DET	38	idtext0058	le	##m#s##d	spk1	148.77	148.95	0.01	_
20091112_RATP_SCD_0333	48	38	métro	NULL	nc	NULL	I_GP	OBJ	36	idtext0058	métro	##m#s##	spk1	148.96	149.52	0.01	_
20091112_RATP_SCD_0333	48	39	le	NULL	det	NULL	B_GN	DET	40	idtext0058	le	##m#s##d	spk1	149.53	149.74	0.01	_
20091112_RATP_SCD_0333	48	40	bus	NULL	nc	NULL	I_GN	MOD	38	idtext0058	bus	##m###	spk1	149.75	151.06	0.01	/
20091112_RATP_SCD_0333	48	41	RER	NULL	nc	B_T	I_GN	MOD	40	idtext0059	RER	#####	spk1	151.07	152.1	0.01	_
20091112_RATP_SCD_0333	48	42	peut-être	NULL	adv	NULL	B_GADV	MOD	41	idtext0059	peut-être	#####	spk1	152.11	152.29	0.01	_
20091112_RATP_SCD_0333	48	43	pas	NULL	advneg	NULL	B_NULL	MOD	35	idtext0059	pas	#####	spk1	152.3	152.4	0.01	_
20091112_RATP_SCD_0333	48	44	le	NULL	det	NULL	B_GN	DET	45	idtext0059	le	##m#s##d	spk1	152.41	152.45	0.01	_
20091112_RATP_SCD_0333	48	45	nom	NULL	nc	NULL	I_GN	ATS	35	idtext0059	nom	##m#s##	spk1	152.46	152.62	0.01	_
20091112_RATP_SCD_0333	48	46	des	NULL	prep	NULL	B_GP	DEP	45	idtext0059	des	#####	spk1	152.63	152.81	0.01	_
20091112_RATP_SCD_0333	48	47	lignes	NULL	nc	NULL	I_GP	OBJ	46	idtext0059	ligne	##f#p##	spk1	152.82	153.05	0.01	_
20091112_RATP_SCD_0333	48	48	de	NULL	prep	NULL	B_GP	DEP	47	idtext0059	de	#####	spk1	153.06	153.15	0.01	_
20091112_RATP_SCD_0333	48	49	métro	NULL	nc	NULL	I_GP	OBJ	48	idtext0059	métro	##m#s##	spk1	153.16	153.49	0.01	_
20091112_RATP_SCD_0333	48	50	ni	NULL	coo	NULL	B_NULL	COORD	49	idtext0059	ni	#####	spk1	153.5	153.59	0.01	_
20091112_RATP_SCD_0333	48	51	de	NULL	prep	NULL	B_GP	DEP_COORD	50	idtext0059	de	#####	spk1	153.6	153.69	0.01	_
20091112_RATP_SCD_0333	48	52	bus	NULL	nc	NULL	I_GP	OBJ	51	idtext0059	bus	##m###	spk1	153.7	154.06	0.01	_
20091112_RATP_SCD_0333	48	53	mais	NULL	coo	NULL	B_NULL	COORD	35	idtext0059	mais	#####	spk1	154.07	154.21	0.01	_
20091112_RATP_SCD_0333	48	54	au+moins	NULL	adv	NULL	B_GADV	NOLINK	0	idtext0059	au+moins	#####	spk1	154.22	155.04	0.01	_
20091112_RATP_SCD_0333	48	55	euh	DISF_M	pres	NULL	NULL	NOLINK	0	idtext0059	euh	#####	spk1	155.05	155.12	?	//

20091112_RATP_SCD_0333	49	1	il	NULL	cln	NULL	B_GN	SUJ	3	idtext0060	cln	#3#m#s##	spk2	155.16	155.21	0.01	_
20091112_RATP_SCD_0333	49	2	a	NULL	v	NULL	B_GVf	AUX	3	idtext0060	avoir	P#3##s##	spk2	155.22	155.24	0.01	_
20091112_RATP_SCD_0333	49	3	parlé	NULL	vppart	NULL	I_GVf	ROOT	0	idtext0060	parler	K##m#s##	spk2	155.25	155.42	0.01	_
20091112_RATP_SCD_0333	49	4	d'	NULL	prep	NULL	B_GP	DE_OBJ	3	idtext0060	d'	#####	spk2	155.43	155.47	0.01	_
20091112_RATP_SCD_0333	49	5	Odéon	NULL	nc	B_A	I_GP	OBJ	4	idtext0060	Odéon	#####	spk2	155.48	156.04	0.01	/
20091112_RATP_SCD_0333	49	6	à	NULL	prep	NULL	B_GP	MOD	5	idtext0060	à	#####	spk2	156.05	156.07	0.01	_
20091112_RATP_SCD_0333	49	7	un	NULL	det	NULL	I_GP	DET	8	idtext0060	un	##m#s##i	spk2	156.08	156.12	0.01	_
20091112_RATP_SCD_0333	49	8	moment	NULL	nc	NULL	I_GP	OBJ	6	idtext0060	moment	##m#s##	spk2	156.13	156.57	0.01	_
20091112_RATP_SCD_0333	49	9	mais	NULL	coo	NULL	B_NULL	NOLINK	0	idtext0060	mais	#####	spk2	156.58	157.38	?	_

20091112_RATP_SCD_0333	50	1	Odéon	NULL	nc	B_A	B_GN	ROOT	0	idtext0061	Odéon	#####	spk1	157.78	159.02	0.01	_
20091112_RATP_SCD_0333	50	2	parce+que	NULL	csu	NULL	B_NULL	ROOT	0	idtext0061	parce+que	#####	spk1	159.03	159.37	0.01	_
20091112_RATP_SCD_0333	50	3	là	NULL	adv	NULL	B_GADV	NOLINK	0	idtext0061	là	#####	spk1	159.38	159.49	0.01	_
20091112_RATP_SCD_0333	50	4	quand	NULL	csu	NULL	B_NULL	MOD	14	idtext0061	quand	#####	spk1	159.5	159.63	0.01	_
20091112_RATP_SCD_0333	50	5	je	NULL	cln	NULL	B_GN	SUJ	6	idtext0061	cln	#1##s##	spk1	159.64	159.71	0.01	_
20091112_RATP_SCD_0333	50	6	tape	NULL	v	NULL	B_GVf	OBJ	4	idtext0061	taper	PS#13##s##	spk1	159.72	160.03	0.01	_
20091112_RATP_SCD_0333	50	7	si	NULL	csu	NULL	B_NULL	OBJ	6	idtext0061	si	#####	spk1	160.04	160.2	0.01	_
20091112_RATP_SCD_0333	50	8	je	NULL	cln	NULL	B_GN	SUJ	9	idtext0061	cln	#1##s##	spk1	160.21	160.24	0.01	_
20091112_RATP_SCD_0333	50	9	regarde	NULL	v	NULL	B_GVf	OBJ	7	idtext0061	regarder	PS#13##s##	spk1	160.25	160.58	0.01	_
20091112_RATP_SCD_0333	50	10	uniquement	NULL	adv	NULL	B_GADV	MOD	9	idtext0061	uniquement	#####	spk1	160.59	160.98	0.01	_
20091112_RATP_SCD_0333	50	11	sur	NULL	prep	NULL	B_GP	P_OBJ	9	idtext0061	sur	#####	spk1	160.99	161.18	0.01	_
20091112_RATP_SCD_0333	50	12	métro	NULL	nc	NULL	I_GP	OBJ	11	idtext0061	métro	##m#s##	spk1	161.19	161.51	0.01	//
20091112_RATP_SCD_0333	50	13	j'	NULL	cln	NULL	B_GN	SUJ	14	idtext0061	cln	#1##s##	spk1	161.52	161.55	0.01	_
20091112_RATP_SCD_0333	50	14	ai	NULL	v	NULL	B_GVf	OBJ	2	idtext0061	avoir	P#1##s##	spk1	161.56	161.6	0.01	_
20091112_RATP_SCD_0333	50	15	plus	NULL	adv	NULL	B_GADV	MOD	18	idtext0061	plus	#####	spk1	161.61	161.75	0.01	_
20091112_RATP_SCD_0333	50	16	de	NULL	prep	NULL	B_GP	DEP	1	idtext0061	de	#####	spk1	161.76	161.81	0.01	_
20091112_RATP_SCD_0333	50	17	cinq	NULL	nc	NULL	I_GP	OBJ	16	idtext0061	cinq	##m###	spk1	161.82	161.99	0.01	_
20091112_RATP_SCD_0333	50	18	cent	NULL	nc	NULL	B_GN	OBJ	14	idtext0061	cent	##m#p##	spk1	162.0	162.19	0.01	_
20091112_RATP_SCD_0333	50	19	objets	NULL	nc	NULL	I_GN	MOD	18	idtext0061	objet	##m#p##	spk1	162.2	162.59	0.01	_
20091112_RATP_SCD_0333	50	20	donc	NULL	coo	NULL	B_NULL	NOLINK	0	idtext0061	donc	#####	spk1	162.6	162.91	0.01	_
20091112_RATP_SCD_0333	50	21	euh	DISF_M	pres	NULL	NULL	NOLINK	0	idtext0061	euh	#####	spk1	162.92	163.29	?	//

20091112_RATP_SCD_0333	51	1	ah	DISF_M	pres	NULL	NULL	NOLINK	0	idtext0062	ah	#####	spk2	163.33	163.37	0.01	_
20091112_RATP_SCD_0333	51	2	oui	NULL	adv	NULL	B_GADV	NOLINK	0	idtext0062	oui	#####	spk2	163.38	163.64	0.01	_
20091112_RATP_SCD_0333	51	3	ça	NULL	pro	NULL	B_GN	DE_OBJ	6	idtext0062	ça	#####	spk2	163.65	163.7	0.01	_
20091112_RATP_SCD_0333	51	4	j'	NULL	cln	NULL	B_GN	SUJ	6	idtext0062	cln	#1##s##	spk2	163.71	163.73	0.01	_
20091112_RATP_SCD_0333	51	5	en	NULL	clo	NULL	B_GN	DE_OBJ	6	idtext0062	en	#####	spk2	163.74	163.76	0.01	_
20091112_RATP_SCD_0333	51	6	doute	NULL	v	NULL	B_GVfn	ROOT	0	idtext0062	douter	PS#13##s##	spk2	163.77	163.86	0.01	_
20091112_RATP_SCD_0333	51	7	pas	NULL	advneg	NULL	I_GVfn	MOD	6	idtext0062	pas	#####	spk2	163.87	164.11	0.01	_
20091112_RATP_SCD_0333	51	8	un	NULL	det	NULL	B_GN	DET	9	idtext0062	un	##m#s##i	spk2	164.12	164.39	0.01	_
20091112_RATP_SCD_0333	51	9	instant	NULL	nc	NULL	I_GN	MOD	6	idtext0062	instant	##m#s##	spk2	164.4	165.43	?	//

20091112_RATP_SCD_0333	52	1	hein	DISF_M	pres	NULL	NULL	NOLINK	0	idtext0063	hein	#####	spk1	163.33	163.92	0.01	//
20091112_RATP_SCD_0333	52	2	hein	DISF_M	pres	NULL	NULL	NOLINK	0	idtext0063	hein	#####	spk1	163.93	164.77	0.01	_
20091112_RATP_SCD_0333	52	3	hein	DISF_M	pres	NULL	NULL	NOLINK	0	idtext0063	hein	#####	spk1	164.78	165.43	?	//

20091112_RATP_SCD_0333	53	1	malheureusement	NULL	adv	NULL	B_GADV	NOLINK	0	idtext0064	malheureusement	#####	spk1	165.48	166.64	?	//

20091112_RATP_SCD_0333	54	1	hm	DISF_M	pres	NULL	NULL	NOLINK	0	idtext0065	hm	#####	spk2	166.77	167.53	?	//

20091112_RATP_SCD_0333	55	1	donc	NULL	coo	NULL	B_NULL	ROOT	0	idtext0066	donc	#####	spk1	168.43	168.58	0.01	_
20091112_RATP_SCD_0333	55	2	pour	NULL	prep	NULL	B_GP	MOD	7	idtext0066	pour	#####	spk1	168.59	168.75	0.01	_
20091112_RATP_SCD_0333	55	3	pouvoir	NULL	vinf	NULL	I_GP	OBJ	2	idtext0066	pouvoir	W#####	spk1	168.76	169.15	0.01	_
20091112_RATP_SCD_0333	55	4	vous	DISF_R	clo	NULL	NULL	NOLINK	0	idtext0066	cln	#2##p##	spk1	169.16	169.45	0.01	_
20091112_RATP_SCD_0333	55	5	vous	NULL	clo	NULL	B_GN	OBJ	6	idtext0066	cln	#2##p##	spk1	169.46	169.59	0.01	_
20091112_RATP_SCD_0333	55	6	renseigner	NULL	vinf	NULL	B_GVi	OBJ	3	idtext0066	renseigner	W#####	spk1	169.6	170.04	0.01	_
20091112_RATP_SCD_0333	55	7	faudrait	NULL	v	NULL	B_GVf	DEP_COORD	1	idtext0066	falloir	C#3##s##	spk1	170.05	170.28	0.01	_
20091112_RATP_SCD_0333	55	8	que	NULL	csu	NULL	B_NULL	OBJ	7	idtext0066	que	#####	spk1	170.29	170.31	0.01	_
20091112_RATP_SCD_0333	55	9	ce	NULL	cln	NULL	B_GN	SUJ_IMP	13	idtext0066	ce	#####	spk1	170.32	170.47	0.01	_
20091112_RATP_SCD_0333	55	10	soit	NULL	coo	NULL	B_NULL	NOLINK	0	idtext0066	soit	#####	spk1	170.48	170.87	0.01	_
20091112_RATP_SCD_0333	55	11	il	NULL	cln	NULL	B_GN	SUJ	13	idtext0066	cln	#3#m#s##	spk1	170.88	170.93	0.01	_
20091112_RATP_SCD_0333	55	12	se	NULL	clr	NULL	B_GVfn	AFF	13	idtext0066	se	#####	spk1	170.94	171.07	0.01	_
20091112_RATP_SCD_0333	55	13	souvient	NULL	v	NULL	I_GVfn	OBJ	8	idtext0066	souvenir	P#3##s##	spk1	171.08	171.36	0.01	_
20091112_RATP_SCD_0333	55	14	pas+du+tout	NULL	advneg	NULL	I_GVfn	MOD	13	idtext0066	pas+du+tout	#####	spk1	171.37	172.49	?	_

20091112_RATP_SCD_0333	56	1	non	NULL	adv	NULL	B_GADV	NOLINK	0	idtext0067	non	#####	spk2	172.53	172.75	?	_

20091112_RATP_SCD_0333	57	1	y	NULL	clo	NULL	B_GN	AFF	2	idtext0068	y	#####	spk1	172.79	172.81	0.01	_
20091112_RATP_SCD_0333	57	2	a	NULL	v	NULL	B_GVf	ROOT	0	idtext0068	avoir	P#3##s##	spk1	172.82	172.86	0.01	_
20091112_RATP_SCD_0333	57	3	rien	NULL	pro	NULL	B_GN	OBJ	2	idtext0068	rien	#####	spk1	172.87	173.06	0.01	_
20091112_RATP_SCD_0333	57	4	qui	NULL	prorel	NULL	B_NULL	SUJ	6	idtext0068	qui	#####	spk1	173.07	173.23	0.01	_
20091112_RATP_SCD_0333	57	5	lui	NULL	clo	NULL	B_GN	OBJ	6	idtext0068	lui	#####	spk1	173.24	173.36	0.01	_
20091112_RATP_SCD_0333	57	6	revient	NULL	v	NULL	B_GVf	MOD_REL	3	idtext0068	revenir	P#3##s##	spk1	173.37	174.5	?	//

20091112_RATP_SCD_0333	58	1	alors	NULL	adv	NULL	B_GADV	MOD	2	idtext0069	alors	#####	spk2	175.09	176.35	0.01	_
20091112_RATP_SCD_0333	58	2	peut-être	NULL	adv	NULL	I_GADV	ROOT	0	idtext0069	peut-être	#####	spk2	176.36	176.84	0.01	_
20091112_RATP_SCD_0333	58	3	que	NULL	csu	NULL	B_NULL	OBJ	2	idtext0069	que	#####	spk2	176.85	177.21	0.01	_
20091112_RATP_SCD_0333	58	4	demain	NULL	adv	NULL	B_GADV	MOD	6	idtext0069	demain	#####	spk2	177.22	177.52	0.01	_
20091112_RATP_SCD_0333	58	5	il	NULL	cln	NULL	B_GN	SUJ	6	idtext0069	cln	#3#m#s##	spk2	177.53	177.61	0.01	_
20091112_RATP_SCD_0333	58	6	sera	NULL	v	NULL	B_GVf	OBJ	3	idtext0069	être	F#3##s##	spk2	177.62	177.76	0.01	_
20091112_RATP_SCD_0333	58	7	plus	NULL	adv	NULL	B_GADV	MOD	6	idtext0069	plus	#####	spk2	177.77	178.06	0.01	_
20091112_RATP_SCD_0333	58	8	euh	DISF_M	pres	NULL	NULL	NOLINK	0	idtext0069	euh	#####	spk2	178.07	178.68	?	//

20091112_RATP_SCD_0333	59	1	bah	DISF_M	pres	NULL	NULL	NOLINK	0	idtext0070	bah	#####	spk1	178.89	178.99	0.01	_
20091112_RATP_SCD_0333	59	2	au+moins	NULL	adv	NULL	B_GADV	NOLINK	0	idtext0070	au+moins	#####	spk1	179.0	179.23	0.01	_
20091112_RATP_SCD_0333	59	3	pour+qu'	NULL	csu	NULL	B_NULL	ROOT	0	idtext0070	pour+qu'	#####	spk1	179.24	179.44	0.01	_
20091112_RATP_SCD_0333	59	4	on	NULL	cln	NULL	B_GN	SUJ_IMP	5	idtext0070	cln	#3##s##	spk1	179.45	179.52	0.01	_
20091112_RATP_SCD_0333	59	5	puisse	NULL	v	NULL	B_GVf	OBJ	3	idtext0070	pouvoir	S#1##s##	spk1	179.53	179.88	0.01	_
20091112_RATP_SCD_0333	59	6	cibler	NULL	vinf	NULL	I_GVf	OBJ	5	idtext0070	cibler	W#####	spk1	179.89	180.15	0.01	_
20091112_RATP_SCD_0333	59	7	juste	NULL	adv	NULL	B_GADV	MOD	5	idtext0070	juste	###s##	spk1	180.16	180.41	0.01	_
20091112_RATP_SCD_0333	59	8	la	NULL	det	NULL	B_GN	DET	9	idtext0070	le	##m#s##d	spk1	180.42	180.53	0.01	_
20091112_RATP_SCD_0333	59	9	recherche	NULL	nc	NULL	I_GN	OBJ	5	idtext0070	recherche	##f#s##	spk1	180.54	180.96	0.01	_
20091112_RATP_SCD_0333	59	10	sur	NULL	prep	NULL	B_GP	P_OBJ	9	idtext0070	sur	#####	spk1	180.97	181.69	0.01	_
20091112_RATP_SCD_0333	59	11	euh	DISF_M	pres	NULL	NULL	NOLINK	0	idtext0070	euh	#####	spk1	181.7	181.74	0.01	_
20091112_RATP_SCD_0333	59	12	le	NULL	det	NULL	I_GP	DET	13	idtext0071	le	##m#s##d	spk1	181.75	181.91	0.01	_
20091112_RATP_SCD_0333	59	13	type	NULL	nc	NULL	I_GP	OBJ	10	idtext0071	type	##m#s##	spk1	181.92	182.09	0.01	_
20091112_RATP_SCD_0333	59	14	de	NULL	prep	NULL	B_GP	DEP	13	idtext0071	de	#####	spk1	182.1	182.21	0.01	_
20091112_RATP_SCD_0333	59	15	transport	NULL	nc	NULL	I_GP	OBJ	14	idtext0071	transport	##m#s##	spk1	182.22	182.6	0.01	/
20091112_RATP_SCD_0333	59	16	qu'	NULL	prorel	NULL	B_NULL	OBJ	19	idtext0071	qu'	#####	spk1	182.61	182.67	0.01	_
20091112_RATP_SCD_0333	59	17	il	NULL	cln	NULL	B_GN	SUJ	19	idtext0071	cln	#3#m#s##	spk1	182.68	182.76	0.01	_
20091112_RATP_SCD_0333	59	18	a	NULL	v	NULL	B_GVf	AUX	19	idtext0071	avoir	P#3##s##	spk1	182.77	182.83	0.01	_
20091112_RATP_SCD_0333	59	19	pris	NULL	vppart	NULL	I_GVf	MOD_REL	13	idtext0071	prendre	K##m###	spk1	182.84	183.51	0.01	_
20091112_RATP_SCD_0333	59	20	en	NULL	prep	NULL	B_GP	P_OBJ_LOC	19	idtext0071	en	#####	spk1	183.52	183.6	0.01	_
20091112_RATP_SCD_0333	59	21	fonction	NULL	nc	NULL	I_GP	OBJ	20	idtext0071	fonction	##f#s##	spk1	183.61	183.98	0.01	_
20091112_RATP_SCD_0333	59	22	de	NULL	prep	NULL	B_GP	DEP	21	idtext0071	de	#####	spk1	183.99	184.01	0.01	_
20091112_RATP_SCD_0333	59	23	ça	NULL	pro	NULL	I_GP	OBJ	22	idtext0071	ça	#####	spk1	184.02	184.2	0.01	_
20091112_RATP_SCD_0333	59	24	si	NULL	csu	NULL	B_NULL	MOD	48	idtext0071	si	#####	spk1	184.21	184.31	0.01	_
20091112_RATP_SCD_0333	59	25	on	NULL	cln	NULL	B_GN	SUJ_IMP	26	idtext0071	cln	#3##s##	spk1	184.32	184.37	0.01	_
20091112_RATP_SCD_0333	59	26	sait	NULL	v	NULL	B_GVf	OBJ	24	idtext0071	savoir	P#3##s##	spk1	184.38	184.54	0.01	_
20091112_RATP_SCD_0333	59	27	que	NULL	csu	NULL	B_NULL	OBJ	26	idtext0071	que	#####	spk1	184.55	184.67	0.01	_
20091112_RATP_SCD_0333	59	28	si	NULL	csu	NULL	B_NULL	OBJ	27	idtext0071	si	#####	spk1	184.68	184.76	0.01	_
20091112_RATP_SCD_0333	59	29	c'	NULL	cln	NULL	B_GN	SUJ_IMP	30	idtext0071	ce	###s##	spk1	184.77	184.8	0.01	_
20091112_RATP_SCD_0333	59	30	est	NULL	v	NULL	B_GVf	OBJ	28	idtext0071	être	P#3##s##	spk1	184.81	184.87	0.01	_
20091112_RATP_SCD_0333	59	31	que	NULL	advneg	NULL	B_NULL	MOD	30	idtext0071	que	#####	spk1	184.88	185.02	0.01	_
20091112_RATP_SCD_0333	59	32	le	NULL	det	NULL	B_GN	DET	33	idtext0071	le	##m#s##d	spk1	185.03	185.07	0.01	_
20091112_RATP_SCD_0333	59	33	métro	NULL	nc	NULL	I_GN	ATS	30	idtext0071	métro	##m#s##	spk1	185.08	185.38	0.01	_
20091112_RATP_SCD_0333	59	34	on	NULL	cln	NULL	B_GN	SUJ	35	idtext0071	cln	#3##s##	spk1	185.39	185.43	0.01	_
20091112_RATP_SCD_0333	59	35	regardera	NULL	v	NULL	B_GVf	OBJ	31	idtext0071	regarder	F#3##s##	spk1	185.44	185.91	0.01	_
20091112_RATP_SCD_0333	59	36	à+peu+près	NULL	adv	NULL	B_GADV	MOD	35	idtext0071	à+peu+près	#####	spk1	185.92	186.82	0.01	_
20091112_RATP_SCD_0333	59	37	par+rapport+au	NULL	prep	NULL	B_GP	P_OBJ	35	idtext0071	par+rapport+au	#####	spk1	186.83	187.31	0.01	_
20091112_RATP_SCD_0333	59	38	trajet	NULL	nc	NULL	I_GP	OBJ	37	idtext0071	trajet	##m#s##	spk1	187.32	187.67	0.01	/
20091112_RATP_SCD_0333	59	39	qu'	NULL	prorel	NULL	B_NULL	OBJ	42	idtext0071	qu'	#####	spk1	187.68	187.76	0.01	_
20091112_RATP_SCD_0333	59	40	il	NULL	cln	NULL	B_GN	SUJ	42	idtext0071	cln	#3#m#s##	spk1	187.77	187.86	0.01	_
20091112_RATP_SCD_0333	59	41	a	NULL	v	NULL	B_GVf	AUX	42	idtext0071	avoir	P#3##s##	spk1	187.87	187.89	0.01	_
20091112_RATP_SCD_0333	59	42	effectué	NULL	vppart	NULL	I_GVf	MOD_REL	38	idtext0071	effectuer	K##m#s##	spk1	187.9	188.56	0.01	_
20091112_RATP_SCD_0333	59	43	même	NULL	adv	NULL	B_GADV	MOD	42	idtext0071	même	###s##	spk1	188.57	188.72	0.01	_
20091112_RATP_SCD_0333	59	44	pas	NULL	advneg	NULL	B_NULL	MOD	43	idtext0071	pas	#####	spk1	188.73	188.84	0.01	_
20091112_RATP_SCD_0333	59	45	forcément	NULL	adv	NULL	B_GADV	MOD	35	idtext0071	forcément	#####	spk1	188.85	189.27	0.01	_
20091112_RATP_SCD_0333	59	46	on	NULL	cln	NULL	B_GN	SUJ	48	idtext0071	cln	#3##s##	spk1	189.28	189.33	0.01	_
20091112_RATP_SCD_0333	59	47	n'	NULL	clneg	NULL	B_GVfn	MOD	48	idtext0071	n'	#####	spk1	189.34	189.36	0.01	_
20091112_RATP_SCD_0333	59	48	a	NULL	v	NULL	I_GVfn	MOD_REL	16	idtext0071	avoir	P#3##s##	spk1	189.37	189.4	0.01	_
20091112_RATP_SCD_0333	59	49	pas	NULL	advneg	NULL	I_GVfn	MOD	48	idtext0071	pas	#####	spk1	189.41	189.48	0.01	_
20091112_RATP_SCD_0333	59	50	besoin	NULL	nc	NULL	B_GN	OBJ	48	idtext0071	besoin	##m#s##	spk1	189.49	189.6	0.01	_
20091112_RATP_SCD_0333	59	51	de	NULL	prep	NULL	B_GP	DEP	50	idtext0071	de	#####	spk1	189.61	189.63	0.01	_
20091112_RATP_SCD_0333	59	52	savoir	NULL	vinf	NULL	I_GP	OBJ	51	idtext0071	savoir	W#####	spk1	189.64	189.83	0.01	_
20091112_RATP_SCD_0333	59	53	les	NULL	det	NULL	B_GN	DET	54	idtext0071	le	###p##d	spk1	189.84	189.89	0.01	_
20091112_RATP_SCD_0333	59	54	lignes	NULL	nc	NULL	I_GN	OBJ	52	idtext0071	ligne	##f#p##	spk1	189.9	189.98	0.01	_
20091112_RATP_SCD_0333	59	55	mais	NULL	coo	NULL	B_NULL	COORD	48	idtext0071	mais	#####	spk1	189.99	190.04	0.01	_
20091112_RATP_SCD_0333	59	56	là	NULL	adv	NULL	B_GADV	MOD	52	idtext0071	là	#####	spk1	190.05	190.1	0.01	_
20091112_RATP_SCD_0333	59	57	où	NULL	prorel	NULL	B_NULL	P_OBJ_LOC	60	idtext0071	où	#####	spk1	190.11	190.14	0.01	_
20091112_RATP_SCD_0333	59	58	il	NULL	cln	NULL	B_GN	SUJ	60	idtext0071	cln	#3#m#s##	spk1	190.15	190.2	0.01	_
20091112_RATP_SCD_0333	59	59	est	NULL	v	NULL	B_GVf	AUX	60	idtext0071	être	P#3##s##	spk1	190.21	190.27	0.01	_
20091112_RATP_SCD_0333	59	60	parti	NULL	vppart	NULL	I_GVf	DEP_COORD	55	idtext0071	partir	K##m#s##	spk1	190.28	190.48	?	//

20091112_RATP_SCD_0333	60	1	parce+que	NULL	csu	NULL	B_NULL	ROOT	0	idtext0072	parce+que	#####	spk2	190.54	190.84	0.01	_
20091112_RATP_SCD_0333	60	2	en+fait	GREF	adv	NULL	B_GADV	NOLINK	0	idtext0072	en+fait	#####	spk2	190.85	191.02	0.01	_
20091112_RATP_SCD_0333	60	3	il	DISF_R	cln	NULL	NULL	NOLINK	0	idtext0072	cln	#3#m#s##	spk2	191.03	191.15	0.01	_
20091112_RATP_SCD_0333	60	4	arrivait	DISF_R	v	NULL	NULL	NOLINK	0	idtext0072	arriver	I#3##s##	spk2	191.16	191.57	0.01	_
20091112_RATP_SCD_0333	60	5	de	DISF_R	prep	NULL	NULL	NOLINK	0	idtext0072	de	#####	spk2	191.58	191.79	0.01	_
20091112_RATP_SCD_0333	60	6	il	NULL	cln	NULL	B_GN	SUJ	7	idtext0072	cln	#3#m#s##	spk2	191.8	191.93	0.01	_
20091112_RATP_SCD_0333	60	7	arrivait	NULL	v	NULL	B_GVf	OBJ	1	idtext0072	arriver	I#3##s##	spk2	191.94	192.24	0.01	_
20091112_RATP_SCD_0333	60	8	de	NULL	prep	NULL	B_GP	P_OBJ_LOC	7	idtext0072	de	#####	spk2	192.25	192.42	0.01	_
20091112_RATP_SCD_0333	60	9	Dijon	NULL	nc	B_A	I_GP	OBJ	8	idtext0072	Dijon	##m#s##	spk2	192.43	193.15	0.01	_
20091112_RATP_SCD_0333	60	10	alors	NULL	adv	NULL	B_GADV	NOLINK	0	idtext0072	alors	#####	spk2	193.16	193.72	0.01	_
20091112_RATP_SCD_0333	60	11	c'	NULL	cln	NULL	B_GN	SUJ_IMP	12	idtext0072	ce	###s##	spk2	193.73	193.75	0.01	_
20091112_RATP_SCD_0333	60	12	est	NULL	v	NULL	B_GVf	ROOT	0	idtext0072	être	P#3##s##	spk2	193.76	193.78	0.01	_
20091112_RATP_SCD_0333	60	13	par	NULL	prep	NULL	B_GP	ATS	12	idtext0072	par	#####	spk2	193.79	193.9	0.01	_
20091112_RATP_SCD_0333	60	14	la	NULL	det	NULL	I_GP	DET	15	idtext0072	le	##m#s##d	spk2	193.91	194.03	0.01	_
20091112_RATP_SCD_0333	60	15	ligne	NULL	nc	NULL	I_GP	OBJ	13	idtext0072	ligne	##f#s##	spk2	194.04	194.51	0.01	_
20091112_RATP_SCD_0333	60	16	sur	NULL	prep	NULL	B_GP	MOD	15	idtext0073	sur	#####	spk2	194.52	194.62	0.01	_
20091112_RATP_SCD_0333	60	17	quel	NULL	det	NULL	I_GP	DET	18	idtext0073	quel	##m#s##	spk2	194.63	194.85	0.01	_
20091112_RATP_SCD_0333	60	18	métro	NULL	nc	NULL	I_GP	OBJ	16	idtext0073	métro	##m#s##	spk2	194.86	195.31	0.01	_
20091112_RATP_SCD_0333	60	19	après	NULL	adv	NULL	B_GADV	NOLINK	0	idtext0073	après	#####	spk2	195.32	195.56	0.01	_
20091112_RATP_SCD_0333	60	20	quand	NULL	csu	NULL	B_NULL	ROOT	0	idtext0073	quand	#####	spk2	195.57	195.74	0.01	_
20091112_RATP_SCD_0333	60	21	on	NULL	cln	NULL	B_GN	SUJ_IMP	22	idtext0073	cln	#3##s##	spk2	195.75	195.99	0.01	_
20091112_RATP_SCD_0333	60	22	arrive	NULL	v	NULL	B_GVf	OBJ	20	idtext0073	arriver	PS#13##s##	spk2	196.0	196.36	0.01	_
20091112_RATP_SCD_0333	60	23	de	NULL	prep	NULL	B_GP	P_OBJ_LOC	22	idtext0073	de	#####	spk2	196.37	196.45	0.01	_
20091112_RATP_SCD_0333	60	24	Dijon	NULL	nc	B_A	I_GP	OBJ	23	idtext0073	Dijon	##m#s##	spk2	196.46	196.91	?	//

20091112_RATP_SCD_0333	61	1	honnêtement	NULL	adv	NULL	B_GADV	NOLINK	0	idtext0074	honnêtement	#####	spk1	196.95	197.18	?	//

20091112_RATP_SCD_0333	62	1	alors	NULL	adv	NULL	B_GADV	MOD	2	idtext0075	alors	#####	spk2	197.28	197.62	0.01	_
20091112_RATP_SCD_0333	62	2	là	NULL	adv	NULL	I_GADV	ROOT	0	idtext0075	là	#####	spk2	197.63	197.86	0.01	_
20091112_RATP_SCD_0333	62	3	c'	NULL	cln	NULL	B_GN	SUJ_IMP	4	idtext0075	ce	###s##	spk2	197.87	198.06	0.01	_
20091112_RATP_SCD_0333	62	4	est	NULL	v	NULL	B_GVf	ROOT	0	idtext0075	être	P#3##s##	spk2	198.07	198.14	0.01	_
20091112_RATP_SCD_0333	62	5	gare	NULL	nc	NULL	B_GN	ATS	4	idtext0075	gare	##f#s##	spk2	198.15	198.36	0.01	_
20091112_RATP_SCD_0333	62	6	de	NULL	prep	NULL	B_NULL	NOLINK	0	idtext0075	de	#####	spk2	198.37	199.39	?	_

20091112_RATP_SCD_0333	63	1	euh	DISF_M	pres	NULL	NULL	NOLINK	0	idtext0076	euh	#####	spk1	199.43	199.45	0.01	_
20091112_RATP_SCD_0333	63	2	Gare+de+l'Est	NULL	nc	B_A	B_GN	ROOT	0	idtext0076	Gare+de+l'Est	#####	spk1	199.46	202.36	0.01	_
20091112_RATP_SCD_0333	63	3	ou	NULL	coo	NULL	B_NULL	COORD	2	idtext0076	ou	#####	spk1	202.37	202.96	0.01	_
20091112_RATP_SCD_0333	63	4	Gare+du+Nord	NULL	nc	B_A	B_GN	DEP_COORD	3	idtext0076	Gare+du+Nord	#####	spk1	202.97	204.31	0.01	_
20091112_RATP_SCD_0333	63	5	je	NULL	cln	NULL	B_GN	SUJ	7	idtext0076	cln	#1##s##	spk1	204.32	205.72	0.01	_
20091112_RATP_SCD_0333	63	6	ne	NULL	clneg	NULL	B_GVfn	MOD	7	idtext0076	ne	#####	spk1	205.73	206.05	0.01	_
20091112_RATP_SCD_0333	63	7	sais	NULL	v	NULL	I_GVfn	ROOT	0	idtext0076	savoir	P#12##s##	spk1	206.06	206.13	0.01	_
20091112_RATP_SCD_0333	63	8	pas	NULL	advneg	NULL	I_GVfn	MOD	7	idtext0076	pas	#####	spk1	206.14	206.47	0.01	_
20091112_RATP_SCD_0333	63	9	honnêtement	NULL	adv	NULL	B_GADV	NOLINK	0	idtext0076	honnêtement	#####	spk1	206.48	208.88	?	_

20091112_RATP_SCD_0333	64	1	savoir	NULL	vinf	NULL	B_GVi	ROOT	0	idtext0077	savoir	W#####	spk2	208.92	209.53	0.01	_
20091112_RATP_SCD_0333	64	2	par	NULL	prep	NULL	B_GP	P_OBJ	1	idtext0077	par	#####	spk2	209.54	209.69	0.01	_
20091112_RATP_SCD_0333	64	3	quelle	NULL	det	NULL	I_GP	DET	4	idtext0077	quel	##f#s##	spk2	209.7	209.81	0.01	_
20091112_RATP_SCD_0333	64	4	ligne	NULL	nc	NULL	I_GP	OBJ	2	idtext0077	ligne	##f#s##	spk2	209.82	209.92	0.01	//
20091112_RATP_SCD_0333	64	5	il	NULL	cln	NULL	B_GN	SUJ	7	idtext0077	cln	#3#m#s##	spk2	209.93	210.0	0.01	_
20091112_RATP_SCD_0333	64	6	aurait	NULL	v	NULL	B_GVf	AUX	7	idtext0077	avoir	C#3##s##	spk2	210.01	210.12	0.01	_
20091112_RATP_SCD_0333	64	7	pu	NULL	vppart	NULL	I_GVf	OBJ	1	idtext0077	pouvoir	K#####	spk2	210.13	210.18	0.01	_
20091112_RATP_SCD_0333	64	8	arriver	NULL	vinf	NULL	B_GVi	OBJ	7	idtext0077	arriver	W#####	spk2	210.19	210.65	?	//

20091112_RATP_SCD_0333	65	1	oui	DISF_R	adv	NULL	NULL	NOLINK	0	idtext0078	oui	#####	spk1	209.13	210.1	0.01	_
20091112_RATP_SCD_0333	65	2	oui	NULL	adv	NULL	B_GADV	NOLINK	0	idtext0078	oui	#####	spk1	210.11	210.65	?	_

20091112_RATP_SCD_0333	66	1	par	NULL	prep	NULL	B_GP	ROOT	0	idtext0079	par	#####	spk2	210.7	210.78	0.01	_
20091112_RATP_SCD_0333	66	2	le	NULL	det	NULL	I_GP	DET	3	idtext0079	le	##m#s##d	spk2	210.79	210.91	0.01	_
20091112_RATP_SCD_0333	66	3	train	NULL	nc	NULL	I_GP	OBJ	1	idtext0079	train	##m#s##	spk2	210.92	211.22	?	//

20091112_RATP_SCD_0333	67	1	bah	DISF_M	pres	NULL	NULL	NOLINK	0	idtext0080	bah	#####	spk1	211.26	211.31	0.01	_
20091112_RATP_SCD_0333	67	2	il	NULL	cln	NULL	B_GN	SUJ_IMP	3	idtext0080	cln	#3#m#s##	spk1	211.32	211.37	0.01	_
20091112_RATP_SCD_0333	67	3	faudrait	NULL	v	NULL	B_GVf	ROOT	0	idtext0080	falloir	C#3##s##	spk1	211.38	211.63	0.01	_
20091112_RATP_SCD_0333	67	4	au+moins	NULL	adv	NULL	B_GADV	MOD	5	idtext0080	au+moins	#####	spk1	211.64	211.88	0.01	_
20091112_RATP_SCD_0333	67	5	juste	NULL	adv	NULL	I_GADV	MOD	7	idtext0080	juste	###s##	spk1	211.89	212.22	0.01	_
20091112_RATP_SCD_0333	67	6	ça	NULL	pro	NULL	B_GN	NOLINK	0	idtext0080	ça	#####	spk1	212.23	212.43	0.01	_
20091112_RATP_SCD_0333	67	7	savoir	NULL	vinf	NULL	B_GVi	OBJ	3	idtext0080	savoir	W#####	spk1	212.44	212.74	0.01	_
20091112_RATP_SCD_0333	67	8	quel	NULL	det	NULL	B_NULL	OBJ	9	idtext0080	quel	##m#s##	spk1	212.75	213.94	0.01	_
20091112_RATP_SCD_0333	67	9	partir	NULL	vinf	NULL	B_GVi	OBJ	7	idtext0080	partir	W#####	spk1	213.95	214.39	0.01	_
20091112_RATP_SCD_0333	67	10	d'où	NULL	adv	NULL	B_GADV	MOD	9	idtext0080	d'où	#####	spk1	214.4	214.56	0.01	_
20091112_RATP_SCD_0333	67	11	pour	NULL	prep	NULL	B_GP	MOD	9	idtext0080	pour	#####	spk1	214.57	214.76	0.01	_
20091112_RATP_SCD_0333	67	12	arriver	NULL	vinf	NULL	I_GP	OBJ	11	idtext0080	arriver	W#####	spk1	214.77	215.19	0.01	_
20091112_RATP_SCD_0333	67	13	où	NULL	adv	NULL	B_GADV	MOD	14	idtext0080	où	#####	spk1	215.2	215.47	0.01	_
20091112_RATP_SCD_0333	67	14	comme+ça	NULL	adv	NULL	I_GADV	MOD	12	idtext0080	comme+ça	#####	spk1	215.48	215.77	0.01	_
20091112_RATP_SCD_0333	67	15	on	NULL	cln	NULL	B_GN	SUJ_IMP	16	idtext0080	cln	#3##s##	spk1	215.78	215.93	0.01	_
20091112_RATP_SCD_0333	67	16	refera	NULL	v	NULL	B_GVf	ROOT	0	idtext0080	refaire	F#3##s##	spk1	215.94	216.33	0.01	_
20091112_RATP_SCD_0333	67	17	l'	NULL	det	NULL	B_GN	DET	18	idtext0080	le	###s##d	spk1	216.34	216.36	0.01	_
20091112_RATP_SCD_0333	67	18	itinéraire	NULL	nc	NULL	I_GN	OBJ	16	idtext0080	itinéraire	##m#s##	spk1	216.37	217.1	0.01	/
20091112_RATP_SCD_0333	67	19	hein	DISF_M	pres	NULL	NULL	NOLINK	0	idtext0080	hein	#####	spk1	217.11	217.67	0.01	_
20091112_RATP_SCD_0333	67	20	et	NULL	coo	NULL	B_NULL	COORD	16	idtext0080	et	#####	spk1	217.68	217.76	0.01	_
20091112_RATP_SCD_0333	67	21	on	NULL	cln	NULL	B_GN	SUJ	22	idtext0080	cln	#3##s##	spk1	217.77	217.88	0.01	_
20091112_RATP_SCD_0333	67	22	regardera	NULL	v	NULL	B_GVf	DEP_COORD	20	idtext0080	regarder	F#3##s##	spk1	217.89	218.53	0.01	_
20091112_RATP_SCD_0333	67	23	sur	NULL	prep	NULL	B_GP	P_OBJ	22	idtext0080	sur	#####	spk1	218.54	218.73	0.01	_
20091112_RATP_SCD_0333	67	24	son	NULL	det	NULL	I_GP	DET	25	idtext0080	son	###s##o	spk1	218.74	218.84	0.01	_
20091112_RATP_SCD_0333	67	25	trajet	NULL	nc	NULL	I_GP	OBJ	23	idtext0080	trajet	##m#s##	spk1	218.85	219.37	0.01	_
20091112_RATP_SCD_0333	67	26	ce+qu'	NULL	prorel	NULL	B_NULL	OBJ	29	idtext0080	ce+qu'	#####	spk1	219.38	219.76	0.01	_
20091112_RATP_SCD_0333	67	27	il	NULL	cln	NULL	B_GN	SUJ	29	idtext0080	cln	#3#m#s##	spk1	219.77	219.84	0.01	_
20091112_RATP_SCD_0333	67	28	a	NULL	v	NULL	B_GVf	AUX	29	idtext0080	avoir	P#3##s##	spk1	219.85	219.87	0.01	_
20091112_RATP_SCD_0333	67	29	emprunté	NULL	vppart	NULL	I_GVf	MOD_REL	25	idtext0080	emprunter	K##m#s##	spk1	219.88	220.41	0.01	_
20091112_RATP_SCD_0333	67	30	comme	NULL	adv	NULL	B_GADV	MOD	29	idtext0080	comme	#####	spk1	220.42	220.64	0.01	_
20091112_RATP_SCD_0333	67	31	transport	NULL	nc	NULL	B_GN	OBJ	30	idtext0080	transport	##m#s##	spk1	220.65	221.63	0.01	_
20091112_RATP_SCD_0333	67	32	à+peu+près	NULL	adv	NULL	B_GADV	MOD	22	idtext0081	à+peu+près	#####	spk1	221.64	223.5	?	_

20091112_RATP_SCD_0333	68	1	d'accord	NULL	adv	NULL	B_GADV	NOLINK	0	idtext0082	d'accord	#####	spk2	223.55	223.73	0.01	_
20091112_RATP_SCD_0333	68	2	bon+bah	DISF_M	pres	NULL	NULL	NOLINK	0	idtext0082	bon+bah	#####	spk2	223.74	223.94	?	//

20091112_RATP_SCD_0333	69	1	ce	NULL	cln	NULL	B_GN	SUJ_IMP	2	idtext0083	ce	#####	spk1	224.0	224.18	0.01	_
20091112_RATP_SCD_0333	69	2	serait	NULL	v	NULL	B_GVf	ROOT	0	idtext0083	être	C#3##s##	spk1	224.19	224.39	0.01	_
20091112_RATP_SCD_0333	69	3	le+mieux	NULL	adv	NULL	B_GADV	MOD	4	idtext0083	le+mieux	#####	spk1	224.4	224.71	0.01	_
20091112_RATP_SCD_0333	69	4	comme+ça	NULL	adv	NULL	I_GADV	ATS	2	idtext0083	comme+ça	#####	spk1	224.72	224.97	0.01	_
20091112_RATP_SCD_0333	69	5	on	NULL	cln	NULL	B_GN	SUJ_IMP	6	idtext0083	cln	#3##s##	spk1	224.98	225.0	0.01	_
20091112_RATP_SCD_0333	69	6	regardera	NULL	v	NULL	B_GVf	ROOT	0	idtext0083	regarder	F#3##s##	spk1	225.01	225.6	0.01	_
20091112_RATP_SCD_0333	69	7	à+nouveau	NULL	adv	NULL	B_GADV	MOD	6	idtext0083	à+nouveau	#####	spk1	225.61	225.97	0.01	_
20091112_RATP_SCD_0333	69	8	quoi	DISF_M	pres	NULL	NULL	NOLINK	0	idtext0083	quoi	#####	spk1	225.98	226.23	?	_

20091112_RATP_SCD_0333	70	1	hm+hm	DISF_M	pres	NULL	NULL	NOLINK	0	idtext0084	hm+hm	#####	spk2	226.42	227.24	0.01	_
20091112_RATP_SCD_0333	70	2	sinon	NULL	coo	NULL	B_NULL	ROOT	0	idtext0084	sinon	#####	spk2	227.25	227.56	0.01	_
20091112_RATP_SCD_0333	70	3	c'	NULL	cln	NULL	B_GN	SUJ_IMP	4	idtext0084	ce	###s##	spk2	227.57	227.61	0.01	_
20091112_RATP_SCD_0333	70	4	est	NULL	v	NULL	B_GVf	DEP_COORD	2	idtext0084	être	P#3##s##	spk2	227.62	227.64	0.01	_
20091112_RATP_SCD_0333	70	5	ouais	NULL	adv	NULL	B_GADV	ATS	4	idtext0084	ouais	#####	spk2	227.65	228.13	?	//

20091112_RATP_SCD_0333	71	1	là	NULL	adv	NULL	B_GADV	NOLINK	0	idtext0085	là	#####	spk1	228.21	228.29	0.01	_
20091112_RATP_SCD_0333	71	2	c'	NULL	cln	NULL	B_GN	SUJ_IMP	3	idtext0085	ce	###s##	spk1	228.3	228.69	0.01	_
20091112_RATP_SCD_0333	71	3	est	NULL	v	NULL	B_GVf	ROOT	0	idtext0085	être	P#3##s##	spk1	228.7	228.9	0.01	_
20091112_RATP_SCD_0333	71	4	trop	NULL	adv	NULL	B_GADJ	MOD	5	idtext0085	trop	#####	spk1	228.91	229.09	0.01	_
20091112_RATP_SCD_0333	71	5	vaste	NULL	adj	NULL	I_GADJ	ATS	3	idtext0085	vaste	###s##	spk1	229.1	229.37	0.01	_
20091112_RATP_SCD_0333	71	6	hein	DISF_M	pres	NULL	NULL	NOLINK	0	idtext0085	hein	#####	spk1	229.38	229.41	0.01	_
20091112_RATP_SCD_0333	71	7	je	NULL	cln	NULL	B_GN	SUJ	10	idtext0085	cln	#1##s##	spk1	229.42	229.5	0.01	_
20091112_RATP_SCD_0333	71	8	suis	NULL	v	NULL	B_GVf	AUX	10	idtext0085	être	P#1##s##	spk1	229.51	229.6	0.01	_
20091112_RATP_SCD_0333	71	9	vraiment	NULL	adv	NULL	I_GVf	MOD	10	idtext0085	vraiment	#####	spk1	229.61	229.82	0.01	_
20091112_RATP_SCD_0333	71	10	désolée	NULL	vppart	NULL	I_GVf	ROOT	0	idtext0085	désoler	K##f#s##	spk1	229.83	230.48	?	//

20091112_RATP_SCD_0333	72	1	ah+bah	DISF_M	pres	NULL	NULL	NOLINK	0	idtext0086	ah+bah	#####	spk2	230.53	230.72	0.01	_
20091112_RATP_SCD_0333	72	2	non	NULL	adv	NULL	B_GADV	NOLINK	0	idtext0086	non	#####	spk2	230.73	230.96	0.01	_
20091112_RATP_SCD_0333	72	3	on	NULL	cln	NULL	B_GN	SUJ_IMP	4	idtext0086	cln	#3##s##	spk2	230.97	231.08	0.01	_
20091112_RATP_SCD_0333	72	4	va	NULL	v	NULL	B_GVf	ROOT	0	idtext0086	aller	P#3##s##	spk2	231.09	231.29	0.01	_
20091112_RATP_SCD_0333	72	5	essayer	NULL	vinf	NULL	I_GVf	OBJ	4	idtext0086	essayer	W#####	spk2	231.3	231.45	0.01	_
20091112_RATP_SCD_0333	72	6	de	NULL	prep	NULL	B_GP	OBJ	4	idtext0086	de	#####	spk2	231.46	231.69	0.01	_
20091112_RATP_SCD_0333	72	7	chercher	NULL	vinf	NULL	I_GP	OBJ	6	idtext0086	chercher	W#####	spk2	231.7	232.05	0.01	_
20091112_RATP_SCD_0333	72	8	autrement	NULL	adv	NULL	B_GADV	MOD	7	idtext0086	autrement	#####	spk2	232.06	232.34	0.01	_
20091112_RATP_SCD_0333	72	9	hein	DISF_M	pres	NULL	NULL	NOLINK	0	idtext0086	hein	#####	spk2	232.35	232.9	0.01	_
20091112_RATP_SCD_0333	72	10	donc	NULL	coo	NULL	B_NULL	COORD	4	idtext0086	donc	#####	spk2	232.91	233.06	0.01	_
20091112_RATP_SCD_0333	72	11	j'	NULL	cln	NULL	B_GN	SUJ	12	idtext0086	cln	#1##s##	spk2	233.07	233.09	0.01	_
20091112_RATP_SCD_0333	72	12	essaye	NULL	v	NULL	B_GVf	DEP_COORD	10	idtext0086	essayer	PS#13##s##	spk2	233.1	233.41	0.01	_
20091112_RATP_SCD_0333	72	13	d'	NULL	prep	NULL	B_GP	OBJ	12	idtext0086	d'	#####	spk2	233.42	233.62	0.01	_
20091112_RATP_SCD_0333	72	14	avoir	NULL	vinf	NULL	I_GP	OBJ	13	idtext0086	avoir	W#####	spk2	233.63	233.83	0.01	_
20091112_RATP_SCD_0333	72	15	plus+de	NULL	det	NULL	B_GN	DET	16	idtext0086	plus+de	#####	spk2	233.84	234.07	0.01	_
20091112_RATP_SCD_0333	72	16	renseignements	NULL	nc	NULL	I_GN	OBJ	14	idtext0086	renseignement	##m#p##	spk2	234.08	234.73	0.01	_
20091112_RATP_SCD_0333	72	17	et+puis	NULL	coo	NULL	B_NULL	COORD	14	idtext0086	et+puis	#####	spk2	234.74	234.99	0.01	_
20091112_RATP_SCD_0333	72	18	je	DISF_R	cln	NULL	NULL	NOLINK	0	idtext0086	cln	#1##s##	spk2	235.0	235.04	0.01	_
20091112_RATP_SCD_0333	72	19	vous	DISF_R	clo	NULL	NULL	NOLINK	0	idtext0086	cln	#2##p##	spk2	235.05	235.14	0.01	_
20091112_RATP_SCD_0333	72	20	je	NULL	cln	NULL	B_GN	SUJ	22	idtext0086	cln	#1##s##	spk2	235.15	235.65	0.01	_
20091112_RATP_SCD_0333	72	21	vous	NULL	clo	NULL	B_GN	OBJ	22	idtext0086	cln	#2##p##	spk2	235.66	235.83	0.01	_
20091112_RATP_SCD_0333	72	22	rappelle	NULL	v	NULL	B_GVf	DEP_COORD	17	idtext0086	rappeler	PS#13##s##	spk2	235.84	236.66	0.08	_
20091112_RATP_SCD_0333	72	23	je	NULL	cln	NULL	B_GN	SUJ	26	idtext0087	cln	#1##s##	spk2	236.74	236.76	0.01	_
20091112_RATP_SCD_0333	72	24	ne	NULL	clneg	NULL	B_NULL	NOLINK	0	idtext0087	ne	#####	spk2	236.77	236.79	0.01	_
20091112_RATP_SCD_0333	72	25	vous	NULL	clo	NULL	B_GN	A_OBJ	26	idtext0087	cln	#2##p##	spk2	236.8	236.88	0.01	_
20091112_RATP_SCD_0333	72	26	demande	NULL	v	NULL	B_GVfn	ROOT	0	idtext0087	demander	PS#13##s##	spk2	236.89	237.15	0.01	_
20091112_RATP_SCD_0333	72	27	pas	NULL	advneg	NULL	I_GVfn	MOD	26	idtext0087	pas	#####	spk2	237.16	237.34	0.01	_
20091112_RATP_SCD_0333	72	28	vous	NULL	pro	NULL	B_GN	NOLINK	0	idtext0087	vous	#####	spk2	237.35	237.51	0.01	_
20091112_RATP_SCD_0333	72	29	peut-être	NULL	adv	NULL	B_GADV	MOD	26	idtext0087	peut-être	#####	spk2	237.52	237.79	0.01	_
20091112_RATP_SCD_0333	72	30	un	NULL	det	NULL	B_GN	DET	31	idtext0087	un	##m#s##i	spk2	237.8	237.94	0.01	_
20091112_RATP_SCD_0333	72	31	autre	NULL	adj	NULL	I_GN	OBJ	26	idtext0087	autre	###s##	spk2	237.95	238.17	0.01	_
20091112_RATP_SCD_0333	72	32	ou	NULL	coo	NULL	B_NULL	NOLINK	0	idtext0087	ou	#####	spk2	238.18	238.65	?	_

20091112_RATP_SCD_0333	73	1	vous	NULL	cln	NULL	B_GN	SUJ	2	idtext0088	cln	#2##p##	spk1	238.69	238.74	0.01	_
20091112_RATP_SCD_0333	73	2	refaites	NULL	v	NULL	B_GVf	ROOT	0	idtext0088	refaire	K##f#p##	spk1	238.75	239.01	0.01	_
20091112_RATP_SCD_0333	73	3	le	NULL	det	NULL	B_GN	DET	4	idtext0088	le	##m#s##d	spk1	239.02	239.04	0.01	_
20091112_RATP_SCD_0333	73	4	trente-deux+quarante-six	NULL	nc	B_TEL	I_GN	OBJ	2	idtext0088	trente-deux+quarante-six	#####	spk1	239.05	239.91	0.01	_
20091112_RATP_SCD_0333	73	5	et	NULL	coo	NULL	B_NULL	COORD	2	idtext0088	et	#####	spk1	239.92	240.02	0.01	_
20091112_RATP_SCD_0333	73	6	on	NULL	cln	NULL	B_GN	SUJ_IMP	7	idtext0088	cln	#3##s##	spk1	240.03	240.18	0.01	_
20091112_RATP_SCD_0333	73	7	revérifiera	NULL	v	NULL	B_GVf	DEP_COORD	5	idtext0088	revérifier	F#3##s##	spk1	240.19	241.34	?	//

20091112_RATP_SCD_0333	74	1	d'accord	NULL	adv	NULL	B_GADV	MOD	2	idtext0089	d'accord	#####	spk2	241.38	242.14	0.01	_
20091112_RATP_SCD_0333	74	2	merci	NULL	adv	NULL	I_GADV	MOD	3	idtext0089	merci	#####	spk2	242.15	242.47	0.01	_
20091112_RATP_SCD_0333	74	3	beaucoup	NULL	adv	NULL	I_GADV	ROOT	0	idtext0089	beaucoup	#####	spk2	242.48	242.7	?	//

20091112_RATP_SCD_0333	75	1	je	NULL	cln	NULL	B_GN	SUJ	3	idtext0090	cln	#1##s##	spk1	242.75	242.77	0.01	_
20091112_RATP_SCD_0333	75	2	vous	NULL	clo	NULL	B_GN	OBJ	3	idtext0090	cln	#2##p##	spk1	242.78	242.89	0.01	_
20091112_RATP_SCD_0333	75	3	remercie	NULL	v	NULL	B_GVf	ROOT	0	idtext0090	remercier	PS#13##s##	spk1	242.9	243.24	0.01	_
20091112_RATP_SCD_0333	75	4	bonne	NULL	adj	NULL	B_GN	MOD	5	idtext0090	bon	##f#s##	spk1	243.25	243.37	0.01	_
20091112_RATP_SCD_0333	75	5	journée	NULL	nc	NULL	I_GN	ROOT	0	idtext0090	journée	##f#s##	spk1	243.38	243.93	?	//

20091112_RATP_SCD_0333	76	1	au+revoir	NULL	adv	NULL	B_GADV	NOLINK	0	idtext0091	au+revoir	#####	spk1	243.97	245.53	?	//

20091112_RATP_SCD_0333	77	1	au+revoir	NULL	adv	NULL	B_GADV	NOLINK	0	idtext0092	au+revoir	#####	spk2	243.97	245.53	?	//

