20091112_RATP_SCD_0690	1	1	NNAAMMEE	NULL	np	B_HU	B_GN	ROOT	0	idtext0000	ANONYM	NULL	spk1	3.17	3.36	0.04	_
20091112_RATP_SCD_0690	1	2	bonjour	NULL	adv	NULL	B_GADV	NOLINK	0	idtext0001	bonjour	#####	spk1	3.4	4.38	?	//

20091112_RATP_SCD_0690	2	1	bonjour	NULL	adv	NULL	B_GADV	NOLINK	0	idtext0002	bonjour	#####	spk2	4.42	5.25	?	//

20091112_RATP_SCD_0690	3	1	je	NULL	cln	NULL	B_GN	SUJ	2	idtext0003	cln	#1##s##	spk2	5.29	5.56	0.01	_
20091112_RATP_SCD_0690	3	2	voudrais	NULL	v	NULL	B_GVf	ROOT	0	idtext0003	vouloir	C#12##s##	spk2	5.57	5.86	0.01	_
20091112_RATP_SCD_0690	3	3	un	NULL	det	NULL	B_GN	DET	4	idtext0003	un	##m#s##i	spk2	5.87	6.02	0.01	_
20091112_RATP_SCD_0690	3	4	renseignement	NULL	nc	NULL	I_GN	OBJ	2	idtext0003	renseignement	##m#s##	spk2	6.03	6.79	0.01	_
20091112_RATP_SCD_0690	3	5	s'il+vous+plaît	NULL	adv	NULL	B_GADV	NOLINK	0	idtext0003	s'il+vous+plaît	#####	spk2	6.8	7.38	?	//

20091112_RATP_SCD_0690	4	1	oui	NULL	adv	NULL	B_GADV	NOLINK	0	idtext0004	oui	#####	spk1	7.46	7.86	?	//

20091112_RATP_SCD_0690	5	1	euh	DISF_M	pres	NULL	NULL	NOLINK	0	idtext0005	euh	#####	spk2	7.99	8.35	0.01	_
20091112_RATP_SCD_0690	5	2	pour	NULL	prep	NULL	B_GP	ROOT	0	idtext0005	pour	#####	spk2	8.36	8.57	0.01	_
20091112_RATP_SCD_0690	5	3	aller	NULL	vinf	NULL	I_GP	OBJ	2	idtext0005	aller	W#####	spk2	8.58	8.92	0.01	_
20091112_RATP_SCD_0690	5	4	à	NULL	prep	NULL	B_GP	P_OBJ_LOC	3	idtext0005	à	#####	spk2	8.93	9.06	0.01	_
20091112_RATP_SCD_0690	5	5	Nogent	NULL	nc	B_A	I_GP	OBJ	4	idtext0005	Nogent	##m#s##	spk2	9.07	9.48	0.01	_
20091112_RATP_SCD_0690	5	6	Préfecture	NULL	nc	B_A	B_GN	ROOT	0	idtext0005	Préfecture	#####	spk2	9.49	10.63	0.01	_
20091112_RATP_SCD_0690	5	7	Préfecture	NULL	nc	B_A	I_GN	MOD	6	idtext0005	Préfecture	#####	spk2	10.64	11.59	?	//

20091112_RATP_SCD_0690	6	1	quel	NULL	det	NULL	B_NULL	NOLINK	0	idtext0006	quel	##m#s##	spk2	11.64	11.86	0.01	_
20091112_RATP_SCD_0690	6	2	euh	DISF_M	pres	NULL	NULL	NOLINK	0	idtext0006	euh	#####	spk2	11.87	12.31	?	//

20091112_RATP_SCD_0690	7	1	à	NULL	prep	NULL	B_GP	ROOT	0	idtext0007	à	#####	spk1	11.72	11.78	0.01	_
20091112_RATP_SCD_0690	7	2	Nogent	NULL	nc	B_A	I_GP	OBJ	1	idtext0007	Nogent	##m#s##	spk1	11.79	12.31	?	//

20091112_RATP_SCD_0690	8	1	Préfecture	NULL	nc	B_A	B_GN	NOLINK	0	idtext0008	Préfecture	#####	spk1	12.35	13.27	?	//

20091112_RATP_SCD_0690	9	1	ouais	NULL	adv	NULL	B_GADV	NOLINK	0	idtext0009	ouais	#####	spk2	13.39	13.95	0.01	_
20091112_RATP_SCD_0690	9	2	quel	NULL	det	NULL	B_NULL	NOLINK	0	idtext0009	quel	##m#s##	spk2	13.96	14.32	0.01	_
20091112_RATP_SCD_0690	9	3	je	NULL	cln	NULL	B_GN	SUJ	4	idtext0009	cln	#1##s##	spk2	14.33	14.43	0.01	_
20091112_RATP_SCD_0690	9	4	suis	NULL	v	NULL	B_GVf	ROOT	0	idtext0009	être	P#1##s##	spk2	14.44	14.61	0.01	_
20091112_RATP_SCD_0690	9	5	à	NULL	prep	NULL	B_GP	P_OBJ_LOC	4	idtext0009	à	#####	spk2	14.62	14.75	0.01	_
20091112_RATP_SCD_0690	9	6	Champigny-Bois-l'Abbé	NULL	nc	B_A	I_GP	OBJ	5	idtext0009	Champigny-Bois-l'Abbé	#####	spk2	14.76	16.25	0.01	_
20091112_RATP_SCD_0690	9	7	quel	DISF_R	det	I_A	NULL	NOLINK	0	idtext0009	quel	##m#s##	spk2	16.26	16.58	0.01	//
20091112_RATP_SCD_0690	9	8	euh	DISF_M	pres	I_A	NULL	NOLINK	0	idtext0009	euh	#####	spk2	16.59	17.23	0.01	_
20091112_RATP_SCD_0690	9	9	quel	NULL	det	NULL	B_GN	DET	11	idtext0009	quel	##m#s##	spk2	17.24	17.46	0.01	_
20091112_RATP_SCD_0690	9	10	euh	DISF_M	pres	NULL	NULL	NOLINK	0	idtext0009	euh	#####	spk2	17.47	17.49	0.01	_
20091112_RATP_SCD_0690	9	11	RER	NULL	nc	B_T	I_GN	OBJ	4	idtext0009	RER	#####	spk2	17.5	18.64	0.01	_
20091112_RATP_SCD_0690	9	12	je	NULL	cln	NULL	B_GN	SUJ	13	idtext0009	cln	#1##s##	spk2	18.65	18.76	0.01	_
20091112_RATP_SCD_0690	9	13	dois	NULL	v	NULL	B_GVf	ROOT	0	idtext0009	devoir	P#12##s##	spk2	18.77	18.98	0.01	_
20091112_RATP_SCD_0690	9	14	prendre	NULL	vinf	NULL	I_GVf	OBJ	13	idtext0009	prendre	W#####	spk2	18.99	19.6	?	//

20091112_RATP_SCD_0690	10	1	je	NULL	cln	NULL	B_GN	NOLINK	0	idtext0010	cln	#1##s##	spk2	19.86	20.05	?	_

20091112_RATP_SCD_0690	11	1	et	NULL	coo	NULL	B_NULL	ROOT	0	idtext0011	et	#####	spk1	19.66	19.75	0.01	_
20091112_RATP_SCD_0690	11	2	vous	NULL	cln	NULL	B_GN	SUJ	3	idtext0011	cln	#2##p##	spk1	19.76	19.86	0.01	_
20091112_RATP_SCD_0690	11	3	voulez	NULL	v	NULL	B_GVf	DEP_COORD	1	idtext0011	vouloir	P#2##p##	spk1	19.87	20.05	?	//

20091112_RATP_SCD_0690	12	1	allez	NULL	v	NULL	B_GVf	ROOT	0	idtext0012	aller	P#2##p##	spk1	20.09	20.23	0.01	_
20091112_RATP_SCD_0690	12	2	où	NULL	adv	NULL	B_GADV	MOD	1	idtext0012	où	#####	spk1	20.24	20.33	0.01	_
20091112_RATP_SCD_0690	12	3	à	NULL	prep	NULL	B_GP	ROOT	0	idtext0012	à	#####	spk1	20.34	20.47	0.01	_
20091112_RATP_SCD_0690	12	4	Nanterre-Préfecture	NULL	nc	B_A	I_GP	OBJ	3	idtext0012	Nanterre-Préfecture	#####	spk1	20.48	21.36	0.01	_
20091112_RATP_SCD_0690	12	5	ou	NULL	coo	NULL	B_NULL	COORD	4	idtext0012	ou	#####	spk1	21.37	21.56	0.01	_
20091112_RATP_SCD_0690	12	6	à	NULL	prep	NULL	B_GP	DEP_COORD	5	idtext0012	à	#####	spk1	21.57	21.69	0.01	_
20091112_RATP_SCD_0690	12	7	Nogent-sur-Marne	NULL	nc	B_A	I_GP	OBJ	6	idtext0012	Nogent-sur-Marne	##m#s##	spk1	21.7	22.81	0.01	/
20091112_RATP_SCD_0690	12	8	ou	NULL	coo	NULL	B_NULL	NOLINK	0	idtext0012	ou	#####	spk1	22.82	22.91	0.01	_
20091112_RATP_SCD_0690	12	9	à	NULL	prep	NULL	B_NULL	NOLINK	0	idtext0012	à	#####	spk1	22.92	23.44	?	_

20091112_RATP_SCD_0690	13	1	Nogent-sur-Marne	NULL	nc	B_A	B_GN	NOLINK	0	idtext0013	Nogent-sur-Marne	##m#s##	spk2	23.49	24.91	0.01	/
20091112_RATP_SCD_0690	13	2	Nogent	NULL	nc	B_A	B_GN	ROOT	0	idtext0013	Nogent	##m#s##	spk2	24.92	25.49	0.01	_
20091112_RATP_SCD_0690	13	3	Préfecture	NULL	nc	B_A	I_GN	MOD	2	idtext0013	Préfecture	#####	spk2	25.5	26.57	?	//

20091112_RATP_SCD_0690	14	1	à	NULL	prep	NULL	B_GP	ROOT	0	idtext0014	à	#####	spk1	26.73	26.78	0.01	_
20091112_RATP_SCD_0690	14	2	la	NULL	det	NULL	I_GP	DET	3	idtext0014	le	##m#s##d	spk1	26.79	26.89	0.01	_
20091112_RATP_SCD_0690	14	3	préfecture	NULL	nc	NULL	I_GP	OBJ	1	idtext0014	préfecture	##f#s##	spk1	26.9	27.49	0.01	_
20091112_RATP_SCD_0690	14	4	de	NULL	prep	NULL	B_GP	ROOT	0	idtext0014	de	#####	spk1	27.5	27.62	0.01	_
20091112_RATP_SCD_0690	14	5	Nogent	NULL	nc	B_A	I_GP	OBJ	4	idtext0014	Nogent	##m#s##	spk1	27.63	28.13	?	//

20091112_RATP_SCD_0690	15	1	voilà	DISF_M	pres	NULL	NULL	NOLINK	0	idtext0015	voilà	#####	spk2	28.25	28.66	0.01	_
20091112_RATP_SCD_0690	15	2	c'	NULL	cln	NULL	B_GN	SUJ_IMP	3	idtext0015	ce	###s##	spk2	28.67	28.69	0.01	_
20091112_RATP_SCD_0690	15	3	est	NULL	v	NULL	B_GVf	ROOT	0	idtext0015	être	P#3##s##	spk2	28.7	28.78	0.01	_
20091112_RATP_SCD_0690	15	4	ça	NULL	pro	NULL	B_GN	ATS	3	idtext0015	ça	#####	spk2	28.79	29.0	?	_

20091112_RATP_SCD_0690	16	1	c'	NULL	cln	NULL	B_GN	NOLINK	0	idtext0016	ce	###s##	spk1	29.12	29.33	?	_

20091112_RATP_SCD_0690	17	1	vous	NULL	cln	NULL	B_GN	SUJ	2	idtext0017	cln	#2##p##	spk1	30.27	30.35	0.01	_
20091112_RATP_SCD_0690	17	2	avez	NULL	v	NULL	B_GVf	ROOT	0	idtext0017	avoir	P#2##p##	spk1	30.36	30.62	0.01	_
20091112_RATP_SCD_0690	17	3	une	NULL	det	NULL	B_GN	DET	4	idtext0017	un	##f#s##i	spk1	30.63	30.74	0.01	_
20091112_RATP_SCD_0690	17	4	adresse	NULL	nc	NULL	I_GN	OBJ	2	idtext0017	adresse	##f#s##	spk1	30.75	31.06	0.01	_
20091112_RATP_SCD_0690	17	5	s'il+vous+plaît	NULL	adv	NULL	B_GADV	MOD	4	idtext0017	s'il+vous+plaît	#####	spk1	31.07	31.53	?	//

20091112_RATP_SCD_0690	18	1	non	NULL	adv	NULL	B_GADV	NOLINK	0	idtext0018	non	#####	spk2	32.48	32.63	0.01	_
20091112_RATP_SCD_0690	18	2	j'	NULL	cln	NULL	B_GN	SUJ	3	idtext0018	cln	#1##s##	spk2	32.64	32.73	0.01	_
20091112_RATP_SCD_0690	18	3	ai	NULL	v	NULL	B_GVfn	ROOT	0	idtext0018	avoir	P#1##s##	spk2	32.74	32.88	0.01	_
20091112_RATP_SCD_0690	18	4	pas	NULL	advneg	NULL	I_GVfn	MOD	3	idtext0018	pas	#####	spk2	32.89	33.32	0.01	_
20091112_RATP_SCD_0690	18	5	euh	DISF_M	pres	NULL	NULL	NOLINK	0	idtext0018	euh	#####	spk2	33.33	33.35	0.01	_
20091112_RATP_SCD_0690	18	6	préfecture	NULL	nc	NULL	B_GN	OBJ	3	idtext0019	préfecture	##f#s##	spk2	33.36	35.25	0.01	_
20091112_RATP_SCD_0690	18	7	de	NULL	prep	NULL	B_GP	DEP	6	idtext0019	de	#####	spk2	35.26	35.43	0.01	_
20091112_RATP_SCD_0690	18	8	Nogent	NULL	nc	B_A	I_GP	OBJ	7	idtext0019	Nogent	##m#s##	spk2	35.44	36.05	0.01	//
20091112_RATP_SCD_0690	18	9	euh	DISF_M	pres	I_A	NULL	NOLINK	0	idtext0019	euh	#####	spk2	36.06	36.26	0.01	_
20091112_RATP_SCD_0690	18	10	là	NULL	adv	NULL	B_GADV	MOD	3	idtext0019	là	#####	spk2	36.27	36.51	0.01	_
20091112_RATP_SCD_0690	18	11	où	NULL	prorel	NULL	B_NULL	P_OBJ_LOC	13	idtext0019	où	#####	spk2	36.52	36.69	0.01	_
20091112_RATP_SCD_0690	18	12	on	NULL	cln	NULL	B_GN	SUJ_IMP	13	idtext0019	cln	#3##s##	spk2	36.7	36.8	0.01	_
20091112_RATP_SCD_0690	18	13	retire	NULL	v	NULL	B_GVf	MOD_REL	10	idtext0019	retirer	PS#13##s##	spk2	36.81	37.22	0.01	_
20091112_RATP_SCD_0690	18	14	la	NULL	det	NULL	B_GN	DET	15	idtext0019	le	##m#s##d	spk2	37.23	37.34	0.01	_
20091112_RATP_SCD_0690	18	15	carte	NULL	nc	NULL	I_GN	OBJ	13	idtext0019	carte	##f#s##	spk2	37.35	37.61	0.01	_
20091112_RATP_SCD_0690	18	16	de	NULL	prep	NULL	B_GP	DEP	15	idtext0019	de	#####	spk2	37.62	37.71	0.01	_
20091112_RATP_SCD_0690	18	17	séjour	NULL	nc	NULL	I_GP	OBJ	16	idtext0019	séjour	##m#s##	spk2	37.72	38.33	0.01	//
20091112_RATP_SCD_0690	18	18	euh	DISF_M	pres	NULL	NULL	NOLINK	0	idtext0019	euh	#####	spk2	38.34	38.61	0.01	_
20091112_RATP_SCD_0690	18	19	et	NULL	coo	NULL	B_NULL	COORD	13	idtext0020	et	#####	spk2	38.62	39.32	0.01	_
20091112_RATP_SCD_0690	18	20	de	NULL	prep	NULL	B_GP	DEP_COORD	19	idtext0020	de	#####	spk2	39.33	39.43	0.01	_
20091112_RATP_SCD_0690	18	21	nationalité	NULL	nc	NULL	I_GP	OBJ	20	idtext0020	nationalité	##f#s##	spk2	39.44	40.21	0.01	_
20091112_RATP_SCD_0690	18	22	et	NULL	coo	NULL	B_NULL	COORD	21	idtext0020	et	#####	spk2	40.22	40.43	0.01	_
20091112_RATP_SCD_0690	18	23	tout	NULL	adv	NULL	B_GADV	MOD	24	idtext0020	tout	##m#s##	spk2	40.44	40.72	0.01	_
20091112_RATP_SCD_0690	18	24	là	NULL	adv	NULL	I_GADV	DEP_COORD	22	idtext0020	là	#####	spk2	40.73	40.8	?	_

20091112_RATP_SCD_0690	19	1	alors	NULL	adv	NULL	B_GADV	NOLINK	0	idtext0021	alors	#####	spk1	40.84	41.07	0.01	_
20091112_RATP_SCD_0690	19	2	vous	NULL	cln	NULL	B_GN	SUJ	3	idtext0021	cln	#2##p##	spk1	41.08	41.13	0.01	_
20091112_RATP_SCD_0690	19	3	allez	NULL	v	NULL	B_GVf	ROOT	0	idtext0021	aller	P#2##p##	spk1	41.14	41.26	0.01	_
20091112_RATP_SCD_0690	19	4	partir	NULL	vinf	NULL	I_GVf	OBJ	3	idtext0021	partir	W#####	spk1	41.27	41.6	0.01	_
20091112_RATP_SCD_0690	19	5	de	NULL	prep	NULL	B_GP	P_OBJ_LOC	3	idtext0021	de	#####	spk1	41.61	41.69	0.01	_
20091112_RATP_SCD_0690	19	6	quelle	NULL	det	NULL	I_GP	DET	7	idtext0021	quel	##f#s##	spk1	41.7	41.98	0.01	_
20091112_RATP_SCD_0690	19	7	gare	NULL	nc	NULL	I_GP	OBJ	5	idtext0021	gare	##f#s##	spk1	41.99	42.15	0.01	_
20091112_RATP_SCD_0690	19	8	monsieur	NULL	nc	NULL	I_GP	MOD	7	idtext0021	Monsieur	##m#s##	spk1	42.16	42.57	0.01	_
20091112_RATP_SCD_0690	19	9	la	NULL	det	NULL	B_GN	DET	10	idtext0021	le	##m#s##d	spk1	42.58	42.69	0.01	_
20091112_RATP_SCD_0690	19	10	gare	NULL	nc	B_A	I_GN	MOD	7	idtext0021	gare	##f#s##	spk1	42.7	42.85	0.01	_
20091112_RATP_SCD_0690	19	11	de	NULL	prep	I_A	I_GN	DEP	10	idtext0021	de	#####	spk1	42.86	42.94	0.01	_
20091112_RATP_SCD_0690	19	12	Champigny	DISF_R	np	I_A	NULL	NOLINK	0	idtext0021	Champigny	##m#s##	spk1	42.95	43.63	0.01	_
20091112_RATP_SCD_0690	19	13	euh	DISF_M	pres	I_A	NULL	NOLINK	0	idtext0021	euh	#####	spk1	43.64	43.79	0.01	_
20091112_RATP_SCD_0690	19	14	Champigny-Les+Boullereaux	NULL	np	I_A	I_GN	OBJ	11	idtext0021	Champigny-Les+Boullereaux	#####	spk1	43.8	44.8	0.01	_
20091112_RATP_SCD_0690	19	15	ou	NULL	coo	NULL	B_NULL	COORD	10	idtext0021	ou	#####	spk1	44.81	44.9	0.01	_
20091112_RATP_SCD_0690	19	16	Champigny-sur-Marne	NULL	nc	B_A	B_GN	DEP_COORD	15	idtext0021	Champigny-sur-Marne	##m#s##	spk1	44.91	46.24	?	_

20091112_RATP_SCD_0690	20	1	euh	DISF_M	pres	NULL	NULL	NOLINK	0	idtext0022	euh	#####	spk2	47.26	47.49	0.01	_
20091112_RATP_SCD_0690	20	2	ça	NULL	pro	NULL	B_GN	OBJ	10	idtext0022	ça	#####	spk2	47.5	47.58	0.01	_
20091112_RATP_SCD_0690	20	3	c'	DISF_R	cln	NULL	NULL	NOLINK	0	idtext0022	ce	###s##	spk2	47.59	47.61	0.01	_
20091112_RATP_SCD_0690	20	4	est	DISF_R	v	NULL	NULL	NOLINK	0	idtext0022	être	P#3##s##	spk2	47.62	48.23	0.01	_
20091112_RATP_SCD_0690	20	5	c'	DISF_R	cln	NULL	NULL	NOLINK	0	idtext0022	ce	###s##	spk2	48.24	48.27	0.01	_
20091112_RATP_SCD_0690	20	6	est	DISF_R	v	NULL	NULL	NOLINK	0	idtext0022	être	P#3##s##	spk2	48.28	48.92	0.01	_
20091112_RATP_SCD_0690	20	7	il	DISF_R	cln	NULL	NULL	NOLINK	0	idtext0022	cln	#3#m#s##	spk2	48.93	49.02	0.01	_
20091112_RATP_SCD_0690	20	8	faut	DISF_R	v	NULL	NULL	NOLINK	0	idtext0022	falloir	P#3##s##	spk2	49.03	49.23	0.01	/
20091112_RATP_SCD_0690	20	9	il	NULL	cln	NULL	B_GN	SUJ_IMP	10	idtext0022	cln	#3#m#s##	spk2	49.24	49.3	0.01	_
20091112_RATP_SCD_0690	20	10	faut	NULL	v	NULL	B_GVf	ROOT	0	idtext0022	falloir	P#3##s##	spk2	49.31	49.47	0.01	_
20091112_RATP_SCD_0690	20	11	que	NULL	csu	NULL	B_NULL	OBJ	10	idtext0022	que	#####	spk2	49.48	49.65	0.01	_
20091112_RATP_SCD_0690	20	12	moi	DISF_R	pro	NULL	NULL	NOLINK	0	idtext0022	moi	#####	spk2	49.66	49.91	0.01	_
20091112_RATP_SCD_0690	20	13	moi	NULL	pro	NULL	B_GN	SUJ	15	idtext0022	moi	#####	spk2	49.92	50.28	0.01	_
20091112_RATP_SCD_0690	20	14	je	NULL	cln	NULL	B_GN	SUJ	15	idtext0022	cln	#1##s##	spk2	50.29	50.39	0.01	_
20091112_RATP_SCD_0690	20	15	dois	NULL	v	NULL	B_GVf	OBJ	11	idtext0022	devoir	P#12##s##	spk2	50.4	50.57	0.01	_
20091112_RATP_SCD_0690	20	16	prendre	NULL	vinf	NULL	I_GVf	OBJ	15	idtext0022	prendre	W#####	spk2	50.58	51.39	0.01	_
20091112_RATP_SCD_0690	20	17	euh	DISF_M	pres	NULL	NULL	NOLINK	0	idtext0022	euh	#####	spk2	51.4	51.52	0.01	_
20091112_RATP_SCD_0690	20	18	à	NULL	prep	NULL	B_GP	P_OBJ_LOC	15	idtext0022	à	#####	spk2	51.53	51.71	0.01	_
20091112_RATP_SCD_0690	20	19	Champigny	NULL	nc	B_A	I_GP	OBJ	18	idtext0022	Champigny	##m#s##	spk2	51.72	52.36	?	//

20091112_RATP_SCD_0690	21	1	c'	NULL	cln	NULL	B_GN	SUJ_IMP	2	idtext0023	ce	###s##	spk1	53.11	53.13	0.01	_
20091112_RATP_SCD_0690	21	2	est	NULL	v	NULL	B_GVf	ROOT	0	idtext0023	être	P#3##s##	spk1	53.14	53.16	0.01	_
20091112_RATP_SCD_0690	21	3	la	NULL	det	NULL	B_GN	DET	4	idtext0023	le	##m#s##d	spk1	53.17	53.29	0.01	_
20091112_RATP_SCD_0690	21	4	gare	NULL	nc	B_A	I_GN	ATS	2	idtext0023	gare	##f#s##	spk1	53.3	53.49	0.01	_
20091112_RATP_SCD_0690	21	5	des	NULL	prep	I_A	I_GN	DEP	4	idtext0023	des	#####	spk1	53.5	53.62	0.01	_
20091112_RATP_SCD_0690	21	6	Champigny-Les+Boullereaux	NULL	np	I_A	I_GN	OBJ	5	idtext0023	Champigny-Les+Boullereaux	#####	spk1	53.63	54.55	?	//

20091112_RATP_SCD_0690	22	1	oui	NULL	adv	NULL	B_GADV	NOLINK	0	idtext0024	oui	#####	spk2	55.14	55.57	?	//

20091112_RATP_SCD_0690	23	1	Les+Boullereaux	NULL	nc	B_A	B_GN	NOLINK	0	idtext0025	Les+Boullereaux	#####	spk1	55.65	56.43	?	_

20091112_RATP_SCD_0690	24	1	oui	NULL	adv	NULL	B_GADV	NOLINK	0	idtext0026	oui	#####	spk2	56.7	57.15	?	//

20091112_RATP_SCD_0690	25	1	d'accord	NULL	adv	NULL	B_GADV	NOLINK	0	idtext0027	d'accord	#####	spk1	57.28	57.69	0.01	//
20091112_RATP_SCD_0690	25	2	et	NULL	coo	NULL	B_NULL	ROOT	0	idtext0027	et	#####	spk1	57.7	57.73	0.01	_
20091112_RATP_SCD_0690	25	3	vous	NULL	cln	NULL	B_GN	SUJ	4	idtext0027	cln	#2##p##	spk1	57.74	57.81	0.01	_
20091112_RATP_SCD_0690	25	4	voulez	NULL	v	NULL	B_GVf	DEP_COORD	2	idtext0027	vouloir	P#2##p##	spk1	57.82	58.0	0.01	_
20091112_RATP_SCD_0690	25	5	vous	NULL	clr	NULL	B_GVi	AFF	6	idtext0027	cln	#2##p##	spk1	58.01	58.1	0.01	_
20091112_RATP_SCD_0690	25	6	rendre	NULL	vinf	NULL	I_GVi	OBJ	4	idtext0027	rendre	W#####	spk1	58.11	58.26	0.01	_
20091112_RATP_SCD_0690	25	7	à	NULL	prep	NULL	B_GP	P_OBJ_LOC	6	idtext0027	à	#####	spk1	58.27	58.33	0.01	_
20091112_RATP_SCD_0690	25	8	la	NULL	det	NULL	I_GP	DET	9	idtext0027	le	##m#s##d	spk1	58.34	58.88	0.01	_
20091112_RATP_SCD_0690	25	9	préfecture	NULL	nc	NULL	I_GP	OBJ	7	idtext0027	préfecture	##f#s##	spk1	58.89	59.39	0.01	_
20091112_RATP_SCD_0690	25	10	de	NULL	prep	NULL	B_GP	DEP	9	idtext0027	de	#####	spk1	59.4	59.52	0.01	_
20091112_RATP_SCD_0690	25	11	Nogent-sur-Marne	NULL	nc	B_A	I_GP	OBJ	10	idtext0027	Nogent-sur-Marne	##m#s##	spk1	59.53	60.43	?	//

20091112_RATP_SCD_0690	26	1	c'	NULL	cln	NULL	B_GN	SUJ_IMP	2	idtext0028	ce	###s##	spk1	60.48	60.5	0.01	_
20091112_RATP_SCD_0690	26	2	est	NULL	v	NULL	B_GVf	ROOT	0	idtext0028	être	P#3##s##	spk1	60.51	60.54	0.01	_
20091112_RATP_SCD_0690	26	3	bien	NULL	adv	NULL	B_GADV	MOD	4	idtext0028	bien	#####	spk1	60.55	60.8	0.01	_
20091112_RATP_SCD_0690	26	4	ça	NULL	pro	NULL	B_GN	ATS	2	idtext0028	ça	#####	spk1	60.81	61.16	?	_

20091112_RATP_SCD_0690	27	1	oui	NULL	adv	NULL	B_GADV	NOLINK	0	idtext0029	oui	#####	spk2	60.68	61.16	?	//

20091112_RATP_SCD_0690	28	1	oui	NULL	adv	NULL	B_GADV	NOLINK	0	idtext0030	oui	#####	spk2	61.34	61.65	?	//

20091112_RATP_SCD_0690	29	1	d'accord	NULL	adv	NULL	B_GADV	NOLINK	0	idtext0031	d'accord	#####	spk1	61.69	61.97	0.01	_
20091112_RATP_SCD_0690	29	2	patientez	NULL	v	NULL	B_GVf	ROOT	0	idtext0031	patienter	P#2##p##	spk1	61.98	62.36	0.01	_
20091112_RATP_SCD_0690	29	3	monsieur	NULL	nc	NULL	B_GN	OBJ	2	idtext0031	Monsieur	##m#s##	spk1	62.37	62.64	0.01	_
20091112_RATP_SCD_0690	29	4	merci	NULL	adv	NULL	B_GADV	MOD	3	idtext0031	merci	#####	spk1	62.65	63.08	?	//

20091112_RATP_SCD_0690	30	1	madame	NULL	nc	NULL	B_GN	ROOT	0	idtext0032	Monsieur	##f#s##	spk1	136.01	136.33	0.01	/
20091112_RATP_SCD_0690	30	2	monsieur	NULL	nc	NULL	I_GN	MOD	1	idtext0032	Monsieur	##m#s##	spk1	136.34	136.48	0.01	_
20091112_RATP_SCD_0690	30	3	s'il+vous+plaît	NULL	adv	NULL	B_GADV	NOLINK	0	idtext0032	s'il+vous+plaît	#####	spk1	136.49	137.23	?	//

20091112_RATP_SCD_0690	31	1	oui	NULL	adv	NULL	B_GADV	NOLINK	0	idtext0033	oui	#####	spk2	137.42	137.78	?	//

20091112_RATP_SCD_0690	32	1	donc	NULL	coo	NULL	B_NULL	ROOT	0	idtext0034	donc	#####	spk1	137.82	138.16	0.01	_
20091112_RATP_SCD_0690	32	2	vous	NULL	cln	NULL	B_GN	SUJ	3	idtext0034	cln	#2##p##	spk1	138.17	138.24	0.01	_
20091112_RATP_SCD_0690	32	3	êtes	NULL	v	NULL	B_GVf	DEP_COORD	1	idtext0034	être	P#2##p##	spk1	138.25	138.48	0.01	_
20091112_RATP_SCD_0690	32	4	donc	NULL	coo	NULL	B_NULL	COORD	3	idtext0034	donc	#####	spk1	138.49	138.78	0.01	_
20091112_RATP_SCD_0690	32	5	de	NULL	prep	NULL	B_GP	MOD	8	idtext0034	de	#####	spk1	138.79	138.87	0.01	_
20091112_RATP_SCD_0690	32	6	Champigny-Les+Boullereaux	NULL	nc	B_A	I_GP	OBJ	5	idtext0034	Champigny-Les+Boullereaux	#####	spk1	138.88	139.77	0.01	_
20091112_RATP_SCD_0690	32	7	on	NULL	cln	NULL	B_GN	SUJ	8	idtext0034	cln	#3##s##	spk1	139.78	139.91	0.01	_
20091112_RATP_SCD_0690	32	8	est	NULL	v	NULL	B_GVf	DEP_COORD	4	idtext0034	être	P#3##s##	spk1	139.92	140.03	0.01	_
20091112_RATP_SCD_0690	32	9	bien	NULL	adv	NULL	B_GADV	MOD	10	idtext0034	bien	#####	spk1	140.04	140.16	0.01	_
20091112_RATP_SCD_0690	32	10	d'accord	NULL	adv	NULL	I_GADV	ATS	8	idtext0034	d'accord	#####	spk1	140.17	140.51	0.01	_
20091112_RATP_SCD_0690	32	11	c'	NULL	cln	NULL	B_GN	SUJ_IMP	12	idtext0034	ce	###s##	spk1	140.52	140.56	0.01	_
20091112_RATP_SCD_0690	32	12	est	NULL	v	NULL	B_GVf	ROOT	0	idtext0034	être	P#3##s##	spk1	140.57	140.59	0.01	_
20091112_RATP_SCD_0690	32	13	bien	NULL	adv	NULL	B_GADV	ATS	12	idtext0034	bien	#####	spk1	140.6	140.75	?	_

20091112_RATP_SCD_0690	33	1	ça	NULL	pro	NULL	B_GN	NOLINK	0	idtext0035	ça	#####	spk1	140.81	141.03	0.01	_
20091112_RATP_SCD_0690	33	2	hein	DISF_M	pres	NULL	NULL	NOLINK	0	idtext0035	hein	#####	spk1	141.04	141.25	?	//

20091112_RATP_SCD_0690	34	1	je	NULL	cln	NULL	B_GN	NOLINK	0	idtext0036	cln	#1##s##	spk2	140.85	141.25	?	_

20091112_RATP_SCD_0690	35	1	je	NULL	cln	NULL	B_GN	SUJ	2	idtext0037	cln	#1##s##	spk2	141.29	141.49	0.01	_
20091112_RATP_SCD_0690	35	2	suis	NULL	v	NULL	B_GVf	ROOT	0	idtext0037	être	P#1##s##	spk2	141.5	141.65	0.01	_
20091112_RATP_SCD_0690	35	3	à	NULL	prep	NULL	B_GP	P_OBJ_LOC	2	idtext0037	à	#####	spk2	141.66	141.94	0.01	_
20091112_RATP_SCD_0690	35	4	Champigny-Les+Boullereaux	NULL	nc	B_A	I_GP	OBJ	3	idtext0037	Champigny-Les+Boullereaux	#####	spk2	141.95	143.33	0.01	_
20091112_RATP_SCD_0690	35	5	c'	NULL	cln	NULL	B_GN	SUJ_IMP	6	idtext0037	ce	###s##	spk2	143.34	143.36	0.01	_
20091112_RATP_SCD_0690	35	6	est	NULL	v	NULL	B_GVf	ROOT	0	idtext0037	être	P#3##s##	spk2	143.37	143.43	0.01	_
20091112_RATP_SCD_0690	35	7	quoi	NULL	pri	NULL	B_NULL	ATS	6	idtext0037	quoi	#####	spk2	143.44	143.57	0.01	_
20091112_RATP_SCD_0690	35	8	le+plus	NULL	adv	NULL	B_GADV	NOLINK	0	idtext0037	le+plus	#####	spk2	143.58	144.17	0.01	_
20091112_RATP_SCD_0690	35	9	parce+que	NULL	csu	NULL	B_NULL	MOD	6	idtext0037	parce+que	#####	spk2	144.18	144.53	0.01	_
20091112_RATP_SCD_0690	35	10	je	NULL	cln	NULL	B_GN	SUJ	13	idtext0037	cln	#1##s##	spk2	144.54	144.63	0.01	_
20091112_RATP_SCD_0690	35	11	m'	NULL	clr	NULL	B_GNr	AFF	13	idtext0037	cla	#1##s##	spk2	144.64	144.7	0.01	_
20091112_RATP_SCD_0690	35	12	y	NULL	clo	NULL	B_GN	AFF	13	idtext0037	y	#####	spk2	144.71	144.75	0.01	_
20091112_RATP_SCD_0690	35	13	connais	NULL	v	NULL	B_GVfn	OBJ	9	idtext0037	connaître	P#12##s##	spk2	144.76	145.03	0.01	_
20091112_RATP_SCD_0690	35	14	pas	NULL	advneg	NULL	I_GVfn	MOD	13	idtext0037	pas	#####	spk2	145.04	145.42	0.01	_
20091112_RATP_SCD_0690	35	15	tellement	NULL	adv	NULL	B_GADV	MOD	13	idtext0037	tellement	#####	spk2	145.43	146.06	?	_

20091112_RATP_SCD_0690	36	1	c'	NULL	cln	NULL	B_GN	SUJ_IMP	2	idtext0038	ce	###s##	spk2	146.11	146.13	0.01	_
20091112_RATP_SCD_0690	36	2	est	NULL	v	NULL	B_GVf	ROOT	0	idtext0038	être	P#3##s##	spk2	146.14	146.49	0.01	_
20091112_RATP_SCD_0690	36	3	pour	NULL	prep	NULL	B_GP	ATS	2	idtext0038	pour	#####	spk2	146.5	146.68	0.01	_
20091112_RATP_SCD_0690	36	4	ça	NULL	pro	NULL	I_GP	OBJ	3	idtext0038	ça	#####	spk2	146.69	146.84	?	_

20091112_RATP_SCD_0690	37	1	alors	NULL	adv	NULL	B_GADV	NOLINK	0	idtext0039	alors	#####	spk1	146.1	146.27	0.01	_
20091112_RATP_SCD_0690	37	2	vous	NULL	pro	NULL	B_GN	NOLINK	0	idtext0039	vous	#####	spk1	146.28	146.53	0.01	_
20091112_RATP_SCD_0690	37	3	oui	NULL	adv	NULL	B_GADV	MOD	4	idtext0039	oui	#####	spk1	146.54	146.7	0.01	_
20091112_RATP_SCD_0690	37	4	alors	NULL	adv	NULL	I_GADV	ROOT	0	idtext0039	alors	#####	spk1	146.71	146.84	?	_

20091112_RATP_SCD_0690	38	1	Champigny	NULL	nc	B_A	B_GN	ROOT	0	idtext0040	Champigny	##m#s##	spk1	146.88	147.35	0.01	//
20091112_RATP_SCD_0690	38	2	mais	NULL	coo	NULL	B_NULL	COORD	1	idtext0040	mais	#####	spk1	147.36	147.53	0.01	_
20091112_RATP_SCD_0690	38	3	vous	NULL	cln	NULL	B_GN	SUJ	4	idtext0040	cln	#2##p##	spk1	147.54	147.62	0.01	_
20091112_RATP_SCD_0690	38	4	êtes	NULL	v	NULL	B_GVf	DEP_COORD	2	idtext0040	être	P#2##p##	spk1	147.63	147.7	?	//

20091112_RATP_SCD_0690	39	1	où	NULL	adv	NULL	B_GADV	NOLINK	0	idtext0041	où	#####	spk1	147.86	148.26	0.01	_
20091112_RATP_SCD_0690	39	2	à	NULL	prep	NULL	B_GP	ROOT	0	idtext0041	à	#####	spk1	148.27	148.46	0.01	_
20091112_RATP_SCD_0690	39	3	Champigny	NULL	nc	B_A	I_GP	OBJ	2	idtext0041	Champigny	##m#s##	spk1	148.47	149.13	?	//

20091112_RATP_SCD_0690	40	1	et	NULL	coo	NULL	B_NULL	ROOT	0	idtext0042	et	#####	spk2	147.74	147.87	0.01	_
20091112_RATP_SCD_0690	40	2	je	NULL	cln	NULL	B_GN	SUJ	3	idtext0042	cln	#1##s##	spk2	147.88	148.05	0.01	_
20091112_RATP_SCD_0690	40	3	suis	NULL	v	NULL	B_GVf	DEP_COORD	1	idtext0042	être	P#1##s##	spk2	148.06	148.32	0.01	_
20091112_RATP_SCD_0690	40	4	à	NULL	prep	NULL	B_GP	P_OBJ_LOC	3	idtext0042	à	#####	spk2	148.33	148.46	0.01	_
20091112_RATP_SCD_0690	40	5	Champigny	NULL	nc	B_A	I_GP	OBJ	4	idtext0042	Champigny	##m#s##	spk2	148.47	149.13	?	//

20091112_RATP_SCD_0690	41	1	je	NULL	cln	NULL	B_GN	SUJ	2	idtext0043	cln	#1##s##	spk2	149.17	149.26	0.01	_
20091112_RATP_SCD_0690	41	2	prends	NULL	v	NULL	B_GVf	ROOT	0	idtext0043	prendre	P#12##s##	spk2	149.27	149.53	0.01	_
20091112_RATP_SCD_0690	41	3	le	NULL	det	NULL	B_GN	DET	4	idtext0043	le	##m#s##d	spk2	149.54	149.67	0.01	_
20091112_RATP_SCD_0690	41	4	bus	NULL	nc	NULL	I_GN	OBJ	2	idtext0043	bus	##m###	spk2	149.68	149.96	0.01	_
20091112_RATP_SCD_0690	41	5	jusqu'à	NULL	prep	NULL	B_NULL	NOLINK	0	idtext0043	jusqu'à	#####	spk2	149.97	150.66	?	_

20091112_RATP_SCD_0690	42	1	la	NULL	det	NULL	B_GN	DET	2	idtext0044	le	##m#s##d	spk2	150.75	150.85	0.01	_
20091112_RATP_SCD_0690	42	2	gare	NULL	nc	NULL	I_GN	ROOT	0	idtext0044	gare	##f#s##	spk2	150.86	151.06	?	//

20091112_RATP_SCD_0690	43	1	alors	NULL	adv	NULL	B_GADV	NOLINK	0	idtext0045	alors	#####	spk1	150.7	151.06	?	//

20091112_RATP_SCD_0690	44	1	de	NULL	prep	NULL	B_GP	ROOT	0	idtext0046	de	#####	spk2	151.1	151.25	0.01	_
20091112_RATP_SCD_0690	44	2	Champigny	NULL	nc	B_A	I_GP	OBJ	1	idtext0046	Champigny	##m#s##	spk2	151.26	151.96	?	//

20091112_RATP_SCD_0690	45	1	la	NULL	det	NULL	B_GN	DET	2	idtext0047	le	##m#s##d	spk1	152.13	152.27	0.01	_
20091112_RATP_SCD_0690	45	2	gare	NULL	nc	B_A	I_GN	ROOT	0	idtext0047	gare	##f#s##	spk1	152.28	152.4	0.01	_
20091112_RATP_SCD_0690	45	3	de	NULL	prep	I_A	I_GN	DEP	2	idtext0047	de	#####	spk1	152.41	152.5	0.01	_
20091112_RATP_SCD_0690	45	4	Champigny	NULL	np	I_A	I_GN	OBJ	3	idtext0047	Champigny	##m#s##	spk1	152.51	152.89	0.01	_
20091112_RATP_SCD_0690	45	5	au	NULL	prep	NULL	B_GP	ROOT	0	idtext0047	au	#####	spk1	152.9	153.15	0.01	_
20091112_RATP_SCD_0690	45	6	RER+A	NULL	nc	B_T	I_GP	OBJ	5	idtext0047	RER+A	#####	spk1	153.16	153.69	0.01	_
20091112_RATP_SCD_0690	45	7	alors	NULL	adv	NULL	B_GADV	NOLINK	0	idtext0047	alors	#####	spk1	153.7	154.11	?	//

20091112_RATP_SCD_0690	46	1	voilà	DISF_M	pres	NULL	NULL	NOLINK	0	idtext0048	voilà	#####	spk2	154.33	154.8	?	//

20091112_RATP_SCD_0690	47	1	ah	DISF_M	pres	NULL	NULL	NOLINK	0	idtext0049	ah	#####	spk1	154.85	155.03	0.01	_
20091112_RATP_SCD_0690	47	2	donc	NULL	coo	NULL	B_NULL	NOLINK	0	idtext0049	donc	#####	spk1	155.04	155.2	?	_

20091112_RATP_SCD_0690	48	1	c'	NULL	cln	NULL	B_GN	SUJ_IMP	2	idtext0050	ce	###s##	spk1	155.25	155.3	0.01	_
20091112_RATP_SCD_0690	48	2	est	NULL	v	NULL	B_GVf	ROOT	0	idtext0050	être	P#3##s##	spk1	155.31	155.4	0.01	_
20091112_RATP_SCD_0690	48	3	RER+A	NULL	nc	B_T	B_GN	ATS	2	idtext0050	RER+A	#####	spk1	155.41	155.98	0.01	_
20091112_RATP_SCD_0690	48	4	donc	NULL	coo	NULL	B_NULL	COORD	2	idtext0050	donc	#####	spk1	155.99	156.15	0.01	_
20091112_RATP_SCD_0690	48	5	c'	NULL	cln	NULL	B_GN	SUJ_IMP	6	idtext0050	ce	###s##	spk1	156.16	156.18	0.01	_
20091112_RATP_SCD_0690	48	6	est	NULL	v	NULL	B_GVfn	DEP_COORD	4	idtext0050	être	P#3##s##	spk1	156.19	156.25	0.01	_
20091112_RATP_SCD_0690	48	7	pas	NULL	advneg	NULL	I_GVfn	MOD	6	idtext0050	pas	#####	spk1	156.26	156.38	0.01	_
20091112_RATP_SCD_0690	48	8	Champigny-Les+Boullereaux	NULL	nc	B_A	B_GN	ATS	6	idtext0050	Champigny-Les+Boullereaux	#####	spk1	156.39	157.15	0.01	_
20091112_RATP_SCD_0690	48	9	parce+que	NULL	csu	NULL	B_NULL	MOD	6	idtext0050	parce+que	#####	spk1	157.16	157.36	0.01	/
20091112_RATP_SCD_0690	48	10	Les+Boullereaux	NULL	nc	B_A	B_GN	SUJ	12	idtext0050	Les+Boullereaux	#####	spk1	157.37	157.78	0.01	_
20091112_RATP_SCD_0690	48	11	c'	NULL	cln	NULL	B_GN	SUJ_IMP	12	idtext0050	ce	###s##	spk1	157.79	157.88	0.01	_
20091112_RATP_SCD_0690	48	12	est	NULL	v	NULL	B_GVf	OBJ	9	idtext0050	être	P#3##s##	spk1	157.89	157.94	0.01	_
20091112_RATP_SCD_0690	48	13	du	NULL	prep	NULL	B_GP	ATS	12	idtext0050	du	#####	spk1	157.95	158.04	0.01	_
20091112_RATP_SCD_0690	48	14	côté	NULL	nc	NULL	I_GP	OBJ	13	idtext0050	côté	##m#s##	spk1	158.05	158.34	0.01	_
20091112_RATP_SCD_0690	48	15	du	NULL	prep	NULL	B_GP	DEP	14	idtext0050	du	#####	spk1	158.35	158.57	0.01	_
20091112_RATP_SCD_0690	48	16	E	NULL	nc	NULL	I_GP	OBJ	15	idtext0050	E	#####	spk1	158.58	159.02	?	//

20091112_RATP_SCD_0690	49	1	ah	DISF_M	pres	NULL	NULL	NOLINK	0	idtext0051	ah	#####	spk2	159.17	159.49	?	//

20091112_RATP_SCD_0690	50	1	voilà	DISF_M	pres	NULL	NULL	NOLINK	0	idtext0052	voilà	#####	spk2	159.53	159.84	?	//

20091112_RATP_SCD_0690	51	1	alors	NULL	adv	NULL	B_GADV	NOLINK	0	idtext0053	alors	#####	spk1	159.59	159.84	?	//

20091112_RATP_SCD_0690	52	1	attendez	NULL	v	NULL	B_GVf	NOLINK	0	idtext0054	attendre	P#2##p##	spk1	159.88	160.22	0.01	_
20091112_RATP_SCD_0690	52	2	donc	NULL	coo	NULL	B_NULL	NOLINK	0	idtext0054	donc	#####	spk1	160.23	160.38	?	_

20091112_RATP_SCD_0690	53	1	RER+A	NULL	nc	B_T	B_GN	ROOT	0	idtext0055	RER+A	#####	spk1	160.42	161.29	0.01	_
20091112_RATP_SCD_0690	53	2	Champigny	NULL	nc	B_A	I_GN	MOD	1	idtext0055	Champigny	##m#s##	spk1	161.3	162.01	?	//

20091112_RATP_SCD_0690	54	1	je	NULL	cln	NULL	B_GN	SUJ	2	idtext0056	cln	#1##s##	spk2	160.52	160.59	0.01	_
20091112_RATP_SCD_0690	54	2	connais	NULL	v	NULL	B_GVfn	ROOT	0	idtext0056	connaître	P#12##s##	spk2	160.6	160.81	0.01	_
20091112_RATP_SCD_0690	54	3	pas	NULL	advneg	NULL	I_GVfn	MOD	2	idtext0056	pas	#####	spk2	160.82	161.49	0.01	_
20091112_RATP_SCD_0690	54	4	c'	NULL	cln	NULL	B_GN	SUJ_IMP	5	idtext0056	ce	###s##	spk2	161.5	161.52	0.01	_
20091112_RATP_SCD_0690	54	5	est	NULL	v	NULL	B_GVf	ROOT	0	idtext0056	être	P#3##s##	spk2	161.53	161.86	0.01	_
20091112_RATP_SCD_0690	54	6	le	NULL	det	NULL	B_NULL	ATS	5	idtext0056	le	##m#s##d	spk2	161.87	161.93	0.01	_
20091112_RATP_SCD_0690	54	7	c'	NULL	cln	NULL	B_GN	NOLINK	0	idtext0056	ce	###s##	spk2	161.94	162.01	?	_

20091112_RATP_SCD_0690	55	1	le	NULL	det	NULL	B_GN	DET	2	idtext0057	le	##m#s##d	spk2	162.05	162.25	0.01	_
20091112_RATP_SCD_0690	55	2	côté	NULL	nc	NULL	I_GN	SUJ	7	idtext0057	côté	##m#s##	spk2	162.26	162.6	0.01	_
20091112_RATP_SCD_0690	55	3	de	NULL	prep	NULL	B_GP	DEP	2	idtext0057	de	#####	spk2	162.61	162.68	0.01	_
20091112_RATP_SCD_0690	55	4	eh	DISF_M	pres	NULL	NULL	NOLINK	0	idtext0057	eh	#####	spk2	162.69	162.99	0.01	_
20091112_RATP_SCD_0690	55	5	ça	NULL	pro	NULL	I_GP	OBJ	3	idtext0057	ça	#####	spk2	163.0	163.27	0.01	_
20091112_RATP_SCD_0690	55	6	c'	NULL	cln	NULL	B_GN	SUJ_IMP	7	idtext0057	ce	###s##	spk2	163.28	163.32	0.01	_
20091112_RATP_SCD_0690	55	7	est	NULL	v	NULL	B_GVf	ROOT	0	idtext0057	être	P#3##s##	spk2	163.33	163.4	0.01	_
20091112_RATP_SCD_0690	55	8	le	DISF_R	det	NULL	NULL	NOLINK	0	idtext0057	le	##m#s##d	spk2	163.41	163.67	0.01	_
20091112_RATP_SCD_0690	55	9	la	DISF_R	det	NULL	NULL	NOLINK	0	idtext0057	le	##m#s##d	spk2	163.68	163.88	0.01	_
20091112_RATP_SCD_0690	55	10	euh	DISF_M	pres	NULL	NULL	NOLINK	0	idtext0057	euh	#####	spk2	163.89	163.91	0.01	_
20091112_RATP_SCD_0690	55	11	le	NULL	det	NULL	B_GN	DET	13	idtext0057	le	##m#s##d	spk2	163.92	164.44	0.01	_
20091112_RATP_SCD_0690	55	12	Villiers	DISF_R	nc	NULL	NULL	NOLINK	0	idtext0057	Villiers	##m#s##	spk2	164.45	164.88	0.01	_
20091112_RATP_SCD_0690	55	13	Villiers	NULL	nc	B_A	I_GN	ATS	7	idtext0057	Villiers	##m#s##	spk2	164.89	165.45	0.01	_
20091112_RATP_SCD_0690	55	14	ça	NULL	pro	NULL	I_GN	SUJ_IMP	7	idtext0057	ça	#####	spk2	165.46	165.73	?	//

20091112_RATP_SCD_0690	56	1	alors	NULL	adv	NULL	B_GADV	NOLINK	0	idtext0058	alors	#####	spk1	166.37	166.6	0.01	_
20091112_RATP_SCD_0690	56	2	Champigny-sur-Marne	NULL	nc	B_A	B_GN	NOLINK	0	idtext0058	Champigny-sur-Marne	##m#s##	spk1	166.61	169.0	?	//

20091112_RATP_SCD_0690	57	1	mais	NULL	coo	NULL	B_NULL	ROOT	0	idtext0059	mais	#####	spk1	175.06	175.19	0.01	_
20091112_RATP_SCD_0690	57	2	il	NULL	cln	NULL	B_GN	SUJ_IMP	4	idtext0059	cln	#3#m#s##	spk1	175.2	175.26	0.01	_
20091112_RATP_SCD_0690	57	3	y	NULL	clo	NULL	B_GN	AFF	4	idtext0059	y	#####	spk1	175.27	175.35	0.01	_
20091112_RATP_SCD_0690	57	4	a	NULL	v	NULL	B_GVf	DEP_COORD	1	idtext0059	avoir	P#3##s##	spk1	175.36	175.45	0.01	_
20091112_RATP_SCD_0690	57	5	pas	NULL	advneg	NULL	B_NULL	MOD	4	idtext0059	pas	#####	spk1	175.46	175.57	0.01	_
20091112_RATP_SCD_0690	57	6	de	NULL	prep	NULL	B_GP	OBJ	4	idtext0059	de	#####	spk1	175.58	175.63	0.01	_
20091112_RATP_SCD_0690	57	7	RER	NULL	nc	B_T	I_GP	OBJ	6	idtext0059	RER	#####	spk1	175.64	176.0	0.01	_
20091112_RATP_SCD_0690	57	8	il	NULL	cln	NULL	B_GN	SUJ_IMP	10	idtext0059	cln	#3#m#s##	spk1	176.01	176.07	0.01	_
20091112_RATP_SCD_0690	57	9	y	NULL	clo	NULL	B_GN	AFF	10	idtext0059	y	#####	spk1	176.08	176.1	0.01	_
20091112_RATP_SCD_0690	57	10	a	NULL	v	NULL	B_GVfn	ROOT	0	idtext0059	avoir	P#3##s##	spk1	176.11	176.14	0.01	_
20091112_RATP_SCD_0690	57	11	pas	NULL	advneg	NULL	I_GVfn	MOD	10	idtext0059	pas	#####	spk1	176.15	176.29	0.01	_
20091112_RATP_SCD_0690	57	12	de	NULL	det	NULL	B_GN	DET	13	idtext0059	de	###p##i	spk1	176.3	176.36	0.01	_
20091112_RATP_SCD_0690	57	13	station	NULL	nc	NULL	I_GN	OBJ	10	idtext0059	station	##f#s##	spk1	176.37	176.74	0.01	_
20091112_RATP_SCD_0690	57	14	de	NULL	prep	NULL	B_GP	DEP	13	idtext0059	de	#####	spk1	176.75	176.81	0.01	_
20091112_RATP_SCD_0690	57	15	ch()	DISF_T	tronc	NULL	NULL	NOLINK	0	idtext0059	ch()	#####	spk1	176.82	176.98	0.01	_
20091112_RATP_SCD_0690	57	16	RER+A	NULL	nc	B_T	I_GP	OBJ	14	idtext0059	RER+A	#####	spk1	176.99	178.02	0.01	_
20091112_RATP_SCD_0690	57	17	c'	NULL	cln	NULL	B_GN	SUJ_IMP	18	idtext0059	ce	###s##	spk1	178.03	178.14	0.01	_
20091112_RATP_SCD_0690	57	18	est	NULL	v	NULL	B_GVfn	ROOT	0	idtext0059	être	P#3##s##	spk1	178.15	178.17	0.01	_
20091112_RATP_SCD_0690	57	19	pas	NULL	advneg	NULL	I_GVfn	MOD	18	idtext0059	pas	#####	spk1	178.18	178.31	0.01	_
20091112_RATP_SCD_0690	57	20	au	NULL	prep	NULL	B_GP	ATS	18	idtext0059	au	#####	spk1	178.32	178.49	0.01	_
20091112_RATP_SCD_0690	57	21	RER+A	NULL	nc	B_T	I_GP	OBJ	20	idtext0059	RER+A	#####	spk1	178.5	179.27	0.01	_
20091112_RATP_SCD_0690	57	22	bon	DISF_M	pres	I_T	NULL	NOLINK	0	idtext0059	bon	#####	spk1	179.28	179.5	?	//

20091112_RATP_SCD_0690	58	1	patientez	NULL	v	NULL	B_GVf	NOLINK	0	idtext0060	patienter	P#2##p##	spk1	179.56	179.88	0.01	_
20091112_RATP_SCD_0690	58	2	monsieur	NULL	nc	NULL	B_GN	NOLINK	0	idtext0060	Monsieur	##m#s##	spk1	179.89	180.73	0.01	//
20091112_RATP_SCD_0690	58	3	c'	NULL	cln	NULL	B_GN	SUJ_IMP	4	idtext0060	ce	###s##	spk1	180.74	180.77	0.01	_
20091112_RATP_SCD_0690	58	4	est	NULL	v	NULL	B_GVf	ROOT	0	idtext0060	être	P#3##s##	spk1	180.78	180.82	0.01	_
20091112_RATP_SCD_0690	58	5	la	NULL	det	NULL	B_GN	DET	6	idtext0060	le	##m#s##d	spk1	180.83	180.95	0.01	_
20091112_RATP_SCD_0690	58	6	gare	NULL	nc	NULL	I_GN	ATS	4	idtext0060	gare	##f#s##	spk1	180.96	181.17	?	//

20091112_RATP_SCD_0690	59	1	donc	NULL	coo	NULL	B_NULL	ROOT	0	idtext0061	donc	#####	spk2	179.62	179.95	0.01	_
20091112_RATP_SCD_0690	59	2	je	NULL	cln	NULL	B_GN	SUJ	3	idtext0061	cln	#1##s##	spk2	179.96	180.12	0.01	_
20091112_RATP_SCD_0690	59	3	prends	NULL	v	NULL	B_GVf	DEP_COORD	1	idtext0061	prendre	P#12##s##	spk2	180.13	180.92	0.01	_
20091112_RATP_SCD_0690	59	4	je	NULL	cln	NULL	B_GN	NOLINK	0	idtext0061	cln	#1##s##	spk2	180.93	181.17	?	_

20091112_RATP_SCD_0690	60	1	de	NULL	prep	NULL	B_GP	NOLINK	0	idtext0062	de	#####	spk1	181.21	181.36	0.01	_
20091112_RATP_SCD_0690	60	2	vous	NULL	cln	NULL	I_GP	SUJ	3	idtext0062	cln	#2##p##	spk1	181.37	181.57	0.01	_
20091112_RATP_SCD_0690	60	3	êtes	NULL	v	NULL	B_GVf	ROOT	0	idtext0062	être	P#2##p##	spk1	181.58	181.67	0.01	_
20091112_RATP_SCD_0690	60	4	quand	NULL	csu	NULL	B_NULL	ATS	3	idtext0062	quand	#####	spk1	181.68	181.79	0.01	_
20091112_RATP_SCD_0690	60	5	vous	NULL	pro	NULL	B_GN	SUJ	7	idtext0062	vous	#####	spk1	181.8	181.95	0.01	_
20091112_RATP_SCD_0690	60	6	vous	NULL	cln	NULL	B_GN	SUJ	7	idtext0062	cln	#2##p##	spk1	181.96	182.01	0.01	_
20091112_RATP_SCD_0690	60	7	reprenez	NULL	v	NULL	B_GVf	OBJ	4	idtext0062	reprendre	P#2##p##	spk1	182.02	182.37	0.01	_
20091112_RATP_SCD_0690	60	8	le	NULL	det	NULL	B_GN	DET	9	idtext0062	le	##m#s##d	spk1	182.38	182.42	0.01	_
20091112_RATP_SCD_0690	60	9	RER	NULL	nc	B_T	I_GN	OBJ	7	idtext0062	RER	#####	spk1	182.43	183.0	0.01	_
20091112_RATP_SCD_0690	60	10	le	DISF_R	det	I_T	NULL	NOLINK	0	idtext0062	le	##m#s##d	spk1	183.01	183.09	0.01	_
20091112_RATP_SCD_0690	60	11	le+vôtre	NULL	pro	NULL	I_GN	DET	12	idtext0062	le+vôtre	#####	spk1	183.1	183.47	0.01	_
20091112_RATP_SCD_0690	60	12	gare	NULL	nc	NULL	B_GN	ROOT	0	idtext0062	gare	##f#s##	spk1	183.48	183.7	0.01	_
20091112_RATP_SCD_0690	60	13	de	NULL	prep	NULL	B_GP	DEP	12	idtext0062	de	#####	spk1	183.71	183.83	0.01	_
20091112_RATP_SCD_0690	60	14	départ	NULL	nc	NULL	I_GP	OBJ	13	idtext0062	départ	##m#s##	spk1	183.84	184.21	0.01	_
20091112_RATP_SCD_0690	60	15	ça	NULL	pro	NULL	I_GP	SUJ_IMP	16	idtext0062	ça	#####	spk1	184.22	184.32	0.01	_
20091112_RATP_SCD_0690	60	16	sera	NULL	v	NULL	B_GVf	ROOT	0	idtext0062	être	F#3##s##	spk1	184.33	184.5	0.01	_
20091112_RATP_SCD_0690	60	17	quelle	NULL	det	NULL	B_GN	DET	18	idtext0062	quel	##f#s##	spk1	184.51	184.74	0.01	_
20091112_RATP_SCD_0690	60	18	gare	NULL	nc	NULL	I_GN	ATS	16	idtext0062	gare	##f#s##	spk1	184.75	185.25	?	//

20091112_RATP_SCD_0690	61	1	euh	DISF_M	pres	NULL	NULL	NOLINK	0	idtext0063	euh	#####	spk2	185.9	186.01	0.01	_
20091112_RATP_SCD_0690	61	2	ou	NULL	coo	NULL	B_NULL	ROOT	0	idtext0063	ou	#####	spk2	186.02	186.45	0.01	_
20091112_RATP_SCD_0690	61	3	je	NULL	cln	NULL	B_GN	NOLINK	0	idtext0063	cln	#1##s##	spk2	186.46	186.62	0.01	_
20091112_RATP_SCD_0690	61	4	ou	NULL	coo	NULL	B_NULL	NOLINK	0	idtext0063	ou	#####	spk2	186.63	186.99	0.01	_
20091112_RATP_SCD_0690	61	5	je	NULL	cln	NULL	B_GN	SUJ	6	idtext0063	cln	#1##s##	spk2	187.0	187.11	0.01	_
20091112_RATP_SCD_0690	61	6	vais	NULL	v	NULL	B_GVf	DEP_COORD	2	idtext0063	aller	P#1##s##	spk2	187.12	187.26	0.01	_
20091112_RATP_SCD_0690	61	7	prendre	NULL	vinf	NULL	I_GVf	OBJ	6	idtext0063	prendre	W#####	spk2	187.27	187.67	0.01	_
20091112_RATP_SCD_0690	61	8	à	NULL	prep	NULL	B_GP	P_OBJ_LOC	7	idtext0063	à	#####	spk2	187.68	187.96	0.01	_
20091112_RATP_SCD_0690	61	9	Villiers	NULL	nc	B_A	I_GP	OBJ	8	idtext0063	Villiers	##m#s##	spk2	187.97	188.68	?	//

20091112_RATP_SCD_0690	62	1	Villiers-sur-Marne	NULL	nc	B_A	B_GN	NOLINK	0	idtext0064	Villiers-sur-Marne	##m#s##	spk1	188.76	189.87	?	//

20091112_RATP_SCD_0690	63	1	oui	NULL	adv	NULL	B_GADV	NOLINK	0	idtext0065	oui	#####	spk2	189.99	190.57	?	//

20091112_RATP_SCD_0690	64	1	d'accord	NULL	adv	NULL	B_GADV	NOLINK	0	idtext0066	d'accord	#####	spk1	190.61	190.99	?	//

20091112_RATP_SCD_0690	65	1	si	NULL	csu	NULL	B_NULL	ROOT	0	idtext0067	si	#####	spk2	191.65	191.7	0.01	_
20091112_RATP_SCD_0690	65	2	c'	DISF_R	cln	NULL	NULL	NOLINK	0	idtext0067	ce	###s##	spk2	191.71	191.74	0.01	_
20091112_RATP_SCD_0690	65	3	est	DISF_R	v	NULL	NULL	NOLINK	0	idtext0067	être	P#3##s##	spk2	191.75	191.91	0.01	_
20091112_RATP_SCD_0690	65	4	c'	NULL	cln	NULL	B_GN	SUJ_IMP	5	idtext0067	ce	###s##	spk2	191.92	191.97	0.01	_
20091112_RATP_SCD_0690	65	5	est	NULL	v	NULL	B_GVf	OBJ	1	idtext0067	être	P#3##s##	spk2	191.98	192.37	0.01	_
20091112_RATP_SCD_0690	65	6	bon	NULL	adj	NULL	B_GADJ	ATS	5	idtext0067	bon	##m#s##	spk2	192.38	192.84	0.01	/
20091112_RATP_SCD_0690	65	7	je	NULL	cln	NULL	B_GN	SUJ	8	idtext0067	cln	#1##s##	spk2	192.85	193.0	0.01	_
20091112_RATP_SCD_0690	65	8	vais	NULL	v	NULL	B_GVf	ROOT	0	idtext0067	aller	P#1##s##	spk2	193.01	193.12	0.01	_
20091112_RATP_SCD_0690	65	9	prendre	NULL	vinf	NULL	I_GVf	OBJ	8	idtext0067	prendre	W#####	spk2	193.13	193.5	0.01	_
20091112_RATP_SCD_0690	65	10	là-bas	NULL	adv	NULL	B_GADV	P_OBJ_LOC	8	idtext0067	là-bas	#####	spk2	193.51	194.31	0.01	_
20091112_RATP_SCD_0690	65	11	et	DISF_R	coo	NULL	NULL	NOLINK	0	idtext0067	et	#####	spk2	194.32	194.87	0.01	_
20091112_RATP_SCD_0690	65	12	et	NULL	coo	NULL	B_NULL	COORD	8	idtext0067	et	#####	spk2	194.88	195.4	0.01	_
20091112_RATP_SCD_0690	65	13	sinon	NULL	coo	NULL	B_NULL	NOLINK	0	idtext0067	sinon	#####	spk2	195.41	195.62	0.01	_
20091112_RATP_SCD_0690	65	14	je	NULL	cln	NULL	B_GN	SUJ	15	idtext0067	cln	#1##s##	spk2	195.63	195.83	0.01	_
20091112_RATP_SCD_0690	65	15	prends	NULL	v	NULL	B_GVf	DEP_COORD	12	idtext0067	prendre	P#12##s##	spk2	195.84	196.81	0.01	_
20091112_RATP_SCD_0690	65	16	euh	DISF_M	pres	NULL	NULL	NOLINK	0	idtext0067	euh	#####	spk2	196.82	197.04	?	//

20091112_RATP_SCD_0690	66	1	c'	NULL	cln	NULL	B_GN	SUJ_IMP	2	idtext0068	ce	###s##	spk1	197.19	197.22	0.01	_
20091112_RATP_SCD_0690	66	2	est	NULL	v	NULL	B_GVf	ROOT	0	idtext0068	être	P#3##s##	spk1	197.23	197.3	0.01	_
20091112_RATP_SCD_0690	66	3	ou	NULL	coo	NULL	B_NULL	ROOT	0	idtext0068	ou	#####	spk1	197.31	197.44	0.01	_
20091112_RATP_SCD_0690	66	4	Villiers	NULL	nc	B_A	B_GN	ATS	2	idtext0068	Villiers	##m#s##	spk1	197.45	197.81	0.01	_
20091112_RATP_SCD_0690	66	5	ou	NULL	coo	NULL	B_NULL	COORD	4	idtext0068	ou	#####	spk1	197.82	197.89	0.01	_
20091112_RATP_SCD_0690	66	6	quelle	NULL	det	NULL	B_GN	DET	7	idtext0068	quel	##f#s##	spk1	197.9	198.16	0.01	_
20091112_RATP_SCD_0690	66	7	gare	NULL	nc	NULL	I_GN	DEP_COORD	5	idtext0068	gare	##f#s##	spk1	198.17	198.64	0.01	//
20091112_RATP_SCD_0690	66	8	vous	NULL	cln	NULL	B_GN	SUJ	10	idtext0068	cln	#2##p##	spk1	198.65	198.74	0.01	_
20091112_RATP_SCD_0690	66	9	me	NULL	clo	NULL	B_GN	A_OBJ	10	idtext0068	cla	#1##s##	spk1	198.75	198.85	0.01	_
20091112_RATP_SCD_0690	66	10	dites	NULL	v	NULL	B_GVf	DEP_COORD	3	idtext0068	dire	P#2##p##	spk1	198.86	199.4	?	//

20091112_RATP_SCD_0690	67	1	euh	DISF_M	pres	NULL	NULL	NOLINK	0	idtext0069	euh	#####	spk2	199.64	200.21	0.01	_
20091112_RATP_SCD_0690	67	2	Villiers	DISF_R	nc	NULL	NULL	NOLINK	0	idtext0069	Villiers	##m#s##	spk2	200.22	200.58	0.01	_
20091112_RATP_SCD_0690	67	3	Villiers	NULL	nc	B_A	B_GN	NOLINK	0	idtext0069	Villiers	##m#s##	spk2	200.59	201.14	0.01	//
20091112_RATP_SCD_0690	67	4	c'	DISF_R	cln	I_A	NULL	NOLINK	0	idtext0069	ce	###s##	spk2	201.15	201.18	0.01	_
20091112_RATP_SCD_0690	67	5	est	DISF_R	v	I_A	NULL	NOLINK	0	idtext0069	être	P#3##s##	spk2	201.19	201.48	0.01	/
20091112_RATP_SCD_0690	67	6	c'	DISF_R	cln	I_A	NULL	NOLINK	0	idtext0069	ce	###s##	spk2	201.49	201.54	0.01	_
20091112_RATP_SCD_0690	67	7	est	DISF_R	v	I_A	NULL	NOLINK	0	idtext0069	être	P#3##s##	spk2	201.55	202.29	0.01	_
20091112_RATP_SCD_0690	67	8	c'	NULL	cln	NULL	B_GN	SUJ_IMP	9	idtext0069	ce	###s##	spk2	202.3	202.34	0.01	_
20091112_RATP_SCD_0690	67	9	est	NULL	v	NULL	B_GVf	ROOT	0	idtext0069	être	P#3##s##	spk2	202.35	202.65	0.01	_
20091112_RATP_SCD_0690	67	10	Villiers	NULL	nc	B_A	B_GN	ATS	9	idtext0069	Villiers	##m#s##	spk2	202.66	202.94	0.01	_
20091112_RATP_SCD_0690	67	11	gare	NULL	nc	B_A	I_GN	MOD	10	idtext0069	gare	##f#s##	spk2	202.95	203.23	0.01	_
20091112_RATP_SCD_0690	67	12	de	NULL	prep	I_A	I_GN	DEP	11	idtext0069	de	#####	spk2	203.24	203.42	0.01	_
20091112_RATP_SCD_0690	67	13	Villiers	NULL	np	I_A	I_GN	OBJ	12	idtext0069	Villiers	##m#s##	spk2	203.43	203.93	?	//

20091112_RATP_SCD_0690	68	1	oui	NULL	adv	NULL	B_GADV	NOLINK	0	idtext0070	oui	#####	spk1	204.01	204.2	?	//

20091112_RATP_SCD_0690	69	1	ou	NULL	coo	NULL	B_NULL	NOLINK	0	idtext0071	ou	#####	spk1	204.24	204.86	?	_

20091112_RATP_SCD_0690	70	1	sur	NULL	prep	NULL	B_GP	ROOT	0	idtext0072	sur	#####	spk2	204.24	204.39	0.01	_
20091112_RATP_SCD_0690	70	2	Marne	NULL	nc	B_A	I_GP	OBJ	1	idtext0072	Marne	##f#s##	spk2	204.4	204.86	?	//

20091112_RATP_SCD_0690	71	1	ou+alors	NULL	coo	NULL	B_NULL	NOLINK	0	idtext0073	ou+alors	#####	spk1	204.97	205.47	0.01	_
20091112_RATP_SCD_0690	71	2	sinon	NULL	coo	NULL	B_NULL	ROOT	0	idtext0073	sinon	#####	spk1	205.48	206.01	0.01	_
20091112_RATP_SCD_0690	71	3	si	NULL	csu	NULL	B_NULL	DEP_COORD	2	idtext0073	si	#####	spk1	206.02	206.09	0.01	_
20091112_RATP_SCD_0690	71	4	c'	NULL	cln	NULL	B_GN	SUJ_IMP	5	idtext0073	ce	###s##	spk1	206.1	206.14	0.01	_
20091112_RATP_SCD_0690	71	5	est	NULL	v	NULL	B_GVfn	OBJ	3	idtext0073	être	P#3##s##	spk1	206.15	206.23	0.01	_
20091112_RATP_SCD_0690	71	6	pas	NULL	advneg	NULL	I_GVfn	MOD	5	idtext0073	pas	#####	spk1	206.24	206.38	0.01	_
20091112_RATP_SCD_0690	71	7	Villiers	NULL	nc	B_A	B_GN	ATS	5	idtext0073	Villiers	##m#s##	spk1	206.39	206.91	?	//

20091112_RATP_SCD_0690	72	1	si	NULL	csu	NULL	B_NULL	ROOT	0	idtext0074	si	#####	spk2	207.74	207.79	0.01	_
20091112_RATP_SCD_0690	72	2	c'	NULL	cln	NULL	B_GN	SUJ_IMP	3	idtext0074	ce	###s##	spk2	207.8	207.82	0.01	_
20091112_RATP_SCD_0690	72	3	est	NULL	v	NULL	B_GVfn	OBJ	1	idtext0074	être	P#3##s##	spk2	207.83	208.1	0.01	_
20091112_RATP_SCD_0690	72	4	pas	NULL	advneg	NULL	I_GVfn	MOD	3	idtext0074	pas	#####	spk2	208.11	208.29	0.01	_
20091112_RATP_SCD_0690	72	5	Villiers	NULL	nc	B_A	B_GN	ATS	3	idtext0074	Villiers	##m#s##	spk2	208.3	208.8	0.01	/
20091112_RATP_SCD_0690	72	6	c'	NULL	cln	NULL	B_GN	SUJ_IMP	7	idtext0074	ce	###s##	spk2	208.81	208.84	0.01	_
20091112_RATP_SCD_0690	72	7	est	NULL	v	NULL	B_GVf	ROOT	0	idtext0074	être	P#3##s##	spk2	208.85	208.94	0.01	_
20091112_RATP_SCD_0690	72	8	Champigny	NULL	nc	B_A	B_GN	ATS	7	idtext0074	Champigny	##m#s##	spk2	208.95	209.81	?	//

20091112_RATP_SCD_0690	73	1	d'accord	NULL	adv	NULL	B_GADV	NOLINK	0	idtext0075	d'accord	#####	spk1	210.46	210.76	0.01	_
20091112_RATP_SCD_0690	73	2	patientez	NULL	v	NULL	B_GVf	NOLINK	0	idtext0075	patienter	P#2##p##	spk1	210.77	211.18	0.01	_
20091112_RATP_SCD_0690	73	3	monsieur	NULL	nc	NULL	B_GN	NOLINK	0	idtext0075	Monsieur	##m#s##	spk1	211.19	211.54	?	//

20091112_RATP_SCD_0690	74	1	monsieur	NULL	nc	NULL	B_GN	NOLINK	0	idtext0076	Monsieur	##m#s##	spk1	227.18	227.79	?	//

20091112_RATP_SCD_0690	75	1	oui	NULL	adv	NULL	B_GADV	NOLINK	0	idtext0077	oui	#####	spk2	228.05	228.26	?	//

20091112_RATP_SCD_0690	76	1	alors	NULL	adv	NULL	B_GADV	NOLINK	0	idtext0078	alors	#####	spk1	228.35	228.58	0.01	_
20091112_RATP_SCD_0690	76	2	de	NULL	prep	NULL	B_GP	MOD	8	idtext0078	de	#####	spk1	228.59	228.67	0.01	_
20091112_RATP_SCD_0690	76	3	Champigny	NULL	nc	B_A	I_GP	OBJ	2	idtext0078	Champigny	##m#s##	spk1	228.68	229.24	0.01	_
20091112_RATP_SCD_0690	76	4	vous	NULL	cln	NULL	B_GN	SUJ	5	idtext0078	cln	#2##p##	spk1	229.25	229.37	0.01	_
20091112_RATP_SCD_0690	76	5	allez	NULL	v	NULL	B_GVf	ROOT	0	idtext0078	aller	P#2##p##	spk1	229.38	229.59	0.01	_
20091112_RATP_SCD_0690	76	6	prendre	NULL	vinf	NULL	I_GVf	OBJ	5	idtext0078	prendre	W#####	spk1	229.6	229.87	0.01	_
20091112_RATP_SCD_0690	76	7	le	NULL	det	NULL	B_GN	DET	8	idtext0078	le	##m#s##d	spk1	229.88	229.91	0.01	_
20091112_RATP_SCD_0690	76	8	RER+A	NULL	nc	B_T	I_GN	OBJ	6	idtext0078	RER+A	#####	spk1	229.92	230.8	?	//

20091112_RATP_SCD_0690	77	1	oui	NULL	adv	NULL	B_GADV	NOLINK	0	idtext0079	oui	#####	spk2	231.21	231.66	?	//

20091112_RATP_SCD_0690	78	1	direction	NULL	nc	NULL	B_GN	ROOT	0	idtext0080	direction	##f#s##	spk1	231.71	232.19	0.01	_
20091112_RATP_SCD_0690	78	2	Saint-Germain-en-Laye	NULL	nc	B_A	I_GN	MOD	1	idtext0080	Saint-Germain-en-Laye	##m#s##	spk1	232.2	233.2	?	//

20091112_RATP_SCD_0690	79	1	oui	NULL	adv	NULL	B_GADV	NOLINK	0	idtext0081	oui	#####	spk2	233.42	233.79	?	//

20091112_RATP_SCD_0690	80	1	jusqu'à	NULL	prep	NULL	B_GP	ROOT	0	idtext0082	jusqu'à	#####	spk1	233.86	234.27	0.01	_
20091112_RATP_SCD_0690	80	2	Nogent-sur-Marne	NULL	nc	B_A	I_GP	OBJ	1	idtext0082	Nogent-sur-Marne	##m#s##	spk1	234.28	235.48	?	//

20091112_RATP_SCD_0690	81	1	oui	NULL	adv	NULL	B_GADV	NOLINK	0	idtext0083	oui	#####	spk2	235.66	236.27	?	//

20091112_RATP_SCD_0690	82	1	à	NULL	prep	NULL	B_GP	ROOT	0	idtext0084	à	#####	spk1	236.69	236.77	0.01	_
20091112_RATP_SCD_0690	82	2	Nogent-sur-Marne	NULL	nc	B_A	I_GP	OBJ	1	idtext0084	Nogent-sur-Marne	##m#s##	spk1	236.78	237.65	0.01	_
20091112_RATP_SCD_0690	82	3	vous	NULL	cln	NULL	B_GN	SUJ	4	idtext0084	cln	#2##p##	spk1	237.66	237.76	0.01	_
20091112_RATP_SCD_0690	82	4	allez	NULL	v	NULL	B_GVf	ROOT	0	idtext0084	aller	P#2##p##	spk1	237.77	237.99	0.01	_
20091112_RATP_SCD_0690	82	5	prendre	NULL	vinf	NULL	I_GVf	OBJ	4	idtext0084	prendre	W#####	spk1	238.0	238.38	0.01	_
20091112_RATP_SCD_0690	82	6	le	NULL	det	NULL	B_GN	DET	7	idtext0084	le	##m#s##d	spk1	238.39	238.41	0.01	_
20091112_RATP_SCD_0690	82	7	bus	NULL	nc	B_T	I_GN	OBJ	5	idtext0084	bus	##m###	spk1	238.42	238.68	0.01	_
20091112_RATP_SCD_0690	82	8	deux	NULL	adj	I_T	I_GN	MOD	7	idtext0084	deux	#####	spk1	238.69	238.88	0.01	_
20091112_RATP_SCD_0690	82	9	cent	NULL	adj	I_T	I_GN	MOD	8	idtext0084	cent	#####	spk1	238.89	239.07	0.01	_
20091112_RATP_SCD_0690	82	10	dix	NULL	adj	I_T	I_GN	MOD	9	idtext0084	dix	#####	spk1	239.08	239.68	?	//

20091112_RATP_SCD_0690	83	1	bus	NULL	nc	B_T	B_GN	NOLINK	0	idtext0085	bus	##m###	spk2	240.21	240.52	0.01	_
20091112_RATP_SCD_0690	83	2	deux	NULL	adj	I_T	I_GN	MOD	1	idtext0085	deux	#####	spk2	240.53	240.74	0.01	_
20091112_RATP_SCD_0690	83	3	cent	NULL	adj	I_T	I_GN	MOD	2	idtext0085	cent	#####	spk2	240.75	240.92	0.01	_
20091112_RATP_SCD_0690	83	4	dix	NULL	adj	I_T	I_GN	MOD	3	idtext0085	dix	#####	spk2	240.93	241.23	?	//

20091112_RATP_SCD_0690	84	1	oui	NULL	adv	NULL	B_GADV	NOLINK	0	idtext0086	oui	#####	spk2	241.27	241.62	?	//

20091112_RATP_SCD_0690	85	1	oui	NULL	adv	NULL	B_GADV	NOLINK	0	idtext0087	oui	#####	spk1	241.27	241.62	?	//

20091112_RATP_SCD_0690	86	1	en	NULL	prep	NULL	B_GP	ROOT	0	idtext0088	en	#####	spk1	241.72	241.83	0.01	_
20091112_RATP_SCD_0690	86	2	direction	NULL	nc	NULL	I_GP	OBJ	1	idtext0088	direction	##f#s##	spk1	241.84	242.54	0.01	_
20091112_RATP_SCD_0690	86	3	de	NULL	prep	NULL	B_GP	DEP	2	idtext0088	de	#####	spk1	242.55	242.66	0.01	_
20091112_RATP_SCD_0690	86	4	Villiers-sur-Marne-Plessis-Trévise	NULL	nc	B_A	I_GP	OBJ	3	idtext0088	Villiers-sur-Marne-Plessis-Trévise	#####	spk1	242.67	244.42	?	//

20091112_RATP_SCD_0690	87	1	oui	NULL	adv	NULL	B_GADV	NOLINK	0	idtext0089	oui	#####	spk2	244.61	245.29	?	//

20091112_RATP_SCD_0690	88	1	jusqu'à	NULL	prep	NULL	B_GP	ROOT	0	idtext0090	jusqu'à	#####	spk1	245.44	245.89	0.01	_
20091112_RATP_SCD_0690	88	2	l'	NULL	det	NULL	I_GP	DET	3	idtext0090	le	###s##d	spk1	245.9	245.94	0.01	_
20091112_RATP_SCD_0690	88	3	arrêt	NULL	nc	NULL	I_GP	OBJ	1	idtext0090	arrêt	##m#s##	spk1	245.95	246.68	0.01	_
20091112_RATP_SCD_0690	88	4	sous-préfecture	NULL	nc	B_A	I_GP	MOD	3	idtext0090	sous-préfecture	##f#s##	spk1	246.69	247.87	0.01	_
20091112_RATP_SCD_0690	88	5	Jules+Ferry	NULL	np	I_A	I_GP	MOD	4	idtext0090	Jules+Ferry	#####	spk1	247.88	248.79	?	_

20091112_RATP_SCD_0690	89	1	sous-préfecture	NULL	nc	B_A	B_GN	NOLINK	0	idtext0091	sous-préfecture	##f#s##	spk2	249.6	250.35	0.01	_
20091112_RATP_SCD_0690	89	2	Jules+Ferry	NULL	np	I_A	I_GN	MOD	1	idtext0091	Jules+Ferry	#####	spk2	250.36	251.03	0.01	_
20091112_RATP_SCD_0690	89	3	oui	NULL	adv	NULL	B_GADV	NOLINK	0	idtext0091	oui	#####	spk2	251.04	251.11	?	//

20091112_RATP_SCD_0690	90	1	d'accord	NULL	adv	NULL	B_GADV	NOLINK	0	idtext0092	d'accord	#####	spk2	251.27	251.56	?	//

20091112_RATP_SCD_0690	91	1	et	NULL	coo	NULL	B_NULL	NOLINK	0	idtext0093	et	#####	spk1	251.25	251.27	0.01	_
20091112_RATP_SCD_0690	91	2	là	NULL	adv	NULL	B_GADV	NOLINK	0	idtext0093	là	#####	spk1	251.28	251.42	0.01	_
20091112_RATP_SCD_0690	91	3	vous	NULL	cln	NULL	B_GN	NOLINK	0	idtext0093	cln	#2##p##	spk1	251.43	251.56	?	_

20091112_RATP_SCD_0690	92	1	êtes	NULL	v	NULL	B_GVf	ROOT	0	idtext0094	être	P#2##p##	spk1	251.66	251.82	0.01	_
20091112_RATP_SCD_0690	92	2	à+côté+de	NULL	prep	NULL	B_GP	ATS	1	idtext0094	à+côté+de	#####	spk1	251.83	252.23	0.01	_
20091112_RATP_SCD_0690	92	3	la	NULL	det	NULL	I_GP	DET	4	idtext0094	le	##m#s##d	spk1	252.24	252.35	0.01	_
20091112_RATP_SCD_0690	92	4	sous-préfecture	NULL	nc	NULL	I_GP	OBJ	2	idtext0094	sous-préfecture	##f#s##	spk1	252.36	253.27	0.01	_
20091112_RATP_SCD_0690	92	5	de	NULL	prep	NULL	B_GP	DEP	4	idtext0094	de	#####	spk1	253.28	253.44	0.01	_
20091112_RATP_SCD_0690	92	6	Nogent-sur-Marne	NULL	nc	B_A	I_GP	OBJ	5	idtext0094	Nogent-sur-Marne	##m#s##	spk1	253.45	254.24	0.01	_
20091112_RATP_SCD_0690	92	7	hein	DISF_M	pres	I_A	NULL	NOLINK	0	idtext0094	hein	#####	spk1	254.25	254.49	?	//

20091112_RATP_SCD_0690	93	1	O	NULL	nc	NULL	B_GN	NOLINK	0	idtext0095	O	#####	spk2	254.58	254.77	0.01	_
20091112_RATP_SCD_0690	93	2	OK	NULL	adv	NULL	B_GADV	NOLINK	0	idtext0095	ok	#####	spk2	254.78	255.3	?	//

20091112_RATP_SCD_0690	94	1	d'accord	NULL	adv	NULL	B_GADV	NOLINK	0	idtext0096	d'accord	#####	spk1	255.34	256.13	?	//

20091112_RATP_SCD_0690	95	1	vous	NULL	cln	NULL	B_GN	SUJ	3	idtext0097	cln	#2##p##	spk1	256.22	256.37	0.01	_
20091112_RATP_SCD_0690	95	2	en	NULL	clo	NULL	B_GN	OBJ	3	idtext0097	en	#####	spk1	256.38	256.46	0.01	_
20091112_RATP_SCD_0690	95	3	avez	NULL	v	NULL	B_GVf	ROOT	0	idtext0097	avoir	P#2##p##	spk1	256.47	256.64	?	//

20091112_RATP_SCD_0690	96	1	ouais	NULL	adv	NULL	B_GADV	NOLINK	0	idtext0098	ouais	#####	spk2	256.34	256.64	?	//

20091112_RATP_SCD_0690	97	1	pour	NULL	prep	NULL	B_GP	ROOT	0	idtext0099	pour	#####	spk1	256.68	256.76	0.01	_
20091112_RATP_SCD_0690	97	2	vingt-cinq	NULL	adj	NULL	I_GP	MOD	3	idtext0099	vingt-cinq	#####	spk1	256.77	257.05	0.01	_
20091112_RATP_SCD_0690	97	3	minutes	NULL	nc	NULL	I_GP	OBJ	1	idtext0099	minute	##f#p##	spk1	257.06	257.33	0.01	_
20091112_RATP_SCD_0690	97	4	de	NULL	prep	NULL	B_GP	ROOT	0	idtext0099	de	#####	spk1	257.34	257.42	0.01	_
20091112_RATP_SCD_0690	97	5	trajet	NULL	nc	NULL	I_GP	OBJ	4	idtext0099	trajet	##m#s##	spk1	257.43	257.77	0.01	_
20091112_RATP_SCD_0690	97	6	monsieur	NULL	nc	NULL	I_GP	NOLINK	0	idtext0099	Monsieur	##m#s##	spk1	257.78	258.19	?	//

20091112_RATP_SCD_0690	98	1	ah	DISF_M	pres	NULL	NULL	NOLINK	0	idtext0100	ah	#####	spk2	258.27	258.46	0.01	_
20091112_RATP_SCD_0690	98	2	eh+ben	DISF_M	pres	NULL	NULL	NOLINK	0	idtext0100	eh+ben	#####	spk2	258.47	258.9	0.01	_
20091112_RATP_SCD_0690	98	3	si	NULL	csu	NULL	B_NULL	ROOT	0	idtext0100	si	#####	spk2	258.91	259.11	0.01	_
20091112_RATP_SCD_0690	98	4	je	NULL	cln	NULL	B_GN	SUJ	5	idtext0100	cln	#1##s##	spk2	259.12	259.27	0.01	_
20091112_RATP_SCD_0690	98	5	prends	NULL	v	NULL	B_GVf	OBJ	3	idtext0100	prendre	P#12##s##	spk2	259.28	259.58	0.01	_
20091112_RATP_SCD_0690	98	6	par	NULL	prep	NULL	B_GP	P_OBJ_LOC	5	idtext0100	par	#####	spk2	259.59	259.8	0.01	_
20091112_RATP_SCD_0690	98	7	Villiers	NULL	nc	B_A	I_GP	OBJ	6	idtext0100	Villiers	##m#s##	spk2	259.81	260.41	0.01	_
20091112_RATP_SCD_0690	98	8	c'	NULL	cln	NULL	B_GN	SUJ_IMP	9	idtext0100	ce	###s##	spk2	260.42	260.47	0.01	_
20091112_RATP_SCD_0690	98	9	est	NULL	v	NULL	B_GVf	ROOT	0	idtext0100	être	P#3##s##	spk2	260.48	260.58	0.01	_
20091112_RATP_SCD_0690	98	10	ça	NULL	pro	NULL	B_GN	ATS	9	idtext0100	ça	#####	spk2	260.59	260.89	?	_

20091112_RATP_SCD_0690	99	1	là	NULL	adv	NULL	B_GADV	NOLINK	0	idtext0101	là	#####	spk1	261.9	262.03	0.01	_
20091112_RATP_SCD_0690	99	2	c'	NULL	cln	NULL	B_GN	SUJ_IMP	3	idtext0101	ce	###s##	spk1	262.04	262.12	0.01	_
20091112_RATP_SCD_0690	99	3	est	NULL	v	NULL	B_GVf	ROOT	0	idtext0101	être	P#3##s##	spk1	262.13	262.2	0.01	_
20091112_RATP_SCD_0690	99	4	par	NULL	prep	NULL	B_GP	P_OBJ_LOC	3	idtext0101	par	#####	spk1	262.21	262.34	0.01	_
20091112_RATP_SCD_0690	99	5	Champigny	NULL	nc	B_A	I_GP	OBJ	4	idtext0101	Champigny	##m#s##	spk1	262.35	262.84	0.01	_
20091112_RATP_SCD_0690	99	6	monsieur	NULL	nc	NULL	I_GP	NOLINK	0	idtext0101	Monsieur	##m#s##	spk1	262.85	263.24	?	//

20091112_RATP_SCD_0690	100	1	ouais	NULL	adv	NULL	B_GADV	NOLINK	0	idtext0102	ouais	#####	spk2	264.09	264.81	0.01	_
20091112_RATP_SCD_0690	100	2	si	NULL	csu	NULL	B_NULL	ROOT	0	idtext0102	si	#####	spk2	264.82	265.04	0.01	_
20091112_RATP_SCD_0690	100	3	je	NULL	cln	NULL	B_GN	SUJ	4	idtext0102	cln	#1##s##	spk2	265.05	265.12	0.01	_
20091112_RATP_SCD_0690	100	4	prends	NULL	v	NULL	B_GVf	OBJ	2	idtext0102	prendre	P#12##s##	spk2	265.13	265.41	0.01	_
20091112_RATP_SCD_0690	100	5	par	NULL	prep	NULL	B_GP	P_OBJ	4	idtext0102	par	#####	spk2	265.42	265.95	0.01	_
20091112_RATP_SCD_0690	100	6	euh	DISF_M	pres	NULL	NULL	NOLINK	0	idtext0102	euh	#####	spk2	265.96	266.0	0.01	_
20091112_RATP_SCD_0690	100	7	la	NULL	det	NULL	I_GP	DET	8	idtext0102	le	##m#s##d	spk2	266.01	266.17	0.01	_
20091112_RATP_SCD_0690	100	8	gare	NULL	nc	B_A	I_GP	OBJ	5	idtext0102	gare	##f#s##	spk2	266.18	266.41	0.01	_
20091112_RATP_SCD_0690	100	9	de	NULL	prep	I_A	I_GP	DEP	8	idtext0102	de	#####	spk2	266.42	266.55	0.01	_
20091112_RATP_SCD_0690	100	10	Villiers	NULL	np	I_A	I_GP	OBJ	9	idtext0102	Villiers	##m#s##	spk2	266.56	267.14	?	//

20091112_RATP_SCD_0690	101	1	c'	DISF_R	cln	NULL	NULL	NOLINK	0	idtext0103	ce	###s##	spk2	268.02	268.04	0.01	_
20091112_RATP_SCD_0690	101	2	est	DISF_R	v	NULL	NULL	NOLINK	0	idtext0103	être	P#3##s##	spk2	268.05	268.11	0.01	_
20091112_RATP_SCD_0690	101	3	c'	NULL	cln	NULL	B_GN	SUJ_IMP	4	idtext0103	ce	###s##	spk2	268.12	268.2	0.01	_
20091112_RATP_SCD_0690	101	4	est	NULL	v	NULL	B_GVf	ROOT	0	idtext0103	être	P#3##s##	spk2	268.21	268.31	0.01	_
20091112_RATP_SCD_0690	101	5	pareil	NULL	adj	NULL	B_GADJ	ATS	4	idtext0103	pareil	##m#s##	spk2	268.32	268.78	0.01	_
20091112_RATP_SCD_0690	101	6	je	NULL	cln	NULL	B_GN	SUJ	7	idtext0103	cln	#1##s##	spk2	268.79	268.81	0.01	_
20091112_RATP_SCD_0690	101	7	descends	NULL	v	NULL	B_GVf	ROOT	0	idtext0103	descendre	P#12##s##	spk2	268.82	269.09	0.01	_
20091112_RATP_SCD_0690	101	8	à	DISF_R	prep	NULL	NULL	NOLINK	0	idtext0103	à	#####	spk2	269.1	269.79	0.01	_
20091112_RATP_SCD_0690	101	9	à	DISF_R	prep	NULL	NULL	NOLINK	0	idtext0103	à	#####	spk2	269.8	270.84	0.01	_
20091112_RATP_SCD_0690	101	10	à	DISF_R	prep	NULL	NULL	NOLINK	0	idtext0104	à	#####	spk2	270.85	271.47	0.01	_
20091112_RATP_SCD_0690	101	11	à	NULL	prep	NULL	B_GP	P_OBJ_LOC	7	idtext0104	à	#####	spk2	271.48	271.53	0.01	_
20091112_RATP_SCD_0690	101	12	Nogent	NULL	nc	B_A	I_GP	OBJ	11	idtext0104	Nogent	##m#s##	spk2	271.54	272.06	0.01	_
20091112_RATP_SCD_0690	101	13	et	NULL	coo	NULL	B_NULL	COORD	7	idtext0104	et	#####	spk2	272.07	272.3	0.01	_
20091112_RATP_SCD_0690	101	14	je	NULL	cln	NULL	B_GN	SUJ	15	idtext0104	cln	#1##s##	spk2	272.31	272.42	0.01	_
20091112_RATP_SCD_0690	101	15	prends	NULL	v	NULL	B_GVf	DEP_COORD	13	idtext0104	prendre	P#12##s##	spk2	272.43	272.75	0.01	_
20091112_RATP_SCD_0690	101	16	le	NULL	det	NULL	B_GN	DET	17	idtext0104	le	##m#s##d	spk2	272.76	273.1	0.01	_
20091112_RATP_SCD_0690	101	17	bus	NULL	nc	B_T	I_GN	OBJ	15	idtext0104	bus	##m###	spk2	273.11	273.43	0.01	_
20091112_RATP_SCD_0690	101	18	euh	DISF_M	pres	I_T	NULL	NOLINK	0	idtext0104	euh	#####	spk2	273.44	273.49	0.01	_
20091112_RATP_SCD_0690	101	19	deux	NULL	adj	I_T	I_GN	MOD	17	idtext0104	deux	#####	spk2	273.5	273.66	0.01	_
20091112_RATP_SCD_0690	101	20	cent	NULL	adj	I_T	I_GN	MOD	19	idtext0104	cent	#####	spk2	273.67	273.83	0.01	_
20091112_RATP_SCD_0690	101	21	dix	NULL	adj	I_T	I_GN	MOD	20	idtext0104	dix	#####	spk2	273.84	274.16	?	//

20091112_RATP_SCD_0690	102	1	aussi	NULL	adv	NULL	B_GADV	NOLINK	0	idtext0105	aussi	#####	spk2	274.2	274.63	?	//

20091112_RATP_SCD_0690	103	1	donc	NULL	coo	NULL	B_NULL	NOLINK	0	idtext0106	donc	#####	spk1	274.2	274.43	0.01	_
20091112_RATP_SCD_0690	103	2	si	NULL	csu	NULL	B_NULL	NOLINK	0	idtext0106	si	#####	spk1	274.44	274.63	?	_

20091112_RATP_SCD_0690	104	1	vous	NULL	cln	NULL	B_GN	SUJ	2	idtext0107	cln	#2##p##	spk1	274.67	274.72	0.01	_
20091112_RATP_SCD_0690	104	2	prenez	NULL	v	NULL	B_GVf	ROOT	0	idtext0107	prendre	P#2##p##	spk1	274.73	275.03	0.01	_
20091112_RATP_SCD_0690	104	3	à	NULL	prep	NULL	B_GP	P_OBJ_LOC	2	idtext0107	à	#####	spk1	275.04	275.06	0.01	_
20091112_RATP_SCD_0690	104	4	la	NULL	det	NULL	I_GP	DET	5	idtext0107	le	##m#s##d	spk1	275.07	275.21	0.01	_
20091112_RATP_SCD_0690	104	5	gare	NULL	nc	B_A	I_GP	OBJ	3	idtext0107	gare	##f#s##	spk1	275.22	275.39	0.01	_
20091112_RATP_SCD_0690	104	6	du	NULL	prep	I_A	I_GP	DEP	5	idtext0107	du	#####	spk1	275.4	275.56	0.01	_
20091112_RATP_SCD_0690	104	7	Villiers-sur-Marne-Le+Plessis-Trévise	NULL	np	I_A	I_GP	OBJ	6	idtext0107	Villiers-sur-Marne-Le+Plessis-Trévise	#####	spk1	275.57	277.03	0.01	//
20091112_RATP_SCD_0690	104	8	c'	NULL	cln	NULL	B_GN	SUJ_IMP	9	idtext0107	ce	###s##	spk1	277.04	277.11	0.01	_
20091112_RATP_SCD_0690	104	9	est	NULL	v	NULL	B_GVf	ROOT	0	idtext0107	être	P#3##s##	spk1	277.12	277.19	0.01	_
20091112_RATP_SCD_0690	104	10	bien	NULL	adv	NULL	B_GADV	MOD	11	idtext0107	bien	#####	spk1	277.2	277.37	0.01	_
20091112_RATP_SCD_0690	104	11	ça	NULL	pro	NULL	B_GN	ATS	9	idtext0107	ça	#####	spk1	277.38	277.84	?	_

20091112_RATP_SCD_0690	105	1	oui	NULL	adv	NULL	B_GADV	NOLINK	0	idtext0108	oui	#####	spk2	277.98	278.54	?	//

20091112_RATP_SCD_0690	106	1	alors	NULL	adv	NULL	B_GADV	NOLINK	0	idtext0109	alors	#####	spk1	278.73	279.02	0.01	_
20091112_RATP_SCD_0690	106	2	donc	NULL	coo	NULL	B_NULL	ROOT	0	idtext0109	donc	#####	spk1	279.03	279.2	0.01	_
20091112_RATP_SCD_0690	106	3	si	NULL	csu	NULL	B_NULL	ROOT	0	idtext0109	si	#####	spk1	279.21	279.31	0.01	_
20091112_RATP_SCD_0690	106	4	vous	NULL	cln	NULL	B_GN	SUJ	5	idtext0109	cln	#2##p##	spk1	279.32	279.41	0.01	_
20091112_RATP_SCD_0690	106	5	prenez	NULL	v	NULL	B_GVf	OBJ	3	idtext0109	prendre	P#2##p##	spk1	279.42	279.71	0.01	_
20091112_RATP_SCD_0690	106	6	par	NULL	prep	NULL	B_GP	P_OBJ_LOC	5	idtext0109	par	#####	spk1	279.72	279.89	0.01	_
20091112_RATP_SCD_0690	106	7	la	NULL	det	NULL	I_GP	DET	8	idtext0109	le	##m#s##d	spk1	279.9	280.0	0.01	_
20091112_RATP_SCD_0690	106	8	gare	NULL	nc	B_A	I_GP	OBJ	6	idtext0109	gare	##f#s##	spk1	280.01	280.23	0.01	_
20091112_RATP_SCD_0690	106	9	Villiers	NULL	np	I_A	I_GP	MOD	8	idtext0109	Villiers	##m#s##	spk1	280.24	280.61	0.01	_
20091112_RATP_SCD_0690	106	10	Villiers-sur-Marne-Plessis-Trévise	NULL	nc	B_A	I_GP	MOD	8	idtext0109	Villiers-sur-Marne-Plessis-Trévise	#####	spk1	280.62	282.41	0.01	_
20091112_RATP_SCD_0690	106	11	dans+ces+cas-là	NULL	adv	NULL	B_GADV	MOD	13	idtext0110	dans+ces+cas-là	#####	spk1	282.42	282.95	0.01	_
20091112_RATP_SCD_0690	106	12	vous	NULL	cln	NULL	B_GN	SUJ	13	idtext0110	cln	#2##p##	spk1	282.96	283.06	0.01	_
20091112_RATP_SCD_0690	106	13	prenez	NULL	v	NULL	B_GVf	DEP_COORD	2	idtext0110	prendre	P#2##p##	spk1	283.07	283.35	0.01	_
20091112_RATP_SCD_0690	106	14	le	NULL	det	NULL	B_GN	DET	15	idtext0110	le	##m#s##d	spk1	283.36	283.46	0.01	_
20091112_RATP_SCD_0690	106	15	RER+E	NULL	nc	B_T	I_GN	OBJ	13	idtext0110	RER+E	#####	spk1	283.47	284.33	0.01	_
20091112_RATP_SCD_0690	106	16	jusqu'à	NULL	prep	NULL	B_GP	P_OBJ_LOC	15	idtext0110	jusqu'à	#####	spk1	284.34	284.77	0.01	_
20091112_RATP_SCD_0690	106	17	Nogent-Le+Perreux	NULL	nc	B_A	I_GP	OBJ	16	idtext0110	Nogent-Le+Perreux	#####	spk1	284.78	285.77	?	//

20091112_RATP_SCD_0690	107	1	ouais	NULL	adv	NULL	B_GADV	NOLINK	0	idtext0111	ouais	#####	spk2	286.2	286.71	?	//

20091112_RATP_SCD_0690	108	1	ensuite	NULL	adv	NULL	B_GADV	NOLINK	0	idtext0112	ensuite	#####	spk1	287.94	288.28	0.01	_
20091112_RATP_SCD_0690	108	2	à	NULL	prep	NULL	B_GP	MOD	5	idtext0112	à	#####	spk1	288.29	288.34	0.01	_
20091112_RATP_SCD_0690	108	3	Nogent-Le+Perreux	NULL	nc	B_A	I_GP	OBJ	2	idtext0112	Nogent-Le+Perreux	#####	spk1	288.35	289.13	0.01	_
20091112_RATP_SCD_0690	108	4	vous	NULL	cln	NULL	B_GN	SUJ	5	idtext0112	cln	#2##p##	spk1	289.14	289.26	0.01	_
20091112_RATP_SCD_0690	108	5	prenez	NULL	v	NULL	B_GVf	ROOT	0	idtext0112	prendre	P#2##p##	spk1	289.27	289.57	0.01	_
20091112_RATP_SCD_0690	108	6	le	NULL	det	NULL	B_GN	DET	7	idtext0112	le	##m#s##d	spk1	289.58	289.7	0.01	_
20091112_RATP_SCD_0690	108	7	bus	NULL	nc	B_T	I_GN	OBJ	5	idtext0112	bus	##m###	spk1	289.71	289.93	0.01	_
20091112_RATP_SCD_0690	108	8	cent	NULL	adj	I_T	I_GN	MOD	7	idtext0112	cent	#####	spk1	289.94	290.06	0.01	_
20091112_RATP_SCD_0690	108	9	quatorze	NULL	adj	I_T	I_GN	MOD	8	idtext0112	quatorze	#####	spk1	290.07	291.08	?	//

20091112_RATP_SCD_0690	109	1	le	NULL	det	NULL	B_GN	DET	2	idtext0113	le	##m#s##d	spk2	291.31	291.53	0.01	_
20091112_RATP_SCD_0690	109	2	bus	NULL	nc	B_T	I_GN	ROOT	0	idtext0113	bus	##m###	spk2	291.54	291.8	0.01	_
20091112_RATP_SCD_0690	109	3	cent	NULL	adj	I_T	I_GN	MOD	2	idtext0113	cent	#####	spk2	291.81	292.05	0.01	_
20091112_RATP_SCD_0690	109	4	quatorze	NULL	adj	I_T	I_GN	MOD	3	idtext0113	quatorze	#####	spk2	292.06	292.71	?	//

20091112_RATP_SCD_0690	110	1	en	NULL	prep	NULL	B_GP	ROOT	0	idtext0114	en	#####	spk1	292.75	292.84	0.01	_
20091112_RATP_SCD_0690	110	2	direction	NULL	nc	NULL	I_GP	OBJ	1	idtext0114	direction	##f#s##	spk1	292.85	293.26	0.01	_
20091112_RATP_SCD_0690	110	3	de	NULL	prep	NULL	B_GP	DEP	2	idtext0114	de	#####	spk1	293.27	293.32	0.01	_
20091112_RATP_SCD_0690	110	4	Château+de+Vincennes	NULL	nc	B_A	I_GP	OBJ	3	idtext0114	Château+de+Vincennes	#####	spk1	293.33	294.41	?	//

20091112_RATP_SCD_0690	111	1	à	NULL	prep	B_A	B_GN	NOLINK	0	idtext0115	à	#####	spk2	295.12	295.34	0.01	_
20091112_RATP_SCD_0690	111	2	Nogent	DISF_R	np	I_A	NULL	NOLINK	0	idtext0115	Nogent	##m#s##	spk2	295.35	295.59	0.01	_
20091112_RATP_SCD_0690	111	3	à	DISF_R	prep	I_A	NULL	NOLINK	0	idtext0115	à	#####	spk2	295.6	295.7	0.01	_
20091112_RATP_SCD_0690	111	4	Nogent-Le+Perreux	NULL	np	I_A	I_GN	OBJ	1	idtext0115	Nogent-Le+Perreux	#####	spk2	295.71	296.91	?	//

20091112_RATP_SCD_0690	112	1	oui	NULL	adv	NULL	B_GADV	NOLINK	0	idtext0116	oui	#####	spk1	297.03	297.23	?	//

20091112_RATP_SCD_0690	113	1	je	NULL	cln	NULL	B_GN	SUJ	2	idtext0117	cln	#1##s##	spk2	297.69	297.94	0.01	_
20091112_RATP_SCD_0690	113	2	prends	NULL	v	NULL	B_GVf	ROOT	0	idtext0117	prendre	P#12##s##	spk2	297.95	298.18	0.01	_
20091112_RATP_SCD_0690	113	3	euh	DISF_M	pres	NULL	NULL	NOLINK	0	idtext0117	euh	#####	spk2	298.19	298.21	0.01	_
20091112_RATP_SCD_0690	113	4	le	NULL	det	NULL	B_GN	DET	5	idtext0117	le	##m#s##d	spk2	298.22	298.7	0.01	_
20091112_RATP_SCD_0690	113	5	bus	NULL	nc	B_T	I_GN	OBJ	2	idtext0117	bus	##m###	spk2	298.71	299.54	0.01	_
20091112_RATP_SCD_0690	113	6	cent	NULL	adj	I_T	I_GN	MOD	5	idtext0117	cent	#####	spk2	299.55	299.72	0.01	_
20091112_RATP_SCD_0690	113	7	quatorze	NULL	adj	I_T	I_GN	MOD	6	idtext0117	quatorze	#####	spk2	299.73	300.42	?	//

20091112_RATP_SCD_0690	114	1	voilà	DISF_M	pres	NULL	NULL	NOLINK	0	idtext0118	voilà	#####	spk1	300.54	301.04	?	//

20091112_RATP_SCD_0690	115	1	je	NULL	cln	NULL	B_GN	SUJ	3	idtext0119	cln	#1##s##	spk2	301.08	301.28	0.01	_
20091112_RATP_SCD_0690	115	2	euh	DISF_M	pres	NULL	NULL	NOLINK	0	idtext0119	euh	#####	spk2	301.29	301.42	0.01	_
20091112_RATP_SCD_0690	115	3	direction	NULL	nc	NULL	B_GN	ROOT	0	idtext0119	direction	##f#s##	spk2	301.43	301.97	0.01	_
20091112_RATP_SCD_0690	115	4	Château+de+Vincennes	NULL	nc	B_A	I_GN	MOD	3	idtext0119	Château+de+Vincennes	#####	spk2	301.98	302.81	?	//

20091112_RATP_SCD_0690	116	1	et	NULL	coo	NULL	B_NULL	ROOT	0	idtext0120	et	#####	spk1	302.85	302.89	0.01	_
20091112_RATP_SCD_0690	116	2	vous	NULL	cln	NULL	B_GN	SUJ	3	idtext0120	cln	#2##p##	spk1	302.9	303.02	0.01	_
20091112_RATP_SCD_0690	116	3	descendez	NULL	v	NULL	B_GVf	DEP_COORD	1	idtext0120	descendre	P#2##p##	spk1	303.03	303.41	0.01	_
20091112_RATP_SCD_0690	116	4	à	NULL	prep	NULL	B_GP	P_OBJ_LOC	3	idtext0120	à	#####	spk1	303.42	303.57	0.01	_
20091112_RATP_SCD_0690	116	5	sous-préfecture	NULL	nc	B_A	I_GP	OBJ	4	idtext0120	sous-préfecture	##f#s##	spk1	303.58	304.31	0.01	_
20091112_RATP_SCD_0690	116	6	Jules+Ferry	NULL	np	I_A	I_GP	MOD	5	idtext0120	Jules+Ferry	#####	spk1	304.32	305.02	?	_

20091112_RATP_SCD_0690	117	1	toujours	NULL	adv	NULL	B_GADV	NOLINK	0	idtext0121	toujours	#####	spk1	305.19	306.01	?	//

20091112_RATP_SCD_0690	118	1	OK	NULL	adv	NULL	B_GADV	NOLINK	0	idtext0122	ok	#####	spk2	305.4	306.01	?	_

20091112_RATP_SCD_0690	119	1	d'accord	NULL	adv	NULL	B_GADV	NOLINK	0	idtext0123	d'accord	#####	spk1	306.12	306.86	?	//

20091112_RATP_SCD_0690	120	1	OK	DISF_R	adv	NULL	NULL	NOLINK	0	idtext0124	ok	#####	spk2	306.9	307.0	0.01	_
20091112_RATP_SCD_0690	120	2	bien	NULL	adv	NULL	B_GADV	MOD	3	idtext0124	bien	#####	spk2	307.01	307.27	0.01	_
20091112_RATP_SCD_0690	120	3	OK	NULL	adv	NULL	I_GADV	ROOT	0	idtext0124	ok	#####	spk2	307.28	307.8	?	//

20091112_RATP_SCD_0690	121	1	merci	NULL	adv	NULL	B_GADV	NOLINK	0	idtext0125	merci	#####	spk2	307.89	308.62	?	//

20091112_RATP_SCD_0690	122	1	très	NULL	adv	NULL	B_GN	NOLINK	0	idtext0126	très	#####	spk1	308.7	308.91	0.01	_
20091112_RATP_SCD_0690	122	2	bonne	NULL	adj	NULL	I_GN	MOD	3	idtext0126	bon	##f#s##	spk1	308.92	309.05	0.01	_
20091112_RATP_SCD_0690	122	3	journée	NULL	nc	NULL	I_GN	ROOT	0	idtext0126	journée	##f#s##	spk1	309.06	309.21	0.01	_
20091112_RATP_SCD_0690	122	4	monsieur	NULL	nc	NULL	B_GN	NOLINK	0	idtext0126	Monsieur	##m#s##	spk1	309.22	309.44	?	//

20091112_RATP_SCD_0690	123	1	au+revoir	NULL	adv	NULL	B_GADV	NOLINK	0	idtext0127	au+revoir	#####	spk1	309.48	310.01	?	//

20091112_RATP_SCD_0690	124	1	merci	NULL	adv	NULL	B_GADV	NOLINK	0	idtext0128	merci	#####	spk2	309.61	310.01	?	//

20091112_RATP_SCD_0690	125	1	à	NULL	prep	NULL	B_GP	ROOT	0	idtext0129	à	#####	spk2	310.05	310.09	0.01	_
20091112_RATP_SCD_0690	125	2	vous	NULL	pro	NULL	I_GP	OBJ	1	idtext0129	vous	#####	spk2	310.1	310.32	0.01	_
20091112_RATP_SCD_0690	125	3	aussi	NULL	adv	NULL	B_GADV	NOLINK	0	idtext0129	aussi	#####	spk2	310.33	310.73	?	/

