20091112_RATP_SCD_1305	1	1	bonsoir	NULL	nc	NULL	B_GN	NOLINK	0	idtext0000	bonsoir	##m#s##	spk2	3.3	4.05	?	//

20091112_RATP_SCD_1305	2	1	bonsoir	NULL	nc	NULL	B_GN	ROOT	0	idtext0001	bonsoir	##m#s##	spk1	4.09	4.4	0.01	_
20091112_RATP_SCD_1305	2	2	madame	NULL	nc	NULL	I_GN	MOD	1	idtext0001	Monsieur	##f#s##	spk1	4.41	4.81	0.07	_
20091112_RATP_SCD_1305	2	3	euh	DISF_M	pres	NULL	NULL	NOLINK	0	idtext0002	euh	#####	spk1	4.88	4.93	0.01	_
20091112_RATP_SCD_1305	2	4	c'	NULL	cln	NULL	B_GN	SUJ_IMP	5	idtext0002	ce	###s##	spk1	4.94	5.01	0.01	_
20091112_RATP_SCD_1305	2	5	est	NULL	v	NULL	B_GVf	ROOT	0	idtext0002	être	P#3##s##	spk1	5.02	5.47	0.01	_
20091112_RATP_SCD_1305	2	6	pour	NULL	prep	NULL	B_GP	ATS	5	idtext0002	pour	#####	spk1	5.48	5.62	0.01	_
20091112_RATP_SCD_1305	2	7	un	NULL	det	NULL	I_GP	DET	8	idtext0002	un	##m#s##i	spk1	5.63	5.67	0.01	_
20091112_RATP_SCD_1305	2	8	renseignement	NULL	nc	NULL	I_GP	OBJ	6	idtext0002	renseignement	##m#s##	spk1	5.68	6.17	0.01	_
20091112_RATP_SCD_1305	2	9	s'il+vous+plaît	NULL	adv	NULL	B_GADV	NOLINK	0	idtext0002	s'il+vous+plaît	#####	spk1	6.18	6.65	?	//

20091112_RATP_SCD_1305	3	1	oui	NULL	adv	NULL	B_GADV	NOLINK	0	idtext0003	oui	#####	spk2	6.69	7.18	?	//

20091112_RATP_SCD_1305	4	1	voilà	DISF_M	pres	NULL	NULL	NOLINK	0	idtext0004	voilà	#####	spk1	7.33	7.67	0.01	_
20091112_RATP_SCD_1305	4	2	je	DISF_R	cln	NULL	NULL	NOLINK	0	idtext0004	cln	#1##s##	spk1	7.68	7.93	0.01	_
20091112_RATP_SCD_1305	4	3	j'	DISF_R	cln	NULL	NULL	NOLINK	0	idtext0004	cln	#1##s##	spk1	7.94	8.08	0.01	_
20091112_RATP_SCD_1305	4	4	habite	DISF_R	v	NULL	NULL	NOLINK	0	idtext0004	habiter	PS#13##s##	spk1	8.09	8.43	0.01	_
20091112_RATP_SCD_1305	4	5	à	DISF_R	prep	NULL	NULL	NOLINK	0	idtext0004	à	#####	spk1	8.44	9.34	0.01	_
20091112_RATP_SCD_1305	4	6	j'	NULL	cln	NULL	B_GN	SUJ	7	idtext0005	cln	#1##s##	spk1	9.35	9.45	0.01	_
20091112_RATP_SCD_1305	4	7	habite	NULL	v	NULL	B_GVf	ROOT	0	idtext0005	habiter	PS#13##s##	spk1	9.46	9.72	0.01	_
20091112_RATP_SCD_1305	4	8	à	DISF_R	prep	NULL	NULL	NOLINK	0	idtext0005	à	#####	spk1	9.73	9.78	0.01	_
20091112_RATP_SCD_1305	4	9	près+de	NULL	prep	NULL	B_GP	P_OBJ_LOC	7	idtext0005	près+de	#####	spk1	9.79	10.41	0.01	_
20091112_RATP_SCD_1305	4	10	Porte+de+Clichy	NULL	nc	B_A	I_GP	OBJ	9	idtext0005	Porte+de+Clichy	#####	spk1	10.42	11.38	?	//

20091112_RATP_SCD_1305	5	1	oui	NULL	adv	NULL	B_GADV	NOLINK	0	idtext0006	oui	#####	spk2	11.54	12.05	?	//

20091112_RATP_SCD_1305	6	1	et	NULL	coo	NULL	B_NULL	ROOT	0	idtext0007	et	#####	spk1	11.54	11.57	0.01	_
20091112_RATP_SCD_1305	6	2	j'	NULL	cln	NULL	B_GN	SUJ	3	idtext0007	cln	#1##s##	spk1	11.58	11.6	0.01	_
20091112_RATP_SCD_1305	6	3	aimerais	NULL	v	NULL	B_GVf	DEP_COORD	1	idtext0007	aimer	C#12##s##	spk1	11.61	12.05	?	//

20091112_RATP_SCD_1305	7	1	me	NULL	clo	NULL	B_GN	A_OBJ	2	idtext0008	cla	#1##s##	spk1	12.09	12.11	0.01	_
20091112_RATP_SCD_1305	7	2	rendre	NULL	vinf	NULL	B_GVi	ROOT	0	idtext0008	rendre	W#####	spk1	12.12	12.37	0.01	_
20091112_RATP_SCD_1305	7	3	à	NULL	prep	NULL	B_GP	P_OBJ_LOC	2	idtext0008	à	#####	spk1	12.38	12.43	0.01	_
20091112_RATP_SCD_1305	7	4	Massy-Palaiseau	NULL	nc	B_A	I_GP	OBJ	3	idtext0008	Massy-Palaiseau	#####	spk1	12.44	13.16	0.01	_
20091112_RATP_SCD_1305	7	5	en	NULL	prep	NULL	B_GP	MOD	8	idtext0008	en	#####	spk1	13.17	13.27	0.01	_
20091112_RATP_SCD_1305	7	6	bus	NULL	nc	NULL	I_GP	OBJ	5	idtext0008	bus	##m###	spk1	13.28	13.89	0.01	_
20091112_RATP_SCD_1305	7	7	je	NULL	cln	NULL	B_GN	SUJ	8	idtext0009	cln	#1##s##	spk1	13.9	14.05	0.01	_
20091112_RATP_SCD_1305	7	8	prends	NULL	v	NULL	B_GVf	ROOT	0	idtext0009	prendre	P#12##s##	spk1	14.06	14.29	0.01	_
20091112_RATP_SCD_1305	7	9	le	NULL	det	NULL	B_GN	DET	10	idtext0009	le	##m#s##d	spk1	14.3	14.42	0.01	_
20091112_RATP_SCD_1305	7	10	Noctambus	NULL	nc	B_T	I_GN	OBJ	8	idtext0009	Noctambus	#####	spk1	14.43	15.13	0.01	_
20091112_RATP_SCD_1305	7	11	de	DISF_R	prep	I_T	NULL	NOLINK	0	idtext0009	de	#####	spk1	15.14	15.36	0.01	_
20091112_RATP_SCD_1305	7	12	à	NULL	prep	NULL	B_GP	MOD	10	idtext0009	à	#####	spk1	15.37	15.53	0.01	_
20091112_RATP_SCD_1305	7	13	quatre	NULL	det	B_H	I_GP	DET	14	idtext0009	quatre	#####	spk1	15.54	16.06	0.01	_
20091112_RATP_SCD_1305	7	14	heures	NULL	nc	I_H	I_GP	OBJ	12	idtext0009	heure	##f#p##	spk1	16.07	16.38	0.01	_
20091112_RATP_SCD_1305	7	15	euh	DISF_M	pres	I_H	NULL	NOLINK	0	idtext0009	euh	#####	spk1	16.39	16.78	0.01	_
20091112_RATP_SCD_1305	7	16	vingt	DISF_R	adj	I_H	NULL	NOLINK	0	idtext0009	vingt	#####	spk1	16.79	17.12	0.01	_
20091112_RATP_SCD_1305	7	17	trente	DISF_R	adj	I_H	NULL	NOLINK	0	idtext0009	trente	#####	spk1	17.13	17.51	0.01	_
20091112_RATP_SCD_1305	7	18	vingt	NULL	adj	I_H	I_GP	MOD	14	idtext0009	vingt	#####	spk1	17.52	17.77	0.01	/
20091112_RATP_SCD_1305	7	19	d'	NULL	prep	NULL	B_NULL	DEP	14	idtext0009	d'	#####	spk1	17.78	17.84	0.01	_
20091112_RATP_SCD_1305	7	20	ici	NULL	adv	NULL	B_GADV	OBJ	19	idtext0009	ici	#####	spk1	17.85	18.76	0.01	_
20091112_RATP_SCD_1305	7	21	de	NULL	prep	NULL	B_GP	DEP	14	idtext0010	de	#####	spk1	18.77	18.97	0.01	_
20091112_RATP_SCD_1305	7	22	la	NULL	det	NULL	I_GP	DET	23	idtext0010	le	##m#s##d	spk1	18.98	19.05	0.01	_
20091112_RATP_SCD_1305	7	23	Porte+de+Clichy	NULL	nc	B_A	I_GP	OBJ	21	idtext0010	Porte+de+Clichy	#####	spk1	19.06	20.01	?	//

20091112_RATP_SCD_1305	8	1	j'	NULL	cln	NULL	B_GN	SUJ	2	idtext0011	cln	#1##s##	spk1	20.63	20.68	0.01	_
20091112_RATP_SCD_1305	8	2	aimerais	NULL	v	NULL	B_GVf	ROOT	0	idtext0011	aimer	C#12##s##	spk1	20.69	21.12	?	//

20091112_RATP_SCD_1305	9	1	oui	NULL	adv	NULL	B_GADV	NOLINK	0	idtext0012	oui	#####	spk2	20.57	21.12	?	//

20091112_RATP_SCD_1305	10	1	savoir	NULL	vinf	NULL	B_GVi	NOLINK	0	idtext0013	savoir	W#####	spk1	21.25	21.71	0.01	_
20091112_RATP_SCD_1305	10	2	bon	DISF_M	pres	NULL	NULL	NOLINK	0	idtext0013	bon	#####	spk1	21.72	21.94	0.01	_
20091112_RATP_SCD_1305	10	3	est	DISF_R	v	NULL	NULL	NOLINK	0	idtext0013	être	P#3##s##	spk1	21.95	22.07	0.01	_
20091112_RATP_SCD_1305	10	4	est-ce+qu'	NULL	pri	NULL	B_NULL	NOLINK	0	idtext0013	est-ce+qu'	#####	spk1	22.08	22.38	0.01	_
20091112_RATP_SCD_1305	10	5	il	NULL	cln	NULL	B_GN	SUJ	6	idtext0013	cln	#3#m#s##	spk1	22.39	22.48	0.01	_
20091112_RATP_SCD_1305	10	6	est	NULL	v	NULL	B_GVf	ROOT	0	idtext0013	être	P#3##s##	spk1	22.49	22.55	0.01	_
20091112_RATP_SCD_1305	10	7	possible	NULL	adj	NULL	B_GADJ	ATS	6	idtext0013	possible	###s##	spk1	22.56	22.96	0.01	_
20091112_RATP_SCD_1305	10	8	de	NULL	prep	NULL	B_GP	DEP	7	idtext0013	de	#####	spk1	22.97	23.06	0.01	_
20091112_RATP_SCD_1305	10	9	rejoindre	NULL	vinf	NULL	I_GP	OBJ	8	idtext0013	rejoindre	W#####	spk1	23.07	24.14	0.01	_
20091112_RATP_SCD_1305	10	10	euh	DISF_M	pres	NULL	NULL	NOLINK	0	idtext0013	euh	#####	spk1	24.15	24.23	0.01	_
20091112_RATP_SCD_1305	10	11	Porte+d'Orléans	NULL	nc	B_A	B_GN	OBJ	9	idtext0013	Porte+d'Orléans	#####	spk1	24.24	24.88	0.01	_
20091112_RATP_SCD_1305	10	12	pour	NULL	prep	NULL	B_GP	MOD	11	idtext0013	pour	#####	spk1	24.89	25.02	0.01	_
20091112_RATP_SCD_1305	10	13	prendre	NULL	vinf	NULL	I_GP	OBJ	12	idtext0013	prendre	W#####	spk1	25.03	25.29	0.01	_
20091112_RATP_SCD_1305	10	14	le	NULL	det	NULL	B_GN	DET	15	idtext0013	le	##m#s##d	spk1	25.3	25.39	0.01	_
20091112_RATP_SCD_1305	10	15	deux+cent+quatre-vingt-dix-neuf	NULL	nc	B_T	I_GN	OBJ	13	idtext0013	deux+cent+quatre-vingt-dix-neuf	#####	spk1	25.4	26.74	?	_

20091112_RATP_SCD_1305	11	1	ouh+là	DISF_M	pres	NULL	NULL	NOLINK	0	idtext0014	ouh+là	#####	spk2	26.92	27.35	0.01	_
20091112_RATP_SCD_1305	11	2	alors	NULL	adv	NULL	B_GADV	NOLINK	0	idtext0015	alors	#####	spk2	27.36	27.5	0.01	_
20091112_RATP_SCD_1305	11	3	attendez	NULL	v	NULL	B_GVf	NOLINK	0	idtext0015	attendre	P#2##p##	spk2	27.51	28.06	0.01	_
20091112_RATP_SCD_1305	11	4	vous	NULL	cln	NULL	B_GN	SUJ	5	idtext0016	cln	#2##p##	spk2	28.07	28.17	0.01	_
20091112_RATP_SCD_1305	11	5	partez	NULL	v	NULL	B_GVf	ROOT	0	idtext0016	partir	P#2##p##	spk2	28.18	28.47	0.01	_
20091112_RATP_SCD_1305	11	6	de	NULL	prep	NULL	B_GP	P_OBJ_LOC	5	idtext0016	de	#####	spk2	28.48	28.56	0.01	_
20091112_RATP_SCD_1305	11	7	Porte+de+Clichy	NULL	nc	B_A	I_GP	OBJ	6	idtext0016	Porte+de+Clichy	#####	spk2	28.57	29.38	0.01	_
20091112_RATP_SCD_1305	11	8	c'	NULL	cln	NULL	B_GN	SUJ_IMP	9	idtext0016	ce	###s##	spk2	29.39	29.47	0.01	_
20091112_RATP_SCD_1305	11	9	est	NULL	v	NULL	B_GVf	ROOT	0	idtext0016	être	P#3##s##	spk2	29.48	29.51	0.01	_
20091112_RATP_SCD_1305	11	10	bien	NULL	adv	NULL	B_GADV	ATS	9	idtext0016	bien	#####	spk2	29.52	29.65	?	_

20091112_RATP_SCD_1305	12	1	ça	NULL	pro	NULL	B_GN	OBJ	4	idtext0017	ça	#####	spk2	29.72	29.79	0.01	_
20091112_RATP_SCD_1305	12	2	et	NULL	coo	NULL	B_NULL	ROOT	0	idtext0017	et	#####	spk2	29.8	29.82	0.01	_
20091112_RATP_SCD_1305	12	3	vous	NULL	cln	NULL	B_GN	SUJ	4	idtext0017	cln	#2##p##	spk2	29.83	29.93	0.01	_
20091112_RATP_SCD_1305	12	4	voulez	NULL	v	NULL	B_GVf	DEP_COORD	2	idtext0017	vouloir	P#2##p##	spk2	29.94	30.13	?	//

20091112_RATP_SCD_1305	13	1	voilà	DISF_M	pres	NULL	NULL	NOLINK	0	idtext0018	voilà	#####	spk1	29.69	30.13	?	//

20091112_RATP_SCD_1305	14	1	vous	NULL	clr	NULL	B_GVi	AFF	2	idtext0019	cln	#2##p##	spk2	30.18	30.29	0.01	_
20091112_RATP_SCD_1305	14	2	rendre	NULL	vinf	NULL	I_GVi	ROOT	0	idtext0019	rendre	W#####	spk2	30.3	30.43	0.01	_
20091112_RATP_SCD_1305	14	3	à	NULL	prep	NULL	B_NULL	P_OBJ_LOC	2	idtext0019	à	#####	spk2	30.44	30.48	?	_

20091112_RATP_SCD_1305	15	1	Massy-Palaiseau	NULL	nc	B_A	B_GN	ROOT	0	idtext0020	Massy-Palaiseau	#####	spk2	31.49	32.24	0.01	_
20091112_RATP_SCD_1305	15	2	et	NULL	coo	NULL	B_NULL	COORD	1	idtext0020	et	#####	spk2	32.25	32.27	0.01	_
20091112_RATP_SCD_1305	15	3	vous	NULL	cln	NULL	B_GN	SUJ	4	idtext0020	cln	#2##p##	spk2	32.28	32.33	0.01	_
20091112_RATP_SCD_1305	15	4	devez	NULL	v	NULL	B_GVf	DEP_COORD	2	idtext0020	devoir	P#2##p##	spk2	32.34	32.56	?	//

20091112_RATP_SCD_1305	16	1	à	NULL	prep	NULL	B_GP	ROOT	0	idtext0021	à	#####	spk1	31.4	31.49	0.01	_
20091112_RATP_SCD_1305	16	2	Massy-Palaiseau	NULL	nc	B_A	I_GP	OBJ	1	idtext0021	Massy-Palaiseau	#####	spk1	31.5	32.28	0.01	_
20091112_RATP_SCD_1305	16	3	oui	NULL	adv	NULL	B_GADV	NOLINK	0	idtext0021	oui	#####	spk1	32.29	32.56	?	//

20091112_RATP_SCD_1305	17	1	arriver	NULL	vinf	NULL	B_GVi	ROOT	0	idtext0022	arriver	W#####	spk2	32.61	32.81	0.01	_
20091112_RATP_SCD_1305	17	2	à	NULL	prep	NULL	B_GP	P_OBJ_LOC	1	idtext0022	à	#####	spk2	32.82	32.85	0.01	_
20091112_RATP_SCD_1305	17	3	Massy-Palaiseau	NULL	nc	B_A	I_GP	OBJ	2	idtext0022	Massy-Palaiseau	#####	spk2	32.86	33.43	0.01	_
20091112_RATP_SCD_1305	17	4	à	NULL	prep	NULL	B_GP	MOD	3	idtext0022	à	#####	spk2	33.44	33.5	0.01	_
20091112_RATP_SCD_1305	17	5	quelle	NULL	det	NULL	I_GP	DET	6	idtext0022	quel	##f#s##	spk2	33.51	33.76	0.01	_
20091112_RATP_SCD_1305	17	6	heure	NULL	nc	NULL	I_GP	OBJ	4	idtext0022	heure	##f#s##	spk2	33.77	33.9	0.01	_
20091112_RATP_SCD_1305	17	7	monsieur	NULL	nc	NULL	I_GP	MOD	6	idtext0022	Monsieur	##m#s##	spk2	33.91	34.32	?	//

20091112_RATP_SCD_1305	18	1	euh	DISF_M	pres	NULL	NULL	NOLINK	0	idtext0023	euh	#####	spk1	34.36	34.82	0.01	_
20091112_RATP_SCD_1305	18	2	je	NULL	cln	NULL	B_GN	SUJ	3	idtext0023	cln	#1##s##	spk1	34.83	34.94	0.01	_
20091112_RATP_SCD_1305	18	3	dois	NULL	v	NULL	B_GVf	ROOT	0	idtext0023	devoir	P#12##s##	spk1	34.95	35.1	0.01	_
20091112_RATP_SCD_1305	18	4	arriver	NULL	vinf	NULL	I_GVf	OBJ	3	idtext0023	arriver	W#####	spk1	35.11	35.4	0.01	_
20091112_RATP_SCD_1305	18	5	là-bas	NULL	adv	NULL	B_GADV	P_OBJ_LOC	3	idtext0023	là-bas	#####	spk1	35.41	35.93	0.01	_
20091112_RATP_SCD_1305	18	6	vers	NULL	prep	NULL	B_NULL	MOD	5	idtext0023	vers	#####	spk1	35.94	36.37	0.01	_
20091112_RATP_SCD_1305	18	7	euh	DISF_M	pres	NULL	NULL	NOLINK	0	idtext0023	euh	#####	spk1	36.38	37.14	0.01	_
20091112_RATP_SCD_1305	18	8	un+peu	NULL	adv	NULL	B_GADV	MOD	9	idtext0023	un+peu	#####	spk1	37.15	37.44	0.01	_
20091112_RATP_SCD_1305	18	9	moins	NULL	adv	NULL	I_GADV	OBJ	6	idtext0023	moins	#####	spk1	37.45	37.6	0.01	_
20091112_RATP_SCD_1305	18	10	avant	NULL	prep	NULL	B_GP	MOD	5	idtext0023	avant	#####	spk1	37.61	37.78	0.01	_
20091112_RATP_SCD_1305	18	11	six	NULL	det	B_H	I_GP	DET	12	idtext0023	six	#####	spk1	37.79	38.02	0.01	_
20091112_RATP_SCD_1305	18	12	heures	NULL	nc	I_H	I_GP	OBJ	10	idtext0023	heure	##f#p##	spk1	38.03	38.26	?	//

20091112_RATP_SCD_1305	19	1	donc	NULL	coo	NULL	B_NULL	ROOT	0	idtext0024	donc	#####	spk2	38.78	38.93	0.01	_
20091112_RATP_SCD_1305	19	2	on	NULL	cln	NULL	B_GN	SUJ_IMP	3	idtext0024	cln	#3##s##	spk2	38.94	38.97	0.01	_
20091112_RATP_SCD_1305	19	3	va	NULL	v	NULL	B_GVf	DEP_COORD	1	idtext0024	aller	P#3##s##	spk2	38.98	39.08	0.01	_
20091112_RATP_SCD_1305	19	4	mettre	NULL	vinf	NULL	I_GVf	OBJ	3	idtext0024	mettre	W#####	spk2	39.09	39.27	0.01	_
20091112_RATP_SCD_1305	19	5	à	NULL	prep	NULL	B_GP	MOD	3	idtext0024	à	#####	spk2	39.28	39.31	0.01	_
20091112_RATP_SCD_1305	19	6	cinq	NULL	det	B_H	I_GP	DET	7	idtext0024	cinq	#####	spk2	39.32	39.56	0.01	_
20091112_RATP_SCD_1305	19	7	heures	NULL	nc	I_H	I_GP	OBJ	5	idtext0024	heure	##f#p##	spk2	39.57	39.67	0.01	_
20091112_RATP_SCD_1305	19	8	et	NULL	coo	I_H	I_GP	COORD	7	idtext0024	et	#####	spk2	39.68	39.71	0.01	_
20091112_RATP_SCD_1305	19	9	demie	NULL	adj	I_H	I_GP	DEP_COORD	8	idtext0024	demie	#####	spk2	39.72	40.0	0.01	_
20091112_RATP_SCD_1305	19	10	hein	DISF_M	pres	I_H	NULL	NOLINK	0	idtext0024	hein	#####	spk2	40.01	40.23	?	//

20091112_RATP_SCD_1305	20	1	euh	DISF_M	pres	NULL	NULL	NOLINK	0	idtext0025	euh	#####	spk1	40.46	40.58	0.01	_
20091112_RATP_SCD_1305	20	2	non	DISF_R	adv	NULL	NULL	NOLINK	0	idtext0025	non	#####	spk1	40.59	40.89	0.01	_
20091112_RATP_SCD_1305	20	3	non	NULL	adv	NULL	B_GADV	NOLINK	0	idtext0025	non	#####	spk1	40.9	41.19	0.01	_
20091112_RATP_SCD_1305	20	4	disons	GREF	v	NULL	B_GVf	ROOT	0	idtext0025	dire	P#1##p##	spk1	41.2	41.43	0.01	_
20091112_RATP_SCD_1305	20	5	même	NULL	adv	NULL	B_GADV	MOD	7	idtext0025	même	###s##	spk1	41.44	41.63	0.01	_
20091112_RATP_SCD_1305	20	6	six	NULL	det	B_H	B_GN	DET	7	idtext0025	six	#####	spk1	41.64	41.89	0.01	_
20091112_RATP_SCD_1305	20	7	heures	NULL	nc	I_H	I_GN	MOD	5	idtext0025	heure	##f#p##	spk1	41.9	42.2	0.01	_
20091112_RATP_SCD_1305	20	8	six	NULL	det	B_H	I_GN	DET	9	idtext0025	six	#####	spk1	42.21	42.36	0.01	_
20091112_RATP_SCD_1305	20	9	heures	NULL	nc	I_H	I_GN	MOD	7	idtext0025	heure	##f#p##	spk1	42.37	42.46	0.01	_
20091112_RATP_SCD_1305	20	10	moins	NULL	adv	I_H	I_GN	MOD	9	idtext0025	moins	#####	spk1	42.47	42.68	0.01	_
20091112_RATP_SCD_1305	20	11	dix	NULL	adj	I_H	I_GN	OBJ	10	idtext0025	dix	#####	spk1	42.69	42.88	0.01	_
20091112_RATP_SCD_1305	20	12	six	NULL	det	B_H	B_GN	DET	13	idtext0025	six	#####	spk1	42.89	43.02	0.01	_
20091112_RATP_SCD_1305	20	13	heures	NULL	nc	I_H	I_GN	MOD	5	idtext0025	heure	##f#p##	spk1	43.03	43.11	0.01	_
20091112_RATP_SCD_1305	20	14	moins	NULL	adv	I_H	I_GN	MOD	13	idtext0025	moins	#####	spk1	43.12	43.26	0.01	_
20091112_RATP_SCD_1305	20	15	le	NULL	det	I_H	I_GN	DET	16	idtext0025	le	##m#s##d	spk1	43.27	43.32	0.01	_
20091112_RATP_SCD_1305	20	16	quart	NULL	nc	I_H	I_GN	OBJ	14	idtext0025	quart	##m#s##	spk1	43.33	43.68	?	//

20091112_RATP_SCD_1305	21	1	d'accord	NULL	adv	NULL	B_GADV	MOD	2	idtext0026	d'accord	#####	spk2	44.66	44.95	0.01	_
20091112_RATP_SCD_1305	21	2	très+bien	NULL	adv	NULL	I_GADV	ROOT	0	idtext0026	très+bien	#####	spk2	44.96	45.23	0.01	_
20091112_RATP_SCD_1305	21	3	vous	NULL	cln	NULL	B_GN	SUJ	4	idtext0026	cln	#2##p##	spk2	45.24	45.33	0.01	_
20091112_RATP_SCD_1305	21	4	patientez	NULL	v	NULL	B_GVf	ROOT	0	idtext0026	patienter	P#2##p##	spk2	45.34	45.76	0.01	_
20091112_RATP_SCD_1305	21	5	donc	NULL	coo	NULL	B_NULL	COORD	4	idtext0026	donc	#####	spk2	45.77	45.93	0.01	_
20091112_RATP_SCD_1305	21	6	un	NULL	det	NULL	B_GN	DET	7	idtext0026	un	##m#s##i	spk2	45.94	45.99	0.01	_
20091112_RATP_SCD_1305	21	7	départ	NULL	nc	NULL	I_GN	DEP_COORD	5	idtext0026	départ	##m#s##	spk2	46.0	46.27	0.01	_
20091112_RATP_SCD_1305	21	8	de	NULL	prep	NULL	B_GP	P_OBJ_LOC	7	idtext0026	de	#####	spk2	46.28	46.36	0.01	_
20091112_RATP_SCD_1305	21	9	Porte+de+Clichy	NULL	nc	B_A	I_GP	OBJ	8	idtext0026	Porte+de+Clichy	#####	spk2	46.37	46.96	0.01	_
20091112_RATP_SCD_1305	21	10	à	NULL	prep	NULL	B_GP	MOD	7	idtext0026	à	#####	spk2	46.97	47.0	0.01	_
20091112_RATP_SCD_1305	21	11	Massy-Palaiseau	NULL	nc	B_A	I_GP	OBJ	10	idtext0026	Massy-Palaiseau	#####	spk2	47.01	47.75	0.01	_
20091112_RATP_SCD_1305	21	12	hein	DISF_M	pres	I_A	NULL	NOLINK	0	idtext0026	hein	#####	spk2	47.76	47.85	0.01	_
20091112_RATP_SCD_1305	21	13	patientez	NULL	v	NULL	B_GVf	NOLINK	0	idtext0026	patienter	P#2##p##	spk2	47.86	48.39	0.01	_
20091112_RATP_SCD_1305	21	14	hein	DISF_M	pres	NULL	NULL	NOLINK	0	idtext0026	hein	#####	spk2	48.4	48.51	?	//

20091112_RATP_SCD_1305	22	1	merci	NULL	adv	NULL	B_GADV	NOLINK	0	idtext0027	merci	#####	spk2	48.6	49.12	?	//

20091112_RATP_SCD_1305	23	1	oui	NULL	adv	NULL	B_GADV	NOLINK	0	idtext0028	oui	#####	spk1	48.57	48.67	0.01	_
20091112_RATP_SCD_1305	23	2	madame	NULL	nc	NULL	B_GN	NOLINK	0	idtext0028	Monsieur	##f#s##	spk1	48.68	49.12	?	//

20091112_RATP_SCD_1305	24	1	merci	NULL	adv	NULL	B_GADV	MOD	2	idtext0029	merci	#####	spk1	49.17	49.38	0.01	_
20091112_RATP_SCD_1305	24	2	beaucoup	NULL	adv	NULL	I_GADV	ROOT	0	idtext0029	beaucoup	#####	spk1	49.39	49.92	?	//

20091112_RATP_SCD_1305	25	1	s'il+vous+plaît	NULL	adv	NULL	B_GADV	NOLINK	0	idtext0030	s'il+vous+plaît	#####	spk2	124.59	125.21	0.01	_
20091112_RATP_SCD_1305	25	2	monsieur	NULL	nc	NULL	B_GN	NOLINK	0	idtext0030	Monsieur	##m#s##	spk2	125.22	125.52	?	//

20091112_RATP_SCD_1305	26	1	alors	NULL	adv	NULL	B_GADV	NOLINK	0	idtext0031	alors	#####	spk2	125.68	126.14	?	//

20091112_RATP_SCD_1305	27	1	oui	NULL	adv	NULL	B_GADV	NOLINK	0	idtext0032	oui	#####	spk1	125.7	125.86	0.01	_
20091112_RATP_SCD_1305	27	2	madame	NULL	nc	NULL	B_GN	NOLINK	0	idtext0032	Monsieur	##f#s##	spk1	125.87	126.14	?	//

20091112_RATP_SCD_1305	28	1	j'	NULL	cln	NULL	B_GN	SUJ	2	idtext0033	cln	#1##s##	spk2	126.42	126.44	0.01	_
20091112_RATP_SCD_1305	28	2	ai	NULL	v	NULL	B_GVf	ROOT	0	idtext0033	avoir	P#1##s##	spk2	126.45	126.48	0.01	_
20091112_RATP_SCD_1305	28	3	un	NULL	det	NULL	B_GN	DET	4	idtext0033	un	##m#s##i	spk2	126.49	126.54	0.01	_
20091112_RATP_SCD_1305	28	4	itinéraire	NULL	nc	NULL	I_GN	OBJ	2	idtext0033	itinéraire	##m#s##	spk2	126.55	127.43	?	//

20091112_RATP_SCD_1305	29	1	ça	NULL	pro	NULL	B_GN	SUJ_IMP	3	idtext0034	ça	#####	spk2	127.64	127.76	0.01	_
20091112_RATP_SCD_1305	29	2	vous	NULL	clo	NULL	B_GN	OBJ	3	idtext0034	cln	#2##p##	spk2	127.77	127.84	0.01	_
20091112_RATP_SCD_1305	29	3	fait	NULL	v	NULL	B_GVf	ROOT	0	idtext0034	faire	P#3##s##	spk2	127.85	127.97	?	//

20091112_RATP_SCD_1305	30	1	oui	NULL	adv	NULL	B_GADV	NOLINK	0	idtext0035	oui	#####	spk1	127.7	127.97	?	//

20091112_RATP_SCD_1305	31	1	partir	NULL	vinf	NULL	B_GVi	ROOT	0	idtext0036	partir	W#####	spk2	128.3	128.48	0.01	_
20091112_RATP_SCD_1305	31	2	à	NULL	prep	NULL	B_GP	MOD	1	idtext0036	à	#####	spk2	128.49	128.52	0.01	_
20091112_RATP_SCD_1305	31	3	quatre	NULL	det	B_H	I_GP	DET	4	idtext0036	quatre	#####	spk2	128.53	128.85	0.01	_
20091112_RATP_SCD_1305	31	4	heures	NULL	nc	I_H	I_GP	OBJ	2	idtext0036	heure	##f#p##	spk2	128.86	129.0	0.01	_
20091112_RATP_SCD_1305	31	5	neuf	NULL	adj	I_H	I_GP	MOD	4	idtext0036	neuf	##m#s##	spk2	129.01	129.44	0.01	_
20091112_RATP_SCD_1305	31	6	de	NULL	prep	NULL	B_GP	DEP	4	idtext0036	de	#####	spk2	129.45	129.55	0.01	_
20091112_RATP_SCD_1305	31	7	Porte+de+Clichy	NULL	nc	B_A	I_GP	OBJ	6	idtext0036	Porte+de+Clichy	#####	spk2	129.56	130.35	?	//

20091112_RATP_SCD_1305	32	1	oui	NULL	adv	NULL	B_GADV	NOLINK	0	idtext0037	oui	#####	spk1	130.47	130.85	?	//

20091112_RATP_SCD_1305	33	1	alors	NULL	adv	NULL	B_GADV	NOLINK	0	idtext0038	alors	#####	spk2	131.0	131.34	0.01	_
20091112_RATP_SCD_1305	33	2	vous	NULL	cln	NULL	B_GN	SUJ	3	idtext0038	cln	#2##p##	spk2	131.35	131.49	0.01	_
20091112_RATP_SCD_1305	33	3	prenez	NULL	v	NULL	B_GVf	ROOT	0	idtext0038	prendre	P#2##p##	spk2	131.5	131.79	0.01	_
20091112_RATP_SCD_1305	33	4	donc	NULL	coo	NULL	B_NULL	NOLINK	0	idtext0038	donc	#####	spk2	131.8	131.91	?	_

20091112_RATP_SCD_1305	34	1	le	NULL	det	NULL	B_GN	DET	2	idtext0039	le	##m#s##d	spk2	131.96	132.15	0.01	_
20091112_RATP_SCD_1305	34	2	N	NULL	nc	NULL	I_GN	ROOT	0	idtext0039	N	#####	spk2	132.16	132.38	?	//

20091112_RATP_SCD_1305	35	1	quinze	NULL	nc	NULL	B_GN	NOLINK	0	idtext0040	quinze	##m###	spk2	132.42	133.07	?	_

20091112_RATP_SCD_1305	36	1	le	NULL	det	NULL	B_GN	DET	2	idtext0041	le	##m#s##d	spk1	133.18	133.42	0.01	_
20091112_RATP_SCD_1305	36	2	N	NULL	nc	NULL	I_GN	ROOT	0	idtext0041	N	#####	spk1	133.43	133.59	0.01	_
20091112_RATP_SCD_1305	36	3	quinze	NULL	adj	NULL	I_GN	MOD	2	idtext0041	quinze	#####	spk1	133.6	134.15	?	//

20091112_RATP_SCD_1305	37	1	à	NULL	prep	NULL	B_GP	ROOT	0	idtext0042	à	#####	spk2	134.19	134.24	0.01	_
20091112_RATP_SCD_1305	37	2	Porte+de+Clichy	NULL	nc	B_A	I_GP	OBJ	1	idtext0042	Porte+de+Clichy	#####	spk2	134.25	135.15	?	//

20091112_RATP_SCD_1305	38	1	oui	NULL	adv	NULL	B_GADV	NOLINK	0	idtext0043	oui	#####	spk1	135.22	135.64	?	//

20091112_RATP_SCD_1305	39	1	direction	NULL	nc	NULL	B_GN	NOLINK	0	idtext0044	direction	##f#s##	spk2	135.78	136.52	0.01	_
20091112_RATP_SCD_1305	39	2	Louis+Aragon	NULL	nc	B_A	B_GN	ROOT	0	idtext0044	Louis+Aragon	#####	spk2	136.53	137.22	0.01	_
20091112_RATP_SCD_1305	39	3	métro	NULL	nc	NULL	I_GN	MOD	2	idtext0044	métro	##m#s##	spk2	137.23	137.87	?	//

20091112_RATP_SCD_1305	40	1	Louis+Aragon	NULL	nc	B_A	B_GN	NOLINK	0	idtext0045	Louis+Aragon	#####	spk1	138.41	139.21	?	//

20091112_RATP_SCD_1305	41	1	et	NULL	coo	NULL	B_NULL	ROOT	0	idtext0046	et	#####	spk2	139.5	139.61	0.01	_
20091112_RATP_SCD_1305	41	2	vous	NULL	cln	NULL	B_GN	SUJ	3	idtext0047	cln	#2##p##	spk2	139.62	139.7	0.01	_
20091112_RATP_SCD_1305	41	3	descendez	NULL	v	NULL	B_GVf	DEP_COORD	1	idtext0047	descendre	P#2##p##	spk2	139.71	140.17	0.01	_
20091112_RATP_SCD_1305	41	4	à	NULL	prep	NULL	B_GP	P_OBJ_LOC	3	idtext0047	à	#####	spk2	140.18	140.21	0.01	_
20091112_RATP_SCD_1305	41	5	la	NULL	det	NULL	I_GP	DET	6	idtext0047	le	##m#s##d	spk2	140.22	140.3	0.01	_
20091112_RATP_SCD_1305	41	6	station	NULL	nc	B_A	I_GP	OBJ	4	idtext0047	station	##f#s##	spk2	140.31	140.81	0.01	_
20091112_RATP_SCD_1305	41	7	Les+Gobelins	NULL	np	I_A	I_GP	MOD	6	idtext0047	Les+Gobelins	#####	spk2	140.82	141.67	?	//

20091112_RATP_SCD_1305	42	1	Louis+Aragon	NULL	nc	B_A	B_GN	NOLINK	0	idtext0048	Louis+Aragon	#####	spk1	142.82	143.48	0.01	_
20091112_RATP_SCD_1305	42	2	excusez	NULL	v	NULL	B_GVf	ROOT	0	idtext0048	excuser	P#2##p##	spk1	143.49	143.8	0.01	_
20091112_RATP_SCD_1305	42	3	-moi	NULL	clo	NULL	B_GN	OBJ	2	idtext0048	cla	#1##s##	spk1	143.81	144.06	0.01	_
20091112_RATP_SCD_1305	42	4	Les+Gobelins	NULL	nc	B_A	B_GN	OBJ	2	idtext0048	Les+Gobelins	#####	spk1	144.07	145.03	?	/

20091112_RATP_SCD_1305	43	1	oui	NULL	adv	NULL	B_GADV	NOLINK	0	idtext0049	oui	#####	spk1	146.37	146.75	?	//

20091112_RATP_SCD_1305	44	1	et	NULL	coo	NULL	B_NULL	ROOT	0	idtext0050	et	#####	spk2	146.88	147.0	0.01	_
20091112_RATP_SCD_1305	44	2	là	NULL	adv	NULL	B_GADV	NOLINK	0	idtext0050	là	#####	spk2	147.01	147.25	0.01	_
20091112_RATP_SCD_1305	44	3	vous	NULL	cln	NULL	B_GN	SUJ	4	idtext0050	cln	#2##p##	spk2	147.26	147.45	0.01	_
20091112_RATP_SCD_1305	44	4	récupérez	NULL	v	NULL	B_GVf	DEP_COORD	1	idtext0050	récupérer	P#2##p##	spk2	147.46	148.41	0.01	_
20091112_RATP_SCD_1305	44	5	donc	NULL	coo	NULL	B_NULL	ROOT	0	idtext0050	donc	#####	spk2	148.42	149.01	0.01	_
20091112_RATP_SCD_1305	44	6	le	NULL	det	NULL	B_GN	DET	7	idtext0050	le	##m#s##d	spk2	149.02	149.24	0.01	_
20091112_RATP_SCD_1305	44	7	bus	NULL	nc	B_T	I_GN	DEP_COORD	5	idtext0050	bus	##m###	spk2	149.25	150.03	0.01	_
20091112_RATP_SCD_1305	44	8	Nocitlien	NULL	np	I_T	I_GN	MOD	7	idtext0050	Nocitlien	#####	spk2	150.04	150.88	0.01	_
20091112_RATP_SCD_1305	44	9	N+zéro+deux	NULL	adj	I_T	I_GN	MOD	8	idtext0050	N+zéro+deux	#####	spk2	150.89	151.81	?	//

20091112_RATP_SCD_1305	45	1	N+zéro+deux	NULL	nc	B_T	B_GN	NOLINK	0	idtext0051	N+zéro+deux	#####	spk1	152.28	153.07	0.01	//
20091112_RATP_SCD_1305	45	2	ah	DISF_M	pres	I_T	NULL	NOLINK	0	idtext0051	ah	#####	spk1	153.08	153.22	0.01	_
20091112_RATP_SCD_1305	45	3	oui	NULL	adv	NULL	B_GADV	NOLINK	0	idtext0051	oui	#####	spk1	153.23	153.54	?	_

20091112_RATP_SCD_1305	46	1	oui	NULL	adv	NULL	B_GADV	NOLINK	0	idtext0052	oui	#####	spk1	154.75	155.22	?	//

20091112_RATP_SCD_1305	47	1	en	NULL	prep	NULL	B_GP	ROOT	0	idtext0053	en	#####	spk2	155.26	155.33	0.01	_
20091112_RATP_SCD_1305	47	2	direction	NULL	nc	NULL	I_GP	OBJ	1	idtext0053	direction	##f#s##	spk2	155.34	155.76	0.01	/
20091112_RATP_SCD_1305	47	3	de	NULL	prep	NULL	B_GP	DEP	2	idtext0053	de	#####	spk2	155.77	155.92	0.01	_
20091112_RATP_SCD_1305	47	4	Gare+Montparnasse	NULL	nc	B_A	I_GP	OBJ	3	idtext0053	Gare+Montparnasse	#####	spk2	155.93	157.3	?	//

20091112_RATP_SCD_1305	48	1	Montparnasse	NULL	nc	B_A	B_GN	NOLINK	0	idtext0054	Montparnasse	#####	spk1	157.58	158.45	?	//

20091112_RATP_SCD_1305	49	1	jusqu'à	NULL	prep	NULL	B_GP	ROOT	0	idtext0055	jusqu'à	#####	spk2	160.0	160.52	0.01	_
20091112_RATP_SCD_1305	49	2	l'	NULL	det	NULL	I_GP	DET	3	idtext0055	le	###s##d	spk2	160.53	160.59	0.01	_
20091112_RATP_SCD_1305	49	3	arrêt	NULL	nc	B_A	I_GP	OBJ	1	idtext0055	arrêt	##m#s##	spk2	160.6	161.43	0.01	_
20091112_RATP_SCD_1305	49	4	gare	NULL	nc	I_A	I_GP	MOD	3	idtext0055	gare	##f#s##	spk2	161.44	161.61	0.01	_
20091112_RATP_SCD_1305	49	5	d'	NULL	prep	I_A	I_GP	DEP	4	idtext0055	d'	#####	spk2	161.62	161.67	0.01	_
20091112_RATP_SCD_1305	49	6	Austerlitz	NULL	np	I_A	I_GP	OBJ	5	idtext0055	Austerlitz	#####	spk2	161.68	162.65	?	//

20091112_RATP_SCD_1305	50	1	jusqu'à	NULL	prep	NULL	B_NULL	NOLINK	0	idtext0056	jusqu'à	#####	spk1	162.79	163.59	?	_

20091112_RATP_SCD_1305	51	1	g()	DISF_T	tronc	NULL	NULL	NOLINK	0	idtext0057	g()	#####	spk1	164.37	164.68	0.01	_
20091112_RATP_SCD_1305	51	2	Austerlitz	NULL	nc	B_A	B_GN	NOLINK	0	idtext0057	Austerlitz	#####	spk1	164.69	165.94	?	//

20091112_RATP_SCD_1305	52	1	et	NULL	coo	NULL	B_NULL	ROOT	0	idtext0058	et	#####	spk2	166.46	166.73	0.01	_
20091112_RATP_SCD_1305	52	2	arrivé	NULL	vppart	NULL	B_GVf	DEP_COORD	1	idtext0058	arriver	K##m#s##	spk2	166.74	167.03	0.01	_
20091112_RATP_SCD_1305	52	3	à	NULL	prep	NULL	B_GP	P_OBJ_LOC	2	idtext0058	à	#####	spk2	167.04	167.08	0.01	_
20091112_RATP_SCD_1305	52	4	gare	NULL	nc	B_A	I_GP	OBJ	3	idtext0058	gare	##f#s##	spk2	167.09	167.24	0.01	_
20091112_RATP_SCD_1305	52	5	d'	NULL	prep	I_A	I_GP	DEP	4	idtext0058	d'	#####	spk2	167.25	167.32	0.01	_
20091112_RATP_SCD_1305	52	6	Austerlitz	NULL	np	I_A	I_GP	OBJ	5	idtext0058	Austerlitz	#####	spk2	167.33	167.73	0.01	_
20091112_RATP_SCD_1305	52	7	donc	NULL	coo	NULL	B_NULL	COORD	2	idtext0058	donc	#####	spk2	167.74	167.83	0.01	_
20091112_RATP_SCD_1305	52	8	vous	NULL	cln	NULL	B_GN	SUJ	9	idtext0058	cln	#2##p##	spk2	167.84	167.89	0.01	_
20091112_RATP_SCD_1305	52	9	arrivez	NULL	v	NULL	B_GVf	DEP_COORD	7	idtext0058	arriver	P#2##p##	spk2	167.9	168.09	0.01	_
20091112_RATP_SCD_1305	52	10	à	NULL	prep	NULL	B_GP	P_OBJ_LOC	9	idtext0058	à	#####	spk2	168.1	168.13	0.01	_
20091112_RATP_SCD_1305	52	11	gare	NULL	nc	B_A	I_GP	OBJ	10	idtext0058	gare	##f#s##	spk2	168.14	168.27	0.01	_
20091112_RATP_SCD_1305	52	12	d'	NULL	prep	I_A	I_GP	DEP	11	idtext0058	d'	#####	spk2	168.28	168.3	0.01	_
20091112_RATP_SCD_1305	52	13	Austerlitz	NULL	np	I_A	I_GP	OBJ	12	idtext0058	Austerlitz	#####	spk2	168.31	168.85	0.01	/
20091112_RATP_SCD_1305	52	14	vers	NULL	prep	NULL	B_GP	MOD	9	idtext0058	vers	#####	spk2	168.86	169.17	0.01	_
20091112_RATP_SCD_1305	52	15	cinq	NULL	nc	NULL	I_GP	OBJ	14	idtext0058	cinq	##m###	spk2	169.18	169.38	?	_

20091112_RATP_SCD_1305	53	1	heures	NULL	nc	NULL	B_GN	NOLINK	0	idtext0059	heure	##f#p##	spk2	169.49	170.07	0.01	/
20091112_RATP_SCD_1305	53	2	vous	NULL	cln	NULL	B_GN	SUJ	3	idtext0059	cln	#2##p##	spk2	170.08	170.23	0.01	_
20091112_RATP_SCD_1305	53	3	récupérez	NULL	v	NULL	B_GVf	ROOT	0	idtext0059	récupérer	P#2##p##	spk2	170.24	171.1	?	//

20091112_RATP_SCD_1305	54	1	hm	DISF_M	pres	NULL	NULL	NOLINK	0	idtext0060	hm	#####	spk1	170.05	170.61	0.01	_
20091112_RATP_SCD_1305	54	2	oui	NULL	adv	NULL	B_GADV	NOLINK	0	idtext0060	oui	#####	spk1	170.62	171.1	?	//

20091112_RATP_SCD_1305	55	1	euh	DISF_M	pres	NULL	NULL	NOLINK	0	idtext0061	euh	#####	spk2	171.43	171.74	0.01	_
20091112_RATP_SCD_1305	55	2	le	NULL	det	NULL	B_GN	DET	3	idtext0061	le	##m#s##d	spk2	171.75	172.96	0.01	_
20091112_RATP_SCD_1305	55	3	RER+C	NULL	nc	B_T	I_GN	ROOT	0	idtext0061	RER+C	#####	spk2	172.97	173.69	?	//

20091112_RATP_SCD_1305	56	1	le	NULL	det	NULL	B_NULL	NOLINK	0	idtext0062	le	##m#s##d	spk1	174.46	174.79	?	//

20091112_RATP_SCD_1305	57	1	RER+C	NULL	nc	B_T	B_GN	NOLINK	0	idtext0063	RER+C	#####	spk2	174.89	175.69	?	//

20091112_RATP_SCD_1305	58	1	RER+C	NULL	nc	B_T	B_GN	NOLINK	0	idtext0064	RER+C	#####	spk1	175.91	176.86	?	//

20091112_RATP_SCD_1305	59	1	hum	DISF_M	pres	NULL	NULL	NOLINK	0	idtext0065	hum	#####	spk1	178.29	178.4	?	//

20091112_RATP_SCD_1305	60	1	qui	NULL	prorel	NULL	B_NULL	SUJ	2	idtext0066	qui	#####	spk2	178.58	178.67	0.01	_
20091112_RATP_SCD_1305	60	2	est	NULL	v	NULL	B_GVf	ROOT	0	idtext0066	être	P#3##s##	spk2	178.68	178.82	0.01	_
20091112_RATP_SCD_1305	60	3	à	NULL	prep	NULL	B_GP	ATS	2	idtext0066	à	#####	spk2	178.83	178.87	0.01	_
20091112_RATP_SCD_1305	60	4	cinq	NULL	det	B_H	I_GP	DET	5	idtext0066	cinq	#####	spk2	178.88	179.14	0.01	_
20091112_RATP_SCD_1305	60	5	heures	NULL	nc	I_H	I_GP	OBJ	3	idtext0066	heure	##f#p##	spk2	179.15	179.36	0.01	_
20091112_RATP_SCD_1305	60	6	sept	NULL	adj	I_H	I_GP	MOD	5	idtext0066	sept	#####	spk2	179.37	179.99	?	//

20091112_RATP_SCD_1305	61	1	C	NULL	nc	NULL	B_GN	ROOT	0	idtext0067	C	#####	spk1	180.95	181.3	0.01	/
20091112_RATP_SCD_1305	61	2	et	NULL	coo	NULL	B_NULL	COORD	1	idtext0067	et	#####	spk1	181.31	181.45	0.01	_
20091112_RATP_SCD_1305	61	3	à	NULL	prep	NULL	B_GP	DEP_COORD	2	idtext0067	à	#####	spk1	181.46	182.31	0.01	_
20091112_RATP_SCD_1305	61	4	cinq	NULL	det	B_H	I_GP	DET	5	idtext0067	cinq	#####	spk1	182.32	182.53	0.01	_
20091112_RATP_SCD_1305	61	5	heures	NULL	nc	I_H	I_GP	OBJ	3	idtext0067	heure	##f#p##	spk1	182.54	182.87	0.01	_
20091112_RATP_SCD_1305	61	6	sept	NULL	adj	I_H	I_GP	MOD	5	idtext0067	sept	#####	spk1	182.88	183.13	0.01	_
20091112_RATP_SCD_1305	61	7	oui	NULL	adv	NULL	B_GADV	NOLINK	0	idtext0067	oui	#####	spk1	183.14	183.38	?	//

20091112_RATP_SCD_1305	62	1	vous	NULL	cln	NULL	B_GN	SUJ	3	idtext0068	cln	#2##p##	spk2	183.73	183.81	0.01	_
20091112_RATP_SCD_1305	62	2	le	NULL	clo	NULL	B_GN	OBJ	3	idtext0068	cla	#3#m#s##	spk2	183.82	183.85	0.01	_
20091112_RATP_SCD_1305	62	3	récupérez	NULL	v	NULL	B_GVf	ROOT	0	idtext0068	récupérer	P#2##p##	spk2	183.86	184.46	0.01	_
20091112_RATP_SCD_1305	62	4	donc	DISF_R	coo	NULL	NULL	NOLINK	0	idtext0068	donc	#####	spk2	184.47	184.9	0.01	_
20091112_RATP_SCD_1305	62	5	euh	DISF_M	pres	NULL	NULL	NOLINK	0	idtext0068	euh	#####	spk2	184.91	185.11	0.01	_
20091112_RATP_SCD_1305	62	6	donc	NULL	coo	NULL	B_NULL	NOLINK	0	idtext0068	donc	#####	spk2	185.12	185.38	0.01	_
20091112_RATP_SCD_1305	62	7	à	NULL	prep	NULL	B_GP	P_OBJ_LOC	3	idtext0068	à	#####	spk2	185.39	185.42	0.01	_
20091112_RATP_SCD_1305	62	8	gare	NULL	nc	B_A	I_GP	OBJ	7	idtext0068	gare	##f#s##	spk2	185.43	185.57	0.01	_
20091112_RATP_SCD_1305	62	9	d'	NULL	prep	I_A	I_GP	DEP	8	idtext0068	d'	#####	spk2	185.58	185.62	0.01	_
20091112_RATP_SCD_1305	62	10	Austerlitz	NULL	np	I_A	I_GP	OBJ	9	idtext0068	Austerlitz	#####	spk2	185.63	186.08	0.01	_
20091112_RATP_SCD_1305	62	11	en	NULL	prep	NULL	B_GP	MOD	8	idtext0068	en	#####	spk2	186.09	186.14	0.01	_
20091112_RATP_SCD_1305	62	12	direction	NULL	nc	NULL	I_GP	OBJ	11	idtext0068	direction	##f#s##	spk2	186.15	186.44	0.01	_
20091112_RATP_SCD_1305	62	13	de	NULL	prep	NULL	B_GP	DEP	12	idtext0068	de	#####	spk2	186.45	186.5	0.01	_
20091112_RATP_SCD_1305	62	14	Massy-Palaiseau	NULL	nc	B_A	I_GP	OBJ	13	idtext0068	Massy-Palaiseau	#####	spk2	186.51	187.42	?	//

20091112_RATP_SCD_1305	63	1	oui	NULL	adv	NULL	B_GADV	NOLINK	0	idtext0069	oui	#####	spk1	187.63	188.08	?	//

20091112_RATP_SCD_1305	64	1	jusqu'à	NULL	prep	NULL	B_GP	MOD	4	idtext0070	jusqu'à	#####	spk2	188.17	188.53	0.01	_
20091112_RATP_SCD_1305	64	2	Massy-Palaiseau	NULL	nc	B_A	I_GP	OBJ	1	idtext0070	Massy-Palaiseau	#####	spk2	188.54	189.15	0.01	_
20091112_RATP_SCD_1305	64	3	vous	NULL	cln	NULL	B_GN	SUJ	4	idtext0070	cln	#2##p##	spk2	189.16	189.25	0.01	_
20091112_RATP_SCD_1305	64	4	arrivez	NULL	v	NULL	B_GVf	ROOT	0	idtext0070	arriver	P#2##p##	spk2	189.26	189.48	0.01	_
20091112_RATP_SCD_1305	64	5	à	NULL	prep	NULL	B_GP	P_OBJ_LOC	4	idtext0070	à	#####	spk2	189.49	189.53	0.01	_
20091112_RATP_SCD_1305	64	6	Massy-Palaiseau	NULL	nc	B_A	I_GP	OBJ	5	idtext0070	Massy-Palaiseau	#####	spk2	189.54	190.11	0.01	_
20091112_RATP_SCD_1305	64	7	à	NULL	prep	NULL	B_GP	MOD	4	idtext0070	à	#####	spk2	190.12	190.18	0.01	_
20091112_RATP_SCD_1305	64	8	cinq	NULL	det	B_H	I_GP	DET	9	idtext0070	cinq	#####	spk2	190.19	190.42	0.01	_
20091112_RATP_SCD_1305	64	9	heures	NULL	nc	I_H	I_GP	OBJ	7	idtext0070	heure	##f#p##	spk2	190.43	190.48	0.01	_
20091112_RATP_SCD_1305	64	10	quarante-quatre	NULL	adj	I_H	I_GP	MOD	9	idtext0070	quarante-quatre	#####	spk2	190.49	191.34	?	//

20091112_RATP_SCD_1305	65	1	merci	NULL	adv	NULL	B_GADV	MOD	2	idtext0071	merci	#####	spk1	191.68	192.19	0.01	_
20091112_RATP_SCD_1305	65	2	beaucoup	NULL	adv	NULL	I_GADV	ROOT	0	idtext0071	beaucoup	#####	spk1	192.2	192.45	?	//

20091112_RATP_SCD_1305	66	1	et	NULL	coo	NULL	B_NULL	NOLINK	0	idtext0072	et	#####	spk1	192.49	193.07	?	_

20091112_RATP_SCD_1305	67	1	donc	NULL	coo	NULL	B_NULL	NOLINK	0	idtext0073	donc	#####	spk2	192.6	192.71	0.01	_
20091112_RATP_SCD_1305	67	2	vous	NULL	cln	NULL	B_GN	NOLINK	0	idtext0073	cln	#2##p##	spk2	192.72	193.07	?	_

20091112_RATP_SCD_1305	68	1	en	NULL	clo	NULL	B_GN	OBJ	2	idtext0074	en	#####	spk2	193.11	193.13	0.01	_
20091112_RATP_SCD_1305	68	2	avez	NULL	v	NULL	B_GVf	ROOT	0	idtext0074	avoir	P#2##p##	spk2	193.14	193.22	0.01	_
20091112_RATP_SCD_1305	68	3	pour	NULL	prep	NULL	B_GP	MOD	2	idtext0074	pour	#####	spk2	193.23	193.31	0.01	_
20091112_RATP_SCD_1305	68	4	une	NULL	det	B_H	I_GP	DET	5	idtext0074	un	##f#s##i	spk2	193.32	193.39	0.01	_
20091112_RATP_SCD_1305	68	5	heure	NULL	nc	I_H	I_GP	OBJ	3	idtext0074	heure	##f#s##	spk2	193.4	193.49	0.01	_
20091112_RATP_SCD_1305	68	6	et	NULL	coo	I_H	I_GP	COORD	5	idtext0074	et	#####	spk2	193.5	193.56	0.01	_
20091112_RATP_SCD_1305	68	7	demie	NULL	adj	I_H	I_GP	DEP_COORD	6	idtext0074	demie	#####	spk2	193.57	193.74	0.01	_
20091112_RATP_SCD_1305	68	8	de	NULL	prep	NULL	B_GP	DEP	5	idtext0074	de	#####	spk2	193.75	193.78	0.01	_
20091112_RATP_SCD_1305	68	9	trajet	NULL	nc	NULL	I_GP	OBJ	8	idtext0074	trajet	##m#s##	spk2	193.79	194.29	?	//

20091112_RATP_SCD_1305	69	1	une	NULL	det	B_H	B_GN	DET	2	idtext0075	un	##f#s##i	spk1	194.82	194.99	0.01	_
20091112_RATP_SCD_1305	69	2	heure	NULL	nc	I_H	I_GN	ROOT	0	idtext0075	heure	##f#s##	spk1	195.0	195.08	0.01	_
20091112_RATP_SCD_1305	69	3	et	NULL	coo	I_H	I_GN	COORD	2	idtext0075	et	#####	spk1	195.09	195.15	0.01	_
20091112_RATP_SCD_1305	69	4	demie	NULL	adj	I_H	I_GN	DEP_COORD	3	idtext0075	demie	#####	spk1	195.16	195.3	0.01	_
20091112_RATP_SCD_1305	69	5	de	NULL	prep	NULL	B_GP	DEP	2	idtext0075	de	#####	spk1	195.31	195.33	0.01	_
20091112_RATP_SCD_1305	69	6	trajet	NULL	nc	NULL	I_GP	OBJ	5	idtext0075	trajet	##m#s##	spk1	195.34	195.64	0.01	/
20091112_RATP_SCD_1305	69	7	d'accord	NULL	adv	NULL	B_GADV	MOD	6	idtext0075	d'accord	#####	spk1	195.65	195.95	0.01	_
20091112_RATP_SCD_1305	69	8	donc	DISF_R	coo	NULL	NULL	NOLINK	0	idtext0075	donc	#####	spk1	195.96	196.58	0.01	_
20091112_RATP_SCD_1305	69	9	et	NULL	coo	NULL	B_NULL	COORD	7	idtext0076	et	#####	spk1	196.59	196.76	0.01	_
20091112_RATP_SCD_1305	69	10	donc	NULL	coo	NULL	B_NULL	NOLINK	0	idtext0076	donc	#####	spk1	196.77	197.05	0.01	_
20091112_RATP_SCD_1305	69	11	et	DISF_R	coo	NULL	NULL	NOLINK	0	idtext0076	et	#####	spk1	197.06	197.16	0.01	_
20091112_RATP_SCD_1305	69	12	si	NULL	csu	NULL	B_NULL	DEP_COORD	9	idtext0076	si	#####	spk1	197.17	197.46	0.01	_
20091112_RATP_SCD_1305	69	13	par+exemple	NULL	adv	NULL	B_GADV	NOLINK	0	idtext0076	par+exemple	#####	spk1	197.47	198.13	0.01	_
20091112_RATP_SCD_1305	69	14	je	NULL	cln	NULL	B_GN	SUJ	15	idtext0076	cln	#1##s##	spk1	198.14	198.23	0.01	_
20091112_RATP_SCD_1305	69	15	prends	NULL	v	NULL	B_GVf	OBJ	12	idtext0076	prendre	P#12##s##	spk1	198.24	198.51	0.01	_
20091112_RATP_SCD_1305	69	16	celui	NULL	pro	NULL	B_GN	OBJ	15	idtext0076	celui	#####	spk1	198.52	198.85	0.01	_
20091112_RATP_SCD_1305	69	17	de	DISF_R	prep	NULL	NULL	NOLINK	0	idtext0076	de	#####	spk1	198.86	199.14	0.01	_
20091112_RATP_SCD_1305	69	18	de	NULL	prep	NULL	B_GP	DEP	16	idtext0076	de	#####	spk1	199.15	199.28	0.01	_
20091112_RATP_SCD_1305	69	19	quatre	NULL	det	B_H	I_GP	DET	20	idtext0076	quatre	#####	spk1	199.29	199.6	0.01	_
20091112_RATP_SCD_1305	69	20	heures	NULL	nc	I_H	I_GP	OBJ	18	idtext0076	heure	##f#p##	spk1	199.61	199.72	0.01	_
20091112_RATP_SCD_1305	69	21	vingt	NULL	adj	I_H	I_GP	MOD	20	idtext0076	vingt	#####	spk1	199.73	200.22	0.01	_
20091112_RATP_SCD_1305	69	22	donc	NULL	coo	NULL	B_NULL	COORD	15	idtext0076	donc	#####	spk1	200.23	200.47	0.01	_
20091112_RATP_SCD_1305	69	23	j'	NULL	cln	NULL	B_GN	SUJ	24	idtext0076	cln	#1##s##	spk1	200.48	200.55	0.01	_
20091112_RATP_SCD_1305	69	24	arriverai	NULL	v	NULL	B_GVf	DEP_COORD	22	idtext0076	arriver	F#1##s##	spk1	200.56	200.98	0.01	_
20091112_RATP_SCD_1305	69	25	à	NULL	prep	NULL	B_GP	MOD	24	idtext0076	à	#####	spk1	200.99	201.25	0.01	_
20091112_RATP_SCD_1305	69	26	six	NULL	det	B_H	I_GP	DET	27	idtext0076	six	#####	spk1	201.26	201.53	0.01	_
20091112_RATP_SCD_1305	69	27	heures	NULL	nc	I_H	I_GP	OBJ	25	idtext0076	heure	##f#p##	spk1	201.54	201.97	?	//

20091112_RATP_SCD_1305	70	1	alors	NULL	adv	NULL	B_GADV	NOLINK	0	idtext0077	alors	#####	spk2	202.69	202.92	0.01	_
20091112_RATP_SCD_1305	70	2	de	NULL	prep	NULL	B_GP	ROOT	0	idtext0077	de	#####	spk2	202.93	203.02	0.01	_
20091112_RATP_SCD_1305	70	3	quatre	NULL	det	B_H	I_GP	DET	4	idtext0077	quatre	#####	spk2	203.03	203.28	0.01	_
20091112_RATP_SCD_1305	70	4	heures	NULL	nc	I_H	I_GP	OBJ	2	idtext0077	heure	##f#p##	spk2	203.29	203.39	0.01	_
20091112_RATP_SCD_1305	70	5	vingt	NULL	adj	I_H	I_GP	MOD	4	idtext0077	vingt	#####	spk2	203.4	203.65	0.01	_
20091112_RATP_SCD_1305	70	6	c'est-à-dire	NULL	coo	NULL	B_NULL	NOLINK	0	idtext0077	c'est-à-dire	#####	spk2	203.66	204.64	0.01	_
20091112_RATP_SCD_1305	70	7	euh	DISF_M	pres	NULL	NULL	NOLINK	0	idtext0077	euh	#####	spk2	204.65	204.69	?	_

20091112_RATP_SCD_1305	71	1	au	NULL	prep	NULL	B_GP	ROOT	0	idtext0078	au	#####	spk2	204.76	204.83	0.01	_
20091112_RATP_SCD_1305	71	2	niveau	NULL	nc	NULL	I_GP	OBJ	1	idtext0078	niveau	##m#s##	spk2	204.84	205.12	0.01	_
20091112_RATP_SCD_1305	71	3	de	DISF_R	prep	NULL	NULL	NOLINK	0	idtext0078	de	#####	spk2	205.13	205.49	0.01	_
20091112_RATP_SCD_1305	71	4	de	NULL	prep	NULL	B_GP	DEP	2	idtext0078	de	#####	spk2	205.5	205.66	0.01	_
20091112_RATP_SCD_1305	71	5	Porte+de+Clichy	NULL	nc	B_A	I_GP	OBJ	4	idtext0078	Porte+de+Clichy	#####	spk2	205.67	206.6	0.01	_
20091112_RATP_SCD_1305	71	6	alors	NULL	adv	NULL	B_GADV	NOLINK	0	idtext0078	alors	#####	spk2	206.61	206.81	?	//

20091112_RATP_SCD_1305	72	1	de	DISF_R	prep	NULL	NULL	NOLINK	0	idtext0079	de	#####	spk1	204.74	205.12	0.01	_
20091112_RATP_SCD_1305	72	2	de	DISF_R	prep	NULL	NULL	NOLINK	0	idtext0079	de	#####	spk1	205.13	205.45	0.01	/
20091112_RATP_SCD_1305	72	3	euh	DISF_M	pres	NULL	NULL	NOLINK	0	idtext0079	euh	#####	spk1	205.46	205.48	0.01	_
20091112_RATP_SCD_1305	72	4	de	NULL	prep	NULL	B_GP	ROOT	0	idtext0079	de	#####	spk1	205.49	205.66	0.01	_
20091112_RATP_SCD_1305	72	5	Porte+de+Clichy	NULL	nc	B_A	I_GP	OBJ	4	idtext0079	Porte+de+Clichy	#####	spk1	205.67	206.59	0.01	_
20091112_RATP_SCD_1305	72	6	oui	NULL	adv	NULL	B_GADV	NOLINK	0	idtext0079	oui	#####	spk1	206.6	206.81	?	//

20091112_RATP_SCD_1305	73	1	je	NULL	cln	NULL	B_GN	SUJ	2	idtext0080	cln	#1##s##	spk2	206.86	206.96	0.01	_
20091112_RATP_SCD_1305	73	2	vais	NULL	v	NULL	B_GVf	ROOT	0	idtext0080	aller	P#1##s##	spk2	206.97	207.02	0.01	_
20091112_RATP_SCD_1305	73	3	regarder	NULL	vinf	NULL	I_GVf	OBJ	2	idtext0080	regarder	W#####	spk2	207.03	207.26	0.01	_
20091112_RATP_SCD_1305	73	4	au+niveau+des	NULL	prep	NULL	B_GP	P_OBJ	2	idtext0080	au+niveau+des	#####	spk2	207.27	207.67	0.01	_
20091112_RATP_SCD_1305	73	5	horaires	NULL	nc	NULL	I_GP	OBJ	4	idtext0080	horaire	##m#p##	spk2	207.68	208.42	?	//

20091112_RATP_SCD_1305	74	1	alors	NULL	adv	NULL	B_GADV	NOLINK	0	idtext0081	alors	#####	spk2	209.18	209.71	?	//

20091112_RATP_SCD_1305	75	1	oui	NULL	adv	NULL	B_GADV	NOLINK	0	idtext0082	oui	#####	spk1	208.52	208.63	0.01	_
20091112_RATP_SCD_1305	75	2	vous	NULL	cln	NULL	B_GN	SUJ	3	idtext0082	cln	#2##p##	spk1	208.64	208.77	0.01	_
20091112_RATP_SCD_1305	75	3	êtes	NULL	v	NULL	B_GVf	ROOT	0	idtext0082	être	P#2##p##	spk1	208.78	208.91	0.01	_
20091112_RATP_SCD_1305	75	4	très	NULL	adv	NULL	B_GADJ	MOD	5	idtext0082	très	#####	spk1	208.92	209.21	0.01	_
20091112_RATP_SCD_1305	75	5	gentille	NULL	adj	NULL	I_GADJ	ATS	3	idtext0082	gentil	##f#s##	spk1	209.22	209.71	?	//

20091112_RATP_SCD_1305	76	1	euh	DISF_M	pres	NULL	NULL	NOLINK	0	idtext0083	euh	#####	spk2	209.8	209.82	0.01	_
20091112_RATP_SCD_1305	76	2	non	NULL	adv	NULL	B_GADV	MOD	3	idtext0083	non	#####	spk2	209.83	210.68	0.01	_
20091112_RATP_SCD_1305	76	3	là	NULL	adv	NULL	I_GADV	ROOT	0	idtext0083	là	#####	spk2	210.69	210.8	0.01	_
20091112_RATP_SCD_1305	76	4	c'	NULL	cln	NULL	B_GN	SUJ_IMP	5	idtext0083	ce	###s##	spk2	210.81	210.93	0.01	_
20091112_RATP_SCD_1305	76	5	est	NULL	v	NULL	B_GVf	ROOT	0	idtext0083	être	P#3##s##	spk2	210.94	210.96	0.01	_
20091112_RATP_SCD_1305	76	6	le	NULL	det	NULL	B_GN	DET	7	idtext0083	le	##m#s##d	spk2	210.97	211.02	0.01	_
20091112_RATP_SCD_1305	76	7	dernier	NULL	adj	NULL	I_GN	ATS	5	idtext0083	dernier	##m#s##	spk2	211.03	211.45	0.01	/
20091112_RATP_SCD_1305	76	8	hein	DISF_M	pres	NULL	NULL	NOLINK	0	idtext0083	hein	#####	spk2	211.46	211.48	0.01	_
20091112_RATP_SCD_1305	76	9	que	NULL	csu	NULL	B_NULL	OBJ	7	idtext0083	que	#####	spk2	211.49	211.6	0.01	_
20091112_RATP_SCD_1305	76	10	je	NULL	cln	NULL	B_GN	SUJ	13	idtext0083	cln	#1##s##	spk2	211.61	211.72	0.01	_
20091112_RATP_SCD_1305	76	11	vous	NULL	clo	NULL	B_GN	A_OBJ	13	idtext0083	cln	#2##p##	spk2	211.73	211.87	0.01	_
20091112_RATP_SCD_1305	76	12	ai	NULL	v	NULL	B_GVf	AUX	13	idtext0083	avoir	P#1##s##	spk2	211.88	211.96	0.01	_
20091112_RATP_SCD_1305	76	13	donné	NULL	vppart	NULL	I_GVf	OBJ	9	idtext0083	donner	K##m#s##	spk2	211.97	212.32	0.01	_
20091112_RATP_SCD_1305	76	14	hein	DISF_M	pres	NULL	NULL	NOLINK	0	idtext0083	hein	#####	spk2	212.33	212.53	?	//

20091112_RATP_SCD_1305	77	1	ah	DISF_M	pres	NULL	NULL	NOLINK	0	idtext0084	ah	#####	spk1	212.74	212.92	0.01	_
20091112_RATP_SCD_1305	77	2	d'accord	NULL	adv	NULL	B_GADV	NOLINK	0	idtext0084	d'accord	#####	spk1	212.93	213.54	?	_

20091112_RATP_SCD_1305	78	1	c'	NULL	cln	NULL	B_GN	SUJ_IMP	2	idtext0085	ce	###s##	spk2	212.72	212.76	0.01	_
20091112_RATP_SCD_1305	78	2	est	NULL	v	NULL	B_GVf	ROOT	0	idtext0085	être	P#3##s##	spk2	212.77	212.82	0.01	_
20091112_RATP_SCD_1305	78	3	le	NULL	det	NULL	B_GN	DET	4	idtext0085	le	##m#s##d	spk2	212.83	212.9	0.01	_
20091112_RATP_SCD_1305	78	4	dernier	NULL	adj	NULL	I_GN	ATS	2	idtext0085	dernier	##m#s##	spk2	212.91	213.33	0.01	_
20091112_RATP_SCD_1305	78	5	hein	DISF_M	pres	NULL	NULL	NOLINK	0	idtext0085	hein	#####	spk2	213.34	213.54	?	//

20091112_RATP_SCD_1305	79	1	euh	DISF_M	pres	NULL	NULL	NOLINK	0	idtext0086	euh	#####	spk1	213.6	213.8	0.01	_
20091112_RATP_SCD_1305	79	2	d'accord	NULL	adv	NULL	B_GADV	NOLINK	0	idtext0086	d'accord	#####	spk1	213.81	214.26	0.01	_
20091112_RATP_SCD_1305	79	3	le	NULL	det	NULL	B_GN	DET	5	idtext0086	le	##m#s##d	spk1	214.27	214.38	0.01	_
20091112_RATP_SCD_1305	79	4	quatre	NULL	det	B_H	I_GN	DET	5	idtext0086	quatre	#####	spk1	214.39	214.65	0.01	_
20091112_RATP_SCD_1305	79	5	heures	NULL	nc	I_H	I_GN	ROOT	0	idtext0086	heure	##f#p##	spk1	214.66	214.81	0.01	_
20091112_RATP_SCD_1305	79	6	dix	NULL	adj	I_H	I_GN	MOD	5	idtext0086	dix	#####	spk1	214.82	215.16	?	//

20091112_RATP_SCD_1305	80	1	d'accord	NULL	adv	NULL	B_GADV	NOLINK	0	idtext0087	d'accord	#####	spk1	215.95	216.99	?	//

20091112_RATP_SCD_1305	81	1	oui	NULL	adv	NULL	B_GADV	NOLINK	0	idtext0088	oui	#####	spk2	215.96	216.14	0.01	_
20091112_RATP_SCD_1305	81	2	vous	NULL	cln	NULL	B_GN	SUJ	3	idtext0088	cln	#2##p##	spk2	216.15	216.3	0.01	_
20091112_RATP_SCD_1305	81	3	arrivez	NULL	v	NULL	B_GVf	ROOT	0	idtext0088	arriver	P#2##p##	spk2	216.31	216.82	0.01	_
20091112_RATP_SCD_1305	81	4	à	NULL	prep	NULL	B_NULL	NOLINK	0	idtext0088	à	#####	spk2	216.83	216.99	?	_

20091112_RATP_SCD_1305	82	1	cinq	NULL	det	B_H	B_GN	DET	2	idtext0089	cinq	#####	spk2	217.04	217.17	0.01	_
20091112_RATP_SCD_1305	82	2	heures	NULL	nc	I_H	I_GN	ROOT	0	idtext0089	heure	##f#p##	spk2	217.18	217.23	0.01	_
20091112_RATP_SCD_1305	82	3	quarante-quatre	NULL	adj	I_H	I_GN	MOD	2	idtext0089	quarante-quatre	#####	spk2	217.24	217.86	0.01	_
20091112_RATP_SCD_1305	82	4	à	DISF_R	prep	I_H	NULL	NOLINK	0	idtext0089	à	#####	spk2	217.87	218.38	0.01	_
20091112_RATP_SCD_1305	82	5	à	NULL	prep	NULL	B_GP	MOD	2	idtext0089	à	#####	spk2	218.39	218.47	0.01	_
20091112_RATP_SCD_1305	82	6	Massy-Palaiseau	NULL	nc	B_A	I_GP	OBJ	5	idtext0089	Massy-Palaiseau	#####	spk2	218.48	219.3	?	//

20091112_RATP_SCD_1305	83	1	merci	NULL	adv	NULL	B_GADV	NOLINK	0	idtext0090	merci	#####	spk1	219.49	220.2	?	//

20091112_RATP_SCD_1305	84	1	beaucoup	NULL	adv	NULL	B_GADV	NOLINK	0	idtext0091	beaucoup	#####	spk1	220.24	220.68	0.01	_
20091112_RATP_SCD_1305	84	2	mademoiselle	NULL	nc	NULL	B_GN	NOLINK	0	idtext0091	Monsieur	##f#s##	spk1	220.69	221.32	?	//

20091112_RATP_SCD_1305	85	1	d'accord	NULL	adv	NULL	B_GADV	NOLINK	0	idtext0092	d'accord	#####	spk2	220.24	221.32	?	//

20091112_RATP_SCD_1305	86	1	et	NULL	coo	NULL	B_NULL	ROOT	0	idtext0093	et	#####	spk1	222.0	222.17	0.01	_
20091112_RATP_SCD_1305	86	2	excusez	NULL	v	NULL	B_GVf	DEP_COORD	1	idtext0093	excuser	P#2##p##	spk1	222.18	222.5	0.01	_
20091112_RATP_SCD_1305	86	3	-moi	NULL	clo	NULL	B_GN	OBJ	2	idtext0093	cla	#1##s##	spk1	222.51	223.01	0.01	_
20091112_RATP_SCD_1305	86	4	est	DISF_R	v	NULL	NULL	NOLINK	0	idtext0094	être	P#3##s##	spk1	223.02	223.11	0.01	_
20091112_RATP_SCD_1305	86	5	po()	DISF_T	tronc	NULL	NULL	NOLINK	0	idtext0094	po()	#####	spk1	223.12	223.38	0.01	_
20091112_RATP_SCD_1305	86	6	est-ce+qu'	NULL	pri	NULL	B_NULL	NOLINK	0	idtext0094	est-ce+qu'	#####	spk1	223.39	223.61	0.01	_
20091112_RATP_SCD_1305	86	7	il	NULL	cln	NULL	B_GN	SUJ	8	idtext0094	cln	#3#m#s##	spk1	223.62	223.72	0.01	_
20091112_RATP_SCD_1305	86	8	est	NULL	v	NULL	B_GVf	ROOT	0	idtext0094	être	P#3##s##	spk1	223.73	223.79	0.01	_
20091112_RATP_SCD_1305	86	9	possible	NULL	adj	NULL	B_GADJ	ATS	8	idtext0094	possible	###s##	spk1	223.8	224.31	0.01	_
20091112_RATP_SCD_1305	86	10	de	NULL	prep	NULL	B_GP	DEP	9	idtext0094	de	#####	spk1	224.32	224.44	0.01	_
20091112_RATP_SCD_1305	86	11	prendre	NULL	vinf	NULL	I_GP	OBJ	10	idtext0094	prendre	W#####	spk1	224.45	224.99	0.01	_
20091112_RATP_SCD_1305	86	12	le	NULL	det	NULL	B_GN	DET	13	idtext0094	le	##m#s##d	spk1	225.0	225.02	0.01	_
20091112_RATP_SCD_1305	86	13	N+quinze	NULL	nc	NULL	I_GN	OBJ	11	idtext0094	N+quinze	#####	spk1	225.03	225.56	0.01	_
20091112_RATP_SCD_1305	86	14	puis	NULL	coo	NULL	B_NULL	COORD	13	idtext0094	puis	#####	spk1	225.57	225.77	0.01	_
20091112_RATP_SCD_1305	86	15	le	NULL	det	NULL	B_GN	DET	16	idtext0094	le	##m#s##d	spk1	225.78	225.91	0.01	_
20091112_RATP_SCD_1305	86	16	N+quatorze	NULL	nc	B_T	I_GN	DEP_COORD	14	idtext0094	N+quatorze	#####	spk1	225.92	226.87	0.01	_
20091112_RATP_SCD_1305	86	17	et	NULL	coo	NULL	B_NULL	COORD	16	idtext0094	et	#####	spk1	226.88	226.91	0.01	_
20091112_RATP_SCD_1305	86	18	le	NULL	det	NULL	B_GN	DET	19	idtext0094	le	##m#s##d	spk1	226.92	227.02	0.01	_
20091112_RATP_SCD_1305	86	19	deux+cent+quatre-vingt-dix-neuf	NULL	nc	B_T	I_GN	DEP_COORD	17	idtext0094	deux+cent+quatre-vingt-dix-neuf	#####	spk1	227.03	228.59	0.01	_
20091112_RATP_SCD_1305	86	20	est-ce+que	NULL	pri	NULL	B_NULL	NOLINK	0	idtext0094	est-ce+que	#####	spk1	228.6	228.73	0.01	//
20091112_RATP_SCD_1305	86	21	c'	NULL	cln	NULL	B_GN	SUJ_IMP	22	idtext0094	ce	###s##	spk1	228.74	228.83	0.01	_
20091112_RATP_SCD_1305	86	22	est	NULL	v	NULL	B_GVf	ROOT	0	idtext0094	être	P#3##s##	spk1	228.84	228.89	0.01	_
20091112_RATP_SCD_1305	86	23	possible	NULL	adj	NULL	B_GADJ	ATS	22	idtext0094	possible	###s##	spk1	228.9	229.44	?	//

20091112_RATP_SCD_1305	87	1	moi	NULL	pro	NULL	B_GN	SUJ	4	idtext0095	moi	#####	spk2	230.31	230.49	0.01	_
20091112_RATP_SCD_1305	87	2	je	NULL	cln	NULL	B_GN	SUJ	4	idtext0095	cln	#1##s##	spk2	230.5	230.54	0.01	_
20091112_RATP_SCD_1305	87	3	vous	NULL	clo	NULL	B_GN	A_OBJ	4	idtext0095	cln	#2##p##	spk2	230.55	230.61	0.01	_
20091112_RATP_SCD_1305	87	4	donne	NULL	v	NULL	B_GVf	ROOT	0	idtext0095	donner	PS#13##s##	spk2	230.62	230.75	0.01	_
20091112_RATP_SCD_1305	87	5	l'	NULL	det	NULL	B_GN	DET	6	idtext0095	le	###s##d	spk2	230.76	230.78	0.01	_
20091112_RATP_SCD_1305	87	6	itinéraire	NULL	nc	NULL	I_GN	OBJ	4	idtext0095	itinéraire	##m#s##	spk2	230.79	231.15	0.01	_
20091112_RATP_SCD_1305	87	7	le+plus	NULL	adv	NULL	B_GN	MOD	8	idtext0095	le+plus	#####	spk2	231.16	231.31	0.01	_
20091112_RATP_SCD_1305	87	8	rapide	NULL	adj	NULL	I_GN	MOD	6	idtext0095	rapide	###s##	spk2	231.32	231.62	0.01	_
20091112_RATP_SCD_1305	87	9	monsieur	NULL	nc	NULL	I_GN	NOLINK	0	idtext0095	Monsieur	##m#s##	spk2	231.63	232.12	?	//

20091112_RATP_SCD_1305	88	1	une	NULL	det	B_H	B_GN	DET	2	idtext0096	un	##f#s##i	spk2	232.3	232.45	0.01	_
20091112_RATP_SCD_1305	88	2	heure	NULL	nc	I_H	I_GN	NOLINK	0	idtext0096	heure	##f#s##	spk2	232.46	232.56	0.01	_
20091112_RATP_SCD_1305	88	3	et	NULL	coo	I_H	I_GN	COORD	2	idtext0096	et	#####	spk2	232.57	232.6	0.01	_
20091112_RATP_SCD_1305	88	4	demie	NULL	adj	I_H	I_GN	DEP_COORD	3	idtext0096	demie	#####	spk2	232.61	232.81	?	/

20091112_RATP_SCD_1305	89	1	d'accord	NULL	adv	NULL	B_GADV	NOLINK	0	idtext0097	d'accord	#####	spk1	232.36	232.81	?	//

20091112_RATP_SCD_1305	90	1	de	NULL	prep	NULL	B_GP	ROOT	0	idtext0098	de	#####	spk2	232.91	232.93	0.01	_
20091112_RATP_SCD_1305	90	2	trajet	NULL	nc	NULL	I_GP	OBJ	1	idtext0098	trajet	##m#s##	spk2	232.94	233.31	?	//

20091112_RATP_SCD_1305	91	1	merci	NULL	adv	NULL	B_GADV	NOLINK	0	idtext0099	merci	#####	spk1	233.77	234.33	?	//

20091112_RATP_SCD_1305	92	1	beaucoup	NULL	adv	NULL	B_GADV	NOLINK	0	idtext0100	beaucoup	#####	spk1	234.44	234.69	0.01	_
20091112_RATP_SCD_1305	92	2	madame	NULL	nc	NULL	B_GN	NOLINK	0	idtext0100	Monsieur	##f#s##	spk1	234.7	235.09	?	//

20091112_RATP_SCD_1305	93	1	d'accord	NULL	adv	NULL	B_GADV	NOLINK	0	idtext0101	d'accord	#####	spk2	234.44	235.09	?	//

20091112_RATP_SCD_1305	94	1	donc	NULL	coo	NULL	B_NULL	NOLINK	0	idtext0102	donc	#####	spk1	235.14	235.5	0.01	_
20091112_RATP_SCD_1305	94	2	celui	NULL	pro	NULL	B_GN	ROOT	0	idtext0102	celui	#####	spk1	235.51	235.86	0.01	_
20091112_RATP_SCD_1305	94	3	du	NULL	prep	NULL	B_GP	DEP	2	idtext0102	du	#####	spk1	235.87	235.98	0.01	_
20091112_RATP_SCD_1305	94	4	quatre	NULL	nc	B_T	I_GP	OBJ	3	idtext0102	quatre	##m###	spk1	235.99	236.19	0.01	_
20091112_RATP_SCD_1305	94	5	de	NULL	prep	NULL	B_GP	DEP	4	idtext0102	de	#####	spk1	236.2	236.33	0.01	_
20091112_RATP_SCD_1305	94	6	quatre	NULL	det	B_H	I_GP	DET	7	idtext0102	quatre	#####	spk1	236.34	236.6	0.01	_
20091112_RATP_SCD_1305	94	7	heures	NULL	nc	I_H	I_GP	OBJ	5	idtext0102	heure	##f#p##	spk1	236.61	236.71	0.01	_
20091112_RATP_SCD_1305	94	8	neuf	NULL	adj	I_H	I_GP	MOD	7	idtext0102	neuf	##m#s##	spk1	236.72	237.23	?	//

20091112_RATP_SCD_1305	95	1	alors	NULL	adv	NULL	B_GADV	NOLINK	0	idtext0103	alors	#####	spk2	237.57	237.72	0.01	_
20091112_RATP_SCD_1305	95	2	quatre	NULL	det	B_H	B_GN	DET	3	idtext0103	quatre	#####	spk2	237.73	238.01	0.01	_
20091112_RATP_SCD_1305	95	3	heures	NULL	nc	I_H	I_GN	ROOT	0	idtext0103	heure	##f#p##	spk2	238.02	238.11	0.01	_
20091112_RATP_SCD_1305	95	4	neuf	NULL	adj	I_H	I_GN	MOD	3	idtext0103	neuf	##m#s##	spk2	238.12	238.3	0.01	_
20091112_RATP_SCD_1305	95	5	à	NULL	prep	NULL	B_GP	MOD	3	idtext0103	à	#####	spk2	238.31	238.36	0.01	_
20091112_RATP_SCD_1305	95	6	Porte+de+Clichy	NULL	nc	B_A	I_GP	OBJ	5	idtext0103	Porte+de+Clichy	#####	spk2	238.37	239.12	0.01	_
20091112_RATP_SCD_1305	95	7	oui	NULL	adv	NULL	B_GADV	NOLINK	0	idtext0103	oui	#####	spk2	239.13	239.37	?	//

20091112_RATP_SCD_1305	96	1	merci	NULL	adv	NULL	B_GADV	NOLINK	0	idtext0104	merci	#####	spk1	239.73	240.18	?	//

20091112_RATP_SCD_1305	97	1	beaucoup	NULL	adv	NULL	B_GADV	NOLINK	0	idtext0105	beaucoup	#####	spk1	240.26	240.38	0.01	_
20091112_RATP_SCD_1305	97	2	madame	NULL	nc	NULL	B_GN	NOLINK	0	idtext0105	Monsieur	##f#s##	spk1	240.39	241.03	0.01	_
20091112_RATP_SCD_1305	97	3	vous	NULL	cln	NULL	B_GN	SUJ	4	idtext0105	cln	#2##p##	spk1	241.04	241.09	0.01	_
20091112_RATP_SCD_1305	97	4	êtes	NULL	v	NULL	B_GVf	ROOT	0	idtext0105	être	P#2##p##	spk1	241.1	241.22	0.01	_
20091112_RATP_SCD_1305	97	5	très	NULL	adv	NULL	B_GADJ	MOD	6	idtext0105	très	#####	spk1	241.23	241.44	0.01	_
20091112_RATP_SCD_1305	97	6	gentille	NULL	adj	NULL	I_GADJ	ATS	4	idtext0105	gentil	##f#s##	spk1	241.45	241.78	0.01	_
20091112_RATP_SCD_1305	97	7	au+revoir	NULL	adv	NULL	B_GADV	NOLINK	0	idtext0105	au+revoir	#####	spk1	241.79	242.28	?	//

20091112_RATP_SCD_1305	98	1	d'accord	NULL	adv	NULL	B_GN	NOLINK	0	idtext0106	d'accord	#####	spk2	240.28	241.22	0.01	_
20091112_RATP_SCD_1305	98	2	très	NULL	adv	NULL	I_GN	MOD	3	idtext0106	très	#####	spk2	241.23	241.44	0.01	_
20091112_RATP_SCD_1305	98	3	bonne	NULL	adj	NULL	I_GN	MOD	4	idtext0106	bon	##f#s##	spk2	241.45	241.53	0.01	_
20091112_RATP_SCD_1305	98	4	soirée	NULL	nc	NULL	I_GN	ROOT	0	idtext0106	soirée	##f#s##	spk2	241.54	241.73	0.01	_
20091112_RATP_SCD_1305	98	5	monsieur	NULL	nc	NULL	B_GN	NOLINK	0	idtext0106	Monsieur	##m#s##	spk2	241.74	242.28	?	//

20091112_RATP_SCD_1305	99	1	merci	NULL	adv	NULL	B_GADV	MOD	2	idtext0107	merci	#####	spk2	242.45	242.71	0.01	_
20091112_RATP_SCD_1305	99	2	au+revoir	NULL	adv	NULL	I_GADV	ROOT	0	idtext0107	au+revoir	#####	spk2	242.72	243.23	?	//

