20091112_RATP_SCD_1301	1	1	NNAAMMEE	NULL	np	B_HU	B_GN	ROOT	0	idtext0000	ANONYM	NULL	spk1	3.92	4.41	0.04	_
20091112_RATP_SCD_1301	1	2	bonjour	NULL	adv	NULL	B_GADV	NOLINK	0	idtext0001	bonjour	#####	spk1	4.45	5.14	?	//

20091112_RATP_SCD_1301	2	1	NNAAMMEE	NULL	np	B_HU	B_GN	ROOT	0	idtext0002	ANONYM	NULL	spk1	7.69	7.88	0.12	_
20091112_RATP_SCD_1301	2	2	bonjour	NULL	adv	NULL	B_GADV	NOLINK	0	idtext0003	bonjour	#####	spk1	8.0	8.81	?	//

20091112_RATP_SCD_1301	3	1	oui	NULL	adv	NULL	B_GADV	NOLINK	0	idtext0004	oui	#####	spk2	8.88	9.48	0.01	_
20091112_RATP_SCD_1301	3	2	bonsoir	NULL	nc	NULL	B_GN	NOLINK	0	idtext0004	bonsoir	##m#s##	spk2	9.49	9.82	?	//

20091112_RATP_SCD_1301	4	1	hum	DISF_M	pres	NULL	NULL	NOLINK	0	idtext0005	hum	#####	spk2	10.51	11.12	0.01	//
20091112_RATP_SCD_1301	4	2	je	NULL	cln	NULL	B_GN	SUJ	3	idtext0005	cln	#1##s##	spk2	11.13	11.22	0.01	_
20091112_RATP_SCD_1301	4	3	voudrais	NULL	v	NULL	B_GVf	ROOT	0	idtext0005	vouloir	C#12##s##	spk2	11.23	11.39	0.01	_
20091112_RATP_SCD_1301	4	4	un	NULL	det	NULL	B_GN	DET	6	idtext0005	un	##m#s##i	spk2	11.4	11.45	0.01	_
20091112_RATP_SCD_1301	4	5	petit	NULL	adj	NULL	I_GN	MOD	6	idtext0005	petit	##m#s##	spk2	11.46	11.58	0.01	_
20091112_RATP_SCD_1301	4	6	renseignement	NULL	nc	NULL	I_GN	OBJ	3	idtext0005	renseignement	##m#s##	spk2	11.59	12.21	?	//

20091112_RATP_SCD_1301	5	1	euh	DISF_M	pres	NULL	NULL	NOLINK	0	idtext0006	euh	#####	spk2	12.3	13.31	?	//

20091112_RATP_SCD_1301	6	1	oui	NULL	adv	NULL	B_GADV	NOLINK	0	idtext0007	oui	#####	spk1	12.27	13.31	?	//

20091112_RATP_SCD_1301	7	1	nous	NULL	cln	NULL	B_GN	SUJ	2	idtext0008	cln	#1##p##	spk2	13.35	13.56	0.01	_
20091112_RATP_SCD_1301	7	2	arrivons	NULL	v	NULL	B_GVf	ROOT	0	idtext0008	arriver	P#1##p##	spk2	13.57	13.88	0.01	_
20091112_RATP_SCD_1301	7	3	demain	NULL	adv	NULL	B_GADV	MOD	2	idtext0008	demain	#####	spk2	13.89	14.48	0.01	_
20091112_RATP_SCD_1301	7	4	en	NULL	prep	NULL	B_GP	P_OBJ	2	idtext0008	en	#####	spk2	14.49	14.65	0.01	_
20091112_RATP_SCD_1301	7	5	Gare+de+Lyon	NULL	nc	B_A	I_GP	OBJ	4	idtext0008	Gare+de+Lyon	#####	spk2	14.66	15.51	0.01	_
20091112_RATP_SCD_1301	7	6	à	NULL	prep	NULL	B_GP	MOD	5	idtext0008	à	#####	spk2	15.52	15.58	0.01	_
20091112_RATP_SCD_1301	7	7	Paris	NULL	nc	B_A	I_GP	OBJ	6	idtext0008	Paris	##m#s##	spk2	15.59	16.63	0.01	//
20091112_RATP_SCD_1301	7	8	et	NULL	coo	NULL	B_NULL	COORD	2	idtext0009	et	#####	spk2	16.64	16.87	0.01	_
20091112_RATP_SCD_1301	7	9	on	NULL	cln	NULL	B_GN	SUJ	10	idtext0009	cln	#3##s##	spk2	16.88	17.13	0.01	_
20091112_RATP_SCD_1301	7	10	doit	NULL	v	NULL	B_GVf	DEP_COORD	8	idtext0009	devoir	P#3##s##	spk2	17.14	17.48	0.01	_
20091112_RATP_SCD_1301	7	11	se	NULL	clr	NULL	B_GVi	AFF	12	idtext0009	se	#####	spk2	17.49	17.59	0.01	_
20091112_RATP_SCD_1301	7	12	rendre	NULL	vinf	NULL	I_GVi	OBJ	10	idtext0009	rendre	W#####	spk2	17.6	18.89	0.01	_
20091112_RATP_SCD_1301	7	13	euh	DISF_M	pres	NULL	NULL	NOLINK	0	idtext0009	euh	#####	spk2	18.9	18.92	0.01	_
20091112_RATP_SCD_1301	7	14	à	NULL	prep	NULL	B_GP	P_OBJ_LOC	12	idtext0009	à	#####	spk2	18.93	18.98	0.01	_
20091112_RATP_SCD_1301	7	15	l'	NULL	det	NULL	I_GP	DET	16	idtext0009	le	###s##d	spk2	18.99	19.07	0.01	_
20091112_RATP_SCD_1301	7	16	hôtel	NULL	nc	B_A	I_GP	OBJ	14	idtext0009	hôtel	##m#s##	spk2	19.08	19.39	0.01	_
20091112_RATP_SCD_1301	7	17	Mercure	NULL	np	I_A	I_GP	MOD	16	idtext0009	Mercure	#####	spk2	19.4	19.97	0.01	_
20091112_RATP_SCD_1301	7	18	Porte+de+Versailles	NULL	nc	B_A	I_GP	MOD	16	idtext0009	Porte+de+Versailles	#####	spk2	19.98	21.29	0.62	//
20091112_RATP_SCD_1301	7	19	euh	DISF_M	pres	NULL	NULL	NOLINK	0	idtext0010	euh	#####	spk2	21.91	22.67	0.01	_
20091112_RATP_SCD_1301	7	20	soixante-neuf	NULL	nc	B_A	B_GN	ROOT	0	idtext0010	soixante-neuf	#####	spk2	22.68	23.34	0.01	_
20091112_RATP_SCD_1301	7	21	boulevard	NULL	nc	I_A	I_GN	MOD	20	idtext0010	boulevard	##m#s##	spk2	23.35	23.83	0.01	_
20091112_RATP_SCD_1301	7	22	Victor	NULL	np	I_A	I_GN	MOD	21	idtext0010	Victor	##m#s##	spk2	23.84	24.5	0.01	_
20091112_RATP_SCD_1301	7	23	dans	NULL	prep	NULL	B_GP	MOD	20	idtext0010	dans	#####	spk2	24.51	24.66	0.01	_
20091112_RATP_SCD_1301	7	24	le	NULL	det	NULL	I_GP	DET	25	idtext0010	le	##m#s##d	spk2	24.67	24.8	0.01	_
20091112_RATP_SCD_1301	7	25	quinzième	NULL	nc	NULL	I_GP	OBJ	23	idtext0010	quinzième	###s##	spk2	24.81	25.48	?	_

20091112_RATP_SCD_1301	8	1	oui	NULL	adv	NULL	B_GADV	NOLINK	0	idtext0011	oui	#####	spk1	25.89	26.34	?	//

20091112_RATP_SCD_1301	9	1	pourriez	NULL	v	NULL	B_GVf	ROOT	0	idtext0012	pouvoir	C#2##p##	spk2	27.01	27.25	0.01	/
20091112_RATP_SCD_1301	9	2	vous	NULL	cln	NULL	B_GN	SUJ	4	idtext0012	cln	#2##p##	spk2	27.26	27.4	0.01	_
20091112_RATP_SCD_1301	9	3	m'	NULL	clo	NULL	B_GN	OBJ	4	idtext0012	cla	#1##s##	spk2	27.41	27.45	0.01	_
20091112_RATP_SCD_1301	9	4	aider	NULL	vinf	NULL	B_GVi	OBJ	1	idtext0012	aider	W#####	spk2	27.46	27.64	0.01	_
20091112_RATP_SCD_1301	9	5	sur	NULL	prep	NULL	B_GP	P_OBJ	4	idtext0012	sur	#####	spk2	27.65	27.8	0.01	_
20091112_RATP_SCD_1301	9	6	l'	NULL	det	NULL	I_GP	DET	7	idtext0012	le	###s##d	spk2	27.81	27.83	0.01	_
20091112_RATP_SCD_1301	9	7	itinéraire	NULL	nc	NULL	I_GP	OBJ	5	idtext0012	itinéraire	##m#s##	spk2	27.84	28.27	0.01	_
20091112_RATP_SCD_1301	9	8	à	NULL	prep	NULL	B_GP	MOD	7	idtext0012	à	#####	spk2	28.28	28.36	0.01	_
20091112_RATP_SCD_1301	9	9	prendre	NULL	vinf	NULL	I_GP	OBJ	8	idtext0012	prendre	W#####	spk2	28.37	28.85	0.01	_
20091112_RATP_SCD_1301	9	10	RER	NULL	nc	B_T	B_GN	OBJ	9	idtext0012	RER	#####	spk2	28.86	29.19	0.01	_
20091112_RATP_SCD_1301	9	11	ou	NULL	coo	NULL	B_NULL	COORD	10	idtext0012	ou	#####	spk2	29.2	29.25	0.01	_
20091112_RATP_SCD_1301	9	12	métro	NULL	nc	NULL	B_GN	DEP_COORD	11	idtext0012	métro	##m#s##	spk2	29.26	29.72	?	/

20091112_RATP_SCD_1301	10	1	bien+sûr	NULL	adv	NULL	B_GADV	NOLINK	0	idtext0013	bien+sûr	#####	spk1	30.0	30.5	0.01	_
20091112_RATP_SCD_1301	10	2	donc	NULL	coo	NULL	B_NULL	ROOT	0	idtext0013	donc	#####	spk1	30.51	30.85	0.01	_
20091112_RATP_SCD_1301	10	3	vous	NULL	cln	NULL	B_GN	SUJ	4	idtext0013	cln	#2##p##	spk1	30.86	31.0	0.01	_
20091112_RATP_SCD_1301	10	4	arrivez	NULL	v	NULL	B_GVf	DEP_COORD	2	idtext0013	arriver	P#2##p##	spk1	31.01	31.31	0.01	_
20091112_RATP_SCD_1301	10	5	à	NULL	prep	NULL	B_GP	P_OBJ_LOC	4	idtext0013	à	#####	spk1	31.32	31.34	0.01	_
20091112_RATP_SCD_1301	10	6	la	NULL	det	NULL	I_GP	DET	7	idtext0013	le	##m#s##d	spk1	31.35	31.42	0.01	_
20091112_RATP_SCD_1301	10	7	Gare+de+Lyon	NULL	nc	B_A	I_GP	OBJ	5	idtext0013	Gare+de+Lyon	#####	spk1	31.43	32.05	0.01	/
20091112_RATP_SCD_1301	10	8	et	NULL	coo	NULL	B_NULL	COORD	4	idtext0013	et	#####	spk1	32.06	32.08	0.01	_
20091112_RATP_SCD_1301	10	9	lorsque	NULL	csu	NULL	B_NULL	MOD	18	idtext0013	lorsque	#####	spk1	32.09	32.32	0.01	_
20091112_RATP_SCD_1301	10	10	vous	NULL	cln	NULL	B_GN	SUJ	11	idtext0013	cln	#2##p##	spk1	32.33	32.47	0.01	_
20091112_RATP_SCD_1301	10	11	êtes	NULL	v	NULL	B_GVf	OBJ	9	idtext0013	être	P#2##p##	spk1	32.48	32.59	0.01	_
20091112_RATP_SCD_1301	10	12	à	NULL	prep	NULL	B_GP	P_OBJ_LOC	11	idtext0013	à	#####	spk1	32.6	32.63	0.01	_
20091112_RATP_SCD_1301	10	13	la	NULL	det	NULL	I_GP	DET	14	idtext0013	le	##m#s##d	spk1	32.64	32.7	0.01	_
20091112_RATP_SCD_1301	10	14	Gare+de+Lyon	NULL	nc	B_A	I_GP	OBJ	12	idtext0013	Gare+de+Lyon	#####	spk1	32.71	33.18	0.01	_
20091112_RATP_SCD_1301	10	15	vous	NULL	cln	NULL	B_GN	SUJ	16	idtext0013	cln	#2##p##	spk1	33.19	33.31	0.01	_
20091112_RATP_SCD_1301	10	16	voulez	NULL	v	NULL	B_GVf	DEP_COORD	8	idtext0013	vouloir	P#2##p##	spk1	33.32	33.56	0.01	_
20091112_RATP_SCD_1301	10	17	vous	NULL	clr	NULL	B_GVi	AFF	18	idtext0013	cln	#2##p##	spk1	33.57	33.69	0.01	_
20091112_RATP_SCD_1301	10	18	rendre	NULL	vinf	NULL	I_GVi	OBJ	16	idtext0013	rendre	W#####	spk1	33.7	34.66	0.01	_
20091112_RATP_SCD_1301	10	19	donc	NULL	coo	NULL	B_NULL	NOLINK	0	idtext0013	donc	#####	spk1	34.67	35.15	0.06	_
20091112_RATP_SCD_1301	10	20	au	NULL	prep	NULL	B_GP	ROOT	0	idtext0014	au	#####	spk1	35.21	35.23	0.01	_
20091112_RATP_SCD_1301	10	21	soixante-cinq	NULL	nc	B_A	I_GP	OBJ	20	idtext0014	soixante-cinq	#####	spk1	35.24	35.57	0.01	_
20091112_RATP_SCD_1301	10	22	boulevard	NULL	nc	I_A	I_GP	MOD	21	idtext0014	boulevard	##m#s##	spk1	35.58	35.8	0.01	_
20091112_RATP_SCD_1301	10	23	Victor	NULL	np	I_A	I_GP	MOD	22	idtext0014	Victor	##m#s##	spk1	35.81	36.19	0.01	_
20091112_RATP_SCD_1301	10	24	à	NULL	prep	NULL	B_GP	MOD	21	idtext0014	à	#####	spk1	36.2	36.26	0.01	_
20091112_RATP_SCD_1301	10	25	Paris	NULL	nc	B_A	I_GP	OBJ	24	idtext0014	Paris	##m#s##	spk1	36.27	36.84	?	//

20091112_RATP_SCD_1301	11	1	soixante-neuf	NULL	nc	NULL	B_GN	ROOT	0	idtext0015	soixante-neuf	#####	spk2	37.02	37.64	?	//

20091112_RATP_SCD_1301	12	1	boulevard	NULL	nc	B_A	B_GN	ROOT	0	idtext0016	boulevard	##m#s##	spk2	37.72	38.23	0.01	_
20091112_RATP_SCD_1301	12	2	Victor	NULL	np	I_A	I_GN	MOD	1	idtext0016	Victor	##m#s##	spk2	38.24	38.59	0.01	_
20091112_RATP_SCD_1301	12	3	Paris	NULL	nc	B_A	I_GN	MOD	1	idtext0016	Paris	##m#s##	spk2	38.6	38.89	0.01	_
20091112_RATP_SCD_1301	12	4	dans	NULL	prep	NULL	B_NULL	NOLINK	0	idtext0016	dans	#####	spk2	38.9	39.03	0.01	_
20091112_RATP_SCD_1301	12	5	l()	DISF_T	tronc	NULL	NULL	NOLINK	0	idtext0016	l()	#####	spk2	39.04	39.37	?	//

20091112_RATP_SCD_1301	13	1	euh	DISF_M	pres	NULL	NULL	NOLINK	0	idtext0017	euh	#####	spk1	37.72	37.74	0.01	_
20091112_RATP_SCD_1301	13	2	soixante-neuf	NULL	nc	NULL	B_GN	NOLINK	0	idtext0017	soixante-neuf	#####	spk1	37.75	38.59	0.01	_
20091112_RATP_SCD_1301	13	3	pardon	DISF_M	pres	NULL	NULL	NOLINK	0	idtext0017	pardon	#####	spk1	38.6	39.37	?	//

20091112_RATP_SCD_1301	14	1	Paris	NULL	nc	B_A	B_GN	NOLINK	0	idtext0018	Paris	##m#s##	spk2	39.49	39.68	?	//

20091112_RATP_SCD_1301	15	1	quinzième	NULL	nc	NULL	B_GN	NOLINK	0	idtext0019	quinzième	###s##	spk2	40.19	40.6	?	_

20091112_RATP_SCD_1301	16	1	d'accord	NULL	adv	NULL	B_GADV	NOLINK	0	idtext0020	d'accord	#####	spk1	40.2	40.6	?	//

20091112_RATP_SCD_1301	17	1	alors	NULL	adv	NULL	B_GADV	NOLINK	0	idtext0021	alors	#####	spk1	40.64	40.77	0.01	_
20091112_RATP_SCD_1301	17	2	ben	DISF_M	pres	NULL	NULL	NOLINK	0	idtext0021	ben	#####	spk1	40.78	40.84	0.01	_
20091112_RATP_SCD_1301	17	3	je	NULL	cln	NULL	B_GN	SUJ	4	idtext0021	cln	#1##s##	spk1	40.85	40.93	0.01	_
20091112_RATP_SCD_1301	17	4	vais	NULL	v	NULL	B_GVf	ROOT	0	idtext0021	aller	P#1##s##	spk1	40.94	41.0	0.01	_
20091112_RATP_SCD_1301	17	5	effectuer	NULL	vinf	NULL	I_GVf	OBJ	4	idtext0021	effectuer	W#####	spk1	41.01	41.3	0.01	_
20091112_RATP_SCD_1301	17	6	la	NULL	det	NULL	B_GN	DET	7	idtext0021	le	##m#s##d	spk1	41.31	41.41	0.01	_
20091112_RATP_SCD_1301	17	7	recherche	NULL	nc	NULL	I_GN	OBJ	5	idtext0021	recherche	##f#s##	spk1	41.42	41.8	0.01	_
20091112_RATP_SCD_1301	17	8	monsieur	NULL	nc	NULL	I_GN	MOD	7	idtext0021	Monsieur	##m#s##	spk1	41.81	42.08	0.01	//
20091112_RATP_SCD_1301	17	9	je	NULL	cln	NULL	B_GN	SUJ	12	idtext0021	cln	#1##s##	spk1	42.09	42.35	0.01	_
20091112_RATP_SCD_1301	17	10	euh	DISF_M	pres	NULL	NULL	NOLINK	0	idtext0021	euh	#####	spk1	42.36	42.48	0.01	_
20091112_RATP_SCD_1301	17	11	un	NULL	det	NULL	B_GN	DET	12	idtext0021	un	##m#s##i	spk1	42.49	42.62	0.01	_
20091112_RATP_SCD_1301	17	12	instant	NULL	nc	NULL	I_GN	ROOT	0	idtext0021	instant	##m#s##	spk1	42.63	42.87	0.01	_
20091112_RATP_SCD_1301	17	13	s'il+vous+plaît	NULL	adv	NULL	B_GADV	NOLINK	0	idtext0021	s'il+vous+plaît	#####	spk1	42.88	43.52	?	//

20091112_RATP_SCD_1301	18	1	monsieur	NULL	nc	NULL	B_GN	NOLINK	0	idtext0022	Monsieur	##m#s##	spk1	110.64	110.83	0.01	/
20091112_RATP_SCD_1301	18	2	s'	NULL	csu	NULL	B_NULL	ROOT	0	idtext0022	se	#3##p##	spk1	110.84	110.91	0.01	_
20091112_RATP_SCD_1301	18	3	il	NULL	cln	NULL	B_GN	OBJ	2	idtext0022	cln	#3#m#s##	spk1	110.92	111.45	0.01	_
20091112_RATP_SCD_1301	18	4	vous	NULL	clo	NULL	B_GN	OBJ	3	idtext0022	cln	#2##p##	spk1	111.46	111.59	?	_

20091112_RATP_SCD_1301	19	1	plaît	NULL	v	NULL	B_GVf	NOLINK	0	idtext0023	plaire	P#3##s##	spk1	111.63	112.48	0.01	_
20091112_RATP_SCD_1301	19	2	donc	NULL	coo	NULL	B_NULL	NOLINK	0	idtext0024	donc	#####	spk1	112.49	112.64	0.01	_
20091112_RATP_SCD_1301	19	3	voilà	DISF_M	pres	NULL	NULL	NOLINK	0	idtext0024	voilà	#####	spk1	112.65	112.9	?	//

20091112_RATP_SCD_1301	20	1	oui	DISF_R	adv	NULL	NULL	NOLINK	0	idtext0025	oui	#####	spk2	111.63	111.93	0.01	_
20091112_RATP_SCD_1301	20	2	oui	NULL	adv	NULL	B_GADV	NOLINK	0	idtext0025	oui	#####	spk2	111.94	112.9	?	_

20091112_RATP_SCD_1301	21	1	ce+que	NULL	prorel	NULL	B_NULL	OBJ	4	idtext0026	ce+que	#####	spk1	112.98	113.13	0.01	_
20091112_RATP_SCD_1301	21	2	je	NULL	cln	NULL	B_GN	SUJ	4	idtext0026	cln	#1##s##	spk1	113.14	113.19	0.01	_
20091112_RATP_SCD_1301	21	3	vous	NULL	clo	NULL	B_GN	A_OBJ	4	idtext0026	cln	#2##p##	spk1	113.2	113.29	0.01	_
20091112_RATP_SCD_1301	21	4	conseille	NULL	v	NULL	B_GVf	ROOT	0	idtext0026	conseiller	PS#13##s##	spk1	113.3	114.09	0.01	_
20091112_RATP_SCD_1301	21	5	quand	NULL	csu	NULL	B_NULL	MOD	4	idtext0027	quand	#####	spk1	114.1	114.22	0.01	_
20091112_RATP_SCD_1301	21	6	vous	NULL	cln	NULL	B_GN	SUJ	7	idtext0027	cln	#2##p##	spk1	114.23	114.35	0.01	_
20091112_RATP_SCD_1301	21	7	serez	NULL	v	NULL	B_GVf	OBJ	5	idtext0027	être	F#2##p##	spk1	114.36	114.56	0.01	_
20091112_RATP_SCD_1301	21	8	à	NULL	prep	NULL	B_GP	P_OBJ_LOC	7	idtext0027	à	#####	spk1	114.57	114.59	0.01	_
20091112_RATP_SCD_1301	21	9	la	NULL	det	NULL	I_GP	DET	10	idtext0027	le	##m#s##d	spk1	114.6	114.71	0.01	_
20091112_RATP_SCD_1301	21	10	Gare+de+Lyon	NULL	nc	B_A	I_GP	OBJ	8	idtext0027	Gare+de+Lyon	#####	spk1	114.72	115.42	0.01	_
20091112_RATP_SCD_1301	21	11	il	NULL	cln	NULL	B_GN	SUJ_IMP	12	idtext0027	cln	#3#m#s##	spk1	115.43	115.48	0.01	_
20091112_RATP_SCD_1301	21	12	faudra	NULL	v	NULL	B_GVf	ROOT	0	idtext0027	falloir	F#3##s##	spk1	115.49	115.85	0.01	_
20091112_RATP_SCD_1301	21	13	prendre	NULL	vinf	NULL	I_GVf	OBJ	12	idtext0027	prendre	W#####	spk1	115.86	116.11	0.01	_
20091112_RATP_SCD_1301	21	14	le	NULL	det	NULL	B_GN	DET	15	idtext0027	le	##m#s##d	spk1	116.12	116.23	0.01	_
20091112_RATP_SCD_1301	21	15	métro	NULL	nc	B_T	I_GN	OBJ	13	idtext0027	métro	##m#s##	spk1	116.24	116.67	0.01	/
20091112_RATP_SCD_1301	21	16	ligne	NULL	nc	I_T	I_GN	MOD	15	idtext0027	ligne	##f#s##	spk1	116.68	116.92	0.01	_
20091112_RATP_SCD_1301	21	17	quatorze	NULL	adj	I_T	I_GN	MOD	16	idtext0027	quatorze	#####	spk1	116.93	117.93	?	//

20091112_RATP_SCD_1301	22	1	oui	NULL	adv	NULL	B_GADV	NOLINK	0	idtext0028	oui	#####	spk2	118.34	118.63	?	//

20091112_RATP_SCD_1301	23	1	en	NULL	prep	NULL	B_GP	ROOT	0	idtext0029	en	#####	spk1	118.86	118.98	0.01	_
20091112_RATP_SCD_1301	23	2	direction	NULL	nc	NULL	I_GP	OBJ	1	idtext0029	direction	##f#s##	spk1	118.99	119.69	0.01	_
20091112_RATP_SCD_1301	23	3	de	NULL	prep	NULL	B_GP	DEP	2	idtext0029	de	#####	spk1	119.7	120.01	0.01	_
20091112_RATP_SCD_1301	23	4	Saint-Lazare	NULL	nc	B_A	I_GP	OBJ	3	idtext0029	Saint-Lazare	#####	spk1	120.02	121.1	?	//

20091112_RATP_SCD_1301	24	1	d'accord	NULL	adv	NULL	B_GADV	NOLINK	0	idtext0030	d'accord	#####	spk2	121.9	122.43	?	//

20091112_RATP_SCD_1301	25	1	et	NULL	coo	NULL	B_NULL	ROOT	0	idtext0031	et	#####	spk1	122.64	122.67	0.01	_
20091112_RATP_SCD_1301	25	2	vous	NULL	cln	NULL	B_GN	SUJ	3	idtext0031	cln	#2##p##	spk1	122.68	122.9	0.01	_
20091112_RATP_SCD_1301	25	3	irez	NULL	v	NULL	B_GVf	DEP_COORD	1	idtext0031	aller	F#2##p##	spk1	122.91	123.2	0.01	_
20091112_RATP_SCD_1301	25	4	jusqu'à	NULL	prep	NULL	B_GP	P_OBJ_LOC	3	idtext0031	jusqu'à	#####	spk1	123.21	123.68	0.01	_
20091112_RATP_SCD_1301	25	5	Madeleine	NULL	nc	B_A	I_GP	OBJ	4	idtext0031	Madeleine	##f#s##	spk1	123.69	124.81	?	//

20091112_RATP_SCD_1301	26	1	d'accord	NULL	adv	NULL	B_GADV	NOLINK	0	idtext0032	d'accord	#####	spk2	125.01	125.51	?	//

20091112_RATP_SCD_1301	27	1	la	NULL	det	NULL	B_GN	DET	2	idtext0033	le	##m#s##d	spk1	125.65	125.7	0.01	_
20091112_RATP_SCD_1301	27	2	station	NULL	nc	NULL	I_GN	ROOT	0	idtext0033	station	##f#s##	spk1	125.71	126.44	0.01	//
20091112_RATP_SCD_1301	27	3	là	NULL	adv	NULL	B_GADV	NOLINK	0	idtext0034	là	#####	spk1	126.45	126.62	0.01	_
20091112_RATP_SCD_1301	27	4	vous	NULL	cln	NULL	B_GN	SUJ	5	idtext0034	cln	#2##p##	spk1	126.63	126.78	0.01	_
20091112_RATP_SCD_1301	27	5	changerez	NULL	v	NULL	B_GVf	ROOT	0	idtext0034	changer	F#2##p##	spk1	126.79	127.27	0.01	_
20091112_RATP_SCD_1301	27	6	de	NULL	prep	NULL	B_GP	DE_OBJ	5	idtext0034	de	#####	spk1	127.28	127.32	0.01	_
20091112_RATP_SCD_1301	27	7	métro	NULL	nc	NULL	I_GP	OBJ	6	idtext0034	métro	##m#s##	spk1	127.33	127.64	0.01	_
20091112_RATP_SCD_1301	27	8	vous	NULL	cln	NULL	B_GN	SUJ	9	idtext0034	cln	#2##p##	spk1	127.65	127.76	0.01	_
20091112_RATP_SCD_1301	27	9	prendrez	NULL	v	NULL	B_GVf	ROOT	0	idtext0034	prendre	F#2##p##	spk1	127.77	128.05	0.01	_
20091112_RATP_SCD_1301	27	10	ensuite	NULL	adv	NULL	B_GADV	MOD	9	idtext0034	ensuite	#####	spk1	128.06	128.37	0.01	_
20091112_RATP_SCD_1301	27	11	la	NULL	det	NULL	B_GN	DET	12	idtext0034	le	##m#s##d	spk1	128.38	128.44	0.01	_
20091112_RATP_SCD_1301	27	12	ligne	NULL	nc	B_T	I_GN	OBJ	9	idtext0034	ligne	##f#s##	spk1	128.45	128.73	0.01	_
20091112_RATP_SCD_1301	27	13	douze	NULL	adj	I_T	I_GN	MOD	12	idtext0034	douze	#####	spk1	128.74	129.46	?	//

20091112_RATP_SCD_1301	28	1	euh	DISF_M	pres	NULL	NULL	NOLINK	0	idtext0035	euh	#####	spk2	132.03	132.29	0.01	_
20091112_RATP_SCD_1301	28	2	à	NULL	prep	NULL	B_GP	MOD	5	idtext0035	à	#####	spk2	132.3	132.37	0.01	_
20091112_RATP_SCD_1301	28	3	Madeleine	NULL	nc	B_A	I_GP	OBJ	2	idtext0035	Madeleine	##f#s##	spk2	132.38	132.69	0.01	_
20091112_RATP_SCD_1301	28	4	on	NULL	cln	NULL	B_GN	SUJ	5	idtext0035	cln	#3##s##	spk2	132.7	132.78	0.01	_
20091112_RATP_SCD_1301	28	5	prend	NULL	v	NULL	B_GVf	ROOT	0	idtext0035	prendre	P#3##s##	spk2	132.79	132.91	0.01	_
20091112_RATP_SCD_1301	28	6	la	NULL	det	NULL	B_GN	DET	7	idtext0035	le	##m#s##d	spk2	132.92	133.01	0.01	_
20091112_RATP_SCD_1301	28	7	ligne	NULL	nc	NULL	I_GN	OBJ	5	idtext0035	ligne	##f#s##	spk2	133.02	133.19	?	//

20091112_RATP_SCD_1301	29	1	douze	NULL	nc	NULL	B_GN	NOLINK	0	idtext0036	douze	##m###	spk2	133.24	133.51	?	_

20091112_RATP_SCD_1301	30	1	la	NULL	det	NULL	B_NULL	NOLINK	0	idtext0037	le	##m#s##d	spk1	133.24	133.51	?	//

20091112_RATP_SCD_1301	31	1	ligne	NULL	nc	B_T	B_GN	ROOT	0	idtext0038	ligne	##f#s##	spk1	133.96	134.04	0.01	_
20091112_RATP_SCD_1301	31	2	douze	NULL	adj	I_T	I_GN	MOD	1	idtext0038	douze	#####	spk1	134.05	134.3	0.01	_
20091112_RATP_SCD_1301	31	3	direction	NULL	nc	NULL	B_GN	MOD	1	idtext0038	direction	##f#s##	spk1	134.31	134.88	0.01	_
20091112_RATP_SCD_1301	31	4	mairie	NULL	nc	B_A	I_GN	MOD	3	idtext0038	mairie	##f#s##	spk1	134.89	135.29	0.01	_
20091112_RATP_SCD_1301	31	5	d'	NULL	prep	I_A	I_GN	DEP	4	idtext0038	d'	#####	spk1	135.3	135.36	0.01	_
20091112_RATP_SCD_1301	31	6	Issy	NULL	np	I_A	I_GN	OBJ	5	idtext0038	Issy	##m#s##	spk1	135.37	136.01	?	_

20091112_RATP_SCD_1301	32	1	et	NULL	coo	NULL	B_NULL	NOLINK	0	idtext0039	et	#####	spk1	138.53	138.61	0.01	_
20091112_RATP_SCD_1301	32	2	vous	NULL	pro	NULL	B_GN	NOLINK	0	idtext0039	vous	#####	spk1	138.62	138.76	?	_

20091112_RATP_SCD_1301	33	1	oui	NULL	adv	NULL	B_GADV	NOLINK	0	idtext0040	oui	#####	spk2	138.51	138.76	?	//

20091112_RATP_SCD_1301	34	1	irez	NULL	v	NULL	B_GVf	ROOT	0	idtext0041	aller	F#2##p##	spk1	138.82	139.13	0.01	_
20091112_RATP_SCD_1301	34	2	jusqu'à	NULL	prep	NULL	B_GP	P_OBJ_LOC	1	idtext0041	jusqu'à	#####	spk1	139.14	139.4	0.01	_
20091112_RATP_SCD_1301	34	3	la	NULL	det	NULL	I_GP	DET	4	idtext0041	le	##m#s##d	spk1	139.41	139.52	0.01	_
20091112_RATP_SCD_1301	34	4	station	NULL	nc	B_A	I_GP	OBJ	2	idtext0041	station	##f#s##	spk1	139.53	140.09	0.01	_
20091112_RATP_SCD_1301	34	5	Porte+de+Versailles	NULL	np	I_A	I_GP	MOD	4	idtext0041	Porte+de+Versailles	#####	spk1	140.1	141.65	?	//

20091112_RATP_SCD_1301	35	1	mairie	NULL	nc	NULL	B_GN	NOLINK	0	idtext0042	mairie	##f#s##	spk2	142.63	143.36	?	//

20091112_RATP_SCD_1301	36	1	d'	NULL	prep	NULL	B_GP	ROOT	0	idtext0043	d'	#####	spk2	144.58	145.14	0.01	_
20091112_RATP_SCD_1301	36	2	Issy	NULL	nc	B_A	I_GP	OBJ	1	idtext0043	Issy	##m#s##	spk2	145.15	145.58	?	//

20091112_RATP_SCD_1301	37	1	jusqu'à	NULL	prep	NULL	B_GP	ROOT	0	idtext0044	jusqu'à	#####	spk2	148.59	149.59	0.01	_
20091112_RATP_SCD_1301	37	2	station	NULL	nc	B_A	I_GP	OBJ	1	idtext0044	station	##f#s##	spk2	149.6	149.96	0.01	_
20091112_RATP_SCD_1301	37	3	Porte+de+Versailles	NULL	np	I_A	I_GP	MOD	2	idtext0044	Porte+de+Versailles	#####	spk2	149.97	150.74	0.01	_
20091112_RATP_SCD_1301	37	4	OK	NULL	adv	NULL	B_GADV	NOLINK	0	idtext0044	ok	#####	spk2	150.75	151.01	?	//

20091112_RATP_SCD_1301	38	1	oui	NULL	adv	NULL	B_GADV	NOLINK	0	idtext0045	oui	#####	spk1	151.18	151.43	?	//

20091112_RATP_SCD_1301	39	1	merci	NULL	adv	NULL	B_GADV	NOLINK	0	idtext0046	merci	#####	spk2	151.87	152.23	?	//

20091112_RATP_SCD_1301	40	1	mais	NULL	coo	NULL	B_NULL	ROOT	0	idtext0047	mais	#####	spk1	152.32	152.44	0.01	_
20091112_RATP_SCD_1301	40	2	je	NULL	cln	NULL	B_GN	SUJ	5	idtext0047	cln	#1##s##	spk1	152.45	152.51	0.01	_
20091112_RATP_SCD_1301	40	3	vous	NULL	clo	NULL	B_GN	OBJ	5	idtext0047	cln	#2##p##	spk1	152.52	152.64	0.01	_
20091112_RATP_SCD_1301	40	4	en	NULL	clo	NULL	B_GN	DE_OBJ	5	idtext0047	en	#####	spk1	152.65	152.74	0.01	_
20091112_RATP_SCD_1301	40	5	prie	NULL	v	NULL	B_GVf	DEP_COORD	1	idtext0047	prier	PS#13##s##	spk1	152.75	153.72	?	//

20091112_RATP_SCD_1301	41	1	bonne	NULL	adj	NULL	B_GN	MOD	2	idtext0048	bon	##f#s##	spk2	153.76	153.92	0.01	_
20091112_RATP_SCD_1301	41	2	soirée	NULL	nc	NULL	I_GN	ROOT	0	idtext0048	soirée	##f#s##	spk2	153.93	154.27	?	//

20091112_RATP_SCD_1301	42	1	bonne	NULL	adj	NULL	B_GADJ	NOLINK	0	idtext0049	bon	##f#s##	spk1	153.76	154.27	?	_

20091112_RATP_SCD_1301	43	1	merci	NULL	adv	NULL	B_GADV	NOLINK	0	idtext0050	merci	#####	spk1	154.33	154.77	0.01	_
20091112_RATP_SCD_1301	43	2	à	NULL	prep	NULL	B_GP	ROOT	0	idtext0050	à	#####	spk1	154.78	154.81	0.01	_
20091112_RATP_SCD_1301	43	3	vous	NULL	pro	NULL	I_GP	OBJ	2	idtext0050	vous	#####	spk1	154.82	154.98	0.01	_
20091112_RATP_SCD_1301	43	4	aussi	NULL	adv	NULL	B_GADV	NOLINK	0	idtext0050	aussi	#####	spk1	154.99	155.18	?	/

20091112_RATP_SCD_1301	44	1	monsieur	NULL	nc	NULL	B_GN	NOLINK	0	idtext0051	Monsieur	##m#s##	spk1	155.22	155.55	?	//

20091112_RATP_SCD_1301	45	1	au+revoir	NULL	adv	NULL	B_GADV	NOLINK	0	idtext0052	au+revoir	#####	spk2	155.22	155.55	?	//

20091112_RATP_SCD_1301	46	1	au+revoir	NULL	adv	NULL	B_GADV	NOLINK	0	idtext0053	au+revoir	#####	spk1	155.59	156.16	?	//

