20091112_RATP_SCD_0167	1	1	un	NULL	det	NULL	B_GN	DET	2	idtext0000	un	##m#s##i	spk1	4.35	4.58	0.01	_
20091112_RATP_SCD_0167	1	2	instant	NULL	nc	NULL	I_GN	ROOT	0	idtext0000	instant	##m#s##	spk1	4.59	5.04	0.27	_
20091112_RATP_SCD_0167	1	3	NNAAMMEE	NULL	np	B_HU	B_GN	ROOT	0	idtext0001	ANONYM	NULL	spk1	5.31	5.54	0.04	_
20091112_RATP_SCD_0167	1	4	va	NULL	v	NULL	B_GVf	ROOT	0	idtext0002	aller	P#3##s##	spk1	5.58	5.69	0.01	_
20091112_RATP_SCD_0167	1	5	vous	NULL	clo	NULL	B_GN	A_OBJ	6	idtext0002	cln	#2##p##	spk1	5.7	5.84	0.01	_
20091112_RATP_SCD_0167	1	6	répondre	NULL	vinf	NULL	B_GVi	OBJ	4	idtext0002	répondre	W#####	spk1	5.85	6.51	?	//

20091112_RATP_SCD_0167	2	1	NNAAMMEE	NULL	np	B_HU	B_GN	ROOT	0	idtext0003	ANONYM	NULL	spk2	6.55	7.01	0.07	_
20091112_RATP_SCD_0167	2	2	bonjour	NULL	adv	NULL	B_GADV	NOLINK	0	idtext0004	bonjour	#####	spk2	7.08	7.73	?	//

20091112_RATP_SCD_0167	3	1	oui	NULL	adv	NULL	B_GADV	MOD	2	idtext0005	oui	#####	spk3	8.06	8.47	0.01	_
20091112_RATP_SCD_0167	3	2	bonjour	NULL	adv	NULL	I_GADV	ROOT	0	idtext0005	bonjour	#####	spk3	8.48	8.81	0.01	_
20091112_RATP_SCD_0167	3	3	madame	NULL	nc	NULL	B_GN	NOLINK	0	idtext0005	Monsieur	##f#s##	spk3	8.82	9.37	?	//

20091112_RATP_SCD_0167	4	1	j'	NULL	cln	NULL	B_GN	SUJ	3	idtext0006	cln	#1##s##	spk3	9.79	9.9	0.01	_
20091112_RATP_SCD_0167	4	2	aurais	NULL	v	NULL	B_GVf	AUX	3	idtext0006	avoir	C#12##s##	spk3	9.91	10.08	0.01	_
20091112_RATP_SCD_0167	4	3	voulu	NULL	vppart	NULL	I_GVf	ROOT	0	idtext0006	vouloir	K##m#s##	spk3	10.09	10.34	0.01	_
20091112_RATP_SCD_0167	4	4	connaître	NULL	vinf	NULL	B_GVi	OBJ	3	idtext0006	connaître	W#####	spk3	10.35	11.21	0.01	_
20091112_RATP_SCD_0167	4	5	euh	DISF_M	pres	NULL	NULL	NOLINK	0	idtext0006	euh	#####	spk3	11.22	11.24	0.01	_
20091112_RATP_SCD_0167	4	6	les	NULL	det	NULL	B_GN	DET	7	idtext0006	le	###p##d	spk3	11.25	11.44	0.01	_
20091112_RATP_SCD_0167	4	7	horaires	NULL	nc	NULL	I_GN	OBJ	4	idtext0006	horaire	##m#p##	spk3	11.45	11.81	0.01	_
20091112_RATP_SCD_0167	4	8	du	NULL	prep	NULL	B_GP	DEP	7	idtext0006	du	#####	spk3	11.82	12.11	0.01	_
20091112_RATP_SCD_0167	4	9	deux+cent+quatre-vingt-dix-neuf	NULL	nc	B_T	I_GP	OBJ	8	idtext0006	deux+cent+quatre-vingt-dix-neuf	#####	spk3	12.12	13.31	0.14	_
20091112_RATP_SCD_0167	4	10	au+départ+de	NULL	prep	NULL	B_GP	ROOT	0	idtext0007	au+départ+de	#####	spk3	13.45	14.12	0.01	_
20091112_RATP_SCD_0167	4	11	la	NULL	det	NULL	I_GP	DET	12	idtext0007	le	##m#s##d	spk3	14.13	14.2	0.01	_
20091112_RATP_SCD_0167	4	12	mairie	NULL	nc	NULL	I_GP	OBJ	10	idtext0007	mairie	##f#s##	spk3	14.21	14.55	0.01	_
20091112_RATP_SCD_0167	4	13	de	NULL	prep	NULL	B_GP	DEP	12	idtext0007	de	#####	spk3	14.56	14.58	0.01	_
20091112_RATP_SCD_0167	4	14	Morangis	NULL	nc	B_A	I_GP	OBJ	13	idtext0007	Morangis	##m#s##	spk3	14.59	15.32	0.01	_
20091112_RATP_SCD_0167	4	15	et	NULL	coo	NULL	B_NULL	COORD	14	idtext0007	et	#####	spk3	15.33	15.35	0.01	_
20091112_RATP_SCD_0167	4	16	vers	NULL	prep	NULL	B_GP	DEP_COORD	15	idtext0007	vers	#####	spk3	15.36	15.5	0.01	_
20091112_RATP_SCD_0167	4	17	la	NULL	det	NULL	I_GP	DET	18	idtext0007	le	##m#s##d	spk3	15.51	15.63	0.01	_
20091112_RATP_SCD_0167	4	18	Porte+d'Orléans	NULL	nc	B_A	I_GP	OBJ	16	idtext0007	Porte+d'Orléans	#####	spk3	15.64	16.46	0.39	_
20091112_RATP_SCD_0167	4	19	aux	NULL	prep	NULL	B_GP	ROOT	0	idtext0008	aux	#####	spk3	16.85	16.87	0.01	_
20091112_RATP_SCD_0167	4	20	alentours	NULL	nc	NULL	I_GP	OBJ	19	idtext0008	alentour	##m#p##	spk3	16.88	17.55	0.01	_
20091112_RATP_SCD_0167	4	21	des	NULL	det	NULL	B_GN	DET	23	idtext0008	des	###p##i	spk3	17.56	17.71	0.01	_
20091112_RATP_SCD_0167	4	22	quinze	NULL	det	B_H	I_GN	DET	23	idtext0008	quinze	#####	spk3	17.72	18.06	0.01	_
20091112_RATP_SCD_0167	4	23	heures	NULL	nc	I_H	I_GN	ROOT	0	idtext0008	heure	##f#p##	spk3	18.07	18.42	0.01	_
20091112_RATP_SCD_0167	4	24	s'il+vous+plaît	NULL	adv	NULL	B_GADV	NOLINK	0	idtext0008	s'il+vous+plaît	#####	spk3	18.43	19.06	?	//

20091112_RATP_SCD_0167	5	1	alors	NULL	adv	NULL	B_GADV	NOLINK	0	idtext0009	alors	#####	spk2	19.17	19.44	0.01	_
20091112_RATP_SCD_0167	5	2	le	NULL	det	NULL	B_GN	DET	3	idtext0009	le	##m#s##d	spk2	19.45	19.54	0.01	_
20091112_RATP_SCD_0167	5	3	deux+cent+quatre-vingt-dix-neuf	NULL	nc	B_T	I_GN	ROOT	0	idtext0009	deux+cent+quatre-vingt-dix-neuf	#####	spk2	19.55	20.67	0.01	_
20091112_RATP_SCD_0167	5	4	au+départ+de	NULL	prep	NULL	B_GP	MOD	3	idtext0009	au+départ+de	#####	spk2	20.68	21.02	0.01	_
20091112_RATP_SCD_0167	5	5	la	NULL	det	NULL	I_GP	DET	6	idtext0009	le	##m#s##d	spk2	21.03	21.12	0.01	_
20091112_RATP_SCD_0167	5	6	mairie	NULL	nc	NULL	I_GP	OBJ	4	idtext0009	mairie	##f#s##	spk2	21.13	21.33	0.01	_
20091112_RATP_SCD_0167	5	7	de	NULL	prep	NULL	B_GP	DEP	6	idtext0009	de	#####	spk2	21.34	21.45	0.01	_
20091112_RATP_SCD_0167	5	8	Morangis	NULL	nc	B_A	I_GP	OBJ	7	idtext0009	Morangis	##m#s##	spk2	21.46	21.89	0.01	_
20091112_RATP_SCD_0167	5	9	pour	NULL	prep	NULL	B_GP	MOD	6	idtext0009	pour	#####	spk2	21.9	21.99	0.01	_
20091112_RATP_SCD_0167	5	10	la	NULL	det	NULL	I_GP	DET	11	idtext0009	le	##m#s##d	spk2	22.0	22.09	0.01	_
20091112_RATP_SCD_0167	5	11	Porte+d'Orléans	NULL	nc	B_A	I_GP	OBJ	9	idtext0009	Porte+d'Orléans	#####	spk2	22.1	23.01	?	//

20091112_RATP_SCD_0167	6	1	à+partir+de	NULL	prep	NULL	B_GP	ROOT	0	idtext0010	à+partir+de	#####	spk2	23.68	24.18	0.01	_
20091112_RATP_SCD_0167	6	2	quinze	NULL	det	B_H	I_GP	DET	3	idtext0010	quinze	#####	spk2	24.19	24.53	0.01	_
20091112_RATP_SCD_0167	6	3	heures	NULL	nc	I_H	I_GP	OBJ	1	idtext0010	heure	##f#p##	spk2	24.54	24.75	0.01	_
20091112_RATP_SCD_0167	6	4	hein	DISF_M	pres	I_H	NULL	NOLINK	0	idtext0010	hein	#####	spk2	24.76	24.84	?	//

20091112_RATP_SCD_0167	7	1	oui	NULL	adv	NULL	B_GADV	NOLINK	0	idtext0011	oui	#####	spk3	25.28	25.43	?	//

20091112_RATP_SCD_0167	8	1	je	NULL	cln	NULL	B_GN	SUJ	2	idtext0012	cln	#1##s##	spk2	25.47	25.49	0.01	_
20091112_RATP_SCD_0167	8	2	recherche	NULL	v	NULL	B_GVf	ROOT	0	idtext0012	rechercher	PS#13##s##	spk2	25.5	25.94	0.01	_
20091112_RATP_SCD_0167	8	3	un	NULL	det	NULL	B_GN	DET	4	idtext0012	un	##m#s##i	spk2	25.95	26.06	0.01	_
20091112_RATP_SCD_0167	8	4	instant	NULL	nc	NULL	I_GN	OBJ	2	idtext0012	instant	##m#s##	spk2	26.07	26.34	0.01	_
20091112_RATP_SCD_0167	8	5	je	NULL	cln	NULL	B_GN	SUJ	7	idtext0012	cln	#1##s##	spk2	26.35	26.38	0.01	_
20091112_RATP_SCD_0167	8	6	vous	NULL	clo	NULL	B_GN	OBJ	7	idtext0012	cln	#2##p##	spk2	26.39	26.5	0.01	_
20091112_RATP_SCD_0167	8	7	prie	NULL	v	NULL	B_GVf	ROOT	0	idtext0012	prier	PS#13##s##	spk2	26.51	26.8	?	//

20091112_RATP_SCD_0167	9	1	madame	NULL	nc	NULL	B_GN	NOLINK	0	idtext0013	Monsieur	##f#s##	spk2	68.18	68.46	0.01	_
20091112_RATP_SCD_0167	9	2	s'il+vous+plaît	NULL	adv	NULL	B_GADV	NOLINK	0	idtext0013	s'il+vous+plaît	#####	spk2	68.47	68.98	?	//

20091112_RATP_SCD_0167	10	1	oui	NULL	adv	NULL	B_GADV	NOLINK	0	idtext0014	oui	#####	spk3	69.02	69.34	?	//

20091112_RATP_SCD_0167	11	1	donc	NULL	coo	NULL	B_NULL	ROOT	0	idtext0015	donc	#####	spk2	69.6	69.7	0.01	_
20091112_RATP_SCD_0167	11	2	il	NULL	cln	NULL	B_GN	SUJ_IMP	4	idtext0015	cln	#3#m#s##	spk2	69.71	69.8	0.01	_
20091112_RATP_SCD_0167	11	3	y	NULL	clo	NULL	B_GN	AFF	4	idtext0015	y	#####	spk2	69.81	69.87	0.01	_
20091112_RATP_SCD_0167	11	4	aura	NULL	v	NULL	B_GVf	DEP_COORD	1	idtext0015	avoir	F#3##s##	spk2	69.88	70.06	0.01	_
20091112_RATP_SCD_0167	11	5	en	NULL	prep	NULL	B_GP	P_OBJ	4	idtext0015	en	#####	spk2	70.07	70.24	0.01	_
20091112_RATP_SCD_0167	11	6	un	NULL	det	NULL	I_GP	DET	7	idtext0015	un	##m#s##i	spk2	70.25	70.37	0.01	_
20091112_RATP_SCD_0167	11	7	bus	NULL	nc	NULL	I_GP	OBJ	5	idtext0015	bus	##m###	spk2	70.38	70.58	0.01	/
20091112_RATP_SCD_0167	11	8	approximativement	NULL	adv	NULL	B_GADV	MOD	7	idtext0015	approximativement	#####	spk2	70.59	71.52	0.01	_
20091112_RATP_SCD_0167	11	9	vers	NULL	prep	NULL	B_GP	MOD	7	idtext0015	vers	#####	spk2	71.53	71.67	0.01	_
20091112_RATP_SCD_0167	11	10	les	NULL	det	NULL	I_GP	DET	12	idtext0015	le	###p##d	spk2	71.68	71.79	0.01	_
20091112_RATP_SCD_0167	11	11	quinze	NULL	det	B_H	I_GP	DET	12	idtext0015	quinze	#####	spk2	71.8	72.09	0.01	_
20091112_RATP_SCD_0167	11	12	heures	NULL	nc	I_H	I_GP	OBJ	9	idtext0015	heure	##f#p##	spk2	72.1	72.23	0.01	_
20091112_RATP_SCD_0167	11	13	deux	NULL	adj	I_H	I_GP	MOD	12	idtext0015	deux	#####	spk2	72.24	72.59	?	//

20091112_RATP_SCD_0167	12	1	oui	NULL	adv	NULL	B_GADV	NOLINK	0	idtext0016	oui	#####	spk3	73.47	73.8	?	//

20091112_RATP_SCD_0167	13	1	ou	NULL	coo	NULL	B_NULL	ROOT	0	idtext0017	ou	#####	spk2	73.84	73.92	0.01	_
20091112_RATP_SCD_0167	13	2	sinon	NULL	coo	NULL	B_NULL	NOLINK	0	idtext0017	sinon	#####	spk2	73.93	74.22	0.01	_
20091112_RATP_SCD_0167	13	3	quinze	NULL	det	B_H	B_GN	DET	4	idtext0017	quinze	#####	spk2	74.23	74.53	0.01	_
20091112_RATP_SCD_0167	13	4	heures	NULL	nc	I_H	I_GN	DEP_COORD	1	idtext0017	heure	##f#p##	spk2	74.54	74.83	0.01	_
20091112_RATP_SCD_0167	13	5	trente	NULL	adj	I_H	I_GN	MOD	4	idtext0017	trente	#####	spk2	74.84	75.41	?	//

20091112_RATP_SCD_0167	14	1	est-ce+qu'	NULL	pri	NULL	B_NULL	NOLINK	0	idtext0018	est-ce+qu'	#####	spk3	76.22	76.46	0.01	_
20091112_RATP_SCD_0167	14	2	il	NULL	cln	NULL	B_GN	SUJ_IMP	4	idtext0018	cln	#3#m#s##	spk3	76.47	76.52	0.01	_
20091112_RATP_SCD_0167	14	3	y	NULL	clo	NULL	B_GN	AFF	4	idtext0018	y	#####	spk3	76.53	76.65	0.01	_
20091112_RATP_SCD_0167	14	4	a	NULL	v	NULL	B_GVf	ROOT	0	idtext0018	avoir	P#3##s##	spk3	76.66	76.74	0.01	_
20091112_RATP_SCD_0167	14	5	des	NULL	det	NULL	B_GN	DET	6	idtext0018	des	###p##i	spk3	76.75	76.86	0.01	_
20091112_RATP_SCD_0167	14	6	problèmes	NULL	nc	NULL	I_GN	OBJ	4	idtext0018	problème	##m#p##	spk3	76.87	77.92	0.01	_
20091112_RATP_SCD_0167	14	7	euh	DISF_M	pres	NULL	NULL	NOLINK	0	idtext0018	euh	#####	spk3	77.93	77.97	0.01	_
20091112_RATP_SCD_0167	14	8	des	NULL	det	NULL	B_NULL	NOLINK	0	idtext0018	des	###p##i	spk3	77.98	78.7	?	_

20091112_RATP_SCD_0167	15	1	des	NULL	det	NULL	B_GN	DET	2	idtext0019	des	###p##i	spk2	80.28	80.39	0.01	_
20091112_RATP_SCD_0167	15	2	perturbations	NULL	nc	NULL	I_GN	ROOT	0	idtext0019	perturbation	##f#p##	spk2	80.4	80.95	0.01	_
20091112_RATP_SCD_0167	15	3	sur	NULL	prep	NULL	B_GP	P_OBJ	2	idtext0019	sur	#####	spk2	80.96	81.23	0.01	_
20091112_RATP_SCD_0167	15	4	la	NULL	det	NULL	I_GP	DET	5	idtext0019	le	##m#s##d	spk2	81.24	81.29	0.01	_
20091112_RATP_SCD_0167	15	5	ligne	NULL	nc	NULL	I_GP	OBJ	3	idtext0019	ligne	##f#s##	spk2	81.3	81.49	?	//

20091112_RATP_SCD_0167	16	1	oui	NULL	adv	NULL	B_GADV	NOLINK	0	idtext0020	oui	#####	spk3	81.55	81.86	?	//

20091112_RATP_SCD_0167	17	1	non	NULL	adv	NULL	B_GADV	MOD	2	idtext0021	non	#####	spk2	81.92	82.21	0.01	_
20091112_RATP_SCD_0167	17	2	du+tout	NULL	adv	NULL	I_GADV	ROOT	0	idtext0021	du+tout	#####	spk2	82.22	82.59	?	_

20091112_RATP_SCD_0167	18	1	quinze	NULL	det	B_H	B_GN	DET	2	idtext0022	quinze	#####	spk3	83.94	84.27	0.01	_
20091112_RATP_SCD_0167	18	2	heures	NULL	nc	I_H	I_GN	NOLINK	0	idtext0022	heure	##f#p##	spk3	84.28	84.44	0.01	_
20091112_RATP_SCD_0167	18	3	deux	NULL	adj	I_H	I_GN	MOD	2	idtext0022	deux	#####	spk3	84.45	84.6	0.01	//
20091112_RATP_SCD_0167	18	4	vous	NULL	cln	NULL	B_GN	SUJ	7	idtext0022	cln	#2##p##	spk3	84.61	84.7	0.01	_
20091112_RATP_SCD_0167	18	5	m'	NULL	clo	NULL	B_GN	A_OBJ	7	idtext0022	cla	#1##s##	spk3	84.71	84.8	0.01	_
20091112_RATP_SCD_0167	18	6	avez	NULL	v	NULL	B_GVf	AUX	7	idtext0022	avoir	P#2##p##	spk3	84.81	85.03	0.01	_
20091112_RATP_SCD_0167	18	7	dit	NULL	vppart	NULL	I_GVf	ROOT	0	idtext0022	dire	J#3##s##	spk3	85.04	85.3	?	//

20091112_RATP_SCD_0167	19	1	ou	NULL	coo	NULL	B_NULL	ROOT	0	idtext0023	ou	#####	spk2	85.37	85.47	0.01	_
20091112_RATP_SCD_0167	19	2	quinze	NULL	det	B_H	B_GN	DET	3	idtext0023	quinze	#####	spk2	85.48	85.77	0.01	_
20091112_RATP_SCD_0167	19	3	heures	NULL	nc	I_H	I_GN	DEP_COORD	1	idtext0023	heure	##f#p##	spk2	85.78	85.9	0.01	_
20091112_RATP_SCD_0167	19	4	trente	NULL	adj	I_H	I_GN	MOD	3	idtext0023	trente	#####	spk2	85.91	86.51	?	//

20091112_RATP_SCD_0167	20	1	d'accord	NULL	adv	NULL	B_GADV	NOLINK	0	idtext0024	d'accord	#####	spk3	87.04	87.54	?	//

20091112_RATP_SCD_0167	21	1	je	NULL	cln	NULL	B_GN	SUJ	3	idtext0025	cln	#1##s##	spk3	87.95	88.07	0.01	_
20091112_RATP_SCD_0167	21	2	vous	NULL	clo	NULL	B_GN	OBJ	3	idtext0025	cln	#2##p##	spk3	88.08	88.21	0.01	_
20091112_RATP_SCD_0167	21	3	remercie	NULL	v	NULL	B_GVf	ROOT	0	idtext0025	remercier	PS#13##s##	spk3	88.22	88.61	?	//

20091112_RATP_SCD_0167	22	1	je	NULL	cln	NULL	B_GN	SUJ	4	idtext0026	cln	#1##s##	spk2	88.65	88.72	0.01	_
20091112_RATP_SCD_0167	22	2	vous	NULL	clo	NULL	B_GN	OBJ	4	idtext0026	cln	#2##p##	spk2	88.73	88.85	0.01	_
20091112_RATP_SCD_0167	22	3	en	NULL	clo	NULL	B_GN	DE_OBJ	4	idtext0026	en	#####	spk2	88.86	88.94	0.01	_
20091112_RATP_SCD_0167	22	4	prie	NULL	v	NULL	B_GVf	ROOT	0	idtext0026	prier	PS#13##s##	spk2	88.95	89.06	0.01	_
20091112_RATP_SCD_0167	22	5	bonne	NULL	adj	NULL	B_GN	MOD	6	idtext0026	bon	##f#s##	spk2	89.07	89.23	0.01	_
20091112_RATP_SCD_0167	22	6	journée	NULL	nc	NULL	I_GN	ROOT	0	idtext0026	journée	##f#s##	spk2	89.24	89.42	0.01	_
20091112_RATP_SCD_0167	22	7	madame	NULL	nc	NULL	B_GN	NOLINK	0	idtext0026	Monsieur	##f#s##	spk2	89.43	89.77	?	//

20091112_RATP_SCD_0167	23	1	au+revoir	NULL	adv	NULL	B_GADV	NOLINK	0	idtext0027	au+revoir	#####	spk3	89.89	90.24	?	//

20091112_RATP_SCD_0167	24	1	au+revoir	NULL	adv	NULL	B_GADV	NOLINK	0	idtext0028	au+revoir	#####	spk2	90.29	90.76	?	//

