20091112_RATP_SCD_0489	1	1	NNAAMMEE	NULL	np	B_HU	B_GN	ROOT	0	idtext0000	ANONYM	NULL	spk1	2.92	3.09	0.01	_
20091112_RATP_SCD_0489	1	2	bonjour	NULL	adv	NULL	B_GADV	NOLINK	0	idtext0001	bonjour	#####	spk1	3.1	4.27	0.16	_
20091112_RATP_SCD_0489	1	3	s'il+vous+plaît	NULL	adv	NULL	B_GADV	NOLINK	0	idtext0002	s'il+vous+plaît	#####	spk1	4.43	5.13	?	//

20091112_RATP_SCD_0489	2	1	allo	NULL	adv	NULL	B_GADV	NOLINK	0	idtext0003	allo	#####	spk2	5.83	6.12	?	//

20091112_RATP_SCD_0489	3	1	bonjour	NULL	adv	NULL	B_GADV	NOLINK	0	idtext0004	bonjour	#####	spk1	6.17	6.44	0.01	_
20091112_RATP_SCD_0489	3	2	madame	NULL	nc	NULL	B_GN	NOLINK	0	idtext0004	Monsieur	##f#s##	spk1	6.45	6.91	?	//

20091112_RATP_SCD_0489	4	1	oui	NULL	adv	NULL	B_GADV	MOD	2	idtext0005	oui	#####	spk2	6.96	7.25	0.01	_
20091112_RATP_SCD_0489	4	2	bonjour	NULL	adv	NULL	I_GADV	ROOT	0	idtext0005	bonjour	#####	spk2	7.26	7.54	0.01	_
20091112_RATP_SCD_0489	4	3	madame	NULL	nc	NULL	B_GN	NOLINK	0	idtext0005	Monsieur	##f#s##	spk2	7.55	8.07	0.01	_
20091112_RATP_SCD_0489	4	4	euh	DISF_M	pres	NULL	NULL	NOLINK	0	idtext0005	euh	#####	spk2	8.08	8.1	0.01	_
20091112_RATP_SCD_0489	4	5	voilà	DISF_M	pres	NULL	NULL	NOLINK	0	idtext0005	voilà	#####	spk2	8.11	8.43	0.01	_
20091112_RATP_SCD_0489	4	6	je	NULL	cln	NULL	B_GN	SUJ	10	idtext0005	cln	#1##s##	spk2	8.44	8.94	0.01	_
20091112_RATP_SCD_0489	4	7	en+fait	GREF	adv	NULL	B_GADV	NOLINK	0	idtext0005	en+fait	#####	spk2	8.95	9.22	0.01	_
20091112_RATP_SCD_0489	4	8	j'	NULL	cln	NULL	B_GN	SUJ	10	idtext0005	cln	#1##s##	spk2	9.23	9.29	0.01	_
20091112_RATP_SCD_0489	4	9	ai	NULL	v	NULL	B_GVf	AUX	10	idtext0005	avoir	P#1##s##	spk2	9.3	9.44	0.01	_
20091112_RATP_SCD_0489	4	10	perdu	NULL	vppart	NULL	I_GVf	ROOT	0	idtext0005	perdre	K##m#s##	spk2	9.45	9.74	0.01	_
20091112_RATP_SCD_0489	4	11	mon	NULL	det	NULL	B_GN	DET	12	idtext0005	mon	###s##o	spk2	9.75	9.94	0.01	_
20091112_RATP_SCD_0489	4	12	portable	NULL	nc	NULL	I_GN	OBJ	10	idtext0005	portable	##m#s##	spk2	9.95	10.59	?	_

20091112_RATP_SCD_0489	5	1	oui	NULL	adv	NULL	B_GADV	NOLINK	0	idtext0006	oui	#####	spk1	10.7	11.32	?	//

20091112_RATP_SCD_0489	6	1	et	NULL	coo	NULL	B_NULL	ROOT	0	idtext0007	et	#####	spk2	11.45	11.62	0.01	_
20091112_RATP_SCD_0489	6	2	euh	DISF_M	pres	NULL	NULL	NOLINK	0	idtext0007	euh	#####	spk2	11.63	11.69	0.01	_
20091112_RATP_SCD_0489	6	3	je	NULL	cln	NULL	B_GN	SUJ	4	idtext0007	cln	#1##s##	spk2	11.7	11.85	0.01	_
20091112_RATP_SCD_0489	6	4	souhaiterais	NULL	v	NULL	B_GVf	DEP_COORD	1	idtext0007	souhaiter	C#12##s##	spk2	11.86	12.16	0.01	_
20091112_RATP_SCD_0489	6	5	savoir	NULL	vinf	NULL	I_GVf	OBJ	4	idtext0007	savoir	W#####	spk2	12.17	12.54	0.01	_
20091112_RATP_SCD_0489	6	6	comment	NULL	adv	NULL	B_GVi	MOD	7	idtext0007	comment	#####	spk2	12.55	12.76	0.01	_
20091112_RATP_SCD_0489	6	7	faire	NULL	vinf	NULL	I_GVi	OBJ	4	idtext0007	faire	W#####	spk2	12.77	13.65	0.01	_
20091112_RATP_SCD_0489	6	8	euh	DISF_M	pres	NULL	NULL	NOLINK	0	idtext0007	euh	#####	spk2	13.66	13.68	0.01	_
20091112_RATP_SCD_0489	6	9	en+fait	GREF	adv	NULL	B_GADV	NOLINK	0	idtext0007	en+fait	#####	spk2	13.69	14.09	0.01	_
20091112_RATP_SCD_0489	6	10	euh	DISF_M	pres	NULL	NULL	NOLINK	0	idtext0007	euh	#####	spk2	14.1	14.19	0.01	_
20091112_RATP_SCD_0489	6	11	ça	NULL	pro	NULL	B_GN	SUJ_IMP	12	idtext0007	ça	#####	spk2	14.2	14.33	0.01	_
20091112_RATP_SCD_0489	6	12	doit	NULL	v	NULL	B_GVf	ROOT	0	idtext0007	devoir	P#3##s##	spk2	14.34	14.48	0.01	_
20091112_RATP_SCD_0489	6	13	être	NULL	vinf	NULL	I_GVf	OBJ	12	idtext0007	être	W#####	spk2	14.49	14.63	0.01	/
20091112_RATP_SCD_0489	6	14	soit	NULL	coo	NULL	B_NULL	NOLINK	0	idtext0007	soit	#####	spk2	14.64	14.8	0.01	_
20091112_RATP_SCD_0489	6	15	sur	NULL	prep	NULL	B_GP	P_OBJ_LOC	12	idtext0007	sur	#####	spk2	14.81	14.96	0.01	_
20091112_RATP_SCD_0489	6	16	la	NULL	det	NULL	I_GP	DET	17	idtext0007	le	##m#s##d	spk2	14.97	15.09	0.01	_
20091112_RATP_SCD_0489	6	17	ligne	NULL	nc	B_T	I_GP	OBJ	15	idtext0007	ligne	##f#s##	spk2	15.1	15.38	0.01	_
20091112_RATP_SCD_0489	6	18	trois	NULL	adj	I_T	I_GP	MOD	17	idtext0007	trois	#####	spk2	15.39	15.86	0.01	_
20091112_RATP_SCD_0489	6	19	soit	NULL	coo	NULL	B_NULL	ROOT	0	idtext0007	soit	#####	spk2	15.87	16.11	0.01	_
20091112_RATP_SCD_0489	6	20	dans	NULL	prep	NULL	B_GP	DEP_COORD	19	idtext0007	dans	#####	spk2	16.12	16.27	0.01	_
20091112_RATP_SCD_0489	6	21	le	NULL	det	NULL	I_GP	DET	22	idtext0007	le	##m#s##d	spk2	16.28	16.48	0.01	_
20091112_RATP_SCD_0489	6	22	soixante-seize	NULL	nc	B_T	I_GP	OBJ	20	idtext0007	soixante-seize	#####	spk2	16.49	17.38	0.01	//
20091112_RATP_SCD_0489	6	23	euh	DISF_M	pres	I_T	NULL	NOLINK	0	idtext0007	euh	#####	spk2	17.39	17.41	0.01	_
20091112_RATP_SCD_0489	6	24	le	NULL	det	NULL	B_GN	DET	25	idtext0007	le	##m#s##d	spk2	17.42	17.54	0.01	_
20091112_RATP_SCD_0489	6	25	bus	NULL	nc	NULL	I_GN	MOD	22	idtext0007	bus	##m###	spk2	17.55	18.57	?	//

20091112_RATP_SCD_0489	7	1	vous	NULL	cln	NULL	B_GN	SUJ	4	idtext0008	cln	#2##p##	spk1	18.61	18.67	0.01	_
20091112_RATP_SCD_0489	7	2	l'	NULL	clo	NULL	B_GN	OBJ	4	idtext0008	cla	#3##s##	spk1	18.68	18.71	0.01	_
20091112_RATP_SCD_0489	7	3	auriez	NULL	v	NULL	B_GVf	AUX	4	idtext0008	avoir	C#2##p##	spk1	18.72	18.93	0.01	_
20091112_RATP_SCD_0489	7	4	égaré	NULL	vppart	NULL	I_GVf	ROOT	0	idtext0008	égarer	K##m#s##	spk1	18.94	19.23	0.01	_
20091112_RATP_SCD_0489	7	5	quand	NULL	adv	NULL	B_GADV	MOD	4	idtext0009	quand	#####	spk1	19.24	19.46	?	_

20091112_RATP_SCD_0489	8	1	hier	NULL	adv	NULL	B_GADV	NOLINK	0	idtext0010	hier	#####	spk2	19.85	20.19	0.01	_
20091112_RATP_SCD_0489	8	2	soir	NULL	nc	NULL	B_GN	NOLINK	0	idtext0010	soir	##m#s##	spk2	20.2	20.63	?	//

20091112_RATP_SCD_0489	9	1	hier	NULL	adv	NULL	B_GADV	NOLINK	0	idtext0011	hier	#####	spk1	20.8	21.43	0.16	_
20091112_RATP_SCD_0489	9	2	et	NULL	coo	NULL	B_NULL	ROOT	0	idtext0012	et	#####	spk1	21.59	21.66	0.01	_
20091112_RATP_SCD_0489	9	3	le	DISF_R	det	NULL	NULL	NOLINK	0	idtext0012	le	##m#s##d	spk1	21.67	21.92	0.01	_
20091112_RATP_SCD_0489	9	4	quelle	NULL	det	NULL	B_GN	DET	5	idtext0012	quel	##f#s##	spk1	21.93	22.14	0.01	_
20091112_RATP_SCD_0489	9	5	marque	NULL	nc	NULL	I_GN	DEP_COORD	2	idtext0012	marque	##f#s##	spk1	22.15	22.75	?	//

20091112_RATP_SCD_0489	10	1	c'	NULL	cln	NULL	B_GN	SUJ_IMP	2	idtext0013	ce	###s##	spk2	23.11	23.25	0.01	_
20091112_RATP_SCD_0489	10	2	est	NULL	v	NULL	B_GVf	ROOT	0	idtext0013	être	P#3##s##	spk2	23.26	23.36	0.01	_
20091112_RATP_SCD_0489	10	3	un	NULL	det	NULL	B_GN	DET	4	idtext0013	un	##m#s##i	spk2	23.37	23.65	0.01	_
20091112_RATP_SCD_0489	10	4	Sony	NULL	np	B_PRD	I_GN	ATS	2	idtext0013	Sony	#####	spk2	23.66	23.94	0.01	_
20091112_RATP_SCD_0489	10	5	Ericsson	NULL	np	I_PRD	I_GN	MOD	4	idtext0013	Ericsson	#####	spk2	23.95	24.61	0.01	_
20091112_RATP_SCD_0489	10	6	de	NULL	prep	NULL	B_GP	DEP	4	idtext0013	de	#####	spk2	24.62	24.78	0.01	_
20091112_RATP_SCD_0489	10	7	couleur	NULL	nc	NULL	I_GP	OBJ	6	idtext0013	couleur	##f#s##	spk2	24.79	25.09	0.01	_
20091112_RATP_SCD_0489	10	8	noire	NULL	adj	NULL	I_GP	MOD	7	idtext0013	noir	##f#s##	spk2	25.1	25.85	?	//

20091112_RATP_SCD_0489	11	1	noire	NULL	adj	NULL	B_GADJ	NOLINK	0	idtext0014	noir	##f#s##	spk1	26.0	26.67	0.64	//
20091112_RATP_SCD_0489	11	2	un	NULL	det	NULL	B_GN	DET	3	idtext0015	un	##m#s##i	spk1	27.31	27.48	0.01	_
20091112_RATP_SCD_0489	11	3	instant	NULL	nc	NULL	I_GN	ROOT	0	idtext0015	instant	##m#s##	spk1	27.49	27.79	0.01	_
20091112_RATP_SCD_0489	11	4	s'il+vous+plaît	NULL	adv	NULL	B_GADV	NOLINK	0	idtext0015	s'il+vous+plaît	#####	spk1	27.8	28.14	0.01	_
20091112_RATP_SCD_0489	11	5	donc	NULL	coo	NULL	B_NULL	ROOT	0	idtext0015	donc	#####	spk1	28.15	28.34	0.01	_
20091112_RATP_SCD_0489	11	6	dans	NULL	prep	NULL	B_GP	DEP_COORD	5	idtext0015	dans	#####	spk1	28.35	28.47	0.01	_
20091112_RATP_SCD_0489	11	7	votre	NULL	det	NULL	I_GP	DET	8	idtext0015	votre	###s##o	spk1	28.48	28.71	0.01	_
20091112_RATP_SCD_0489	11	8	bus	NULL	nc	B_T	I_GP	OBJ	6	idtext0015	bus	##m###	spk1	28.72	28.89	0.01	_
20091112_RATP_SCD_0489	11	9	soixante	NULL	adj	I_T	I_GP	MOD	8	idtext0015	soixante	#####	spk1	28.9	29.38	0.01	_
20091112_RATP_SCD_0489	11	10	seize	NULL	adj	I_T	I_GP	MOD	9	idtext0015	seize	#####	spk1	29.39	29.74	?	//

20091112_RATP_SCD_0489	12	1	ou	NULL	coo	NULL	B_NULL	ROOT	0	idtext0016	ou	#####	spk1	29.81	29.96	0.01	_
20091112_RATP_SCD_0489	12	2	dans	NULL	prep	NULL	B_GP	DEP_COORD	1	idtext0016	dans	#####	spk1	29.97	30.12	0.01	_
20091112_RATP_SCD_0489	12	3	le	NULL	det	NULL	I_GP	DET	4	idtext0016	le	##m#s##d	spk1	30.13	30.19	0.01	_
20091112_RATP_SCD_0489	12	4	métro	NULL	nc	NULL	I_GP	OBJ	2	idtext0016	métro	##m#s##	spk1	30.2	30.76	?	//

20091112_RATP_SCD_0489	13	1	ou	NULL	coo	NULL	B_NULL	ROOT	0	idtext0017	ou	#####	spk2	29.81	30.26	0.01	_
20091112_RATP_SCD_0489	13	2	la	NULL	det	NULL	B_GN	DET	3	idtext0017	le	##m#s##d	spk2	30.27	30.5	0.01	_
20091112_RATP_SCD_0489	13	3	ligne	NULL	nc	NULL	I_GN	DEP_COORD	1	idtext0017	ligne	##f#s##	spk2	30.51	30.76	?	//

20091112_RATP_SCD_0489	14	1	trois	NULL	nc	NULL	B_GN	NOLINK	0	idtext0018	trois	##m###	spk2	30.8	31.17	?	_

20091112_RATP_SCD_0489	15	1	hm	DISF_M	pres	NULL	NULL	NOLINK	0	idtext0019	hm	#####	spk1	31.24	31.47	?	//

20091112_RATP_SCD_0489	16	1	un	NULL	det	NULL	B_GN	DET	2	idtext0020	un	##m#s##i	spk1	31.51	31.7	0.01	_
20091112_RATP_SCD_0489	16	2	instant	NULL	nc	NULL	I_GN	ROOT	0	idtext0020	instant	##m#s##	spk1	31.71	32.05	0.01	_
20091112_RATP_SCD_0489	16	3	s'il+vous+plaît	NULL	adv	NULL	B_GADV	NOLINK	0	idtext0020	s'il+vous+plaît	#####	spk1	32.06	32.88	?	//

20091112_RATP_SCD_0489	17	1	voilà	DISF_M	pres	NULL	NULL	NOLINK	0	idtext0021	voilà	#####	spk2	31.65	31.97	0.01	_
20091112_RATP_SCD_0489	17	2	entre	NULL	prep	NULL	B_NULL	NOLINK	0	idtext0021	entre	#####	spk2	31.98	32.36	0.01	_
20091112_RATP_SCD_0489	17	3	le	NULL	det	NULL	B_NULL	NOLINK	0	idtext0021	le	##m#s##d	spk2	32.37	32.88	?	_

20091112_RATP_SCD_0489	18	1	entre	NULL	prep	NULL	B_GP	ROOT	0	idtext0022	entre	#####	spk2	32.92	33.15	0.01	_
20091112_RATP_SCD_0489	18	2	le	NULL	det	NULL	I_GP	DET	3	idtext0022	le	##m#s##d	spk2	33.16	33.24	0.01	_
20091112_RATP_SCD_0489	18	3	Sentier	NULL	nc	B_A	I_GP	OBJ	1	idtext0022	Sentier	#####	spk2	33.25	33.81	0.01	_
20091112_RATP_SCD_0489	18	4	et	NULL	coo	NULL	B_NULL	COORD	3	idtext0022	et	#####	spk2	33.82	33.85	0.01	_
20091112_RATP_SCD_0489	18	5	Galliéni	NULL	nc	B_A	B_GN	DEP_COORD	4	idtext0022	Galliéni	#####	spk2	33.86	34.43	?	/

20091112_RATP_SCD_0489	19	1	d'accord	NULL	adv	NULL	B_GADV	NOLINK	0	idtext0023	d'accord	#####	spk1	34.47	35.16	0.01	//
20091112_RATP_SCD_0489	19	2	un	NULL	det	NULL	B_GN	DET	3	idtext0023	un	##m#s##i	spk1	35.17	35.35	0.01	_
20091112_RATP_SCD_0489	19	3	instant	NULL	nc	NULL	I_GN	ROOT	0	idtext0023	instant	##m#s##	spk1	35.36	35.66	0.01	_
20091112_RATP_SCD_0489	19	4	s'il+vous+plaît	NULL	adv	NULL	B_GADV	NOLINK	0	idtext0023	s'il+vous+plaît	#####	spk1	35.67	36.29	?	//

20091112_RATP_SCD_0489	20	1	ben	DISF_M	pres	NULL	NULL	NOLINK	0	idtext0024	ben	#####	spk3	134.61	134.78	0.01	_
20091112_RATP_SCD_0489	20	2	oui	NULL	adv	NULL	B_GADV	NOLINK	0	idtext0024	oui	#####	spk3	134.79	134.89	0.01	_
20091112_RATP_SCD_0489	20	3	tu	NULL	cln	NULL	B_GN	SUJ	4	idtext0024	cln	#2##s##	spk3	134.9	135.02	0.01	_
20091112_RATP_SCD_0489	20	4	as	NULL	v	NULL	B_GVf	ROOT	0	idtext0024	avoir	P#2##s##	spk3	135.03	135.25	0.01	_
20091112_RATP_SCD_0489	20	5	intérêt	NULL	nc	NULL	B_GN	OBJ	4	idtext0024	intérêt	##m#s##	spk3	135.26	135.77	0.01	_
20091112_RATP_SCD_0489	20	6	hein	DISF_M	pres	NULL	NULL	NOLINK	0	idtext0024	hein	#####	spk3	135.78	135.83	?	//

20091112_RATP_SCD_0489	21	1	oui	NULL	adv	NULL	B_GADV	NOLINK	0	idtext0025	oui	#####	spk1	135.89	136.13	?	//

20091112_RATP_SCD_0489	22	1	oui	NULL	adv	NULL	B_GADV	NOLINK	0	idtext0026	oui	#####	spk3	136.34	136.8	?	//

20091112_RATP_SCD_0489	23	1	bonjour	NULL	adv	NULL	B_GADV	NOLINK	0	idtext0027	bonjour	#####	spk1	136.84	137.19	0.01	/
20091112_RATP_SCD_0489	23	2	c'	NULL	cln	NULL	B_GN	SUJ_IMP	3	idtext0027	ce	###s##	spk1	137.2	137.23	0.01	_
20091112_RATP_SCD_0489	23	3	est	NULL	v	NULL	B_GVf	ROOT	0	idtext0027	être	P#3##s##	spk1	137.24	137.3	0.01	_
20091112_RATP_SCD_0489	23	4	Vincennes	NULL	nc	B_A	B_GN	ATS	3	idtext0027	Vincennes	##m#s##	spk1	137.31	137.85	?	//

20091112_RATP_SCD_0489	24	1	les	NULL	det	NULL	B_NULL	NOLINK	0	idtext0028	le	###p##d	spk1	138.06	138.62	?	//

20091112_RATP_SCD_0489	25	1	oui	NULL	adv	NULL	B_GADV	NOLINK	0	idtext0029	oui	#####	spk3	138.09	138.62	?	//

20091112_RATP_SCD_0489	26	1	à	NULL	prep	NULL	B_NULL	MOD	3	idtext0030	à	#####	spk1	138.67	138.74	0.01	_
20091112_RATP_SCD_0489	26	2	tout	NULL	adv	NULL	B_GADV	OBJ	1	idtext0030	tout	##m#s##	spk1	138.75	138.92	0.01	_
20091112_RATP_SCD_0489	26	3	hasard	NULL	nc	NULL	B_GN	ROOT	0	idtext0030	hasard	##m#s##	spk1	138.93	139.13	0.01	_
20091112_RATP_SCD_0489	26	4	les	NULL	det	NULL	B_GN	DET	5	idtext0030	le	###p##d	spk1	139.14	139.33	0.01	_
20091112_RATP_SCD_0489	26	5	OT	NULL	nc	NULL	I_GN	OBJ	12	idtext0030	OT	#####	spk1	139.34	139.53	0.01	_
20091112_RATP_SCD_0489	26	6	du	NULL	prep	NULL	B_GP	DEP	5	idtext0030	du	#####	spk1	139.54	139.64	0.01	_
20091112_RATP_SCD_0489	26	7	soixante-seize	NULL	nc	B_T	I_GP	OBJ	6	idtext0030	soixante-seize	#####	spk1	139.65	140.49	0.01	_
20091112_RATP_SCD_0489	26	8	est-ce+que	NULL	pri	NULL	B_NULL	NOLINK	0	idtext0030	est-ce+que	#####	spk1	140.5	140.79	0.01	_
20091112_RATP_SCD_0489	26	9	tu	NULL	cln	NULL	B_GN	SUJ	12	idtext0030	cln	#2##s##	spk1	140.8	140.9	0.01	_
20091112_RATP_SCD_0489	26	10	les	NULL	clo	NULL	B_GN	OBJ	12	idtext0030	cla	#3##p##	spk1	140.91	141.11	0.01	_
20091112_RATP_SCD_0489	26	11	as	NULL	v	NULL	B_GVf	AUX	12	idtext0030	avoir	P#2##s##	spk1	141.12	141.14	0.01	_
20091112_RATP_SCD_0489	26	12	enregistrés	NULL	vppart	NULL	I_GVf	ROOT	0	idtext0030	enregistrer	K##m#p##	spk1	141.15	141.74	0.01	_
20091112_RATP_SCD_0489	26	13	ceux	NULL	pro	NULL	B_GN	OBJ	12	idtext0030	ceux	#####	spk1	141.75	141.88	0.01	_
20091112_RATP_SCD_0489	26	14	d'	NULL	prep	NULL	B_NULL	DEP	13	idtext0030	d'	#####	spk1	141.89	142.03	0.01	_
20091112_RATP_SCD_0489	26	15	hier	NULL	adv	NULL	B_GADV	OBJ	14	idtext0030	hier	#####	spk1	142.04	142.34	?	//

20091112_RATP_SCD_0489	27	1	euh	DISF_M	pres	NULL	NULL	NOLINK	0	idtext0031	euh	#####	spk3	142.69	142.91	0.01	_
20091112_RATP_SCD_0489	27	2	ceux	NULL	pro	NULL	B_GN	ROOT	0	idtext0031	ceux	#####	spk3	142.92	142.99	0.01	_
20091112_RATP_SCD_0489	27	3	d'	NULL	prep	NULL	B_NULL	DEP	2	idtext0031	d'	#####	spk3	143.0	143.02	0.01	_
20091112_RATP_SCD_0489	27	4	hier	NULL	adv	NULL	B_GADV	MOD	5	idtext0031	hier	#####	spk3	143.03	143.28	0.01	_
20091112_RATP_SCD_0489	27	5	oui	NULL	adv	NULL	I_GADV	ROOT	0	idtext0031	oui	#####	spk3	143.29	143.5	?	//

20091112_RATP_SCD_0489	28	1	un	NULL	det	NULL	B_GN	DET	3	idtext0032	un	##m#s##i	spk1	143.58	143.61	0.01	_
20091112_RATP_SCD_0489	28	2	petit	NULL	adj	NULL	I_GN	MOD	3	idtext0032	petit	##m#s##	spk1	143.62	144.22	0.01	_
20091112_RATP_SCD_0489	28	3	portable	NULL	nc	NULL	I_GN	ROOT	0	idtext0032	portable	##m#s##	spk1	144.23	144.91	?	//

20091112_RATP_SCD_0489	29	1	euh	DISF_M	pres	NULL	NULL	NOLINK	0	idtext0033	euh	#####	spk3	143.54	144.44	0.01	_
20091112_RATP_SCD_0489	29	2	non	NULL	adv	NULL	B_GADV	NOLINK	0	idtext0033	non	#####	spk3	144.45	144.91	?	_

20091112_RATP_SCD_0489	30	1	t()	DISF_T	tronc	NULL	NULL	NOLINK	0	idtext0034	t()	#####	spk3	144.96	144.98	0.01	//
20091112_RATP_SCD_0489	30	2	euh	DISF_M	pres	NULL	NULL	NOLINK	0	idtext0034	euh	#####	spk3	144.99	145.1	0.01	_
20091112_RATP_SCD_0489	30	3	il	NULL	cln	NULL	B_GN	SUJ_IMP	5	idtext0034	cln	#3#m#s##	spk3	145.11	145.2	0.01	_
20091112_RATP_SCD_0489	30	4	y	NULL	clo	NULL	B_GN	AFF	5	idtext0034	y	#####	spk3	145.21	145.36	0.01	_
20091112_RATP_SCD_0489	30	5	a	NULL	v	NULL	B_GVf	ROOT	0	idtext0034	avoir	P#3##s##	spk3	145.37	145.4	0.01	_
20091112_RATP_SCD_0489	30	6	rien	NULL	pro	NULL	I_GP	OBJ	5	idtext0034	rien	#####	spk3	145.41	145.61	0.01	_
20091112_RATP_SCD_0489	30	7	eu	NULL	vppart	NULL	B_GVf	NOLINK	0	idtext0034	avoir	K##m#s##	spk3	145.62	145.66	0.01	_
20091112_RATP_SCD_0489	30	8	il	NULL	cln	NULL	B_GN	SUJ_IMP	10	idtext0034	cln	#3#m#s##	spk3	145.67	145.78	0.01	_
20091112_RATP_SCD_0489	30	9	y	NULL	clo	NULL	B_GN	AFF	10	idtext0034	y	#####	spk3	145.79	146.0	0.01	_
20091112_RATP_SCD_0489	30	10	a	NULL	v	NULL	B_GVf	ROOT	0	idtext0034	avoir	P#3##s##	spk3	146.01	146.03	0.01	_
20091112_RATP_SCD_0489	30	11	eu	NULL	vppart	NULL	I_GP	OBJ	10	idtext0034	avoir	K##m#s##	spk3	146.04	146.06	0.01	_
20091112_RATP_SCD_0489	30	12	un	NULL	det	NULL	B_GN	DET	14	idtext0034	un	##m#s##i	spk3	146.07	146.09	0.01	_
20091112_RATP_SCD_0489	30	13	seul	NULL	adj	NULL	I_GN	MOD	14	idtext0034	seul	##m#s##	spk3	146.1	146.26	0.01	_
20091112_RATP_SCD_0489	30	14	OT	NULL	nc	NULL	I_GN	OBJ	11	idtext0034	OT	#####	spk3	146.27	146.5	?	//

20091112_RATP_SCD_0489	31	1	qui	NULL	prorel	NULL	B_NULL	SUJ	4	idtext0035	qui	#####	spk3	146.54	146.6	0.01	_
20091112_RATP_SCD_0489	31	2	a	NULL	v	NULL	B_GVf	AUX	3	idtext0035	avoir	P#3##s##	spk3	146.61	146.63	0.01	_
20091112_RATP_SCD_0489	31	3	été	NULL	vppart	NULL	I_GVf	AUX	4	idtext0035	être	K#####	spk3	146.64	146.72	0.01	_
20091112_RATP_SCD_0489	31	4	restitué	NULL	vppart	NULL	I_GVf	ROOT	0	idtext0035	restituer	K##m#s##	spk3	146.73	147.17	?	//

20091112_RATP_SCD_0489	32	1	OK	NULL	adv	NULL	B_GADV	NOLINK	0	idtext0036	ok	#####	spk1	146.7	147.17	?	_

20091112_RATP_SCD_0489	33	1	ce	NULL	det	NULL	B_GN	DET	2	idtext0037	ce	##m#s##e	spk3	147.22	147.24	0.01	_
20091112_RATP_SCD_0489	33	2	matin	NULL	nc	NULL	I_GN	ROOT	0	idtext0037	matin	##m#s##	spk3	147.25	147.46	?	//

20091112_RATP_SCD_0489	34	1	bon+ben	DISF_M	pres	NULL	NULL	NOLINK	0	idtext0038	bon+ben	#####	spk1	147.5	147.68	0.01	_
20091112_RATP_SCD_0489	34	2	c'	NULL	cln	NULL	B_GN	SUJ_IMP	4	idtext0038	ce	###s##	spk1	147.69	147.79	0.01	_
20091112_RATP_SCD_0489	34	3	est	NULL	v	NULL	B_GVf	AUX	4	idtext0038	être	P#3##s##	spk1	147.8	147.85	0.01	_
20091112_RATP_SCD_0489	34	4	réglé	NULL	vppart	NULL	I_GVf	ROOT	0	idtext0038	régler	K##m#s##	spk1	147.86	148.28	?	//

20091112_RATP_SCD_0489	35	1	je	NULL	cln	NULL	B_GN	SUJ	3	idtext0039	cln	#1##s##	spk1	148.4	148.43	0.01	_
20091112_RATP_SCD_0489	35	2	vous	NULL	clo	NULL	B_GN	OBJ	3	idtext0039	cln	#2##p##	spk1	148.44	148.61	0.01	_
20091112_RATP_SCD_0489	35	3	remercie	NULL	v	NULL	B_GVf	ROOT	0	idtext0039	remercier	PS#13##s##	spk1	148.62	149.19	0.01	_
20091112_RATP_SCD_0489	35	4	bonne	NULL	adj	NULL	B_GN	MOD	5	idtext0039	bon	##f#s##	spk1	149.2	149.42	0.01	_
20091112_RATP_SCD_0489	35	5	journée	NULL	nc	NULL	I_GN	ROOT	0	idtext0039	journée	##f#s##	spk1	149.43	150.18	?	//

20091112_RATP_SCD_0489	36	1	voilà	DISF_M	pres	NULL	NULL	NOLINK	0	idtext0040	voilà	#####	spk3	148.44	149.05	0.01	_
20091112_RATP_SCD_0489	36	2	ça	NULL	pro	NULL	B_GN	SUJ_IMP	3	idtext0040	ça	#####	spk3	149.06	149.18	0.01	_
20091112_RATP_SCD_0489	36	3	va	NULL	v	NULL	B_GVf	ROOT	0	idtext0040	aller	P#3##s##	spk3	149.19	149.33	0.01	_
20091112_RATP_SCD_0489	36	4	plus	NULL	adv	NULL	B_GADV	MOD	5	idtext0040	plus	#####	spk3	149.34	149.47	0.01	_
20091112_RATP_SCD_0489	36	5	vite	NULL	adv	NULL	I_GADV	MOD	3	idtext0040	vite	#####	spk3	149.48	149.61	0.01	_
20091112_RATP_SCD_0489	36	6	comme+ça	NULL	adv	NULL	I_GADV	NOLINK	0	idtext0040	comme+ça	#####	spk3	149.62	150.18	?	//

20091112_RATP_SCD_0489	37	1	s'il+vous+plaît	NULL	adv	NULL	B_GADV	NOLINK	0	idtext0041	s'il+vous+plaît	#####	spk1	150.28	150.68	0.01	_
20091112_RATP_SCD_0489	37	2	madame	NULL	nc	NULL	B_GN	NOLINK	0	idtext0041	Monsieur	##f#s##	spk1	150.69	151.35	?	//

20091112_RATP_SCD_0489	38	1	oui	NULL	adv	NULL	B_GADV	NOLINK	0	idtext0042	oui	#####	spk2	151.43	151.71	?	//

20091112_RATP_SCD_0489	39	1	oui	NULL	adv	NULL	B_GADV	MOD	2	idtext0043	oui	#####	spk1	151.75	151.88	0.01	/
20091112_RATP_SCD_0489	39	2	non	NULL	adv	NULL	I_GADV	ROOT	0	idtext0043	non	#####	spk1	151.89	152.01	0.01	_
20091112_RATP_SCD_0489	39	3	ça	NULL	pro	NULL	B_GN	SUJ	8	idtext0043	ça	#####	spk1	152.02	152.13	0.01	_
20091112_RATP_SCD_0489	39	4	n'	NULL	clneg	NULL	B_GVfn	MOD	5	idtext0043	n'	#####	spk1	152.14	152.17	0.01	_
20091112_RATP_SCD_0489	39	5	a	NULL	v	NULL	I_GVfn	AUX	7	idtext0043	avoir	P#3##s##	spk1	152.18	152.23	0.01	_
20091112_RATP_SCD_0489	39	6	pas	NULL	advneg	NULL	I_GVfn	MOD	5	idtext0043	pas	#####	spk1	152.24	152.33	0.01	_
20091112_RATP_SCD_0489	39	7	été	NULL	vppart	NULL	I_GVfn	AUX	8	idtext0043	être	K#####	spk1	152.34	152.51	0.01	_
20091112_RATP_SCD_0489	39	8	signalé	NULL	vppart	NULL	I_GVfn	ROOT	0	idtext0043	signaler	K##m#s##	spk1	152.52	152.94	0.01	_
20091112_RATP_SCD_0489	39	9	hein	DISF_M	pres	NULL	NULL	NOLINK	0	idtext0043	hein	#####	spk1	152.95	153.08	0.01	_
20091112_RATP_SCD_0489	39	10	ni	NULL	coo	NULL	B_NULL	MOD	8	idtext0043	ni	#####	spk1	153.09	153.22	0.01	_
20091112_RATP_SCD_0489	39	11	au	NULL	prep	NULL	B_GP	DEP_COORD	10	idtext0043	au	#####	spk1	153.23	153.29	0.01	_
20091112_RATP_SCD_0489	39	12	métro	NULL	nc	NULL	I_GP	OBJ	11	idtext0043	métro	##m#s##	spk1	153.3	154.0	0.01	_
20091112_RATP_SCD_0489	39	13	d'	NULL	prep	NULL	B_GP	MOD	12	idtext0043	d'	#####	spk1	154.01	154.1	0.01	_
20091112_RATP_SCD_0489	39	14	une	NULL	det	NULL	I_GP	DET	15	idtext0043	un	##f#s##i	spk1	154.11	154.17	0.01	_
20091112_RATP_SCD_0489	39	15	manière	NULL	nc	NULL	I_GP	OBJ	13	idtext0043	manière	##f#s##	spk1	154.18	154.39	0.01	_
20091112_RATP_SCD_0489	39	16	générale	NULL	adj	NULL	I_GP	MOD	15	idtext0043	général	##f#s##	spk1	154.4	154.9	0.01	_
20091112_RATP_SCD_0489	39	17	ni	NULL	coo	NULL	B_NULL	MOD	8	idtext0043	ni	#####	spk1	154.91	154.99	0.01	_
20091112_RATP_SCD_0489	39	18	au+niveau+du	NULL	prep	NULL	B_GP	DEP_COORD	17	idtext0043	au+niveau+du	#####	spk1	155.0	155.43	0.01	_
20091112_RATP_SCD_0489	39	19	bus	NULL	nc	NULL	I_GP	OBJ	18	idtext0043	bus	##m###	spk1	155.44	156.1	?	//

20091112_RATP_SCD_0489	40	1	d'accord	NULL	adv	NULL	B_GADV	NOLINK	0	idtext0044	d'accord	#####	spk2	156.19	156.69	0.01	_
20091112_RATP_SCD_0489	40	2	bon+ben	DISF_M	pres	NULL	NULL	NOLINK	0	idtext0044	bon+ben	#####	spk2	156.7	157.05	0.01	_
20091112_RATP_SCD_0489	40	3	écoutez	DISF_M	pres	NULL	NULL	NOLINK	0	idtext0044	écoutez	#####	spk2	157.06	157.69	0.01	_
20091112_RATP_SCD_0489	40	4	euh	DISF_M	pres	NULL	NULL	NOLINK	0	idtext0044	euh	#####	spk2	157.7	157.76	0.69	_
20091112_RATP_SCD_0489	40	5	très+bien	NULL	adv	NULL	B_GADV	NOLINK	0	idtext0045	très+bien	#####	spk2	158.45	159.05	?	//

20091112_RATP_SCD_0489	41	1	ben	DISF_M	pres	NULL	NULL	NOLINK	0	idtext0046	ben	#####	spk1	159.09	159.22	0.01	_
20091112_RATP_SCD_0489	41	2	je	NULL	cln	NULL	B_GN	SUJ	5	idtext0046	cln	#1##s##	spk1	159.23	159.25	0.01	_
20091112_RATP_SCD_0489	41	3	vous	NULL	clo	NULL	B_GN	OBJ	5	idtext0046	cln	#2##p##	spk1	159.26	159.39	0.01	_
20091112_RATP_SCD_0489	41	4	en	NULL	clo	NULL	B_GN	DE_OBJ	5	idtext0046	en	#####	spk1	159.4	159.47	0.01	_
20091112_RATP_SCD_0489	41	5	prie	NULL	v	NULL	B_GVf	ROOT	0	idtext0047	prier	PS#13##s##	spk1	159.48	159.89	?	//

20091112_RATP_SCD_0489	42	1	merci	NULL	adv	NULL	B_GADV	NOLINK	0	idtext0048	merci	#####	spk2	159.98	160.48	?	//

20091112_RATP_SCD_0489	43	1	bonne	NULL	adj	NULL	B_GN	MOD	2	idtext0049	bon	##f#s##	spk1	160.52	160.69	0.01	_
20091112_RATP_SCD_0489	43	2	journée	NULL	nc	NULL	I_GN	ROOT	0	idtext0049	journée	##f#s##	spk1	160.7	160.95	0.01	_
20091112_RATP_SCD_0489	43	3	au+revoir	NULL	adv	NULL	B_GADV	NOLINK	0	idtext0049	au+revoir	#####	spk1	160.96	161.95	?	//

20091112_RATP_SCD_0489	44	1	au	NULL	prep	NULL	B_NULL	NOLINK	0	idtext0050	au	#####	spk2	160.54	160.73	0.01	_
20091112_RATP_SCD_0489	44	2	au+revoir	NULL	adv	NULL	B_GADV	NOLINK	0	idtext0050	au+revoir	#####	spk2	160.74	161.95	?	_

