20091112_RATP_SCD_0367	1	1	NNAAMMEE	NULL	np	B_HU	B_GN	ROOT	0	idtext0000	ANONYM	NULL	spk1	6.1	6.76	0.01	_
20091112_RATP_SCD_0367	1	2	bonjour	NULL	adv	NULL	B_GADV	NOLINK	0	idtext0001	bonjour	#####	spk1	6.77	7.12	?	//

20091112_RATP_SCD_0367	2	1	oui	NULL	adv	NULL	B_GADV	MOD	3	idtext0002	oui	#####	spk2	7.16	7.48	0.01	_
20091112_RATP_SCD_0367	2	2	euh	DISF_M	pres	NULL	NULL	NOLINK	0	idtext0002	euh	#####	spk2	7.49	7.53	0.01	_
20091112_RATP_SCD_0367	2	3	bonjour	NULL	adv	NULL	I_GADV	ROOT	0	idtext0002	bonjour	#####	spk2	7.54	7.8	0.01	_
20091112_RATP_SCD_0367	2	4	madame	NULL	nc	NULL	B_GN	NOLINK	0	idtext0002	Monsieur	##f#s##	spk2	7.81	8.1	0.01	_
20091112_RATP_SCD_0367	2	5	voilà	DISF_M	pres	NULL	NULL	NOLINK	0	idtext0002	voilà	#####	spk2	8.11	8.36	0.01	_
20091112_RATP_SCD_0367	2	6	je	NULL	cln	NULL	B_GN	SUJ	7	idtext0002	cln	#1##s##	spk2	8.37	8.48	0.01	_
20091112_RATP_SCD_0367	2	7	voulais	NULL	v	NULL	B_GVf	ROOT	0	idtext0002	vouloir	I#12##s##	spk2	8.49	8.64	0.01	_
20091112_RATP_SCD_0367	2	8	avoir	NULL	vinf	NULL	I_GVf	OBJ	7	idtext0002	avoir	W#####	spk2	8.65	9.1	0.01	_
20091112_RATP_SCD_0367	2	9	un	NULL	det	NULL	B_GN	DET	10	idtext0002	un	##m#s##i	spk2	9.11	9.32	0.01	_
20091112_RATP_SCD_0367	2	10	renseignement	NULL	nc	NULL	I_GN	OBJ	8	idtext0002	renseignement	##m#s##	spk2	9.33	10.51	0.01	_
20091112_RATP_SCD_0367	2	11	concernant	NULL	prep	NULL	B_GP	P_OBJ	10	idtext0003	concernant	#####	spk2	10.52	11.1	0.01	_
20091112_RATP_SCD_0367	2	12	les	NULL	det	NULL	I_GP	DET	13	idtext0003	le	###p##d	spk2	11.11	11.24	0.01	_
20091112_RATP_SCD_0367	2	13	bus	NULL	nc	NULL	I_GP	OBJ	11	idtext0003	bus	##m###	spk2	11.25	11.61	0.01	_
20091112_RATP_SCD_0367	2	14	euh	DISF_M	pres	NULL	NULL	NOLINK	0	idtext0003	euh	#####	spk2	11.62	12.05	0.01	_
20091112_RATP_SCD_0367	2	15	euh	DISF_M	pres	NULL	NULL	NOLINK	0	idtext0004	euh	#####	spk2	12.06	12.09	0.01	_
20091112_RATP_SCD_0367	2	16	concernant	NULL	vprespart	NULL	B_GVf	MOD	13	idtext0004	concerner	G#####	spk2	12.1	13.22	0.01	_
20091112_RATP_SCD_0367	2	17	la	NULL	det	NULL	B_GN	DET	18	idtext0004	le	##m#s##d	spk2	13.23	13.54	0.01	_
20091112_RATP_SCD_0367	2	18	ligne	NULL	nc	NULL	I_GN	OBJ	16	idtext0004	ligne	##f#s##	spk2	13.55	13.63	0.01	_
20091112_RATP_SCD_0367	2	19	du	NULL	prep	NULL	B_GP	DEP	18	idtext0004	du	#####	spk2	13.64	13.78	0.01	_
20091112_RATP_SCD_0367	2	20	quatre+cent+quatre-vingt-six	NULL	nc	B_T	I_GP	OBJ	19	idtext0004	quatre+cent+quatre-vingt-six	#####	spk2	13.79	15.0	0.01	_
20091112_RATP_SCD_0367	2	21	euh	DISF_M	pres	I_T	NULL	NOLINK	0	idtext0005	euh	#####	spk2	15.01	15.16	0.01	_
20091112_RATP_SCD_0367	2	22	il	NULL	cln	NULL	B_GN	SUJ	23	idtext0005	cln	#3#m#s##	spk2	15.17	15.77	0.01	_
20091112_RATP_SCD_0367	2	23	semblerait	NULL	v	NULL	B_GVf	ROOT	0	idtext0005	sembler	C#3##s##	spk2	15.78	16.57	0.01	_
20091112_RATP_SCD_0367	2	24	qu'	NULL	csu	NULL	B_NULL	OBJ	23	idtext0005	qu'	#####	spk2	16.58	16.95	0.01	_
20091112_RATP_SCD_0367	2	25	il	NULL	cln	NULL	B_GN	SUJ_IMP	27	idtext0005	cln	#3#m#s##	spk2	16.96	17.18	0.01	_
20091112_RATP_SCD_0367	2	26	y	NULL	clo	NULL	B_GN	AFF	27	idtext0005	y	#####	spk2	17.19	17.21	0.01	_
20091112_RATP_SCD_0367	2	27	ait	NULL	v	NULL	B_GVf	OBJ	24	idtext0005	avoir	S#3##s##	spk2	17.22	17.33	0.01	_
20091112_RATP_SCD_0367	2	28	un	NULL	det	NULL	B_GN	DET	29	idtext0005	un	##m#s##i	spk2	17.34	17.39	0.01	_
20091112_RATP_SCD_0367	2	29	mouvement	NULL	nc	NULL	I_GN	OBJ	27	idtext0005	mouvement	##m#s##	spk2	17.4	17.85	0.01	_
20091112_RATP_SCD_0367	2	30	de	NULL	prep	NULL	B_GP	DEP	29	idtext0005	de	#####	spk2	17.86	18.02	0.01	_
20091112_RATP_SCD_0367	2	31	grève	NULL	nc	NULL	I_GP	OBJ	30	idtext0005	grève	##f#s##	spk2	18.03	18.33	0.01	//
20091112_RATP_SCD_0367	2	32	euh	DISF_M	pres	NULL	NULL	NOLINK	0	idtext0005	euh	#####	spk2	18.34	18.42	0.01	_
20091112_RATP_SCD_0367	2	33	ce	NULL	det	NULL	B_GN	DET	34	idtext0005	ce	##m#s##e	spk2	18.43	18.45	0.01	_
20091112_RATP_SCD_0367	2	34	matin	NULL	nc	NULL	I_GN	MOD	27	idtext0005	matin	##m#s##	spk2	18.46	18.79	?	//

20091112_RATP_SCD_0367	3	1	ah+bah	DISF_M	pres	NULL	NULL	NOLINK	0	idtext0006	ah+bah	#####	spk1	18.85	18.99	0.01	_
20091112_RATP_SCD_0367	3	2	oui	NULL	adv	NULL	B_GADV	NOLINK	0	idtext0006	oui	#####	spk1	19.0	19.16	0.01	_
20091112_RATP_SCD_0367	3	3	mais	NULL	coo	NULL	B_NULL	NOLINK	0	idtext0006	mais	#####	spk1	19.17	19.41	0.01	_
20091112_RATP_SCD_0367	3	4	là	NULL	adv	NULL	B_GADV	NOLINK	0	idtext0006	là	#####	spk1	19.42	19.76	0.01	_
20091112_RATP_SCD_0367	3	5	euh	DISF_M	pres	NULL	NULL	NOLINK	0	idtext0006	euh	#####	spk1	19.77	20.49	?	//

20091112_RATP_SCD_0367	4	1	vous	NULL	cln	NULL	B_GN	SUJ	3	idtext0007	cln	#2##p##	spk2	18.83	19.08	0.01	_
20091112_RATP_SCD_0367	4	2	ne	NULL	clneg	NULL	B_GVfn	MOD	3	idtext0007	ne	#####	spk2	19.09	19.11	0.01	_
20091112_RATP_SCD_0367	4	3	savez	NULL	v	NULL	I_GVfn	ROOT	0	idtext0007	savoir	P#2##p##	spk2	19.12	19.25	0.01	_
20091112_RATP_SCD_0367	4	4	pas	NULL	advneg	NULL	I_GVfn	MOD	3	idtext0007	pas	#####	spk2	19.26	20.49	?	_

20091112_RATP_SCD_0367	5	1	moi	NULL	pro	NULL	B_GN	SUJ	4	idtext0008	moi	#####	spk1	20.53	20.71	0.01	_
20091112_RATP_SCD_0367	5	2	je	NULL	cln	NULL	B_GN	SUJ	4	idtext0008	cln	#1##s##	spk1	20.72	20.82	0.01	_
20091112_RATP_SCD_0367	5	3	ne	NULL	clneg	NULL	B_GVfn	MOD	4	idtext0008	ne	#####	spk1	20.83	21.07	0.01	_
20091112_RATP_SCD_0367	5	4	peux	NULL	v	NULL	I_GVfn	ROOT	0	idtext0008	pouvoir	P#12##s##	spk1	21.08	21.23	0.01	_
20091112_RATP_SCD_0367	5	5	que	NULL	advneg	NULL	I_GVfn	MOD	4	idtext0008	que	#####	spk1	21.24	21.4	0.01	_
20091112_RATP_SCD_0367	5	6	vous	NULL	cln	NULL	B_GN	SUJ	7	idtext0008	cln	#2##p##	spk1	21.41	21.52	0.01	_
20091112_RATP_SCD_0367	5	7	donnez	NULL	v	NULL	B_GVf	ROOT	0	idtext0008	donner	P#2##p##	spk1	21.53	21.83	0.01	_
20091112_RATP_SCD_0367	5	8	leur	NULL	det	NULL	B_GN	DET	9	idtext0008	leur	###s##o	spk1	21.84	21.99	0.01	_
20091112_RATP_SCD_0367	5	9	numéro	NULL	nc	NULL	I_GN	OBJ	7	idtext0008	numéro	##m#s##	spk1	22.0	22.32	0.01	_
20091112_RATP_SCD_0367	5	10	de	NULL	prep	NULL	B_GP	DEP	9	idtext0008	de	#####	spk1	22.33	22.43	0.01	_
20091112_RATP_SCD_0367	5	11	téléphone	NULL	nc	NULL	I_GP	OBJ	10	idtext0008	téléphone	##m#s##	spk1	22.44	23.36	?	//

20091112_RATP_SCD_0367	6	1	euh	DISF_M	pres	NULL	NULL	NOLINK	0	idtext0009	euh	#####	spk2	23.53	23.63	0.01	_
20091112_RATP_SCD_0367	6	2	vous	NULL	cln	NULL	B_GN	SUJ	3	idtext0009	cln	#2##p##	spk2	23.64	23.82	0.01	_
20091112_RATP_SCD_0367	6	3	avez	NULL	v	NULL	B_GVf	ROOT	0	idtext0009	avoir	P#2##p##	spk2	23.83	24.32	0.01	_
20091112_RATP_SCD_0367	6	4	un	NULL	det	NULL	B_GN	DET	5	idtext0009	un	##m#s##i	spk2	24.33	24.4	0.01	_
20091112_RATP_SCD_0367	6	5	numéro	NULL	nc	NULL	I_GN	OBJ	3	idtext0009	numéro	##m#s##	spk2	24.41	24.77	0.01	_
20091112_RATP_SCD_0367	6	6	de	NULL	prep	NULL	B_GP	DEP	5	idtext0009	de	#####	spk2	24.78	24.81	0.01	_
20091112_RATP_SCD_0367	6	7	téléphone	NULL	nc	NULL	I_GP	OBJ	6	idtext0009	téléphone	##m#s##	spk2	24.82	25.6	0.01	_
20091112_RATP_SCD_0367	6	8	avec+lequel	NULL	prorel	NULL	B_NULL	P_OBJ	10	idtext0009	avec+lequel	#####	spk2	25.61	26.25	0.01	_
20091112_RATP_SCD_0367	6	9	on	NULL	cln	NULL	B_GN	SUJ_IMP	10	idtext0009	cln	#3##s##	spk2	26.26	26.34	0.01	_
20091112_RATP_SCD_0367	6	10	peut	NULL	v	NULL	B_GVf	MOD_REL	5	idtext0009	pouvoir	P#3##s##	spk2	26.35	26.56	0.01	_
20091112_RATP_SCD_0367	6	11	les	NULL	clo	NULL	B_GN	OBJ	12	idtext0009	cla	#3##p##	spk2	26.57	26.64	0.01	_
20091112_RATP_SCD_0367	6	12	joindre	NULL	vinf	NULL	B_GVi	OBJ	10	idtext0009	joindre	W#####	spk2	26.65	26.97	?	//

20091112_RATP_SCD_0367	7	1	et	NULL	coo	NULL	B_NULL	ROOT	0	idtext0010	et	#####	spk1	27.04	27.12	0.01	_
20091112_RATP_SCD_0367	7	2	bien	NULL	adv	NULL	B_GADV	MOD	3	idtext0010	bien	#####	spk1	27.13	27.29	0.01	_
20091112_RATP_SCD_0367	7	3	oui	NULL	adv	NULL	I_GADV	ROOT	0	idtext0010	oui	#####	spk1	27.3	27.35	0.01	_
20091112_RATP_SCD_0367	7	4	je	NULL	cln	NULL	B_GN	SUJ	5	idtext0010	cln	#1##s##	spk1	27.36	27.5	0.01	_
20091112_RATP_SCD_0367	7	5	vais	NULL	v	NULL	B_GVf	DEP_COORD	1	idtext0010	aller	P#1##s##	spk1	27.51	27.68	0.01	_
20091112_RATP_SCD_0367	7	6	vous	NULL	clo	NULL	B_GN	A_OBJ	8	idtext0010	cln	#2##p##	spk1	27.69	27.82	0.01	_
20091112_RATP_SCD_0367	7	7	le	NULL	clo	NULL	B_GN	OBJ	8	idtext0010	cla	#3#m#s##	spk1	27.83	27.86	0.01	_
20091112_RATP_SCD_0367	7	8	donner	NULL	vinf	NULL	B_GVi	OBJ	5	idtext0010	donner	W#####	spk1	27.87	28.35	?	//

20091112_RATP_SCD_0367	8	1	oui	NULL	adv	NULL	B_GADV	NOLINK	0	idtext0011	oui	#####	spk2	28.39	29.22	?	//

20091112_RATP_SCD_0367	9	1	vous	NULL	cln	NULL	B_GN	SUJ	2	idtext0012	cln	#2##p##	spk1	29.26	29.31	0.01	_
20091112_RATP_SCD_0367	9	2	avez	NULL	v	NULL	B_GVf	ROOT	0	idtext0012	avoir	P#2##p##	spk1	29.32	29.49	0.01	_
20091112_RATP_SCD_0367	9	3	de+quoi	NULL	prorel	NULL	B_NULL	OBJ	2	idtext0012	de+quoi	#####	spk1	29.5	29.66	0.01	_
20091112_RATP_SCD_0367	9	4	noter	NULL	vinf	NULL	B_GVi	OBJ	3	idtext0012	noter	W#####	spk1	29.67	30.37	?	_

20091112_RATP_SCD_0367	10	1	oui	NULL	adv	NULL	B_GADV	NOLINK	0	idtext0013	oui	#####	spk2	30.44	30.83	?	//

20091112_RATP_SCD_0367	11	1	alors	NULL	adv	NULL	B_GADV	NOLINK	0	idtext0014	alors	#####	spk1	30.87	31.12	0.01	_
20091112_RATP_SCD_0367	11	2	c'	NULL	cln	NULL	B_GN	SUJ_IMP	3	idtext0014	ce	###s##	spk1	31.13	31.17	0.01	_
20091112_RATP_SCD_0367	11	3	est	NULL	v	NULL	B_GVf	ROOT	0	idtext0014	être	P#3##s##	spk1	31.18	31.27	0.01	_
20091112_RATP_SCD_0367	11	4	zéro+huit+cent+vingt-cinq	NULL	nc	B_TEL	B_GN	ATS	3	idtext0014	zéro+huit+cent+vingt-cinq	#####	spk1	31.28	32.97	?	//

20091112_RATP_SCD_0367	12	1	oui	NULL	adv	NULL	B_GADV	NOLINK	0	idtext0015	oui	#####	spk2	33.01	33.71	?	//

20091112_RATP_SCD_0367	13	1	zéro+zéro	NULL	nc	B_TEL	B_GN	NOLINK	0	idtext0016	zéro+zéro	#####	spk1	33.78	35.03	?	//

20091112_RATP_SCD_0367	14	1	oui	NULL	adv	NULL	B_GADV	NOLINK	0	idtext0017	oui	#####	spk2	35.08	35.67	?	//

20091112_RATP_SCD_0367	15	1	trente-huit	NULL	nc	NULL	B_GN	NOLINK	0	idtext0018	trente-huit	#####	spk1	35.71	37.07	?	//

20091112_RATP_SCD_0367	16	1	trente-huit	NULL	nc	NULL	B_GN	NOLINK	0	idtext0019	trente-huit	#####	spk2	37.26	38.41	?	//

20091112_RATP_SCD_0367	17	1	trente-six	NULL	nc	NULL	B_GN	NOLINK	0	idtext0020	trente-six	#####	spk1	38.73	39.35	?	_

20091112_RATP_SCD_0367	18	1	donc	NULL	coo	NULL	B_NULL	ROOT	0	idtext0021	donc	#####	spk2	39.42	39.78	0.01	_
20091112_RATP_SCD_0367	18	2	euh	DISF_M	pres	NULL	NULL	NOLINK	0	idtext0021	euh	#####	spk2	39.79	40.01	0.01	_
20091112_RATP_SCD_0367	18	3	zéro+huit+cent+vingt-cinq+zéro+zéro+trente-huit+trente-six	NULL	nc	B_TEL	B_GN	SUJ	5	idtext0021	zéro+huit+cent+vingt-cinq+zéro+zéro+trente-huit+trente-six	#####	spk2	40.02	43.75	0.01	_
20091112_RATP_SCD_0367	18	4	c'	NULL	cln	NULL	B_GN	SUJ_IMP	5	idtext0021	ce	###s##	spk2	43.76	43.79	0.01	_
20091112_RATP_SCD_0367	18	5	est	NULL	v	NULL	B_GVf	DEP_COORD	1	idtext0021	être	P#3##s##	spk2	43.8	43.86	0.01	_
20091112_RATP_SCD_0367	18	6	bien	NULL	adv	NULL	B_GADV	MOD	7	idtext0021	bien	#####	spk2	43.87	44.11	0.01	_
20091112_RATP_SCD_0367	18	7	ça	NULL	pro	NULL	B_GN	ATS	5	idtext0021	ça	#####	spk2	44.12	44.35	?	_

20091112_RATP_SCD_0367	19	1	tout+à+fait	NULL	adv	NULL	B_GADV	NOLINK	0	idtext0022	tout+à+fait	#####	spk1	44.39	45.27	?	//

20091112_RATP_SCD_0367	20	1	et+donc	NULL	coo	NULL	B_NULL	ROOT	0	idtext0023	et+donc	#####	spk2	45.48	45.98	0.01	_
20091112_RATP_SCD_0367	20	2	on	NULL	cln	NULL	B_GN	SUJ_IMP	3	idtext0023	cln	#3##s##	spk2	45.99	46.15	0.01	_
20091112_RATP_SCD_0367	20	3	peut	NULL	v	NULL	B_GVf	DEP_COORD	1	idtext0023	pouvoir	P#3##s##	spk2	46.16	46.66	0.01	_
20091112_RATP_SCD_0367	20	4	vous	DISF_R	cln	NULL	NULL	NOLINK	0	idtext0023	cln	#2##p##	spk2	46.67	46.88	0.01	_
20091112_RATP_SCD_0367	20	5	vous	NULL	cln	NULL	B_GN	SUJ	6	idtext0023	cln	#2##p##	spk2	46.89	47.46	0.01	_
20091112_RATP_SCD_0367	20	6	pensez	NULL	v	NULL	B_GVf	ROOT	0	idtext0023	penser	P#2##p##	spk2	47.47	47.7	0.01	_
20091112_RATP_SCD_0367	20	7	qu'	NULL	csu	NULL	B_NULL	OBJ	6	idtext0023	qu'	#####	spk2	47.71	47.78	0.01	_
20091112_RATP_SCD_0367	20	8	on	NULL	cln	NULL	B_GN	SUJ_IMP	9	idtext0023	cln	#3##s##	spk2	47.79	47.93	0.01	_
20091112_RATP_SCD_0367	20	9	peut	NULL	v	NULL	B_GVf	OBJ	7	idtext0023	pouvoir	P#3##s##	spk2	47.94	48.07	0.01	_
20091112_RATP_SCD_0367	20	10	obtenir	NULL	vinf	NULL	I_GVf	OBJ	9	idtext0023	obtenir	W#####	spk2	48.08	48.53	0.01	_
20091112_RATP_SCD_0367	20	11	des	NULL	det	NULL	B_GN	DET	12	idtext0023	des	###p##i	spk2	48.54	48.71	0.01	_
20091112_RATP_SCD_0367	20	12	renseignements	NULL	nc	NULL	I_GN	OBJ	10	idtext0023	renseignement	##m#p##	spk2	48.72	49.31	0.01	_
20091112_RATP_SCD_0367	20	13	concernant	NULL	prep	NULL	B_NULL	NOLINK	0	idtext0023	concernant	#####	spk2	49.32	49.88	0.01	_
20091112_RATP_SCD_0367	20	14	euh	DISF_M	pres	NULL	NULL	NOLINK	0	idtext0023	euh	#####	spk2	49.89	49.97	?	_

20091112_RATP_SCD_0367	21	1	ah	DISF_M	pres	NULL	NULL	NOLINK	0	idtext0024	ah	#####	spk1	50.01	50.03	0.01	_
20091112_RATP_SCD_0367	21	2	mais	NULL	coo	NULL	B_NULL	ROOT	0	idtext0024	mais	#####	spk1	50.04	50.09	0.01	_
20091112_RATP_SCD_0367	21	3	oui	NULL	adv	NULL	B_GADV	NOLINK	0	idtext0024	oui	#####	spk1	50.1	50.15	0.01	_
20091112_RATP_SCD_0367	21	4	c'	NULL	cln	NULL	B_GN	SUJ_IMP	5	idtext0024	ce	###s##	spk1	50.16	50.18	0.01	_
20091112_RATP_SCD_0367	21	5	est	NULL	v	NULL	B_GVf	DEP_COORD	2	idtext0024	être	P#3##s##	spk1	50.19	50.23	0.01	_
20091112_RATP_SCD_0367	21	6	Athis+Cars	NULL	np	B_ORG	B_GN	ATS	5	idtext0024	Athis+Cars	#####	spk1	50.24	50.89	0.01	_
20091112_RATP_SCD_0367	21	7	qui	NULL	prorel	NULL	B_NULL	SUJ	10	idtext0024	qui	#####	spk1	50.9	51.03	0.01	_
20091112_RATP_SCD_0367	21	8	s'	NULL	clr	NULL	B_GNr	AFF	10	idtext0024	se	#3##p##	spk1	51.04	51.17	0.01	_
20091112_RATP_SCD_0367	21	9	en	NULL	clo	NULL	B_GN	DE_OBJ	10	idtext0024	en	#####	spk1	51.18	51.34	0.01	_
20091112_RATP_SCD_0367	21	10	occupe	NULL	v	NULL	B_GVf	MOD_REL	6	idtext0024	occuper	PS#13##s##	spk1	51.35	52.37	?	//

20091112_RATP_SCD_0367	22	1	oui	NULL	adv	NULL	B_GADV	NOLINK	0	idtext0025	oui	#####	spk2	52.43	52.55	0.01	_
20091112_RATP_SCD_0367	22	2	d'accord	NULL	adv	NULL	B_GADV	MOD	4	idtext0025	d'accord	#####	spk2	52.56	52.91	0.01	_
20091112_RATP_SCD_0367	22	3	très+bien	DISF_R	adv	NULL	NULL	NOLINK	0	idtext0025	très+bien	#####	spk2	52.92	53.32	0.01	_
20091112_RATP_SCD_0367	22	4	très+bien	NULL	adv	NULL	I_GADV	MOD	6	idtext0025	très+bien	#####	spk2	53.33	53.68	0.01	_
20091112_RATP_SCD_0367	22	5	non	DISF_R	adv	NULL	NULL	NOLINK	0	idtext0025	non	#####	spk2	53.69	53.81	0.01	_
20091112_RATP_SCD_0367	22	6	non	NULL	adv	NULL	I_GADV	ROOT	0	idtext0025	non	#####	spk2	53.82	54.07	0.01	_
20091112_RATP_SCD_0367	22	7	je	NULL	cln	NULL	B_GN	SUJ	9	idtext0026	cln	#1##s##	spk2	54.08	54.21	0.01	_
20091112_RATP_SCD_0367	22	8	vous	NULL	clo	NULL	B_GN	OBJ	9	idtext0026	cln	#2##p##	spk2	54.22	54.34	0.01	_
20091112_RATP_SCD_0367	22	9	remercie	NULL	v	NULL	B_GVf	ROOT	0	idtext0026	remercier	PS#13##s##	spk2	54.35	54.85	0.01	_
20091112_RATP_SCD_0367	22	10	au+revoir	NULL	adv	NULL	B_GADV	NOLINK	0	idtext0026	au+revoir	#####	spk2	54.86	55.23	?	//

20091112_RATP_SCD_0367	23	1	je	NULL	cln	NULL	B_GN	SUJ	4	idtext0027	cln	#1##s##	spk1	55.27	55.29	0.01	_
20091112_RATP_SCD_0367	23	2	vous	NULL	clo	NULL	B_GN	OBJ	4	idtext0027	cln	#2##p##	spk1	55.3	55.36	0.01	_
20091112_RATP_SCD_0367	23	3	en	NULL	clo	NULL	B_GN	DE_OBJ	4	idtext0027	en	#####	spk1	55.37	55.39	0.01	_
20091112_RATP_SCD_0367	23	4	prie	NULL	v	NULL	B_GVf	ROOT	0	idtext0027	prier	PS#13##s##	spk1	55.4	55.69	?	//

20091112_RATP_SCD_0367	24	1	bonne	NULL	adj	NULL	B_GN	MOD	2	idtext0028	bon	##f#s##	spk1	55.73	55.98	0.01	_
20091112_RATP_SCD_0367	24	2	journée	NULL	nc	NULL	I_GN	ROOT	0	idtext0028	journée	##f#s##	spk1	55.99	56.22	0.01	_
20091112_RATP_SCD_0367	24	3	au+revoir	NULL	adv	NULL	B_GADV	NOLINK	0	idtext0028	au+revoir	#####	spk1	56.23	69.24	?	//

20091112_RATP_SCD_0367	25	1	au+revoir	NULL	adv	NULL	B_GADV	NOLINK	0	idtext0029	au+revoir	#####	spk2	55.74	69.24	?	//

