20091112_RATP_SCD_0102	1	1	NNAAMMEE	NULL	np	B_HU	B_GN	ROOT	0	idtext0000	ANONYM	NULL	spk1	15.8	16.0	0.01	_
20091112_RATP_SCD_0102	1	2	bonjour	NULL	adv	NULL	B_GADV	NOLINK	0	idtext0001	bonjour	#####	spk1	16.01	16.71	?	//

20091112_RATP_SCD_0102	2	1	euh	DISF_M	pres	NULL	NULL	NOLINK	0	idtext0002	euh	#####	spk2	17.03	17.06	0.01	_
20091112_RATP_SCD_0102	2	2	oui	NULL	adv	NULL	B_GADV	MOD	3	idtext0002	oui	#####	spk2	17.07	17.28	0.01	_
20091112_RATP_SCD_0102	2	3	bonjour	NULL	adv	NULL	I_GADV	ROOT	0	idtext0002	bonjour	#####	spk2	17.29	17.66	0.01	//
20091112_RATP_SCD_0102	2	4	c'	NULL	cln	NULL	B_GN	SUJ_IMP	5	idtext0002	ce	###s##	spk2	17.67	17.96	0.01	_
20091112_RATP_SCD_0102	2	5	était	NULL	v	NULL	B_GVf	ROOT	0	idtext0002	être	I#3##s##	spk2	17.97	18.13	0.01	_
20091112_RATP_SCD_0102	2	6	pour	NULL	prep	NULL	B_GP	ATS	5	idtext0002	pour	#####	spk2	18.14	18.27	0.01	_
20091112_RATP_SCD_0102	2	7	avoir	NULL	vinf	NULL	I_GP	OBJ	6	idtext0002	avoir	W#####	spk2	18.28	18.67	0.01	_
20091112_RATP_SCD_0102	2	8	un	DISF_R	det	NULL	NULL	NOLINK	0	idtext0002	un	##m#s##i	spk2	18.68	18.71	0.01	_
20091112_RATP_SCD_0102	2	9	des	NULL	det	NULL	B_GN	DET	10	idtext0002	des	###p##i	spk2	18.72	18.8	0.01	_
20091112_RATP_SCD_0102	2	10	informations	NULL	nc	NULL	I_GN	OBJ	7	idtext0002	information	##f#p##	spk2	18.81	19.54	0.01	/
20091112_RATP_SCD_0102	2	11	sur	NULL	prep	NULL	B_GP	P_OBJ	10	idtext0002	sur	#####	spk2	19.55	19.79	0.01	_
20091112_RATP_SCD_0102	2	12	la	NULL	det	NULL	I_GP	DET	13	idtext0002	le	##m#s##d	spk2	19.8	19.88	0.01	_
20091112_RATP_SCD_0102	2	13	ligne	NULL	nc	NULL	I_GP	OBJ	11	idtext0002	ligne	##f#s##	spk2	19.89	20.09	0.01	_
20091112_RATP_SCD_0102	2	14	euh	DISF_M	pres	NULL	NULL	NOLINK	0	idtext0002	euh	#####	spk2	20.1	20.12	0.01	_
20091112_RATP_SCD_0102	2	15	V3	NULL	nc	NULL	I_GP	MOD	13	idtext0002	V3	#####	spk2	20.13	20.88	0.05	_
20091112_RATP_SCD_0102	2	16	parce+que	NULL	csu	NULL	B_NULL	ROOT	0	idtext0003	parce+que	#####	spk2	20.93	21.46	0.01	_
20091112_RATP_SCD_0102	2	17	j'	NULL	cln	NULL	B_GN	SUJ	18	idtext0003	cln	#1##s##	spk2	21.47	21.55	0.01	_
20091112_RATP_SCD_0102	2	18	attends	NULL	v	NULL	B_GVf	OBJ	16	idtext0003	attendre	P#12##s##	spk2	21.56	21.99	0.01	//
20091112_RATP_SCD_0102	2	19	et	NULL	coo	NULL	B_NULL	COORD	18	idtext0003	et	#####	spk2	22.0	22.21	0.01	_
20091112_RATP_SCD_0102	2	20	il	NULL	cln	NULL	B_GN	SUJ	24	idtext0003	cln	#3#m#s##	spk2	22.22	22.34	0.01	_
20091112_RATP_SCD_0102	2	21	est	NULL	v	NULL	B_GVf	AUX	24	idtext0003	être	P#3##s##	spk2	22.35	22.41	0.01	_
20091112_RATP_SCD_0102	2	22	toujours	NULL	adv	NULL	B_GADV	MOD	23	idtext0003	toujours	#####	spk2	22.42	22.72	0.01	_
20091112_RATP_SCD_0102	2	23	pas	NULL	advneg	NULL	B_NULL	MOD	24	idtext0003	pas	#####	spk2	22.73	22.84	0.01	_
20091112_RATP_SCD_0102	2	24	passé	NULL	vppart	NULL	B_GVf	DEP_COORD	19	idtext0003	passer	K##m#s##	spk2	22.85	23.06	?	//

20091112_RATP_SCD_0102	3	1	non	NULL	adv	NULL	B_GADV	NOLINK	0	idtext0004	non	#####	spk1	23.1	23.45	0.01	_
20091112_RATP_SCD_0102	3	2	il	NULL	cln	NULL	B_GN	SUJ_IMP	4	idtext0004	cln	#3#m#s##	spk1	23.46	23.54	0.01	_
20091112_RATP_SCD_0102	3	3	y	NULL	clo	NULL	B_GN	AFF	4	idtext0004	y	#####	spk1	23.55	23.58	0.01	_
20091112_RATP_SCD_0102	3	4	a	NULL	v	NULL	B_GVf	ROOT	0	idtext0004	avoir	P#3##s##	spk1	23.59	23.61	0.01	_
20091112_RATP_SCD_0102	3	5	un	NULL	det	NULL	B_GN	DET	6	idtext0004	un	##m#s##i	spk1	23.62	23.76	0.01	_
20091112_RATP_SCD_0102	3	6	préavis	NULL	nc	NULL	I_GN	OBJ	4	idtext0004	préavis	##m###	spk1	23.77	24.09	0.01	_
20091112_RATP_SCD_0102	3	7	d'	NULL	prep	NULL	B_GP	DEP	6	idtext0004	d'	#####	spk1	24.1	24.12	0.01	_
20091112_RATP_SCD_0102	3	8	une	NULL	det	NULL	I_GP	DET	9	idtext0004	un	##f#s##i	spk1	24.13	24.23	0.01	_
20091112_RATP_SCD_0102	3	9	grève	NULL	nc	NULL	I_GP	OBJ	7	idtext0004	grève	##f#s##	spk1	24.24	24.99	0.01	//
20091112_RATP_SCD_0102	3	10	euh	DISF_M	pres	NULL	NULL	NOLINK	0	idtext0004	euh	#####	spk1	25.0	25.09	0.01	_
20091112_RATP_SCD_0102	3	11	spontanée	NULL	adj	NULL	I_GP	MOD	9	idtext0004	spontané	##f#s##	spk1	25.1	26.02	0.01	_
20091112_RATP_SCD_0102	3	12	sur	NULL	prep	NULL	B_GP	P_OBJ	9	idtext0004	sur	#####	spk1	26.03	26.16	0.01	_
20091112_RATP_SCD_0102	3	13	le	NULL	det	NULL	I_GP	DET	14	idtext0004	le	##m#s##d	spk1	26.17	26.25	0.01	_
20091112_RATP_SCD_0102	3	14	centre	NULL	nc	NULL	I_GP	OBJ	12	idtext0004	centre	##m#s##	spk1	26.26	26.6	0.01	_
20091112_RATP_SCD_0102	3	15	bus	NULL	nc	NULL	I_GP	MOD	14	idtext0004	bus	##m###	spk1	26.61	26.77	0.01	/
20091112_RATP_SCD_0102	3	16	de	NULL	prep	NULL	B_GP	DEP	14	idtext0004	de	#####	spk1	26.78	26.91	0.01	_
20091112_RATP_SCD_0102	3	17	Vitry	NULL	nc	B_A	I_GP	OBJ	16	idtext0004	Vitry	#####	spk1	26.92	27.29	0.01	_
20091112_RATP_SCD_0102	3	18	qui	NULL	prorel	NULL	B_NULL	SUJ	19	idtext0004	qui	#####	spk1	27.3	27.4	0.01	_
20091112_RATP_SCD_0102	3	19	concerne	NULL	v	NULL	B_GVf	MOD_REL	14	idtext0004	concerner	PS#13##s##	spk1	27.41	27.94	0.01	_
20091112_RATP_SCD_0102	3	20	le	NULL	det	NULL	B_GN	DET	21	idtext0004	le	##m#s##d	spk1	27.95	27.97	0.01	_
20091112_RATP_SCD_0102	3	21	V3	NULL	nc	NULL	I_GN	OBJ	19	idtext0004	V3	#####	spk1	27.98	28.35	0.01	_
20091112_RATP_SCD_0102	3	22	et	NULL	coo	NULL	B_NULL	COORD	21	idtext0004	et	#####	spk1	28.36	28.39	0.01	_
20091112_RATP_SCD_0102	3	23	toutes+les	NULL	det	NULL	B_GN	DET	24	idtext0004	toutes+les	#####	spk1	28.4	28.71	0.01	_
20091112_RATP_SCD_0102	3	24	lignes	NULL	nc	NULL	I_GN	DEP_COORD	22	idtext0004	ligne	##f#p##	spk1	28.72	28.89	0.01	_
20091112_RATP_SCD_0102	3	25	correspondantes	NULL	adj	NULL	I_GN	MOD	24	idtext0004	correspondant	##f#p##	spk1	28.9	30.06	?	//

20091112_RATP_SCD_0102	4	1	d'accord	NULL	adv	NULL	B_GADV	NOLINK	0	idtext0005	d'accord	#####	spk2	30.1	30.39	?	//

20091112_RATP_SCD_0102	5	1	donc	NULL	coo	NULL	B_NULL	ROOT	0	idtext0006	donc	#####	spk1	30.43	30.69	0.01	_
20091112_RATP_SCD_0102	5	2	euh	DISF_M	pres	NULL	NULL	NOLINK	0	idtext0006	euh	#####	spk1	30.7	30.94	0.01	_
20091112_RATP_SCD_0102	5	3	pour	NULL	prep	NULL	B_GP	MOD	7	idtext0006	pour	#####	spk1	30.95	31.09	0.01	_
20091112_RATP_SCD_0102	5	4	l'	NULL	det	NULL	I_GP	DET	5	idtext0006	le	###s##d	spk1	31.1	31.12	0.01	_
20091112_RATP_SCD_0102	5	5	instant	NULL	nc	NULL	I_GP	OBJ	3	idtext0006	instant	##m#s##	spk1	31.13	31.42	0.01	_
20091112_RATP_SCD_0102	5	6	je	NULL	cln	NULL	B_GN	SUJ	7	idtext0006	cln	#1##s##	spk1	31.43	31.5	0.01	_
20091112_RATP_SCD_0102	5	7	peux	NULL	v	NULL	B_GVfn	DEP_COORD	1	idtext0006	pouvoir	P#12##s##	spk1	31.51	31.65	0.01	_
20091112_RATP_SCD_0102	5	8	pas	NULL	advneg	NULL	I_GVfn	MOD	7	idtext0006	pas	#####	spk1	31.66	31.81	0.01	_
20091112_RATP_SCD_0102	5	9	vous	NULL	clo	NULL	B_GN	A_OBJ	10	idtext0006	cln	#2##p##	spk1	31.82	31.99	0.01	_
20091112_RATP_SCD_0102	5	10	dire	NULL	vinf	NULL	B_GVi	OBJ	7	idtext0006	dire	W#####	spk1	32.0	32.19	0.01	_
20091112_RATP_SCD_0102	5	11	s'	NULL	csu	NULL	B_NULL	OBJ	10	idtext0006	se	#3##p##	spk1	32.2	32.28	0.01	_
20091112_RATP_SCD_0102	5	12	il	NULL	cln	NULL	B_GN	SUJ	13	idtext0006	cln	#3#m#s##	spk1	32.29	32.36	0.01	_
20091112_RATP_SCD_0102	5	13	va	NULL	v	NULL	B_GVf	OBJ	11	idtext0006	aller	P#3##s##	spk1	32.37	32.43	0.01	_
20091112_RATP_SCD_0102	5	14	y	NULL	clo	NULL	B_GN	AFF	16	idtext0006	y	#####	spk1	32.44	32.53	0.01	_
20091112_RATP_SCD_0102	5	15	en	NULL	clo	NULL	B_GN	OBJ	16	idtext0006	en	#####	spk1	32.54	32.65	0.01	_
20091112_RATP_SCD_0102	5	16	avoir	NULL	vinf	NULL	B_GVi	OBJ	13	idtext0006	avoir	W#####	spk1	32.66	32.87	0.01	//
20091112_RATP_SCD_0102	5	17	ou	NULL	coo	NULL	B_NULL	COORD	16	idtext0006	ou	#####	spk1	32.88	32.97	0.01	_
20091112_RATP_SCD_0102	5	18	pas	NULL	advneg	NULL	B_NULL	DEP_COORD	17	idtext0006	pas	#####	spk1	32.98	33.65	0.04	_
20091112_RATP_SCD_0102	5	19	hm	DISF_M	pres	NULL	NULL	NOLINK	0	idtext0007	hm	#####	spk1	33.69	33.71	0.01	_
20091112_RATP_SCD_0102	5	20	pour	NULL	prep	NULL	B_GP	ROOT	0	idtext0007	pour	#####	spk1	33.72	33.8	0.01	_
20091112_RATP_SCD_0102	5	21	l'	NULL	det	NULL	I_GP	DET	22	idtext0007	le	###s##d	spk1	33.81	33.83	0.01	_
20091112_RATP_SCD_0102	5	22	instant	NULL	nc	NULL	I_GP	OBJ	20	idtext0007	instant	##m#s##	spk1	33.84	33.98	0.01	_
20091112_RATP_SCD_0102	5	23	il	NULL	cln	NULL	B_GN	SUJ_IMP	26	idtext0007	cln	#3#m#s##	spk1	33.99	34.08	0.01	_
20091112_RATP_SCD_0102	5	24	y	NULL	clo	NULL	B_GN	AFF	26	idtext0007	y	#####	spk1	34.09	34.11	0.01	_
20091112_RATP_SCD_0102	5	25	en	NULL	clo	NULL	B_GN	OBJ	26	idtext0007	en	#####	spk1	34.12	34.14	0.01	_
20091112_RATP_SCD_0102	5	26	a	NULL	v	NULL	B_GVfn	NOLINK	0	idtext0007	avoir	P#3##s##	spk1	34.15	34.23	0.01	_
20091112_RATP_SCD_0102	5	27	pas	NULL	advneg	NULL	I_GVfn	MOD	26	idtext0007	pas	#####	spk1	34.24	34.47	?	_

20091112_RATP_SCD_0102	6	1	d'accord	NULL	adv	NULL	B_GADV	NOLINK	0	idtext0008	d'accord	#####	spk2	34.51	34.75	?	//

20091112_RATP_SCD_0102	7	1	ça	NULL	pro	NULL	B_GN	SUJ_IMP	3	idtext0009	ça	#####	spk1	34.84	35.05	0.01	_
20091112_RATP_SCD_0102	7	2	c'	NULL	cln	NULL	B_GN	SUJ_IMP	3	idtext0009	ce	###s##	spk1	35.06	35.09	0.01	_
20091112_RATP_SCD_0102	7	3	est	NULL	v	NULL	B_GVf	ROOT	0	idtext0009	être	P#3##s##	spk1	35.1	35.25	0.01	_
20091112_RATP_SCD_0102	7	4	sûr	NULL	adj	NULL	B_GADJ	ATS	3	idtext0009	sûr	##m#s##	spk1	35.26	35.75	1.00	_
20091112_RATP_SCD_0102	7	5	euh	DISF_M	pres	NULL	NULL	NOLINK	0	idtext0010	euh	#####	spk1	36.75	37.0	0.01	_
20091112_RATP_SCD_0102	7	6	quand+est-ce-que	NULL	adv	NULL	B_GADV	NOLINK	0	idtext0010	quand+est-ce-que	#####	spk1	37.01	37.44	0.01	_
20091112_RATP_SCD_0102	7	7	ça	NULL	pro	NULL	B_GN	SUJ_IMP	8	idtext0010	ça	#####	spk1	37.45	37.6	0.01	_
20091112_RATP_SCD_0102	7	8	reprend	NULL	v	NULL	B_GVf	ROOT	0	idtext0010	reprendre	P#3##s##	spk1	37.61	37.95	0.01	_
20091112_RATP_SCD_0102	7	9	on	NULL	cln	NULL	B_GN	SUJ	10	idtext0010	cln	#3##s##	spk1	37.96	38.06	0.01	_
20091112_RATP_SCD_0102	7	10	sait	NULL	v	NULL	B_GVfn	ROOT	0	idtext0010	savoir	P#3##s##	spk1	38.07	38.25	0.01	_
20091112_RATP_SCD_0102	7	11	pas	NULL	advneg	NULL	I_GVfn	MOD	10	idtext0010	pas	#####	spk1	38.26	39.05	?	_

20091112_RATP_SCD_0102	8	1	hm	DISF_M	pres	NULL	NULL	NOLINK	0	idtext0011	hm	#####	spk2	39.26	39.46	0.01	_
20091112_RATP_SCD_0102	8	2	d'accord	NULL	adv	NULL	B_GADV	NOLINK	0	idtext0011	d'accord	#####	spk2	39.47	40.17	0.05	_
20091112_RATP_SCD_0102	8	3	mais	NULL	coo	NULL	B_NULL	ROOT	0	idtext0012	mais	#####	spk2	40.22	40.31	0.01	_
20091112_RATP_SCD_0102	8	4	euh	DISF_M	pres	NULL	NULL	NOLINK	0	idtext0012	euh	#####	spk2	40.32	40.54	0.01	_
20091112_RATP_SCD_0102	8	5	demain	NULL	adv	NULL	B_GADV	MOD	7	idtext0012	demain	#####	spk2	40.55	41.19	0.01	_
20091112_RATP_SCD_0102	8	6	vous	NULL	cln	NULL	B_GN	SUJ	7	idtext0012	cln	#2##p##	spk2	41.2	41.48	0.01	_
20091112_RATP_SCD_0102	8	7	savez	NULL	v	NULL	B_GVfn	DEP_COORD	3	idtext0012	savoir	P#2##p##	spk2	41.49	41.64	0.01	_
20091112_RATP_SCD_0102	8	8	pas	NULL	advneg	NULL	I_GVfn	MOD	7	idtext0012	pas	#####	spk2	41.65	41.93	0.01	_
20091112_RATP_SCD_0102	8	9	si	NULL	csu	NULL	B_NULL	OBJ	7	idtext0012	si	#####	spk2	41.94	42.37	0.01	_
20091112_RATP_SCD_0102	8	10	euh	DISF_M	pres	NULL	NULL	NOLINK	0	idtext0012	euh	#####	spk2	42.38	42.91	?	_

20091112_RATP_SCD_0102	9	1	hm	DISF_M	pres	NULL	NULL	NOLINK	0	idtext0013	hm	#####	spk1	42.96	43.11	?	//

20091112_RATP_SCD_0102	10	1	la	NULL	det	NULL	B_GN	DET	2	idtext0014	le	##m#s##d	spk2	43.15	43.45	0.01	_
20091112_RATP_SCD_0102	10	2	grève	NULL	nc	NULL	I_GN	SUJ	3	idtext0014	grève	##f#s##	spk2	43.46	43.64	0.01	_
20091112_RATP_SCD_0102	10	3	va	NULL	v	NULL	B_GVf	ROOT	0	idtext0014	aller	P#3##s##	spk2	43.65	43.7	0.01	_
20091112_RATP_SCD_0102	10	4	s'	NULL	clr	NULL	B_GVi	AFF	5	idtext0014	se	#3##p##	spk2	43.71	43.73	0.01	_
20091112_RATP_SCD_0102	10	5	arrêter	NULL	vinf	NULL	I_GVi	OBJ	3	idtext0014	arrêter	W#####	spk2	43.74	43.98	?	//

20091112_RATP_SCD_0102	11	1	la	NULL	det	NULL	B_GN	DET	2	idtext0015	le	##m#s##d	spk1	44.05	44.24	0.01	_
20091112_RATP_SCD_0102	11	2	grève	NULL	nc	NULL	I_GN	SUJ	4	idtext0015	grève	##f#s##	spk1	44.25	44.44	0.01	_
20091112_RATP_SCD_0102	11	3	s'	NULL	clr	NULL	B_GVf	AFF	4	idtext0015	se	#3##p##	spk1	44.45	44.53	0.01	_
20091112_RATP_SCD_0102	11	4	arrêtera	NULL	v	NULL	I_GVf	ROOT	0	idtext0015	arrêter	F#3##s##	spk1	44.54	44.93	0.01	_
20091112_RATP_SCD_0102	11	5	sûrement	NULL	adv	NULL	B_GADV	MOD	6	idtext0015	sûrement	#####	spk1	44.94	45.28	0.01	_
20091112_RATP_SCD_0102	11	6	demain	NULL	adv	NULL	I_GADV	MOD	4	idtext0015	demain	#####	spk1	45.29	45.65	0.01	_
20091112_RATP_SCD_0102	11	7	puisque	NULL	csu	NULL	B_NULL	MOD	4	idtext0015	puisque	#####	spk1	45.66	45.93	0.01	_
20091112_RATP_SCD_0102	11	8	de+toute+façon	NULL	adv	NULL	B_GADV	NOLINK	0	idtext0015	de+toute+façon	#####	spk1	45.94	46.47	0.01	_
20091112_RATP_SCD_0102	11	9	c'	NULL	cln	NULL	B_GN	SUJ_IMP	10	idtext0015	ce	###s##	spk1	46.48	46.57	0.01	_
20091112_RATP_SCD_0102	11	10	est	NULL	v	NULL	B_GVf	OBJ	7	idtext0015	être	P#3##s##	spk1	46.58	46.65	0.01	_
20091112_RATP_SCD_0102	11	11	spontané	NULL	adj	NULL	B_GADJ	ATS	10	idtext0015	spontané	##m#s##	spk1	46.66	47.27	0.01	_
20091112_RATP_SCD_0102	11	12	donc	NULL	coo	NULL	B_NULL	NOLINK	0	idtext0015	donc	#####	spk1	47.28	47.58	0.01	//
20091112_RATP_SCD_0102	11	13	euh	DISF_M	pres	NULL	NULL	NOLINK	0	idtext0015	euh	#####	spk1	47.59	47.82	0.34	_
20091112_RATP_SCD_0102	11	14	ça	NULL	pro	NULL	B_GN	SUJ_IMP	15	idtext0016	ça	#####	spk1	48.16	48.27	0.01	_
20091112_RATP_SCD_0102	11	15	va	NULL	v	NULL	B_GVfn	ROOT	0	idtext0016	aller	P#3##s##	spk1	48.28	48.51	0.01	_
20091112_RATP_SCD_0102	11	16	pas	NULL	advneg	NULL	I_GVfn	MOD	15	idtext0016	pas	#####	spk1	48.52	48.67	0.01	_
20091112_RATP_SCD_0102	11	17	durer	NULL	vinf	NULL	B_GVi	OBJ	15	idtext0016	durer	W#####	spk1	48.68	48.99	?	//

20091112_RATP_SCD_0102	12	1	d'accord	NULL	adv	NULL	B_GADV	MOD	2	idtext0017	d'accord	#####	spk2	49.58	49.92	0.01	_
20091112_RATP_SCD_0102	12	2	OK	NULL	adv	NULL	I_GADV	ROOT	0	idtext0017	ok	#####	spk2	49.93	50.17	0.06	//
20091112_RATP_SCD_0102	12	3	ben	DISF_M	pres	NULL	NULL	NOLINK	0	idtext0018	ben	#####	spk2	50.23	50.35	0.01	_
20091112_RATP_SCD_0102	12	4	je	NULL	cln	NULL	B_GN	SUJ	6	idtext0018	cln	#1##s##	spk2	50.36	50.44	0.01	_
20091112_RATP_SCD_0102	12	5	vous	NULL	clo	NULL	B_GN	OBJ	6	idtext0018	cln	#2##p##	spk2	50.45	50.53	0.01	_
20091112_RATP_SCD_0102	12	6	remercie	NULL	v	NULL	B_GVf	ROOT	0	idtext0018	remercier	PS#13##s##	spk2	50.54	50.87	?	//

20091112_RATP_SCD_0102	13	1	je	NULL	cln	NULL	B_GN	SUJ	4	idtext0019	cln	#1##s##	spk1	50.91	50.97	0.01	_
20091112_RATP_SCD_0102	13	2	vous	NULL	clo	NULL	B_GN	OBJ	4	idtext0019	cln	#2##p##	spk1	50.98	51.13	0.01	_
20091112_RATP_SCD_0102	13	3	en	NULL	clo	NULL	B_GN	DE_OBJ	4	idtext0019	en	#####	spk1	51.14	51.25	0.01	_
20091112_RATP_SCD_0102	13	4	prie	NULL	v	NULL	B_GVf	ROOT	0	idtext0019	prier	PS#13##s##	spk1	51.26	51.51	0.01	_
20091112_RATP_SCD_0102	13	5	au+revoir	NULL	adv	NULL	B_GADV	NOLINK	0	idtext0019	au+revoir	#####	spk1	51.52	51.88	?	//

20091112_RATP_SCD_0102	14	1	au+revoir	NULL	adv	NULL	B_GADV	NOLINK	0	idtext0020	au+revoir	#####	spk2	51.92	52.42	?	//

