20091112_RATP_SCD_1354	1	1	NNAAMMEE	NULL	np	B_HU	B_GN	ROOT	0	idtext0000	ANONYM	NULL	spk1	3.1	3.82	0.04	_
20091112_RATP_SCD_1354	1	2	bonsoir	NULL	nc	NULL	B_GN	NOLINK	0	idtext0001	bonsoir	##m#s##	spk1	3.86	4.48	0.01	_
20091112_RATP_SCD_1354	1	3	je	NULL	cln	NULL	B_GN	SUJ	5	idtext0001	cln	#1##s##	spk1	4.49	4.71	0.01	_
20091112_RATP_SCD_1354	1	4	vous	NULL	clo	NULL	B_GN	OBJ	5	idtext0001	cln	#2##p##	spk1	4.72	4.78	0.01	_
20091112_RATP_SCD_1354	1	5	écoute	NULL	v	NULL	B_GVf	ROOT	0	idtext0001	écouter	PS#13##s##	spk1	4.79	5.72	?	//

20091112_RATP_SCD_1354	2	1	s'il+vous+plaît	NULL	adv	NULL	B_GADV	NOLINK	0	idtext0002	s'il+vous+plaît	#####	spk1	11.86	12.67	?	//

20091112_RATP_SCD_1354	3	1	oui	NULL	adv	NULL	B_GADV	MOD	2	idtext0003	oui	#####	spk2	13.52	13.8	0.01	_
20091112_RATP_SCD_1354	3	2	bonjour	NULL	adv	NULL	I_GADV	ROOT	0	idtext0003	bonjour	#####	spk2	13.81	14.55	?	//

20091112_RATP_SCD_1354	4	1	excusez	NULL	v	NULL	B_GVf	ROOT	0	idtext0004	excuser	P#2##p##	spk2	14.63	14.94	0.01	_
20091112_RATP_SCD_1354	4	2	-moi	NULL	clo	NULL	B_GN	OBJ	1	idtext0004	cla	#1##s##	spk2	14.95	15.24	?	_

20091112_RATP_SCD_1354	5	1	oui	NULL	adv	NULL	B_GADV	NOLINK	0	idtext0005	oui	#####	spk1	14.63	15.24	?	//

20091112_RATP_SCD_1354	6	1	de	NULL	prep	NULL	B_GP	ROOT	0	idtext0006	de	#####	spk2	15.44	15.46	0.01	_
20091112_RATP_SCD_1354	6	2	vous	NULL	clo	NULL	I_GP	OBJ	3	idtext0006	cln	#2##p##	spk2	15.47	15.52	0.01	_
20091112_RATP_SCD_1354	6	3	déranger	NULL	vinf	NULL	B_GVi	OBJ	1	idtext0006	déranger	W#####	spk2	15.53	15.96	?	//

20091112_RATP_SCD_1354	7	1	j'	NULL	cln	NULL	B_GN	SUJ	2	idtext0007	cln	#1##s##	spk2	16.42	16.55	0.01	_
20091112_RATP_SCD_1354	7	2	aimerais	NULL	v	NULL	B_GVf	ROOT	0	idtext0007	aimer	C#12##s##	spk2	16.56	16.75	0.01	_
20091112_RATP_SCD_1354	7	3	savoir	NULL	vinf	NULL	I_GVf	OBJ	2	idtext0007	savoir	W#####	spk2	16.76	17.05	0.01	_
20091112_RATP_SCD_1354	7	4	si	NULL	csu	NULL	B_NULL	OBJ	3	idtext0007	si	#####	spk2	17.06	17.13	0.01	_
20091112_RATP_SCD_1354	7	5	je	NULL	cln	NULL	B_GN	SUJ	6	idtext0007	cln	#1##s##	spk2	17.14	17.26	0.01	_
20091112_RATP_SCD_1354	7	6	pourrai	NULL	v	NULL	B_GVf	OBJ	4	idtext0007	pouvoir	F#1##s##	spk2	17.27	17.57	0.01	_
20091112_RATP_SCD_1354	7	7	être	NULL	vinf	NULL	B_GVi	AUX	8	idtext0007	être	W#####	spk2	17.58	17.72	0.01	_
20091112_RATP_SCD_1354	7	8	mis	NULL	vppart	NULL	I_GVi	OBJ	6	idtext0007	mettre	J#12##s##	spk2	17.73	17.83	0.01	_
20091112_RATP_SCD_1354	7	9	en+relation+avec	NULL	prep	NULL	B_GP	P_OBJ	8	idtext0007	en+relation+avec	#####	spk2	17.84	18.51	0.01	_
20091112_RATP_SCD_1354	7	10	le	NULL	det	NULL	I_GP	DET	11	idtext0007	le	##m#s##d	spk2	18.52	18.63	0.01	_
20091112_RATP_SCD_1354	7	11	centre	NULL	nc	NULL	I_GP	OBJ	9	idtext0007	centre	##m#s##	spk2	18.64	19.58	0.01	_
20091112_RATP_SCD_1354	7	12	euh	DISF_M	pres	NULL	NULL	NOLINK	0	idtext0007	euh	#####	spk2	19.59	19.76	0.01	_
20091112_RATP_SCD_1354	7	13	de	NULL	prep	NULL	B_GP	DEP	11	idtext0007	de	#####	spk2	19.77	20.37	0.01	_
20091112_RATP_SCD_1354	7	14	bus	NULL	nc	NULL	I_GP	OBJ	13	idtext0007	bus	##m###	spk2	20.38	20.82	0.01	_
20091112_RATP_SCD_1354	7	15	de	NULL	prep	NULL	B_GP	DEP	14	idtext0007	de	#####	spk2	20.83	21.61	0.01	_
20091112_RATP_SCD_1354	7	16	place	NULL	nc	B_A	I_GP	OBJ	15	idtext0007	place	##f#s##	spk2	21.62	21.85	0.01	_
20091112_RATP_SCD_1354	7	17	de	NULL	prep	I_A	I_GP	DEP	16	idtext0007	de	#####	spk2	21.86	21.93	0.01	_
20091112_RATP_SCD_1354	7	18	la	NULL	det	I_A	I_GP	DET	19	idtext0007	le	##m#s##d	spk2	21.94	22.09	0.01	_
20091112_RATP_SCD_1354	7	19	Boule	NULL	np	I_A	I_GP	OBJ	17	idtext0007	Boule	#####	spk2	22.1	22.29	0.01	_
20091112_RATP_SCD_1354	7	20	à	NULL	prep	NULL	B_GP	MOD	16	idtext0007	à	#####	spk2	22.3	22.36	0.01	_
20091112_RATP_SCD_1354	7	21	Nanterre	NULL	nc	B_A	I_GP	OBJ	20	idtext0007	Nanterre	##m#s##	spk2	22.37	22.93	?	//

20091112_RATP_SCD_1354	8	1	euh	DISF_M	pres	NULL	NULL	NOLINK	0	idtext0008	euh	#####	spk1	23.7	24.15	0.01	_
20091112_RATP_SCD_1354	8	2	non	NULL	adv	NULL	B_GADV	NOLINK	0	idtext0008	non	#####	spk1	24.16	24.37	0.01	_
20091112_RATP_SCD_1354	8	3	c'	NULL	cln	NULL	B_GN	SUJ_IMP	5	idtext0008	ce	###s##	spk1	24.38	24.44	0.01	_
20091112_RATP_SCD_1354	8	4	est	NULL	v	NULL	B_GVf	AUX	5	idtext0008	être	P#3##s##	spk1	24.45	24.52	0.01	_
20091112_RATP_SCD_1354	8	5	fermé	NULL	vppart	NULL	I_GVf	ROOT	0	idtext0008	fermer	K##m#s##	spk1	24.53	24.98	0.01	_
20091112_RATP_SCD_1354	8	6	madame	NULL	nc	NULL	B_GN	NOLINK	0	idtext0008	Monsieur	##f#s##	spk1	24.99	25.65	?	//

20091112_RATP_SCD_1354	9	1	et	NULL	coo	NULL	B_NULL	ROOT	0	idtext0009	et	#####	spk2	26.48	26.59	0.01	_
20091112_RATP_SCD_1354	9	2	ça	NULL	pro	NULL	B_GN	SUJ_IMP	3	idtext0009	ça	#####	spk2	26.6	26.72	0.01	_
20091112_RATP_SCD_1354	9	3	ouvre	NULL	v	NULL	B_GVf	DEP_COORD	1	idtext0009	ouvrer	PS#13##s##	spk2	26.73	26.88	0.01	_
20091112_RATP_SCD_1354	9	4	à	NULL	prep	NULL	B_GP	MOD	3	idtext0009	à	#####	spk2	26.89	26.95	0.01	_
20091112_RATP_SCD_1354	9	5	quelle	NULL	det	NULL	I_GP	DET	6	idtext0009	quel	##f#s##	spk2	26.96	27.13	0.01	_
20091112_RATP_SCD_1354	9	6	heure	NULL	nc	NULL	I_GP	OBJ	4	idtext0009	heure	##f#s##	spk2	27.14	27.19	0.01	_
20091112_RATP_SCD_1354	9	7	le	NULL	det	NULL	B_GN	DET	8	idtext0009	le	##m#s##d	spk2	27.2	27.29	0.01	_
20091112_RATP_SCD_1354	9	8	matin	NULL	nc	NULL	I_GN	MOD	6	idtext0009	matin	##m#s##	spk2	27.3	27.87	?	//

20091112_RATP_SCD_1354	10	1	euh	DISF_M	pres	NULL	NULL	NOLINK	0	idtext0010	euh	#####	spk1	28.48	28.64	0.01	_
20091112_RATP_SCD_1354	10	2	ben	DISF_M	pres	NULL	NULL	NOLINK	0	idtext0010	ben	#####	spk1	28.65	28.81	0.01	_
20091112_RATP_SCD_1354	10	3	le	NULL	det	NULL	B_GN	DET	4	idtext0010	le	##m#s##d	spk1	28.82	28.94	0.01	_
20091112_RATP_SCD_1354	10	4	matin	NULL	nc	NULL	I_GN	ROOT	0	idtext0010	matin	##m#s##	spk1	28.95	29.31	0.01	_
20091112_RATP_SCD_1354	10	5	à+partir+de	NULL	prep	NULL	B_GP	MOD	4	idtext0010	à+partir+de	#####	spk1	29.32	30.07	0.01	_
20091112_RATP_SCD_1354	10	6	sept	NULL	det	B_H	I_GP	DET	7	idtext0010	sept	#####	spk1	30.08	30.38	0.01	_
20091112_RATP_SCD_1354	10	7	heures	NULL	nc	I_H	I_GP	OBJ	5	idtext0010	heure	##f#p##	spk1	30.39	30.63	0.01	_
20091112_RATP_SCD_1354	10	8	il	NULL	cln	NULL	B_GN	SUJ_IMP	10	idtext0010	cln	#3#m#s##	spk1	30.64	30.7	0.01	_
20091112_RATP_SCD_1354	10	9	y	NULL	clo	NULL	B_GN	AFF	10	idtext0010	y	#####	spk1	30.71	30.73	0.01	_
20091112_RATP_SCD_1354	10	10	a	NULL	v	NULL	B_GVf	ROOT	0	idtext0010	avoir	P#3##s##	spk1	30.74	30.76	0.01	_
20091112_RATP_SCD_1354	10	11	quelqu'un	NULL	pro	NULL	I_GP	OBJ	10	idtext0010	quelqu'un	#####	spk1	30.77	31.61	?	_

20091112_RATP_SCD_1354	11	1	d'accord	NULL	adv	NULL	B_GADV	NOLINK	0	idtext0011	d'accord	#####	spk2	32.43	33.0	0.01	_
20091112_RATP_SCD_1354	11	2	parce+qu'	NULL	csu	NULL	B_NULL	NOLINK	0	idtext0011	parce+qu'	#####	spk2	33.01	33.24	0.01	_
20091112_RATP_SCD_1354	11	3	en+fait	GREF	adv	NULL	B_GADV	NOLINK	0	idtext0011	en+fait	#####	spk2	33.25	33.54	?	_

20091112_RATP_SCD_1354	12	1	c'est+pourquoi	NULL	csu	NULL	B_NULL	ROOT	0	idtext0012	c'est+pourquoi	#####	spk1	32.43	33.13	0.01	_
20091112_RATP_SCD_1354	12	2	vous	NULL	cln	NULL	B_GN	SUJ	3	idtext0012	cln	#2##p##	spk1	33.14	33.31	0.01	_
20091112_RATP_SCD_1354	12	3	avez	NULL	v	NULL	B_GVf	OBJ	1	idtext0012	avoir	P#2##p##	spk1	33.32	33.54	?	//

20091112_RATP_SCD_1354	13	1	perdu	NULL	vppart	NULL	B_GVf	ROOT	0	idtext0013	perdre	K##m#s##	spk1	33.58	33.88	0.01	_
20091112_RATP_SCD_1354	13	2	quelque+chose	NULL	pro	NULL	B_GN	OBJ	1	idtext0013	quelque+chose	#####	spk1	33.89	35.05	?	//

20091112_RATP_SCD_1354	14	1	oui	NULL	adv	NULL	B_GADV	MOD	2	idtext0014	oui	#####	spk2	35.38	35.62	0.01	_
20091112_RATP_SCD_1354	14	2	exactement	NULL	adv	NULL	I_GADV	ROOT	0	idtext0014	exactement	#####	spk2	35.63	36.13	0.01	_
20091112_RATP_SCD_1354	14	3	j'	NULL	cln	NULL	B_GN	SUJ	5	idtext0014	cln	#1##s##	spk2	36.14	36.16	0.01	_
20091112_RATP_SCD_1354	14	4	ai	NULL	v	NULL	B_GVf	AUX	5	idtext0014	avoir	P#1##s##	spk2	36.17	36.26	0.01	_
20091112_RATP_SCD_1354	14	5	perdu	NULL	vppart	NULL	I_GVf	ROOT	0	idtext0014	perdre	K##m#s##	spk2	36.27	36.56	0.01	_
20091112_RATP_SCD_1354	14	6	mes	NULL	det	NULL	B_GN	DET	7	idtext0014	mon	###p##o	spk2	36.57	36.69	0.01	_
20091112_RATP_SCD_1354	14	7	clefs	NULL	nc	NULL	I_GN	OBJ	5	idtext0014	clef	##f#p##	spk2	36.7	37.11	?	//

20091112_RATP_SCD_1354	15	1	ah	DISF_M	pres	NULL	NULL	NOLINK	0	idtext0015	ah	#####	spk1	38.74	38.93	?	//

20091112_RATP_SCD_1354	16	1	sur	DISF_R	prep	NULL	NULL	NOLINK	0	idtext0016	sur	#####	spk1	39.04	39.2	0.01	_
20091112_RATP_SCD_1354	16	2	quelle	DISF_R	det	NULL	NULL	NOLINK	0	idtext0016	quel	##f#s##	spk1	39.21	39.49	0.01	_
20091112_RATP_SCD_1354	16	3	sur	NULL	prep	NULL	B_NULL	NOLINK	0	idtext0016	sur	#####	spk1	39.5	39.66	0.01	_
20091112_RATP_SCD_1354	16	4	quelle	NULL	det	NULL	B_NULL	NOLINK	0	idtext0016	quel	##f#s##	spk1	39.67	39.98	?	_

20091112_RATP_SCD_1354	17	1	donc	NULL	coo	NULL	B_NULL	ROOT	0	idtext0017	donc	#####	spk2	38.98	39.39	0.01	_
20091112_RATP_SCD_1354	17	2	euh	DISF_M	pres	NULL	NULL	NOLINK	0	idtext0017	euh	#####	spk2	39.4	39.48	0.01	_
20091112_RATP_SCD_1354	17	3	c'	NULL	cln	NULL	B_GN	SUJ_IMP	4	idtext0017	ce	###s##	spk2	39.49	39.68	0.01	_
20091112_RATP_SCD_1354	17	4	est	NULL	v	NULL	B_GVf	DEP_COORD	1	idtext0017	être	P#3##s##	spk2	39.69	39.98	?	//

20091112_RATP_SCD_1354	18	1	ligne	NULL	nc	NULL	B_GN	ROOT	0	idtext0018	ligne	##f#s##	spk1	40.02	40.16	0.01	_
20091112_RATP_SCD_1354	18	2	de	NULL	prep	NULL	B_GP	DEP	1	idtext0018	de	#####	spk1	40.17	40.3	0.01	_
20091112_RATP_SCD_1354	18	3	bus	NULL	nc	NULL	I_GP	OBJ	2	idtext0018	bus	##m###	spk1	40.31	41.18	?	//

20091112_RATP_SCD_1354	19	1	trois+cent+quatre	NULL	nc	B_T	B_GN	NOLINK	0	idtext0019	trois+cent+quatre	#####	spk2	41.51	42.31	?	_

20091112_RATP_SCD_1354	20	1	donc	NULL	coo	NULL	B_NULL	ROOT	0	idtext0020	donc	#####	spk1	43.78	43.96	0.01	_
20091112_RATP_SCD_1354	20	2	trois+cent+quatre	NULL	nc	B_T	B_GN	DEP_COORD	1	idtext0020	trois+cent+quatre	#####	spk1	43.97	45.29	?	//

20091112_RATP_SCD_1354	21	1	et	NULL	coo	NULL	B_NULL	NOLINK	0	idtext0021	et	#####	spk2	47.2	47.35	0.01	_
20091112_RATP_SCD_1354	21	2	en+fait	GREF	adv	NULL	B_GADV	NOLINK	0	idtext0021	en+fait	#####	spk2	47.36	47.68	?	_

20091112_RATP_SCD_1354	22	1	je	NULL	cln	NULL	B_GN	SUJ	2	idtext0022	cln	#1##s##	spk1	47.11	47.15	0.01	_
20091112_RATP_SCD_1354	22	2	vais	NULL	v	NULL	B_GVf	ROOT	0	idtext0022	aller	P#1##s##	spk1	47.16	47.68	?	//

20091112_RATP_SCD_1354	23	1	on	NULL	cln	NULL	B_GN	SUJ_IMP	4	idtext0023	cln	#3##s##	spk2	47.78	47.8	0.01	_
20091112_RATP_SCD_1354	23	2	m'	NULL	clo	NULL	B_GN	A_OBJ	4	idtext0023	cla	#1##s##	spk2	47.81	47.83	0.01	_
20091112_RATP_SCD_1354	23	3	a	NULL	v	NULL	B_GVf	AUX	4	idtext0023	avoir	P#3##s##	spk2	47.84	47.89	0.01	_
20091112_RATP_SCD_1354	23	4	dit	NULL	vppart	NULL	I_GVf	ROOT	0	idtext0023	dire	J#3##s##	spk2	47.9	48.11	0.01	_
20091112_RATP_SCD_1354	23	5	que	NULL	csu	NULL	B_NULL	OBJ	4	idtext0023	que	#####	spk2	48.12	48.36	0.01	_
20091112_RATP_SCD_1354	23	6	il	NULL	cln	NULL	B_GN	SUJ_IMP	7	idtext0023	cln	#3#m#s##	spk2	48.37	48.46	0.01	_
20091112_RATP_SCD_1354	23	7	fallait	NULL	v	NULL	B_GVf	OBJ	5	idtext0023	falloir	I#3##s##	spk2	48.47	48.66	0.01	_
20091112_RATP_SCD_1354	23	8	appeler	NULL	vinf	NULL	I_GVf	OBJ	7	idtext0023	appeler	W#####	spk2	48.67	49.44	0.01	_
20091112_RATP_SCD_1354	23	9	euh	DISF_M	pres	NULL	NULL	NOLINK	0	idtext0023	euh	#####	spk2	49.45	49.54	0.01	_
20091112_RATP_SCD_1354	23	10	place	NULL	nc	B_A	B_GN	OBJ	7	idtext0023	place	##f#s##	spk2	49.55	49.79	0.01	_
20091112_RATP_SCD_1354	23	11	de	NULL	prep	I_A	I_GN	DEP	10	idtext0023	de	#####	spk2	49.8	49.89	0.01	_
20091112_RATP_SCD_1354	23	12	la	NULL	det	I_A	I_GN	DET	13	idtext0023	le	##m#s##d	spk2	49.9	50.02	0.01	_
20091112_RATP_SCD_1354	23	13	Boule	NULL	np	I_A	I_GN	OBJ	11	idtext0023	Boule	#####	spk2	50.03	50.24	0.01	_
20091112_RATP_SCD_1354	23	14	parce+qu'	NULL	csu	NULL	B_NULL	MOD	7	idtext0023	parce+qu'	#####	spk2	50.25	50.49	0.01	_
20091112_RATP_SCD_1354	23	15	à	DISF_R	prep	NULL	NULL	NOLINK	0	idtext0023	à	#####	spk2	50.5	50.52	0.01	_
20091112_RATP_SCD_1354	23	16	Cour()	DISF_T	tronc	NULL	NULL	NOLINK	0	idtext0023	Cour()	#####	spk2	50.53	50.76	0.01	_
20091112_RATP_SCD_1354	23	17	aux	NULL	prep	NULL	B_GP	MOD	21	idtext0023	aux	#####	spk2	50.77	50.86	0.01	_
20091112_RATP_SCD_1354	23	18	Courtilles	NULL	nc	B_A	I_GP	OBJ	17	idtext0023	Courtilles	#####	spk2	50.87	51.2	0.01	_
20091112_RATP_SCD_1354	23	19	il	NULL	cln	NULL	B_GN	SUJ_IMP	21	idtext0023	cln	#3#m#s##	spk2	51.21	51.26	0.01	_
20091112_RATP_SCD_1354	23	20	y	NULL	clo	NULL	B_GN	AFF	21	idtext0023	y	#####	spk2	51.27	51.3	0.01	_
20091112_RATP_SCD_1354	23	21	avait	NULL	v	NULL	B_GVfn	OBJ	14	idtext0023	avoir	I#3##s##	spk2	51.31	51.48	0.01	_
20091112_RATP_SCD_1354	23	22	pas	NULL	advneg	NULL	I_GVfn	MOD	21	idtext0023	pas	#####	spk2	51.49	51.62	0.01	_
20091112_RATP_SCD_1354	23	23	de	NULL	prep	NULL	B_NULL	OBJ	21	idtext0023	de	#####	spk2	51.63	52.1	?	_

20091112_RATP_SCD_1354	24	1	moui	DISF_R	adv	NULL	NULL	NOLINK	0	idtext0024	moui	#####	spk1	52.15	52.75	0.01	_
20091112_RATP_SCD_1354	24	2	moui	NULL	adv	NULL	B_GADV	NOLINK	0	idtext0024	moui	#####	spk1	52.76	53.19	0.01	_
20091112_RATP_SCD_1354	24	3	je	NULL	cln	NULL	B_GN	SUJ	5	idtext0024	cln	#1##s##	spk1	53.2	53.32	0.01	_
20091112_RATP_SCD_1354	24	4	vous	NULL	clo	NULL	B_GN	A_OBJ	5	idtext0024	cln	#2##p##	spk1	53.33	53.51	0.01	_
20091112_RATP_SCD_1354	24	5	patiente	NULL	v	NULL	B_GVf	ROOT	0	idtext0024	patienter	PS#13##s##	spk1	53.52	53.99	0.01	_
20091112_RATP_SCD_1354	24	6	un	NULL	det	NULL	B_GN	DET	7	idtext0024	un	##m#s##i	spk1	54.0	54.12	0.01	_
20091112_RATP_SCD_1354	24	7	instant	NULL	nc	NULL	I_GN	OBJ	5	idtext0024	instant	##m#s##	spk1	54.13	54.43	0.01	_
20091112_RATP_SCD_1354	24	8	j'	NULL	cln	NULL	B_GN	SUJ	9	idtext0024	cln	#1##s##	spk1	54.44	54.54	0.01	_
20091112_RATP_SCD_1354	24	9	essaie	NULL	v	NULL	B_GVf	ROOT	0	idtext0024	essayer	PS#13##s##	spk1	54.55	54.99	0.01	_
20091112_RATP_SCD_1354	24	10	mais	NULL	coo	NULL	B_NULL	COORD	9	idtext0024	mais	#####	spk1	55.0	55.37	0.01	_
20091112_RATP_SCD_1354	24	11	ils	NULL	cln	NULL	B_GN	SUJ	12	idtext0025	cln	#3#m#p##	spk1	55.38	55.49	0.01	_
20091112_RATP_SCD_1354	24	12	terminent	NULL	v	NULL	B_GVf	DEP_COORD	10	idtext0025	(se)+terminer	PS#3##p##	spk1	55.5	55.88	0.01	_
20091112_RATP_SCD_1354	24	13	à	NULL	prep	NULL	B_GP	MOD	12	idtext0025	à	#####	spk1	55.89	55.95	0.01	_
20091112_RATP_SCD_1354	24	14	vingt	NULL	det	B_H	I_GP	DET	15	idtext0025	vingt	#####	spk1	55.96	56.23	0.01	_
20091112_RATP_SCD_1354	24	15	heures	NULL	nc	I_H	I_GP	OBJ	13	idtext0025	heure	##f#p##	spk1	56.24	56.38	0.01	_
20091112_RATP_SCD_1354	24	16	trente	NULL	adj	I_H	I_GP	MOD	15	idtext0025	trente	#####	spk1	56.39	56.64	0.01	_
20091112_RATP_SCD_1354	24	17	donc	NULL	coo	NULL	B_NULL	COORD	12	idtext0025	donc	#####	spk1	56.65	56.89	0.01	_
20091112_RATP_SCD_1354	24	18	à	NULL	prep	NULL	B_GP	MOD	23	idtext0025	à	#####	spk1	56.9	56.94	0.01	_
20091112_RATP_SCD_1354	24	19	mon	NULL	det	NULL	I_GP	DET	20	idtext0025	mon	###s##o	spk1	56.95	57.14	0.01	_
20091112_RATP_SCD_1354	24	20	avis	NULL	nc	NULL	I_GP	OBJ	18	idtext0025	avis	##m###	spk1	57.15	57.32	0.01	_
20091112_RATP_SCD_1354	24	21	il	NULL	cln	NULL	B_GN	SUJ_IMP	23	idtext0025	cln	#3#m#s##	spk1	57.33	57.38	0.01	_
20091112_RATP_SCD_1354	24	22	y	NULL	clo	NULL	B_GN	AFF	23	idtext0025	y	#####	spk1	57.39	57.42	0.01	_
20091112_RATP_SCD_1354	24	23	a	NULL	v	NULL	B_GVf	DEP_COORD	17	idtext0025	avoir	P#3##s##	spk1	57.43	57.47	0.01	_
20091112_RATP_SCD_1354	24	24	plus	NULL	advneg	NULL	B_GVfn	MOD	23	idtext0025	plus	#####	spk1	57.48	57.65	0.01	_
20091112_RATP_SCD_1354	24	25	personne	NULL	pro	NULL	B_GN	OBJ	23	idtext0025	personne	#####	spk1	57.66	58.1	0.01	_
20091112_RATP_SCD_1354	24	26	mais	NULL	coo	NULL	B_NULL	COORD	23	idtext0025	mais	#####	spk1	58.11	58.18	0.01	_
20091112_RATP_SCD_1354	24	27	je	NULL	cln	NULL	B_GN	SUJ	29	idtext0025	cln	#1##s##	spk1	58.19	58.25	0.01	_
20091112_RATP_SCD_1354	24	28	les	NULL	clo	NULL	B_GN	OBJ	29	idtext0025	cla	#3##p##	spk1	58.26	58.45	0.01	_
20091112_RATP_SCD_1354	24	29	appelle	NULL	v	NULL	B_GVf	DEP_COORD	26	idtext0025	appeler	PS#13##s##	spk1	58.46	58.79	0.01	_
20091112_RATP_SCD_1354	24	30	quand+même	NULL	adv	NULL	B_GADV	MOD	29	idtext0025	quand+même	#####	spk1	58.8	59.24	?	_

20091112_RATP_SCD_1354	25	1	hein	DISF_M	pres	NULL	NULL	NOLINK	0	idtext0026	hein	#####	spk1	59.28	59.37	0.01	/
20091112_RATP_SCD_1354	25	2	ne	NULL	clneg	NULL	B_GVfn	MOD	3	idtext0026	ne	#####	spk1	59.38	59.55	0.01	_
20091112_RATP_SCD_1354	25	3	quittez	NULL	v	NULL	I_GVfn	ROOT	0	idtext0026	quitter	P#2##p##	spk1	59.56	59.93	0.01	_
20091112_RATP_SCD_1354	25	4	pas	NULL	advneg	NULL	I_GVfn	MOD	3	idtext0026	pas	#####	spk1	59.94	60.55	?	_

20091112_RATP_SCD_1354	26	1	d'accord	NULL	adv	NULL	B_GADV	NOLINK	0	idtext0027	d'accord	#####	spk2	59.37	59.75	0.01	_
20091112_RATP_SCD_1354	26	2	je	NULL	cln	NULL	B_GN	SUJ	4	idtext0027	cln	#1##s##	spk2	59.76	59.88	0.01	_
20091112_RATP_SCD_1354	26	3	vous	NULL	clo	NULL	B_GN	OBJ	4	idtext0027	cln	#2##p##	spk2	59.89	60.0	0.01	_
20091112_RATP_SCD_1354	26	4	remercie	NULL	v	NULL	B_GVf	ROOT	0	idtext0027	remercier	PS#13##s##	spk2	60.01	60.55	?	//

20091112_RATP_SCD_1354	27	1	madame	NULL	nc	NULL	B_GN	NOLINK	0	idtext0028	Monsieur	##f#s##	spk1	83.53	84.01	0.01	/
20091112_RATP_SCD_1354	27	2	non	NULL	adv	NULL	B_GADV	NOLINK	0	idtext0028	non	#####	spk1	84.02	84.17	0.01	_
20091112_RATP_SCD_1354	27	3	j'	NULL	cln	NULL	B_GN	SUJ	4	idtext0028	cln	#1##s##	spk1	84.18	84.27	0.01	_
20091112_RATP_SCD_1354	27	4	ai	NULL	v	NULL	B_GVfn	ROOT	0	idtext0028	avoir	P#1##s##	spk1	84.28	84.32	0.01	_
20091112_RATP_SCD_1354	27	5	plus	NULL	advneg	NULL	I_GVfn	MOD	4	idtext0028	plus	#####	spk1	84.33	84.62	?	_

20091112_RATP_SCD_1354	28	1	personne	NULL	nc	NULL	B_GN	NOLINK	0	idtext0029	personne	##f#s##	spk1	84.92	85.41	?	//

20091112_RATP_SCD_1354	29	1	oui	NULL	adv	NULL	B_GADV	NOLINK	0	idtext0030	oui	#####	spk2	84.86	85.41	?	//

20091112_RATP_SCD_1354	30	1	il	NULL	cln	NULL	B_GN	SUJ_IMP	2	idtext0031	cln	#3#m#s##	spk1	85.45	85.5	0.01	_
20091112_RATP_SCD_1354	30	2	faudra	NULL	v	NULL	B_GVf	ROOT	0	idtext0031	falloir	F#3##s##	spk1	85.51	85.8	0.01	_
20091112_RATP_SCD_1354	30	3	rappeler	NULL	vinf	NULL	I_GVf	OBJ	2	idtext0031	rappeler	W#####	spk1	85.81	86.19	0.01	_
20091112_RATP_SCD_1354	30	4	demain	NULL	adv	NULL	B_GADV	MOD	2	idtext0032	demain	#####	spk1	86.2	86.75	?	//

20091112_RATP_SCD_1354	31	1	d'accord	NULL	adv	NULL	B_GADV	NOLINK	0	idtext0033	d'accord	#####	spk2	87.57	87.85	0.01	//
20091112_RATP_SCD_1354	31	2	ben	DISF_M	pres	NULL	NULL	NOLINK	0	idtext0033	ben	#####	spk2	87.86	87.96	0.01	_
20091112_RATP_SCD_1354	31	3	j'	NULL	cln	NULL	B_GN	SUJ	4	idtext0033	cln	#1##s##	spk2	87.97	88.04	0.01	_
20091112_RATP_SCD_1354	31	4	irai	NULL	v	NULL	B_GVf	ROOT	0	idtext0033	aller	F#1##s##	spk2	88.05	88.21	0.01	_
20091112_RATP_SCD_1354	31	5	directement	NULL	adv	NULL	B_GADV	MOD	6	idtext0033	directement	#####	spk2	88.22	88.75	0.01	_
20091112_RATP_SCD_1354	31	6	demain	NULL	adv	NULL	I_GADV	MOD	4	idtext0033	demain	#####	spk2	88.76	88.97	0.01	_
20091112_RATP_SCD_1354	31	7	matin	NULL	nc	NULL	B_GN	NOLINK	0	idtext0033	matin	##m#s##	spk2	88.98	89.16	0.01	_
20091112_RATP_SCD_1354	31	8	en	NULL	prep	NULL	B_NULL	NOLINK	0	idtext0033	en	#####	spk2	89.17	89.31	?	_

20091112_RATP_SCD_1354	32	1	fait	NULL	v	NULL	B_GVf	NOLINK	0	idtext0034	faire	P#3##s##	spk2	89.35	90.29	?	//

20091112_RATP_SCD_1354	33	1	d'accord	NULL	adv	NULL	B_GADV	NOLINK	0	idtext0035	d'accord	#####	spk1	89.63	90.29	?	//

20091112_RATP_SCD_1354	34	1	je	NULL	cln	NULL	B_GN	SUJ	3	idtext0036	cln	#1##s##	spk2	90.78	90.81	0.01	_
20091112_RATP_SCD_1354	34	2	vous	NULL	clo	NULL	B_GN	OBJ	3	idtext0036	cln	#2##p##	spk2	90.82	90.89	0.01	_
20091112_RATP_SCD_1354	34	3	remercie	NULL	v	NULL	B_GVf	ROOT	0	idtext0036	remercier	PS#13##s##	spk2	90.9	91.28	0.01	_
20091112_RATP_SCD_1354	34	4	bonne	NULL	adj	NULL	B_GADJ	MOD	3	idtext0036	bon	##f#s##	spk2	91.29	91.41	?	//

20091112_RATP_SCD_1354	35	1	fin	NULL	nc	NULL	B_GN	ROOT	0	idtext0037	fin	###s##	spk2	91.45	91.56	0.01	_
20091112_RATP_SCD_1354	35	2	de	NULL	prep	NULL	B_GP	DEP	1	idtext0037	de	#####	spk2	91.57	91.59	0.01	_
20091112_RATP_SCD_1354	35	3	journée	NULL	nc	NULL	I_GP	OBJ	2	idtext0037	journée	##f#s##	spk2	91.6	91.9	?	//

20091112_RATP_SCD_1354	36	1	je	NULL	cln	NULL	B_GN	NOLINK	0	idtext0038	cln	#1##s##	spk1	91.45	91.55	0.01	_
20091112_RATP_SCD_1354	36	2	vous	NULL	clo	NULL	B_GN	ROOT	0	idtext0038	cln	#2##p##	spk1	91.56	91.74	0.01	_
20091112_RATP_SCD_1354	36	3	en	NULL	clo	NULL	B_GN	OBJ	2	idtext0038	en	#####	spk1	91.75	91.9	?	_

20091112_RATP_SCD_1354	37	1	prie	NULL	v	NULL	B_GVf	NOLINK	0	idtext0039	prier	PS#13##s##	spk1	91.98	92.13	0.01	/
20091112_RATP_SCD_1354	37	2	bonne	NULL	adj	NULL	B_GN	MOD	3	idtext0039	bon	##f#s##	spk1	92.14	92.35	0.01	_
20091112_RATP_SCD_1354	37	3	soirée	NULL	nc	NULL	I_GN	ROOT	0	idtext0039	soirée	##f#s##	spk1	92.36	92.66	0.01	_
20091112_RATP_SCD_1354	37	4	madame	NULL	nc	NULL	B_GN	NOLINK	0	idtext0039	Monsieur	##f#s##	spk1	92.67	93.02	?	//

20091112_RATP_SCD_1354	38	1	au+revoir	NULL	adv	NULL	B_GADV	NOLINK	0	idtext0040	au+revoir	#####	spk1	93.15	93.79	?	//

20091112_RATP_SCD_1354	39	1	au+revoir	NULL	adv	NULL	B_GADV	NOLINK	0	idtext0041	au+revoir	#####	spk2	93.15	93.79	?	//

