20091112_RATP_SCD_0694	1	1	NNAAMMEE	NULL	np	B_HU	B_GN	ROOT	0	idtext0000	ANONYM	NULL	spk1	6.38	6.57	0.06	_
20091112_RATP_SCD_0694	1	2	bonjour	NULL	adv	NULL	B_GADV	NOLINK	0	idtext0001	bonjour	#####	spk1	6.63	7.35	?	//

20091112_RATP_SCD_0694	2	1	oui	NULL	adv	NULL	B_GADV	MOD	2	idtext0002	oui	#####	spk3	7.42	7.78	0.01	_
20091112_RATP_SCD_0694	2	2	bonjour	NULL	adv	NULL	I_GADV	ROOT	0	idtext0002	bonjour	#####	spk3	7.79	8.05	0.01	_
20091112_RATP_SCD_0694	2	3	madame	NULL	nc	NULL	B_GN	NOLINK	0	idtext0002	Monsieur	##f#s##	spk3	8.06	8.84	?	//

20091112_RATP_SCD_0694	3	1	je	NULL	cln	NULL	B_GN	SUJ	3	idtext0003	cln	#1##s##	spk3	8.88	8.9	0.01	_
20091112_RATP_SCD_0694	3	2	vous	NULL	clo	NULL	B_GN	OBJ	3	idtext0003	cln	#2##p##	spk3	8.91	8.96	0.01	_
20091112_RATP_SCD_0694	3	3	appelle	NULL	v	NULL	B_GVf	ROOT	0	idtext0003	appeler	PS#13##s##	spk3	8.97	9.08	0.01	_
20091112_RATP_SCD_0694	3	4	pour	NULL	prep	NULL	B_GP	P_OBJ	3	idtext0003	pour	#####	spk3	9.09	9.17	0.01	_
20091112_RATP_SCD_0694	3	5	un	NULL	det	NULL	I_GP	DET	7	idtext0003	un	##m#s##i	spk3	9.18	9.21	0.01	_
20091112_RATP_SCD_0694	3	6	petit	NULL	adj	NULL	I_GP	MOD	7	idtext0003	petit	##m#s##	spk3	9.22	9.52	0.01	_
20091112_RATP_SCD_0694	3	7	renseignement	NULL	nc	NULL	I_GP	OBJ	4	idtext0003	renseignement	##m#s##	spk3	9.53	10.31	0.01	_
20091112_RATP_SCD_0694	3	8	euh	DISF_M	pres	NULL	NULL	NOLINK	0	idtext0004	euh	#####	spk3	10.32	10.44	0.01	_
20091112_RATP_SCD_0694	3	9	j'	NULL	cln	NULL	B_GN	SUJ	11	idtext0004	cln	#1##s##	spk3	10.45	10.77	0.01	_
20091112_RATP_SCD_0694	3	10	ai	NULL	v	NULL	B_GVf	AUX	11	idtext0004	avoir	P#1##s##	spk3	10.78	10.8	0.01	_
20091112_RATP_SCD_0694	3	11	appelé	NULL	vppart	NULL	I_GVf	ROOT	0	idtext0004	appeler	K##m#s##	spk3	10.81	11.5	0.01	_
20091112_RATP_SCD_0694	3	12	déjà	NULL	adv	NULL	B_GADV	MOD	13	idtext0004	déjà	#####	spk3	11.51	11.81	0.01	_
20091112_RATP_SCD_0694	3	13	tout	NULL	adv	NULL	I_GADV	MOD	11	idtext0004	tout	##m#s##	spk3	11.82	12.01	0.01	_
20091112_RATP_SCD_0694	3	14	à	NULL	prep	NULL	B_GP	MOD	11	idtext0004	à	#####	spk3	12.02	12.04	0.01	_
20091112_RATP_SCD_0694	3	15	l'	NULL	det	NULL	I_GP	DET	16	idtext0004	le	###s##d	spk3	12.05	12.08	0.01	_
20091112_RATP_SCD_0694	3	16	heure	NULL	nc	NULL	I_GP	OBJ	14	idtext0004	heure	##f#s##	spk3	12.09	12.18	0.01	_
20091112_RATP_SCD_0694	3	17	mais	NULL	coo	NULL	B_NULL	COORD	3	idtext0004	mais	#####	spk3	12.19	12.38	0.01	_
20091112_RATP_SCD_0694	3	18	l()	DISF_T	tronc	NULL	NULL	NOLINK	0	idtext0004	l()	#####	spk3	12.39	12.54	0.01	_
20091112_RATP_SCD_0694	3	19	le	NULL	det	NULL	B_GN	DET	20	idtext0004	le	##m#s##d	spk3	12.55	12.76	0.01	_
20091112_RATP_SCD_0694	3	20	monsieur	NULL	nc	NULL	I_GN	SUJ	24	idtext0004	Monsieur	##m#s##	spk3	12.77	13.03	0.01	_
20091112_RATP_SCD_0694	3	21	n'	NULL	clneg	NULL	B_GVfn	MOD	22	idtext0004	n'	#####	spk3	13.04	13.12	0.01	_
20091112_RATP_SCD_0694	3	22	a	NULL	v	NULL	I_GVfn	AUX	24	idtext0004	avoir	P#3##s##	spk3	13.13	13.17	0.01	_
20091112_RATP_SCD_0694	3	23	pas	NULL	advneg	NULL	I_GVfn	MOD	22	idtext0004	pas	#####	spk3	13.18	13.28	0.01	_
20091112_RATP_SCD_0694	3	24	pu	NULL	vppart	NULL	I_GVfn	DEP_COORD	17	idtext0004	pouvoir	K#####	spk3	13.29	13.42	0.01	_
20091112_RATP_SCD_0694	3	25	les	NULL	clo	NULL	B_GN	OBJ	26	idtext0004	cla	#3##p##	spk3	13.43	13.62	0.01	_
20091112_RATP_SCD_0694	3	26	avoir	NULL	vinf	NULL	B_GVi	OBJ	24	idtext0004	avoir	W#####	spk3	13.63	14.03	0.01	_
20091112_RATP_SCD_0694	3	27	j'	NULL	cln	NULL	B_GN	SUJ	28	idtext0004	cln	#1##s##	spk3	14.04	14.13	0.01	_
20091112_RATP_SCD_0694	3	28	ai	NULL	v	NULL	B_GVf	ROOT	0	idtext0004	avoir	P#1##s##	spk3	14.14	14.21	0.01	_
20091112_RATP_SCD_0694	3	29	mon	NULL	det	NULL	B_GN	DET	30	idtext0004	mon	###s##o	spk3	14.22	14.37	0.01	_
20091112_RATP_SCD_0694	3	30	fils	NULL	nc	NULL	I_GN	OBJ	28	idtext0004	fil	##m#p##	spk3	14.38	14.58	0.01	_
20091112_RATP_SCD_0694	3	31	qui	NULL	prorel	NULL	B_NULL	SUJ	33	idtext0004	qui	#####	spk3	14.59	14.67	0.01	_
20091112_RATP_SCD_0694	3	32	a	NULL	v	NULL	B_GVf	AUX	33	idtext0004	avoir	P#3##s##	spk3	14.68	14.73	0.01	_
20091112_RATP_SCD_0694	3	33	pris	NULL	vppart	NULL	I_GVf	MOD_REL	30	idtext0004	prendre	K##m###	spk3	14.74	14.9	0.01	_
20091112_RATP_SCD_0694	3	34	le	NULL	det	NULL	B_GN	DET	35	idtext0004	le	##m#s##d	spk3	14.91	14.93	0.01	_
20091112_RATP_SCD_0694	3	35	deux+cent+soixante-deux	NULL	nc	B_T	I_GN	OBJ	33	idtext0004	deux+cent+soixante-deux	#####	spk3	14.94	16.04	0.01	_
20091112_RATP_SCD_0694	3	36	ce	NULL	det	NULL	B_GN	DET	37	idtext0004	ce	##m#s##e	spk3	16.05	16.1	0.01	_
20091112_RATP_SCD_0694	3	37	matin	NULL	nc	NULL	I_GN	MOD	33	idtext0004	matin	##m#s##	spk3	16.11	16.62	?	//

20091112_RATP_SCD_0694	4	1	il	NULL	cln	NULL	B_GN	SUJ	3	idtext0005	cln	#3#m#s##	spk3	17.91	18.24	0.01	_
20091112_RATP_SCD_0694	4	2	a	NULL	v	NULL	B_GVf	AUX	3	idtext0005	avoir	P#3##s##	spk3	18.25	18.35	0.01	_
20091112_RATP_SCD_0694	4	3	perdu	NULL	vppart	NULL	I_GVf	ROOT	0	idtext0005	perdre	K##m#s##	spk3	18.36	18.59	0.01	_
20091112_RATP_SCD_0694	4	4	sa	NULL	det	NULL	B_GN	DET	5	idtext0005	sa	##f#s##o	spk3	18.6	18.77	0.01	_
20091112_RATP_SCD_0694	4	5	carte	NULL	nc	NULL	I_GN	OBJ	3	idtext0005	carte	##f#s##	spk3	18.78	19.03	0.01	_
20091112_RATP_SCD_0694	4	6	euh	DISF_M	pres	NULL	NULL	NOLINK	0	idtext0005	euh	#####	spk3	19.04	19.06	0.01	_
20091112_RATP_SCD_0694	4	7	Imagine	DISF_R	np	NULL	NULL	NOLINK	0	idtext0005	Imagine	#####	spk3	19.07	20.19	0.01	_
20091112_RATP_SCD_0694	4	8	euh	DISF_M	pres	NULL	NULL	NOLINK	0	idtext0005	euh	#####	spk3	20.2	20.26	0.01	_
20091112_RATP_SCD_0694	4	9	Imagine+R	NULL	np	B_PRD	I_GN	MOD	5	idtext0005	Imagine+R	#####	spk3	20.27	21.22	?	//

20091112_RATP_SCD_0694	5	1	allo	NULL	adv	NULL	B_GADV	NOLINK	0	idtext0006	allo	#####	spk3	22.45	22.87	?	//

20091112_RATP_SCD_0694	6	1	oui	NULL	adv	NULL	B_GADV	NOLINK	0	idtext0007	oui	#####	spk1	22.91	23.06	0.01	_
20091112_RATP_SCD_0694	6	2	je	NULL	cln	NULL	B_GN	NOLINK	0	idtext0007	cln	#1##s##	spk1	23.07	23.15	0.01	_
20091112_RATP_SCD_0694	6	3	vous	NULL	clo	NULL	B_GN	NOLINK	0	idtext0007	cln	#2##p##	spk1	23.16	23.26	?	_

20091112_RATP_SCD_0694	7	1	écoute	NULL	v	NULL	B_GVf	NOLINK	0	idtext0008	écouter	PS#13##s##	spk1	23.33	23.59	0.01	_
20091112_RATP_SCD_0694	7	2	votre	NULL	det	NULL	B_NULL	NOLINK	0	idtext0008	votre	###s##o	spk1	23.6	23.96	?	_

20091112_RATP_SCD_0694	8	1	hm	DISF_M	pres	NULL	NULL	NOLINK	0	idtext0009	hm	#####	spk3	23.47	23.96	?	//

20091112_RATP_SCD_0694	9	1	fils	NULL	nc	NULL	B_GN	SUJ	3	idtext0010	fil	##m#p##	spk1	24.02	24.21	0.01	_
20091112_RATP_SCD_0694	9	2	a	NULL	v	NULL	B_GVf	AUX	3	idtext0010	avoir	P#3##s##	spk1	24.22	24.28	0.01	_
20091112_RATP_SCD_0694	9	3	perdu	NULL	vppart	NULL	I_GVf	ROOT	0	idtext0010	perdre	K##m#s##	spk1	24.29	24.51	0.01	_
20091112_RATP_SCD_0694	9	4	sa	NULL	det	NULL	B_GN	DET	5	idtext0010	sa	##f#s##o	spk1	24.52	24.64	0.01	_
20091112_RATP_SCD_0694	9	5	carte	NULL	nc	B_PRD	I_GN	OBJ	3	idtext0010	carte	##f#s##	spk1	24.65	24.91	0.01	_
20091112_RATP_SCD_0694	9	6	Imagine+R	NULL	np	I_PRD	I_GN	MOD	5	idtext0010	Imagine+R	#####	spk1	24.92	25.4	0.01	_
20091112_RATP_SCD_0694	9	7	dans	NULL	prep	NULL	B_GP	MOD	3	idtext0010	dans	#####	spk1	25.41	25.52	0.01	_
20091112_RATP_SCD_0694	9	8	le	NULL	det	NULL	I_GP	DET	9	idtext0010	le	##m#s##d	spk1	25.53	25.64	0.01	_
20091112_RATP_SCD_0694	9	9	bus	NULL	nc	NULL	I_GP	OBJ	7	idtext0010	bus	##m###	spk1	25.65	25.92	0.01	_
20091112_RATP_SCD_0694	9	10	numéro	NULL	nc	NULL	I_GP	MOD	9	idtext0010	numéro	##m#s##	spk1	25.93	26.44	?	//

20091112_RATP_SCD_0694	10	1	deux+cent+soixante-deux	NULL	nc	B_T	B_GN	NOLINK	0	idtext0011	deux+cent+soixante-deux	#####	spk3	26.9	27.85	?	_

20091112_RATP_SCD_0694	11	1	deux+cent+soixante-deux	NULL	nc	B_T	B_GN	NOLINK	0	idtext0012	deux+cent+soixante-deux	#####	spk1	27.92	28.8	?	_

20091112_RATP_SCD_0694	12	1	d'accord	NULL	adv	NULL	B_GADV	NOLINK	0	idtext0013	d'accord	#####	spk1	28.84	29.24	?	//

20091112_RATP_SCD_0694	13	1	donc	NULL	coo	NULL	B_NULL	ROOT	0	idtext0014	donc	#####	spk3	28.84	28.98	0.01	_
20091112_RATP_SCD_0694	13	2	c'	NULL	cln	NULL	B_GN	SUJ_IMP	3	idtext0014	ce	###s##	spk3	28.99	29.01	0.01	_
20091112_RATP_SCD_0694	13	3	était	NULL	v	NULL	B_GVf	DEP_COORD	1	idtext0014	être	I#3##s##	spk3	29.02	29.24	?	//

20091112_RATP_SCD_0694	14	1	pour	NULL	prep	NULL	B_GP	ROOT	0	idtext0015	pour	#####	spk3	29.28	29.36	0.01	_
20091112_RATP_SCD_0694	14	2	savoir	NULL	vinf	NULL	I_GP	OBJ	1	idtext0015	savoir	W#####	spk3	29.37	29.82	0.01	_
20091112_RATP_SCD_0694	14	3	ce	NULL	pro	NULL	B_GN	OBJ	2	idtext0015	ce	#####	spk3	29.83	30.25	0.01	_
20091112_RATP_SCD_0694	14	4	vous	NULL	cln	NULL	B_GN	SUJ	5	idtext0015	cln	#2##p##	spk3	30.26	30.33	0.01	_
20091112_RATP_SCD_0694	14	5	avez	NULL	v	NULL	B_GVf	ROOT	0	idtext0015	avoir	P#2##p##	spk3	30.34	30.47	0.01	_
20091112_RATP_SCD_0694	14	6	quelque+chose	NULL	pro	NULL	B_GN	OBJ	5	idtext0015	quelque+chose	#####	spk3	30.48	30.99	0.01	_
20091112_RATP_SCD_0694	14	7	ou	NULL	coo	NULL	B_NULL	COORD	6	idtext0015	ou	#####	spk3	31.0	31.03	0.01	_
20091112_RATP_SCD_0694	14	8	pas	NULL	advneg	NULL	B_NULL	DEP_COORD	7	idtext0015	pas	#####	spk3	31.04	31.42	?	_

20091112_RATP_SCD_0694	15	1	oui	NULL	adv	NULL	B_GADV	NOLINK	0	idtext0016	oui	#####	spk1	31.62	31.76	?	//

20091112_RATP_SCD_0694	16	1	et	NULL	coo	NULL	B_NULL	NOLINK	0	idtext0017	et	#####	spk1	31.93	32.23	?	_

20091112_RATP_SCD_0694	17	1	parce+que	NULL	csu	NULL	B_NULL	NOLINK	0	idtext0018	parce+que	#####	spk3	31.8	32.23	?	_

20091112_RATP_SCD_0694	18	1	après	NULL	prep	NULL	B_NULL	NOLINK	0	idtext0019	après	#####	spk3	32.27	32.53	0.01	_
20091112_RATP_SCD_0694	18	2	la	NULL	det	NULL	B_NULL	NOLINK	0	idtext0019	le	##m#s##d	spk3	32.54	32.76	?	_

20091112_RATP_SCD_0694	19	1	il	NULL	cln	NULL	B_GN	SUJ	3	idtext0020	cln	#3#m#s##	spk3	33.21	33.26	0.01	_
20091112_RATP_SCD_0694	19	2	a	NULL	v	NULL	B_GVf	AUX	3	idtext0020	avoir	P#3##s##	spk3	33.27	33.32	0.01	_
20091112_RATP_SCD_0694	19	3	descendu	NULL	vppart	NULL	I_GVf	ROOT	0	idtext0020	descendre	K##m#s##	spk3	33.33	33.73	0.01	_
20091112_RATP_SCD_0694	19	4	pour	NULL	prep	NULL	B_GP	MOD	3	idtext0020	pour	#####	spk3	33.74	33.86	0.01	_
20091112_RATP_SCD_0694	19	5	prendre	NULL	vinf	NULL	I_GP	OBJ	4	idtext0020	prendre	W#####	spk3	33.87	34.13	0.01	_
20091112_RATP_SCD_0694	19	6	le	NULL	det	NULL	B_GN	DET	7	idtext0020	le	##m#s##d	spk3	34.14	34.26	0.01	_
20091112_RATP_SCD_0694	19	7	deux	NULL	nc	B_T	I_GN	OBJ	5	idtext0020	deux	##m###	spk3	34.27	34.38	0.01	_
20091112_RATP_SCD_0694	19	8	il	NULL	cln	NULL	B_GN	SUJ	10	idtext0020	cln	#3#m#s##	spk3	34.39	34.56	0.01	_
20091112_RATP_SCD_0694	19	9	l'	NULL	clo	NULL	B_GN	OBJ	10	idtext0020	cla	#3##s##	spk3	34.57	34.6	0.01	_
20091112_RATP_SCD_0694	19	10	avait	NULL	v	NULL	B_GVfn	ROOT	0	idtext0020	avoir	I#3##s##	spk3	34.61	34.84	0.01	_
20091112_RATP_SCD_0694	19	11	plus	NULL	advneg	NULL	I_GVfn	MOD	10	idtext0020	plus	#####	spk3	34.85	35.06	0.01	_
20091112_RATP_SCD_0694	19	12	donc	NULL	coo	NULL	B_NULL	COORD	10	idtext0020	donc	#####	spk3	35.07	35.29	0.01	_
20091112_RATP_SCD_0694	19	13	il	NULL	cln	NULL	B_GN	SUJ_IMP	14	idtext0020	cln	#3#m#s##	spk3	35.3	35.49	0.01	_
20091112_RATP_SCD_0694	19	14	pense	NULL	v	NULL	B_GVf	DEP_COORD	12	idtext0020	penser	PS#13##s##	spk3	35.5	35.77	0.01	_
20091112_RATP_SCD_0694	19	15	que	NULL	csu	NULL	B_NULL	OBJ	14	idtext0020	que	#####	spk3	35.78	35.83	0.01	_
20091112_RATP_SCD_0694	19	16	c'	NULL	cln	NULL	B_GN	SUJ_IMP	17	idtext0020	ce	###s##	spk3	35.84	35.9	0.01	_
20091112_RATP_SCD_0694	19	17	est	NULL	v	NULL	B_GVf	OBJ	15	idtext0020	être	P#3##s##	spk3	35.91	35.98	0.01	_
20091112_RATP_SCD_0694	19	18	dans	NULL	prep	NULL	B_GP	P_OBJ_LOC	17	idtext0020	dans	#####	spk3	35.99	36.23	0.01	_
20091112_RATP_SCD_0694	19	19	le	NULL	det	NULL	I_GP	DET	21	idtext0020	le	##m#s##d	spk3	36.24	36.33	0.01	_
20091112_RATP_SCD_0694	19	20	deux	DISF_R	nc	NULL	NULL	NOLINK	0	idtext0020	deux	##m###	spk3	36.34	36.4	0.01	_
20091112_RATP_SCD_0694	19	21	deux+cent+soixante-deux	NULL	nc	B_T	I_GP	OBJ	18	idtext0020	deux+cent+soixante-deux	#####	spk3	36.41	37.37	?	//

20091112_RATP_SCD_0694	20	1	hum	DISF_M	pres	NULL	NULL	NOLINK	0	idtext0021	hum	#####	spk1	37.63	37.76	0.01	_
20091112_RATP_SCD_0694	20	2	d'accord	NULL	adv	NULL	B_GADV	NOLINK	0	idtext0021	d'accord	#####	spk1	37.77	38.28	0.01	_
20091112_RATP_SCD_0694	20	3	cette	NULL	det	NULL	B_GN	DET	4	idtext0021	cet	##f#s##e	spk1	38.29	38.54	0.01	_
20091112_RATP_SCD_0694	20	4	carte	NULL	nc	B_PRD	I_GN	SUJ	6	idtext0021	carte	##f#s##	spk1	38.55	38.75	0.01	_
20091112_RATP_SCD_0694	20	5	Imagine+R	NULL	np	I_PRD	I_GN	MOD	4	idtext0021	Imagine+R	#####	spk1	38.76	39.21	0.01	_
20091112_RATP_SCD_0694	20	6	est	NULL	v	NULL	B_GVf	ROOT	0	idtext0021	être	P#3##s##	spk1	39.22	39.32	0.01	_
20091112_RATP_SCD_0694	20	7	à	NULL	prep	NULL	B_GP	ATS	6	idtext0021	à	#####	spk1	39.33	39.38	0.01	_
20091112_RATP_SCD_0694	20	8	quel	NULL	det	NULL	I_GP	DET	9	idtext0021	quel	##m#s##	spk1	39.39	39.6	0.01	_
20091112_RATP_SCD_0694	20	9	nom	NULL	nc	NULL	I_GP	OBJ	7	idtext0021	nom	##m#s##	spk1	39.61	40.0	?	//

20091112_RATP_SCD_0694	21	1	euh	DISF_M	pres	NULL	NULL	NOLINK	0	idtext0022	euh	#####	spk3	40.18	40.35	0.33	_
20091112_RATP_SCD_0694	21	2	NNAAMMEE	NULL	np	B_HU	B_GN	ROOT	0	idtext0023	ANONYM	NULL	spk3	40.68	40.87	0.32	_
20091112_RATP_SCD_0694	21	3	NNAAMMEE	NULL	np	B_HU	B_GN	ROOT	0	idtext0024	ANONYM	NULL	spk3	41.19	41.38	?	//

20091112_RATP_SCD_0694	22	1	alors	NULL	adv	NULL	B_GADV	NOLINK	0	idtext0025	alors	#####	spk1	41.89	42.22	0.30	_
20091112_RATP_SCD_0694	22	2	NNAAMMEE	NULL	np	B_HU	B_GN	ROOT	0	idtext0026	ANONYM	NULL	spk1	42.52	42.76	0.06	_
20091112_RATP_SCD_0694	22	3	NNAAMMEE	NULL	np	B_HU	B_GN	ROOT	0	idtext0027	ANONYM	NULL	spk1	42.82	43.27	?	//

20091112_RATP_SCD_0694	23	1	d'accord	NULL	adv	NULL	B_GADV	NOLINK	0	idtext0028	d'accord	#####	spk1	43.31	43.62	0.01	_
20091112_RATP_SCD_0694	23	2	donc	NULL	coo	NULL	B_NULL	NOLINK	0	idtext0028	donc	#####	spk1	43.63	43.73	?	_

20091112_RATP_SCD_0694	24	1	hm	DISF_M	pres	NULL	NULL	NOLINK	0	idtext0029	hm	#####	spk3	43.65	43.73	?	//

20091112_RATP_SCD_0694	25	1	je	NULL	cln	NULL	B_GN	SUJ	2	idtext0030	cln	#1##s##	spk1	43.78	43.83	0.01	_
20091112_RATP_SCD_0694	25	2	vais	NULL	v	NULL	B_GVf	ROOT	0	idtext0030	aller	P#1##s##	spk1	43.84	43.94	0.01	_
20091112_RATP_SCD_0694	25	3	me	NULL	clr	NULL	B_GVi	AFF	4	idtext0030	cla	#1##s##	spk1	43.95	43.99	0.01	_
20091112_RATP_SCD_0694	25	4	renseigner	NULL	vinf	NULL	I_GVi	OBJ	2	idtext0030	renseigner	W#####	spk1	44.0	44.78	0.01	_
20091112_RATP_SCD_0694	25	5	si	NULL	csu	NULL	B_NULL	OBJ	4	idtext0030	si	#####	spk1	44.79	44.86	0.01	_
20091112_RATP_SCD_0694	25	6	dans	NULL	prep	NULL	B_GP	MOD	18	idtext0030	dans	#####	spk1	44.87	44.99	0.01	_
20091112_RATP_SCD_0694	25	7	le	NULL	det	NULL	I_GP	DET	8	idtext0030	le	##m#s##d	spk1	45.0	45.08	0.01	_
20091112_RATP_SCD_0694	25	8	bus	NULL	nc	B_T	I_GP	OBJ	6	idtext0030	bus	##m###	spk1	45.09	45.25	0.01	_
20091112_RATP_SCD_0694	25	9	deux	NULL	adj	I_T	I_GP	MOD	8	idtext0030	deux	#####	spk1	45.26	45.39	0.01	_
20091112_RATP_SCD_0694	25	10	cent	NULL	adj	I_T	I_GP	MOD	9	idtext0030	cent	#####	spk1	45.4	45.57	0.01	_
20091112_RATP_SCD_0694	25	11	soixante	NULL	adj	I_T	I_GP	MOD	10	idtext0030	soixante	#####	spk1	45.58	46.02	0.01	_
20091112_RATP_SCD_0694	25	12	deux	NULL	adj	I_T	I_GP	MOD	11	idtext0030	deux	#####	spk1	46.03	46.59	0.01	/
20091112_RATP_SCD_0694	25	13	une	NULL	det	NULL	B_GN	DET	14	idtext0031	un	##f#s##i	spk1	46.6	46.73	0.01	_
20091112_RATP_SCD_0694	25	14	carte	NULL	nc	B_PRD	I_GN	SUJ	18	idtext0031	carte	##f#s##	spk1	46.74	46.9	0.01	_
20091112_RATP_SCD_0694	25	15	Imagine+R	NULL	np	I_PRD	I_GN	MOD	14	idtext0031	Imagine+R	#####	spk1	46.91	47.51	0.01	_
20091112_RATP_SCD_0694	25	16	a	NULL	v	NULL	B_GVf	AUX	17	idtext0031	avoir	P#3##s##	spk1	47.52	47.55	0.01	_
20091112_RATP_SCD_0694	25	17	été	NULL	vppart	NULL	I_GVf	AUX	18	idtext0031	être	K#####	spk1	47.56	47.74	0.01	_
20091112_RATP_SCD_0694	25	18	retrouvée	NULL	vppart	NULL	I_GVf	OBJ	5	idtext0031	retrouver	K##f#s##	spk1	47.75	48.09	0.01	_
20091112_RATP_SCD_0694	25	19	madame	NULL	nc	NULL	B_GN	NOLINK	0	idtext0031	Monsieur	##f#s##	spk1	48.1	48.34	0.01	_
20091112_RATP_SCD_0694	25	20	un	NULL	det	NULL	B_GN	DET	21	idtext0031	un	##m#s##i	spk1	48.35	48.46	0.01	_
20091112_RATP_SCD_0694	25	21	instant	NULL	nc	NULL	I_GN	ROOT	0	idtext0031	instant	##m#s##	spk1	48.47	48.81	?	//

20091112_RATP_SCD_0694	26	1	s'il+vous+plaît	NULL	adv	NULL	B_GADV	NOLINK	0	idtext0032	s'il+vous+plaît	#####	spk1	48.85	49.45	?	//

20091112_RATP_SCD_0694	27	1	d'accord	NULL	adv	NULL	B_GADV	NOLINK	0	idtext0033	d'accord	#####	spk3	48.85	49.45	?	//

20091112_RATP_SCD_0694	28	1	merci	NULL	adv	NULL	B_GADV	NOLINK	0	idtext0034	merci	#####	spk3	49.49	49.87	?	//

20091112_RATP_SCD_0694	29	1	attends	NULL	v	NULL	B_GVf	NOLINK	0	idtext0035	attendre	P#12##s##	spk4	77.74	77.98	0.01	_
20091112_RATP_SCD_0694	29	2	bouge	NULL	v	NULL	B_GVfn	ROOT	0	idtext0035	bouger	PS#13##s##	spk4	77.99	78.74	0.01	//
20091112_RATP_SCD_0694	29	3	pas	NULL	advneg	NULL	I_GVfn	MOD	2	idtext0035	pas	#####	spk4	78.75	78.86	0.30	_
20091112_RATP_SCD_0694	29	4	NNAAMMEE	NULL	np	B_HU	B_GN	ROOT	0	idtext0036	ANONYM	NULL	spk4	79.16	79.35	0.04	_
20091112_RATP_SCD_0694	29	5	La+Défense	NULL	nc	B_A	B_GN	ROOT	0	idtext0037	La+Défense	#####	spk4	79.39	79.75	0.01	_
20091112_RATP_SCD_0694	29	6	bonjour	NULL	adv	NULL	B_GADV	MOD	5	idtext0038	bonjour	#####	spk4	79.76	80.32	?	//

20091112_RATP_SCD_0694	30	1	oui	NULL	adv	NULL	B_GADV	MOD	2	idtext0039	oui	#####	spk1	80.39	80.64	0.01	//
20091112_RATP_SCD_0694	30	2	bonjour	NULL	adv	NULL	I_GADV	ROOT	0	idtext0039	bonjour	#####	spk1	80.65	80.96	0.31	_
20091112_RATP_SCD_0694	30	3	NNAAMMEE	NULL	np	B_HU	B_GN	ROOT	0	idtext0040	ANONYM	NULL	spk1	81.27	81.46	0.05	_
20091112_RATP_SCD_0694	30	4	c'	NULL	cln	NULL	B_GN	SUJ_IMP	5	idtext0041	ce	###s##	spk1	81.51	81.53	0.01	_
20091112_RATP_SCD_0694	30	5	est	NULL	v	NULL	B_GVf	ROOT	0	idtext0041	être	P#3##s##	spk1	81.54	81.59	0.29	_
20091112_RATP_SCD_0694	30	6	NNAAMMEE	NULL	np	B_HU	B_GN	ROOT	0	idtext0042	ANONYM	NULL	spk1	81.88	82.07	0.04	_
20091112_RATP_SCD_0694	30	7	au	NULL	prep	NULL	B_GP	ROOT	0	idtext0043	au	#####	spk1	82.11	82.22	0.01	_
20091112_RATP_SCD_0694	30	8	Service+Clients+à+Distance	NULL	np	B_ORG	I_GP	OBJ	7	idtext0043	Service+Clients+à+Distance	#####	spk1	82.23	83.47	?	//

20091112_RATP_SCD_0694	31	1	je	NULL	cln	NULL	B_GN	SUJ	3	idtext0044	cln	#1##s##	spk1	83.99	84.34	0.01	_
20091112_RATP_SCD_0694	31	2	t'	NULL	clo	NULL	B_GN	OBJ	3	idtext0044	cln	#2##s##	spk1	84.35	84.39	0.01	_
20091112_RATP_SCD_0694	31	3	appelle	NULL	v	NULL	B_GVf	ROOT	0	idtext0044	appeler	PS#13##s##	spk1	84.4	84.62	?	//

20091112_RATP_SCD_0694	32	1	oui	NULL	adv	NULL	B_GADV	NOLINK	0	idtext0045	oui	#####	spk4	84.4	84.62	?	//

20091112_RATP_SCD_0694	33	1	pour	NULL	prep	NULL	B_GP	ROOT	0	idtext0046	pour	#####	spk1	84.66	84.74	0.01	_
20091112_RATP_SCD_0694	33	2	savoir	NULL	vinf	NULL	I_GP	OBJ	1	idtext0046	savoir	W#####	spk1	84.75	85.02	0.01	_
20091112_RATP_SCD_0694	33	3	si	NULL	csu	NULL	B_NULL	OBJ	2	idtext0046	si	#####	spk1	85.03	85.1	0.01	_
20091112_RATP_SCD_0694	33	4	vous	NULL	cln	NULL	B_GN	SUJ	6	idtext0046	cln	#2##p##	spk1	85.11	85.25	0.01	_
20091112_RATP_SCD_0694	33	5	auriez	NULL	v	NULL	B_GVf	AUX	6	idtext0046	avoir	C#2##p##	spk1	85.26	85.45	0.01	_
20091112_RATP_SCD_0694	33	6	eu	NULL	vppart	NULL	I_GVf	OBJ	3	idtext0046	avoir	K##m#s##	spk1	85.46	85.8	0.01	_
20091112_RATP_SCD_0694	33	7	le	NULL	det	NULL	B_GN	DET	8	idtext0046	le	##m#s##d	spk1	85.81	86.04	0.01	_
20091112_RATP_SCD_0694	33	8	signalement	NULL	nc	NULL	I_GN	OBJ	6	idtext0046	signalement	##m#s##	spk1	86.05	86.69	0.01	_
20091112_RATP_SCD_0694	33	9	d'	NULL	prep	NULL	B_GP	DEP	8	idtext0046	d'	#####	spk1	86.7	86.78	0.01	_
20091112_RATP_SCD_0694	33	10	un	NULL	det	NULL	I_GP	DET	11	idtext0046	un	##m#s##i	spk1	86.79	86.91	0.01	_
20091112_RATP_SCD_0694	33	11	passe	NULL	nc	B_PRD	I_GP	OBJ	9	idtext0046	passe	###s##	spk1	86.92	87.15	0.01	_
20091112_RATP_SCD_0694	33	12	Imagine+R	NULL	np	I_PRD	I_GP	MOD	11	idtext0046	Imagine+R	#####	spk1	87.16	87.71	0.01	_
20091112_RATP_SCD_0694	33	13	ce	NULL	det	NULL	B_GN	DET	14	idtext0046	ce	##m#s##e	spk1	87.72	87.8	0.01	_
20091112_RATP_SCD_0694	33	14	matin	NULL	nc	NULL	I_GN	MOD	6	idtext0046	matin	##m#s##	spk1	87.81	88.37	0.01	_
20091112_RATP_SCD_0694	33	15	sur	NULL	prep	NULL	B_GP	MOD	14	idtext0046	sur	#####	spk1	88.38	88.62	0.01	_
20091112_RATP_SCD_0694	33	16	le	NULL	det	NULL	I_GP	DET	17	idtext0046	le	##m#s##d	spk1	88.63	88.79	0.01	_
20091112_RATP_SCD_0694	33	17	bus	NULL	nc	B_T	I_GP	OBJ	15	idtext0046	bus	##m###	spk1	88.8	89.06	0.01	_
20091112_RATP_SCD_0694	33	18	deux	NULL	adj	I_T	I_GP	MOD	17	idtext0046	deux	#####	spk1	89.07	89.33	0.01	//
20091112_RATP_SCD_0694	33	19	cent	NULL	adj	I_T	I_GP	MOD	18	idtext0046	cent	#####	spk1	89.34	89.54	0.01	_
20091112_RATP_SCD_0694	33	20	soixante	NULL	adj	I_T	I_GP	MOD	19	idtext0046	soixante	#####	spk1	89.55	90.32	0.01	_
20091112_RATP_SCD_0694	33	21	deux	NULL	adj	I_T	I_GP	MOD	20	idtext0046	deux	#####	spk1	90.33	90.49	?	//

20091112_RATP_SCD_0694	34	1	je	NULL	cln	NULL	B_GN	SUJ	2	idtext0047	cln	#1##s##	spk4	91.24	91.36	0.01	_
20091112_RATP_SCD_0694	34	2	regarde	NULL	v	NULL	B_GVf	ROOT	0	idtext0047	regarder	PS#13##s##	spk4	91.37	91.79	0.01	_
20091112_RATP_SCD_0694	34	3	ça	NULL	pro	NULL	B_GN	OBJ	2	idtext0047	ça	#####	spk4	91.8	92.12	?	_

20091112_RATP_SCD_0694	35	1	merci	NULL	adv	NULL	B_GADV	NOLINK	0	idtext0048	merci	#####	spk1	92.16	92.71	?	//

20091112_RATP_SCD_0694	36	1	et	NULL	coo	NULL	B_NULL	ROOT	0	idtext0049	et	#####	spk4	110.11	110.21	0.01	_
20091112_RATP_SCD_0694	36	2	bien	NULL	adv	NULL	B_GADV	MOD	3	idtext0049	bien	#####	spk4	110.22	110.44	0.01	_
20091112_RATP_SCD_0694	36	3	non	NULL	adv	NULL	I_GADV	MOD	4	idtext0049	non	#####	spk4	110.45	110.71	0.01	_
20091112_RATP_SCD_0694	36	4	désolé	NULL	vppart	NULL	B_GVf	DEP_COORD	1	idtext0049	désoler	K##m#s##	spk4	110.72	111.37	?	//

20091112_RATP_SCD_0694	37	1	rien	NULL	pro	NULL	B_GN	NOLINK	0	idtext0050	rien	#####	spk1	111.45	111.68	0.01	_
20091112_RATP_SCD_0694	37	2	du+tout	NULL	adv	NULL	B_GADV	NOLINK	0	idtext0050	du+tout	#####	spk1	111.69	112.14	?	/

20091112_RATP_SCD_0694	38	1	d'accord	NULL	adv	NULL	B_GADV	MOD	2	idtext0051	d'accord	#####	spk1	112.33	112.87	0.01	_
20091112_RATP_SCD_0694	38	2	très+bien	NULL	adv	NULL	I_GADV	ROOT	0	idtext0051	très+bien	#####	spk1	112.88	113.55	?	_

20091112_RATP_SCD_0694	39	1	rien	NULL	pro	NULL	B_GN	NOLINK	0	idtext0052	rien	#####	spk4	112.34	113.04	0.01	_
20091112_RATP_SCD_0694	39	2	du+tout	NULL	adv	NULL	B_GADV	NOLINK	0	idtext0052	du+tout	#####	spk4	113.05	113.55	?	/

20091112_RATP_SCD_0694	40	1	je	NULL	cln	NULL	B_GN	SUJ	3	idtext0053	cln	#1##s##	spk1	113.6	113.62	0.01	_
20091112_RATP_SCD_0694	40	2	te	NULL	clo	NULL	B_GN	OBJ	3	idtext0053	cla	#2##s##	spk1	113.63	113.65	0.01	_
20091112_RATP_SCD_0694	40	3	remercie	NULL	v	NULL	B_GVf	ROOT	0	idtext0053	remercier	PS#13##s##	spk1	113.66	114.31	?	//

20091112_RATP_SCD_0694	41	1	bon	NULL	adj	NULL	B_GN	MOD	2	idtext0054	bon	##m#s##	spk1	114.35	114.44	0.01	_
20091112_RATP_SCD_0694	41	2	courage	NULL	nc	NULL	I_GN	ROOT	0	idtext0054	courage	##m#s##	spk1	114.45	114.82	0.01	_
20091112_RATP_SCD_0694	41	3	au+revoir	NULL	adv	NULL	B_GADV	NOLINK	0	idtext0054	au+revoir	#####	spk1	114.83	115.68	?	//

20091112_RATP_SCD_0694	42	1	merci	NULL	adv	NULL	B_GN	NOLINK	0	idtext0055	merci	#####	spk4	114.38	114.78	0.01	_
20091112_RATP_SCD_0694	42	2	bonne	NULL	adj	NULL	I_GN	MOD	3	idtext0055	bon	##f#s##	spk4	114.79	114.95	0.01	_
20091112_RATP_SCD_0694	42	3	journée	NULL	nc	NULL	I_GN	ROOT	0	idtext0055	journée	##f#s##	spk4	114.96	115.68	?	//

20091112_RATP_SCD_0694	43	1	au+revoir	NULL	adv	NULL	B_GADV	NOLINK	0	idtext0056	au+revoir	#####	spk4	115.74	116.19	?	//

20091112_RATP_SCD_0694	44	1	madame	NULL	nc	NULL	B_GN	NOLINK	0	idtext0057	Monsieur	##f#s##	spk1	116.95	117.38	0.01	_
20091112_RATP_SCD_0694	44	2	s'il+vous+plaît	NULL	adv	NULL	B_GADV	NOLINK	0	idtext0057	s'il+vous+plaît	#####	spk1	117.39	118.18	?	//

20091112_RATP_SCD_0694	45	1	oui	DISF_R	adv	NULL	NULL	NOLINK	0	idtext0058	oui	#####	spk3	118.25	118.56	0.01	_
20091112_RATP_SCD_0694	45	2	oui	NULL	adv	NULL	B_GADV	NOLINK	0	idtext0058	oui	#####	spk3	118.57	118.72	?	_

20091112_RATP_SCD_0694	46	1	donc	NULL	coo	NULL	B_NULL	ROOT	0	idtext0059	donc	#####	spk1	118.77	118.97	0.01	_
20091112_RATP_SCD_0694	46	2	là	NULL	adv	NULL	B_GADV	MOD	4	idtext0059	là	#####	spk1	118.98	119.07	0.01	_
20091112_RATP_SCD_0694	46	3	je	NULL	cln	NULL	B_GN	SUJ	4	idtext0059	cln	#1##s##	spk1	119.08	119.12	0.01	_
20091112_RATP_SCD_0694	46	4	viens	NULL	v	NULL	B_GVf	DEP_COORD	1	idtext0059	venir	P#12##s##	spk1	119.13	119.26	0.01	_
20091112_RATP_SCD_0694	46	5	de	NULL	prep	NULL	B_GP	OBJ	4	idtext0059	de	#####	spk1	119.27	119.29	0.01	_
20091112_RATP_SCD_0694	46	6	voir	NULL	vinf	NULL	I_GP	OBJ	5	idtext0059	voir	W#####	spk1	119.3	119.51	0.01	_
20091112_RATP_SCD_0694	46	7	avec	NULL	prep	NULL	B_GP	P_OBJ	6	idtext0059	avec	#####	spk1	119.52	119.7	0.01	_
20091112_RATP_SCD_0694	46	8	le	NULL	det	NULL	I_GP	DET	9	idtext0059	le	##m#s##d	spk1	119.71	119.78	0.01	_
20091112_RATP_SCD_0694	46	9	régulateur	NULL	nc	NULL	I_GP	OBJ	7	idtext0059	régulateur	##m#s##	spk1	119.79	120.33	0.01	_
20091112_RATP_SCD_0694	46	10	de	NULL	prep	NULL	B_GP	DEP	9	idtext0059	de	#####	spk1	120.34	120.45	0.01	_
20091112_RATP_SCD_0694	46	11	la	NULL	det	NULL	I_GP	DET	12	idtext0059	le	##m#s##d	spk1	120.46	120.57	0.01	_
20091112_RATP_SCD_0694	46	12	ligne	NULL	nc	NULL	I_GP	OBJ	10	idtext0059	ligne	##f#s##	spk1	120.58	120.94	0.01	_
20091112_RATP_SCD_0694	46	13	non	NULL	adv	NULL	B_GADV	NOLINK	0	idtext0059	non	#####	spk1	120.95	121.25	0.01	_
20091112_RATP_SCD_0694	46	14	il	NULL	cln	NULL	B_GN	SUJ	18	idtext0059	cln	#3#m#s##	spk1	121.26	121.35	0.01	_
20091112_RATP_SCD_0694	46	15	n'	NULL	clneg	NULL	B_GVfn	MOD	16	idtext0059	n'	#####	spk1	121.36	121.41	0.01	_
20091112_RATP_SCD_0694	46	16	a	NULL	v	NULL	I_GVfn	AUX	18	idtext0059	avoir	P#3##s##	spk1	121.42	121.47	0.01	_
20091112_RATP_SCD_0694	46	17	pas	NULL	advneg	NULL	I_GVfn	MOD	16	idtext0059	pas	#####	spk1	121.48	121.63	0.01	_
20091112_RATP_SCD_0694	46	18	eu	NULL	vppart	NULL	I_GVfn	ROOT	0	idtext0059	avoir	K##m#s##	spk1	121.64	121.8	0.01	_
20091112_RATP_SCD_0694	46	19	le	NULL	det	NULL	B_GN	DET	20	idtext0059	le	##m#s##d	spk1	121.81	121.88	0.01	_
20091112_RATP_SCD_0694	46	20	signalement	NULL	nc	NULL	I_GN	OBJ	18	idtext0059	signalement	##m#s##	spk1	121.89	122.39	0.01	_
20091112_RATP_SCD_0694	46	21	d'	NULL	prep	NULL	B_GP	DEP	20	idtext0059	d'	#####	spk1	122.4	122.45	0.01	_
20091112_RATP_SCD_0694	46	22	un	NULL	det	NULL	I_GP	DET	23	idtext0059	un	##m#s##i	spk1	122.46	122.57	0.01	_
20091112_RATP_SCD_0694	46	23	passe	NULL	nc	B_PRD	I_GP	OBJ	21	idtext0059	passe	###s##	spk1	122.58	122.83	0.01	_
20091112_RATP_SCD_0694	46	24	Imagine+R	NULL	np	I_PRD	I_GP	MOD	23	idtext0059	Imagine+R	#####	spk1	122.84	123.42	0.01	_
20091112_RATP_SCD_0694	46	25	aujourd'hui	NULL	adv	NULL	B_GADV	NOLINK	0	idtext0059	aujourd'hui	#####	spk1	123.43	124.22	?	//

20091112_RATP_SCD_0694	47	1	ah	DISF_M	pres	NULL	NULL	NOLINK	0	idtext0060	ah	#####	spk3	124.32	124.53	0.01	_
20091112_RATP_SCD_0694	47	2	OK	NULL	adv	NULL	B_GADV	NOLINK	0	idtext0060	ok	#####	spk3	124.54	124.79	0.01	_
20091112_RATP_SCD_0694	47	3	ben	DISF_M	pres	NULL	NULL	NOLINK	0	idtext0060	ben	#####	spk3	124.8	124.91	0.01	_
20091112_RATP_SCD_0694	47	4	je	NULL	cln	NULL	B_GN	SUJ	5	idtext0060	cln	#1##s##	spk3	124.92	125.16	0.01	_
20091112_RATP_SCD_0694	47	5	sais	NULL	v	NULL	B_GVfn	ROOT	0	idtext0060	savoir	P#12##s##	spk3	125.17	125.22	0.01	_
20091112_RATP_SCD_0694	47	6	pas	NULL	advneg	NULL	I_GVfn	MOD	5	idtext0060	pas	#####	spk3	125.23	125.34	0.01	_
20091112_RATP_SCD_0694	47	7	il	DISF_R	cln	NULL	NULL	NOLINK	0	idtext0060	cln	#3#m#s##	spk3	125.35	125.43	0.01	_
20091112_RATP_SCD_0694	47	8	faut	DISF_R	v	NULL	NULL	NOLINK	0	idtext0060	falloir	P#3##s##	spk3	125.44	125.71	0.01	/
20091112_RATP_SCD_0694	47	9	c'	NULL	cln	NULL	B_GN	SUJ_IMP	10	idtext0060	ce	###s##	spk3	125.72	125.77	0.01	_
20091112_RATP_SCD_0694	47	10	est	NULL	v	NULL	B_GVf	ROOT	0	idtext0060	être	P#3##s##	spk3	125.78	125.82	0.01	_
20091112_RATP_SCD_0694	47	11	en	NULL	prep	NULL	B_GP	ATS	10	idtext0060	en	#####	spk3	125.83	125.93	0.01	_
20091112_RATP_SCD_0694	47	12	descendant	NULL	vprespart	NULL	I_GP	OBJ	11	idtext0060	descendre	G#####	spk3	125.94	126.28	0.01	_
20091112_RATP_SCD_0694	47	13	qu'	NULL	csu	NULL	B_NULL	OBJ	12	idtext0060	qu'	#####	spk3	126.29	126.37	0.01	_
20091112_RATP_SCD_0694	47	14	il	NULL	cln	NULL	B_GN	SUJ	17	idtext0060	cln	#3#m#s##	spk3	126.38	126.44	0.01	_
20091112_RATP_SCD_0694	47	15	l'	NULL	clo	NULL	B_GN	OBJ	17	idtext0060	cla	#3##s##	spk3	126.45	126.49	0.01	_
20091112_RATP_SCD_0694	47	16	a	NULL	v	NULL	B_GVf	AUX	17	idtext0060	avoir	P#3##s##	spk3	126.5	126.56	0.01	_
20091112_RATP_SCD_0694	47	17	perdu	NULL	vppart	NULL	I_GVf	OBJ	13	idtext0060	perdre	K##m#s##	spk3	126.57	127.03	0.01	//
20091112_RATP_SCD_0694	47	18	je	NULL	cln	NULL	B_GN	SUJ	19	idtext0060	cln	#1##s##	spk3	127.04	127.2	0.01	_
20091112_RATP_SCD_0694	47	19	sais	NULL	v	NULL	B_GVf	ROOT	0	idtext0060	savoir	P#12##s##	spk3	127.21	127.53	0.01	_
20091112_RATP_SCD_0694	47	20	rien	NULL	pro	NULL	B_GN	OBJ	19	idtext0060	rien	#####	spk3	127.54	127.79	?	_

20091112_RATP_SCD_0694	48	1	mais	NULL	coo	NULL	B_NULL	NOLINK	0	idtext0061	mais	#####	spk3	127.83	128.0	0.01	_
20091112_RATP_SCD_0694	48	2	ch()	DISF_T	tronc	NULL	NULL	NOLINK	0	idtext0061	ch()	#####	spk3	128.01	128.56	?	/

20091112_RATP_SCD_0694	49	1	ah	DISF_M	pres	NULL	NULL	NOLINK	0	idtext0062	ah	#####	spk1	127.88	128.56	?	//

20091112_RATP_SCD_0694	50	1	parce+qu'	NULL	csu	NULL	B_NULL	ROOT	0	idtext0063	parce+qu'	#####	spk3	129.08	129.26	0.01	_
20091112_RATP_SCD_0694	50	2	il	NULL	cln	NULL	B_GN	SUJ	4	idtext0063	cln	#3#m#s##	spk3	129.27	129.37	0.01	_
20091112_RATP_SCD_0694	50	3	a	NULL	v	NULL	B_GVf	AUX	4	idtext0063	avoir	P#3##s##	spk3	129.38	129.41	0.01	_
20091112_RATP_SCD_0694	50	4	pris	NULL	vppart	NULL	I_GVf	OBJ	1	idtext0063	prendre	K##m###	spk3	129.42	129.55	0.01	_
20091112_RATP_SCD_0694	50	5	le	NULL	det	NULL	B_GN	DET	6	idtext0063	le	##m#s##d	spk3	129.56	129.58	0.01	_
20091112_RATP_SCD_0694	50	6	deux+soixante-deux	NULL	nc	B_T	I_GN	OBJ	4	idtext0063	deux+soixante-deux	#####	spk3	129.59	130.29	0.01	_
20091112_RATP_SCD_0694	50	7	et	NULL	coo	NULL	B_NULL	COORD	4	idtext0063	et	#####	spk3	130.3	130.6	0.01	_
20091112_RATP_SCD_0694	50	8	après	DISF_R	prep	NULL	NULL	NOLINK	0	idtext0063	après	#####	spk3	130.61	130.84	0.01	_
20091112_RATP_SCD_0694	50	9	il	DISF_R	cln	NULL	NULL	NOLINK	0	idtext0063	cln	#3#m#s##	spk3	130.85	131.03	0.01	_
20091112_RATP_SCD_0694	50	10	après	NULL	prep	NULL	B_GP	P_OBJ	15	idtext0063	après	#####	spk3	131.04	131.28	0.01	_
20091112_RATP_SCD_0694	50	11	le	NULL	det	NULL	I_GP	DET	12	idtext0063	le	##m#s##d	spk3	131.29	131.4	0.01	_
20091112_RATP_SCD_0694	50	12	deux	NULL	nc	B_T	I_GP	OBJ	10	idtext0063	deux	##m###	spk3	131.41	131.55	0.01	_
20091112_RATP_SCD_0694	50	13	il	NULL	cln	NULL	B_GN	SUJ	15	idtext0063	cln	#3#m#s##	spk3	131.56	131.61	0.01	_
20091112_RATP_SCD_0694	50	14	l'	NULL	clo	NULL	B_GN	OBJ	15	idtext0063	cla	#3##s##	spk3	131.62	131.64	0.01	_
20091112_RATP_SCD_0694	50	15	avait	NULL	v	NULL	B_GVfn	DEP_COORD	7	idtext0063	avoir	I#3##s##	spk3	131.65	131.84	0.01	_
20091112_RATP_SCD_0694	50	16	plus	NULL	advneg	NULL	I_GVfn	MOD	15	idtext0063	plus	#####	spk3	131.85	132.13	0.01	_
20091112_RATP_SCD_0694	50	17	donc	NULL	coo	NULL	B_NULL	NOLINK	0	idtext0063	donc	#####	spk3	132.14	132.78	0.01	_
20091112_RATP_SCD_0694	50	18	euh	DISF_M	pres	NULL	NULL	NOLINK	0	idtext0063	euh	#####	spk3	132.79	133.01	?	//

20091112_RATP_SCD_0694	51	1	oui	NULL	adv	NULL	B_GADV	NOLINK	0	idtext0064	oui	#####	spk1	133.13	134.04	?	//

20091112_RATP_SCD_0694	52	1	OK	NULL	adv	NULL	B_GADV	MOD	2	idtext0065	ok	#####	spk3	134.14	134.22	0.01	_
20091112_RATP_SCD_0694	52	2	en+tout+cas	NULL	adv	NULL	I_GADV	ROOT	0	idtext0065	en+tout+cas	#####	spk3	134.23	134.92	0.01	_
20091112_RATP_SCD_0694	52	3	je	NULL	cln	NULL	B_GN	SUJ	5	idtext0065	cln	#1##s##	spk3	134.93	134.95	0.01	_
20091112_RATP_SCD_0694	52	4	vous	NULL	clo	NULL	B_GN	OBJ	5	idtext0065	cln	#2##p##	spk3	134.96	135.07	0.01	_
20091112_RATP_SCD_0694	52	5	remercie	NULL	v	NULL	B_GVf	ROOT	0	idtext0065	remercier	PS#13##s##	spk3	135.08	135.39	0.01	_
20091112_RATP_SCD_0694	52	6	beaucoup	NULL	adv	NULL	B_GADV	MOD	5	idtext0065	beaucoup	#####	spk3	135.4	135.72	?	_

20091112_RATP_SCD_0694	53	1	mais	NULL	coo	NULL	B_NULL	ROOT	0	idtext0066	mais	#####	spk1	135.79	135.9	0.01	_
20091112_RATP_SCD_0694	53	2	je	NULL	cln	NULL	B_GN	SUJ	5	idtext0066	cln	#1##s##	spk1	135.91	136.08	0.01	_
20091112_RATP_SCD_0694	53	3	vous	NULL	clo	NULL	B_GN	OBJ	5	idtext0066	cln	#2##p##	spk1	136.09	136.14	0.01	_
20091112_RATP_SCD_0694	53	4	en	NULL	clo	NULL	B_GN	DE_OBJ	5	idtext0066	en	#####	spk1	136.15	136.22	0.01	_
20091112_RATP_SCD_0694	53	5	prie	NULL	v	NULL	B_GVf	DEP_COORD	1	idtext0066	prier	PS#13##s##	spk1	136.23	136.9	?	//

20091112_RATP_SCD_0694	54	1	bonne	NULL	adj	NULL	B_GN	MOD	2	idtext0067	bon	##f#s##	spk1	136.94	137.12	0.01	_
20091112_RATP_SCD_0694	54	2	fin	NULL	nc	NULL	I_GN	ROOT	0	idtext0067	fin	###s##	spk1	137.13	137.26	0.01	_
20091112_RATP_SCD_0694	54	3	de	NULL	prep	NULL	B_GP	DEP	2	idtext0067	de	#####	spk1	137.27	137.29	0.01	_
20091112_RATP_SCD_0694	54	4	journée	NULL	nc	NULL	I_GP	OBJ	3	idtext0067	journée	##f#s##	spk1	137.3	137.61	0.01	_
20091112_RATP_SCD_0694	54	5	madame	NULL	nc	NULL	I_GP	NOLINK	0	idtext0067	Monsieur	##f#s##	spk1	137.62	137.91	0.01	_
20091112_RATP_SCD_0694	54	6	au+revoir	NULL	adv	NULL	B_GADV	NOLINK	0	idtext0067	au+revoir	#####	spk1	137.92	138.51	?	//

20091112_RATP_SCD_0694	55	1	merci	NULL	adv	NULL	B_GADV	NOLINK	0	idtext0068	merci	#####	spk3	136.94	137.19	0.01	_
20091112_RATP_SCD_0694	55	2	au	NULL	prep	NULL	B_NULL	NOLINK	0	idtext0068	au	#####	spk3	137.2	137.29	0.01	_
20091112_RATP_SCD_0694	55	3	au+revoir	NULL	adv	NULL	B_GADV	NOLINK	0	idtext0068	au+revoir	#####	spk3	137.3	138.51	?	_

