20091112_RATP_SCD_0589	1	1	NNAAMMEE	NULL	np	B_HU	B_GN	ROOT	0	idtext0000	ANONYM	NULL	spk1	6.64	6.83	0.04	_
20091112_RATP_SCD_0589	1	2	bonjour	NULL	adv	NULL	B_GADV	NOLINK	0	idtext0001	bonjour	#####	spk1	6.87	7.44	?	//

20091112_RATP_SCD_0589	2	1	oui	NULL	adv	NULL	B_GADV	MOD	2	idtext0002	oui	#####	spk2	8.05	8.28	0.01	_
20091112_RATP_SCD_0589	2	2	bonjour	NULL	adv	NULL	I_GADV	ROOT	0	idtext0002	bonjour	#####	spk2	8.29	9.4	?	//

20091112_RATP_SCD_0589	3	1	bonjour	NULL	adv	NULL	B_GADV	NOLINK	0	idtext0003	bonjour	#####	spk1	8.11	8.73	0.01	_
20091112_RATP_SCD_0589	3	2	madame	NULL	nc	NULL	B_GN	NOLINK	0	idtext0003	Monsieur	##f#s##	spk1	8.74	9.4	?	//

20091112_RATP_SCD_0589	4	1	je	NULL	cln	NULL	B_GN	SUJ	2	idtext0004	cln	#1##s##	spk2	9.45	9.6	0.01	_
20091112_RATP_SCD_0589	4	2	voudrais	NULL	v	NULL	B_GVf	ROOT	0	idtext0004	vouloir	C#12##s##	spk2	9.61	9.87	0.01	_
20091112_RATP_SCD_0589	4	3	un	NULL	det	NULL	B_GN	DET	4	idtext0004	un	##m#s##i	spk2	9.88	9.93	0.01	_
20091112_RATP_SCD_0589	4	4	renseignement	NULL	nc	NULL	I_GN	OBJ	2	idtext0004	renseignement	##m#s##	spk2	9.94	10.83	0.04	_
20091112_RATP_SCD_0589	4	5	mes	NULL	det	NULL	B_GN	DET	6	idtext0005	mon	###p##o	spk2	10.87	11.0	0.01	_
20091112_RATP_SCD_0589	4	6	parents	NULL	nc	NULL	I_GN	SUJ	7	idtext0005	parent	##m#p##	spk2	11.01	11.3	0.01	_
20091112_RATP_SCD_0589	4	7	doivent	NULL	v	NULL	B_GVf	ROOT	0	idtext0005	devoir	PS#3##p##	spk2	11.31	11.48	0.01	_
20091112_RATP_SCD_0589	4	8	partir	NULL	vinf	NULL	I_GVf	OBJ	7	idtext0005	partir	W#####	spk2	11.49	11.82	0.01	_
20091112_RATP_SCD_0589	4	9	en	NULL	prep	NULL	B_GP	P_OBJ	7	idtext0005	en	#####	spk2	11.83	11.96	0.01	_
20091112_RATP_SCD_0589	4	10	urgence	NULL	nc	NULL	I_GP	OBJ	9	idtext0005	urgence	##f#s##	spk2	11.97	12.39	0.01	_
20091112_RATP_SCD_0589	4	11	aujourd'hui	NULL	adv	NULL	B_GADV	MOD	10	idtext0005	aujourd'hui	#####	spk2	12.4	12.88	0.01	_
20091112_RATP_SCD_0589	4	12	donc	NULL	coo	NULL	B_NULL	COORD	7	idtext0005	donc	#####	spk2	12.89	13.2	0.01	_
20091112_RATP_SCD_0589	4	13	de	NULL	prep	NULL	B_GP	DEP_COORD	12	idtext0005	de	#####	spk2	13.21	13.33	0.01	_
20091112_RATP_SCD_0589	4	14	Nice	NULL	nc	B_A	I_GP	OBJ	13	idtext0005	Nice	##m#s##	spk2	13.34	13.67	0.04	_
20091112_RATP_SCD_0589	4	15	donc	NULL	coo	NULL	B_NULL	ROOT	0	idtext0006	donc	#####	spk2	13.71	13.84	0.01	_
20091112_RATP_SCD_0589	4	16	ils	NULL	cln	NULL	B_GN	SUJ	17	idtext0006	cln	#3#m#p##	spk2	13.85	13.93	0.01	_
20091112_RATP_SCD_0589	4	17	prennent	NULL	v	NULL	B_GVf	DEP_COORD	15	idtext0006	prendre	PS#3##p##	spk2	13.94	14.21	0.01	_
20091112_RATP_SCD_0589	4	18	l'	NULL	det	NULL	B_GN	DET	19	idtext0006	le	###s##d	spk2	14.22	14.26	0.01	_
20091112_RATP_SCD_0589	4	19	avion	NULL	nc	NULL	I_GN	OBJ	17	idtext0006	avion	##m#s##	spk2	14.27	14.57	0.01	_
20091112_RATP_SCD_0589	4	20	jusqu'à	NULL	prep	NULL	B_GP	MOD	19	idtext0006	jusqu'à	#####	spk2	14.58	14.89	0.01	_
20091112_RATP_SCD_0589	4	21	Paris	NULL	nc	B_A	I_GP	OBJ	20	idtext0006	Paris	##m#s##	spk2	14.9	15.17	0.01	_
20091112_RATP_SCD_0589	4	22	Roissy	NULL	nc	B_A	I_GP	MOD	21	idtext0006	Roissy	#####	spk2	15.18	15.74	?	//

20091112_RATP_SCD_0589	5	1	ouais	NULL	adv	NULL	B_GADV	NOLINK	0	idtext0007	ouais	#####	spk1	15.83	16.11	?	//

20091112_RATP_SCD_0589	6	1	et	NULL	coo	NULL	B_NULL	ROOT	0	idtext0008	et	#####	spk2	16.43	16.58	0.01	_
20091112_RATP_SCD_0589	6	2	en+fait	GREF	adv	NULL	B_GADV	NOLINK	0	idtext0008	en+fait	#####	spk2	16.59	16.84	0.01	_
20091112_RATP_SCD_0589	6	3	comme	NULL	adv	NULL	I_GADV	DEP_COORD	1	idtext0008	comme	#####	spk2	16.85	17.27	0.01	_
20091112_RATP_SCD_0589	6	4	personne	NULL	pro	NULL	B_GN	SUJ	5	idtext0008	personne	#####	spk2	17.28	17.62	0.01	_
20091112_RATP_SCD_0589	6	5	peut	NULL	v	NULL	B_GVf	OBJ	3	idtext0008	pouvoir	P#3##s##	spk2	17.63	17.69	0.01	_
20091112_RATP_SCD_0589	6	6	aller	NULL	vinf	NULL	I_GVf	OBJ	5	idtext0008	aller	W#####	spk2	17.7	17.91	0.01	_
20091112_RATP_SCD_0589	6	7	les	NULL	clo	NULL	B_GN	OBJ	8	idtext0008	cla	#3##p##	spk2	17.92	18.0	0.01	_
20091112_RATP_SCD_0589	6	8	chercher	NULL	vinf	NULL	B_GVi	OBJ	5	idtext0008	chercher	W#####	spk2	18.01	18.32	0.01	_
20091112_RATP_SCD_0589	6	9	jusque	NULL	prep	NULL	B_NULL	MOD	8	idtext0008	jusque	#####	spk2	18.33	18.64	0.01	_
20091112_RATP_SCD_0589	6	10	là-bas	NULL	adv	NULL	B_GADV	OBJ	9	idtext0008	là-bas	#####	spk2	18.65	18.98	0.06	_
20091112_RATP_SCD_0589	6	11	je	NULL	cln	NULL	B_GN	SUJ	12	idtext0009	cln	#1##s##	spk2	19.04	19.06	0.01	_
20091112_RATP_SCD_0589	6	12	voudrais	NULL	v	NULL	B_GVf	ROOT	0	idtext0009	vouloir	C#12##s##	spk2	19.07	19.22	0.01	_
20091112_RATP_SCD_0589	6	13	savoir	NULL	vinf	NULL	I_GVf	OBJ	12	idtext0009	savoir	W#####	spk2	19.23	19.74	0.01	_
20091112_RATP_SCD_0589	6	14	si	NULL	csu	NULL	B_NULL	OBJ	13	idtext0009	si	#####	spk2	19.75	19.86	0.01	_
20091112_RATP_SCD_0589	6	15	ils	NULL	cln	NULL	B_GN	SUJ	16	idtext0009	cln	#3#m#p##	spk2	19.87	19.99	0.01	_
20091112_RATP_SCD_0589	6	16	auraient	NULL	v	NULL	B_GVf	OBJ	14	idtext0009	avoir	C#3##p##	spk2	20.0	20.18	0.01	_
20091112_RATP_SCD_0589	6	17	une	NULL	det	NULL	B_GN	DET	18	idtext0009	un	##f#s##i	spk2	20.19	20.38	0.01	_
20091112_RATP_SCD_0589	6	18	correspondance	NULL	nc	NULL	I_GN	OBJ	16	idtext0009	correspondance	##f#s##	spk2	20.39	21.07	0.04	_
20091112_RATP_SCD_0589	6	19	pour	NULL	prep	NULL	B_GP	ROOT	0	idtext0010	pour	#####	spk2	21.11	21.27	0.01	_
20091112_RATP_SCD_0589	6	20	aller	NULL	vinf	NULL	I_GP	OBJ	19	idtext0010	aller	W#####	spk2	21.28	21.55	0.01	_
20091112_RATP_SCD_0589	6	21	soit	NULL	coo	NULL	B_NULL	NOLINK	0	idtext0010	soit	#####	spk2	21.56	22.33	0.01	_
20091112_RATP_SCD_0589	6	22	à	NULL	prep	NULL	B_GP	ROOT	0	idtext0010	à	#####	spk2	22.34	22.62	0.01	_
20091112_RATP_SCD_0589	6	23	Rang-du-Fliers	NULL	nc	B_A	I_GP	OBJ	22	idtext0010	Rang-du-Fliers	##m#s##	spk2	22.63	23.4	0.20	/
20091112_RATP_SCD_0589	6	24	ou	NULL	coo	NULL	B_NULL	ROOT	0	idtext0011	ou	#####	spk2	23.6	23.9	0.01	_
20091112_RATP_SCD_0589	6	25	soit	NULL	coo	NULL	B_NULL	NOLINK	0	idtext0011	soit	#####	spk2	23.91	24.07	0.01	_
20091112_RATP_SCD_0589	6	26	à	NULL	prep	NULL	B_GP	DEP_COORD	24	idtext0011	à	#####	spk2	24.08	24.21	0.01	_
20091112_RATP_SCD_0589	6	27	Étaples	NULL	nc	B_A	I_GP	OBJ	26	idtext0011	Étaples	#####	spk2	24.22	24.92	?	//

20091112_RATP_SCD_0589	7	1	mais	NULL	coo	NULL	B_NULL	ROOT	0	idtext0012	mais	#####	spk1	25.98	26.15	0.01	_
20091112_RATP_SCD_0589	7	2	euh	DISF_M	pres	NULL	NULL	NOLINK	0	idtext0012	euh	#####	spk1	26.16	26.19	0.01	_
20091112_RATP_SCD_0589	7	3	en	NULL	prep	NULL	B_GP	DEP_COORD	1	idtext0012	en	#####	spk1	26.2	26.32	0.01	_
20091112_RATP_SCD_0589	7	4	partant	NULL	vprespart	NULL	I_GP	OBJ	3	idtext0012	partir	G#####	spk1	26.33	26.7	0.01	_
20091112_RATP_SCD_0589	7	5	d'où	NULL	adv	NULL	B_GADV	NOLINK	0	idtext0012	d'où	#####	spk1	26.71	26.97	0.01	_
20091112_RATP_SCD_0589	7	6	euh	DISF_M	pres	NULL	NULL	NOLINK	0	idtext0012	euh	#####	spk1	26.98	27.34	0.01	_
20091112_RATP_SCD_0589	7	7	Étaples	NULL	nc	B_A	B_GN	NOLINK	0	idtext0012	Étaples	#####	spk1	27.35	28.11	?	//

20091112_RATP_SCD_0589	8	1	mais	NULL	coo	NULL	B_NULL	ROOT	0	idtext0013	mais	#####	spk1	28.53	28.6	0.01	_
20091112_RATP_SCD_0589	8	2	c'	NULL	cln	NULL	B_GN	SUJ_IMP	3	idtext0013	ce	###s##	spk1	28.61	28.63	0.01	_
20091112_RATP_SCD_0589	8	3	est	NULL	v	NULL	B_GVfn	DEP_COORD	1	idtext0013	être	P#3##s##	spk1	28.64	28.83	0.01	_
20091112_RATP_SCD_0589	8	4	pas	NULL	advneg	NULL	I_GVfn	MOD	3	idtext0013	pas	#####	spk1	28.84	29.15	0.01	_
20091112_RATP_SCD_0589	8	5	en	NULL	prep	NULL	B_GP	ATS	3	idtext0013	en	#####	spk1	29.16	29.31	0.01	_
20091112_RATP_SCD_0589	8	6	région	NULL	nc	NULL	I_GP	OBJ	5	idtext0013	région	##f#s##	spk1	29.32	29.51	0.01	_
20091112_RATP_SCD_0589	8	7	parisienne	NULL	adj	NULL	I_GP	MOD	6	idtext0013	parisien	##f#s##	spk1	29.52	30.1	0.01	_
20091112_RATP_SCD_0589	8	8	ça	NULL	pro	NULL	B_GN	SUJ_IMP	3	idtext0013	ça	#####	spk1	30.11	30.38	?	//

20091112_RATP_SCD_0589	9	1	euh	DISF_M	pres	NULL	NULL	NOLINK	0	idtext0014	euh	#####	spk2	28.63	28.82	0.01	_
20091112_RATP_SCD_0589	9	2	non	NULL	adv	NULL	B_GADV	NOLINK	0	idtext0014	non	#####	spk2	28.83	28.99	0.01	_
20091112_RATP_SCD_0589	9	3	ils	DISF_R	cln	NULL	NULL	NOLINK	0	idtext0014	cln	#3#m#p##	spk2	29.0	29.12	0.01	_
20091112_RATP_SCD_0589	9	4	pe()	DISF_T	tronc	NULL	NULL	NOLINK	0	idtext0014	pe()	#####	spk2	29.13	29.32	0.01	_
20091112_RATP_SCD_0589	9	5	ils	NULL	cln	NULL	B_GN	NOLINK	0	idtext0014	cln	#3#m#p##	spk2	29.33	29.49	0.01	_
20091112_RATP_SCD_0589	9	6	pas	NULL	advneg	NULL	B_NULL	NOLINK	0	idtext0014	pas	#####	spk2	29.5	30.38	?	_

20091112_RATP_SCD_0589	10	1	non	DISF_R	adv	NULL	NULL	NOLINK	0	idtext0015	non	#####	spk2	30.58	30.75	0.01	_
20091112_RATP_SCD_0589	10	2	non	NULL	adv	NULL	B_GADV	NOLINK	0	idtext0015	non	#####	spk2	30.76	30.92	0.01	_
20091112_RATP_SCD_0589	10	3	ils	NULL	cln	NULL	B_GN	SUJ	4	idtext0015	cln	#3#m#p##	spk2	30.93	31.09	0.01	_
20091112_RATP_SCD_0589	10	4	partiraient	NULL	v	NULL	B_GVf	ROOT	0	idtext0015	partir	C#3##p##	spk2	31.1	31.69	0.01	_
20091112_RATP_SCD_0589	10	5	de	NULL	prep	NULL	B_GP	P_OBJ_LOC	4	idtext0015	de	#####	spk2	31.7	31.87	0.01	_
20091112_RATP_SCD_0589	10	6	Paris	NULL	np	B_A	I_GP	OBJ	5	idtext0015	Paris	##m#s##	spk2	31.88	32.25	0.01	_
20091112_RATP_SCD_0589	10	7	Roissy-Charles+de+Gaulle	NULL	np	I_A	I_GP	MOD	6	idtext0015	Roissy-Charles+de+Gaulle	#####	spk2	32.26	33.12	0.04	//
20091112_RATP_SCD_0589	10	8	euh	DISF_M	pres	NULL	NULL	NOLINK	0	idtext0016	euh	#####	spk2	33.16	33.38	0.01	_
20091112_RATP_SCD_0589	10	9	Paris	NULL	np	B_A	B_GN	NOLINK	0	idtext0016	Paris	##m#s##	spk2	33.39	33.64	0.01	_
20091112_RATP_SCD_0589	10	10	Roissy-Charles+de+Gaulle	NULL	np	I_A	I_GN	MOD	9	idtext0016	Roissy-Charles+de+Gaulle	#####	spk2	33.65	34.57	?	//

20091112_RATP_SCD_0589	11	1	mais	NULL	coo	NULL	B_NULL	ROOT	0	idtext0017	mais	#####	spk1	35.37	35.49	0.01	_
20091112_RATP_SCD_0589	11	2	pour	NULL	prep	NULL	B_GP	MOD	5	idtext0017	pour	#####	spk1	35.5	35.62	0.01	_
20091112_RATP_SCD_0589	11	3	aller	NULL	vinf	NULL	I_GP	OBJ	2	idtext0017	aller	W#####	spk1	35.63	35.84	0.01	_
20091112_RATP_SCD_0589	11	4	où	NULL	adv	NULL	B_GADV	P_OBJ_LOC	3	idtext0017	où	#####	spk1	35.85	35.95	0.01	_
20091112_RATP_SCD_0589	11	5	ensuite	NULL	adv	NULL	I_GADV	DEP_COORD	1	idtext0017	ensuite	#####	spk1	35.96	36.58	?	_

20091112_RATP_SCD_0589	12	1	pour	NULL	prep	NULL	B_GP	ROOT	0	idtext0018	pour	#####	spk2	37.06	37.14	0.01	_
20091112_RATP_SCD_0589	12	2	aller	NULL	vinf	NULL	I_GP	OBJ	1	idtext0018	aller	W#####	spk2	37.15	37.57	0.04	_
20091112_RATP_SCD_0589	12	3	soit	NULL	v	NULL	B_GVf	NOLINK	0	idtext0019	être	S#3##s##	spk2	37.61	38.59	0.01	_
20091112_RATP_SCD_0589	12	4	à	NULL	prep	NULL	B_NULL	NOLINK	0	idtext0019	à	#####	spk2	38.6	38.8	0.04	_
20091112_RATP_SCD_0589	12	5	comment	NULL	adv	NULL	B_GADV	NOLINK	0	idtext0020	comment	#####	spk2	38.84	39.16	?	//

20091112_RATP_SCD_0589	13	1	à	NULL	prep	NULL	B_GP	ROOT	0	idtext0021	à	#####	spk2	39.63	39.73	0.01	_
20091112_RATP_SCD_0589	13	2	Étaples	NULL	nc	B_A	I_GP	OBJ	1	idtext0021	Étaples	#####	spk2	39.74	40.14	?	//

20091112_RATP_SCD_0589	14	1	ou	NULL	coo	NULL	B_NULL	ROOT	0	idtext0022	ou	#####	spk2	40.18	40.68	0.01	_
20091112_RATP_SCD_0589	14	2	à	NULL	prep	NULL	B_GP	DEP_COORD	1	idtext0022	à	#####	spk2	40.69	40.98	0.01	_
20091112_RATP_SCD_0589	14	3	Rang-du-Fliers	NULL	nc	B_A	I_GP	OBJ	2	idtext0022	Rang-du-Fliers	##m#s##	spk2	40.99	42.08	?	//

20091112_RATP_SCD_0589	15	1	mais	NULL	coo	NULL	B_NULL	ROOT	0	idtext0023	mais	#####	spk1	40.19	40.41	0.01	_
20091112_RATP_SCD_0589	15	2	Étaples	NULL	nc	B_A	B_GN	SUJ	4	idtext0023	Étaples	#####	spk1	40.42	40.9	0.01	_
20091112_RATP_SCD_0589	15	3	c'	NULL	cln	NULL	B_GN	SUJ_IMP	4	idtext0023	ce	###s##	spk1	40.91	40.94	0.01	_
20091112_RATP_SCD_0589	15	4	est	NULL	v	NULL	B_GVfn	DEP_COORD	1	idtext0023	être	P#3##s##	spk1	40.95	41.02	0.01	_
20091112_RATP_SCD_0589	15	5	pas	NULL	advneg	NULL	I_GVfn	MOD	4	idtext0023	pas	#####	spk1	41.03	41.12	0.01	_
20091112_RATP_SCD_0589	15	6	en	NULL	prep	NULL	B_GP	ATS	4	idtext0023	en	#####	spk1	41.13	41.21	0.01	_
20091112_RATP_SCD_0589	15	7	région	NULL	nc	NULL	I_GP	OBJ	6	idtext0023	région	##f#s##	spk1	41.22	41.45	0.01	_
20091112_RATP_SCD_0589	15	8	parisienne	NULL	adj	NULL	I_GP	MOD	7	idtext0023	parisien	##f#s##	spk1	41.46	42.08	?	//

20091112_RATP_SCD_0589	16	1	ah+ben	DISF_M	pres	NULL	NULL	NOLINK	0	idtext0024	ah+ben	#####	spk2	42.6	42.83	0.01	//
20091112_RATP_SCD_0589	16	2	euh	DISF_M	pres	NULL	NULL	NOLINK	0	idtext0024	euh	#####	spk2	42.84	42.86	0.01	_
20091112_RATP_SCD_0589	16	3	moi	NULL	pro	NULL	B_GN	A_OBJ	7	idtext0024	moi	#####	spk2	42.87	43.04	0.01	_
20091112_RATP_SCD_0589	16	4	on	NULL	cln	NULL	B_GN	SUJ_IMP	7	idtext0024	cln	#3##s##	spk2	43.05	43.07	0.01	_
20091112_RATP_SCD_0589	16	5	m'	NULL	clo	NULL	B_GN	A_OBJ	7	idtext0024	cla	#1##s##	spk2	43.08	43.14	0.01	_
20091112_RATP_SCD_0589	16	6	a	NULL	v	NULL	B_GVf	AUX	7	idtext0024	avoir	P#3##s##	spk2	43.15	43.21	0.01	_
20091112_RATP_SCD_0589	16	7	donné	NULL	vppart	NULL	I_GVf	ROOT	0	idtext0024	donner	K##m#s##	spk2	43.22	43.47	0.01	_
20091112_RATP_SCD_0589	16	8	votre	NULL	det	NULL	B_GN	DET	9	idtext0024	votre	###s##o	spk2	43.48	43.75	0.01	_
20091112_RATP_SCD_0589	16	9	numéro	NULL	nc	NULL	I_GN	OBJ	7	idtext0024	numéro	##m#s##	spk2	43.76	44.09	0.01	_
20091112_RATP_SCD_0589	16	10	je	NULL	cln	NULL	B_GN	NOLINK	0	idtext0024	cln	#1##s##	spk2	44.1	44.21	?	_

20091112_RATP_SCD_0589	17	1	mais	NULL	coo	NULL	B_NULL	ROOT	0	idtext0025	mais	#####	spk1	44.25	44.34	0.01	_
20091112_RATP_SCD_0589	17	2	non	NULL	adv	NULL	B_GADV	MOD	3	idtext0025	non	#####	spk1	44.35	44.43	0.01	_
20091112_RATP_SCD_0589	17	3	là	NULL	adv	NULL	I_GADV	MOD	5	idtext0025	là	#####	spk1	44.44	44.55	0.01	_
20091112_RATP_SCD_0589	17	4	vous	NULL	cln	NULL	B_GN	SUJ	5	idtext0025	cln	#2##p##	spk1	44.56	44.74	0.01	_
20091112_RATP_SCD_0589	17	5	êtes	NULL	v	NULL	B_GVf	DEP_COORD	1	idtext0025	être	P#2##p##	spk1	44.75	44.88	0.01	_
20091112_RATP_SCD_0589	17	6	à	NULL	prep	NULL	B_GP	P_OBJ_LOC	5	idtext0025	à	#####	spk1	44.89	44.93	0.01	_
20091112_RATP_SCD_0589	17	7	la	NULL	det	NULL	I_GP	DET	8	idtext0025	le	##m#s##d	spk1	44.94	45.0	0.01	_
20091112_RATP_SCD_0589	17	8	RATP	NULL	np	B_ORG	I_GP	OBJ	6	idtext0025	RATP	##f#s##	spk1	45.01	45.57	0.01	_
20091112_RATP_SCD_0589	17	9	là	NULL	adv	NULL	B_GADV	NOLINK	0	idtext0025	là	#####	spk1	45.58	45.77	?	//

20091112_RATP_SCD_0589	18	1	ah	DISF_M	pres	NULL	NULL	NOLINK	0	idtext0026	ah	#####	spk2	46.25	46.36	0.01	_
20091112_RATP_SCD_0589	18	2	ouais	NULL	adv	NULL	B_GADV	NOLINK	0	idtext0026	ouais	#####	spk2	46.37	46.55	0.01	_
20091112_RATP_SCD_0589	18	3	donc	NULL	coo	NULL	B_NULL	NOLINK	0	idtext0026	donc	#####	spk2	46.56	46.79	0.01	_
20091112_RATP_SCD_0589	18	4	euh	DISF_M	pres	NULL	NULL	NOLINK	0	idtext0026	euh	#####	spk2	46.8	46.99	?	//

20091112_RATP_SCD_0589	19	1	il	NULL	cln	NULL	B_GN	SUJ_IMP	2	idtext0027	cln	#3#m#s##	spk1	47.03	47.08	0.01	_
20091112_RATP_SCD_0589	19	2	faut	NULL	v	NULL	B_GVf	ROOT	0	idtext0027	falloir	P#3##s##	spk1	47.09	47.14	0.01	_
20091112_RATP_SCD_0589	19	3	appeler	NULL	vinf	NULL	I_GVf	OBJ	2	idtext0027	appeler	W#####	spk1	47.15	47.39	0.01	_
20091112_RATP_SCD_0589	19	4	la	NULL	det	NULL	B_GN	DET	5	idtext0027	le	##m#s##d	spk1	47.4	47.47	0.01	_
20091112_RATP_SCD_0589	19	5	SNCF	NULL	np	B_ORG	I_GN	OBJ	2	idtext0027	SNCF	##f#s##	spk1	47.48	48.24	0.04	_
20091112_RATP_SCD_0589	19	6	euh	DISF_M	pres	NULL	NULL	NOLINK	0	idtext0028	euh	#####	spk1	48.28	48.57	0.01	_
20091112_RATP_SCD_0589	19	7	ça	NULL	pro	NULL	B_GN	SUJ_IMP	8	idtext0028	ça	#####	spk1	48.58	48.71	0.01	_
20091112_RATP_SCD_0589	19	8	doit	NULL	v	NULL	B_GVf	ROOT	0	idtext0028	devoir	P#3##s##	spk1	48.72	48.83	0.01	_
20091112_RATP_SCD_0589	19	9	être	NULL	vinf	NULL	I_GVf	OBJ	8	idtext0028	être	W#####	spk1	48.84	48.93	0.01	_
20091112_RATP_SCD_0589	19	10	la	NULL	det	NULL	B_GN	DET	11	idtext0028	le	##m#s##d	spk1	48.94	48.99	0.01	_
20091112_RATP_SCD_0589	19	11	SNCF	NULL	np	B_ORG	I_GN	ATS	8	idtext0028	SNCF	##f#s##	spk1	49.0	49.43	0.01	_
20091112_RATP_SCD_0589	19	12	grandes	NULL	adj	NULL	B_GN	MOD	13	idtext0028	grand	##f#p##	spk1	49.44	49.74	0.01	_
20091112_RATP_SCD_0589	19	13	lignes	NULL	nc	NULL	I_GN	ROOT	0	idtext0028	ligne	##f#p##	spk1	49.75	50.02	0.43	/
20091112_RATP_SCD_0589	19	14	mais	NULL	coo	NULL	B_NULL	ROOT	0	idtext0029	mais	#####	spk1	50.45	50.5	0.01	_
20091112_RATP_SCD_0589	19	15	Étaples	NULL	nc	B_A	B_GN	SUJ	19	idtext0029	Étaples	#####	spk1	50.51	50.91	0.01	/
20091112_RATP_SCD_0589	19	16	de	NULL	prep	NULL	B_GP	ROOT	0	idtext0029	de	#####	spk1	50.92	51.05	0.01	_
20091112_RATP_SCD_0589	19	17	mémoire	NULL	nc	NULL	I_GP	OBJ	16	idtext0029	mémoire	###s##	spk1	51.06	51.67	0.01	_
20091112_RATP_SCD_0589	19	18	c'	NULL	cln	NULL	B_GN	SUJ_IMP	19	idtext0029	ce	###s##	spk1	51.68	51.75	0.01	_
20091112_RATP_SCD_0589	19	19	est	NULL	v	NULL	B_GVf	DEP_COORD	14	idtext0029	être	P#3##s##	spk1	51.76	51.83	0.01	_
20091112_RATP_SCD_0589	19	20	vers	NULL	prep	NULL	B_NULL	NOLINK	0	idtext0029	vers	#####	spk1	51.84	52.35	0.01	_
20091112_RATP_SCD_0589	19	21	euh	DISF_M	pres	NULL	NULL	NOLINK	0	idtext0029	euh	#####	spk1	52.36	52.75	?	//

20091112_RATP_SCD_0589	20	1	Le+Touquet	NULL	nc	B_A	B_GN	NOLINK	0	idtext0030	Le+Touquet	#####	spk1	52.8	53.41	0.01	_
20091112_RATP_SCD_0589	20	2	ça	NULL	pro	NULL	I_GN	NOLINK	0	idtext0030	ça	#####	spk1	53.42	53.86	?	_

20091112_RATP_SCD_0589	21	1	le	NULL	det	NULL	B_GN	DET	2	idtext0031	le	##m#s##d	spk2	52.8	52.95	0.01	_
20091112_RATP_SCD_0589	21	2	pas	NULL	nc	NULL	I_GN	ROOT	0	idtext0031	pas	##m###	spk2	52.96	53.41	0.01	_
20091112_RATP_SCD_0589	21	3	de	NULL	det	NULL	B_NULL	NOLINK	0	idtext0031	de	###p##i	spk2	53.42	53.59	0.01	_
20091112_RATP_SCD_0589	21	4	ca()	DISF_T	tronc	NULL	NULL	NOLINK	0	idtext0031	ca()	#####	spk2	53.6	53.86	?	//

20091112_RATP_SCD_0589	22	1	voilà	DISF_M	pres	NULL	NULL	NOLINK	0	idtext0032	voilà	#####	spk2	53.98	54.24	0.01	_
20091112_RATP_SCD_0589	22	2	tout+à+fait	NULL	adv	NULL	B_GADV	NOLINK	0	idtext0032	tout+à+fait	#####	spk2	54.25	54.7	?	_

20091112_RATP_SCD_0589	23	1	alors	NULL	adv	NULL	B_GADV	MOD	2	idtext0033	alors	#####	spk1	54.74	54.85	0.01	_
20091112_RATP_SCD_0589	23	2	en+plus	NULL	adv	NULL	I_GADV	MOD	5	idtext0033	en+plus	#####	spk1	54.86	55.04	0.01	_
20091112_RATP_SCD_0589	23	3	j'	NULL	cln	NULL	B_GN	SUJ	5	idtext0033	cln	#1##s##	spk1	55.05	55.17	0.01	_
20091112_RATP_SCD_0589	23	4	y	NULL	clo	NULL	B_GN	AFF	5	idtext0033	y	#####	spk1	55.18	55.21	0.01	_
20091112_RATP_SCD_0589	23	5	étais	NULL	v	NULL	B_GVf	ROOT	0	idtext0033	être	I#12##s##	spk1	55.22	55.49	0.01	_
20091112_RATP_SCD_0589	23	6	c'	NULL	cln	NULL	B_GN	SUJ_IMP	7	idtext0033	ce	###s##	spk1	55.5	55.57	0.01	_
20091112_RATP_SCD_0589	23	7	est	NULL	v	NULL	B_GVf	ROOT	0	idtext0033	être	P#3##s##	spk1	55.58	55.6	0.01	_
20091112_RATP_SCD_0589	23	8	incroyable	NULL	adj	NULL	B_GN	ATS	7	idtext0033	incroyable	###s##	spk1	55.61	56.14	0.01	_
20091112_RATP_SCD_0589	23	9	ça	NULL	pro	NULL	I_GN	SUJ	7	idtext0033	ça	#####	spk1	56.15	56.22	?	//

20091112_RATP_SCD_0589	24	1	ah+ben	DISF_M	pres	NULL	NULL	NOLINK	0	idtext0034	ah+ben	#####	spk2	56.45	56.89	0.01	_
20091112_RATP_SCD_0589	24	2	c'	NULL	cln	NULL	B_GN	SUJ_IMP	3	idtext0034	ce	###s##	spk2	56.9	57.01	0.01	_
20091112_RATP_SCD_0589	24	3	est	NULL	v	NULL	B_GVf	ROOT	0	idtext0034	être	P#3##s##	spk2	57.02	57.05	0.01	_
20091112_RATP_SCD_0589	24	4	dommage	NULL	adv	NULL	B_GADV	ATS	3	idtext0034	dommage	##m#s##	spk2	57.06	57.53	?	//

20091112_RATP_SCD_0589	25	1	ouais	NULL	adv	NULL	B_GADV	MOD	2	idtext0035	ouais	#####	spk1	57.57	57.74	0.01	_
20091112_RATP_SCD_0589	25	2	non	NULL	adv	NULL	I_GADV	ROOT	0	idtext0035	non	#####	spk1	57.75	57.85	0.01	_
20091112_RATP_SCD_0589	25	3	mais	NULL	coo	NULL	B_NULL	ROOT	0	idtext0035	mais	#####	spk1	57.86	58.03	0.01	_
20091112_RATP_SCD_0589	25	4	c'	NULL	cln	NULL	B_GN	SUJ_IMP	5	idtext0035	ce	###s##	spk1	58.04	58.09	0.01	_
20091112_RATP_SCD_0589	25	5	est	NULL	v	NULL	B_GVf	DEP_COORD	3	idtext0035	être	P#3##s##	spk1	58.1	58.29	0.01	_
20091112_RATP_SCD_0589	25	6	vrai	NULL	adj	NULL	B_GADJ	ATS	5	idtext0035	vrai	##m#s##	spk1	58.3	58.47	0.01	_
20091112_RATP_SCD_0589	25	7	j'	NULL	cln	NULL	B_GN	SUJ	10	idtext0035	cln	#1##s##	spk1	58.48	58.55	0.01	_
20091112_RATP_SCD_0589	25	8	y	NULL	clo	NULL	B_GN	AFF	10	idtext0035	y	#####	spk1	58.56	58.62	0.01	_
20091112_RATP_SCD_0589	25	9	suis	NULL	v	NULL	B_GVf	AUX	10	idtext0035	être	P#1##s##	spk1	58.63	58.75	0.01	_
20091112_RATP_SCD_0589	25	10	allé	NULL	vppart	NULL	I_GVf	ROOT	0	idtext0035	aller	K##m#s##	spk1	58.76	59.0	0.01	/
20091112_RATP_SCD_0589	25	11	il	NULL	cln	NULL	B_GN	SUJ_IMP	13	idtext0035	cln	#3#m#s##	spk1	59.01	59.14	0.01	_
20091112_RATP_SCD_0589	25	12	y	NULL	clo	NULL	B_GN	AFF	13	idtext0035	y	#####	spk1	59.15	59.18	0.01	_
20091112_RATP_SCD_0589	25	13	a	NULL	v	NULL	B_GVf	OBJ	10	idtext0035	avoir	P#3##s##	spk1	59.19	59.26	0.01	_
20091112_RATP_SCD_0589	25	14	trois	NULL	adj	NULL	I_GP	MOD	15	idtext0035	trois	#####	spk1	59.27	59.52	0.01	_
20091112_RATP_SCD_0589	25	15	semaines	NULL	nc	NULL	I_GP	OBJ	13	idtext0035	semaine	##f#p##	spk1	59.53	59.98	?	//

20091112_RATP_SCD_0589	26	1	vous	NULL	cln	NULL	B_GN	SUJ	3	idtext0036	cln	#2##p##	spk2	57.72	58.1	0.01	_
20091112_RATP_SCD_0589	26	2	auriez	NULL	v	NULL	B_GVf	AUX	3	idtext0036	avoir	C#2##p##	spk2	58.11	59.85	0.01	_
20091112_RATP_SCD_0589	26	3	pu	NULL	vppart	NULL	I_GVf	ROOT	0	idtext0036	pouvoir	K#####	spk2	59.86	59.98	?	//

20091112_RATP_SCD_0589	27	1	vous	NULL	cln	NULL	B_GN	SUJ	3	idtext0037	cln	#2##p##	spk2	60.02	60.18	0.01	_
20091112_RATP_SCD_0589	27	2	auriez	NULL	v	NULL	B_GVf	AUX	3	idtext0037	avoir	C#2##p##	spk2	60.19	60.36	0.01	_
20091112_RATP_SCD_0589	27	3	pu	NULL	vppart	NULL	I_GVf	ROOT	0	idtext0037	pouvoir	K#####	spk2	60.37	60.48	0.01	_
20091112_RATP_SCD_0589	27	4	les	NULL	clo	NULL	B_GN	OBJ	5	idtext0037	cla	#3##p##	spk2	60.49	60.63	0.01	_
20091112_RATP_SCD_0589	27	5	embarquer	NULL	vinf	NULL	B_GVi	OBJ	3	idtext0037	embarquer	W#####	spk2	60.64	61.32	?	//

20091112_RATP_SCD_0589	28	1	et	NULL	coo	NULL	B_NULL	ROOT	0	idtext0038	et	#####	spk1	61.36	61.53	0.01	_
20091112_RATP_SCD_0589	28	2	c'	NULL	cln	NULL	B_GN	SUJ_IMP	3	idtext0038	ce	###s##	spk1	61.54	61.57	0.01	_
20091112_RATP_SCD_0589	28	3	est	NULL	v	NULL	B_GVf	DEP_COORD	1	idtext0038	être	P#3##s##	spk1	61.58	61.67	0.01	_
20091112_RATP_SCD_0589	28	4	charmant	NULL	adj	NULL	B_GADJ	ATS	3	idtext0038	charmant	##m#s##	spk1	61.68	62.13	0.01	_
20091112_RATP_SCD_0589	28	5	en+plus	NULL	adv	NULL	B_GADV	NOLINK	0	idtext0038	en+plus	#####	spk1	62.14	62.62	0.04	_
20091112_RATP_SCD_0589	28	6	c'	DISF_R	cln	NULL	NULL	NOLINK	0	idtext0039	ce	###s##	spk1	62.66	62.68	0.01	_
20091112_RATP_SCD_0589	28	7	je	NULL	cln	NULL	B_GN	SUJ	8	idtext0039	cln	#1##s##	spk1	62.69	62.82	0.01	_
20091112_RATP_SCD_0589	28	8	sais	NULL	v	NULL	B_GVfn	ROOT	0	idtext0039	savoir	P#12##s##	spk1	62.83	62.88	0.01	_
20091112_RATP_SCD_0589	28	9	pas	NULL	advneg	NULL	I_GVfn	MOD	8	idtext0039	pas	#####	spk1	62.89	63.01	0.01	_
20091112_RATP_SCD_0589	28	10	si	NULL	csu	NULL	B_NULL	OBJ	8	idtext0039	si	#####	spk1	63.02	63.13	0.01	_
20091112_RATP_SCD_0589	28	11	vous	NULL	cln	NULL	B_GN	SUJ	12	idtext0039	cln	#2##p##	spk1	63.14	63.26	0.01	_
20091112_RATP_SCD_0589	28	12	connaissez	NULL	v	NULL	B_GVf	OBJ	10	idtext0039	connaître	P#2##p##	spk1	63.27	63.7	0.04	_
20091112_RATP_SCD_0589	28	13	c'	NULL	cln	NULL	B_GN	SUJ_IMP	14	idtext0040	ce	###s##	spk1	63.74	63.76	0.01	_
20091112_RATP_SCD_0589	28	14	est	NULL	v	NULL	B_GVf	ROOT	0	idtext0040	être	P#3##s##	spk1	63.77	63.79	0.01	_
20091112_RATP_SCD_0589	28	15	un	NULL	det	NULL	B_GN	DET	17	idtext0040	un	##m#s##i	spk1	63.8	63.83	0.01	_
20091112_RATP_SCD_0589	28	16	petit	NULL	adj	NULL	I_GN	MOD	17	idtext0040	petit	##m#s##	spk1	63.84	63.92	0.01	_
20091112_RATP_SCD_0589	28	17	coin	NULL	nc	NULL	I_GN	ATS	14	idtext0040	coin	##m#s##	spk1	63.93	64.28	0.01	_
20091112_RATP_SCD_0589	28	18	sympa	NULL	adj	NULL	I_GN	MOD	17	idtext0040	sympa	###s##	spk1	64.29	64.85	?	//

20091112_RATP_SCD_0589	29	1	ah+ben	DISF_M	pres	NULL	NULL	NOLINK	0	idtext0041	ah+ben	#####	spk2	63.74	64.3	0.01	_
20091112_RATP_SCD_0589	29	2	moi	NULL	pro	NULL	B_GN	NOLINK	0	idtext0041	moi	#####	spk2	64.31	64.74	0.01	_
20091112_RATP_SCD_0589	29	3	euh	DISF_M	pres	NULL	NULL	NOLINK	0	idtext0041	euh	#####	spk2	64.75	64.85	?	//

20091112_RATP_SCD_0589	30	1	si	DISF_R	adv	NULL	NULL	NOLINK	0	idtext0042	si	#####	spk2	65.17	65.33	0.01	_
20091112_RATP_SCD_0589	30	2	si	NULL	adv	NULL	B_GADV	NOLINK	0	idtext0042	si	#####	spk2	65.34	65.48	0.01	_
20091112_RATP_SCD_0589	30	3	j'	NULL	cln	NULL	B_GN	SUJ	5	idtext0042	cln	#1##s##	spk2	65.49	65.51	0.01	_
20091112_RATP_SCD_0589	30	4	ai	NULL	v	NULL	B_GVf	AUX	5	idtext0042	avoir	P#1##s##	spk2	65.52	65.55	0.01	_
20091112_RATP_SCD_0589	30	5	habité	NULL	vppart	NULL	I_GVf	ROOT	0	idtext0042	habiter	K##m#s##	spk2	65.56	65.9	0.01	_
20091112_RATP_SCD_0589	30	6	là-bas	NULL	adv	NULL	B_GADV	MOD	5	idtext0042	là-bas	#####	spk2	65.91	66.21	?	//

20091112_RATP_SCD_0589	31	1	ah+ben	DISF_M	pres	NULL	NULL	NOLINK	0	idtext0043	ah+ben	#####	spk1	66.27	66.51	0.01	_
20091112_RATP_SCD_0589	31	2	oui	NULL	adv	NULL	B_GADV	MOD	4	idtext0043	oui	#####	spk1	66.52	66.62	0.01	_
20091112_RATP_SCD_0589	31	3	ben	DISF_M	pres	NULL	NULL	NOLINK	0	idtext0043	ben	#####	spk1	66.63	67.0	0.01	_
20091112_RATP_SCD_0589	31	4	alors	NULL	adv	NULL	I_GADV	ROOT	0	idtext0043	alors	#####	spk1	67.01	67.22	0.01	_
20091112_RATP_SCD_0589	31	5	vous	NULL	cln	NULL	B_GN	SUJ	6	idtext0043	cln	#2##p##	spk1	67.23	67.38	0.01	_
20091112_RATP_SCD_0589	31	6	connaissez	NULL	v	NULL	B_GVf	ROOT	0	idtext0043	connaître	P#2##p##	spk1	67.39	67.79	0.01	_
20091112_RATP_SCD_0589	31	7	mieux	NULL	adv	NULL	B_GADV	MOD	6	idtext0043	mieux	#####	spk1	67.8	67.95	0.01	_
20091112_RATP_SCD_0589	31	8	que	NULL	csu	NULL	B_NULL	NOLINK	0	idtext0043	que	#####	spk1	67.96	68.1	0.01	_
20091112_RATP_SCD_0589	31	9	moi	NULL	pro	NULL	B_GN	OBJ	8	idtext0043	moi	#####	spk1	68.11	68.45	?	_

20091112_RATP_SCD_0589	32	1	on	DISF_R	cln	NULL	NULL	NOLINK	0	idtext0044	cln	#3##s##	spk2	66.26	66.28	0.01	_
20091112_RATP_SCD_0589	32	2	a	DISF_R	v	NULL	NULL	NOLINK	0	idtext0044	avoir	P#3##s##	spk2	66.29	66.68	0.01	_
20091112_RATP_SCD_0589	32	3	hab()	DISF_T	tronc	NULL	NULL	NOLINK	0	idtext0044	hab()	#####	spk2	66.69	66.86	0.01	_
20091112_RATP_SCD_0589	32	4	on	NULL	cln	NULL	B_GN	SUJ	6	idtext0044	cln	#3##s##	spk2	66.87	67.0	0.01	_
20091112_RATP_SCD_0589	32	5	a	NULL	v	NULL	B_GVf	AUX	6	idtext0044	avoir	P#3##s##	spk2	67.01	67.1	0.01	_
20091112_RATP_SCD_0589	32	6	habité	NULL	vppart	NULL	I_GVf	ROOT	0	idtext0044	habiter	K##m#s##	spk2	67.11	67.49	0.01	_
20091112_RATP_SCD_0589	32	7	pendant	NULL	prep	NULL	B_GP	MOD	6	idtext0044	pendant	#####	spk2	67.5	67.62	0.01	_
20091112_RATP_SCD_0589	32	8	vingt	NULL	nc	NULL	I_GP	MOD	9	idtext0044	vingt	##m###	spk2	67.63	68.04	0.01	_
20091112_RATP_SCD_0589	32	9	ans	NULL	nc	NULL	I_GP	OBJ	7	idtext0044	an	##m#p##	spk2	68.05	68.14	0.01	_
20091112_RATP_SCD_0589	32	10	là-bas	NULL	adv	NULL	B_GADV	MOD	9	idtext0044	là-bas	#####	spk2	68.15	68.45	?	//

20091112_RATP_SCD_0589	33	1	ouais	NULL	adv	NULL	B_GADV	MOD	2	idtext0045	ouais	#####	spk1	69.02	69.19	0.01	/
20091112_RATP_SCD_0589	33	2	non	NULL	adv	NULL	I_GADV	MOD	3	idtext0045	non	#####	spk1	69.2	69.39	0.01	_
20091112_RATP_SCD_0589	33	3	là	NULL	adv	NULL	I_GADV	ROOT	0	idtext0045	là	#####	spk1	69.4	69.64	0.01	_
20091112_RATP_SCD_0589	33	4	c'	NULL	cln	NULL	B_GN	NOLINK	0	idtext0045	ce	###s##	spk1	69.65	69.74	?	_

20091112_RATP_SCD_0589	34	1	c'	NULL	cln	NULL	B_GN	SUJ_IMP	2	idtext0046	ce	###s##	spk1	69.78	69.8	0.01	_
20091112_RATP_SCD_0589	34	2	est	NULL	v	NULL	B_GVf	ROOT	0	idtext0046	être	P#3##s##	spk1	69.81	70.09	0.01	_
20091112_RATP_SCD_0589	34	3	vous	NULL	cln	NULL	B_GN	SUJ	5	idtext0046	cln	#2##p##	spk1	70.1	70.23	0.01	_
20091112_RATP_SCD_0589	34	4	l'	NULL	clo	NULL	B_GN	OBJ	5	idtext0046	cla	#3##s##	spk1	70.24	70.31	0.01	_
20091112_RATP_SCD_0589	34	5	avez	NULL	v	NULL	B_GVf	ROOT	0	idtext0046	avoir	P#2##p##	spk1	70.32	70.5	0.01	_
20091112_RATP_SCD_0589	34	6	le	NULL	det	NULL	B_GN	DET	7	idtext0046	le	##m#s##d	spk1	70.51	70.53	0.01	_
20091112_RATP_SCD_0589	34	7	numéro	NULL	nc	NULL	I_GN	OBJ	5	idtext0046	numéro	##m#s##	spk1	70.54	70.86	0.01	_
20091112_RATP_SCD_0589	34	8	de	NULL	prep	NULL	B_GP	DEP	7	idtext0046	de	#####	spk1	70.87	70.89	0.01	_
20091112_RATP_SCD_0589	34	9	la	NULL	det	NULL	I_GP	DET	10	idtext0046	le	##m#s##d	spk1	70.9	70.98	0.01	_
20091112_RATP_SCD_0589	34	10	SNCF	NULL	np	B_ORG	I_GP	OBJ	8	idtext0046	SNCF	##f#s##	spk1	70.99	71.85	?	//

20091112_RATP_SCD_0589	35	1	trente-six	NULL	nc	NULL	B_GN	ROOT	0	idtext0047	trente-six	#####	spk2	71.89	72.18	0.01	_
20091112_RATP_SCD_0589	35	2	trente-cinq	NULL	nc	NULL	I_GN	MOD	1	idtext0047	trente-cinq	#####	spk2	72.19	72.61	?	_

20091112_RATP_SCD_0589	36	1	c'	NULL	cln	NULL	B_GN	SUJ_IMP	2	idtext0048	ce	###s##	spk2	72.65	72.79	0.01	_
20091112_RATP_SCD_0589	36	2	est	NULL	v	NULL	B_GVf	ROOT	0	idtext0048	être	P#3##s##	spk2	72.8	73.46	0.01	_
20091112_RATP_SCD_0589	36	3	ça	NULL	pro	NULL	B_GN	ATS	2	idtext0048	ça	#####	spk2	73.47	73.61	0.01	_
20091112_RATP_SCD_0589	36	4	ouais	NULL	adv	NULL	B_GADV	MOD	5	idtext0048	ouais	#####	spk2	73.62	74.03	0.01	_
20091112_RATP_SCD_0589	36	5	en+fait	GREF	adv	NULL	I_GADV	ROOT	0	idtext0048	en+fait	#####	spk2	74.04	74.31	?	//

20091112_RATP_SCD_0589	37	1	ouais	NULL	adv	NULL	B_GADV	NOLINK	0	idtext0049	ouais	#####	spk1	72.65	72.99	0.01	_
20091112_RATP_SCD_0589	37	2	mais	NULL	coo	NULL	B_NULL	ROOT	0	idtext0049	mais	#####	spk1	73.0	73.21	0.01	_
20091112_RATP_SCD_0589	37	3	je	NULL	cln	NULL	B_GN	SUJ	4	idtext0049	cln	#1##s##	spk1	73.22	73.37	0.01	_
20091112_RATP_SCD_0589	37	4	vais	NULL	v	NULL	B_GVf	DEP_COORD	2	idtext0049	aller	P#1##s##	spk1	73.38	73.53	0.01	_
20091112_RATP_SCD_0589	37	5	vous	NULL	clo	NULL	B_GN	A_OBJ	6	idtext0049	cln	#2##p##	spk1	73.54	73.59	0.01	_
20091112_RATP_SCD_0589	37	6	donner	NULL	vinf	NULL	B_GVi	OBJ	4	idtext0049	donner	W#####	spk1	73.6	74.03	0.01	_
20091112_RATP_SCD_0589	37	7	où	NULL	adv	NULL	B_GADV	P_OBJ_LOC	6	idtext0049	où	#####	spk1	74.04	74.31	?	//

20091112_RATP_SCD_0589	38	1	vous	NULL	cln	NULL	B_GN	SUJ	2	idtext0050	cln	#2##p##	spk1	74.35	74.4	0.01	_
20091112_RATP_SCD_0589	38	2	pouvez	NULL	v	NULL	B_GVf	ROOT	0	idtext0050	pouvoir	P#2##p##	spk1	74.41	74.58	0.01	_
20091112_RATP_SCD_0589	38	3	avoir	NULL	vinf	NULL	I_GVf	OBJ	2	idtext0050	avoir	W#####	spk1	74.59	74.82	0.01	_
20091112_RATP_SCD_0589	38	4	quelqu'un	NULL	pro	NULL	B_GN	OBJ	3	idtext0050	quelqu'un	#####	spk1	74.83	75.15	0.01	_
20091112_RATP_SCD_0589	38	5	au	NULL	prep	NULL	B_GP	MOD	4	idtext0050	au	#####	spk1	75.16	75.23	0.01	_
20091112_RATP_SCD_0589	38	6	téléphone	NULL	nc	NULL	I_GP	OBJ	5	idtext0050	téléphone	##m#s##	spk1	75.24	76.16	?	//

20091112_RATP_SCD_0589	39	1	d'accord	NULL	adv	NULL	B_GADV	NOLINK	0	idtext0051	d'accord	#####	spk2	76.25	76.77	?	//

20091112_RATP_SCD_0589	40	1	c'	NULL	cln	NULL	B_GN	SUJ_IMP	2	idtext0052	ce	###s##	spk1	76.25	76.36	0.01	_
20091112_RATP_SCD_0589	40	2	est	NULL	v	NULL	B_GVf	ROOT	0	idtext0052	être	P#3##s##	spk1	76.37	76.72	0.01	_
20091112_RATP_SCD_0589	40	3	l()	DISF_T	tronc	NULL	NULL	NOLINK	0	idtext0052	l()	#####	spk1	76.73	76.77	?	_

20091112_RATP_SCD_0589	41	1	zéro+huit+quatre-vingt-douze	NULL	nc	B_TEL	B_GN	NOLINK	0	idtext0053	zéro+huit+quatre-vingt-douze	#####	spk1	76.81	78.32	?	_

20091112_RATP_SCD_0589	42	1	oui	NULL	adv	NULL	B_GADV	NOLINK	0	idtext0054	oui	#####	spk2	78.72	79.07	?	//

20091112_RATP_SCD_0589	43	1	trente-cinq	NULL	nc	NULL	B_GN	ROOT	0	idtext0055	trente-cinq	#####	spk1	79.11	79.71	0.01	_
20091112_RATP_SCD_0589	43	2	trois	NULL	det	NULL	B_GN	DET	3	idtext0055	trois	#####	spk1	79.72	79.97	0.01	_
20091112_RATP_SCD_0589	43	3	fois	NULL	nc	NULL	I_GN	MOD	1	idtext0055	foi	##f#p##	spk1	79.98	80.32	?	//

20091112_RATP_SCD_0589	44	1	merci	NULL	adv	NULL	B_GADV	NOLINK	0	idtext0056	merci	#####	spk2	80.86	81.72	?	//

20091112_RATP_SCD_0589	45	1	voilà	DISF_M	pres	NULL	NULL	NOLINK	0	idtext0057	voilà	#####	spk1	81.77	82.07	?	//

20091112_RATP_SCD_0589	46	1	ben	DISF_M	pres	NULL	NULL	NOLINK	0	idtext0058	ben	#####	spk2	82.7	82.84	0.01	_
20091112_RATP_SCD_0589	46	2	je	NULL	cln	NULL	B_GN	SUJ	4	idtext0058	cln	#1##s##	spk2	82.85	82.93	0.01	_
20091112_RATP_SCD_0589	46	3	vous	NULL	clo	NULL	B_GN	OBJ	4	idtext0058	cln	#2##p##	spk2	82.94	82.99	0.01	_
20091112_RATP_SCD_0589	46	4	remercie	NULL	v	NULL	B_GVf	ROOT	0	idtext0058	remercier	PS#13##s##	spk2	83.0	83.88	?	//

20091112_RATP_SCD_0589	47	1	bonne	NULL	adj	NULL	B_GN	MOD	4	idtext0059	bon	##f#s##	spk1	82.7	82.84	0.01	_
20091112_RATP_SCD_0589	47	2	jour	NULL	nc	NULL	I_GN	NOLINK	0	idtext0059	jour	##m#s##	spk1	82.85	83.29	0.01	_
20091112_RATP_SCD_0589	47	3	bonne	NULL	adj	NULL	I_GN	MOD	4	idtext0059	bon	##f#s##	spk1	83.3	83.45	0.01	_
20091112_RATP_SCD_0589	47	4	journée	NULL	nc	NULL	B_GN	ROOT	0	idtext0059	journée	##f#s##	spk1	83.46	83.88	?	//

20091112_RATP_SCD_0589	48	1	au+revoir	NULL	adv	NULL	B_GADV	MOD	2	idtext0060	au+revoir	#####	spk1	84.25	84.68	0.01	_
20091112_RATP_SCD_0589	48	2	merci	NULL	adv	NULL	I_GADV	ROOT	0	idtext0060	merci	#####	spk1	84.69	85.13	?	//

20091112_RATP_SCD_0589	49	1	merci	NULL	adv	NULL	B_GADV	MOD	2	idtext0061	merci	#####	spk2	84.23	84.46	0.01	_
20091112_RATP_SCD_0589	49	2	au+revoir	NULL	adv	NULL	I_GADV	ROOT	0	idtext0061	au+revoir	#####	spk2	84.47	85.13	?	//

