20091112_RATP_SCD_0421	1	1	bonjour	NULL	adv	NULL	B_GADV	NOLINK	0	idtext0000	bonjour	#####	spk1	5.18	6.29	1.25	//
20091112_RATP_SCD_0421	1	2	bonjour	NULL	adv	NULL	B_GADV	NOLINK	0	idtext0001	bonjour	#####	spk1	7.54	8.57	?	_

20091112_RATP_SCD_0421	2	1	euh	DISF_M	pres	NULL	NULL	NOLINK	0	idtext0002	euh	#####	spk2	9.35	9.54	0.01	_
20091112_RATP_SCD_0421	2	2	bonjour	NULL	adv	NULL	B_GADV	NOLINK	0	idtext0002	bonjour	#####	spk2	9.55	10.15	0.01	_
20091112_RATP_SCD_0421	2	3	j'	NULL	cln	NULL	B_GN	SUJ	5	idtext0002	cln	#1##s##	spk2	10.16	10.29	0.01	_
20091112_RATP_SCD_0421	2	4	aurais	NULL	v	NULL	B_GVf	AUX	5	idtext0002	avoir	C#12##s##	spk2	10.3	10.51	0.01	_
20091112_RATP_SCD_0421	2	5	voulu	NULL	vppart	NULL	I_GVf	ROOT	0	idtext0002	vouloir	K##m#s##	spk2	10.52	10.8	0.01	_
20091112_RATP_SCD_0421	2	6	savoir	NULL	vinf	NULL	B_GVi	OBJ	5	idtext0002	savoir	W#####	spk2	10.81	11.43	0.01	_
20091112_RATP_SCD_0421	2	7	s'il+vous+plaît	NULL	adv	NULL	B_GADV	MOD	6	idtext0002	s'il+vous+plaît	#####	spk2	11.44	12.12	0.30	_
20091112_RATP_SCD_0421	2	8	le	NULL	det	NULL	B_GN	DET	9	idtext0003	le	##m#s##d	spk2	12.42	12.65	0.01	_
20091112_RATP_SCD_0421	2	9	prix	NULL	nc	NULL	I_GN	ROOT	0	idtext0003	prix	##m###	spk2	12.66	13.61	0.01	_
20091112_RATP_SCD_0421	2	10	euh	DISF_M	pres	NULL	NULL	NOLINK	0	idtext0003	euh	#####	spk2	13.62	13.88	0.01	_
20091112_RATP_SCD_0421	2	11	d'	NULL	prep	NULL	B_GP	DEP	9	idtext0003	d'	#####	spk2	13.89	13.93	0.01	_
20091112_RATP_SCD_0421	2	12	un	NULL	det	NULL	I_GP	DEP	9	idtext0003	un	##m#s##i	spk2	13.94	14.71	0.01	_
20091112_RATP_SCD_0421	2	13	ticket	NULL	nc	NULL	I_GP	DEP	9	idtext0003	ticket	##m#s##	spk2	14.72	15.47	0.01	_
20091112_RATP_SCD_0421	2	14	Orsay-Ville	NULL	nc	B_A	B_GN	DEP	9	idtext0003	Orsay-Ville	#####	spk2	15.48	16.75	0.01	_
20091112_RATP_SCD_0421	2	15	Paris	NULL	nc	B_A	I_GN	MOD	14	idtext0003	Paris	##m#s##	spk2	16.76	17.37	?	//

20091112_RATP_SCD_0421	3	1	Orsay-Ville	NULL	nc	B_A	B_GN	ROOT	0	idtext0004	Orsay-Ville	#####	spk1	17.61	18.22	0.01	_
20091112_RATP_SCD_0421	3	2	Paris	NULL	nc	B_A	I_GN	MOD	1	idtext0004	Paris	##m#s##	spk1	18.23	18.87	?	//

20091112_RATP_SCD_0421	4	1	je	NULL	cln	NULL	B_GN	NOLINK	0	idtext0005	cln	#1##s##	spk1	19.32	19.39	0.01	_
20091112_RATP_SCD_0421	4	2	vous	NULL	clo	NULL	B_GN	NOLINK	0	idtext0005	cln	#2##p##	spk1	19.4	19.48	?	_

20091112_RATP_SCD_0421	5	1	oui	NULL	adv	NULL	B_GADV	NOLINK	0	idtext0006	oui	#####	spk2	19.26	19.48	?	//

20091112_RATP_SCD_0421	6	1	je	NULL	cln	NULL	B_GN	SUJ	2	idtext0007	cln	#1##s##	spk1	19.52	19.63	0.01	_
20091112_RATP_SCD_0421	6	2	regarde	NULL	v	NULL	B_GVf	ROOT	0	idtext0007	regarder	PS#13##s##	spk1	19.64	19.91	0.01	_
20091112_RATP_SCD_0421	6	3	madame	NULL	nc	NULL	B_GN	NOLINK	0	idtext0007	Monsieur	##f#s##	spk1	19.92	20.14	0.01	_
20091112_RATP_SCD_0421	6	4	ne	NULL	clneg	NULL	B_GVfn	MOD	5	idtext0007	ne	#####	spk1	20.15	20.19	0.01	_
20091112_RATP_SCD_0421	6	5	quittez	NULL	v	NULL	I_GVfn	ROOT	0	idtext0007	quitter	P#2##p##	spk1	20.2	20.37	0.01	_
20091112_RATP_SCD_0421	6	6	pas	NULL	advneg	NULL	I_GVfn	MOD	5	idtext0007	pas	#####	spk1	20.38	20.58	?	_

20091112_RATP_SCD_0421	7	1	hm	DISF_M	pres	NULL	NULL	NOLINK	0	idtext0008	hm	#####	spk2	21.06	21.23	?	//

20091112_RATP_SCD_0421	8	1	s'il+vous+plaît	NULL	adv	NULL	B_GADV	NOLINK	0	idtext0009	s'il+vous+plaît	#####	spk1	32.45	33.46	?	//

20091112_RATP_SCD_0421	9	1	oui	NULL	adv	NULL	B_GADV	NOLINK	0	idtext0010	oui	#####	spk2	33.95	34.25	?	//

20091112_RATP_SCD_0421	10	1	Orsay-Ville	NULL	nc	B_A	B_GN	ROOT	0	idtext0011	Orsay-Ville	#####	spk1	34.37	35.02	0.01	_
20091112_RATP_SCD_0421	10	2	Paris	NULL	nc	B_A	I_GN	MOD	1	idtext0011	Paris	##m#s##	spk1	35.03	35.4	0.01	_
20091112_RATP_SCD_0421	10	3	plein	NULL	adj	NULL	B_GN	MOD	4	idtext0011	plein	##m#s##	spk1	35.41	35.61	0.01	_
20091112_RATP_SCD_0421	10	4	tarif	NULL	nc	NULL	I_GN	MOD	1	idtext0011	tarif	##m#s##	spk1	35.62	36.06	0.01	_
20091112_RATP_SCD_0421	10	5	aller	NULL	vinf	NULL	B_GVi	ROOT	0	idtext0011	aller	W#####	spk1	36.07	36.28	0.01	_
20091112_RATP_SCD_0421	10	6	simple	NULL	adj	NULL	B_GN	MOD	8	idtext0011	simple	###s##	spk1	36.29	36.69	0.01	//
20091112_RATP_SCD_0421	10	7	trois	NULL	det	B_P	I_GN	DET	8	idtext0011	trois	#####	spk1	36.7	36.9	0.01	_
20091112_RATP_SCD_0421	10	8	euros	NULL	nc	I_P	I_GN	OBJ	5	idtext0011	euro	##m#p##	spk1	36.91	37.16	0.01	_
20091112_RATP_SCD_0421	10	9	soixante-dix	NULL	adj	I_P	I_GN	MOD	8	idtext0011	soixante-dix	#####	spk1	37.17	37.95	?	//

20091112_RATP_SCD_0421	11	1	et	NULL	coo	NULL	B_NULL	ROOT	0	idtext0012	et	#####	spk2	39.97	40.32	0.01	_
20091112_RATP_SCD_0421	11	2	Bourg-la-Reine	NULL	nc	B_A	B_GN	DEP_COORD	1	idtext0012	Bourg-la-Reine	##m#s##	spk2	40.33	41.05	0.01	_
20091112_RATP_SCD_0421	11	3	Paris	NULL	nc	B_A	I_GN	MOD	2	idtext0012	Paris	##m#s##	spk2	41.06	41.39	0.05	_
20091112_RATP_SCD_0421	11	4	s'	NULL	csu	NULL	B_NULL	OBJ	6	idtext0013	se	#3##p##	spk2	41.44	41.54	0.01	_
20091112_RATP_SCD_0421	11	5	il	NULL	cln	NULL	B_GN	OBJ	4	idtext0013	cln	#3#m#s##	spk2	41.55	41.6	0.01	_
20091112_RATP_SCD_0421	11	6	vous	NULL	clo	NULL	B_GN	ROOT	0	idtext0013	cln	#2##p##	spk2	41.61	41.74	?	_

20091112_RATP_SCD_0421	12	1	plaît	NULL	v	NULL	B_GVf	NOLINK	0	idtext0014	plaire	P#3##s##	spk2	41.78	42.05	?	//

20091112_RATP_SCD_0421	13	1	Bourg	NULL	np	NULL	B_GN	NOLINK	0	idtext0015	Bourg	##m#s##	spk1	41.78	42.05	?	//

20091112_RATP_SCD_0421	14	1	Bourg-la-Reine	NULL	nc	B_A	B_GN	ROOT	0	idtext0016	Bourg-la-Reine	##m#s##	spk1	42.09	42.64	0.01	_
20091112_RATP_SCD_0421	14	2	Paris	NULL	nc	B_A	I_GN	MOD	1	idtext0016	Paris	##m#s##	spk1	42.65	42.94	0.01	/
20091112_RATP_SCD_0421	14	3	vous	NULL	cln	NULL	B_GN	SUJ	4	idtext0016	cln	#2##p##	spk1	42.95	43.05	0.01	_
20091112_RATP_SCD_0421	14	4	patientez	NULL	v	NULL	B_GVf	ROOT	0	idtext0016	patienter	P#2##p##	spk1	43.06	43.52	0.01	_
20091112_RATP_SCD_0421	14	5	je	NULL	cln	NULL	B_GN	SUJ	6	idtext0016	cln	#1##s##	spk1	43.53	43.6	0.01	_
20091112_RATP_SCD_0421	14	6	regarde	NULL	v	NULL	B_GVf	ROOT	0	idtext0016	regarder	PS#13##s##	spk1	43.61	43.84	0.01	_
20091112_RATP_SCD_0421	14	7	madame	NULL	nc	NULL	B_GN	NOLINK	0	idtext0016	Monsieur	##f#s##	spk1	43.85	44.04	?	//

20091112_RATP_SCD_0421	15	1	oui	NULL	adv	NULL	B_GADV	NOLINK	0	idtext0017	oui	#####	spk2	44.4	44.82	?	//

20091112_RATP_SCD_0421	16	1	s'il+vous+plaît	NULL	adv	NULL	B_GADV	NOLINK	0	idtext0018	s'il+vous+plaît	#####	spk1	69.19	69.83	?	//

20091112_RATP_SCD_0421	17	1	oui	NULL	adv	NULL	B_GADV	NOLINK	0	idtext0019	oui	#####	spk2	70.37	70.7	?	//

20091112_RATP_SCD_0421	18	1	Bourg-la-Reine	NULL	nc	B_A	B_GN	ROOT	0	idtext0020	Bourg-la-Reine	##m#s##	spk1	70.74	71.42	0.01	_
20091112_RATP_SCD_0421	18	2	Paris	NULL	nc	B_A	I_GN	MOD	1	idtext0020	Paris	##m#s##	spk1	71.43	71.78	0.01	_
20091112_RATP_SCD_0421	18	3	deux	NULL	det	B_P	B_GN	DET	4	idtext0020	deux	#####	spk1	71.79	72.04	0.01	_
20091112_RATP_SCD_0421	18	4	euros	NULL	nc	I_P	I_GN	MOD	2	idtext0020	euro	##m#p##	spk1	72.05	72.23	0.01	_
20091112_RATP_SCD_0421	18	5	vingt-cinq	NULL	adj	I_P	I_GN	MOD	4	idtext0020	vingt-cinq	#####	spk1	72.24	72.75	0.01	/
20091112_RATP_SCD_0421	18	6	plein	NULL	adj	NULL	B_GN	MOD	7	idtext0020	plein	##m#s##	spk1	72.76	72.89	0.01	_
20091112_RATP_SCD_0421	18	7	tarif	NULL	nc	NULL	I_GN	MOD	4	idtext0020	tarif	##m#s##	spk1	72.9	73.28	0.01	_
20091112_RATP_SCD_0421	18	8	aller	NULL	vinf	NULL	B_GVi	MOD_REL	2	idtext0020	aller	W#####	spk1	73.29	73.43	0.01	_
20091112_RATP_SCD_0421	18	9	simple	NULL	adj	NULL	B_GADJ	MOD	8	idtext0020	simple	###s##	spk1	73.44	73.83	?	//

20091112_RATP_SCD_0421	19	1	je	NULL	cln	NULL	B_GN	SUJ	3	idtext0021	cln	#1##s##	spk2	74.91	75.19	0.01	_
20091112_RATP_SCD_0421	19	2	vous	NULL	clo	NULL	B_GN	OBJ	3	idtext0021	cln	#2##p##	spk2	75.2	75.37	0.01	_
20091112_RATP_SCD_0421	19	3	remercie	NULL	v	NULL	B_GVf	ROOT	0	idtext0021	remercier	PS#13##s##	spk2	75.38	75.89	?	//

20091112_RATP_SCD_0421	20	1	vous	NULL	clo	NULL	B_GN	OBJ	3	idtext0022	cln	#2##p##	spk1	75.94	76.19	0.01	_
20091112_RATP_SCD_0421	20	2	en	NULL	clo	NULL	B_GN	DE_OBJ	3	idtext0022	en	#####	spk1	76.2	76.28	0.01	_
20091112_RATP_SCD_0421	20	3	prie	NULL	v	NULL	B_GVf	ROOT	0	idtext0022	prier	PS#13##s##	spk1	76.29	76.57	?	//

20091112_RATP_SCD_0421	21	1	bonne	NULL	adj	NULL	B_GN	MOD	2	idtext0023	bon	##f#s##	spk1	76.61	76.85	0.01	_
20091112_RATP_SCD_0421	21	2	journée	NULL	nc	NULL	I_GN	ROOT	0	idtext0023	journée	##f#s##	spk1	76.86	77.33	0.01	_
20091112_RATP_SCD_0421	21	3	au+revoir	NULL	adv	NULL	B_GADV	NOLINK	0	idtext0023	au+revoir	#####	spk1	77.34	77.77	?	//

20091112_RATP_SCD_0421	22	1	bonne	NULL	adj	NULL	B_GN	MOD	2	idtext0024	bon	##f#s##	spk2	76.61	76.85	0.01	_
20091112_RATP_SCD_0421	22	2	journée	NULL	nc	NULL	I_GN	ROOT	0	idtext0024	journée	##f#s##	spk2	76.86	77.33	0.01	_
20091112_RATP_SCD_0421	22	3	au+revoir	NULL	adv	NULL	B_GADV	NOLINK	0	idtext0024	au+revoir	#####	spk2	77.34	77.77	?	//

