20091112_RATP_SCD_0514	1	1	NNAAMMEE	NULL	np	B_HU	B_GN	ROOT	0	idtext0000	ANONYM	NULL	spk1	2.92	3.28	0.01	/
20091112_RATP_SCD_0514	1	2	va	NULL	v	NULL	B_GVf	ROOT	0	idtext0001	aller	P#3##s##	spk1	3.29	3.34	0.01	_
20091112_RATP_SCD_0514	1	3	vous	NULL	clo	NULL	B_GN	A_OBJ	4	idtext0001	cln	#2##p##	spk1	3.35	3.4	0.01	_
20091112_RATP_SCD_0514	1	4	répondre	NULL	vinf	NULL	B_GVi	OBJ	2	idtext0001	répondre	W#####	spk1	3.41	4.99	?	//

20091112_RATP_SCD_0514	2	1	euh	DISF_M	pres	NULL	NULL	NOLINK	0	idtext0002	euh	#####	spk2	5.86	6.27	0.01	_
20091112_RATP_SCD_0514	2	2	oui	NULL	adv	NULL	B_GADV	MOD	3	idtext0002	oui	#####	spk2	6.28	6.52	0.01	_
20091112_RATP_SCD_0514	2	3	bonjour	NULL	adv	NULL	I_GADV	ROOT	0	idtext0002	bonjour	#####	spk2	6.53	7.21	?	//

20091112_RATP_SCD_0514	3	1	bonjour	NULL	adv	NULL	B_GADV	NOLINK	0	idtext0003	bonjour	#####	spk3	7.25	7.45	0.01	_
20091112_RATP_SCD_0514	3	2	madame	NULL	nc	NULL	B_GN	NOLINK	0	idtext0003	Monsieur	##f#s##	spk3	7.46	7.69	?	//

20091112_RATP_SCD_0514	4	1	euh	DISF_M	pres	NULL	NULL	NOLINK	0	idtext0004	euh	#####	spk2	8.03	8.31	0.01	_
20091112_RATP_SCD_0514	4	2	j'	NULL	cln	NULL	B_GN	SUJ	4	idtext0004	cln	#1##s##	spk2	8.32	8.43	0.01	_
20091112_RATP_SCD_0514	4	3	ai	NULL	v	NULL	B_GVf	AUX	4	idtext0004	avoir	P#1##s##	spk2	8.44	8.52	0.01	_
20091112_RATP_SCD_0514	4	4	perdu	NULL	vppart	NULL	I_GVf	ROOT	0	idtext0004	perdre	K##m#s##	spk2	8.53	8.88	0.01	_
20091112_RATP_SCD_0514	4	5	mon	NULL	det	NULL	B_GN	DET	6	idtext0005	mon	###s##o	spk2	8.89	8.97	0.01	_
20091112_RATP_SCD_0514	4	6	passe	NULL	nc	NULL	I_GN	OBJ	4	idtext0005	passe	###s##	spk2	8.98	9.75	0.73	//
20091112_RATP_SCD_0514	4	7	euh	DISF_M	pres	NULL	NULL	NOLINK	0	idtext0006	euh	#####	spk2	10.48	10.92	0.01	_
20091112_RATP_SCD_0514	4	8	c'	NULL	cln	NULL	B_GN	SUJ_IMP	9	idtext0006	ce	###s##	spk2	10.93	10.95	0.01	_
20091112_RATP_SCD_0514	4	9	était	NULL	v	NULL	B_GVf	ROOT	0	idtext0006	être	I#3##s##	spk2	10.96	11.2	0.01	_
20091112_RATP_SCD_0514	4	10	un	NULL	det	NULL	B_GN	DET	11	idtext0006	un	##m#s##i	spk2	11.21	11.31	0.01	_
20091112_RATP_SCD_0514	4	11	passe	NULL	nc	B_PRD	I_GN	ATS	9	idtext0006	passe	###s##	spk2	11.32	11.8	0.01	_
20091112_RATP_SCD_0514	4	12	euh	DISF_M	pres	I_PRD	NULL	NOLINK	0	idtext0006	euh	#####	spk2	11.81	11.87	0.01	_
20091112_RATP_SCD_0514	4	13	Navigo	NULL	np	I_PRD	I_GN	MOD	11	idtext0006	Navigo	#####	spk2	11.88	12.51	0.01	_
20091112_RATP_SCD_0514	4	14	euh	DISF_M	pres	I_PRD	NULL	NOLINK	0	idtext0006	euh	#####	spk2	12.52	12.73	0.01	_
20091112_RATP_SCD_0514	4	15	annuel	NULL	adj	NULL	I_GN	MOD	11	idtext0006	annuel	##m#s##	spk2	12.74	13.26	0.01	_
20091112_RATP_SCD_0514	4	16	donc	NULL	coo	NULL	B_NULL	NOLINK	0	idtext0006	donc	#####	spk2	13.27	13.82	?	//

20091112_RATP_SCD_0514	5	1	hm	DISF_M	pres	NULL	NULL	NOLINK	0	idtext0007	hm	#####	spk3	13.86	14.09	?	//

20091112_RATP_SCD_0514	6	1	et	DISF_R	coo	NULL	NULL	NOLINK	0	idtext0008	et	#####	spk2	14.68	15.56	0.01	_
20091112_RATP_SCD_0514	6	2	et+donc	NULL	coo	NULL	B_NULL	ROOT	0	idtext0008	et+donc	#####	spk2	15.57	15.94	0.01	_
20091112_RATP_SCD_0514	6	3	euh	DISF_M	pres	NULL	NULL	NOLINK	0	idtext0008	euh	#####	spk2	15.95	16.12	0.01	_
20091112_RATP_SCD_0514	6	4	je	NULL	cln	NULL	B_GN	SUJ	5	idtext0008	cln	#1##s##	spk2	16.13	16.31	0.01	_
20091112_RATP_SCD_0514	6	5	pense	NULL	v	NULL	B_GVf	DEP_COORD	2	idtext0008	penser	PS#13##s##	spk2	16.32	16.46	0.01	_
20091112_RATP_SCD_0514	6	6	qu'	NULL	csu	NULL	B_NULL	OBJ	5	idtext0008	qu'	#####	spk2	16.47	16.58	0.01	_
20091112_RATP_SCD_0514	6	7	on	DISF_R	cln	NULL	NULL	NOLINK	0	idtext0008	cln	#3##s##	spk2	16.59	16.65	0.01	_
20091112_RATP_SCD_0514	6	8	peut	DISF_R	v	NULL	NULL	NOLINK	0	idtext0008	pouvoir	P#3##s##	spk2	16.66	17.09	0.01	_
20091112_RATP_SCD_0514	6	9	on	NULL	cln	NULL	B_GN	SUJ_IMP	10	idtext0008	cln	#3##s##	spk2	17.1	17.21	0.01	_
20091112_RATP_SCD_0514	6	10	peut	NULL	v	NULL	B_GVf	OBJ	6	idtext0008	pouvoir	P#3##s##	spk2	17.22	17.35	0.01	_
20091112_RATP_SCD_0514	6	11	le	NULL	clo	NULL	B_GN	OBJ	12	idtext0008	cla	#3#m#s##	spk2	17.36	17.41	0.01	_
20091112_RATP_SCD_0514	6	12	remplacer	NULL	vinf	NULL	B_GVi	OBJ	10	idtext0008	remplacer	W#####	spk2	17.42	17.96	0.01	_
20091112_RATP_SCD_0514	6	13	c'	NULL	cln	NULL	B_GN	SUJ_IMP	14	idtext0008	ce	###s##	spk2	17.97	18.02	0.01	_
20091112_RATP_SCD_0514	6	14	est	NULL	v	NULL	B_GVf	ROOT	0	idtext0008	être	P#3##s##	spk2	18.03	18.21	0.01	_
20091112_RATP_SCD_0514	6	15	ça	NULL	pro	NULL	B_GN	ATS	14	idtext0008	ça	#####	spk2	18.22	18.46	?	_

20091112_RATP_SCD_0514	7	1	tout+à+fait	NULL	adv	NULL	B_GADV	NOLINK	0	idtext0009	tout+à+fait	#####	spk3	18.53	18.85	0.01	_
20091112_RATP_SCD_0514	7	2	vous	NULL	cln	NULL	B_GN	SUJ	3	idtext0009	cln	#2##p##	spk3	18.86	19.0	0.01	_
20091112_RATP_SCD_0514	7	3	allez	NULL	v	NULL	B_GVf	ROOT	0	idtext0009	aller	P#2##p##	spk3	19.01	19.14	0.01	_
20091112_RATP_SCD_0514	7	4	dans	NULL	prep	NULL	B_GP	P_OBJ_LOC	3	idtext0009	dans	#####	spk3	19.15	19.33	0.01	_
20091112_RATP_SCD_0514	7	5	une	NULL	det	NULL	I_GP	DET	6	idtext0009	un	##f#s##i	spk3	19.34	19.45	0.01	_
20091112_RATP_SCD_0514	7	6	agence	NULL	nc	B_ORG	I_GP	OBJ	4	idtext0009	agence	##f#s##	spk3	19.46	19.8	0.01	_
20091112_RATP_SCD_0514	7	7	Intégrale	NULL	np	I_ORG	I_GP	MOD	6	idtext0009	Intégrale	#####	spk3	19.81	20.52	?	//

20091112_RATP_SCD_0514	8	1	oui	NULL	adv	NULL	B_GADV	NOLINK	0	idtext0010	oui	#####	spk2	20.95	21.25	?	//

20091112_RATP_SCD_0514	9	1	il	NULL	cln	NULL	B_GN	SUJ_IMP	4	idtext0011	cln	#3#m#s##	spk3	20.9	21.0	0.01	_
20091112_RATP_SCD_0514	9	2	y	NULL	clo	NULL	B_GN	AFF	4	idtext0011	y	#####	spk3	21.01	21.03	0.01	_
20091112_RATP_SCD_0514	9	3	en	NULL	clo	NULL	B_GN	OBJ	4	idtext0011	en	#####	spk3	21.04	21.06	0.01	_
20091112_RATP_SCD_0514	9	4	a	NULL	v	NULL	B_GVf	ROOT	0	idtext0011	avoir	P#3##s##	spk3	21.07	21.13	0.01	_
20091112_RATP_SCD_0514	9	5	dans	NULL	prep	NULL	B_NULL	MOD	4	idtext0011	dans	#####	spk3	21.14	21.25	?	_

20091112_RATP_SCD_0514	10	1	toutes+les	NULL	det	NULL	B_GN	DET	3	idtext0012	toutes+les	#####	spk3	21.29	21.59	0.01	_
20091112_RATP_SCD_0514	10	2	grandes	NULL	adj	NULL	I_GN	MOD	3	idtext0012	grand	##f#p##	spk3	21.6	21.8	0.01	_
20091112_RATP_SCD_0514	10	3	gares	NULL	nc	NULL	I_GN	ROOT	0	idtext0012	gare	##f#p##	spk3	21.81	22.06	0.01	_
20091112_RATP_SCD_0514	10	4	à	NULL	prep	NULL	B_GP	MOD	3	idtext0012	à	#####	spk3	22.07	22.13	0.01	_
20091112_RATP_SCD_0514	10	5	Paris	NULL	nc	B_A	I_GP	OBJ	4	idtext0012	Paris	##m#s##	spk3	22.14	22.56	0.36	//
20091112_RATP_SCD_0514	10	6	et	NULL	coo	NULL	B_NULL	ROOT	0	idtext0013	et	#####	spk3	22.92	22.99	0.01	_
20091112_RATP_SCD_0514	10	7	là	NULL	adv	NULL	B_GADV	NOLINK	0	idtext0013	là	#####	spk3	23.0	23.07	0.01	_
20091112_RATP_SCD_0514	10	8	ils	NULL	cln	NULL	B_GN	SUJ	9	idtext0013	cln	#3#m#p##	spk3	23.08	23.13	0.01	_
20091112_RATP_SCD_0514	10	9	vont	NULL	v	NULL	B_GVf	DEP_COORD	6	idtext0013	aller	P#3##p##	spk3	23.14	23.26	0.01	_
20091112_RATP_SCD_0514	10	10	vous	NULL	clo	NULL	B_GN	A_OBJ	12	idtext0013	cln	#2##p##	spk3	23.27	23.38	0.01	_
20091112_RATP_SCD_0514	10	11	le	NULL	clo	NULL	B_GN	OBJ	12	idtext0013	cla	#3#m#s##	spk3	23.39	23.41	0.01	_
20091112_RATP_SCD_0514	10	12	changer	NULL	vinf	NULL	B_GVi	OBJ	9	idtext0013	changer	W#####	spk3	23.42	23.93	0.01	_
20091112_RATP_SCD_0514	10	13	sur	NULL	prep	NULL	B_GP	MOD	12	idtext0013	sur	#####	spk3	23.94	24.05	0.01	_
20091112_RATP_SCD_0514	10	14	place	NULL	nc	NULL	I_GP	OBJ	13	idtext0013	place	##f#s##	spk3	24.06	24.45	?	//

20091112_RATP_SCD_0514	11	1	d'accord	NULL	adv	NULL	B_GADV	NOLINK	0	idtext0014	d'accord	#####	spk2	24.95	25.89	?	//

20091112_RATP_SCD_0514	12	1	euh	DISF_M	pres	NULL	NULL	NOLINK	0	idtext0015	euh	#####	spk2	26.11	27.08	0.01	_
20091112_RATP_SCD_0514	12	2	d'autre+part	NULL	adv	NULL	B_GADV	NOLINK	0	idtext0015	d'autre+part	#####	spk2	27.09	27.52	0.01	_
20091112_RATP_SCD_0514	12	3	je	NULL	cln	NULL	B_GN	SUJ	4	idtext0015	cln	#1##s##	spk2	27.53	27.55	0.01	_
20091112_RATP_SCD_0514	12	4	voulais	NULL	v	NULL	B_GVf	ROOT	0	idtext0015	vouloir	I#12##s##	spk2	27.56	27.68	0.01	_
20091112_RATP_SCD_0514	12	5	savoir	NULL	vinf	NULL	I_GVf	OBJ	4	idtext0015	savoir	W#####	spk2	27.69	27.86	0.01	_
20091112_RATP_SCD_0514	12	6	combien+de	NULL	det	NULL	B_GN	DET	7	idtext0015	combien+de	#####	spk2	27.87	28.37	0.01	_
20091112_RATP_SCD_0514	12	7	fois	NULL	nc	NULL	I_GN	OBJ	5	idtext0015	foi	##f#p##	spk2	28.38	28.6	0.01	_
20091112_RATP_SCD_0514	12	8	on	DISF_R	cln	NULL	NULL	NOLINK	0	idtext0015	cln	#3##s##	spk2	28.61	29.52	0.01	_
20091112_RATP_SCD_0514	12	9	on	DISF_R	cln	NULL	NULL	NOLINK	0	idtext0015	cln	#3##s##	spk2	29.53	30.56	0.01	_
20091112_RATP_SCD_0514	12	10	on	NULL	cln	NULL	B_GN	SUJ	11	idtext0015	cln	#3##s##	spk2	30.57	30.77	0.01	_
20091112_RATP_SCD_0514	12	11	a	NULL	v	NULL	B_GVf	OBJ	7	idtext0015	avoir	P#3##s##	spk2	30.78	30.82	0.01	_
20091112_RATP_SCD_0514	12	12	le	NULL	det	NULL	B_GN	DET	13	idtext0015	le	##m#s##d	spk2	30.83	30.86	0.01	_
20091112_RATP_SCD_0514	12	13	droit	NULL	nc	NULL	I_GN	OBJ	11	idtext0015	droit	##m#s##	spk2	30.87	31.06	0.01	_
20091112_RATP_SCD_0514	12	14	de	NULL	prep	NULL	B_GP	DEP	13	idtext0015	de	#####	spk2	31.07	31.14	0.01	_
20091112_RATP_SCD_0514	12	15	le	NULL	clo	NULL	I_GP	OBJ	16	idtext0015	cla	#3#m#s##	spk2	31.15	31.17	0.01	_
20091112_RATP_SCD_0514	12	16	perdre	NULL	vinf	NULL	B_GVi	OBJ	14	idtext0015	perdre	W#####	spk2	31.18	31.45	0.01	//
20091112_RATP_SCD_0514	12	17	parce+que	NULL	csu	NULL	B_NULL	MOD	11	idtext0015	parce+que	#####	spk2	31.46	31.6	0.01	_
20091112_RATP_SCD_0514	12	18	je	NULL	cln	NULL	B_GN	SUJ	19	idtext0015	cln	#1##s##	spk2	31.61	31.64	0.01	_
20091112_RATP_SCD_0514	12	19	suis	NULL	v	NULL	B_GVf	OBJ	17	idtext0015	être	P#1##s##	spk2	31.65	31.74	0.01	_
20091112_RATP_SCD_0514	12	20	un+peu	NULL	adv	NULL	B_GADJ	MOD	21	idtext0015	un+peu	#####	spk2	31.75	31.87	0.01	_
20091112_RATP_SCD_0514	12	21	inquiète	NULL	adj	NULL	I_GADJ	ATS	19	idtext0015	inquiet	##f#s##	spk2	31.88	32.32	0.01	_
20091112_RATP_SCD_0514	12	22	je	NULL	cln	NULL	B_GN	SUJ	23	idtext0015	cln	#1##s##	spk2	32.33	32.35	0.01	_
20091112_RATP_SCD_0514	12	23	viens	NULL	v	NULL	B_GVf	ROOT	0	idtext0015	venir	P#12##s##	spk2	32.36	32.45	0.01	_
20091112_RATP_SCD_0514	12	24	de	NULL	prep	NULL	B_GP	OBJ	23	idtext0015	de	#####	spk2	32.46	32.48	0.01	_
20091112_RATP_SCD_0514	12	25	l'	NULL	clo	NULL	I_GP	OBJ	26	idtext0015	cla	#3##s##	spk2	32.49	32.53	0.01	_
20091112_RATP_SCD_0514	12	26	acheter	NULL	vinf	NULL	B_GVi	OBJ	24	idtext0015	acheter	W#####	spk2	32.54	32.86	0.01	_
20091112_RATP_SCD_0514	12	27	quasiment	NULL	adv	NULL	B_GADV	MOD	24	idtext0015	quasiment	#####	spk2	32.87	33.64	0.94	_
20091112_RATP_SCD_0514	12	28	donc	NULL	coo	NULL	B_NULL	NOLINK	0	idtext0016	donc	#####	spk2	34.58	34.93	0.01	_
20091112_RATP_SCD_0514	12	29	euh	DISF_M	pres	NULL	NULL	NOLINK	0	idtext0016	euh	#####	spk2	34.94	35.75	?	//

20091112_RATP_SCD_0514	13	1	voilà	DISF_M	pres	NULL	NULL	NOLINK	0	idtext0017	voilà	#####	spk3	35.79	35.94	0.01	_
20091112_RATP_SCD_0514	13	2	vous	NULL	cln	NULL	B_GN	SUJ	5	idtext0017	cln	#2##p##	spk3	35.95	36.0	0.01	_
20091112_RATP_SCD_0514	13	3	l'	NULL	clo	NULL	B_GN	OBJ	5	idtext0017	cla	#3##s##	spk3	36.01	36.03	0.01	_
20091112_RATP_SCD_0514	13	4	avez	NULL	v	NULL	B_GVf	AUX	5	idtext0017	avoir	P#2##p##	spk3	36.04	36.13	0.01	_
20091112_RATP_SCD_0514	13	5	perdu	NULL	vppart	NULL	I_GVf	ROOT	0	idtext0017	perdre	K##m#s##	spk3	36.14	36.28	0.01	/
20091112_RATP_SCD_0514	13	6	c'	NULL	cln	NULL	B_GN	SUJ_IMP	7	idtext0017	ce	###s##	spk3	36.29	36.31	0.01	_
20091112_RATP_SCD_0514	13	7	est	NULL	v	NULL	B_GVf	ROOT	0	idtext0017	être	P#3##s##	spk3	36.32	36.34	0.01	_
20091112_RATP_SCD_0514	13	8	la	NULL	det	NULL	B_GN	DET	10	idtext0017	le	##m#s##d	spk3	36.35	36.4	0.01	_
20091112_RATP_SCD_0514	13	9	première	NULL	adj	NULL	I_GN	MOD	10	idtext0017	premier	##f#s##	spk3	36.41	36.67	0.01	_
20091112_RATP_SCD_0514	13	10	fois	NULL	nc	NULL	I_GN	ATS	7	idtext0017	foi	##f#p##	spk3	36.68	36.79	0.01	_
20091112_RATP_SCD_0514	13	11	que	NULL	csu	NULL	B_NULL	OBJ	10	idtext0017	que	#####	spk3	36.8	36.82	0.01	_
20091112_RATP_SCD_0514	13	12	vous	NULL	cln	NULL	B_GN	SUJ	14	idtext0017	cln	#2##p##	spk3	36.83	36.91	0.01	_
20091112_RATP_SCD_0514	13	13	le	NULL	clo	NULL	B_GN	OBJ	14	idtext0017	cla	#3#m#s##	spk3	36.92	36.97	0.01	_
20091112_RATP_SCD_0514	13	14	perdez	NULL	v	NULL	B_GVf	OBJ	11	idtext0017	perdre	P#2##p##	spk3	36.98	37.45	?	//

20091112_RATP_SCD_0514	14	1	oui	NULL	adv	NULL	B_GADV	NOLINK	0	idtext0018	oui	#####	spk2	37.67	38.03	?	//

20091112_RATP_SCD_0514	15	1	ah	DISF_M	pres	NULL	NULL	NOLINK	0	idtext0019	ah	#####	spk3	38.18	38.25	0.01	_
20091112_RATP_SCD_0514	15	2	non	NULL	adv	NULL	B_GADV	NOLINK	0	idtext0019	non	#####	spk3	38.26	38.36	0.01	_
20091112_RATP_SCD_0514	15	3	mais	NULL	coo	NULL	B_NULL	ROOT	0	idtext0019	mais	#####	spk3	38.37	38.5	0.01	_
20091112_RATP_SCD_0514	15	4	il	NULL	cln	NULL	B_GN	SUJ_IMP	6	idtext0020	cln	#3#m#s##	spk3	38.51	38.56	0.01	_
20091112_RATP_SCD_0514	15	5	y	NULL	clo	NULL	B_GN	AFF	6	idtext0020	y	#####	spk3	38.57	38.59	0.01	_
20091112_RATP_SCD_0514	15	6	a	NULL	v	NULL	B_GVfn	DEP_COORD	3	idtext0020	avoir	P#3##s##	spk3	38.6	38.62	0.01	_
20091112_RATP_SCD_0514	15	7	pas	NULL	advneg	NULL	I_GVfn	MOD	6	idtext0020	pas	#####	spk3	38.63	38.68	0.01	_
20091112_RATP_SCD_0514	15	8	de	NULL	det	NULL	B_GN	DET	9	idtext0020	de	###p##i	spk3	38.69	38.71	0.01	_
20091112_RATP_SCD_0514	15	9	problème	NULL	nc	NULL	I_GN	OBJ	6	idtext0020	problème	##m#s##	spk3	38.72	39.15	?	//

20091112_RATP_SCD_0514	16	1	euh	DISF_M	pres	NULL	NULL	NOLINK	0	idtext0021	euh	#####	spk3	39.27	39.52	0.01	_
20091112_RATP_SCD_0514	16	2	je	NULL	cln	NULL	B_GN	SUJ	3	idtext0021	cln	#1##s##	spk3	39.53	39.76	0.01	_
20091112_RATP_SCD_0514	16	3	crois	NULL	v	NULL	B_GVf	ROOT	0	idtext0021	croire	P#12##s##	spk3	39.77	40.01	0.01	_
20091112_RATP_SCD_0514	16	4	qu'	NULL	csu	NULL	B_NULL	OBJ	3	idtext0021	qu'	#####	spk3	40.02	40.04	0.01	_
20091112_RATP_SCD_0514	16	5	au+bout+de	NULL	prep	NULL	B_NULL	OBJ	4	idtext0021	au+bout+de	#####	spk3	40.05	40.51	?	_

20091112_RATP_SCD_0514	17	1	il	NULL	cln	NULL	B_GN	SUJ_IMP	3	idtext0022	cln	#3#m#s##	spk2	39.27	39.32	0.01	_
20091112_RATP_SCD_0514	17	2	y	NULL	clo	NULL	B_GN	AFF	3	idtext0022	y	#####	spk2	39.33	39.35	0.01	_
20091112_RATP_SCD_0514	17	3	a	NULL	v	NULL	B_GVfn	ROOT	0	idtext0022	avoir	P#3##s##	spk2	39.36	39.4	0.01	_
20091112_RATP_SCD_0514	17	4	pas	NULL	advneg	NULL	I_GVfn	MOD	3	idtext0022	pas	#####	spk2	39.41	39.46	0.01	_
20091112_RATP_SCD_0514	17	5	de	NULL	det	NULL	B_GN	DET	6	idtext0022	de	###p##i	spk2	39.47	39.76	0.01	_
20091112_RATP_SCD_0514	17	6	problème	NULL	nc	NULL	I_GN	OBJ	3	idtext0022	problème	##m#s##	spk2	39.77	40.51	?	//

20091112_RATP_SCD_0514	18	1	deux	NULL	nc	NULL	B_GN	ROOT	0	idtext0023	deux	##m###	spk3	40.56	40.65	0.01	_
20091112_RATP_SCD_0514	18	2	ou	NULL	coo	NULL	B_NULL	COORD	1	idtext0023	ou	#####	spk3	40.66	40.75	0.01	_
20091112_RATP_SCD_0514	18	3	trois	NULL	adj	NULL	B_GN	MOD	4	idtext0023	trois	#####	spk3	40.76	40.97	0.01	_
20091112_RATP_SCD_0514	18	4	fois	NULL	nc	NULL	I_GN	DEP_COORD	2	idtext0023	foi	##f#p##	spk3	40.98	41.21	0.01	_
20091112_RATP_SCD_0514	18	5	oui	NULL	adv	NULL	B_GADV	MOD	6	idtext0023	oui	#####	spk3	41.22	41.38	0.01	_
20091112_RATP_SCD_0514	18	6	après	NULL	adv	NULL	I_GADV	ROOT	0	idtext0023	après	#####	spk3	41.39	41.84	0.01	_
20091112_RATP_SCD_0514	18	7	il	NULL	cln	NULL	B_GN	SUJ	10	idtext0023	cln	#3#m#s##	spk3	41.85	41.92	0.01	_
20091112_RATP_SCD_0514	18	8	y	NULL	clo	NULL	B_GN	P_OBJ_LOC	10	idtext0023	y	#####	spk3	41.93	41.95	0.01	_
20091112_RATP_SCD_0514	18	9	ça	NULL	pro	NULL	B_GN	SUJ_IMP	10	idtext0023	ça	#####	spk3	41.96	42.1	0.01	_
20091112_RATP_SCD_0514	18	10	peut	NULL	v	NULL	B_GVf	ROOT	0	idtext0023	pouvoir	P#3##s##	spk3	42.11	42.2	0.01	_
20091112_RATP_SCD_0514	18	11	poser	NULL	vinf	NULL	I_GVf	OBJ	10	idtext0023	poser	W#####	spk3	42.21	42.39	0.01	_
20091112_RATP_SCD_0514	18	12	problème	NULL	nc	NULL	B_GN	OBJ	10	idtext0023	problème	##m#s##	spk3	42.4	42.91	0.36	/
20091112_RATP_SCD_0514	18	13	mais	NULL	coo	NULL	B_NULL	ROOT	0	idtext0024	mais	#####	spk3	43.27	43.35	0.01	_
20091112_RATP_SCD_0514	18	14	si	NULL	csu	NULL	B_NULL	ROOT	0	idtext0024	si	#####	spk3	43.36	43.48	0.01	_
20091112_RATP_SCD_0514	18	15	c'	NULL	cln	NULL	B_GN	SUJ_IMP	16	idtext0024	ce	###s##	spk3	43.49	43.51	0.01	_
20091112_RATP_SCD_0514	18	16	est	NULL	v	NULL	B_GVf	OBJ	14	idtext0024	être	P#3##s##	spk3	43.52	43.54	0.01	_
20091112_RATP_SCD_0514	18	17	la	NULL	det	NULL	B_GN	DET	19	idtext0024	le	##m#s##d	spk3	43.55	43.62	0.01	_
20091112_RATP_SCD_0514	18	18	première	NULL	adj	NULL	I_GN	MOD	19	idtext0024	premier	##f#s##	spk3	43.63	43.89	0.01	_
20091112_RATP_SCD_0514	18	19	fois	NULL	nc	NULL	I_GN	ATS	16	idtext0024	foi	##f#p##	spk3	43.9	43.99	0.01	_
20091112_RATP_SCD_0514	18	20	que	NULL	csu	NULL	B_NULL	OBJ	19	idtext0024	que	#####	spk3	44.0	44.02	0.01	_
20091112_RATP_SCD_0514	18	21	vous	NULL	cln	NULL	B_GN	SUJ	23	idtext0024	cln	#2##p##	spk3	44.03	44.11	0.01	_
20091112_RATP_SCD_0514	18	22	le	NULL	clo	NULL	B_GN	OBJ	23	idtext0024	cla	#3#m#s##	spk3	44.12	44.18	0.01	_
20091112_RATP_SCD_0514	18	23	perdez	NULL	v	NULL	B_GVf	OBJ	20	idtext0024	perdre	P#2##p##	spk3	44.19	44.45	0.01	_
20091112_RATP_SCD_0514	18	24	c'	NULL	cln	NULL	B_GN	SUJ_IMP	25	idtext0024	ce	###s##	spk3	44.46	44.54	0.01	_
20091112_RATP_SCD_0514	18	25	est	NULL	v	NULL	B_GVfn	DEP_COORD	13	idtext0024	être	P#3##s##	spk3	44.55	44.58	0.01	_
20091112_RATP_SCD_0514	18	26	pas	NULL	advneg	NULL	I_GVfn	MOD	25	idtext0024	pas	#####	spk3	44.59	44.77	0.01	_
20091112_RATP_SCD_0514	18	27	euh	DISF_M	pres	NULL	NULL	NOLINK	0	idtext0024	euh	#####	spk3	44.78	44.85	0.01	_
20091112_RATP_SCD_0514	18	28	c'	NULL	cln	NULL	B_GN	SUJ_IMP	29	idtext0024	ce	###s##	spk3	44.86	44.95	0.01	_
20091112_RATP_SCD_0514	18	29	est	NULL	v	NULL	B_GVf	ROOT	0	idtext0024	être	P#3##s##	spk3	44.96	45.31	0.01	_
20091112_RATP_SCD_0514	18	30	il	NULL	cln	NULL	B_GN	SUJ_IMP	32	idtext0024	cln	#3#m#s##	spk3	45.32	45.39	0.01	_
20091112_RATP_SCD_0514	18	31	y	NULL	clo	NULL	B_GN	AFF	32	idtext0024	y	#####	spk3	45.4	45.44	0.01	_
20091112_RATP_SCD_0514	18	32	a	NULL	v	NULL	B_GVfn	ATS	29	idtext0024	avoir	P#3##s##	spk3	45.45	45.47	0.01	_
20091112_RATP_SCD_0514	18	33	pas	NULL	advneg	NULL	I_GVfn	MOD	32	idtext0024	pas	#####	spk3	45.48	45.53	0.01	_
20091112_RATP_SCD_0514	18	34	de	NULL	det	NULL	B_GN	DET	35	idtext0024	de	###p##i	spk3	45.54	45.61	0.01	_
20091112_RATP_SCD_0514	18	35	problème	NULL	nc	NULL	I_GN	OBJ	32	idtext0024	problème	##m#s##	spk3	45.62	45.94	0.01	_
20091112_RATP_SCD_0514	18	36	hein	DISF_M	pres	NULL	NULL	NOLINK	0	idtext0024	hein	#####	spk3	45.95	45.99	?	//

20091112_RATP_SCD_0514	19	1	bon+ben	DISF_M	pres	NULL	NULL	NOLINK	0	idtext0025	bon+ben	#####	spk2	46.06	46.26	0.01	_
20091112_RATP_SCD_0514	19	2	j'	NULL	cln	NULL	B_GN	SUJ	3	idtext0025	cln	#1##s##	spk2	46.27	46.29	0.01	_
20091112_RATP_SCD_0514	19	3	espère	NULL	v	NULL	B_GVf	ROOT	0	idtext0025	espérer	PS#13##s##	spk2	46.3	46.56	0.01	_
20091112_RATP_SCD_0514	19	4	qu'	NULL	csu	NULL	B_NULL	OBJ	3	idtext0025	qu'	#####	spk2	46.57	46.63	0.01	_
20091112_RATP_SCD_0514	19	5	il	NULL	cln	NULL	B_GN	SUJ	8	idtext0025	cln	#3#m#s##	spk2	46.64	46.7	0.01	_
20091112_RATP_SCD_0514	19	6	y	NULL	clo	NULL	B_GN	AFF	8	idtext0025	y	#####	spk2	46.71	46.73	0.01	_
20091112_RATP_SCD_0514	19	7	en	NULL	clo	NULL	B_GN	OBJ	8	idtext0025	en	#####	spk2	46.74	46.76	0.01	_
20091112_RATP_SCD_0514	19	8	aura	NULL	v	NULL	B_GVfn	OBJ	4	idtext0025	avoir	F#3##s##	spk2	46.77	46.86	0.01	_
20091112_RATP_SCD_0514	19	9	pas	NULL	advneg	NULL	I_GVfn	MOD	8	idtext0025	pas	#####	spk2	46.87	47.0	0.01	_
20091112_RATP_SCD_0514	19	10	d'	NULL	det	NULL	B_GN	DET	11	idtext0025	de	###p##i	spk2	47.01	47.07	0.01	_
20091112_RATP_SCD_0514	19	11	autres	NULL	pro	NULL	I_GN	OBJ	8	idtext0025	autres	#####	spk2	47.08	47.22	?	_

20091112_RATP_SCD_0514	20	1	euh	DISF_M	pres	NULL	NULL	NOLINK	0	idtext0026	euh	#####	spk2	47.58	47.94	0.01	_
20091112_RATP_SCD_0514	20	2	et	NULL	coo	NULL	B_NULL	ROOT	0	idtext0026	et	#####	spk2	47.95	48.16	0.01	_
20091112_RATP_SCD_0514	20	3	c'	NULL	cln	NULL	B_GN	SUJ_IMP	4	idtext0026	ce	###s##	spk2	48.17	48.21	0.01	_
20091112_RATP_SCD_0514	20	4	est	NULL	v	NULL	B_GVfn	DEP_COORD	2	idtext0026	être	P#3##s##	spk2	48.22	48.29	0.01	_
20091112_RATP_SCD_0514	20	5	pas	NULL	advneg	NULL	I_GVfn	MOD	4	idtext0026	pas	#####	spk2	48.3	48.42	0.01	_
20091112_RATP_SCD_0514	20	6	possible	NULL	adj	NULL	B_GADJ	ATS	4	idtext0026	possible	###s##	spk2	48.43	48.85	0.01	_
20091112_RATP_SCD_0514	20	7	éventuellement	NULL	adv	NULL	B_GADV	MOD	4	idtext0026	éventuellement	#####	spk2	48.86	49.38	0.01	_
20091112_RATP_SCD_0514	20	8	de	NULL	prep	NULL	B_GP	DEP	6	idtext0026	de	#####	spk2	49.39	49.48	0.01	_
20091112_RATP_SCD_0514	20	9	le	NULL	clo	NULL	I_GP	OBJ	10	idtext0026	cla	#3#m#s##	spk2	49.49	49.52	0.01	_
20091112_RATP_SCD_0514	20	10	convertir	NULL	vinf	NULL	B_GVi	OBJ	8	idtext0026	convertir	W#####	spk2	49.53	50.28	0.01	_
20091112_RATP_SCD_0514	20	11	en	DISF_R	prep	NULL	NULL	NOLINK	0	idtext0026	en	#####	spk2	50.29	51.09	0.01	_
20091112_RATP_SCD_0514	20	12	en	NULL	prep	NULL	B_GP	P_OBJ	8	idtext0026	en	#####	spk2	51.1	51.23	0.01	_
20091112_RATP_SCD_0514	20	13	carte	NULL	nc	NULL	I_GP	OBJ	12	idtext0026	carte	##f#s##	spk2	51.24	51.64	0.01	_
20091112_RATP_SCD_0514	20	14	euh	DISF_M	pres	NULL	NULL	NOLINK	0	idtext0026	euh	#####	spk2	51.65	51.7	0.01	_
20091112_RATP_SCD_0514	20	15	mensuelle	NULL	adj	NULL	I_GP	MOD	13	idtext0026	mensuel	##f#s##	spk2	51.71	52.4	?	//

20091112_RATP_SCD_0514	21	1	ah+ben	DISF_M	pres	NULL	NULL	NOLINK	0	idtext0027	ah+ben	#####	spk3	52.77	52.98	0.01	/
20091112_RATP_SCD_0514	21	2	si	NULL	csu	NULL	B_NULL	ROOT	0	idtext0027	si	#####	spk3	52.99	53.16	0.01	_
20091112_RATP_SCD_0514	21	3	vous	NULL	cln	NULL	B_GN	SUJ	4	idtext0027	cln	#2##p##	spk3	53.17	53.33	0.01	_
20091112_RATP_SCD_0514	21	4	allez	NULL	v	NULL	B_GVf	OBJ	2	idtext0027	aller	P#2##p##	spk3	53.34	53.47	0.01	_
20091112_RATP_SCD_0514	21	5	en	NULL	prep	NULL	B_GP	P_OBJ	4	idtext0027	en	#####	spk3	53.48	53.58	0.01	_
20091112_RATP_SCD_0514	21	6	agence	NULL	nc	NULL	I_GP	OBJ	5	idtext0027	agence	##f#s##	spk3	53.59	54.11	?	//

20091112_RATP_SCD_0514	22	1	oui	NULL	adv	NULL	B_GADV	NOLINK	0	idtext0028	oui	#####	spk2	54.5	54.81	?	//

20091112_RATP_SCD_0514	23	1	vous	NULL	cln	NULL	B_GN	SUJ	3	idtext0029	cln	#2##p##	spk3	54.85	54.9	0.01	_
20091112_RATP_SCD_0514	23	2	leur	NULL	clo	NULL	B_GN	A_OBJ	3	idtext0029	leur	#####	spk3	54.91	55.04	0.01	_
20091112_RATP_SCD_0514	23	3	dites	NULL	v	NULL	B_GVf	ROOT	0	idtext0029	dire	P#2##p##	spk3	55.05	55.21	0.01	_
20091112_RATP_SCD_0514	23	4	que	NULL	csu	NULL	B_NULL	OBJ	3	idtext0029	que	#####	spk3	55.22	55.28	0.01	_
20091112_RATP_SCD_0514	23	5	vous	NULL	cln	NULL	B_GN	SUJ	6	idtext0029	cln	#2##p##	spk3	55.29	55.42	0.01	_
20091112_RATP_SCD_0514	23	6	avez	NULL	v	NULL	B_GVf	OBJ	4	idtext0029	avoir	P#2##p##	spk3	55.43	55.55	0.01	_
20091112_RATP_SCD_0514	23	7	un	NULL	det	NULL	B_GN	DET	8	idtext0029	un	##m#s##i	spk3	55.56	55.64	0.01	_
20091112_RATP_SCD_0514	23	8	passe	NULL	nc	B_PRD	I_GN	OBJ	6	idtext0029	passe	###s##	spk3	55.65	55.87	0.01	_
20091112_RATP_SCD_0514	23	9	Intégrale	NULL	np	I_PRD	I_GN	MOD	8	idtext0029	Intégrale	#####	spk3	55.88	56.31	0.01	_
20091112_RATP_SCD_0514	23	10	ils	NULL	cln	NULL	B_GN	SUJ	11	idtext0029	cln	#3#m#p##	spk3	56.32	56.38	0.01	_
20091112_RATP_SCD_0514	23	11	vont	NULL	v	NULL	B_GVf	ROOT	0	idtext0029	aller	P#3##p##	spk3	56.39	56.52	0.01	_
20091112_RATP_SCD_0514	23	12	vous	NULL	clo	NULL	B_GN	OBJ	13	idtext0029	cln	#2##p##	spk3	56.53	56.63	0.01	_
20091112_RATP_SCD_0514	23	13	retrouver	NULL	vinf	NULL	B_GVi	OBJ	11	idtext0029	retrouver	W#####	spk3	56.64	57.31	0.10	_
20091112_RATP_SCD_0514	23	14	sur	NULL	prep	NULL	B_GP	ROOT	0	idtext0030	sur	#####	spk3	57.41	57.49	0.01	_
20091112_RATP_SCD_0514	23	15	ordinateur	NULL	nc	NULL	I_GP	OBJ	14	idtext0030	ordinateur	##m#s##	spk3	57.5	58.23	?	//

20091112_RATP_SCD_0514	24	1	oui	NULL	adv	NULL	B_GADV	NOLINK	0	idtext0031	oui	#####	spk2	58.51	58.87	?	//

20091112_RATP_SCD_0514	25	1	et	NULL	coo	NULL	B_NULL	ROOT	0	idtext0032	et	#####	spk3	58.91	58.93	0.01	_
20091112_RATP_SCD_0514	25	2	à+ce+moment-là	NULL	adv	NULL	B_GADV	NOLINK	0	idtext0032	à+ce+moment-là	#####	spk3	58.94	59.18	0.01	_
20091112_RATP_SCD_0514	25	3	vous	NULL	cln	NULL	B_GN	SUJ	5	idtext0032	cln	#2##p##	spk3	59.19	59.29	0.01	_
20091112_RATP_SCD_0514	25	4	leur	NULL	clo	NULL	B_GN	A_OBJ	5	idtext0032	leur	#####	spk3	59.3	59.45	0.01	_
20091112_RATP_SCD_0514	25	5	dites	NULL	v	NULL	B_GVf	DEP_COORD	1	idtext0032	dire	P#2##p##	spk3	59.46	59.6	0.01	_
20091112_RATP_SCD_0514	25	6	que	NULL	csu	NULL	B_NULL	OBJ	5	idtext0032	que	#####	spk3	59.61	59.66	0.01	_
20091112_RATP_SCD_0514	25	7	vous	NULL	cln	NULL	B_GN	SUJ	8	idtext0032	cln	#2##p##	spk3	59.67	59.74	0.01	_
20091112_RATP_SCD_0514	25	8	voulez	NULL	v	NULL	B_GVf	OBJ	6	idtext0032	vouloir	P#2##p##	spk3	59.75	59.96	0.01	_
20091112_RATP_SCD_0514	25	9	le	NULL	clo	NULL	B_GN	OBJ	10	idtext0032	cla	#3#m#s##	spk3	59.97	60.08	0.01	_
20091112_RATP_SCD_0514	25	10	résilier	NULL	vinf	NULL	B_GVi	OBJ	8	idtext0032	résilier	W#####	spk3	60.09	60.82	?	//

20091112_RATP_SCD_0514	26	1	et	NULL	coo	NULL	B_NULL	ROOT	0	idtext0033	et	#####	spk3	61.47	61.51	0.01	_
20091112_RATP_SCD_0514	26	2	à	NULL	prep	NULL	B_NULL	DEP_COORD	1	idtext0033	à	#####	spk3	61.52	61.57	0.01	_
20091112_RATP_SCD_0514	26	3	la	NULL	det	NULL	B_NULL	OBJ	2	idtext0033	le	##m#s##d	spk3	61.58	61.77	?	_

20091112_RATP_SCD_0514	27	1	oui	NULL	adv	NULL	B_GADV	NOLINK	0	idtext0034	oui	#####	spk2	61.37	61.77	?	//

20091112_RATP_SCD_0514	28	1	place	NULL	nc	NULL	B_GN	NOLINK	0	idtext0035	place	##f#s##	spk3	61.81	61.97	0.01	_
20091112_RATP_SCD_0514	28	2	vous	NULL	cln	NULL	B_GN	SUJ	3	idtext0035	cln	#2##p##	spk3	61.98	62.06	0.01	_
20091112_RATP_SCD_0514	28	3	faites	NULL	v	NULL	B_GVf	ROOT	0	idtext0035	faire	P#2##p##	spk3	62.07	62.28	0.01	_
20091112_RATP_SCD_0514	28	4	un	NULL	det	NULL	B_GN	DET	5	idtext0035	un	##m#s##i	spk3	62.29	62.35	0.01	_
20091112_RATP_SCD_0514	28	5	passe+Navigo	NULL	np	B_PRD	I_GN	OBJ	3	idtext0035	passe+Navigo	#####	spk3	62.36	63.22	0.01	_
20091112_RATP_SCD_0514	28	6	mensuel	NULL	adj	NULL	I_GN	MOD	5	idtext0035	mensuel	##m#s##	spk3	63.23	63.72	0.01	_
20091112_RATP_SCD_0514	28	7	passe+Navigo	NULL	np	B_PRD	B_GN	OBJ	3	idtext0035	passe+Navigo	#####	spk3	63.73	64.26	0.01	_
20091112_RATP_SCD_0514	28	8	Orange	NULL	np	I_PRD	I_GN	MOD	7	idtext0035	Orange	##m#s##	spk3	64.27	65.01	?	//

20091112_RATP_SCD_0514	29	1	hm+hm	DISF_M	pres	NULL	NULL	NOLINK	0	idtext0036	hm+hm	#####	spk2	65.32	65.7	?	//

20091112_RATP_SCD_0514	30	1	par+contre	NULL	adv	NULL	B_GADV	NOLINK	0	idtext0037	par+contre	#####	spk3	65.74	66.05	0.01	_
20091112_RATP_SCD_0514	30	2	il	NULL	cln	NULL	B_GN	SUJ_IMP	4	idtext0037	cln	#3#m#s##	spk3	66.06	66.11	0.01	_
20091112_RATP_SCD_0514	30	3	vous	NULL	clo	NULL	B_GN	A_OBJ	4	idtext0037	cln	#2##p##	spk3	66.12	66.21	0.01	_
20091112_RATP_SCD_0514	30	4	faudra	NULL	v	NULL	B_GVf	ROOT	0	idtext0038	falloir	F#3##s##	spk3	66.22	66.55	0.01	_
20091112_RATP_SCD_0514	30	5	apporter	NULL	vinf	NULL	I_GVf	OBJ	4	idtext0038	apporter	W#####	spk3	66.56	67.18	0.01	_
20091112_RATP_SCD_0514	30	6	une	NULL	det	NULL	B_GN	DET	7	idtext0038	un	##f#s##i	spk3	67.19	67.33	0.01	_
20091112_RATP_SCD_0514	30	7	pièce	NULL	nc	NULL	I_GN	OBJ	5	idtext0038	pièce	##f#s##	spk3	67.34	67.5	0.01	_
20091112_RATP_SCD_0514	30	8	d'	NULL	prep	NULL	B_GP	DEP	7	idtext0038	d'	#####	spk3	67.51	67.53	0.01	_
20091112_RATP_SCD_0514	30	9	identité	NULL	nc	NULL	I_GP	OBJ	8	idtext0038	identité	##f#s##	spk3	67.54	68.41	?	//

20091112_RATP_SCD_0514	31	1	oui	NULL	adv	NULL	B_GADV	NOLINK	0	idtext0039	oui	#####	spk2	68.89	69.13	?	//

20091112_RATP_SCD_0514	32	1	et	NULL	coo	NULL	B_NULL	ROOT	0	idtext0040	et	#####	spk3	69.23	69.3	0.01	_
20091112_RATP_SCD_0514	32	2	un	NULL	det	NULL	B_GN	DET	3	idtext0040	un	##m#s##i	spk3	69.31	69.37	0.01	_
20091112_RATP_SCD_0514	32	3	justificatif	NULL	nc	NULL	I_GN	DEP_COORD	1	idtext0040	justificatif	##m#s##	spk3	69.38	70.4	0.01	_
20091112_RATP_SCD_0514	32	4	d'	NULL	prep	NULL	B_GP	DEP	3	idtext0040	d'	#####	spk3	70.41	70.51	0.01	_
20091112_RATP_SCD_0514	32	5	adresse	NULL	nc	NULL	I_GP	OBJ	4	idtext0040	adresse	##f#s##	spk3	70.52	70.86	0.01	/
20091112_RATP_SCD_0514	32	6	en	NULL	prep	NULL	B_GP	P_OBJ_LOC	5	idtext0040	en	#####	spk3	70.87	70.91	0.01	_
20091112_RATP_SCD_0514	32	7	Île-de-France	NULL	nc	B_A	I_GP	OBJ	6	idtext0040	Île-de-France	#####	spk3	70.92	71.64	?	//

20091112_RATP_SCD_0514	33	1	d'accord	NULL	adv	NULL	B_GADV	NOLINK	0	idtext0041	d'accord	#####	spk2	72.1	72.73	?	//

20091112_RATP_SCD_0514	34	1	d'accord	NULL	adv	NULL	B_GADV	NOLINK	0	idtext0042	d'accord	#####	spk3	72.77	73.28	?	//

20091112_RATP_SCD_0514	35	1	d'accord	NULL	adv	NULL	B_GADV	NOLINK	0	idtext0043	d'accord	#####	spk2	73.48	74.07	?	//

20091112_RATP_SCD_0514	36	1	c'	NULL	cln	NULL	B_GN	SUJ_IMP	2	idtext0044	ce	###s##	spk3	74.36	74.46	0.01	_
20091112_RATP_SCD_0514	36	2	est	NULL	v	NULL	B_GVf	ROOT	0	idtext0044	être	P#3##s##	spk3	74.47	74.52	?	//

20091112_RATP_SCD_0514	37	1	bon+ben	DISF_M	pres	NULL	NULL	NOLINK	0	idtext0045	bon+ben	#####	spk2	74.56	74.75	0.01	_
20091112_RATP_SCD_0514	37	2	je	NULL	cln	NULL	B_GN	SUJ	4	idtext0045	cln	#1##s##	spk2	74.76	74.84	0.01	_
20091112_RATP_SCD_0514	37	3	vous	NULL	clo	NULL	B_GN	OBJ	4	idtext0045	cln	#2##p##	spk2	74.85	74.9	0.01	_
20091112_RATP_SCD_0514	37	4	remercie	NULL	v	NULL	B_GVf	ROOT	0	idtext0045	remercier	PS#13##s##	spk2	74.91	75.35	?	//

20091112_RATP_SCD_0514	38	1	je	NULL	cln	NULL	B_GN	SUJ	4	idtext0046	cln	#1##s##	spk3	75.39	75.41	0.01	_
20091112_RATP_SCD_0514	38	2	vous	NULL	clo	NULL	B_GN	OBJ	4	idtext0046	cln	#2##p##	spk3	75.42	75.48	0.01	_
20091112_RATP_SCD_0514	38	3	en	NULL	clo	NULL	B_GN	DE_OBJ	4	idtext0046	en	#####	spk3	75.49	75.54	0.01	_
20091112_RATP_SCD_0514	38	4	prie	NULL	v	NULL	B_GVf	ROOT	0	idtext0046	prier	PS#13##s##	spk3	75.55	75.64	0.01	_
20091112_RATP_SCD_0514	38	5	madame	NULL	nc	NULL	B_GN	NOLINK	0	idtext0046	Monsieur	##f#s##	spk3	75.65	75.88	?	//

20091112_RATP_SCD_0514	39	1	bonne	NULL	adj	NULL	B_GN	MOD	2	idtext0047	bon	##f#s##	spk3	75.92	76.07	0.01	_
20091112_RATP_SCD_0514	39	2	journée	NULL	nc	NULL	I_GN	ROOT	0	idtext0047	journée	##f#s##	spk3	76.08	76.32	?	//

20091112_RATP_SCD_0514	40	1	au+revoir	NULL	adv	NULL	B_GADV	NOLINK	0	idtext0048	au+revoir	#####	spk2	75.92	76.32	?	//

20091112_RATP_SCD_0514	41	1	au+revoir	NULL	adv	NULL	B_GADV	NOLINK	0	idtext0049	au+revoir	#####	spk3	76.36	76.86	?	//

