20091112_RATP_SCD_0170	1	1	NNAAMMEE	NULL	np	B_HU	B_GN	ROOT	0	idtext0000	ANONYM	NULL	spk1	7.61	7.8	0.04	_
20091112_RATP_SCD_0170	1	2	bonjour	NULL	adv	NULL	B_GADV	NOLINK	0	idtext0001	bonjour	#####	spk1	7.84	8.36	?	//

20091112_RATP_SCD_0170	2	1	oui	NULL	adv	NULL	B_GADV	MOD	2	idtext0002	oui	#####	spk2	9.09	9.41	0.01	_
20091112_RATP_SCD_0170	2	2	bonjour	NULL	adv	NULL	I_GADV	ROOT	0	idtext0002	bonjour	#####	spk2	9.42	9.59	0.01	_
20091112_RATP_SCD_0170	2	3	madame	NULL	nc	NULL	B_GN	NOLINK	0	idtext0002	Monsieur	##f#s##	spk2	9.6	10.05	0.01	_
20091112_RATP_SCD_0170	2	4	c'	NULL	cln	NULL	B_GN	SUJ_IMP	5	idtext0002	ce	###s##	spk2	10.06	10.09	0.01	_
20091112_RATP_SCD_0170	2	5	est	NULL	v	NULL	B_GVf	ROOT	0	idtext0002	être	P#3##s##	spk2	10.1	10.27	0.01	_
20091112_RATP_SCD_0170	2	6	madame	NULL	nc	NULL	B_GN	ATS	5	idtext0002	Monsieur	##f#s##	spk2	10.28	10.58	0.31	_
20091112_RATP_SCD_0170	2	7	NNAAMMEE	NULL	np	B_HU	B_GN	ROOT	0	idtext0003	ANONYM	NULL	spk2	10.89	11.08	?	_

20091112_RATP_SCD_0170	3	1	oui	NULL	adv	NULL	B_GADV	NOLINK	0	idtext0004	oui	#####	spk1	11.14	11.44	?	//

20091112_RATP_SCD_0170	4	1	oui	NULL	adv	NULL	B_GADV	NOLINK	0	idtext0005	oui	#####	spk2	11.7	11.98	0.01	_
20091112_RATP_SCD_0170	4	2	je	NULL	cln	NULL	B_GN	SUJ	4	idtext0005	cln	#1##s##	spk2	11.99	12.02	0.01	_
20091112_RATP_SCD_0170	4	3	vous	NULL	clo	NULL	B_GN	A_OBJ	4	idtext0005	cln	#2##p##	spk2	12.03	12.13	0.01	_
20091112_RATP_SCD_0170	4	4	téléphone	NULL	v	NULL	B_GVf	ROOT	0	idtext0005	téléphoner	PS#13##s##	spk2	12.14	12.62	0.01	_
20091112_RATP_SCD_0170	4	5	j'	NULL	cln	NULL	B_GN	SUJ	6	idtext0005	cln	#1##s##	spk2	12.63	12.69	0.01	_
20091112_RATP_SCD_0170	4	6	ai	NULL	v	NULL	B_GVf	ROOT	0	idtext0005	avoir	P#1##s##	spk2	12.7	12.76	0.01	_
20091112_RATP_SCD_0170	4	7	la	NULL	det	NULL	B_GN	DET	8	idtext0005	le	##m#s##d	spk2	12.77	12.86	0.01	_
20091112_RATP_SCD_0170	4	8	référence	NULL	nc	NULL	I_GN	OBJ	6	idtext0005	référence	##f#s##	spk2	12.87	13.35	0.01	_
20091112_RATP_SCD_0170	4	9	de	NULL	prep	NULL	B_GP	DEP	8	idtext0005	de	#####	spk2	13.36	13.46	0.01	_
20091112_RATP_SCD_0170	4	10	dossier	NULL	nc	NULL	I_GP	OBJ	9	idtext0005	dossier	##m#s##	spk2	13.47	14.13	0.97	//
20091112_RATP_SCD_0170	4	11	alors	NULL	adv	NULL	B_GADV	NOLINK	0	idtext0006	alors	#####	spk2	15.1	15.38	0.01	_
20091112_RATP_SCD_0170	4	12	deux+cent+soixante	NULL	nc	NULL	B_GN	ROOT	0	idtext0006	deux+cent+soixante	#####	spk2	15.39	16.47	?	//

20091112_RATP_SCD_0170	5	1	quinze	NULL	nc	NULL	B_GN	NOLINK	0	idtext0007	quinze	##m###	spk2	16.51	17.76	?	_

20091112_RATP_SCD_0170	6	1	c'	NULL	cln	NULL	B_GN	SUJ_IMP	2	idtext0008	ce	###s##	spk1	16.51	16.53	0.01	_
20091112_RATP_SCD_0170	6	2	est	NULL	v	NULL	B_GVf	ROOT	0	idtext0008	être	P#3##s##	spk1	16.54	16.6	0.01	_
20091112_RATP_SCD_0170	6	3	à	NULL	prep	NULL	B_GP	ATS	2	idtext0008	à	#####	spk1	16.61	16.74	0.01	_
20091112_RATP_SCD_0170	6	4	quel	NULL	det	NULL	I_GP	DET	5	idtext0008	quel	##m#s##	spk1	16.75	17.11	0.01	_
20091112_RATP_SCD_0170	6	5	sujet	NULL	nc	NULL	I_GP	OBJ	3	idtext0008	sujet	##m#s##	spk1	17.12	17.41	0.01	_
20091112_RATP_SCD_0170	6	6	madame	NULL	nc	NULL	I_GP	NOLINK	0	idtext0008	Monsieur	##f#s##	spk1	17.42	17.76	?	//

20091112_RATP_SCD_0170	7	1	euh	DISF_M	pres	NULL	NULL	NOLINK	0	idtext0009	euh	#####	spk2	17.8	18.35	0.04	_
20091112_RATP_SCD_0170	7	2	c'	NULL	cln	NULL	B_GN	SUJ_IMP	3	idtext0010	ce	###s##	spk2	18.39	18.41	0.01	_
20091112_RATP_SCD_0170	7	3	est	NULL	v	NULL	B_GVf	ROOT	0	idtext0010	être	P#3##s##	spk2	18.42	18.52	0.01	_
20091112_RATP_SCD_0170	7	4	parce+que	NULL	csu	NULL	B_NULL	MOD	3	idtext0010	parce+que	#####	spk2	18.53	18.81	0.01	_
20091112_RATP_SCD_0170	7	5	mon	NULL	det	NULL	B_GN	DET	6	idtext0010	mon	###s##o	spk2	18.82	19.02	0.01	_
20091112_RATP_SCD_0170	7	6	fils	NULL	nc	NULL	I_GN	SUJ	9	idtext0010	fil	##m#p##	spk2	19.03	19.2	0.01	_
20091112_RATP_SCD_0170	7	7	il	NULL	cln	NULL	B_GN	SUJ	9	idtext0010	cln	#3#m#s##	spk2	19.21	19.34	0.01	_
20091112_RATP_SCD_0170	7	8	a	NULL	v	NULL	B_GVf	AUX	9	idtext0010	avoir	P#3##s##	spk2	19.35	19.41	0.01	_
20091112_RATP_SCD_0170	7	9	oublié	NULL	vppart	NULL	I_GVf	OBJ	4	idtext0010	oublier	K##m#s##	spk2	19.42	19.9	0.01	_
20091112_RATP_SCD_0170	7	10	sa	NULL	det	NULL	B_GN	DET	11	idtext0010	sa	##f#s##o	spk2	19.91	20.0	0.01	_
20091112_RATP_SCD_0170	7	11	carte	NULL	nc	NULL	I_GN	OBJ	9	idtext0010	carte	##f#s##	spk2	20.01	21.12	0.01	_
20091112_RATP_SCD_0170	7	12	euh	DISF_M	pres	NULL	NULL	NOLINK	0	idtext0010	euh	#####	spk2	21.13	21.21	0.04	_
20091112_RATP_SCD_0170	7	13	Imagine+R	NULL	np	B_PRD	B_GN	ROOT	0	idtext0011	Imagine+R	#####	spk2	21.25	21.97	0.01	_
20091112_RATP_SCD_0170	7	14	et	NULL	coo	NULL	B_NULL	COORD	13	idtext0011	et	#####	spk2	21.98	22.06	0.01	_
20091112_RATP_SCD_0170	7	15	vous	NULL	cln	NULL	B_GN	SUJ	18	idtext0011	cln	#2##p##	spk2	22.07	22.25	0.01	_
20091112_RATP_SCD_0170	7	16	lui	NULL	clo	NULL	B_GN	A_OBJ	18	idtext0011	lui	#####	spk2	22.26	22.36	0.01	_
20091112_RATP_SCD_0170	7	17	avez	NULL	v	NULL	B_GVf	AUX	18	idtext0011	avoir	P#2##p##	spk2	22.37	22.59	0.01	_
20091112_RATP_SCD_0170	7	18	mis	NULL	vppart	NULL	I_GVf	DEP_COORD	14	idtext0011	mettre	J#12##s##	spk2	22.6	22.76	0.01	_
20091112_RATP_SCD_0170	7	19	un	NULL	det	NULL	B_GN	DET	20	idtext0011	un	##m#s##i	spk2	22.77	22.84	0.01	_
20091112_RATP_SCD_0170	7	20	PV	NULL	nc	NULL	I_GN	OBJ	18	idtext0011	PV	#####	spk2	22.85	23.41	?	//

20091112_RATP_SCD_0170	8	1	oui	NULL	adv	NULL	B_GADV	NOLINK	0	idtext0012	oui	#####	spk1	24.07	24.3	?	//

20091112_RATP_SCD_0170	9	1	et	NULL	coo	NULL	B_NULL	ROOT	0	idtext0013	et	#####	spk2	24.4	24.47	0.01	_
20091112_RATP_SCD_0170	9	2	je	NULL	cln	NULL	B_GN	SUJ	5	idtext0013	cln	#1##s##	spk2	24.48	24.57	0.01	_
20091112_RATP_SCD_0170	9	3	vous	NULL	clo	NULL	B_GN	A_OBJ	5	idtext0013	cln	#2##p##	spk2	24.58	24.72	0.01	_
20091112_RATP_SCD_0170	9	4	ai	NULL	v	NULL	B_GVf	AUX	5	idtext0013	avoir	P#1##s##	spk2	24.73	24.84	0.01	_
20091112_RATP_SCD_0170	9	5	fait	NULL	vppart	NULL	I_GVf	DEP_COORD	1	idtext0013	faire	P#3##s##	spk2	24.85	24.98	0.01	_
20091112_RATP_SCD_0170	9	6	un	NULL	det	NULL	B_GN	DET	7	idtext0013	un	##m#s##i	spk2	24.99	25.09	0.01	_
20091112_RATP_SCD_0170	9	7	courrier	NULL	nc	NULL	I_GN	OBJ	5	idtext0013	courrier	##m#s##	spk2	25.1	25.58	0.01	_
20091112_RATP_SCD_0170	9	8	en	NULL	prep	NULL	B_NULL	MOD	7	idtext0013	en	#####	spk2	25.59	26.57	0.04	_
20091112_RATP_SCD_0170	9	9	avec	NULL	prep	NULL	B_GP	ROOT	0	idtext0014	avec	#####	spk2	26.61	26.81	0.01	_
20091112_RATP_SCD_0170	9	10	la	NULL	det	NULL	I_GP	DET	11	idtext0014	le	##m#s##d	spk2	26.82	26.92	0.01	_
20091112_RATP_SCD_0170	9	11	photocopie	NULL	nc	NULL	I_GP	OBJ	9	idtext0014	photocopie	##f#s##	spk2	26.93	27.52	0.01	_
20091112_RATP_SCD_0170	9	12	de	NULL	prep	NULL	B_GP	DEP	11	idtext0014	de	#####	spk2	27.53	27.55	0.01	_
20091112_RATP_SCD_0170	9	13	la	NULL	det	NULL	I_GP	DET	14	idtext0014	le	##m#s##d	spk2	27.56	27.69	0.01	_
20091112_RATP_SCD_0170	9	14	carte	NULL	nc	B_PRD	I_GP	OBJ	12	idtext0014	carte	##f#s##	spk2	27.7	28.0	0.01	_
20091112_RATP_SCD_0170	9	15	Imagine+R	NULL	np	I_PRD	I_GP	MOD	14	idtext0014	Imagine+R	#####	spk2	28.01	28.48	0.05	_
20091112_RATP_SCD_0170	9	16	mais	NULL	coo	NULL	B_NULL	ROOT	0	idtext0015	mais	#####	spk2	28.53	28.65	0.01	_
20091112_RATP_SCD_0170	9	17	vous	NULL	cln	NULL	B_GN	SUJ	19	idtext0015	cln	#2##p##	spk2	28.66	28.75	0.01	_
20091112_RATP_SCD_0170	9	18	me	NULL	clo	NULL	B_GN	A_OBJ	19	idtext0015	cla	#1##s##	spk2	28.76	28.85	0.01	_
20091112_RATP_SCD_0170	9	19	demandez	NULL	v	NULL	B_GVf	DEP_COORD	16	idtext0015	demander	P#2##p##	spk2	28.86	29.25	0.01	_
20091112_RATP_SCD_0170	9	20	quand+même	NULL	adv	NULL	B_GADV	MOD	19	idtext0015	quand+même	#####	spk2	29.26	29.57	0.01	_
20091112_RATP_SCD_0170	9	21	quarante	NULL	det	B_P	B_GN	DET	22	idtext0015	quarante	#####	spk2	29.58	30.12	0.01	_
20091112_RATP_SCD_0170	9	22	euros	NULL	nc	I_P	I_GN	OBJ	19	idtext0015	euro	##m#p##	spk2	30.13	30.25	0.01	_
20091112_RATP_SCD_0170	9	23	à	NULL	prep	NULL	B_GP	MOD	19	idtext0015	à	#####	spk2	30.26	30.32	0.01	_
20091112_RATP_SCD_0170	9	24	payer	NULL	vinf	NULL	I_GP	OBJ	23	idtext0015	payer	W#####	spk2	30.33	30.8	?	_

20091112_RATP_SCD_0170	10	1	c'	NULL	cln	NULL	B_GN	SUJ_IMP	2	idtext0016	ce	###s##	spk1	31.34	31.37	0.01	_
20091112_RATP_SCD_0170	10	2	est	NULL	v	NULL	B_GVf	ROOT	0	idtext0016	être	P#3##s##	spk1	31.38	31.44	0.01	_
20091112_RATP_SCD_0170	10	3	un	NULL	det	NULL	B_GN	DET	4	idtext0016	un	##m#s##i	spk1	31.45	31.83	0.01	_
20091112_RATP_SCD_0170	10	4	PV	NULL	nc	NULL	I_GN	ATS	2	idtext0016	PV	#####	spk1	31.84	32.11	0.01	_
20091112_RATP_SCD_0170	10	5	qu'	NULL	prorel	NULL	B_NULL	OBJ	8	idtext0016	qu'	#####	spk1	32.12	32.19	0.01	_
20091112_RATP_SCD_0170	10	6	il	NULL	cln	NULL	B_GN	SUJ	8	idtext0016	cln	#3#m#s##	spk1	32.2	32.3	0.01	_
20091112_RATP_SCD_0170	10	7	a	NULL	v	NULL	B_GVf	AUX	8	idtext0016	avoir	P#3##s##	spk1	32.31	32.4	0.01	_
20091112_RATP_SCD_0170	10	8	eu	NULL	vppart	NULL	I_GVf	MOD_REL	4	idtext0016	avoir	K##m#s##	spk1	32.41	32.54	0.01	_
20091112_RATP_SCD_0170	10	9	au	NULL	prep	NULL	B_GP	MOD	8	idtext0016	au	#####	spk1	32.55	32.71	0.01	_
20091112_RATP_SCD_0170	10	10	bus	NULL	nc	NULL	I_GP	OBJ	9	idtext0016	bus	##m###	spk1	32.72	32.95	0.01	_
20091112_RATP_SCD_0170	10	11	ou	NULL	coo	NULL	B_NULL	COORD	10	idtext0016	ou	#####	spk1	32.96	33.05	0.01	_
20091112_RATP_SCD_0170	10	12	au	NULL	prep	NULL	B_GP	DEP_COORD	11	idtext0016	au	#####	spk1	33.06	33.11	0.01	_
20091112_RATP_SCD_0170	10	13	métro	NULL	nc	NULL	I_GP	OBJ	12	idtext0016	métro	##m#s##	spk1	33.12	33.66	?	//

20091112_RATP_SCD_0170	11	1	euh	DISF_M	pres	NULL	NULL	NOLINK	0	idtext0017	euh	#####	spk2	34.66	35.79	0.66	_
20091112_RATP_SCD_0170	11	2	j'	NULL	cln	NULL	B_GN	SUJ	4	idtext0018	cln	#1##s##	spk2	36.45	36.58	0.01	_
20091112_RATP_SCD_0170	11	3	en	NULL	clo	NULL	B_GN	DE_OBJ	4	idtext0018	en	#####	spk2	36.59	36.64	0.01	_
20091112_RATP_SCD_0170	11	4	sais	NULL	v	NULL	B_GVf	ROOT	0	idtext0018	savoir	P#12##s##	spk2	36.65	36.8	0.01	_
20091112_RATP_SCD_0170	11	5	rien	NULL	pro	NULL	B_GN	OBJ	4	idtext0018	rien	#####	spk2	36.81	37.19	0.01	_
20091112_RATP_SCD_0170	11	6	je	NULL	cln	NULL	B_GN	SUJ	7	idtext0018	cln	#1##s##	spk2	37.2	37.3	0.01	_
20091112_RATP_SCD_0170	11	7	crois	NULL	v	NULL	B_GVf	ROOT	0	idtext0018	croire	P#12##s##	spk2	37.31	37.49	0.01	_
20091112_RATP_SCD_0170	11	8	que	NULL	csu	NULL	B_NULL	OBJ	7	idtext0018	que	#####	spk2	37.5	37.62	0.01	_
20091112_RATP_SCD_0170	11	9	c'	NULL	cln	NULL	B_GN	SUJ_IMP	10	idtext0018	ce	###s##	spk2	37.63	37.7	0.01	_
20091112_RATP_SCD_0170	11	10	est	NULL	v	NULL	B_GVf	OBJ	8	idtext0018	être	P#3##s##	spk2	37.71	37.84	0.01	_
20091112_RATP_SCD_0170	11	11	au	NULL	prep	NULL	B_GP	ATS	10	idtext0018	au	#####	spk2	37.85	37.87	0.01	_
20091112_RATP_SCD_0170	11	12	métro	NULL	nc	NULL	I_GP	OBJ	11	idtext0018	métro	##m#s##	spk2	37.88	38.57	0.01	_
20091112_RATP_SCD_0170	11	13	non	NULL	adv	NULL	B_GADV	NOLINK	0	idtext0018	non	#####	spk2	38.58	39.06	0.14	_
20091112_RATP_SCD_0170	11	14	attendez	NULL	v	NULL	B_GVf	NOLINK	0	idtext0019	attendre	P#2##p##	spk2	39.2	40.0	1.37	//
20091112_RATP_SCD_0170	11	15	je	NULL	cln	NULL	B_GN	SUJ	16	idtext0020	cln	#1##s##	spk2	41.37	41.7	0.01	_
20091112_RATP_SCD_0170	11	16	sais	NULL	v	NULL	B_GVfn	ROOT	0	idtext0020	savoir	P#12##s##	spk2	41.71	41.85	0.01	_
20091112_RATP_SCD_0170	11	17	pas	NULL	advneg	NULL	I_GVfn	MOD	16	idtext0020	pas	#####	spk2	41.86	42.17	?	_

20091112_RATP_SCD_0170	12	1	d'accord	NULL	adv	NULL	B_GADV	NOLINK	0	idtext0021	d'accord	#####	spk1	42.83	43.24	?	//

20091112_RATP_SCD_0170	13	1	c'	NULL	cln	NULL	B_GN	SUJ_IMP	2	idtext0022	ce	###s##	spk2	42.83	42.85	0.01	_
20091112_RATP_SCD_0170	13	2	est	NULL	v	NULL	B_GVf	ROOT	0	idtext0022	être	P#3##s##	spk2	42.86	43.01	0.01	_
20091112_RATP_SCD_0170	13	3	un	NULL	det	NULL	B_NULL	ATS	2	idtext0022	un	##m#s##i	spk2	43.02	43.24	?	_

20091112_RATP_SCD_0170	14	1	ticket	NULL	nc	NULL	B_GN	ROOT	0	idtext0023	ticket	##m#s##	spk2	43.31	43.61	0.01	_
20091112_RATP_SCD_0170	14	2	bleu	NULL	adj	NULL	I_GN	MOD	1	idtext0023	bleu	##m#s##	spk2	43.62	43.89	0.01	/
20091112_RATP_SCD_0170	14	3	qu'	NULL	prorel	NULL	B_NULL	OBJ	6	idtext0023	qu'	#####	spk2	43.9	44.05	0.01	_
20091112_RATP_SCD_0170	14	4	il	NULL	cln	NULL	B_GN	SUJ	6	idtext0023	cln	#3#m#s##	spk2	44.06	44.21	0.01	_
20091112_RATP_SCD_0170	14	5	a	NULL	v	NULL	B_GVf	AUX	6	idtext0023	avoir	P#3##s##	spk2	44.22	44.31	0.01	_
20091112_RATP_SCD_0170	14	6	eu	NULL	vppart	NULL	I_GVf	MOD_REL	1	idtext0023	avoir	K##m#s##	spk2	44.32	44.74	?	//

20091112_RATP_SCD_0170	15	1	donc	NULL	coo	NULL	B_NULL	ROOT	0	idtext0024	donc	#####	spk1	44.91	45.07	0.01	_
20091112_RATP_SCD_0170	15	2	là	NULL	adv	NULL	B_GADV	NOLINK	0	idtext0024	là	#####	spk1	45.08	45.15	0.01	_
20091112_RATP_SCD_0170	15	3	vous	NULL	cln	NULL	B_GN	SUJ	5	idtext0024	cln	#2##p##	spk1	45.16	45.27	0.01	_
20091112_RATP_SCD_0170	15	4	aviez	NULL	v	NULL	B_GVf	AUX	5	idtext0024	avoir	I#2##p##	spk1	45.28	45.46	0.01	_
20091112_RATP_SCD_0170	15	5	fait	NULL	vppart	NULL	I_GVf	DEP_COORD	1	idtext0024	faire	P#3##s##	spk1	45.47	45.56	0.01	_
20091112_RATP_SCD_0170	15	6	une	NULL	det	NULL	B_GN	DET	7	idtext0024	un	##f#s##i	spk1	45.57	45.66	0.01	_
20091112_RATP_SCD_0170	15	7	réclamation	NULL	nc	NULL	I_GN	OBJ	5	idtext0024	réclamation	##f#s##	spk1	45.67	46.41	0.01	_
20091112_RATP_SCD_0170	15	8	c'	NULL	cln	NULL	B_GN	SUJ_IMP	9	idtext0024	ce	###s##	spk1	46.42	46.47	0.01	_
20091112_RATP_SCD_0170	15	9	est	NULL	v	NULL	B_GVf	ROOT	0	idtext0024	être	P#3##s##	spk1	46.48	46.67	0.01	_
20091112_RATP_SCD_0170	15	10	ça	NULL	pro	NULL	B_GN	ATS	9	idtext0024	ça	#####	spk1	46.68	47.01	?	_

20091112_RATP_SCD_0170	16	1	oui	NULL	adv	NULL	B_GADV	NOLINK	0	idtext0025	oui	#####	spk2	47.06	47.39	?	//

20091112_RATP_SCD_0170	17	1	et	NULL	coo	NULL	B_NULL	ROOT	0	idtext0026	et	#####	spk1	47.77	47.87	0.01	_
20091112_RATP_SCD_0170	17	2	en+fait	GREF	adv	NULL	B_GADV	NOLINK	0	idtext0026	en+fait	#####	spk1	47.88	48.13	0.01	_
20091112_RATP_SCD_0170	17	3	on	NULL	cln	NULL	B_GN	SUJ_IMP	6	idtext0026	cln	#3##s##	spk1	48.14	48.19	0.01	_
20091112_RATP_SCD_0170	17	4	vous	NULL	clo	NULL	B_GN	A_OBJ	6	idtext0026	cln	#2##p##	spk1	48.2	48.37	0.01	_
20091112_RATP_SCD_0170	17	5	a	NULL	v	NULL	B_GVf	AUX	6	idtext0026	avoir	P#3##s##	spk1	48.38	48.48	0.01	_
20091112_RATP_SCD_0170	17	6	réexpédié	NULL	vppart	NULL	I_GVf	DEP_COORD	1	idtext0026	réexpédier	K##m#s##	spk1	48.49	48.95	0.01	_
20091112_RATP_SCD_0170	17	7	un	NULL	det	NULL	B_GN	DET	8	idtext0026	un	##m#s##i	spk1	48.96	49.01	0.01	_
20091112_RATP_SCD_0170	17	8	courrier	NULL	nc	NULL	I_GN	OBJ	6	idtext0026	courrier	##m#s##	spk1	49.02	49.51	0.01	_
20091112_RATP_SCD_0170	17	9	hein	DISF_M	pres	NULL	NULL	NOLINK	0	idtext0026	hein	#####	spk1	49.52	49.71	?	//

20091112_RATP_SCD_0170	18	1	voilà	DISF_M	pres	NULL	NULL	NOLINK	0	idtext0027	voilà	#####	spk2	49.75	50.17	?	//

20091112_RATP_SCD_0170	19	1	et	NULL	coo	NULL	B_NULL	NOLINK	0	idtext0028	et	#####	spk2	50.3	50.72	?	_

20091112_RATP_SCD_0170	20	1	donc	NULL	coo	NULL	B_NULL	ROOT	0	idtext0029	donc	#####	spk1	50.22	50.32	0.01	_
20091112_RATP_SCD_0170	20	2	je	NULL	cln	NULL	B_GN	SUJ	3	idtext0029	cln	#1##s##	spk1	50.33	50.35	0.01	_
20091112_RATP_SCD_0170	20	3	vais	NULL	v	NULL	B_GVf	DEP_COORD	1	idtext0029	aller	P#1##s##	spk1	50.36	50.49	0.01	_
20091112_RATP_SCD_0170	20	4	voir	NULL	vinf	NULL	I_GVf	OBJ	3	idtext0029	voir	W#####	spk1	50.5	50.72	?	//

20091112_RATP_SCD_0170	21	1	si	NULL	csu	NULL	B_NULL	ROOT	0	idtext0030	si	#####	spk1	50.76	50.83	0.01	_
20091112_RATP_SCD_0170	21	2	quelqu'un	NULL	pro	NULL	B_GN	SUJ	3	idtext0030	quelqu'un	#####	spk1	50.84	51.13	0.01	_
20091112_RATP_SCD_0170	21	3	peut	NULL	v	NULL	B_GVf	OBJ	1	idtext0030	pouvoir	P#3##s##	spk1	51.14	51.29	0.01	_
20091112_RATP_SCD_0170	21	4	vous	NULL	clo	NULL	B_GN	OBJ	5	idtext0030	cln	#2##p##	spk1	51.3	51.5	0.01	_
20091112_RATP_SCD_0170	21	5	recevoir	NULL	vinf	NULL	B_GVi	OBJ	3	idtext0030	recevoir	W#####	spk1	51.51	51.76	0.01	_
20091112_RATP_SCD_0170	21	6	par	NULL	prep	NULL	B_GP	P_OBJ	5	idtext0030	par	#####	spk1	51.77	52.01	0.01	_
20091112_RATP_SCD_0170	21	7	téléphone	NULL	nc	NULL	I_GP	OBJ	6	idtext0030	téléphone	##m#s##	spk1	52.02	52.45	0.01	_
20091112_RATP_SCD_0170	21	8	madame	NULL	nc	NULL	I_GP	NOLINK	0	idtext0030	Monsieur	##f#s##	spk1	52.46	52.87	?	//

20091112_RATP_SCD_0170	22	1	d'accord	NULL	adv	NULL	B_GADV	NOLINK	0	idtext0031	d'accord	#####	spk2	53.02	53.58	?	//

20091112_RATP_SCD_0170	23	1	je	NULL	cln	NULL	B_GN	SUJ	3	idtext0032	cln	#1##s##	spk1	52.97	53.06	0.01	_
20091112_RATP_SCD_0170	23	2	vous	NULL	clo	NULL	B_GN	A_OBJ	3	idtext0032	cln	#2##p##	spk1	53.07	53.12	0.01	_
20091112_RATP_SCD_0170	23	3	demande	NULL	v	NULL	B_GVf	ROOT	0	idtext0032	demander	PS#13##s##	spk1	53.13	53.5	0.01	_
20091112_RATP_SCD_0170	23	4	un	NULL	det	NULL	B_NULL	OBJ	3	idtext0032	un	##m#s##i	spk1	53.51	53.58	?	_

20091112_RATP_SCD_0170	24	1	petit	NULL	adj	NULL	B_GN	MOD	2	idtext0033	petit	##m#s##	spk1	53.62	53.8	0.01	_
20091112_RATP_SCD_0170	24	2	instant	NULL	nc	NULL	I_GN	ROOT	0	idtext0033	instant	##m#s##	spk1	53.81	54.06	0.01	_
20091112_RATP_SCD_0170	24	3	s'il+vous+plaît	NULL	adv	NULL	B_GADV	MOD	4	idtext0033	s'il+vous+plaît	#####	spk1	54.07	54.5	0.01	_
20091112_RATP_SCD_0170	24	4	merci	NULL	adv	NULL	I_GADV	ROOT	0	idtext0033	merci	#####	spk1	54.51	54.96	?	//

20091112_RATP_SCD_0170	25	1	madame	NULL	nc	NULL	B_GN	NOLINK	0	idtext0034	Monsieur	##f#s##	spk1	77.44	78.15	?	//

20091112_RATP_SCD_0170	26	1	oui	NULL	adv	NULL	B_GADV	NOLINK	0	idtext0035	oui	#####	spk2	78.27	78.57	?	//

20091112_RATP_SCD_0170	27	1	le	NULL	det	NULL	B_GN	DET	2	idtext0036	le	##m#s##d	spk1	78.72	78.84	0.01	_
20091112_RATP_SCD_0170	27	2	service	NULL	nc	NULL	I_GN	SUJ	4	idtext0036	service	##m#s##	spk1	78.85	79.25	0.01	_
20091112_RATP_SCD_0170	27	3	ne	NULL	clneg	NULL	B_GVfn	MOD	4	idtext0036	ne	#####	spk1	79.26	79.32	0.01	_
20091112_RATP_SCD_0170	27	4	répond	NULL	v	NULL	I_GVfn	ROOT	0	idtext0036	répondre	P#3##s##	spk1	79.33	79.72	0.01	_
20091112_RATP_SCD_0170	27	5	pas	NULL	advneg	NULL	I_GVfn	MOD	4	idtext0036	pas	#####	spk1	79.73	79.91	0.01	_
20091112_RATP_SCD_0170	27	6	je	NULL	cln	NULL	B_GN	SUJ	7	idtext0036	cln	#1##s##	spk1	79.92	79.96	0.01	_
20091112_RATP_SCD_0170	27	7	vais	NULL	v	NULL	B_GVf	ROOT	0	idtext0036	aller	P#1##s##	spk1	79.97	80.06	0.01	_
20091112_RATP_SCD_0170	27	8	prendre	NULL	vinf	NULL	I_GVf	OBJ	7	idtext0036	prendre	W#####	spk1	80.07	80.3	0.01	_
20091112_RATP_SCD_0170	27	9	vos	NULL	det	NULL	B_GN	DET	10	idtext0036	votre	###p##o	spk1	80.31	80.41	0.01	_
20091112_RATP_SCD_0170	27	10	coordonnées	NULL	nc	NULL	I_GN	OBJ	8	idtext0036	coordonnée	##f#p##	spk1	80.42	80.86	0.01	_
20091112_RATP_SCD_0170	27	11	pour+qu'	NULL	csu	NULL	B_NULL	MOD	10	idtext0036	pour+qu'	#####	spk1	80.87	81.13	0.01	_
20091112_RATP_SCD_0170	27	12	ils	NULL	cln	NULL	B_GN	SUJ	13	idtext0036	cln	#3#m#p##	spk1	81.14	81.2	0.01	_
20091112_RATP_SCD_0170	27	13	puissent	NULL	v	NULL	B_GVf	OBJ	11	idtext0036	pouvoir	S#3##p##	spk1	81.21	81.44	0.01	_
20091112_RATP_SCD_0170	27	14	vous	NULL	clo	NULL	B_GN	OBJ	15	idtext0036	cln	#2##p##	spk1	81.45	81.55	0.01	_
20091112_RATP_SCD_0170	27	15	rappeler	NULL	vinf	NULL	B_GVi	OBJ	13	idtext0036	rappeler	W#####	spk1	81.56	82.38	?	//

20091112_RATP_SCD_0170	28	1	oui	NULL	adv	NULL	B_GADV	NOLINK	0	idtext0037	oui	#####	spk2	82.48	82.83	?	//

20091112_RATP_SCD_0170	29	1	alors	NULL	adv	NULL	B_GADV	NOLINK	0	idtext0038	alors	#####	spk1	83.01	83.43	0.01	_
20091112_RATP_SCD_0170	29	2	votre	NULL	det	NULL	B_GN	DET	3	idtext0038	votre	###s##o	spk1	83.44	83.76	0.01	_
20091112_RATP_SCD_0170	29	3	numéro	NULL	nc	NULL	I_GN	SUJ	5	idtext0038	numéro	##m#s##	spk1	83.77	84.16	0.01	//
20091112_RATP_SCD_0170	29	4	c'	NULL	cln	NULL	B_GN	SUJ_IMP	5	idtext0038	ce	###s##	spk1	84.17	84.31	0.01	_
20091112_RATP_SCD_0170	29	5	est	NULL	v	NULL	B_GVf	ROOT	0	idtext0038	être	P#3##s##	spk1	84.32	84.36	0.01	_
20091112_RATP_SCD_0170	29	6	le	NULL	det	NULL	B_NULL	ATS	5	idtext0038	le	##m#s##d	spk1	84.37	84.7	?	_

20091112_RATP_SCD_0170	30	1	je	NULL	cln	NULL	B_GN	SUJ	2	idtext0039	cln	#1##s##	spk2	85.45	85.66	0.01	_
20091112_RATP_SCD_0170	30	2	donne	NULL	v	NULL	B_GVf	ROOT	0	idtext0039	donner	PS#13##s##	spk2	85.67	85.87	0.01	_
20091112_RATP_SCD_0170	30	3	mon	NULL	det	NULL	B_GN	DET	4	idtext0039	mon	###s##o	spk2	85.88	86.04	0.01	_
20091112_RATP_SCD_0170	30	4	portable	NULL	nc	NULL	I_GN	OBJ	2	idtext0039	portable	##m#s##	spk2	86.05	86.44	0.01	_
20091112_RATP_SCD_0170	30	5	parce+que	NULL	csu	NULL	B_NULL	MOD	2	idtext0039	parce+que	#####	spk2	86.45	86.76	0.01	_
20091112_RATP_SCD_0170	30	6	là	NULL	adv	NULL	B_GADV	NOLINK	0	idtext0039	là	#####	spk2	86.77	86.89	0.01	_
20091112_RATP_SCD_0170	30	7	je	NULL	cln	NULL	B_GN	SUJ	8	idtext0040	cln	#1##s##	spk2	86.9	87.01	0.01	_
20091112_RATP_SCD_0170	30	8	vais	NULL	v	NULL	B_GVf	OBJ	5	idtext0040	aller	P#1##s##	spk2	87.02	87.14	0.01	_
20091112_RATP_SCD_0170	30	9	bouger	NULL	vinf	NULL	I_GVf	OBJ	8	idtext0040	bouger	W#####	spk2	87.15	87.64	0.01	_
20091112_RATP_SCD_0170	30	10	alors	NULL	adv	NULL	B_GADV	NOLINK	0	idtext0040	alors	#####	spk2	87.65	87.88	0.07	_
20091112_RATP_SCD_0170	30	11	c'	NULL	cln	NULL	B_GN	SUJ_IMP	12	idtext0041	ce	###s##	spk2	87.95	87.97	0.01	_
20091112_RATP_SCD_0170	30	12	est	NULL	v	NULL	B_GVf	ROOT	0	idtext0041	être	P#3##s##	spk2	87.98	88.11	?	//

20091112_RATP_SCD_0170	31	1	oui	NULL	adv	NULL	B_GADV	NOLINK	0	idtext0042	oui	#####	spk1	90.16	90.5	?	//

20091112_RATP_SCD_0170	32	1	alors	NULL	adv	NULL	B_GADV	NOLINK	0	idtext0043	alors	#####	spk1	91.34	91.69	?	//

20091112_RATP_SCD_0170	33	1	hm	DISF_M	pres	NULL	NULL	NOLINK	0	idtext0044	hm	#####	spk2	92.64	92.88	?	//

20091112_RATP_SCD_0170	34	1	madame	NULL	nc	NULL	B_GN	NOLINK	0	idtext0045	Monsieur	##f#s##	spk1	93.43	93.72	0.04	/
20091112_RATP_SCD_0170	34	2	NNAAMMEE	NULL	np	B_HU	B_GN	ROOT	0	idtext0046	ANONYM	NULL	spk1	93.76	94.22	0.04	_
20091112_RATP_SCD_0170	34	3	hein	DISF_M	pres	NULL	NULL	NOLINK	0	idtext0047	hein	#####	spk1	94.26	94.66	?	//

20091112_RATP_SCD_0170	35	1	d'accord	NULL	adv	NULL	B_GADV	NOLINK	0	idtext0048	d'accord	#####	spk1	94.73	95.15	0.04	_
20091112_RATP_SCD_0170	35	2	donc	NULL	coo	NULL	B_NULL	ROOT	0	idtext0050	donc	#####	spk1	95.19	95.27	0.01	_
20091112_RATP_SCD_0170	35	3	je	NULL	cln	NULL	B_GN	SUJ	5	idtext0050	cln	#1##s##	spk1	95.28	95.3	0.01	_
20091112_RATP_SCD_0170	35	4	lui	NULL	clo	NULL	B_GN	A_OBJ	5	idtext0050	lui	#####	spk1	95.31	95.39	0.01	_
20091112_RATP_SCD_0170	35	5	renvoie	NULL	v	NULL	B_GVf	DEP_COORD	2	idtext0050	renvoyer	PS#13##s##	spk1	95.4	96.14	?	//

20091112_RATP_SCD_0170	36	1	oui	NULL	adv	NULL	B_GADV	NOLINK	0	idtext0049	oui	#####	spk2	94.71	95.15	0.07	//
20091112_RATP_SCD_0170	36	2	parce+que	NULL	csu	NULL	B_NULL	NOLINK	0	idtext0051	parce+que	#####	spk2	95.22	96.14	?	_

20091112_RATP_SCD_0170	37	1	là	NULL	adv	NULL	B_GADV	NOLINK	0	idtext0052	là	#####	spk2	96.24	96.43	0.01	_
20091112_RATP_SCD_0170	37	2	je	NULL	cln	NULL	B_GN	SUJ	3	idtext0052	cln	#1##s##	spk2	96.44	96.49	0.01	_
20091112_RATP_SCD_0170	37	3	suis	NULL	v	NULL	B_GVf	ROOT	0	idtext0052	être	P#1##s##	spk2	96.5	96.65	0.01	_
20091112_RATP_SCD_0170	37	4	au	NULL	prep	NULL	B_GP	ATS	3	idtext0052	au	#####	spk2	96.66	96.72	0.01	_
20091112_RATP_SCD_0170	37	5	service	NULL	nc	NULL	I_GP	OBJ	4	idtext0052	service	##m#s##	spk2	96.73	97.17	0.01	_
20091112_RATP_SCD_0170	37	6	recouvrements	NULL	nc	NULL	I_GP	OBJ	4	idtext0052	recouvrement	##m#p##	spk2	97.18	97.87	0.01	_
20091112_RATP_SCD_0170	37	7	c'	NULL	cln	NULL	B_GN	SUJ_IMP	8	idtext0052	ce	###s##	spk2	97.88	97.97	0.01	_
20091112_RATP_SCD_0170	37	8	est	NULL	v	NULL	B_GVf	ROOT	0	idtext0052	être	P#3##s##	spk2	97.98	98.13	0.01	_
20091112_RATP_SCD_0170	37	9	ça	NULL	pro	NULL	B_GN	ATS	8	idtext0052	ça	#####	spk2	98.14	98.32	?	_

20091112_RATP_SCD_0170	38	1	tout+à+fait	NULL	adv	NULL	B_GADV	NOLINK	0	idtext0053	tout+à+fait	#####	spk1	98.58	99.13	?	//

20091112_RATP_SCD_0170	39	1	d'accord	NULL	adv	NULL	B_GADV	NOLINK	0	idtext0054	d'accord	#####	spk2	99.7	100.24	?	//

20091112_RATP_SCD_0170	40	1	parce+que	NULL	csu	NULL	B_NULL	ROOT	0	idtext0055	parce+que	#####	spk2	100.65	100.79	0.01	_
20091112_RATP_SCD_0170	40	2	là	NULL	adv	NULL	B_GADV	NOLINK	0	idtext0055	là	#####	spk2	100.8	100.86	0.01	_
20091112_RATP_SCD_0170	40	3	vous	NULL	cln	NULL	B_GN	SUJ	4	idtext0055	cln	#2##p##	spk2	100.87	100.94	0.01	_
20091112_RATP_SCD_0170	40	4	savez	NULL	v	NULL	B_GVfn	OBJ	1	idtext0055	savoir	P#2##p##	spk2	100.95	101.21	0.01	_
20091112_RATP_SCD_0170	40	5	pas	NULL	advneg	NULL	I_GVfn	MOD	4	idtext0055	pas	#####	spk2	101.22	101.37	0.01	_
20091112_RATP_SCD_0170	40	6	qui+c'est+qui	NULL	pri	NULL	B_NULL	OBJ	4	idtext0055	qui+c'est+qui	#####	spk2	101.38	102.54	?	_

20091112_RATP_SCD_0170	41	1	qui	NULL	prorel	NULL	B_NULL	SUJ	2	idtext0056	qui	#####	spk1	102.58	102.68	0.01	_
20091112_RATP_SCD_0170	41	2	traite	NULL	v	NULL	B_GVf	ROOT	0	idtext0056	traire	K##f#s##	spk1	102.69	102.91	0.01	_
20091112_RATP_SCD_0170	41	3	votre	NULL	det	NULL	B_GN	DET	4	idtext0056	votre	###s##o	spk1	102.92	103.21	0.01	_
20091112_RATP_SCD_0170	41	4	demande	NULL	nc	NULL	I_GN	OBJ	2	idtext0056	demande	##f#s##	spk1	103.22	103.55	?	//

20091112_RATP_SCD_0170	42	1	mais	NULL	coo	NULL	B_NULL	ROOT	0	idtext0057	mais	#####	spk2	103.59	103.87	0.01	_
20091112_RATP_SCD_0170	42	2	si	NULL	csu	NULL	B_NULL	DEP_COORD	1	idtext0057	si	#####	spk2	103.88	104.13	0.01	_
20091112_RATP_SCD_0170	42	3	c'	NULL	cln	NULL	B_GN	SUJ_IMP	4	idtext0057	ce	###s##	spk2	104.14	104.17	0.01	_
20091112_RATP_SCD_0170	42	4	est	NULL	v	NULL	B_GVf	OBJ	2	idtext0057	être	P#3##s##	spk2	104.18	104.25	?	//

20091112_RATP_SCD_0170	43	1	NNAAMMEE	NULL	np	B_HU	B_GN	ROOT	0	idtext0058	ANONYM	NULL	spk2	104.29	104.55	0.01	_
20091112_RATP_SCD_0170	43	2	NNAAMMEE	NULL	np	B_HU	B_GN	ROOT	0	idtext0059	ANONYM	NULL	spk2	104.56	104.75	?	//

20091112_RATP_SCD_0170	44	1	madame	NULL	nc	NULL	B_GN	NOLINK	0	idtext0060	Monsieur	##f#s##	spk1	105.82	106.08	0.32	_
20091112_RATP_SCD_0170	44	2	NNAAMMEE	NULL	np	B_HU	B_GN	ROOT	0	idtext0061	ANONYM	NULL	spk1	106.4	106.59	?	_

20091112_RATP_SCD_0170	45	1	oui	NULL	adv	NULL	B_GADV	NOLINK	0	idtext0062	oui	#####	spk2	106.64	106.89	?	//

20091112_RATP_SCD_0170	46	1	bon	DISF_M	pres	NULL	NULL	NOLINK	0	idtext0063	bon	#####	spk1	107.4	107.46	0.01	_
20091112_RATP_SCD_0170	46	2	je	NULL	cln	NULL	B_GN	SUJ	3	idtext0063	cln	#1##s##	spk1	107.47	107.58	0.01	_
20091112_RATP_SCD_0170	46	3	vais	NULL	v	NULL	B_GVf	ROOT	0	idtext0063	aller	P#1##s##	spk1	107.59	107.67	0.01	_
20091112_RATP_SCD_0170	46	4	lui	NULL	clo	NULL	B_GN	A_OBJ	5	idtext0063	lui	#####	spk1	107.68	107.77	0.01	_
20091112_RATP_SCD_0170	46	5	envoyer	NULL	vinf	NULL	B_GVi	OBJ	3	idtext0063	envoyer	W#####	spk1	107.78	108.15	0.01	_
20091112_RATP_SCD_0170	46	6	personnellement	NULL	adv	NULL	B_GADV	MOD	5	idtext0063	personnellement	#####	spk1	108.16	108.85	0.01	_
20091112_RATP_SCD_0170	46	7	la	NULL	det	NULL	B_GN	DET	8	idtext0063	le	##m#s##d	spk1	108.86	108.98	0.01	_
20091112_RATP_SCD_0170	46	8	note	NULL	nc	NULL	I_GN	OBJ	5	idtext0063	note	##f#s##	spk1	108.99	109.59	0.26	_
20091112_RATP_SCD_0170	46	9	et	NULL	coo	NULL	B_NULL	ROOT	0	idtext0064	et	#####	spk1	109.85	109.89	0.01	_
20091112_RATP_SCD_0170	46	10	comme+ça	NULL	adv	NULL	B_GADV	NOLINK	0	idtext0064	comme+ça	#####	spk1	109.9	110.12	0.01	_
20091112_RATP_SCD_0170	46	11	elle	NULL	cln	NULL	B_GN	SUJ	12	idtext0065	cln	#3#f#s##	spk1	110.13	110.19	0.01	_
20091112_RATP_SCD_0170	46	12	va	NULL	v	NULL	B_GVf	DEP_COORD	9	idtext0065	aller	P#3##s##	spk1	110.2	110.3	0.01	_
20091112_RATP_SCD_0170	46	13	vous	NULL	clo	NULL	B_GN	OBJ	14	idtext0065	cln	#2##p##	spk1	110.31	110.45	0.01	_
20091112_RATP_SCD_0170	46	14	recontacter	NULL	vinf	NULL	B_GVi	OBJ	12	idtext0065	recontacter	#####	spk1	110.46	110.99	0.01	_
20091112_RATP_SCD_0170	46	15	dans	NULL	prep	NULL	B_GP	P_OBJ	14	idtext0066	dans	#####	spk1	111.0	111.1	0.01	_
20091112_RATP_SCD_0170	46	16	la	NULL	det	NULL	I_GP	DET	17	idtext0066	le	##m#s##d	spk1	111.11	111.25	0.01	_
20091112_RATP_SCD_0170	46	17	journée	NULL	nc	NULL	I_GP	OBJ	15	idtext0066	journée	##f#s##	spk1	111.26	111.6	?	//

20091112_RATP_SCD_0170	47	1	NNAAMMEE	NULL	np	B_HU	B_GN	ROOT	0	idtext0067	ANONYM	NULL	spk2	111.92	112.11	0.04	_
20091112_RATP_SCD_0170	47	2	non	NULL	adv	NULL	B_GADV	NOLINK	0	idtext0068	non	#####	spk2	112.15	112.32	0.01	_
20091112_RATP_SCD_0170	47	3	c'	NULL	cln	NULL	B_GN	SUJ_IMP	4	idtext0068	ce	###s##	spk2	112.33	112.45	0.01	_
20091112_RATP_SCD_0170	47	4	est	NULL	v	NULL	B_GVf	ROOT	0	idtext0068	être	P#3##s##	spk2	112.46	112.61	0.35	_
20091112_RATP_SCD_0170	47	5	NNAAMMEE	NULL	np	B_HU	B_GN	ROOT	0	idtext0069	ANONYM	NULL	spk2	112.96	113.15	0.04	_
20091112_RATP_SCD_0170	47	6	NNAAMMEE	NULL	np	B_HU	B_GN	ROOT	0	idtext0070	ANONYM	NULL	spk2	113.19	113.67	0.04	_
20091112_RATP_SCD_0170	47	7	oui	NULL	adv	NULL	B_GADV	NOLINK	0	idtext0071	oui	#####	spk2	113.71	113.92	0.01	_
20091112_RATP_SCD_0170	47	8	voilà	DISF_M	pres	NULL	NULL	NOLINK	0	idtext0071	voilà	#####	spk2	113.93	114.23	0.41	_
20091112_RATP_SCD_0170	47	9	NNAAMMEE	NULL	np	B_HU	B_GN	ROOT	0	idtext0072	ANONYM	NULL	spk2	114.64	114.84	0.05	_
20091112_RATP_SCD_0170	47	10	NNAAMMEE	NULL	np	B_HU	B_GN	ROOT	0	idtext0073	ANONYM	NULL	spk2	114.89	115.42	0.04	_
20091112_RATP_SCD_0170	47	11	je	NULL	cln	NULL	B_GN	SUJ	12	idtext0074	cln	#1##s##	spk2	115.46	115.48	0.01	_
20091112_RATP_SCD_0170	47	12	sais	NULL	v	NULL	B_GVfn	ROOT	0	idtext0074	savoir	P#12##s##	spk2	115.49	115.6	0.01	_
20091112_RATP_SCD_0170	47	13	pas	NULL	advneg	NULL	I_GVfn	MOD	12	idtext0074	pas	#####	spk2	115.61	115.8	0.01	_
20091112_RATP_SCD_0170	47	14	quoi	NULL	pri	NULL	B_NULL	OBJ	12	idtext0074	quoi	#####	spk2	115.81	116.01	0.06	_
20091112_RATP_SCD_0170	47	15	NNAAMMEE	NULL	np	B_HU	B_GN	ROOT	0	idtext0075	ANONYM	NULL	spk2	116.07	116.52	0.04	_
20091112_RATP_SCD_0170	47	16	parce+qu'	NULL	csu	NULL	B_NULL	ROOT	0	idtext0076	parce+qu'	#####	spk2	116.56	116.75	0.01	_
20091112_RATP_SCD_0170	47	17	elle	NULL	cln	NULL	B_GN	SUJ	19	idtext0076	cln	#3#f#s##	spk2	116.76	116.9	0.01	_
20091112_RATP_SCD_0170	47	18	a	NULL	v	NULL	B_GVf	AUX	19	idtext0076	avoir	P#3##s##	spk2	116.91	117.09	0.01	_
20091112_RATP_SCD_0170	47	19	signé	NULL	vppart	NULL	I_GVf	OBJ	16	idtext0076	signer	K##m#s##	spk2	117.1	117.57	0.01	_
20091112_RATP_SCD_0170	47	20	dessus	NULL	adv	NULL	B_GADV	MOD	19	idtext0076	dessus	#####	spk2	117.58	118.44	?	_

20091112_RATP_SCD_0170	48	1	de+toutes+façons	NULL	adv	NULL	B_GADV	NOLINK	0	idtext0077	de+toutes+façons	#####	spk2	119.4	119.68	0.01	_
20091112_RATP_SCD_0170	48	2	je	NULL	cln	NULL	B_GN	SUJ	4	idtext0078	cln	#1##s##	spk2	119.69	119.71	0.01	_
20091112_RATP_SCD_0170	48	3	l'	NULL	clo	NULL	B_GN	OBJ	4	idtext0078	cla	#3##s##	spk2	119.72	119.77	0.01	_
20091112_RATP_SCD_0170	48	4	enverrai	NULL	v	NULL	B_GVf	ROOT	0	idtext0078	envoyer	F#1##s##	spk2	119.78	120.09	0.01	_
20091112_RATP_SCD_0170	48	5	ils	NULL	cln	NULL	B_GN	SUJ	6	idtext0078	cln	#3#m#p##	spk2	120.1	120.15	0.01	_
20091112_RATP_SCD_0170	48	6	vont	NULL	v	NULL	B_GVf	ROOT	0	idtext0078	aller	P#3##p##	spk2	120.16	120.27	0.01	_
20091112_RATP_SCD_0170	48	7	réceptionner	NULL	vinf	NULL	I_GVf	OBJ	6	idtext0078	réceptionner	W#####	spk2	120.28	120.91	0.01	_
20091112_RATP_SCD_0170	48	8	madame	NULL	nc	NULL	B_GN	NOLINK	0	idtext0078	Monsieur	##f#s##	spk2	120.92	121.23	0.01	_
20091112_RATP_SCD_0170	48	9	hein	DISF_M	pres	NULL	NULL	NOLINK	0	idtext0078	hein	#####	spk2	121.24	121.7	?	//

20091112_RATP_SCD_0170	49	1	donc	NULL	coo	NULL	B_NULL	ROOT	0	idtext0079	donc	#####	spk1	121.84	122.02	0.01	_
20091112_RATP_SCD_0170	49	2	je	NULL	cln	NULL	B_GN	SUJ	3	idtext0079	cln	#1##s##	spk1	122.03	122.17	0.01	_
20091112_RATP_SCD_0170	49	3	fais	NULL	v	NULL	B_GVf	DEP_COORD	1	idtext0079	faire	P#12##s##	spk1	122.18	122.33	0.01	_
20091112_RATP_SCD_0170	49	4	le	NULL	det	NULL	B_GN	DET	5	idtext0079	le	##m#s##d	spk1	122.34	122.45	0.01	_
20091112_RATP_SCD_0170	49	5	nécessaire	NULL	adj	NULL	I_GN	OBJ	3	idtext0079	nécessaire	###s##	spk1	122.46	122.91	0.01	//
20091112_RATP_SCD_0170	49	6	ils	NULL	cln	NULL	B_GN	SUJ	7	idtext0079	cln	#3#m#p##	spk1	122.92	122.98	0.01	_
20091112_RATP_SCD_0170	49	7	vont	NULL	v	NULL	B_GVf	ROOT	0	idtext0079	aller	P#3##p##	spk1	122.99	123.12	0.01	_
20091112_RATP_SCD_0170	49	8	vous	NULL	clo	NULL	B_GN	OBJ	9	idtext0079	cln	#2##p##	spk1	123.13	123.19	0.01	_
20091112_RATP_SCD_0170	49	9	recontacter	NULL	vinf	NULL	B_GVi	OBJ	7	idtext0079	recontacter	#####	spk1	123.2	123.71	0.01	_
20091112_RATP_SCD_0170	49	10	dans	NULL	prep	NULL	B_GP	P_OBJ	9	idtext0079	dans	#####	spk1	123.72	123.81	0.01	_
20091112_RATP_SCD_0170	49	11	la	NULL	det	NULL	I_GP	DET	12	idtext0079	le	##m#s##d	spk1	123.82	123.92	0.01	_
20091112_RATP_SCD_0170	49	12	journée	NULL	nc	NULL	I_GP	OBJ	10	idtext0079	journée	##f#s##	spk1	123.93	124.36	?	//

20091112_RATP_SCD_0170	50	1	d'accord	NULL	adv	NULL	B_GADV	NOLINK	0	idtext0080	d'accord	#####	spk2	124.41	125.12	?	//

20091112_RATP_SCD_0170	51	1	merci	NULL	adv	NULL	B_GADV	MOD	2	idtext0081	merci	#####	spk2	125.16	125.38	0.01	_
20091112_RATP_SCD_0170	51	2	beaucoup	NULL	adv	NULL	I_GADV	ROOT	0	idtext0081	beaucoup	#####	spk2	125.39	126.01	0.04	_
20091112_RATP_SCD_0170	51	3	au+revoir	NULL	adv	NULL	B_GADV	NOLINK	0	idtext0083	au+revoir	#####	spk2	126.05	126.56	?	_

20091112_RATP_SCD_0170	52	1	merci	NULL	adv	NULL	B_GADV	NOLINK	0	idtext0082	merci	#####	spk1	125.38	126.01	0.04	_
20091112_RATP_SCD_0170	52	2	au+revoir	NULL	adv	NULL	B_GADV	NOLINK	0	idtext0084	au+revoir	#####	spk1	126.05	126.56	?	//

