20091112_RATP_SCD_1207	1	1	NNAAMMEE	NULL	np	B_HU	B_GN	ROOT	0	idtext0000	ANONYM	NULL	spk1	3.4	3.74	0.05	_
20091112_RATP_SCD_1207	1	2	va	NULL	v	NULL	B_GVf	ROOT	0	idtext0001	aller	P#3##s##	spk1	3.79	3.94	0.01	_
20091112_RATP_SCD_1207	1	3	vous	NULL	clo	NULL	B_GN	A_OBJ	4	idtext0001	cln	#2##p##	spk1	3.95	4.08	0.01	_
20091112_RATP_SCD_1207	1	4	répondre	NULL	vinf	NULL	B_GVi	OBJ	2	idtext0001	répondre	W#####	spk1	4.09	4.71	?	//

20091112_RATP_SCD_1207	2	1	NNAAMMEE	NULL	np	B_HU	B_GN	ROOT	0	idtext0002	ANONYM	NULL	spk2	5.26	5.58	0.04	_
20091112_RATP_SCD_1207	2	2	bonsoir	NULL	nc	NULL	B_GN	NOLINK	0	idtext0003	bonsoir	##m#s##	spk2	5.62	6.08	?	//

20091112_RATP_SCD_1207	3	1	bonsoir	NULL	nc	NULL	B_GN	NOLINK	0	idtext0004	bonsoir	##m#s##	spk3	6.34	6.91	?	//

20091112_RATP_SCD_1207	4	1	oui	NULL	adv	NULL	B_GADV	NOLINK	0	idtext0005	oui	#####	spk2	7.11	7.16	0.01	_
20091112_RATP_SCD_1207	4	2	bonsoir	NULL	nc	NULL	B_GN	NOLINK	0	idtext0005	bonsoir	##m#s##	spk2	7.17	7.84	?	//

20091112_RATP_SCD_1207	5	1	oui	NULL	adv	NULL	B_GADV	NOLINK	0	idtext0006	oui	#####	spk3	7.92	8.12	0.01	_
20091112_RATP_SCD_1207	5	2	bonsoir	NULL	nc	NULL	B_GN	NOLINK	0	idtext0006	bonsoir	##m#s##	spk3	8.13	8.41	?	//

20091112_RATP_SCD_1207	6	1	je	NULL	cln	NULL	B_GN	SUJ	3	idtext0007	cln	#1##s##	spk3	8.45	8.52	0.01	_
20091112_RATP_SCD_1207	6	2	me	NULL	clr	NULL	B_GVf	AFF	3	idtext0007	cla	#1##s##	spk3	8.53	8.62	0.01	_
20091112_RATP_SCD_1207	6	3	permets	NULL	v	NULL	I_GVf	ROOT	0	idtext0007	permettre	P#12##s##	spk3	8.63	8.87	0.01	_
20091112_RATP_SCD_1207	6	4	de	NULL	prep	NULL	B_GP	OBJ	3	idtext0007	de	#####	spk3	8.88	8.93	0.01	_
20091112_RATP_SCD_1207	6	5	vous	NULL	clo	NULL	I_GP	OBJ	6	idtext0007	cln	#2##p##	spk3	8.94	9.23	0.01	_
20091112_RATP_SCD_1207	6	6	appeler	NULL	vinf	NULL	B_GVi	OBJ	4	idtext0007	appeler	W#####	spk3	9.24	9.49	0.01	_
20091112_RATP_SCD_1207	6	7	pour	NULL	prep	NULL	B_GP	MOD	4	idtext0007	pour	#####	spk3	9.5	9.67	0.01	_
20091112_RATP_SCD_1207	6	8	avoir	NULL	vinf	NULL	I_GP	OBJ	7	idtext0007	avoir	W#####	spk3	9.68	9.89	0.01	_
20091112_RATP_SCD_1207	6	9	un+peu	NULL	adv	NULL	B_GADV	MOD	8	idtext0007	un+peu	#####	spk3	9.9	10.15	0.01	_
20091112_RATP_SCD_1207	6	10	des	DISF_R	det	NULL	NULL	NOLINK	0	idtext0007	des	###p##i	spk3	10.16	10.47	0.01	_
20091112_RATP_SCD_1207	6	11	des	NULL	det	NULL	B_NULL	NOLINK	0	idtext0007	des	###p##i	spk3	10.48	10.87	0.05	_
20091112_RATP_SCD_1207	6	12	mn()	DISF_T	tronc	NULL	NULL	NOLINK	0	idtext0008	mn()	#####	spk3	10.92	11.42	0.01	_
20091112_RATP_SCD_1207	6	13	des	NULL	det	NULL	B_GN	DET	14	idtext0008	des	###p##i	spk3	11.43	11.56	0.01	_
20091112_RATP_SCD_1207	6	14	renseignements	NULL	nc	NULL	I_GN	ROOT	0	idtext0008	renseignement	##m#p##	spk3	11.57	11.97	0.01	_
20091112_RATP_SCD_1207	6	15	précis	NULL	adj	NULL	I_GN	MOD	14	idtext0008	précis	##m###	spk3	11.98	12.35	0.01	_
20091112_RATP_SCD_1207	6	16	quant+au	NULL	prep	NULL	B_NULL	NOLINK	0	idtext0008	quant+au	#####	spk3	12.36	12.9	0.34	/
20091112_RATP_SCD_1207	6	17	au	NULL	prep	NULL	B_GP	ROOT	0	idtext0009	au	#####	spk3	13.24	13.31	0.01	_
20091112_RATP_SCD_1207	6	18	mouvement	NULL	nc	NULL	I_GP	OBJ	17	idtext0009	mouvement	##m#s##	spk3	13.32	13.65	0.01	/
20091112_RATP_SCD_1207	6	19	qu'	NULL	prorel	NULL	B_NULL	OBJ	22	idtext0009	qu'	#####	spk3	13.66	13.74	0.01	_
20091112_RATP_SCD_1207	6	20	il	NULL	cln	NULL	B_GN	SUJ_IMP	22	idtext0009	cln	#3#m#s##	spk3	13.75	13.82	0.01	_
20091112_RATP_SCD_1207	6	21	y	NULL	clo	NULL	B_GN	AFF	22	idtext0009	y	#####	spk3	13.83	13.88	0.01	_
20091112_RATP_SCD_1207	6	22	a	NULL	v	NULL	B_GVf	MOD_REL	18	idtext0009	avoir	P#3##s##	spk3	13.89	13.91	0.01	_
20091112_RATP_SCD_1207	6	23	actuellement	NULL	adv	NULL	B_GADV	MOD	22	idtext0009	actuellement	#####	spk3	13.92	14.27	0.01	_
20091112_RATP_SCD_1207	6	24	sur	NULL	prep	NULL	B_GP	P_OBJ_LOC	22	idtext0009	sur	#####	spk3	14.28	14.45	0.01	_
20091112_RATP_SCD_1207	6	25	la	NULL	det	NULL	I_GP	DET	26	idtext0009	le	##m#s##d	spk3	14.46	14.54	0.01	_
20091112_RATP_SCD_1207	6	26	ligne	NULL	nc	B_T	I_GP	OBJ	24	idtext0009	ligne	##f#s##	spk3	14.55	14.78	0.01	_
20091112_RATP_SCD_1207	6	27	B	NULL	adj	I_T	I_GP	MOD	26	idtext0009	B	#####	spk3	14.79	15.11	0.66	/
20091112_RATP_SCD_1207	6	28	a	NULL	v	NULL	B_GVf	NOLINK	0	idtext0010	avoir	P#3##s##	spk3	15.77	15.99	0.01	_
20091112_RATP_SCD_1207	6	29	on	NULL	cln	NULL	B_GN	SUJ	30	idtext0010	cln	#3##s##	spk3	16.0	16.17	0.01	_
20091112_RATP_SCD_1207	6	30	écoute	NULL	v	NULL	B_GVf	ROOT	0	idtext0010	écouter	PS#13##s##	spk3	16.18	16.46	0.01	_
20091112_RATP_SCD_1207	6	31	à	NULL	prep	NULL	B_GP	MOD	30	idtext0010	à	#####	spk3	16.47	16.51	0.01	_
20091112_RATP_SCD_1207	6	32	la	NULL	det	NULL	I_GP	DET	33	idtext0010	le	##m#s##d	spk3	16.52	16.6	0.01	_
20091112_RATP_SCD_1207	6	33	radio	NULL	nc	NULL	I_GP	OBJ	31	idtext0010	radio	###s##	spk3	16.61	16.87	0.01	_
20091112_RATP_SCD_1207	6	34	on	NULL	cln	NULL	B_GN	SUJ	35	idtext0010	cln	#3##s##	spk3	16.88	16.97	0.01	_
20091112_RATP_SCD_1207	6	35	écoute	NULL	v	NULL	B_GVf	ROOT	0	idtext0010	écouter	PS#13##s##	spk3	16.98	17.22	0.01	_
20091112_RATP_SCD_1207	6	36	partout	NULL	adv	NULL	B_GADV	MOD	35	idtext0010	partout	#####	spk3	17.23	17.64	0.01	_
20091112_RATP_SCD_1207	6	37	que	NULL	csu	NULL	B_NULL	OBJ	35	idtext0010	que	#####	spk3	17.65	17.71	0.01	_
20091112_RATP_SCD_1207	6	38	le	NULL	det	NULL	B_NULL	NOLINK	0	idtext0010	le	##m#s##d	spk3	17.72	17.93	0.04	_
20091112_RATP_SCD_1207	6	39	que	NULL	csu	NULL	B_NULL	ROOT	0	idtext0011	que	#####	spk3	17.97	18.2	0.01	_
20091112_RATP_SCD_1207	6	40	le	NULL	det	NULL	B_GN	DET	41	idtext0012	le	##m#s##d	spk3	18.21	18.24	0.01	_
20091112_RATP_SCD_1207	6	41	trafic	NULL	nc	NULL	I_GN	SUJ	42	idtext0012	trafic	##m#s##	spk3	18.25	18.71	0.01	_
20091112_RATP_SCD_1207	6	42	est	NULL	v	NULL	B_GVf	OBJ	39	idtext0012	être	P#3##s##	spk3	18.72	18.76	0.01	_
20091112_RATP_SCD_1207	6	43	quasiment	NULL	adv	NULL	B_GADJ	MOD	44	idtext0012	quasiment	#####	spk3	18.77	19.24	0.01	_
20091112_RATP_SCD_1207	6	44	normal	NULL	adj	NULL	I_GADJ	ATS	42	idtext0012	normal	##m#s##	spk3	19.25	19.74	?	//

20091112_RATP_SCD_1207	7	1	non	NULL	adv	NULL	B_GADV	NOLINK	0	idtext0013	non	#####	spk2	19.85	19.95	0.01	_
20091112_RATP_SCD_1207	7	2	il	NULL	cln	NULL	B_GN	SUJ	4	idtext0013	cln	#3#m#s##	spk2	19.96	20.01	0.01	_
20091112_RATP_SCD_1207	7	3	l'	NULL	clo	NULL	B_GN	OBJ	4	idtext0013	cla	#3##s##	spk2	20.02	20.04	0.01	_
20091112_RATP_SCD_1207	7	4	est	NULL	v	NULL	B_GVfn	ROOT	0	idtext0013	être	P#3##s##	spk2	20.05	20.08	0.01	_
20091112_RATP_SCD_1207	7	5	pas+du+tout	NULL	advneg	NULL	I_GVfn	MOD	4	idtext0013	pas+du+tout	#####	spk2	20.09	20.48	0.01	_
20091112_RATP_SCD_1207	7	6	non	NULL	adv	NULL	B_GADV	NOLINK	0	idtext0013	non	#####	spk2	20.49	20.85	?	_

20091112_RATP_SCD_1207	8	1	oui	NULL	adv	NULL	B_GADV	NOLINK	0	idtext0014	oui	#####	spk3	20.89	21.27	0.01	//
20091112_RATP_SCD_1207	8	2	mais	NULL	coo	NULL	B_NULL	ROOT	0	idtext0014	mais	#####	spk3	21.28	21.46	0.01	_
20091112_RATP_SCD_1207	8	3	c'	NULL	cln	NULL	B_GN	SUJ_IMP	4	idtext0014	ce	###s##	spk3	21.47	21.49	0.01	_
20091112_RATP_SCD_1207	8	4	est	NULL	v	NULL	B_GVf	DEP_COORD	2	idtext0014	être	P#3##s##	spk3	21.5	21.53	0.01	_
20091112_RATP_SCD_1207	8	5	ce+qui	NULL	prorel	NULL	B_NULL	SUJ	7	idtext0014	ce+qui	#####	spk3	21.54	21.67	0.01	_
20091112_RATP_SCD_1207	8	6	est	NULL	v	NULL	B_GVf	AUX	7	idtext0014	être	P#3##s##	spk3	21.68	21.7	0.01	_
20091112_RATP_SCD_1207	8	7	marqué	NULL	vppart	NULL	I_GVf	ATS	4	idtext0014	marquer	K##m#s##	spk3	21.71	21.96	0.01	_
20091112_RATP_SCD_1207	8	8	partout	NULL	adv	NULL	B_GADV	MOD	7	idtext0014	partout	#####	spk3	21.97	22.37	0.01	_
20091112_RATP_SCD_1207	8	9	et	NULL	coo	NULL	B_NULL	COORD	7	idtext0014	et	#####	spk3	22.38	22.42	0.01	_
20091112_RATP_SCD_1207	8	10	c'	NULL	cln	NULL	B_GN	SUJ_IMP	11	idtext0014	ce	###s##	spk3	22.43	22.52	0.01	_
20091112_RATP_SCD_1207	8	11	est	NULL	v	NULL	B_GVf	DEP_COORD	9	idtext0014	être	P#3##s##	spk3	22.53	22.58	0.01	_
20091112_RATP_SCD_1207	8	12	ce+qui	NULL	prorel	NULL	B_NULL	SUJ	14	idtext0014	ce+qui	#####	spk3	22.59	22.74	0.01	_
20091112_RATP_SCD_1207	8	13	est	NULL	v	NULL	B_GVf	AUX	14	idtext0014	être	P#3##s##	spk3	22.75	22.77	0.01	_
20091112_RATP_SCD_1207	8	14	dit	NULL	vppart	NULL	I_GVf	ATS	11	idtext0014	dire	J#3##s##	spk3	22.78	22.9	0.01	_
20091112_RATP_SCD_1207	8	15	partout	NULL	adv	NULL	B_GADV	MOD	14	idtext0014	partout	#####	spk3	22.91	23.35	?	//

20091112_RATP_SCD_1207	9	1	ouais	NULL	adv	NULL	B_GADV	NOLINK	0	idtext0015	ouais	#####	spk2	23.49	23.69	?	//

20091112_RATP_SCD_1207	10	1	ma	NULL	det	NULL	B_GN	DET	2	idtext0016	mon	##f#s##o	spk3	23.84	24.01	0.01	_
20091112_RATP_SCD_1207	10	2	fille	NULL	nc	NULL	I_GN	ROOT	0	idtext0016	fille	##f#s##	spk3	24.02	24.28	0.01	_
20091112_RATP_SCD_1207	10	3	ce	NULL	det	NULL	B_GN	DET	4	idtext0016	ce	##m#s##e	spk3	24.29	24.31	0.01	_
20091112_RATP_SCD_1207	10	4	matin	NULL	nc	NULL	I_GN	MOD	8	idtext0016	matin	##m#s##	spk3	24.32	24.69	0.01	_
20091112_RATP_SCD_1207	10	5	elle	NULL	cln	NULL	B_GN	SUJ	8	idtext0016	cln	#3#f#s##	spk3	24.7	24.78	0.01	_
20091112_RATP_SCD_1207	10	6	s'	NULL	clr	NULL	B_GVf	AFF	8	idtext0016	se	#3##p##	spk3	24.79	24.9	0.01	_
20091112_RATP_SCD_1207	10	7	est	NULL	v	NULL	I_GVf	AUX	8	idtext0016	être	P#3##s##	spk3	24.91	24.96	0.01	_
20091112_RATP_SCD_1207	10	8	levée	NULL	vppart	NULL	I_GVf	ROOT	0	idtext0016	lever	K##f#s##	spk3	24.97	25.19	0.01	_
20091112_RATP_SCD_1207	10	9	quasiment	NULL	adv	NULL	B_GADV	MOD	8	idtext0016	quasiment	#####	spk3	25.2	25.61	0.01	_
20091112_RATP_SCD_1207	10	10	à	NULL	prep	NULL	B_GP	MOD	8	idtext0016	à	#####	spk3	25.62	25.64	0.01	_
20091112_RATP_SCD_1207	10	11	l'	NULL	det	NULL	I_GP	DET	12	idtext0016	le	###s##d	spk3	25.65	25.69	0.01	_
20091112_RATP_SCD_1207	10	12	heure	NULL	nc	NULL	I_GP	OBJ	10	idtext0016	heure	##f#s##	spk3	25.7	25.8	0.01	_
20091112_RATP_SCD_1207	10	13	normale	NULL	adj	NULL	I_GP	MOD	12	idtext0016	normal	##f#s##	spk3	25.81	26.14	0.01	_
20091112_RATP_SCD_1207	10	14	pour	NULL	prep	NULL	B_GP	MOD	12	idtext0016	pour	#####	spk3	26.15	26.3	0.01	_
20091112_RATP_SCD_1207	10	15	partir	NULL	vinf	NULL	I_GP	OBJ	14	idtext0016	partir	W#####	spk3	26.31	26.69	0.01	_
20091112_RATP_SCD_1207	10	16	à	NULL	prep	NULL	B_GP	P_OBJ_LOC	15	idtext0016	à	#####	spk3	26.7	26.73	0.01	_
20091112_RATP_SCD_1207	10	17	Paris	NULL	nc	B_A	I_GP	OBJ	16	idtext0016	Paris	##m#s##	spk3	26.74	27.09	0.01	/
20091112_RATP_SCD_1207	10	18	à	NULL	prep	NULL	B_GP	P_OBJ_LOC	8	idtext0016	à	#####	spk3	27.1	27.13	0.01	_
20091112_RATP_SCD_1207	10	19	l'	NULL	det	NULL	I_GP	DET	20	idtext0016	le	###s##d	spk3	27.14	27.17	0.01	_
20091112_RATP_SCD_1207	10	20	école	NULL	nc	NULL	I_GP	OBJ	18	idtext0016	école	##f#s##	spk3	27.18	27.6	?	//

20091112_RATP_SCD_1207	11	1	hm	DISF_M	pres	NULL	NULL	NOLINK	0	idtext0017	hm	#####	spk2	27.88	28.12	?	//

20091112_RATP_SCD_1207	12	1	hein	DISF_M	pres	NULL	NULL	NOLINK	0	idtext0018	hein	#####	spk3	27.94	28.12	?	//

20091112_RATP_SCD_1207	13	1	elle	NULL	cln	NULL	B_GN	SUJ	3	idtext0019	cln	#3#f#s##	spk3	28.19	28.29	0.01	_
20091112_RATP_SCD_1207	13	2	est	NULL	v	NULL	B_GVf	AUX	3	idtext0019	être	P#3##s##	spk3	28.3	28.32	0.01	_
20091112_RATP_SCD_1207	13	3	arrivée	NULL	vppart	NULL	I_GVf	ROOT	0	idtext0019	arriver	K##f#s##	spk3	28.33	28.56	0.01	_
20091112_RATP_SCD_1207	13	4	avec	NULL	prep	NULL	B_GP	MOD	3	idtext0019	avec	#####	spk3	28.57	28.78	0.01	_
20091112_RATP_SCD_1207	13	5	une	NULL	det	B_H	I_GP	DET	6	idtext0019	un	##f#s##i	spk3	28.79	28.91	0.01	_
20091112_RATP_SCD_1207	13	6	heure	NULL	nc	I_H	I_GP	OBJ	4	idtext0019	heure	##f#s##	spk3	28.92	29.01	0.01	_
20091112_RATP_SCD_1207	13	7	et	NULL	coo	I_H	I_GP	COORD	6	idtext0019	et	#####	spk3	29.02	29.07	0.01	_
20091112_RATP_SCD_1207	13	8	demie	NULL	adj	I_H	I_GP	DEP_COORD	7	idtext0019	demie	#####	spk3	29.08	29.21	0.01	_
20091112_RATP_SCD_1207	13	9	de	NULL	prep	NULL	B_GP	DEP	6	idtext0019	de	#####	spk3	29.22	29.28	0.01	_
20091112_RATP_SCD_1207	13	10	retard	NULL	nc	NULL	I_GP	OBJ	9	idtext0019	retard	##m#s##	spk3	29.29	29.7	0.01	_
20091112_RATP_SCD_1207	13	11	parce+que	NULL	csu	NULL	B_NULL	MOD	3	idtext0019	parce+que	#####	spk3	29.71	30.17	0.04	/
20091112_RATP_SCD_1207	13	12	parce+que	NULL	csu	NULL	B_NULL	ROOT	0	idtext0020	parce+que	#####	spk3	30.21	30.72	0.01	_
20091112_RATP_SCD_1207	13	13	les	NULL	det	NULL	B_GN	DET	14	idtext0020	le	###p##d	spk3	30.73	30.84	0.01	_
20091112_RATP_SCD_1207	13	14	quais	NULL	nc	NULL	I_GN	SUJ	15	idtext0020	quai	##m#p##	spk3	30.85	31.01	0.01	_
20091112_RATP_SCD_1207	13	15	étaient	NULL	v	NULL	B_GVf	OBJ	12	idtext0020	étayer	PS#3##p##	spk3	31.02	31.3	?	//

20091112_RATP_SCD_1207	14	1	ah	DISF_M	pres	NULL	NULL	NOLINK	0	idtext0021	ah	#####	spk2	31.75	32.08	0.01	_
20091112_RATP_SCD_1207	14	2	oui	NULL	adv	NULL	B_GADV	NOLINK	0	idtext0021	oui	#####	spk2	32.09	32.2	0.01	_
20091112_RATP_SCD_1207	14	3	mais	NULL	coo	NULL	B_NULL	ROOT	0	idtext0021	mais	#####	spk2	32.21	32.52	0.01	_
20091112_RATP_SCD_1207	14	4	c'	NULL	cln	NULL	B_GN	SUJ_IMP	5	idtext0021	ce	###s##	spk2	32.53	32.6	0.01	_
20091112_RATP_SCD_1207	14	5	était	NULL	v	NULL	B_GVf	DEP_COORD	3	idtext0021	être	I#3##s##	spk2	32.61	33.25	?	//

20091112_RATP_SCD_1207	15	1	inaccessibles	NULL	adj	NULL	B_GADJ	ROOT	0	idtext0022	inaccessible	###p##	spk3	31.34	31.85	0.01	_
20091112_RATP_SCD_1207	15	2	et	NULL	coo	NULL	B_NULL	COORD	1	idtext0022	et	#####	spk3	31.86	31.95	0.01	_
20091112_RATP_SCD_1207	15	3	que	NULL	csu	NULL	B_NULL	DEP_COORD	2	idtext0022	que	#####	spk3	31.96	32.03	0.01	_
20091112_RATP_SCD_1207	15	4	c'	NULL	cln	NULL	B_GN	SUJ_IMP	5	idtext0022	ce	###s##	spk3	32.04	32.08	0.01	_
20091112_RATP_SCD_1207	15	5	était	NULL	v	NULL	B_GVf	OBJ	3	idtext0022	être	I#3##s##	spk3	32.09	32.27	0.01	_
20091112_RATP_SCD_1207	15	6	la	NULL	det	NULL	B_GN	DET	7	idtext0022	le	##m#s##d	spk3	32.28	32.36	0.01	_
20091112_RATP_SCD_1207	15	7	cohue	NULL	nc	NULL	I_GN	ATS	5	idtext0022	cohue	##f#s##	spk3	32.37	32.68	0.01	_
20091112_RATP_SCD_1207	15	8	totale	NULL	adj	NULL	I_GN	MOD	7	idtext0022	total	##f#s##	spk3	32.69	33.25	?	//

20091112_RATP_SCD_1207	16	1	hm	DISF_M	pres	NULL	NULL	NOLINK	0	idtext0023	hm	#####	spk2	33.29	33.7	?	//

20091112_RATP_SCD_1207	17	1	hein	DISF_M	pres	NULL	NULL	NOLINK	0	idtext0024	hein	#####	spk3	33.74	33.95	0.01	_
20091112_RATP_SCD_1207	17	2	donc	NULL	coo	NULL	B_NULL	NOLINK	0	idtext0024	donc	#####	spk3	33.96	34.63	?	_

20091112_RATP_SCD_1207	18	1	actuellement	NULL	adv	NULL	B_GADV	NOLINK	0	idtext0025	actuellement	#####	spk3	35.24	35.7	0.01	_
20091112_RATP_SCD_1207	18	2	elle	NULL	cln	NULL	B_GN	SUJ	3	idtext0025	cln	#3#f#s##	spk3	35.71	35.76	0.01	_
20091112_RATP_SCD_1207	18	3	est	NULL	v	NULL	B_GVf	ROOT	0	idtext0025	être	P#3##s##	spk3	35.77	35.83	0.01	_
20091112_RATP_SCD_1207	18	4	encore	NULL	adv	NULL	B_GADV	MOD	5	idtext0025	encore	#####	spk3	35.84	36.1	0.01	_
20091112_RATP_SCD_1207	18	5	en+cours	NULL	adv	NULL	I_GADV	ATS	3	idtext0025	en+cours	#####	spk3	36.11	36.64	0.11	_
20091112_RATP_SCD_1207	18	6	euh	DISF_M	pres	NULL	NULL	NOLINK	0	idtext0026	euh	#####	spk3	36.75	37.23	0.46	_
20091112_RATP_SCD_1207	18	7	on	NULL	cln	NULL	B_GN	SUJ_IMP	9	idtext0027	cln	#3##s##	spk3	37.69	38.2	0.01	_
20091112_RATP_SCD_1207	18	8	en	NULL	clo	NULL	B_GN	OBJ	9	idtext0027	en	#####	spk3	38.21	38.33	0.01	_
20091112_RATP_SCD_1207	18	9	est	NULL	v	NULL	B_GVf	ROOT	0	idtext0027	être	P#3##s##	spk3	38.34	38.4	0.01	_
20091112_RATP_SCD_1207	18	10	où	NULL	adv	NULL	B_GADV	P_OBJ_LOC	9	idtext0027	où	#####	spk3	38.41	38.54	0.01	_
20091112_RATP_SCD_1207	18	11	la	NULL	det	NULL	B_NULL	NOLINK	0	idtext0027	le	##m#s##d	spk3	38.55	38.86	0.25	_
20091112_RATP_SCD_1207	18	12	sur	NULL	prep	NULL	B_GP	ROOT	0	idtext0028	sur	#####	spk3	39.11	39.19	0.01	_
20091112_RATP_SCD_1207	18	13	la	NULL	det	NULL	I_GP	DET	14	idtext0028	le	##m#s##d	spk3	39.2	39.29	0.01	_
20091112_RATP_SCD_1207	18	14	ligne	NULL	nc	B_T	I_GP	OBJ	12	idtext0028	ligne	##f#s##	spk3	39.3	39.47	0.01	_
20091112_RATP_SCD_1207	18	15	B	NULL	adj	I_T	I_GP	MOD	14	idtext0028	B	#####	spk3	39.48	39.64	0.01	_
20091112_RATP_SCD_1207	18	16	la	NULL	det	NULL	B_NULL	NOLINK	0	idtext0028	le	##m#s##d	spk3	39.65	39.88	?	_

20091112_RATP_SCD_1207	19	1	alors	NULL	adv	NULL	B_GADV	NOLINK	0	idtext0029	alors	#####	spk2	39.96	40.29	0.01	_
20091112_RATP_SCD_1207	19	2	v()	DISF_T	tronc	NULL	NULL	NOLINK	0	idtext0029	v()	#####	spk2	40.3	40.36	0.01	_
20091112_RATP_SCD_1207	19	3	la	NULL	det	NULL	B_GN	DET	4	idtext0029	le	##m#s##d	spk2	40.37	40.67	0.01	_
20091112_RATP_SCD_1207	19	4	personne	NULL	nc	NULL	I_GN	SUJ	5	idtext0029	personne	##f#s##	spk2	40.68	41.5	0.01	_
20091112_RATP_SCD_1207	19	5	va	NULL	v	NULL	B_GVf	ROOT	0	idtext0029	aller	P#3##s##	spk2	41.51	41.59	0.01	_
20091112_RATP_SCD_1207	19	6	le	NULL	clo	NULL	B_GN	OBJ	7	idtext0029	cla	#3#m#s##	spk2	41.6	41.67	0.01	_
20091112_RATP_SCD_1207	19	7	prendre	NULL	vinf	NULL	B_GVi	OBJ	5	idtext0029	prendre	W#####	spk2	41.68	41.99	0.01	_
20091112_RATP_SCD_1207	19	8	à	NULL	prep	NULL	B_GP	MOD	7	idtext0029	à	#####	spk2	42.0	42.04	0.01	_
20091112_RATP_SCD_1207	19	9	quel	NULL	det	NULL	I_GP	DET	10	idtext0029	quel	##m#s##	spk2	42.05	42.24	0.01	_
20091112_RATP_SCD_1207	19	10	endroit	NULL	nc	NULL	I_GP	OBJ	8	idtext0029	endroit	##m#s##	spk2	42.25	42.6	?	//

20091112_RATP_SCD_1207	20	1	eh+ben	DISF_M	pres	NULL	NULL	NOLINK	0	idtext0030	eh+ben	#####	spk3	43.29	43.54	0.01	_
20091112_RATP_SCD_1207	20	2	écoutez	DISF_M	pres	NULL	NULL	NOLINK	0	idtext0030	écoutez	#####	spk3	43.55	44.02	0.01	_
20091112_RATP_SCD_1207	20	3	elle	NULL	cln	NULL	B_GN	SUJ	4	idtext0030	cln	#3#f#s##	spk3	44.03	44.25	0.01	_
20091112_RATP_SCD_1207	20	4	va	NULL	v	NULL	B_GVf	ROOT	0	idtext0030	aller	P#3##s##	spk3	44.26	44.37	0.01	_
20091112_RATP_SCD_1207	20	5	normalement	NULL	adv	NULL	B_GADV	MOD	4	idtext0030	normalement	#####	spk3	44.38	44.77	0.01	_
20091112_RATP_SCD_1207	20	6	le	NULL	clo	NULL	B_GN	OBJ	7	idtext0030	cla	#3#m#s##	spk3	44.78	44.8	0.01	_
20091112_RATP_SCD_1207	20	7	prendre	NULL	vinf	NULL	B_GVi	OBJ	4	idtext0030	prendre	W#####	spk3	44.81	45.08	0.01	_
20091112_RATP_SCD_1207	20	8	à	NULL	prep	NULL	B_GP	P_OBJ_LOC	7	idtext0030	à	#####	spk3	45.09	45.14	0.01	_
20091112_RATP_SCD_1207	20	9	Denfert	NULL	nc	B_A	I_GP	OBJ	8	idtext0030	Denfert	#####	spk3	45.15	45.59	0.01	_
20091112_RATP_SCD_1207	20	10	pour	NULL	prep	NULL	B_GP	MOD	7	idtext0030	pour	#####	spk3	45.6	45.78	0.01	_
20091112_RATP_SCD_1207	20	11	aller	NULL	vinf	NULL	I_GP	OBJ	10	idtext0030	aller	W#####	spk3	45.79	45.92	0.01	_
20091112_RATP_SCD_1207	20	12	sur	NULL	prep	NULL	B_GP	P_OBJ_LOC	11	idtext0030	sur	#####	spk3	45.93	46.13	0.01	_
20091112_RATP_SCD_1207	20	13	Antony	NULL	nc	B_A	I_GP	OBJ	12	idtext0030	Antony	##m#s##	spk3	46.14	46.56	?	//

20091112_RATP_SCD_1207	21	1	alors	NULL	adv	NULL	B_GADV	NOLINK	0	idtext0031	alors	#####	spk2	47.51	47.75	0.01	_
20091112_RATP_SCD_1207	21	2	Denfert	NULL	nc	B_A	B_GN	NOLINK	0	idtext0031	Denfert	#####	spk2	47.76	48.43	0.01	_
20091112_RATP_SCD_1207	21	3	la	DISF_R	det	I_A	NULL	NOLINK	0	idtext0031	le	##m#s##d	spk2	48.44	48.87	0.01	_
20091112_RATP_SCD_1207	21	4	la	NULL	det	NULL	B_NULL	DET	5	idtext0031	le	##m#s##d	spk2	48.88	48.94	0.01	_
20091112_RATP_SCD_1207	21	5	là	NULL	adv	NULL	B_GADV	ROOT	0	idtext0031	là	#####	spk2	48.95	49.11	?	//

20091112_RATP_SCD_1207	22	1	partie	NULL	nc	NULL	B_GN	ROOT	0	idtext0032	partie	##f#s##	spk3	50.42	50.67	0.01	_
20091112_RATP_SCD_1207	22	2	sud	NULL	nc	NULL	I_GN	MOD	1	idtext0032	sud	##m#s##	spk3	50.68	50.9	0.01	_
20091112_RATP_SCD_1207	22	3	quoi	DISF_M	pres	NULL	NULL	NOLINK	0	idtext0032	quoi	#####	spk3	50.91	51.16	?	//

20091112_RATP_SCD_1207	23	1	oui	NULL	adv	NULL	B_GADJ	NOLINK	0	idtext0033	oui	#####	spk2	51.36	51.8	0.01	_
20091112_RATP_SCD_1207	23	2	exact	NULL	adj	NULL	I_GADJ	NOLINK	0	idtext0033	exact	##m#s##	spk2	51.81	52.18	?	//

20091112_RATP_SCD_1207	24	1	là	NULL	adv	NULL	B_GADV	NOLINK	0	idtext0034	là	#####	spk2	58.9	59.05	0.01	_
20091112_RATP_SCD_1207	24	2	j'	NULL	cln	NULL	B_GN	SUJ	4	idtext0034	cln	#1##s##	spk2	59.06	59.17	0.01	_
20091112_RATP_SCD_1207	24	3	en	NULL	clo	NULL	B_GN	OBJ	4	idtext0034	en	#####	spk2	59.18	59.35	0.01	_
20091112_RATP_SCD_1207	24	4	ai	NULL	v	NULL	B_GVf	ROOT	0	idtext0034	avoir	P#1##s##	spk2	59.36	59.52	0.01	_
20091112_RATP_SCD_1207	24	5	un	NULL	pro	NULL	B_GN	OBJ	4	idtext0034	un	#####	spk2	59.53	60.1	0.01	_
20091112_RATP_SCD_1207	24	6	qui	NULL	prorel	NULL	B_NULL	SUJ	7	idtext0034	qui	#####	spk2	60.11	60.24	0.01	_
20091112_RATP_SCD_1207	24	7	est	NULL	v	NULL	B_GVf	MOD_REL	5	idtext0034	être	P#3##s##	spk2	60.25	60.35	0.01	_
20091112_RATP_SCD_1207	24	8	à	NULL	prep	NULL	B_GP	P_OBJ_LOC	7	idtext0034	à	#####	spk2	60.36	60.39	0.01	_
20091112_RATP_SCD_1207	24	9	Châtelet	NULL	nc	B_A	I_GP	OBJ	8	idtext0034	Châtelet	#####	spk2	60.4	60.85	0.01	/
20091112_RATP_SCD_1207	24	10	qui	NULL	prorel	NULL	B_NULL	SUJ	11	idtext0034	qui	#####	spk2	60.86	61.01	0.01	_
20091112_RATP_SCD_1207	24	11	va	NULL	v	NULL	B_GVf	MOD_REL	5	idtext0034	aller	P#3##s##	spk2	61.02	61.32	0.01	_
20091112_RATP_SCD_1207	24	12	sur	NULL	prep	NULL	B_GP	P_OBJ_LOC	11	idtext0034	sur	#####	spk2	61.33	61.53	0.01	_
20091112_RATP_SCD_1207	24	13	Orsay	NULL	nc	B_A	I_GP	OBJ	12	idtext0034	Orsay	##m#s##	spk2	61.54	62.41	?	//

20091112_RATP_SCD_1207	25	1	oui	NULL	adv	NULL	B_GADV	NOLINK	0	idtext0035	oui	#####	spk3	63.13	63.46	0.59	/
20091112_RATP_SCD_1207	25	2	OK	NULL	adv	NULL	B_GADV	NOLINK	0	idtext0036	ok	#####	spk3	64.05	64.36	0.01	/
20091112_RATP_SCD_1207	25	3	qui	NULL	prorel	NULL	B_NULL	SUJ	5	idtext0036	qui	#####	spk3	64.37	64.59	0.01	_
20091112_RATP_SCD_1207	25	4	normalement	NULL	adv	NULL	B_GADV	NOLINK	0	idtext0036	normalement	#####	spk3	64.6	64.96	0.01	_
20091112_RATP_SCD_1207	25	5	passe	NULL	v	NULL	B_GVf	ROOT	0	idtext0036	passer	PS#13##s##	spk3	64.97	65.22	0.01	_
20091112_RATP_SCD_1207	25	6	à	NULL	prep	NULL	B_GP	P_OBJ_LOC	5	idtext0036	à	#####	spk3	65.23	65.26	0.01	_
20091112_RATP_SCD_1207	25	7	Denfert	NULL	nc	B_A	I_GP	OBJ	6	idtext0036	Denfert	#####	spk3	65.27	65.59	0.01	_
20091112_RATP_SCD_1207	25	8	à	NULL	prep	NULL	B_GP	MOD	7	idtext0036	à	#####	spk3	65.6	65.65	0.01	_
20091112_RATP_SCD_1207	25	9	quelle	NULL	det	NULL	I_GP	DET	10	idtext0036	quel	##f#s##	spk3	65.66	65.83	0.01	_
20091112_RATP_SCD_1207	25	10	heure	NULL	nc	NULL	I_GP	OBJ	8	idtext0036	heure	##f#s##	spk3	65.84	66.04	?	//

20091112_RATP_SCD_1207	26	1	exactement	NULL	adv	NULL	B_GADV	NOLINK	0	idtext0037	exactement	#####	spk2	66.1	66.96	0.01	_
20091112_RATP_SCD_1207	26	2	donc	NULL	coo	NULL	B_NULL	ROOT	0	idtext0037	donc	#####	spk2	66.97	67.23	0.01	_
20091112_RATP_SCD_1207	26	3	c'	NULL	cln	NULL	B_GN	SUJ_IMP	4	idtext0037	ce	###s##	spk2	67.24	67.26	0.01	_
20091112_RATP_SCD_1207	26	4	est	NULL	v	NULL	B_GVf	DEP_COORD	2	idtext0037	être	P#3##s##	spk2	67.27	67.32	0.01	_
20091112_RATP_SCD_1207	26	5	bientôt	NULL	adv	NULL	B_GADV	MOD	6	idtext0037	bientôt	#####	spk2	67.33	67.73	0.01	_
20091112_RATP_SCD_1207	26	6	là	NULL	adv	NULL	I_GADV	P_OBJ_LOC	4	idtext0037	là	#####	spk2	67.74	67.97	0.04	_
20091112_RATP_SCD_1207	26	7	c'	NULL	cln	NULL	B_GN	SUJ_IMP	8	idtext0038	ce	###s##	spk2	68.01	68.03	0.01	_
20091112_RATP_SCD_1207	26	8	est	NULL	v	NULL	B_GVf	ROOT	0	idtext0038	être	P#3##s##	spk2	68.04	69.07	?	//

20091112_RATP_SCD_1207	27	1	elle	NULL	cln	NULL	B_GN	SUJ	4	idtext0039	cln	#3#f#s##	spk3	69.12	69.21	0.01	_
20091112_RATP_SCD_1207	27	2	a	NULL	v	NULL	B_GVfn	AUX	4	idtext0039	avoir	P#3##s##	spk3	69.22	69.24	0.01	_
20091112_RATP_SCD_1207	27	3	pas	NULL	advneg	NULL	I_GVfn	MOD	4	idtext0039	pas	#####	spk3	69.25	69.37	0.01	_
20091112_RATP_SCD_1207	27	4	fini	NULL	vppart	NULL	I_GVfn	ROOT	0	idtext0039	finir	K##m#s##	spk3	69.38	69.63	0.01	_
20091112_RATP_SCD_1207	27	5	ses	NULL	det	NULL	B_GN	DET	6	idtext0039	son	###p##o	spk3	69.64	69.77	0.01	_
20091112_RATP_SCD_1207	27	6	cours	NULL	nc	NULL	I_GN	OBJ	4	idtext0039	cour	##f#p##	spk3	69.78	70.0	0.01	_
20091112_RATP_SCD_1207	27	7	encore	NULL	adv	NULL	B_GADV	MOD	4	idtext0039	encore	#####	spk3	70.01	70.19	?	//

20091112_RATP_SCD_1207	28	1	ah	DISF_M	pres	NULL	NULL	NOLINK	0	idtext0040	ah	#####	spk2	70.3	70.56	0.01	_
20091112_RATP_SCD_1207	28	2	oui	NULL	adv	NULL	B_GADV	NOLINK	0	idtext0040	oui	#####	spk2	70.57	70.69	0.62	_
20091112_RATP_SCD_1207	28	3	euh	DISF_M	pres	NULL	NULL	NOLINK	0	idtext0041	euh	#####	spk2	71.31	73.43	0.04	_
20091112_RATP_SCD_1207	28	4	parce+que	NULL	csu	NULL	B_NULL	ROOT	0	idtext0042	parce+que	#####	spk2	73.47	73.68	0.01	_
20091112_RATP_SCD_1207	28	5	là	NULL	adv	NULL	B_GADV	NOLINK	0	idtext0042	là	#####	spk2	73.69	73.79	0.01	_
20091112_RATP_SCD_1207	28	6	il	NULL	cln	NULL	B_GN	SUJ_IMP	8	idtext0042	cln	#3#m#s##	spk2	73.8	73.85	0.01	_
20091112_RATP_SCD_1207	28	7	y	NULL	clo	NULL	B_GN	AFF	8	idtext0042	y	#####	spk2	73.86	73.88	0.01	_
20091112_RATP_SCD_1207	28	8	avait	NULL	v	NULL	B_GVf	OBJ	4	idtext0042	avoir	I#3##s##	spk2	73.89	73.98	0.01	_
20091112_RATP_SCD_1207	28	9	à	NULL	prep	NULL	B_GP	P_OBJ_LOC	8	idtext0042	à	#####	spk2	73.99	74.02	0.01	_
20091112_RATP_SCD_1207	28	10	Châtelet	NULL	nc	B_A	I_GP	OBJ	9	idtext0042	Châtelet	#####	spk2	74.03	74.51	0.01	_
20091112_RATP_SCD_1207	28	11	donc	NULL	coo	NULL	B_NULL	COORD	8	idtext0042	donc	#####	spk2	74.52	74.7	0.01	_
20091112_RATP_SCD_1207	28	12	il	NULL	cln	NULL	B_GN	SUJ_IMP	14	idtext0042	cln	#3#m#s##	spk2	74.71	74.76	0.01	_
20091112_RATP_SCD_1207	28	13	y	NULL	clo	NULL	B_GN	AFF	14	idtext0042	y	#####	spk2	74.77	74.79	0.01	_
20091112_RATP_SCD_1207	28	14	a	NULL	v	NULL	B_GVf	DEP_COORD	11	idtext0042	avoir	P#3##s##	spk2	74.8	74.87	0.01	_
20091112_RATP_SCD_1207	28	15	plus	NULL	adv	NULL	B_GADV	MOD	18	idtext0042	plus	#####	spk2	74.88	75.13	0.01	_
20091112_RATP_SCD_1207	28	16	il	NULL	cln	NULL	B_GN	SUJ_IMP	18	idtext0042	cln	#3#m#s##	spk2	75.14	75.25	0.01	_
20091112_RATP_SCD_1207	28	17	y	NULL	clo	NULL	B_GN	AFF	18	idtext0042	y	#####	spk2	75.26	75.29	0.01	_
20091112_RATP_SCD_1207	28	18	a	NULL	v	NULL	B_GVf	OBJ	14	idtext0042	avoir	P#3##s##	spk2	75.3	75.33	0.01	/
20091112_RATP_SCD_1207	28	19	et	NULL	coo	NULL	B_NULL	COORD	18	idtext0042	et	#####	spk2	75.34	75.36	0.01	_
20091112_RATP_SCD_1207	28	20	après	NULL	adv	NULL	B_GADV	NOLINK	0	idtext0042	après	#####	spk2	75.37	75.62	0.01	_
20091112_RATP_SCD_1207	28	21	il	NULL	cln	NULL	B_GN	SUJ_IMP	23	idtext0042	cln	#3#m#s##	spk2	75.63	75.68	0.01	_
20091112_RATP_SCD_1207	28	22	y	NULL	clo	NULL	B_GN	AFF	23	idtext0042	y	#####	spk2	75.69	75.74	0.01	_
20091112_RATP_SCD_1207	28	23	a	NULL	v	NULL	B_GVf	DEP_COORD	19	idtext0042	avoir	P#3##s##	spk2	75.75	76.01	?	//

20091112_RATP_SCD_1207	29	1	non	DISF_R	adv	NULL	NULL	NOLINK	0	idtext0043	non	#####	spk3	77.35	77.47	0.01	_
20091112_RATP_SCD_1207	29	2	non	NULL	adv	NULL	B_GADV	MOD	3	idtext0043	non	#####	spk3	77.48	77.68	0.01	_
20091112_RATP_SCD_1207	29	3	en+fait	GREF	adv	NULL	I_GADV	ROOT	0	idtext0043	en+fait	#####	spk3	77.69	77.95	0.01	_
20091112_RATP_SCD_1207	29	4	elle	NULL	pro	NULL	B_GN	SUJ	6	idtext0043	elle	#####	spk3	77.96	78.06	0.01	_
20091112_RATP_SCD_1207	29	5	elle	NULL	cln	NULL	B_GN	SUJ	6	idtext0043	cln	#3#f#s##	spk3	78.07	78.16	0.01	_
20091112_RATP_SCD_1207	29	6	vient	NULL	v	NULL	B_GVf	ROOT	0	idtext0043	venir	P#3##s##	spk3	78.17	78.36	0.01	_
20091112_RATP_SCD_1207	29	7	de	NULL	prep	NULL	B_GP	P_OBJ_LOC	6	idtext0043	de	#####	spk3	78.37	78.9	0.01	_
20091112_RATP_SCD_1207	29	8	la	NULL	det	NULL	I_GP	DET	9	idtext0043	le	##m#s##d	spk3	78.91	79.02	0.01	_
20091112_RATP_SCD_1207	29	9	ligne	NULL	nc	B_T	I_GP	OBJ	7	idtext0043	ligne	##f#s##	spk3	79.03	79.27	0.01	_
20091112_RATP_SCD_1207	29	10	six	NULL	adj	I_T	I_GP	MOD	9	idtext0043	six	#####	spk3	79.28	79.63	?	//

20091112_RATP_SCD_1207	30	1	ah	DISF_M	pres	NULL	NULL	NOLINK	0	idtext0044	ah	#####	spk2	80.39	80.47	0.01	//
20091112_RATP_SCD_1207	30	2	ah	DISF_M	pres	NULL	NULL	NOLINK	0	idtext0044	ah	#####	spk2	80.48	80.68	0.01	_
20091112_RATP_SCD_1207	30	3	oui	NULL	adv	NULL	B_GADV	NOLINK	0	idtext0044	oui	#####	spk2	80.69	80.74	0.01	_
20091112_RATP_SCD_1207	30	4	elle	NULL	cln	NULL	B_GN	SUJ	6	idtext0044	cln	#3#f#s##	spk2	80.75	80.88	0.01	_
20091112_RATP_SCD_1207	30	5	ne	NULL	clneg	NULL	B_GVfn	MOD	6	idtext0044	ne	#####	spk2	80.89	80.95	0.01	_
20091112_RATP_SCD_1207	30	6	peut	NULL	v	NULL	I_GVfn	ROOT	0	idtext0044	pouvoir	P#3##s##	spk2	80.96	81.09	0.01	_
20091112_RATP_SCD_1207	30	7	le	NULL	clo	NULL	B_GN	OBJ	8	idtext0044	cla	#3#m#s##	spk2	81.1	81.25	0.01	_
20091112_RATP_SCD_1207	30	8	prendre	NULL	vinf	NULL	B_GVi	OBJ	6	idtext0044	prendre	W#####	spk2	81.26	81.45	0.01	_
20091112_RATP_SCD_1207	30	9	à	NULL	prep	NULL	B_GP	P_OBJ_LOC	8	idtext0044	à	#####	spk2	81.46	81.53	0.01	_
20091112_RATP_SCD_1207	30	10	Denfert	NULL	nc	B_A	I_GP	OBJ	9	idtext0044	Denfert	#####	spk2	81.54	81.8	0.01	_
20091112_RATP_SCD_1207	30	11	là	NULL	adv	NULL	B_GADV	NOLINK	0	idtext0044	là	#####	spk2	81.81	81.92	?	//

20091112_RATP_SCD_1207	31	1	et	NULL	coo	NULL	B_NULL	ROOT	0	idtext0045	et	#####	spk3	80.44	80.56	0.01	_
20091112_RATP_SCD_1207	31	2	elle	NULL	cln	NULL	B_GN	SUJ	3	idtext0045	cln	#3#f#s##	spk3	80.57	80.88	0.01	_
20091112_RATP_SCD_1207	31	3	arrive	NULL	v	NULL	B_GVf	DEP_COORD	1	idtext0045	arriver	PS#13##s##	spk3	80.89	81.36	0.01	_
20091112_RATP_SCD_1207	31	4	à	NULL	prep	NULL	B_GP	P_OBJ_LOC	3	idtext0045	à	#####	spk3	81.37	81.53	0.01	_
20091112_RATP_SCD_1207	31	5	Denfert	NULL	nc	B_A	I_GP	OBJ	4	idtext0045	Denfert	#####	spk3	81.54	81.92	?	//

20091112_RATP_SCD_1207	32	1	elle	NULL	cln	NULL	B_GN	SUJ	2	idtext0046	cln	#3#f#s##	spk3	81.99	82.07	0.01	_
20091112_RATP_SCD_1207	32	2	va	NULL	v	NULL	B_GVf	ROOT	0	idtext0046	aller	P#3##s##	spk3	82.08	82.14	0.01	_
20091112_RATP_SCD_1207	32	3	le	NULL	clo	NULL	B_GN	OBJ	4	idtext0046	cla	#3#m#s##	spk3	82.15	82.24	0.01	_
20091112_RATP_SCD_1207	32	4	faire	NULL	vinf	NULL	B_GVi	OBJ	2	idtext0046	faire	W#####	spk3	82.25	82.49	?	//

20091112_RATP_SCD_1207	33	1	d'accord	NULL	adv	NULL	B_GADV	NOLINK	0	idtext0047	d'accord	#####	spk2	82.62	83.49	?	//

20091112_RATP_SCD_1207	34	1	elle	NULL	cln	NULL	B_GN	SUJ	2	idtext0048	cln	#3#f#s##	spk3	82.53	82.65	0.01	_
20091112_RATP_SCD_1207	34	2	va	NULL	v	NULL	B_GVf	ROOT	0	idtext0048	aller	P#3##s##	spk3	82.66	82.75	0.01	_
20091112_RATP_SCD_1207	34	3	le	NULL	clo	NULL	B_GN	OBJ	4	idtext0048	cla	#3#m#s##	spk3	82.76	82.78	0.01	_
20091112_RATP_SCD_1207	34	4	prendre	NULL	vinf	NULL	B_GVi	OBJ	2	idtext0048	prendre	W#####	spk3	82.79	83.02	0.01	_
20091112_RATP_SCD_1207	34	5	à	NULL	prep	NULL	B_GP	P_OBJ_LOC	4	idtext0048	à	#####	spk3	83.03	83.06	0.01	_
20091112_RATP_SCD_1207	34	6	Denfert	NULL	nc	B_A	I_GP	OBJ	5	idtext0048	Denfert	#####	spk3	83.07	83.49	?	//

20091112_RATP_SCD_1207	35	1	donc	NULL	coo	NULL	B_NULL	ROOT	0	idtext0049	donc	#####	spk2	83.82	84.03	0.01	_
20091112_RATP_SCD_1207	35	2	là	NULL	adv	NULL	B_GADV	NOLINK	0	idtext0049	là	#####	spk2	84.04	84.22	0.01	_
20091112_RATP_SCD_1207	35	3	il	NULL	cln	NULL	B_GN	SUJ_IMP	4	idtext0049	cln	#3#m#s##	spk2	84.23	84.44	0.01	_
20091112_RATP_SCD_1207	35	4	faudrait	NULL	v	NULL	B_GVf	DEP_COORD	1	idtext0049	falloir	C#3##s##	spk2	84.45	84.71	0.01	_
20091112_RATP_SCD_1207	35	5	compter	NULL	vinf	NULL	I_GVf	OBJ	4	idtext0049	compter	W#####	spk2	84.72	85.18	0.01	_
20091112_RATP_SCD_1207	35	6	à+peu+près	NULL	adv	NULL	B_GADV	MOD	4	idtext0049	à+peu+près	#####	spk2	85.19	85.55	0.01	_
20091112_RATP_SCD_1207	35	7	dans	NULL	prep	NULL	B_GP	P_OBJ	4	idtext0049	dans	#####	spk2	85.56	85.7	0.01	_
20091112_RATP_SCD_1207	35	8	quinze	NULL	adj	NULL	I_GP	MOD	9	idtext0049	quinze	#####	spk2	85.71	85.93	0.01	_
20091112_RATP_SCD_1207	35	9	minutes	NULL	nc	NULL	I_GP	OBJ	7	idtext0049	minute	##f#p##	spk2	85.94	86.31	?	//

20091112_RATP_SCD_1207	36	1	dans	NULL	prep	NULL	B_GP	ROOT	0	idtext0050	dans	#####	spk3	86.55	86.8	0.01	_
20091112_RATP_SCD_1207	36	2	quinze	NULL	adj	NULL	I_GP	MOD	3	idtext0050	quinze	#####	spk3	86.81	87.11	0.01	_
20091112_RATP_SCD_1207	36	3	minutes	NULL	nc	NULL	I_GP	OBJ	1	idtext0050	minute	##f#p##	spk3	87.12	87.43	0.12	_
20091112_RATP_SCD_1207	36	4	et	NULL	coo	NULL	B_NULL	ROOT	0	idtext0051	et	#####	spk3	87.55	87.59	0.01	_
20091112_RATP_SCD_1207	36	5	le	NULL	det	NULL	B_GN	DET	6	idtext0051	le	##m#s##d	spk3	87.6	87.71	0.01	_
20091112_RATP_SCD_1207	36	6	suivant	NULL	nc	NULL	I_GN	DEP_COORD	4	idtext0051	suivant	##m#s##	spk3	87.72	88.12	?	_

20091112_RATP_SCD_1207	37	1	alors	NULL	adv	NULL	B_GADV	NOLINK	0	idtext0052	alors	#####	spk2	88.38	88.65	0.01	_
20091112_RATP_SCD_1207	37	2	le	NULL	det	NULL	B_GN	DET	3	idtext0052	le	##m#s##d	spk2	88.66	88.68	0.01	_
20091112_RATP_SCD_1207	37	3	suivant	NULL	nc	NULL	I_GN	ROOT	0	idtext0052	suivant	##m#s##	spk2	88.69	88.95	0.01	_
20091112_RATP_SCD_1207	37	4	je	NULL	cln	NULL	B_GN	SUJ	5	idtext0052	cln	#1##s##	spk2	88.96	89.07	0.01	_
20091112_RATP_SCD_1207	37	5	sais	NULL	v	NULL	B_GVfn	ROOT	0	idtext0052	savoir	P#12##s##	spk2	89.08	89.22	0.01	_
20091112_RATP_SCD_1207	37	6	pas	NULL	advneg	NULL	I_GVfn	MOD	5	idtext0052	pas	#####	spk2	89.23	89.46	?	_

20091112_RATP_SCD_1207	38	1	voilà	DISF_M	pres	NULL	NULL	NOLINK	0	idtext0053	voilà	#####	spk3	89.71	89.98	?	//

20091112_RATP_SCD_1207	39	1	parce+que	NULL	csu	NULL	B_NULL	ROOT	0	idtext0054	parce+que	#####	spk2	90.02	91.29	0.01	_
20091112_RATP_SCD_1207	39	2	malheureusement	NULL	adv	NULL	B_GADV	NOLINK	0	idtext0054	malheureusement	#####	spk2	91.3	91.71	0.01	_
20091112_RATP_SCD_1207	39	3	je	NULL	cln	NULL	B_GN	SUJ	4	idtext0054	cln	#1##s##	spk2	91.72	91.85	0.01	_
20091112_RATP_SCD_1207	39	4	sais	NULL	v	NULL	B_GVfn	OBJ	1	idtext0054	savoir	P#12##s##	spk2	91.86	92.01	0.01	_
20091112_RATP_SCD_1207	39	5	pas	NULL	advneg	NULL	I_GVfn	MOD	4	idtext0054	pas	#####	spk2	92.02	92.3	0.01	_
20091112_RATP_SCD_1207	39	6	non	NULL	adv	NULL	B_GADV	NOLINK	0	idtext0054	non	#####	spk2	92.31	92.49	?	_

20091112_RATP_SCD_1207	40	1	OK	NULL	adv	NULL	B_GADV	NOLINK	0	idtext0055	ok	#####	spk3	92.6	92.99	?	_

20091112_RATP_SCD_1207	41	1	non	NULL	adv	NULL	B_GADV	NOLINK	0	idtext0056	non	#####	spk2	93.19	93.46	?	_

20091112_RATP_SCD_1207	42	1	donc	NULL	coo	NULL	B_NULL	NOLINK	0	idtext0057	donc	#####	spk3	93.55	94.2	?	//

20091112_RATP_SCD_1207	43	1	alors	NULL	adv	NULL	B_GADV	NOLINK	0	idtext0058	alors	#####	spk2	94.53	94.83	0.01	_
20091112_RATP_SCD_1207	43	2	il	NULL	cln	NULL	B_GN	SUJ_IMP	5	idtext0058	cln	#3#m#s##	spk2	94.84	94.98	0.01	_
20091112_RATP_SCD_1207	43	3	y	NULL	clo	NULL	B_GN	AFF	5	idtext0058	y	#####	spk2	94.99	95.04	0.01	_
20091112_RATP_SCD_1207	43	4	en	NULL	clo	NULL	B_GN	OBJ	5	idtext0058	en	#####	spk2	95.05	95.2	0.01	_
20091112_RATP_SCD_1207	43	5	a	NULL	v	NULL	B_GVfn	ROOT	0	idtext0058	avoir	P#3##s##	spk2	95.21	95.26	0.01	_
20091112_RATP_SCD_1207	43	6	pas	NULL	advneg	NULL	I_GVfn	MOD	5	idtext0058	pas	#####	spk2	95.27	95.39	0.01	_
20091112_RATP_SCD_1207	43	7	beaucoup	NULL	adv	NULL	B_GADV	MOD	8	idtext0058	beaucoup	#####	spk2	95.4	95.7	0.01	_
20091112_RATP_SCD_1207	43	8	sincèrement	NULL	adv	NULL	I_GADV	ROOT	0	idtext0058	sincèrement	#####	spk2	95.71	96.47	?	_

20091112_RATP_SCD_1207	44	1	ah+ben	DISF_M	pres	NULL	NULL	NOLINK	0	idtext0059	ah+ben	#####	spk3	96.64	96.85	?	_

20091112_RATP_SCD_1207	45	1	il	NULL	cln	NULL	B_GN	SUJ_IMP	3	idtext0060	cln	#3#m#s##	spk2	96.95	97.02	0.01	_
20091112_RATP_SCD_1207	45	2	y	NULL	clo	NULL	B_GN	AFF	3	idtext0060	y	#####	spk2	97.03	97.05	0.01	_
20091112_RATP_SCD_1207	45	3	a	NULL	v	NULL	B_GVf	ROOT	0	idtext0060	avoir	P#3##s##	spk2	97.06	97.09	0.01	_
20091112_RATP_SCD_1207	45	4	beaucoup	NULL	adv	NULL	B_GADV	MOD	5	idtext0060	beaucoup	#####	spk2	97.1	97.25	0.01	_
20091112_RATP_SCD_1207	45	5	plus	NULL	adv	NULL	I_GADV	MOD	3	idtext0060	plus	#####	spk2	97.26	97.4	0.01	_
20091112_RATP_SCD_1207	45	6	de	NULL	prep	NULL	B_NULL	NOLINK	0	idtext0060	de	#####	spk2	97.41	97.43	0.01	_
20091112_RATP_SCD_1207	45	7	oui	DISF_R	adv	NULL	NULL	NOLINK	0	idtext0060	oui	#####	spk2	97.44	97.62	0.01	_
20091112_RATP_SCD_1207	45	8	oui	DISF_R	adv	NULL	NULL	NOLINK	0	idtext0060	oui	#####	spk2	97.63	97.75	0.01	_
20091112_RATP_SCD_1207	45	9	oui	NULL	adv	NULL	B_GADV	NOLINK	0	idtext0060	oui	#####	spk2	97.76	97.93	0.01	_
20091112_RATP_SCD_1207	45	10	mais	NULL	coo	NULL	B_NULL	NOLINK	0	idtext0060	mais	#####	spk2	97.94	98.95	?	_

20091112_RATP_SCD_1207	46	1	non	DISF_R	adv	NULL	NULL	NOLINK	0	idtext0061	non	#####	spk3	96.89	96.96	0.01	/
20091112_RATP_SCD_1207	46	2	non	DISF_R	adv	NULL	NULL	NOLINK	0	idtext0061	non	#####	spk3	96.97	97.07	0.01	_
20091112_RATP_SCD_1207	46	3	non	NULL	adv	NULL	B_GADV	NOLINK	0	idtext0061	non	#####	spk3	97.08	97.19	0.01	_
20091112_RATP_SCD_1207	46	4	c'	NULL	cln	NULL	B_GN	SUJ_IMP	5	idtext0061	ce	###s##	spk3	97.2	97.22	0.01	_
20091112_RATP_SCD_1207	46	5	est	NULL	v	NULL	B_GVf	ROOT	0	idtext0061	être	P#3##s##	spk3	97.23	97.28	0.01	_
20091112_RATP_SCD_1207	46	6	ce+qu'	NULL	prorel	NULL	B_NULL	OBJ	8	idtext0061	ce+qu'	#####	spk3	97.29	97.51	0.01	_
20091112_RATP_SCD_1207	46	7	on	NULL	cln	NULL	B_GN	SUJ_IMP	8	idtext0061	cln	#3##s##	spk3	97.52	97.57	0.01	_
20091112_RATP_SCD_1207	46	8	voit	NULL	v	NULL	B_GVf	ATS	5	idtext0061	voir	P#3##s##	spk3	97.58	97.83	0.01	_
20091112_RATP_SCD_1207	46	9	c'est-à-dire	NULL	coo	NULL	B_NULL	NOLINK	0	idtext0061	c'est-à-dire	#####	spk3	97.84	98.95	?	_

20091112_RATP_SCD_1207	47	1	si	NULL	csu	NULL	B_NULL	ROOT	0	idtext0062	si	#####	spk3	98.99	99.08	0.01	_
20091112_RATP_SCD_1207	47	2	vous	NULL	cln	NULL	B_GN	SUJ	4	idtext0062	cln	#2##p##	spk3	99.09	99.26	0.01	_
20091112_RATP_SCD_1207	47	3	aviez	NULL	v	NULL	B_GVf	AUX	4	idtext0062	avoir	I#2##p##	spk3	99.27	99.48	0.01	_
20091112_RATP_SCD_1207	47	4	annoncé	NULL	vppart	NULL	I_GVf	OBJ	1	idtext0062	annoncer	K##m#s##	spk3	99.49	99.91	0.01	_
20091112_RATP_SCD_1207	47	5	à	NULL	prep	NULL	B_GP	A_OBJ	4	idtext0062	à	#####	spk3	99.92	99.97	0.01	_
20091112_RATP_SCD_1207	47	6	tout+le+monde	NULL	pro	NULL	I_GP	OBJ	5	idtext0062	tout+le+monde	#####	spk3	99.98	100.57	?	_

20091112_RATP_SCD_1207	48	1	oui	NULL	adv	NULL	B_GADV	NOLINK	0	idtext0063	oui	#####	spk2	100.79	101.03	0.01	//
20091112_RATP_SCD_1207	48	2	mais	NULL	coo	NULL	B_NULL	NOLINK	0	idtext0063	mais	#####	spk2	101.04	101.55	?	_

20091112_RATP_SCD_1207	49	1	que	NULL	csu	NULL	B_NULL	ROOT	0	idtext0064	que	#####	spk3	100.64	100.72	0.01	_
20091112_RATP_SCD_1207	49	2	c'	NULL	cln	NULL	B_GN	SUJ_IMP	3	idtext0064	ce	###s##	spk3	100.73	100.75	0.01	_
20091112_RATP_SCD_1207	49	3	était	NULL	v	NULL	B_GVf	OBJ	1	idtext0064	être	I#3##s##	spk3	100.76	100.92	0.01	_
20091112_RATP_SCD_1207	49	4	catastrophique	NULL	adj	NULL	B_GADJ	ATS	3	idtext0064	catastrophique	###s##	spk3	100.93	101.55	?	//

20091112_RATP_SCD_1207	50	1	les	NULL	det	NULL	B_GN	DET	2	idtext0065	le	###p##d	spk3	101.59	101.64	0.01	_
20091112_RATP_SCD_1207	50	2	gens	NULL	nc	NULL	I_GN	SUJ	4	idtext0065	gens	##m#p##	spk3	101.65	101.91	0.01	_
20091112_RATP_SCD_1207	50	3	auraient	NULL	v	NULL	B_GVf	AUX	4	idtext0065	avoir	C#3##p##	spk3	101.92	102.1	0.01	_
20091112_RATP_SCD_1207	50	4	pris	NULL	vppart	NULL	I_GVf	ROOT	0	idtext0065	prendre	K##m###	spk3	102.11	102.34	0.01	_
20091112_RATP_SCD_1207	50	5	des	NULL	det	NULL	B_GN	DET	6	idtext0065	des	###p##i	spk3	102.35	102.56	0.01	_
20091112_RATP_SCD_1207	50	6	dispositions	NULL	nc	NULL	I_GN	OBJ	4	idtext0065	disposition	##f#p##	spk3	102.57	103.27	?	//

20091112_RATP_SCD_1207	51	1	bien+sûr	NULL	adv	NULL	B_GADV	NOLINK	0	idtext0066	bien+sûr	#####	spk2	103.31	103.74	?	//

20091112_RATP_SCD_1207	52	1	bon	DISF_M	pres	NULL	NULL	NOLINK	0	idtext0067	bon	#####	spk3	103.83	104.12	0.01	_
20091112_RATP_SCD_1207	52	2	alors	NULL	adv	NULL	B_GADV	NOLINK	0	idtext0067	alors	#####	spk3	104.13	104.53	0.04	_
20091112_RATP_SCD_1207	52	3	je	NULL	cln	NULL	B_GN	SUJ	7	idtext0069	cln	#1##s##	spk3	104.57	104.61	0.01	_
20091112_RATP_SCD_1207	52	4	ne	NULL	clneg	NULL	B_NULL	NOLINK	0	idtext0069	ne	#####	spk3	104.62	104.64	0.01	_
20091112_RATP_SCD_1207	52	5	vous	NULL	clo	NULL	B_GN	OBJ	7	idtext0069	cln	#2##p##	spk3	104.65	104.8	0.01	_
20091112_RATP_SCD_1207	52	6	en	NULL	clo	NULL	B_GN	OBJ	7	idtext0069	en	#####	spk3	104.81	104.95	0.01	_
20091112_RATP_SCD_1207	52	7	veux	NULL	v	NULL	B_GVfn	ROOT	0	idtext0069	vouloir	P#12##s##	spk3	104.96	105.07	0.01	_
20091112_RATP_SCD_1207	52	8	pas	NULL	advneg	NULL	I_GVfn	MOD	7	idtext0069	pas	#####	spk3	105.08	105.17	0.01	_
20091112_RATP_SCD_1207	52	9	vous	NULL	clo	NULL	B_GN	SUJ	7	idtext0069	cln	#2##p##	spk3	105.18	105.49	0.04	_
20091112_RATP_SCD_1207	52	10	que	NULL	csu	NULL	B_NULL	OBJ	13	idtext0071	que	#####	spk3	105.53	105.85	0.01	/
20091112_RATP_SCD_1207	52	11	à	NULL	prep	NULL	B_GP	OBJ	10	idtext0071	à	#####	spk3	105.86	105.89	0.01	_
20091112_RATP_SCD_1207	52	12	vous	NULL	cln	NULL	I_GP	OBJ	11	idtext0071	cln	#2##p##	spk3	105.9	106.12	0.01	_
20091112_RATP_SCD_1207	52	13	parce+que	NULL	csu	NULL	B_NULL	ROOT	0	idtext0071	parce+que	#####	spk3	106.13	106.39	0.01	_
20091112_RATP_SCD_1207	52	14	vous	NULL	cln	NULL	B_GN	SUJ	15	idtext0071	cln	#2##p##	spk3	106.4	106.56	0.01	_
20091112_RATP_SCD_1207	52	15	êtes	NULL	v	NULL	B_GVf	OBJ	13	idtext0071	être	P#2##p##	spk3	106.57	106.7	0.01	_
20091112_RATP_SCD_1207	52	16	là	NULL	adv	NULL	B_GADV	MOD	15	idtext0071	là	#####	spk3	106.71	106.76	0.01	_
20091112_RATP_SCD_1207	52	17	au	NULL	prep	NULL	B_GP	MOD	15	idtext0071	au	#####	spk3	106.77	106.82	0.01	_
20091112_RATP_SCD_1207	52	18	bout	NULL	nc	NULL	I_GP	OBJ	17	idtext0071	bout	##m#s##	spk3	106.83	106.93	0.01	_
20091112_RATP_SCD_1207	52	19	du	NULL	prep	NULL	B_GP	DEP	18	idtext0071	du	#####	spk3	106.94	107.08	0.01	_
20091112_RATP_SCD_1207	52	20	téléphone	NULL	nc	NULL	I_GP	OBJ	19	idtext0071	téléphone	##m#s##	spk3	107.09	107.54	?	//

20091112_RATP_SCD_1207	53	1	non	DISF_R	adv	NULL	NULL	NOLINK	0	idtext0068	non	#####	spk2	103.85	104.06	0.01	_
20091112_RATP_SCD_1207	53	2	non	NULL	adv	NULL	B_GADV	NOLINK	0	idtext0068	non	#####	spk2	104.07	104.17	0.01	_
20091112_RATP_SCD_1207	53	3	je	NULL	cln	NULL	B_GN	SUJ	4	idtext0068	cln	#1##s##	spk2	104.18	104.2	0.01	_
20091112_RATP_SCD_1207	53	4	comprends	NULL	v	NULL	B_GVf	ROOT	0	idtext0068	comprendre	P#12##s##	spk2	104.21	104.53	0.21	_
20091112_RATP_SCD_1207	53	5	bien	NULL	adv	NULL	B_GADV	MOD	6	idtext0070	bien	#####	spk2	104.74	104.92	0.01	_
20091112_RATP_SCD_1207	53	6	alors	NULL	adv	NULL	I_GADV	ROOT	0	idtext0070	alors	#####	spk2	104.93	105.49	0.07	_
20091112_RATP_SCD_1207	53	7	non	DISF_R	adv	NULL	NULL	NOLINK	0	idtext0072	non	#####	spk2	105.56	105.88	0.01	_
20091112_RATP_SCD_1207	53	8	non	DISF_R	adv	NULL	NULL	NOLINK	0	idtext0072	non	#####	spk2	105.89	106.12	0.01	_
20091112_RATP_SCD_1207	53	9	non	DISF_R	adv	NULL	NULL	NOLINK	0	idtext0072	non	#####	spk2	106.13	106.7	0.01	_
20091112_RATP_SCD_1207	53	10	non	NULL	adv	NULL	B_GADV	NOLINK	0	idtext0072	non	#####	spk2	106.71	106.85	0.01	_
20091112_RATP_SCD_1207	53	11	mais	NULL	coo	NULL	B_NULL	NOLINK	0	idtext0072	mais	#####	spk2	106.86	107.54	?	_

20091112_RATP_SCD_1207	54	1	on	NULL	cln	NULL	B_GN	SUJ_IMP	2	idtext0073	cln	#3##s##	spk2	107.6	107.79	0.01	_
20091112_RATP_SCD_1207	54	2	est	NULL	v	NULL	B_GVf	ROOT	0	idtext0073	être	P#3##s##	spk2	107.8	107.88	0.01	_
20091112_RATP_SCD_1207	54	3	bien	NULL	adv	NULL	B_GADV	MOD	4	idtext0073	bien	#####	spk2	107.89	108.04	0.01	_
20091112_RATP_SCD_1207	54	4	d'accord	NULL	adv	NULL	I_GADV	ATS	2	idtext0073	d'accord	#####	spk2	108.05	108.33	0.01	_
20091112_RATP_SCD_1207	54	5	on	NULL	cln	NULL	B_GN	SUJ	6	idtext0073	cln	#3##s##	spk2	108.34	108.45	0.01	_
20091112_RATP_SCD_1207	54	6	est	NULL	v	NULL	B_GVf	ROOT	0	idtext0073	être	P#3##s##	spk2	108.46	108.51	0.01	_
20091112_RATP_SCD_1207	54	7	bien	NULL	adv	NULL	B_GADV	MOD	8	idtext0073	bien	#####	spk2	108.52	108.6	0.01	_
20091112_RATP_SCD_1207	54	8	d'accord	NULL	adv	NULL	I_GADV	ATS	6	idtext0073	d'accord	#####	spk2	108.61	108.85	0.24	_
20091112_RATP_SCD_1207	54	9	non	DISF_R	adv	NULL	NULL	NOLINK	0	idtext0075	non	#####	spk2	109.09	109.39	0.01	_
20091112_RATP_SCD_1207	54	10	non	DISF_R	adv	NULL	NULL	NOLINK	0	idtext0075	non	#####	spk2	109.4	109.52	0.01	_
20091112_RATP_SCD_1207	54	11	non	DISF_R	adv	NULL	NULL	NOLINK	0	idtext0075	non	#####	spk2	109.53	109.89	0.01	_
20091112_RATP_SCD_1207	54	12	non	DISF_R	adv	NULL	NULL	NOLINK	0	idtext0075	non	#####	spk2	109.9	110.17	0.01	_
20091112_RATP_SCD_1207	54	13	non	NULL	adv	NULL	B_GADV	NOLINK	0	idtext0075	non	#####	spk2	110.18	110.52	0.04	_
20091112_RATP_SCD_1207	54	14	mais	NULL	coo	NULL	B_NULL	NOLINK	0	idtext0077	mais	#####	spk2	110.56	110.69	0.01	_
20091112_RATP_SCD_1207	54	15	je	NULL	cln	NULL	B_GN	NOLINK	0	idtext0077	cln	#1##s##	spk2	110.7	111.47	0.04	_
20091112_RATP_SCD_1207	54	16	il	NULL	cln	NULL	B_GN	SUJ_IMP	18	idtext0079	cln	#3#m#s##	spk2	111.51	111.93	0.01	_
20091112_RATP_SCD_1207	54	17	y	NULL	clo	NULL	B_GN	AFF	18	idtext0079	y	#####	spk2	111.94	112.52	0.01	_
20091112_RATP_SCD_1207	54	18	a	NULL	v	NULL	B_GVf	ROOT	0	idtext0079	avoir	P#3##s##	spk2	112.53	112.67	0.01	_
20091112_RATP_SCD_1207	54	19	aucun	NULL	det	NULL	B_GN	DET	20	idtext0079	aucun	##m#s##i	spk2	112.68	113.09	0.01	_
20091112_RATP_SCD_1207	54	20	problème	NULL	nc	NULL	I_GN	OBJ	18	idtext0079	problème	##m#s##	spk2	113.1	113.5	0.04	_
20091112_RATP_SCD_1207	54	21	je	DISF_R	cln	NULL	NULL	NOLINK	0	idtext0081	cln	#1##s##	spk2	113.54	113.63	0.01	_
20091112_RATP_SCD_1207	54	22	sais	DISF_R	v	NULL	NULL	NOLINK	0	idtext0081	savoir	P#12##s##	spk2	113.64	113.87	0.01	_
20091112_RATP_SCD_1207	54	23	bien	DISF_R	adv	NULL	NULL	NOLINK	0	idtext0081	bien	#####	spk2	113.88	114.12	0.01	_
20091112_RATP_SCD_1207	54	24	je	NULL	cln	NULL	B_GN	SUJ	25	idtext0081	cln	#1##s##	spk2	114.13	114.29	0.01	_
20091112_RATP_SCD_1207	54	25	sais	NULL	v	NULL	B_GVf	ROOT	0	idtext0081	savoir	P#12##s##	spk2	114.3	114.41	0.01	_
20091112_RATP_SCD_1207	54	26	bien	NULL	adv	NULL	B_GADV	MOD	25	idtext0081	bien	#####	spk2	114.42	114.79	0.13	_
20091112_RATP_SCD_1207	54	27	mais	NULL	coo	NULL	B_NULL	NOLINK	0	idtext0083	mais	#####	spk2	114.92	115.42	0.01	_
20091112_RATP_SCD_1207	54	28	moi	NULL	pro	NULL	B_GN	NOLINK	0	idtext0083	moi	#####	spk2	115.43	115.58	0.01	_
20091112_RATP_SCD_1207	54	29	je	NULL	cln	NULL	B_GN	NOLINK	0	idtext0083	cln	#1##s##	spk2	115.59	116.05	0.01	_
20091112_RATP_SCD_1207	54	30	alors	NULL	adv	NULL	B_GADV	NOLINK	0	idtext0083	alors	#####	spk2	116.06	116.86	?	_

20091112_RATP_SCD_1207	55	1	et	DISF_R	coo	NULL	NULL	NOLINK	0	idtext0074	et	#####	spk3	107.79	107.93	0.01	_
20091112_RATP_SCD_1207	55	2	et	NULL	coo	NULL	B_NULL	ROOT	0	idtext0074	et	#####	spk3	107.94	108.0	0.01	_
20091112_RATP_SCD_1207	55	3	c'	NULL	cln	NULL	B_GN	SUJ_IMP	4	idtext0074	ce	###s##	spk3	108.01	108.03	0.01	_
20091112_RATP_SCD_1207	55	4	est	NULL	v	NULL	B_GVf	DEP_COORD	2	idtext0074	être	P#3##s##	spk3	108.04	108.22	0.01	_
20091112_RATP_SCD_1207	55	5	vous	NULL	pro	NULL	B_GN	ATS	4	idtext0074	vous	#####	spk3	108.23	108.41	0.01	_
20091112_RATP_SCD_1207	55	6	qui	NULL	prorel	NULL	B_NULL	MOD	4	idtext0074	qui	#####	spk3	108.42	108.85	0.04	_
20091112_RATP_SCD_1207	55	7	passiez	NULL	v	NULL	B_GVf	ROOT	0	idtext0076	passer	I#2##p##	spk3	108.89	109.17	0.01	_
20091112_RATP_SCD_1207	55	8	un+peu	NULL	adv	NULL	B_GADV	MOD	7	idtext0076	un+peu	#####	spk3	109.18	109.42	0.01	_
20091112_RATP_SCD_1207	55	9	ma	NULL	det	NULL	B_GN	DET	10	idtext0076	mon	##f#s##o	spk3	109.43	109.54	0.01	_
20091112_RATP_SCD_1207	55	10	colère	NULL	nc	NULL	I_GN	OBJ	7	idtext0076	colère	##f#s##	spk3	109.55	110.52	0.14	_
20091112_RATP_SCD_1207	55	11	voilà	DISF_M	pres	NULL	NULL	NOLINK	0	idtext0078	voilà	#####	spk3	110.66	111.06	0.01	_
20091112_RATP_SCD_1207	55	12	hein	DISF_M	pres	NULL	NULL	NOLINK	0	idtext0078	hein	#####	spk3	111.07	111.47	0.04	_
20091112_RATP_SCD_1207	55	13	et	NULL	coo	NULL	B_NULL	ROOT	0	idtext0080	et	#####	spk3	111.51	111.86	0.01	_
20091112_RATP_SCD_1207	55	14	j'	NULL	cln	NULL	B_GN	SUJ	15	idtext0080	cln	#1##s##	spk3	111.87	112.09	0.01	_
20091112_RATP_SCD_1207	55	15	ai	NULL	v	NULL	B_GVf	DEP_COORD	13	idtext0080	avoir	P#1##s##	spk3	112.1	112.13	0.01	_
20091112_RATP_SCD_1207	55	16	rien	NULL	pro	NULL	B_GN	OBJ	15	idtext0080	rien	#####	spk3	112.14	112.33	0.01	_
20091112_RATP_SCD_1207	55	17	contre	NULL	prep	NULL	B_GP	P_OBJ	16	idtext0080	contre	#####	spk3	112.34	112.72	0.01	_
20091112_RATP_SCD_1207	55	18	vous	NULL	pro	NULL	I_GP	OBJ	17	idtext0080	vous	#####	spk3	112.73	112.86	0.01	_
20091112_RATP_SCD_1207	55	19	à	NULL	prep	NULL	B_GP	MOD	15	idtext0080	à	#####	spk3	112.87	112.89	0.01	_
20091112_RATP_SCD_1207	55	20	titre	NULL	nc	NULL	I_GP	OBJ	19	idtext0080	titre	##m#s##	spk3	112.9	113.12	0.01	_
20091112_RATP_SCD_1207	55	21	personnel	NULL	adj	NULL	I_GP	MOD	20	idtext0080	personnel	##m#s##	spk3	113.13	113.5	0.63	_
20091112_RATP_SCD_1207	55	22	hm	DISF_M	pres	NULL	NULL	NOLINK	0	idtext0082	hm	#####	spk3	114.13	114.28	0.01	_
20091112_RATP_SCD_1207	55	23	bon	DISF_M	pres	NULL	NULL	NOLINK	0	idtext0082	bon	#####	spk3	114.29	114.79	0.09	//
20091112_RATP_SCD_1207	55	24	euh	DISF_M	pres	NULL	NULL	NOLINK	0	idtext0084	euh	#####	spk3	114.88	114.91	0.01	_
20091112_RATP_SCD_1207	55	25	mais	NULL	coo	NULL	B_NULL	ROOT	0	idtext0084	mais	#####	spk3	114.92	115.08	0.01	_
20091112_RATP_SCD_1207	55	26	c'	NULL	cln	NULL	B_GN	SUJ_IMP	27	idtext0084	ce	###s##	spk3	115.09	115.11	0.01	_
20091112_RATP_SCD_1207	55	27	est	NULL	v	NULL	B_GVf	DEP_COORD	25	idtext0084	être	P#3##s##	spk3	115.12	115.44	0.01	_
20091112_RATP_SCD_1207	55	28	vrai	NULL	adj	NULL	B_GADJ	ATS	27	idtext0084	vrai	##m#s##	spk3	115.45	115.77	0.01	_
20091112_RATP_SCD_1207	55	29	que	NULL	csu	NULL	B_NULL	OBJ	28	idtext0084	que	#####	spk3	115.78	115.99	0.01	_
20091112_RATP_SCD_1207	55	30	c'	NULL	cln	NULL	B_GN	SUJ_IMP	31	idtext0084	ce	###s##	spk3	116.0	116.05	0.01	_
20091112_RATP_SCD_1207	55	31	est	NULL	v	NULL	B_GVf	OBJ	29	idtext0084	être	P#3##s##	spk3	116.06	116.09	0.01	_
20091112_RATP_SCD_1207	55	32	un+peu	NULL	adv	NULL	B_GADJ	MOD	33	idtext0084	un+peu	#####	spk3	116.1	116.3	0.01	_
20091112_RATP_SCD_1207	55	33	agaçant	NULL	adj	NULL	I_GADJ	ATS	31	idtext0084	agaçant	##m#s##	spk3	116.31	116.65	0.01	_
20091112_RATP_SCD_1207	55	34	quoi	DISF_M	pres	NULL	NULL	NOLINK	0	idtext0084	quoi	#####	spk3	116.66	116.86	?	_

20091112_RATP_SCD_1207	56	1	ça	NULL	pro	NULL	B_GN	OBJ	4	idtext0085	ça	#####	spk2	116.9	116.98	0.01	_
20091112_RATP_SCD_1207	56	2	je	NULL	cln	NULL	B_GN	SUJ	4	idtext0085	cln	#1##s##	spk2	116.99	117.04	0.01	_
20091112_RATP_SCD_1207	56	3	vous	NULL	clo	NULL	B_GN	OBJ	4	idtext0085	cln	#2##p##	spk2	117.05	117.1	0.01	_
20091112_RATP_SCD_1207	56	4	critique	NULL	v	NULL	B_GVf	ROOT	0	idtext0085	critiquer	PS#13##s##	spk2	117.11	117.43	0.01	_
20091112_RATP_SCD_1207	56	5	un+peu	NULL	adv	NULL	B_GADV	MOD	4	idtext0085	un+peu	#####	spk2	117.44	117.72	1.14	/
20091112_RATP_SCD_1207	56	6	parce+que	NULL	csu	NULL	B_NULL	ROOT	0	idtext0086	parce+que	#####	spk2	118.86	119.0	0.01	_
20091112_RATP_SCD_1207	56	7	je	NULL	cln	NULL	B_GN	SUJ	8	idtext0086	cln	#1##s##	spk2	119.01	119.13	0.01	_
20091112_RATP_SCD_1207	56	8	pense	NULL	v	NULL	B_GVf	OBJ	6	idtext0086	penser	PS#13##s##	spk2	119.14	119.34	0.01	_
20091112_RATP_SCD_1207	56	9	que	NULL	csu	NULL	B_NULL	OBJ	8	idtext0086	que	#####	spk2	119.35	119.42	0.01	_
20091112_RATP_SCD_1207	56	10	c'	NULL	cln	NULL	B_GN	SUJ_IMP	11	idtext0086	ce	###s##	spk2	119.43	119.51	0.01	_
20091112_RATP_SCD_1207	56	11	est	NULL	v	NULL	B_GVf	OBJ	9	idtext0086	être	P#3##s##	spk2	119.52	119.54	0.01	_
20091112_RATP_SCD_1207	56	12	la	NULL	det	NULL	B_GN	DET	13	idtext0086	le	##m#s##d	spk2	119.55	119.6	0.01	_
20091112_RATP_SCD_1207	56	13	RATP	NULL	np	B_ORG	I_GN	ATS	11	idtext0086	RATP	##f#s##	spk2	119.61	119.99	0.01	_
20091112_RATP_SCD_1207	56	14	qui	NULL	prorel	NULL	B_NULL	SUJ	16	idtext0086	qui	#####	spk2	120.0	120.09	0.01	_
20091112_RATP_SCD_1207	56	15	a	NULL	v	NULL	B_GVf	AUX	16	idtext0086	avoir	P#3##s##	spk2	120.1	120.12	0.01	_
20091112_RATP_SCD_1207	56	16	dû	NULL	vppart	NULL	I_GVf	MOD_REL	13	idtext0086	devoir	K##m#s##	spk2	120.13	120.37	0.01	_
20091112_RATP_SCD_1207	56	17	transmettre	NULL	vinf	NULL	B_GVi	OBJ	16	idtext0086	transmettre	W#####	spk2	120.38	120.8	0.01	_
20091112_RATP_SCD_1207	56	18	des	NULL	det	NULL	B_GN	DET	19	idtext0086	des	###p##i	spk2	120.81	120.93	0.01	_
20091112_RATP_SCD_1207	56	19	informations	NULL	nc	NULL	I_GN	OBJ	17	idtext0086	information	##f#p##	spk2	120.94	121.58	?	//

20091112_RATP_SCD_1207	57	1	ah	DISF_M	pres	NULL	NULL	NOLINK	0	idtext0087	ah	#####	spk3	121.86	121.96	0.01	_
20091112_RATP_SCD_1207	57	2	oui	NULL	adv	NULL	B_GADV	NOLINK	0	idtext0087	oui	#####	spk3	121.97	122.18	?	_

20091112_RATP_SCD_1207	58	1	aux	NULL	prep	NULL	B_NULL	NOLINK	0	idtext0088	aux	#####	spk2	121.87	122.18	?	_

20091112_RATP_SCD_1207	59	1	aux	DISF_R	prep	NULL	NULL	NOLINK	0	idtext0089	aux	#####	spk2	122.22	122.36	0.01	_
20091112_RATP_SCD_1207	59	2	aux	NULL	prep	NULL	B_GP	ROOT	0	idtext0089	aux	#####	spk2	122.37	122.39	0.01	_
20091112_RATP_SCD_1207	59	3	journalistes	NULL	nc	NULL	I_GP	OBJ	2	idtext0089	journaliste	###p##	spk2	122.4	123.92	0.01	_
20091112_RATP_SCD_1207	59	4	hein	DISF_M	pres	NULL	NULL	NOLINK	0	idtext0089	hein	#####	spk2	123.93	124.02	0.01	_
20091112_RATP_SCD_1207	59	5	on	GREF	cln	NULL	B_GN	SUJ	6	idtext0089	cln	#3##s##	spk2	124.03	124.06	0.01	_
20091112_RATP_SCD_1207	59	6	va	GREF	v	NULL	B_GVf	ROOT	0	idtext0089	aller	P#3##s##	spk2	124.07	124.17	0.01	_
20091112_RATP_SCD_1207	59	7	dire	GREF	vinf	NULL	I_GVf	OBJ	6	idtext0089	dire	W#####	spk2	124.18	124.37	0.01	_
20091112_RATP_SCD_1207	59	8	hein	DISF_M	pres	NULL	NULL	NOLINK	0	idtext0089	hein	#####	spk2	124.38	124.56	?	//

20091112_RATP_SCD_1207	60	1	oh	DISF_M	pres	NULL	NULL	NOLINK	0	idtext0090	oh	#####	spk3	124.68	124.8	0.01	//
20091112_RATP_SCD_1207	60	2	mais	NULL	coo	NULL	B_NULL	ROOT	0	idtext0090	mais	#####	spk3	124.81	124.91	0.01	_
20091112_RATP_SCD_1207	60	3	même	NULL	adv	NULL	B_GADV	NOLINK	0	idtext0090	même	###s##	spk3	124.92	125.08	0.01	_
20091112_RATP_SCD_1207	60	4	sur	NULL	prep	NULL	B_GP	DEP_COORD	2	idtext0090	sur	#####	spk3	125.09	125.26	0.01	_
20091112_RATP_SCD_1207	60	5	votre	NULL	det	NULL	I_GP	DET	6	idtext0090	votre	###s##o	spk3	125.27	125.44	0.01	_
20091112_RATP_SCD_1207	60	6	site	NULL	nc	NULL	I_GP	OBJ	4	idtext0090	site	##m#s##	spk3	125.45	125.73	?	//

20091112_RATP_SCD_1207	61	1	exactement	DISF_R	adv	NULL	NULL	NOLINK	0	idtext0091	exactement	#####	spk2	125.77	126.6	0.01	_
20091112_RATP_SCD_1207	61	2	exactement	DISF_R	adv	NULL	NULL	NOLINK	0	idtext0091	exactement	#####	spk2	126.61	127.51	0.01	_
20091112_RATP_SCD_1207	61	3	exactement	NULL	adv	NULL	B_GADV	NOLINK	0	idtext0091	exactement	#####	spk2	127.52	128.0	?	_

20091112_RATP_SCD_1207	62	1	Internet	NULL	np	B_ORG	B_GN	NOLINK	0	idtext0092	Internet	#####	spk3	125.78	126.23	0.01	_
20091112_RATP_SCD_1207	62	2	là	NULL	adv	NULL	B_GADV	NOLINK	0	idtext0092	là	#####	spk3	126.24	126.33	0.01	_
20091112_RATP_SCD_1207	62	3	sur+lequel	NULL	prorel	NULL	B_NULL	NOLINK	0	idtext0092	sur+lequel	#####	spk3	126.34	127.14	0.01	_
20091112_RATP_SCD_1207	62	4	trafic	NULL	nc	NULL	B_GN	NOLINK	0	idtext0093	trafic	##m#s##	spk3	127.15	128.0	?	//

20091112_RATP_SCD_1207	63	1	quasi	NULL	adv	NULL	B_GADJ	MOD	2	idtext0094	quasi	#####	spk3	128.04	128.28	0.01	_
20091112_RATP_SCD_1207	63	2	normal	NULL	adj	NULL	I_GADJ	ROOT	0	idtext0094	normal	##m#s##	spk3	128.29	128.62	?	//

20091112_RATP_SCD_1207	64	1	exactement	NULL	adv	NULL	B_GADV	NOLINK	0	idtext0095	exactement	#####	spk2	128.93	129.63	0.01	_
20091112_RATP_SCD_1207	64	2	on	NULL	cln	NULL	B_GN	SUJ	3	idtext0095	cln	#3##s##	spk2	129.64	129.76	0.01	_
20091112_RATP_SCD_1207	64	3	est	NULL	v	NULL	B_GVf	ROOT	0	idtext0095	être	P#3##s##	spk2	129.77	129.85	0.01	_
20091112_RATP_SCD_1207	64	4	bien	NULL	adv	NULL	B_GADV	MOD	5	idtext0095	bien	#####	spk2	129.86	129.96	0.01	_
20091112_RATP_SCD_1207	64	5	d'accord	NULL	adv	NULL	I_GADV	ATS	3	idtext0095	d'accord	#####	spk2	129.97	130.31	0.04	_
20091112_RATP_SCD_1207	64	6	non	DISF_R	adv	NULL	NULL	NOLINK	0	idtext0097	non	#####	spk2	130.35	130.61	0.01	_
20091112_RATP_SCD_1207	64	7	non	NULL	adv	NULL	B_GADV	NOLINK	0	idtext0097	non	#####	spk2	130.62	131.0	0.01	_
20091112_RATP_SCD_1207	64	8	exemple	NULL	nc	NULL	B_GN	ROOT	0	idtext0097	exemple	##m#s##	spk2	131.01	131.31	0.01	_
20091112_RATP_SCD_1207	64	9	exact	NULL	adj	NULL	I_GN	MOD	8	idtext0098	exact	##m#s##	spk2	131.32	132.0	?	//

20091112_RATP_SCD_1207	65	1	trois	NULL	adj	NULL	B_GN	MOD	2	idtext0096	trois	#####	spk3	128.74	128.91	0.01	_
20091112_RATP_SCD_1207	65	2	trains	NULL	nc	NULL	I_GN	ROOT	0	idtext0096	train	##m#p##	spk3	128.92	129.01	0.01	_
20091112_RATP_SCD_1207	65	3	sur	NULL	prep	NULL	B_NULL	ROOT	0	idtext0096	sur	#####	spk3	129.02	129.1	0.01	_
20091112_RATP_SCD_1207	65	4	quatre	NULL	adj	NULL	B_GADJ	OBJ	3	idtext0096	quatre	#####	spk3	129.11	129.75	0.01	_
20091112_RATP_SCD_1207	65	5	et	NULL	coo	NULL	B_NULL	NOLINK	0	idtext0096	et	#####	spk3	129.76	129.95	0.01	_
20091112_RATP_SCD_1207	65	6	non	NULL	adv	NULL	B_GADV	NOLINK	0	idtext0096	non	#####	spk3	129.96	130.31	0.04	_
20091112_RATP_SCD_1207	65	7	non	NULL	adv	NULL	B_GADV	NOLINK	0	idtext0099	non	#####	spk3	130.35	130.55	0.01	_
20091112_RATP_SCD_1207	65	8	dites	NULL	v	NULL	B_GVfn	ROOT	0	idtext0099	dire	P#2##p##	spk3	130.56	130.73	0.01	_
20091112_RATP_SCD_1207	65	9	pas	NULL	advneg	NULL	I_GVfn	MOD	8	idtext0099	pas	#####	spk3	130.74	131.44	0.01	_
20091112_RATP_SCD_1207	65	10	ça	NULL	pro	NULL	B_GN	OBJ	8	idtext0099	ça	#####	spk3	131.45	131.54	0.01	_
20091112_RATP_SCD_1207	65	11	quoi	DISF_M	pres	NULL	NULL	NOLINK	0	idtext0099	quoi	#####	spk3	131.55	132.0	?	_

20091112_RATP_SCD_1207	66	1	mais	NULL	coo	NULL	B_NULL	ROOT	0	idtext0100	mais	#####	spk2	132.04	132.17	0.01	_
20091112_RATP_SCD_1207	66	2	là	NULL	adv	NULL	B_GADV	MOD	4	idtext0100	là	#####	spk2	132.18	132.38	0.01	_
20091112_RATP_SCD_1207	66	3	je	NULL	cln	NULL	B_GN	SUJ	4	idtext0100	cln	#1##s##	spk2	132.39	132.63	0.01	_
20091112_RATP_SCD_1207	66	4	suis	NULL	v	NULL	B_GVf	ROOT	0	idtext0100	être	P#1##s##	spk2	132.64	132.72	0.01	_
20091112_RATP_SCD_1207	66	5	entièrement	NULL	adv	NULL	B_GADV	MOD	6	idtext0100	entièrement	#####	spk2	132.73	133.0	0.01	_
20091112_RATP_SCD_1207	66	6	d'accord	NULL	adv	NULL	I_GADV	ATS	4	idtext0100	d'accord	#####	spk2	133.01	133.3	0.01	_
20091112_RATP_SCD_1207	66	7	je	NULL	cln	NULL	B_GN	SUJ	8	idtext0100	cln	#1##s##	spk2	133.31	133.43	0.01	_
20091112_RATP_SCD_1207	66	8	trouve	NULL	v	NULL	B_GVf	DEP_COORD	1	idtext0100	trouver	PS#13##s##	spk2	133.44	133.64	0.01	_
20091112_RATP_SCD_1207	66	9	que	NULL	csu	NULL	B_NULL	OBJ	8	idtext0100	que	#####	spk2	133.65	133.75	0.01	_
20091112_RATP_SCD_1207	66	10	bon	DISF_M	pres	NULL	NULL	NOLINK	0	idtext0100	bon	#####	spk2	133.76	133.87	0.01	_
20091112_RATP_SCD_1207	66	11	maintenant	NULL	adv	NULL	B_GADV	OBJ	9	idtext0100	maintenant	#####	spk2	133.88	134.41	0.33	_
20091112_RATP_SCD_1207	66	12	bon	DISF_M	pres	NULL	NULL	NOLINK	0	idtext0101	bon	#####	spk2	134.74	135.06	0.01	_
20091112_RATP_SCD_1207	66	13	il	DISF_R	cln	NULL	B_GN	NOLINK	0	idtext0101	cln	#3#m#s##	spk2	135.07	135.15	0.01	_
20091112_RATP_SCD_1207	66	14	y	DISF_R	clo	NULL	B_GN	NOLINK	0	idtext0101	y	#####	spk2	135.16	135.21	0.01	_
20091112_RATP_SCD_1207	66	15	a	DISF_R	v	NULL	B_GVf	NOLINK	0	idtext0101	avoir	P#3##s##	spk2	135.22	135.29	0.01	_
20091112_RATP_SCD_1207	66	16	il	NULL	cln	NULL	B_GN	SUJ_IMP	18	idtext0101	cln	#3#m#s##	spk2	135.3	135.47	0.01	_
20091112_RATP_SCD_1207	66	17	y	NULL	clo	NULL	B_GN	AFF	18	idtext0101	y	#####	spk2	135.48	135.5	0.01	_
20091112_RATP_SCD_1207	66	18	a	NULL	v	NULL	B_GVf	ROOT	0	idtext0101	avoir	P#3##s##	spk2	135.51	135.54	0.01	_
20091112_RATP_SCD_1207	66	19	peut-être	NULL	adv	NULL	B_GADV	MOD	18	idtext0101	peut-être	#####	spk2	135.55	135.87	0.01	_
20091112_RATP_SCD_1207	66	20	des	NULL	det	NULL	B_GN	DET	21	idtext0101	des	###p##i	spk2	135.88	136.04	0.01	_
20091112_RATP_SCD_1207	66	21	avantages	NULL	nc	NULL	I_GN	OBJ	18	idtext0101	avantage	##m#p##	spk2	136.05	136.45	0.01	_
20091112_RATP_SCD_1207	66	22	sûrement	NULL	adv	NULL	B_GADV	MOD	21	idtext0101	sûrement	#####	spk2	136.46	136.7	0.01	_
20091112_RATP_SCD_1207	66	23	de	NULL	prep	NULL	B_GP	DEP	21	idtext0101	de	#####	spk2	136.71	136.83	0.01	_
20091112_RATP_SCD_1207	66	24	la	NULL	det	NULL	I_GP	DET	25	idtext0101	le	##m#s##d	spk2	136.84	136.95	0.01	_
20091112_RATP_SCD_1207	66	25	part	NULL	nc	NULL	I_GP	OBJ	23	idtext0101	part	###s##	spk2	136.96	137.13	0.01	_
20091112_RATP_SCD_1207	66	26	de	NULL	prep	NULL	B_GP	DEP	25	idtext0101	de	#####	spk2	137.14	137.2	0.01	_
20091112_RATP_SCD_1207	66	27	la	NULL	det	NULL	I_GP	DET	28	idtext0101	le	##m#s##d	spk2	137.21	137.28	0.01	_
20091112_RATP_SCD_1207	66	28	RATP	NULL	np	B_ORG	I_GP	OBJ	26	idtext0101	RATP	##f#s##	spk2	137.29	137.7	0.01	_
20091112_RATP_SCD_1207	66	29	de	NULL	prep	NULL	B_GP	DEP	28	idtext0101	de	#####	spk2	137.71	137.8	0.01	_
20091112_RATP_SCD_1207	66	30	dire	NULL	vinf	NULL	I_GP	OBJ	29	idtext0101	dire	W#####	spk2	137.81	137.97	0.01	_
20091112_RATP_SCD_1207	66	31	qu'	NULL	csu	NULL	B_NULL	OBJ	30	idtext0101	qu'	#####	spk2	137.98	138.03	0.01	_
20091112_RATP_SCD_1207	66	32	il	NULL	cln	NULL	B_GN	SUJ_IMP	34	idtext0101	cln	#3#m#s##	spk2	138.04	138.09	0.01	_
20091112_RATP_SCD_1207	66	33	y	NULL	clo	NULL	B_GN	AFF	34	idtext0101	y	#####	spk2	138.1	138.12	0.01	_
20091112_RATP_SCD_1207	66	34	a	NULL	v	NULL	B_GVf	OBJ	31	idtext0101	avoir	P#3##s##	spk2	138.13	138.15	0.01	_
20091112_RATP_SCD_1207	66	35	trois	NULL	nc	NULL	I_GP	OBJ	34	idtext0101	trois	##m###	spk2	138.16	138.42	?	//

20091112_RATP_SCD_1207	67	1	certainement	NULL	adv	NULL	B_GADV	NOLINK	0	idtext0102	certainement	#####	spk3	138.84	140.64	?	//

20091112_RATP_SCD_1207	68	1	quarts	NULL	nc	NULL	B_GN	NOLINK	0	idtext0103	quart	##m#p##	spk2	138.46	138.83	0.01	_
20091112_RATP_SCD_1207	68	2	néanmoins	NULL	adv	NULL	B_GADV	MOD	5	idtext0103	néanmoins	#####	spk2	138.84	139.16	0.01	_
20091112_RATP_SCD_1207	68	3	les	NULL	det	NULL	B_GN	DET	4	idtext0103	le	###p##d	spk2	139.17	139.41	0.01	_
20091112_RATP_SCD_1207	68	4	subventions	NULL	nc	NULL	I_GN	SUJ	5	idtext0103	subvention	##f#p##	spk2	139.42	139.92	0.01	_
20091112_RATP_SCD_1207	68	5	sont	NULL	v	NULL	B_GVfn	ROOT	0	idtext0103	être	P#3##p##	spk2	139.93	140.1	0.01	_
20091112_RATP_SCD_1207	68	6	pas	NULL	advneg	NULL	I_GVfn	MOD	5	idtext0103	pas	#####	spk2	140.11	140.24	0.01	_
20091112_RATP_SCD_1207	68	7	les	NULL	det	NULL	B_GN	DET	8	idtext0103	le	###p##d	spk2	140.25	140.34	0.01	_
20091112_RATP_SCD_1207	68	8	mêmes	NULL	adj	NULL	I_GN	OBJ	5	idtext0103	même	###p##	spk2	140.35	140.64	?	_

20091112_RATP_SCD_1207	69	1	on	NULL	cln	NULL	B_GN	SUJ_IMP	2	idtext0104	cln	#3##s##	spk2	140.97	141.04	0.01	_
20091112_RATP_SCD_1207	69	2	va	NULL	v	NULL	B_GVf	ROOT	0	idtext0104	aller	P#3##s##	spk2	141.05	141.14	0.01	_
20091112_RATP_SCD_1207	69	3	dire	NULL	vinf	NULL	I_GVf	OBJ	2	idtext0104	dire	W#####	spk2	141.15	141.34	0.01	_
20091112_RATP_SCD_1207	69	4	hein	DISF_M	pres	NULL	NULL	NOLINK	0	idtext0104	hein	#####	spk2	141.35	141.4	0.01	_
20091112_RATP_SCD_1207	69	5	tout	NULL	adv	NULL	B_GADV	MOD	6	idtext0104	tout	##m#s##	spk2	141.41	141.53	0.01	_
20091112_RATP_SCD_1207	69	6	simplement	NULL	adv	NULL	I_GADV	ROOT	0	idtext0104	simplement	#####	spk2	141.54	142.02	?	_

20091112_RATP_SCD_1207	70	1	je	NULL	cln	NULL	B_GN	SUJ	2	idtext0105	cln	#1##s##	spk3	142.09	142.33	0.01	_
20091112_RATP_SCD_1207	70	2	comprends	NULL	v	NULL	B_GVf	ROOT	0	idtext0105	comprendre	P#12##s##	spk3	142.34	143.02	?	//

20091112_RATP_SCD_1207	71	1	euh	DISF_M	pres	NULL	NULL	NOLINK	0	idtext0106	euh	#####	spk2	142.27	143.02	?	//

20091112_RATP_SCD_1207	72	1	mais	NULL	coo	NULL	B_NULL	ROOT	0	idtext0107	mais	#####	spk2	143.06	143.37	0.01	_
20091112_RATP_SCD_1207	72	2	bon	DISF_M	pres	NULL	NULL	NOLINK	0	idtext0107	bon	#####	spk2	143.38	143.71	0.01	_
20091112_RATP_SCD_1207	72	3	c'	NULL	cln	NULL	B_GN	SUJ_IMP	4	idtext0107	ce	###s##	spk2	143.72	143.75	0.01	_
20091112_RATP_SCD_1207	72	4	est	NULL	v	NULL	B_GVfn	DEP_COORD	1	idtext0107	être	P#3##s##	spk2	143.76	143.8	0.01	_
20091112_RATP_SCD_1207	72	5	pas	NULL	advneg	NULL	I_GVfn	MOD	4	idtext0107	pas	#####	spk2	143.81	143.93	0.01	_
20091112_RATP_SCD_1207	72	6	la	NULL	det	NULL	B_GN	DET	7	idtext0107	le	##m#s##d	spk2	143.94	144.02	0.01	_
20091112_RATP_SCD_1207	72	7	réalité	NULL	nc	NULL	I_GN	ATS	4	idtext0107	réalité	##f#s##	spk2	144.03	144.41	0.04	_
20091112_RATP_SCD_1207	72	8	et	NULL	coo	NULL	B_NULL	NOLINK	0	idtext0108	et	#####	spk2	144.45	144.53	0.01	_
20091112_RATP_SCD_1207	72	9	ça	NULL	pro	NULL	B_GN	NOLINK	0	idtext0108	ça	#####	spk2	144.54	144.7	0.01	_
20091112_RATP_SCD_1207	72	10	je	NULL	cln	NULL	B_GN	NOLINK	0	idtext0108	cln	#1##s##	spk2	144.71	145.74	?	_

20091112_RATP_SCD_1207	73	1	bon	DISF_M	pres	NULL	NULL	NOLINK	0	idtext0109	bon	#####	spk3	145.81	146.02	0.01	_
20091112_RATP_SCD_1207	73	2	OK	NULL	adv	NULL	B_GADV	NOLINK	0	idtext0109	ok	#####	spk3	146.03	146.6	?	//

20091112_RATP_SCD_1207	74	1	voilà	DISF_M	pres	NULL	NULL	NOLINK	0	idtext0110	voilà	#####	spk3	146.79	147.13	?	//

20091112_RATP_SCD_1207	75	1	mais	NULL	coo	NULL	B_NULL	ROOT	0	idtext0111	mais	#####	spk2	147.17	147.3	0.01	_
20091112_RATP_SCD_1207	75	2	malheureusement	NULL	adv	NULL	B_GADV	MOD	3	idtext0111	malheureusement	#####	spk2	147.31	147.74	0.01	_
20091112_RATP_SCD_1207	75	3	désolé	NULL	vppart	NULL	B_GVf	DEP_COORD	1	idtext0111	désoler	K##m#s##	spk2	147.75	148.11	0.01	_
20091112_RATP_SCD_1207	75	4	je	NULL	cln	NULL	B_GN	SUJ	5	idtext0111	cln	#1##s##	spk2	148.12	148.27	0.01	_
20091112_RATP_SCD_1207	75	5	peux	NULL	v	NULL	B_GVfn	ROOT	0	idtext0111	pouvoir	P#12##s##	spk2	148.28	148.42	0.01	_
20091112_RATP_SCD_1207	75	6	pas	NULL	advneg	NULL	I_GVfn	MOD	5	idtext0111	pas	#####	spk2	148.43	148.75	?	_

20091112_RATP_SCD_1207	76	1	OK	NULL	adv	NULL	B_GADV	MOD	2	idtext0112	ok	#####	spk3	148.85	149.4	0.01	_
20091112_RATP_SCD_1207	76	2	demain	NULL	adv	NULL	I_GADV	ROOT	0	idtext0113	demain	#####	spk3	149.41	149.81	0.01	_
20091112_RATP_SCD_1207	76	3	et	NULL	coo	NULL	B_NULL	NOLINK	0	idtext0114	et	#####	spk3	149.82	149.89	0.01	_
20091112_RATP_SCD_1207	76	4	après-demain	NULL	adv	NULL	B_GADV	NOLINK	0	idtext0114	après-demain	#####	spk3	149.9	150.39	?	_

20091112_RATP_SCD_1207	77	1	alors	NULL	adv	NULL	B_GADV	NOLINK	0	idtext0115	alors	#####	spk2	150.58	151.16	0.01	_
20091112_RATP_SCD_1207	77	2	je	NULL	cln	NULL	B_GN	SUJ	3	idtext0115	cln	#1##s##	spk2	151.17	151.32	0.01	_
20091112_RATP_SCD_1207	77	3	sais	NULL	v	NULL	B_GVfn	ROOT	0	idtext0115	savoir	P#12##s##	spk2	151.33	151.47	0.01	_
20091112_RATP_SCD_1207	77	4	pas	NULL	advneg	NULL	I_GVfn	MOD	3	idtext0115	pas	#####	spk2	151.48	151.66	?	_

20091112_RATP_SCD_1207	78	1	c'	NULL	cln	NULL	B_GN	SUJ_IMP	2	idtext0116	ce	###s##	spk3	150.44	150.47	0.01	_
20091112_RATP_SCD_1207	78	2	est	NULL	v	NULL	B_GVf	ROOT	0	idtext0116	être	P#3##s##	spk3	150.48	150.51	0.01	_
20091112_RATP_SCD_1207	78	3	normalement	NULL	adv	NULL	B_GADV	MOD	4	idtext0116	normalement	#####	spk3	150.52	151.15	0.01	_
20091112_RATP_SCD_1207	78	4	comment	NULL	adv	NULL	I_GADV	ATS	2	idtext0116	comment	#####	spk3	151.16	151.66	?	_

20091112_RATP_SCD_1207	79	1	demain	NULL	adv	NULL	B_GADV	NOLINK	0	idtext0117	demain	#####	spk2	151.7	151.94	0.01	_
20091112_RATP_SCD_1207	79	2	on	NULL	cln	NULL	B_GN	SUJ	3	idtext0117	cln	#3##s##	spk2	151.95	152.2	0.01	_
20091112_RATP_SCD_1207	79	3	a	NULL	v	NULL	B_GVf	ROOT	0	idtext0117	avoir	P#3##s##	spk2	152.21	152.24	0.01	_
20091112_RATP_SCD_1207	79	4	pour	NULL	prep	NULL	B_GP	MOD	9	idtext0117	pour	#####	spk2	152.25	152.41	0.01	_
20091112_RATP_SCD_1207	79	5	le	NULL	det	NULL	I_GP	DET	6	idtext0117	le	##m#s##d	spk2	152.42	152.44	0.01	_
20091112_RATP_SCD_1207	79	6	moment	NULL	nc	NULL	I_GP	OBJ	4	idtext0117	moment	##m#s##	spk2	152.45	152.61	0.01	_
20091112_RATP_SCD_1207	79	7	on	NULL	cln	NULL	B_GN	SUJ	9	idtext0117	cln	#3##s##	spk2	152.62	152.64	0.01	_
20091112_RATP_SCD_1207	79	8	n'	NULL	clneg	NULL	B_GVfn	MOD	9	idtext0117	n'	#####	spk2	152.65	152.71	0.01	_
20091112_RATP_SCD_1207	79	9	a	NULL	v	NULL	I_GVfn	OBJ	3	idtext0117	avoir	P#3##s##	spk2	152.72	152.77	0.01	_
20091112_RATP_SCD_1207	79	10	aucune	NULL	det	NULL	B_GN	DET	11	idtext0117	aucun	##f#s##i	spk2	152.78	153.04	0.01	_
20091112_RATP_SCD_1207	79	11	information	NULL	nc	NULL	I_GN	OBJ	9	idtext0117	information	##f#s##	spk2	153.05	153.47	0.01	_
20091112_RATP_SCD_1207	79	12	en	NULL	prep	NULL	B_NULL	NOLINK	0	idtext0117	en	#####	spk2	153.48	153.51	0.01	_
20091112_RATP_SCD_1207	79	13	ce+qui	NULL	prorel	NULL	B_NULL	SUJ	14	idtext0117	ce+qui	#####	spk2	153.52	153.68	0.01	_
20091112_RATP_SCD_1207	79	14	concerne	NULL	v	NULL	B_GVf	MOD_REL	11	idtext0117	concerner	PS#13##s##	spk2	153.69	154.02	0.01	_
20091112_RATP_SCD_1207	79	15	demain	NULL	adv	NULL	B_GADV	MOD	14	idtext0117	demain	#####	spk2	154.03	154.39	?	_

20091112_RATP_SCD_1207	80	1	oui	NULL	adv	NULL	B_GADV	NOLINK	0	idtext0118	oui	#####	spk3	154.51	154.73	?	//

20091112_RATP_SCD_1207	81	1	et	NULL	coo	NULL	B_NULL	ROOT	0	idtext0119	et	#####	spk2	154.78	154.93	0.01	_
20091112_RATP_SCD_1207	81	2	après-demain	NULL	adv	NULL	B_GADV	MOD	5	idtext0119	après-demain	#####	spk2	154.94	155.35	0.01	_
20091112_RATP_SCD_1207	81	3	il	NULL	cln	NULL	B_GN	SUJ_IMP	5	idtext0119	cln	#3#m#s##	spk2	155.36	155.41	0.01	_
20091112_RATP_SCD_1207	81	4	y	NULL	clo	NULL	B_GN	AFF	5	idtext0119	y	#####	spk2	155.42	155.44	0.01	_
20091112_RATP_SCD_1207	81	5	a	NULL	v	NULL	B_GVf	DEP_COORD	1	idtext0119	avoir	P#3##s##	spk2	155.45	155.47	0.01	_
20091112_RATP_SCD_1207	81	6	encore	NULL	adv	NULL	B_GADV	MOD	7	idtext0119	encore	#####	spk2	155.48	155.76	0.01	_
20091112_RATP_SCD_1207	81	7	moins	NULL	adv	NULL	I_GADV	ROOT	0	idtext0119	moins	#####	spk2	155.77	155.92	?	_

20091112_RATP_SCD_1207	82	1	pas	NULL	advneg	NULL	B_NULL	NOLINK	0	idtext0120	pas	#####	spk3	155.97	156.06	0.01	_
20091112_RATP_SCD_1207	82	2	plus	NULL	adv	NULL	B_GADV	NOLINK	0	idtext0120	plus	#####	spk3	156.07	156.47	?	_

20091112_RATP_SCD_1207	83	1	pas	NULL	advneg	NULL	B_NULL	NOLINK	0	idtext0121	pas	#####	spk2	156.54	156.68	0.01	_
20091112_RATP_SCD_1207	83	2	plus	NULL	adv	NULL	B_GADV	NOLINK	0	idtext0121	plus	#####	spk2	156.69	157.0	?	_

20091112_RATP_SCD_1207	84	1	OK	NULL	adv	NULL	B_GADV	NOLINK	0	idtext0122	ok	#####	spk3	156.61	157.0	?	_

20091112_RATP_SCD_1207	85	1	et+encore	NULL	coo	NULL	B_NULL	NOLINK	0	idtext0123	et+encore	#####	spk2	157.04	157.31	0.01	_
20091112_RATP_SCD_1207	85	2	moins	NULL	adv	NULL	B_GADV	NOLINK	0	idtext0123	moins	#####	spk2	157.32	157.76	?	_

20091112_RATP_SCD_1207	86	1	parce+que	NULL	csu	NULL	B_NULL	ROOT	0	idtext0124	parce+que	#####	spk3	157.8	157.98	0.01	_
20091112_RATP_SCD_1207	86	2	effectivement	NULL	adv	NULL	B_GADV	MOD	3	idtext0124	effectivement	#####	spk3	157.99	158.51	0.01	_
20091112_RATP_SCD_1207	86	3	demain	NULL	adv	NULL	I_GADV	ROOT	0	idtext0124	demain	#####	spk3	158.52	159.03	0.01	_
20091112_RATP_SCD_1207	86	4	elle	NULL	cln	NULL	B_GN	SUJ	5	idtext0124	cln	#3#f#s##	spk3	159.04	159.21	0.01	_
20091112_RATP_SCD_1207	86	5	risque	NULL	v	NULL	B_GVf	OBJ	1	idtext0124	risquer	PS#13##s##	spk3	159.22	159.44	0.01	_
20091112_RATP_SCD_1207	86	6	de	NULL	prep	NULL	B_GP	OBJ	5	idtext0124	de	#####	spk3	159.45	159.55	0.01	_
20091112_RATP_SCD_1207	86	7	retourner	NULL	vinf	NULL	I_GP	OBJ	6	idtext0124	retourner	W#####	spk3	159.56	159.87	0.01	_
20091112_RATP_SCD_1207	86	8	sur	NULL	prep	NULL	B_GP	P_OBJ_LOC	7	idtext0124	sur	#####	spk3	159.88	160.04	0.01	_
20091112_RATP_SCD_1207	86	9	Paris	NULL	nc	B_A	I_GP	OBJ	8	idtext0124	Paris	##m#s##	spk3	160.05	160.48	0.01	_
20091112_RATP_SCD_1207	86	10	et	NULL	coo	NULL	B_NULL	COORD	5	idtext0124	et	#####	spk3	160.49	160.57	0.01	_
20091112_RATP_SCD_1207	86	11	samedi	NULL	nc	NULL	B_GN	MOD	15	idtext0124	samedi	##m#s##	spk3	160.58	160.9	0.01	_
20091112_RATP_SCD_1207	86	12	aussi	NULL	adv	NULL	B_GADV	NOLINK	0	idtext0124	aussi	#####	spk3	160.91	161.11	0.01	_
20091112_RATP_SCD_1207	86	13	parce+qu'	NULL	csu	NULL	B_NULL	NOLINK	0	idtext0124	parce+qu'	#####	spk3	161.12	161.35	0.01	_
20091112_RATP_SCD_1207	86	14	elle	NULL	cln	NULL	B_GN	SUJ	15	idtext0124	cln	#3#f#s##	spk3	161.36	161.42	0.01	_
20091112_RATP_SCD_1207	86	15	a	NULL	v	NULL	B_GVf	DEP_COORD	10	idtext0125	avoir	P#3##s##	spk3	161.43	161.55	0.01	_
20091112_RATP_SCD_1207	86	16	cours	NULL	nc	NULL	B_GN	OBJ	15	idtext0125	cour	##f#p##	spk3	161.56	161.66	0.01	_
20091112_RATP_SCD_1207	86	17	samedi	NULL	nc	NULL	I_GN	MOD	16	idtext0126	samedi	##m#s##	spk3	161.67	161.98	?	//

20091112_RATP_SCD_1207	87	1	ouais	NULL	adv	NULL	B_GADV	NOLINK	0	idtext0127	ouais	#####	spk2	162.24	162.51	?	//

20091112_RATP_SCD_1207	88	1	bon	DISF_M	pres	NULL	NULL	NOLINK	0	idtext0128	bon	#####	spk3	162.66	163.23	?	_

20091112_RATP_SCD_1207	89	1	euh	DISF_M	pres	NULL	NULL	NOLINK	0	idtext0129	euh	#####	spk2	163.93	164.56	0.04	//
20091112_RATP_SCD_1207	89	2	ouais	NULL	adv	NULL	B_GADV	NOLINK	0	idtext0131	ouais	#####	spk2	164.6	164.97	?	_

20091112_RATP_SCD_1207	90	1	OK	NULL	adv	NULL	B_GADV	NOLINK	0	idtext0130	ok	#####	spk3	163.98	164.56	0.04	/
20091112_RATP_SCD_1207	90	2	ça	NULL	pro	NULL	B_GN	SUJ_IMP	3	idtext0132	ça	#####	spk3	164.6	164.67	0.01	_
20091112_RATP_SCD_1207	90	3	veut	NULL	v	NULL	B_GVf	ROOT	0	idtext0132	vouloir	P#3##s##	spk3	164.68	164.73	0.01	_
20091112_RATP_SCD_1207	90	4	dire	NULL	vinf	NULL	I_GVf	OBJ	3	idtext0132	dire	W#####	spk3	164.74	164.97	?	//

20091112_RATP_SCD_1207	91	1	qu'	NULL	csu	NULL	B_NULL	ROOT	0	idtext0133	qu'	#####	spk2	165.01	165.03	0.01	_
20091112_RATP_SCD_1207	91	2	il	NULL	cln	NULL	B_GN	SUJ_IMP	3	idtext0133	cln	#3#m#s##	spk2	165.04	165.09	0.01	_
20091112_RATP_SCD_1207	91	3	faut	NULL	v	NULL	B_GVf	OBJ	1	idtext0133	falloir	P#3##s##	spk2	165.1	165.2	0.01	_
20091112_RATP_SCD_1207	91	4	peut-être	NULL	adv	NULL	B_GADV	MOD	3	idtext0133	peut-être	#####	spk2	165.21	165.42	0.01	_
20091112_RATP_SCD_1207	91	5	qu'	NULL	csu	NULL	B_NULL	OBJ	3	idtext0133	qu'	#####	spk2	165.43	165.48	0.01	_
20091112_RATP_SCD_1207	91	6	elle	NULL	cln	NULL	B_GN	SUJ	7	idtext0133	cln	#3#f#s##	spk2	165.49	165.56	0.01	_
20091112_RATP_SCD_1207	91	7	anticipe	NULL	v	NULL	B_GVf	OBJ	5	idtext0133	anticiper	PS#13##s##	spk2	165.57	166.07	?	//

20091112_RATP_SCD_1207	92	1	effectivement	NULL	adv	NULL	B_GADV	NOLINK	0	idtext0134	effectivement	#####	spk3	166.11	166.93	0.12	_
20091112_RATP_SCD_1207	92	2	à	NULL	prep	NULL	B_GP	ROOT	0	idtext0136	à	#####	spk3	167.05	167.11	0.01	_
20091112_RATP_SCD_1207	92	3	prendre	NULL	vinf	NULL	I_GP	OBJ	2	idtext0136	prendre	W#####	spk3	167.12	167.4	0.01	_
20091112_RATP_SCD_1207	92	4	un	NULL	det	NULL	B_GN	DET	5	idtext0136	un	##m#s##i	spk3	167.41	167.52	0.01	_
20091112_RATP_SCD_1207	92	5	bus	NULL	nc	NULL	I_GN	OBJ	3	idtext0136	bus	##m###	spk3	167.53	168.0	?	//

20091112_RATP_SCD_1207	93	1	si	NULL	csu	NULL	B_NULL	NOLINK	0	idtext0135	si	#####	spk2	166.18	166.55	0.01	_
20091112_RATP_SCD_1207	93	2	possible	NULL	adj	NULL	B_GADJ	NOLINK	0	idtext0135	possible	###s##	spk2	166.56	166.93	0.12	_
20091112_RATP_SCD_1207	93	3	si	NULL	csu	NULL	B_NULL	NOLINK	0	idtext0137	si	#####	spk2	167.05	167.1	0.01	_
20091112_RATP_SCD_1207	93	4	possible	NULL	adj	NULL	B_GADJ	NOLINK	0	idtext0137	possible	###s##	spk2	167.11	168.0	?	//

20091112_RATP_SCD_1207	94	1	ou	NULL	coo	NULL	B_NULL	ROOT	0	idtext0138	ou	#####	spk3	168.27	168.55	0.01	_
20091112_RATP_SCD_1207	94	2	euh	DISF_M	pres	NULL	NULL	NOLINK	0	idtext0138	euh	#####	spk3	168.56	168.91	0.01	_
20091112_RATP_SCD_1207	94	3	voilà	DISF_M	pres	NULL	NULL	NOLINK	0	idtext0138	voilà	#####	spk3	168.92	169.1	0.01	_
20091112_RATP_SCD_1207	94	4	un	NULL	det	NULL	B_GN	DET	5	idtext0138	un	##m#s##i	spk3	169.11	169.25	0.01	_
20091112_RATP_SCD_1207	94	5	bus	NULL	nc	NULL	I_GN	DEP_COORD	1	idtext0138	bus	##m###	spk3	169.26	169.44	0.01	_
20091112_RATP_SCD_1207	94	6	qui	NULL	prorel	NULL	B_NULL	SUJ	7	idtext0138	qui	#####	spk3	169.45	169.61	0.01	_
20091112_RATP_SCD_1207	94	7	monte	NULL	v	NULL	B_GVf	MOD_REL	5	idtext0138	monter	PS#13##s##	spk3	169.62	169.83	0.01	_
20091112_RATP_SCD_1207	94	8	sur	NULL	prep	NULL	B_GP	P_OBJ_LOC	7	idtext0138	sur	#####	spk3	169.84	169.94	0.01	_
20091112_RATP_SCD_1207	94	9	Porte+d'Orléans	NULL	nc	B_A	I_GP	OBJ	8	idtext0138	Porte+d'Orléans	#####	spk3	169.95	170.67	0.01	/
20091112_RATP_SCD_1207	94	10	ou	NULL	coo	NULL	B_NULL	COORD	9	idtext0138	ou	#####	spk3	170.68	170.89	0.01	_
20091112_RATP_SCD_1207	94	11	des	NULL	det	NULL	B_GN	DET	12	idtext0138	des	###p##i	spk3	170.9	171.02	0.01	_
20091112_RATP_SCD_1207	94	12	choses	NULL	nc	NULL	I_GN	DEP_COORD	10	idtext0138	chose	##f#p##	spk3	171.03	171.39	0.01	_
20091112_RATP_SCD_1207	94	13	autres	NULL	adj	NULL	I_GN	MOD	12	idtext0138	autre	###p##	spk3	171.4	171.62	?	//

20091112_RATP_SCD_1207	95	1	ouais	NULL	adv	NULL	B_GADV	NOLINK	0	idtext0139	ouais	#####	spk2	171.68	171.78	0.01	_
20091112_RATP_SCD_1207	95	2	parce+que	NULL	csu	NULL	B_NULL	ROOT	0	idtext0139	parce+que	#####	spk2	171.79	172.3	0.01	_
20091112_RATP_SCD_1207	95	3	ouais	NULL	adv	NULL	B_GADJ	MOD	4	idtext0139	ouais	#####	spk2	172.31	172.42	0.01	_
20091112_RATP_SCD_1207	95	4	si	NULL	adv	NULL	I_GADJ	MOD	5	idtext0139	si	#####	spk2	172.43	172.58	0.01	_
20091112_RATP_SCD_1207	95	5	possible	NULL	adj	NULL	I_GADJ	OBJ	6	idtext0139	possible	###s##	spk2	172.59	172.99	0.01	_
20091112_RATP_SCD_1207	95	6	si	NULL	csu	NULL	B_NULL	OBJ	2	idtext0139	si	#####	spk2	173.0	173.06	0.01	_
20091112_RATP_SCD_1207	95	7	possible	NULL	adj	NULL	B_GADJ	NOLINK	0	idtext0139	possible	###s##	spk2	173.07	173.58	?	//

20091112_RATP_SCD_1207	96	1	quoi	DISF_M	pres	NULL	NULL	NOLINK	0	idtext0140	quoi	#####	spk3	171.66	172.24	0.01	_
20091112_RATP_SCD_1207	96	2	bon	DISF_M	pres	NULL	NULL	NOLINK	0	idtext0140	bon	#####	spk3	172.25	173.1	0.01	_
20091112_RATP_SCD_1207	96	3	OK	NULL	adv	NULL	B_GADV	NOLINK	0	idtext0140	ok	#####	spk3	173.11	173.58	?	//

20091112_RATP_SCD_1207	97	1	bon+ben	DISF_M	pres	NULL	NULL	NOLINK	0	idtext0141	bon+ben	#####	spk3	173.91	174.17	0.01	_
20091112_RATP_SCD_1207	97	2	écoutez	DISF_M	pres	NULL	NULL	NOLINK	0	idtext0141	écoutez	#####	spk3	174.18	174.56	0.01	_
20091112_RATP_SCD_1207	97	3	je	NULL	cln	NULL	B_GN	NOLINK	0	idtext0141	cln	#1##s##	spk3	174.57	175.29	0.01	_
20091112_RATP_SCD_1207	97	4	bon	DISF_M	pres	NULL	NULL	NOLINK	0	idtext0142	bon	#####	spk3	175.3	175.7	?	_

20091112_RATP_SCD_1207	98	1	désolé	NULL	vppart	NULL	B_GVf	NOLINK	0	idtext0143	désoler	K##m#s##	spk2	173.91	174.56	0.01	_
20091112_RATP_SCD_1207	98	2	je	NULL	cln	NULL	B_GN	SUJ	5	idtext0143	cln	#1##s##	spk2	174.57	174.77	0.01	_
20091112_RATP_SCD_1207	98	3	vous	NULL	clo	NULL	B_GN	OBJ	5	idtext0143	cln	#2##p##	spk2	174.78	174.99	0.01	_
20091112_RATP_SCD_1207	98	4	en	NULL	clo	NULL	B_GN	DE_OBJ	5	idtext0143	en	#####	spk2	175.0	175.13	0.01	_
20091112_RATP_SCD_1207	98	5	prie	NULL	v	NULL	B_GVf	ROOT	0	idtext0143	prier	PS#13##s##	spk2	175.14	175.7	?	//

20091112_RATP_SCD_1207	99	1	non	DISF_R	adv	NULL	NULL	NOLINK	0	idtext0144	non	#####	spk3	175.81	175.96	0.01	_
20091112_RATP_SCD_1207	99	2	non	DISF_R	adv	NULL	NULL	NOLINK	0	idtext0144	non	#####	spk3	175.97	176.1	0.01	_
20091112_RATP_SCD_1207	99	3	non	DISF_R	adv	NULL	NULL	NOLINK	0	idtext0144	non	#####	spk3	176.11	176.22	0.01	_
20091112_RATP_SCD_1207	99	4	non	NULL	adv	NULL	B_GADV	NOLINK	0	idtext0144	non	#####	spk3	176.23	176.36	0.01	_
20091112_RATP_SCD_1207	99	5	mais	NULL	coo	NULL	B_NULL	NOLINK	0	idtext0144	mais	#####	spk3	176.37	176.5	0.01	_
20091112_RATP_SCD_1207	99	6	OK	NULL	adv	NULL	B_GADV	NOLINK	0	idtext0144	ok	#####	spk3	176.51	176.81	0.01	_
20091112_RATP_SCD_1207	99	7	mais	NULL	coo	NULL	B_NULL	ROOT	0	idtext0144	mais	#####	spk3	176.82	177.23	0.01	_
20091112_RATP_SCD_1207	99	8	c'	NULL	cln	NULL	B_GN	SUJ_IMP	9	idtext0144	ce	###s##	spk3	177.24	177.27	0.01	_
20091112_RATP_SCD_1207	99	9	était	NULL	v	NULL	B_GVf	DEP_COORD	7	idtext0144	être	I#3##s##	spk3	177.28	177.42	0.01	_
20091112_RATP_SCD_1207	99	10	effectivement	NULL	adv	NULL	B_GADV	MOD	9	idtext0144	effectivement	#####	spk3	177.43	178.07	0.01	_
20091112_RATP_SCD_1207	99	11	hein	DISF_M	pres	NULL	NULL	NOLINK	0	idtext0144	hein	#####	spk3	178.08	178.13	0.01	_
20091112_RATP_SCD_1207	99	12	pour	NULL	prep	NULL	B_GP	MOD	9	idtext0144	pour	#####	spk3	178.14	178.32	0.01	_
20091112_RATP_SCD_1207	99	13	en	NULL	clo	NULL	I_GP	OBJ	14	idtext0144	en	#####	spk3	178.33	178.39	0.01	_
20091112_RATP_SCD_1207	99	14	savoir	NULL	vinf	NULL	B_GVi	OBJ	12	idtext0144	savoir	W#####	spk3	178.4	178.66	0.01	_
20091112_RATP_SCD_1207	99	15	un+peu	NULL	adv	NULL	B_GADV	MOD	16	idtext0144	un+peu	#####	spk3	178.67	178.82	0.01	_
20091112_RATP_SCD_1207	99	16	plus	NULL	adv	NULL	I_GADV	ROOT	0	idtext0144	plus	#####	spk3	178.83	179.3	0.10	_
20091112_RATP_SCD_1207	99	17	je	NULL	cln	NULL	B_GN	SUJ	18	idtext0145	cln	#1##s##	spk3	179.4	179.44	0.01	_
20091112_RATP_SCD_1207	99	18	vois	NULL	v	NULL	B_GVf	ROOT	0	idtext0145	voir	P#12##s##	spk3	179.45	179.6	0.01	_
20091112_RATP_SCD_1207	99	19	que	NULL	csu	NULL	B_NULL	OBJ	18	idtext0145	que	#####	spk3	179.61	179.69	0.01	_
20091112_RATP_SCD_1207	99	20	c'	NULL	cln	NULL	B_GN	SUJ_IMP	21	idtext0145	ce	###s##	spk3	179.7	179.73	0.01	_
20091112_RATP_SCD_1207	99	21	est	NULL	v	NULL	B_GVf	OBJ	19	idtext0145	être	P#3##s##	spk3	179.74	179.78	0.01	_
20091112_RATP_SCD_1207	99	22	très	NULL	adv	NULL	B_GADJ	MOD	24	idtext0145	très	#####	spk3	179.79	179.98	0.01	_
20091112_RATP_SCD_1207	99	23	très	NULL	adv	NULL	I_GADJ	MOD	24	idtext0145	très	#####	spk3	179.99	180.16	0.01	_
20091112_RATP_SCD_1207	99	24	compliqué	NULL	adj	NULL	I_GADJ	ATS	21	idtext0145	compliqué	##m#s##	spk3	180.17	180.62	0.01	_
20091112_RATP_SCD_1207	99	25	je	NULL	cln	NULL	B_GN	SUJ	26	idtext0145	cln	#1##s##	spk3	180.63	180.7	0.01	_
20091112_RATP_SCD_1207	99	26	vais	NULL	v	NULL	B_GVf	ROOT	0	idtext0145	aller	P#1##s##	spk3	180.71	180.76	0.01	_
20091112_RATP_SCD_1207	99	27	attendre	NULL	vinf	NULL	I_GVf	OBJ	26	idtext0145	attendre	W#####	spk3	180.77	181.06	0.01	_
20091112_RATP_SCD_1207	99	28	un+peu	NULL	adv	NULL	B_GADV	MOD	26	idtext0145	un+peu	#####	spk3	181.07	181.23	0.01	_
20091112_RATP_SCD_1207	99	29	de	NULL	prep	NULL	B_GP	P_OBJ	26	idtext0145	de	#####	spk3	181.24	181.33	0.01	_
20091112_RATP_SCD_1207	99	30	ses	NULL	det	NULL	I_GP	DET	31	idtext0145	son	###p##o	spk3	181.34	181.4	0.01	_
20091112_RATP_SCD_1207	99	31	nouvelles	NULL	adj	NULL	I_GP	OBJ	29	idtext0145	nouveau	##f#p##	spk3	181.41	181.73	0.31	/
20091112_RATP_SCD_1207	99	32	je	NULL	cln	NULL	B_GN	SUJ	33	idtext0146	cln	#1##s##	spk3	182.04	182.2	0.01	_
20091112_RATP_SCD_1207	99	33	suis	NULL	v	NULL	B_GVfn	ROOT	0	idtext0146	être	P#1##s##	spk3	182.21	182.37	0.01	_
20091112_RATP_SCD_1207	99	34	pas	NULL	advneg	NULL	I_GVfn	MOD	33	idtext0146	pas	#####	spk3	182.38	182.49	0.01	_
20091112_RATP_SCD_1207	99	35	loin+de	NULL	prep	NULL	B_GP	P_OBJ_LOC	33	idtext0146	loin+de	#####	spk3	182.5	182.7	0.01	_
20091112_RATP_SCD_1207	99	36	la	NULL	det	NULL	I_GP	DET	37	idtext0146	le	##m#s##d	spk3	182.71	182.78	0.01	_
20091112_RATP_SCD_1207	99	37	Porte+d'Orléans	NULL	nc	B_A	I_GP	OBJ	35	idtext0146	Porte+d'Orléans	#####	spk3	182.79	183.42	0.01	/
20091112_RATP_SCD_1207	99	38	donc	NULL	coo	NULL	B_NULL	COORD	33	idtext0146	donc	#####	spk3	183.43	183.64	0.01	_
20091112_RATP_SCD_1207	99	39	je	NULL	cln	NULL	B_GN	SUJ	40	idtext0146	cln	#1##s##	spk3	183.65	183.67	0.01	_
20091112_RATP_SCD_1207	99	40	vais	NULL	v	NULL	B_GVf	DEP_COORD	38	idtext0146	aller	P#1##s##	spk3	183.68	183.76	0.01	_
20091112_RATP_SCD_1207	99	41	peut-être	NULL	adv	NULL	B_GVi	MOD	42	idtext0146	peut-être	#####	spk3	183.77	184.0	0.01	_
20091112_RATP_SCD_1207	99	42	essayer	NULL	vinf	NULL	I_GVi	OBJ	40	idtext0146	essayer	W#####	spk3	184.01	184.24	0.01	_
20091112_RATP_SCD_1207	99	43	de	NULL	prep	NULL	B_GP	OBJ	42	idtext0146	de	#####	spk3	184.25	184.28	0.01	_
20091112_RATP_SCD_1207	99	44	la	NULL	clo	NULL	I_GP	OBJ	45	idtext0146	cla	#3#f#s##	spk3	184.29	184.37	0.01	_
20091112_RATP_SCD_1207	99	45	récupérer	NULL	vinf	NULL	B_GVi	OBJ	43	idtext0146	récupérer	W#####	spk3	184.38	184.91	?	//

20091112_RATP_SCD_1207	100	1	si	NULL	csu	NULL	B_NULL	ROOT	0	idtext0147	si	#####	spk2	184.95	185.04	0.01	_
20091112_RATP_SCD_1207	100	2	c'	NULL	cln	NULL	B_GN	SUJ_IMP	3	idtext0147	ce	###s##	spk2	185.05	185.1	0.01	_
20091112_RATP_SCD_1207	100	3	est	NULL	v	NULL	B_GVf	OBJ	1	idtext0147	être	P#3##s##	spk2	185.11	185.16	0.01	_
20091112_RATP_SCD_1207	100	4	possible	NULL	adj	NULL	B_GADJ	ATS	3	idtext0147	possible	###s##	spk2	185.17	185.46	0.01	_
20091112_RATP_SCD_1207	100	5	oui	NULL	adv	NULL	B_GADV	NOLINK	0	idtext0147	oui	#####	spk2	185.47	185.65	?	//

20091112_RATP_SCD_1207	101	1	voilà	DISF_M	pres	NULL	NULL	NOLINK	0	idtext0148	voilà	#####	spk3	185.81	186.13	?	//

20091112_RATP_SCD_1207	102	1	mais	NULL	coo	NULL	B_NULL	ROOT	0	idtext0149	mais	#####	spk2	186.18	186.23	0.01	_
20091112_RATP_SCD_1207	102	2	je	NULL	cln	NULL	B_GN	SUJ	5	idtext0149	cln	#1##s##	spk2	186.24	186.33	0.01	_
20091112_RATP_SCD_1207	102	3	vous	NULL	clo	NULL	B_GN	OBJ	5	idtext0149	cln	#2##p##	spk2	186.34	186.41	0.01	_
20091112_RATP_SCD_1207	102	4	en	NULL	clo	NULL	B_GN	DE_OBJ	5	idtext0149	en	#####	spk2	186.42	186.56	0.01	_
20091112_RATP_SCD_1207	102	5	prie	NULL	v	NULL	B_GVf	DEP_COORD	1	idtext0149	prier	PS#13##s##	spk2	186.57	186.69	0.01	_
20091112_RATP_SCD_1207	102	6	et	NULL	coo	NULL	B_NULL	COORD	5	idtext0149	et	#####	spk2	186.7	186.72	0.01	_
20091112_RATP_SCD_1207	102	7	bonne	NULL	adj	NULL	B_GN	MOD	8	idtext0149	bon	##f#s##	spk2	186.73	186.85	0.01	_
20091112_RATP_SCD_1207	102	8	fin	NULL	nc	NULL	I_GN	DEP_COORD	6	idtext0149	fin	###s##	spk2	186.86	186.94	0.01	_
20091112_RATP_SCD_1207	102	9	de	NULL	prep	NULL	B_GP	DEP	8	idtext0149	de	#####	spk2	186.95	187.01	0.01	_
20091112_RATP_SCD_1207	102	10	soirée	NULL	nc	NULL	I_GP	OBJ	9	idtext0149	soirée	##f#s##	spk2	187.02	187.39	0.01	_
20091112_RATP_SCD_1207	102	11	au+revoir	DISF_R	adv	NULL	NULL	NOLINK	0	idtext0149	au+revoir	#####	spk2	187.4	187.71	0.01	_
20091112_RATP_SCD_1207	102	12	au+revoir	NULL	adv	NULL	B_GADV	NOLINK	0	idtext0149	au+revoir	#####	spk2	187.72	188.44	?	_

20091112_RATP_SCD_1207	103	1	je	NULL	cln	NULL	B_GN	SUJ	3	idtext0150	cln	#1##s##	spk3	186.18	186.33	0.01	_
20091112_RATP_SCD_1207	103	2	vous	NULL	clo	NULL	B_GN	OBJ	3	idtext0150	cln	#2##p##	spk3	186.34	186.41	0.01	_
20091112_RATP_SCD_1207	103	3	remercie	NULL	v	NULL	B_GVf	ROOT	0	idtext0150	remercier	PS#13##s##	spk3	186.42	186.71	0.01	_
20091112_RATP_SCD_1207	103	4	beaucoup	NULL	adv	NULL	B_GADV	MOD	5	idtext0150	beaucoup	#####	spk3	186.72	186.94	0.01	_
20091112_RATP_SCD_1207	103	5	merci	NULL	adv	NULL	I_GADV	MOD	6	idtext0150	merci	#####	spk3	186.95	187.39	0.01	_
20091112_RATP_SCD_1207	103	6	au+revoir	NULL	adv	NULL	I_GADV	ROOT	0	idtext0150	au+revoir	#####	spk3	187.4	188.44	?	//

