20091112_RATP_SCD_0324	1	1	un	NULL	det	NULL	B_GN	DET	2	idtext0000	un	##m#s##i	spk1	3.96	3.99	0.01	_
20091112_RATP_SCD_0324	1	2	instant	NULL	nc	NULL	I_GN	ROOT	0	idtext0000	instant	##m#s##	spk1	4.0	4.17	0.01	_
20091112_RATP_SCD_0324	1	3	NNAAMMEE	NULL	np	B_HU	B_GN	ROOT	0	idtext0001	ANONYM	NULL	spk1	4.18	4.43	0.01	_
20091112_RATP_SCD_0324	1	4	va	NULL	v	NULL	B_GVf	ROOT	0	idtext0002	aller	P#3##s##	spk1	4.44	4.58	0.01	_
20091112_RATP_SCD_0324	1	5	vous	NULL	clo	NULL	B_GN	A_OBJ	6	idtext0002	cln	#2##p##	spk1	4.59	4.83	0.01	_
20091112_RATP_SCD_0324	1	6	répondre	NULL	vinf	NULL	B_GVi	OBJ	4	idtext0002	répondre	W#####	spk1	4.84	6.35	?	//

20091112_RATP_SCD_0324	2	1	NNAAMMEE	NULL	np	B_HU	B_GN	ROOT	0	idtext0003	ANONYM	NULL	spk1	7.96	8.13	0.01	_
20091112_RATP_SCD_0324	2	2	bonjour	NULL	adv	NULL	B_GADV	NOLINK	0	idtext0004	bonjour	#####	spk1	8.14	9.1	?	//

20091112_RATP_SCD_0324	3	1	allo	NULL	adv	NULL	B_GADV	MOD	2	idtext0005	allo	#####	spk2	9.21	9.38	0.01	_
20091112_RATP_SCD_0324	3	2	bonjour	NULL	adv	NULL	I_GADV	ROOT	0	idtext0005	bonjour	#####	spk2	9.39	9.91	?	//

20091112_RATP_SCD_0324	4	1	bonjour	NULL	adv	NULL	B_GADV	NOLINK	0	idtext0006	bonjour	#####	spk1	10.01	10.6	?	//

20091112_RATP_SCD_0324	5	1	euh	DISF_M	pres	NULL	NULL	NOLINK	0	idtext0007	euh	#####	spk2	10.64	11.2	0.01	_
20091112_RATP_SCD_0324	5	2	voilà	DISF_M	pres	NULL	NULL	NOLINK	0	idtext0007	voilà	#####	spk2	11.21	11.4	0.01	_
20091112_RATP_SCD_0324	5	3	je	NULL	cln	NULL	B_GN	SUJ	4	idtext0007	cln	#1##s##	spk2	11.41	11.57	0.01	_
20091112_RATP_SCD_0324	5	4	suis	NULL	v	NULL	B_GVf	ROOT	0	idtext0007	être	P#1##s##	spk2	11.58	11.75	0.01	_
20091112_RATP_SCD_0324	5	5	enseignant	NULL	nc	NULL	B_GN	ATS	4	idtext0007	enseignant	##m#s##	spk2	11.76	12.12	0.01	_
20091112_RATP_SCD_0324	5	6	dans	DISF_R	prep	NULL	NULL	NOLINK	0	idtext0007	dans	#####	spk2	12.13	12.27	0.01	_
20091112_RATP_SCD_0324	5	7	le	DISF_R	det	NULL	NULL	NOLINK	0	idtext0007	le	##m#s##d	spk2	12.28	12.45	0.01	_
20091112_RATP_SCD_0324	5	8	dans	NULL	prep	NULL	B_GP	MOD	5	idtext0007	dans	#####	spk2	12.46	12.61	0.01	_
20091112_RATP_SCD_0324	5	9	le	NULL	det	NULL	I_GP	DET	10	idtext0007	le	##m#s##d	spk2	12.62	12.7	0.01	_
20091112_RATP_SCD_0324	5	10	primaire	NULL	nc	NULL	I_GP	OBJ	8	idtext0007	primaire	###s##	spk2	12.71	13.26	?	//

20091112_RATP_SCD_0324	6	1	oui	NULL	adv	NULL	B_GADV	NOLINK	0	idtext0008	oui	#####	spk1	13.35	13.71	?	//

20091112_RATP_SCD_0324	7	1	et	NULL	coo	NULL	B_NULL	ROOT	0	idtext0009	et	#####	spk2	13.75	13.8	0.01	_
20091112_RATP_SCD_0324	7	2	je	NULL	cln	NULL	B_GN	SUJ	3	idtext0009	cln	#1##s##	spk2	13.81	14.1	0.01	_
20091112_RATP_SCD_0324	7	3	voudrais	NULL	v	NULL	B_GVf	DEP_COORD	1	idtext0009	vouloir	C#12##s##	spk2	14.11	14.39	0.01	_
20091112_RATP_SCD_0324	7	4	euh	DISF_M	pres	NULL	NULL	NOLINK	0	idtext0009	euh	#####	spk2	14.4	14.42	0.01	_
20091112_RATP_SCD_0324	7	5	que	NULL	csu	NULL	B_NULL	OBJ	3	idtext0009	que	#####	spk2	14.43	15.56	0.01	_
20091112_RATP_SCD_0324	7	6	mes	NULL	det	NULL	B_GN	DET	7	idtext0009	mon	###p##o	spk2	15.57	17.0	0.01	_
20091112_RATP_SCD_0324	7	7	élèves	NULL	nc	NULL	I_GN	SUJ	8	idtext0009	élève	###p##	spk2	17.01	17.4	0.01	_
20091112_RATP_SCD_0324	7	8	prennent	NULL	v	NULL	B_GVf	OBJ	5	idtext0009	prendre	PS#3##p##	spk2	17.41	17.71	0.01	_
20091112_RATP_SCD_0324	7	9	le	DISF_R	det	NULL	NULL	NOLINK	0	idtext0009	le	##m#s##d	spk2	17.72	17.98	0.01	_
20091112_RATP_SCD_0324	7	10	le	NULL	det	NULL	B_GN	DET	11	idtext0009	le	##m#s##d	spk2	17.99	18.06	0.01	_
20091112_RATP_SCD_0324	7	11	métro	NULL	nc	NULL	I_GN	OBJ	8	idtext0009	métro	##m#s##	spk2	18.07	18.56	?	//

20091112_RATP_SCD_0324	8	1	oui	NULL	adv	NULL	B_GADV	NOLINK	0	idtext0010	oui	#####	spk1	18.69	19.2	?	//

20091112_RATP_SCD_0324	9	1	et	NULL	coo	NULL	B_NULL	ROOT	0	idtext0011	et	#####	spk2	19.3	19.35	0.01	_
20091112_RATP_SCD_0324	9	2	j'	NULL	cln	NULL	B_GN	SUJ	4	idtext0011	cln	#1##s##	spk2	19.36	19.44	0.01	_
20091112_RATP_SCD_0324	9	3	aurais	NULL	v	NULL	B_GVf	AUX	4	idtext0011	avoir	C#12##s##	spk2	19.45	19.55	0.01	_
20091112_RATP_SCD_0324	9	4	voulu	NULL	vppart	NULL	I_GVf	DEP_COORD	1	idtext0011	vouloir	K##m#s##	spk2	19.56	19.78	0.01	_
20091112_RATP_SCD_0324	9	5	savoir	NULL	vinf	NULL	B_GVi	OBJ	4	idtext0011	savoir	W#####	spk2	19.79	20.14	0.01	_
20091112_RATP_SCD_0324	9	6	euh	DISF_M	pres	NULL	NULL	NOLINK	0	idtext0011	euh	#####	spk2	20.15	20.63	0.01	_
20091112_RATP_SCD_0324	9	7	j'	NULL	cln	NULL	B_GN	SUJ	9	idtext0011	cln	#1##s##	spk2	20.64	20.7	0.01	_
20091112_RATP_SCD_0324	9	8	ai	NULL	v	NULL	B_GVf	AUX	9	idtext0011	avoir	P#1##s##	spk2	20.71	20.73	0.01	_
20091112_RATP_SCD_0324	9	9	entendu	NULL	vppart	NULL	I_GVf	ROOT	0	idtext0011	entendre	K##m#s##	spk2	20.74	21.0	0.01	_
20091112_RATP_SCD_0324	9	10	parler	NULL	vinf	NULL	B_GVi	OBJ	9	idtext0011	parler	W#####	spk2	21.01	21.2	0.01	_
20091112_RATP_SCD_0324	9	11	de	NULL	prep	NULL	B_GP	OBJ	10	idtext0011	de	#####	spk2	21.21	21.37	0.01	_
20091112_RATP_SCD_0324	9	12	tarifs	NULL	nc	NULL	I_GP	OBJ	11	idtext0011	tarif	##m#p##	spk2	21.38	21.68	0.01	_
20091112_RATP_SCD_0324	9	13	réduits	NULL	vppart	NULL	B_GVf	MOD	12	idtext0011	réduire	K##m#p##	spk2	21.69	22.13	0.01	_
20091112_RATP_SCD_0324	9	14	pour	NULL	prep	NULL	B_GP	P_OBJ	12	idtext0011	pour	#####	spk2	22.14	22.27	0.01	_
20091112_RATP_SCD_0324	9	15	les	NULL	det	NULL	I_GP	DET	16	idtext0011	le	###p##d	spk2	22.28	22.38	0.01	_
20091112_RATP_SCD_0324	9	16	groupes	NULL	nc	NULL	I_GP	OBJ	14	idtext0011	groupe	##m#p##	spk2	22.39	22.57	0.01	_
20091112_RATP_SCD_0324	9	17	de	NULL	prep	NULL	B_GP	DEP	16	idtext0011	de	#####	spk2	22.58	22.68	0.01	_
20091112_RATP_SCD_0324	9	18	jeunes	NULL	nc	NULL	I_GP	OBJ	17	idtext0011	jeune	###p##	spk2	22.69	23.01	0.01	_
20091112_RATP_SCD_0324	9	19	j'	NULL	cln	NULL	B_GN	SUJ	21	idtext0011	cln	#1##s##	spk2	23.02	23.06	0.01	_
20091112_RATP_SCD_0324	9	20	aurais	NULL	v	NULL	B_GVf	AUX	21	idtext0011	avoir	C#12##s##	spk2	23.07	23.17	0.01	_
20091112_RATP_SCD_0324	9	21	voulu	NULL	vppart	NULL	I_GVf	ROOT	0	idtext0011	vouloir	K##m#s##	spk2	23.18	23.32	0.01	_
20091112_RATP_SCD_0324	9	22	savoir	NULL	vinf	NULL	B_GVi	OBJ	21	idtext0011	savoir	W#####	spk2	23.33	23.65	0.01	_
20091112_RATP_SCD_0324	9	23	quelles	DISF_R	det	NULL	NULL	NOLINK	0	idtext0011	quel	##f#p##	spk2	23.66	23.93	0.01	_
20091112_RATP_SCD_0324	9	24	quelles	NULL	det	NULL	B_NULL	ATS	25	idtext0011	quel	##f#p##	spk2	23.94	24.07	0.01	_
20091112_RATP_SCD_0324	9	25	étaient	NULL	v	NULL	B_GVf	OBJ	22	idtext0011	étayer	PS#3##p##	spk2	24.08	24.3	0.01	_
20091112_RATP_SCD_0324	9	26	les	NULL	det	NULL	B_GN	DET	27	idtext0011	le	###p##d	spk2	24.31	24.38	0.01	_
20091112_RATP_SCD_0324	9	27	modalités	NULL	nc	NULL	I_GN	ATS	25	idtext0011	modalité	##f#p##	spk2	24.39	24.84	0.01	_
20091112_RATP_SCD_0324	9	28	exactes	NULL	adj	NULL	I_GN	MOD	27	idtext0011	exact	##f#p##	spk2	24.85	25.18	?	//

20091112_RATP_SCD_0324	10	1	tout+à+fait	NULL	adv	NULL	B_GADV	NOLINK	0	idtext0012	tout+à+fait	#####	spk1	25.24	25.81	0.01	_
20091112_RATP_SCD_0324	10	2	donc	NULL	coo	NULL	B_NULL	ROOT	0	idtext0012	donc	#####	spk1	25.82	25.94	0.01	_
20091112_RATP_SCD_0324	10	3	je	NULL	cln	NULL	B_GN	SUJ	4	idtext0012	cln	#1##s##	spk1	25.95	25.97	0.01	_
20091112_RATP_SCD_0324	10	4	vais	NULL	v	NULL	B_GVf	DEP_COORD	2	idtext0012	aller	P#1##s##	spk1	25.98	26.07	0.01	_
20091112_RATP_SCD_0324	10	5	me	NULL	clr	NULL	B_GVi	AFF	6	idtext0012	cla	#1##s##	spk1	26.08	26.16	0.01	_
20091112_RATP_SCD_0324	10	6	renseigner	NULL	vinf	NULL	I_GVi	OBJ	4	idtext0012	renseigner	W#####	spk1	26.17	26.65	0.01	_
20091112_RATP_SCD_0324	10	7	hein	DISF_M	pres	NULL	NULL	NOLINK	0	idtext0012	hein	#####	spk1	26.66	26.8	0.01	_
20091112_RATP_SCD_0324	10	8	et	NULL	coo	NULL	B_NULL	COORD	4	idtext0012	et	#####	spk1	26.81	27.07	0.01	_
20091112_RATP_SCD_0324	10	9	je	NULL	cln	NULL	B_GN	SUJ	10	idtext0012	cln	#1##s##	spk1	27.08	27.17	0.01	_
20091112_RATP_SCD_0324	10	10	vais	NULL	v	NULL	B_GVf	DEP_COORD	8	idtext0012	aller	P#1##s##	spk1	27.18	27.23	0.01	_
20091112_RATP_SCD_0324	10	11	reprendre	NULL	vinf	NULL	I_GVf	OBJ	10	idtext0012	reprendre	W#####	spk1	27.24	27.6	0.01	_
20091112_RATP_SCD_0324	10	12	les	NULL	det	NULL	B_GN	DET	13	idtext0012	le	###p##d	spk1	27.61	27.66	0.01	_
20091112_RATP_SCD_0324	10	13	modalités	NULL	nc	NULL	I_GN	OBJ	11	idtext0012	modalité	##f#p##	spk1	27.67	28.05	0.01	_
20091112_RATP_SCD_0324	10	14	je	NULL	cln	NULL	B_GN	SUJ	16	idtext0012	cln	#1##s##	spk1	28.06	28.08	0.01	_
20091112_RATP_SCD_0324	10	15	vous	NULL	clo	NULL	B_GN	OBJ	16	idtext0012	cln	#2##p##	spk1	28.09	28.16	0.01	_
20091112_RATP_SCD_0324	10	16	reprends	NULL	v	NULL	B_GVf	ROOT	0	idtext0012	reprendre	P#12##s##	spk1	28.17	28.34	0.01	_
20091112_RATP_SCD_0324	10	17	tout+de+suite	NULL	adv	NULL	B_GADV	MOD	16	idtext0012	tout+de+suite	#####	spk1	28.35	28.73	0.01	_
20091112_RATP_SCD_0324	10	18	monsieur	NULL	nc	NULL	B_GN	NOLINK	0	idtext0012	Monsieur	##m#s##	spk1	28.74	28.94	0.01	_
20091112_RATP_SCD_0324	10	19	hein	DISF_M	pres	NULL	NULL	NOLINK	0	idtext0012	hein	#####	spk1	28.95	29.07	?	//

20091112_RATP_SCD_0324	11	1	d'accord	NULL	adv	NULL	B_GADV	NOLINK	0	idtext0013	d'accord	#####	spk2	29.12	29.64	?	//

20091112_RATP_SCD_0324	12	1	merci	NULL	adv	NULL	B_GADV	NOLINK	0	idtext0014	merci	#####	spk1	29.72	29.93	?	//

20091112_RATP_SCD_0324	13	1	monsieur	NULL	nc	NULL	B_GN	NOLINK	0	idtext0015	Monsieur	##m#s##	spk1	49.9	50.05	0.01	_
20091112_RATP_SCD_0324	13	2	s'il+vous+plaît	NULL	adv	NULL	B_GADV	NOLINK	0	idtext0015	s'il+vous+plaît	#####	spk1	50.06	50.85	?	//

20091112_RATP_SCD_0324	14	1	oui	NULL	adv	NULL	B_GADV	NOLINK	0	idtext0016	oui	#####	spk2	50.92	51.31	?	//

20091112_RATP_SCD_0324	15	1	donc	NULL	coo	NULL	B_NULL	ROOT	0	idtext0017	donc	#####	spk1	51.42	51.56	0.01	_
20091112_RATP_SCD_0324	15	2	effectivement	NULL	adv	NULL	B_GADV	NOLINK	0	idtext0017	effectivement	#####	spk1	51.57	52.16	0.01	_
20091112_RATP_SCD_0324	15	3	vous	NULL	cln	NULL	B_GN	SUJ	4	idtext0017	cln	#2##p##	spk1	52.17	52.29	0.01	_
20091112_RATP_SCD_0324	15	4	resterez	NULL	v	NULL	B_GVf	DEP_COORD	1	idtext0017	rester	F#2##p##	spk1	52.3	52.78	0.01	_
20091112_RATP_SCD_0324	15	5	uniquement	NULL	adv	NULL	B_GADV	MOD	4	idtext0017	uniquement	#####	spk1	52.79	53.13	0.01	_
20091112_RATP_SCD_0324	15	6	sur	NULL	prep	NULL	B_GP	P_OBJ_LOC	4	idtext0017	sur	#####	spk1	53.14	53.3	0.01	_
20091112_RATP_SCD_0324	15	7	Paris	NULL	nc	B_A	I_GP	OBJ	6	idtext0017	Paris	##m#s##	spk1	53.31	54.3	?	//

20091112_RATP_SCD_0324	16	1	oui	NULL	adv	NULL	B_GADV	NOLINK	0	idtext0018	oui	#####	spk2	54.39	54.93	?	//

20091112_RATP_SCD_0324	17	1	alors	NULL	adv	NULL	B_GADV	NOLINK	0	idtext0019	alors	#####	spk1	55.08	55.48	0.01	//
20091112_RATP_SCD_0324	17	2	euh	DISF_M	pres	NULL	NULL	NOLINK	0	idtext0019	euh	#####	spk1	55.49	56.03	0.01	_
20091112_RATP_SCD_0324	17	3	le	NULL	det	NULL	B_GN	DET	4	idtext0019	le	##m#s##d	spk1	56.04	56.34	0.01	_
20091112_RATP_SCD_0324	17	4	groupe	NULL	nc	NULL	I_GN	SUJ	9	idtext0019	groupe	##m#s##	spk1	56.35	56.55	0.01	_
20091112_RATP_SCD_0324	17	5	de	NULL	prep	NULL	B_GP	DEP	4	idtext0019	de	#####	spk1	56.56	56.73	0.01	_
20091112_RATP_SCD_0324	17	6	jeunes	NULL	nc	NULL	I_GP	OBJ	5	idtext0019	jeune	###p##	spk1	56.74	57.85	0.01	_
20091112_RATP_SCD_0324	17	7	euh	DISF_M	pres	NULL	NULL	NOLINK	0	idtext0019	euh	#####	spk1	57.86	57.98	0.01	_
20091112_RATP_SCD_0324	17	8	vous	NULL	clo	NULL	B_GN	OBJ	9	idtext0019	cln	#2##p##	spk1	57.99	58.16	0.01	_
20091112_RATP_SCD_0324	17	9	permet	NULL	v	NULL	B_GVf	ROOT	0	idtext0019	permettre	P#3##s##	spk1	58.17	58.38	0.01	_
20091112_RATP_SCD_0324	17	10	de	NULL	prep	NULL	B_GP	OBJ	9	idtext0019	de	#####	spk1	58.39	58.41	0.01	_
20091112_RATP_SCD_0324	17	11	bénéficier	NULL	vinf	NULL	I_GP	OBJ	10	idtext0019	bénéficier	W#####	spk1	58.42	59.1	0.01	_
20091112_RATP_SCD_0324	17	12	effectivement	NULL	adv	NULL	B_GADV	MOD	11	idtext0019	effectivement	#####	spk1	59.11	59.6	0.01	_
20091112_RATP_SCD_0324	17	13	de	NULL	prep	NULL	B_GP	DE_OBJ	11	idtext0019	de	#####	spk1	59.61	59.69	0.01	_
20091112_RATP_SCD_0324	17	14	tarif	NULL	nc	NULL	I_GP	OBJ	13	idtext0019	tarif	##m#s##	spk1	59.7	59.98	0.01	_
20091112_RATP_SCD_0324	17	15	réduit	NULL	adj	NULL	I_GP	MOD	14	idtext0019	réduire	K##m#s##	spk1	59.99	60.21	0.01	_
20091112_RATP_SCD_0324	17	16	donc	NULL	coo	NULL	B_NULL	COORD	9	idtext0019	donc	#####	spk1	60.22	60.39	0.01	_
20091112_RATP_SCD_0324	17	17	le	NULL	det	NULL	B_GN	DET	18	idtext0019	le	##m#s##d	spk1	60.4	60.51	0.01	_
20091112_RATP_SCD_0324	17	18	billet	NULL	nc	NULL	I_GN	DEP_COORD	16	idtext0019	billet	##m#s##	spk1	60.52	60.81	0.01	_
20091112_RATP_SCD_0324	17	19	au+lieu+d'	NULL	prep	NULL	B_GP	MOD	18	idtext0019	au+lieu+d'	#####	spk1	60.82	61.06	0.01	_
20091112_RATP_SCD_0324	17	20	être	NULL	vinf	NULL	I_GP	OBJ	19	idtext0019	être	W#####	spk1	61.07	61.27	0.01	_
20091112_RATP_SCD_0324	17	21	à	NULL	prep	NULL	B_GP	P_OBJ_LOC	20	idtext0019	à	#####	spk1	61.28	61.38	0.01	_
20091112_RATP_SCD_0324	17	22	un	NULL	det	B_P	I_GP	DET	23	idtext0019	un	##m#s##i	spk1	61.39	61.49	0.01	_
20091112_RATP_SCD_0324	17	23	euro	NULL	nc	I_P	I_GP	OBJ	21	idtext0019	euro	##m#s##	spk1	61.5	61.72	0.01	_
20091112_RATP_SCD_0324	17	24	soixante	NULL	adj	I_P	I_GP	MOD	23	idtext0019	soixante	#####	spk1	61.73	62.48	?	//

20091112_RATP_SCD_0324	18	1	oui	NULL	adv	NULL	B_GADV	NOLINK	0	idtext0020	oui	#####	spk2	62.62	62.95	?	//

20091112_RATP_SCD_0324	19	1	il	NULL	cln	NULL	B_GN	SUJ	2	idtext0021	cln	#3#m#s##	spk1	63.0	63.14	0.01	_
20091112_RATP_SCD_0324	19	2	reviendra	NULL	v	NULL	B_GVf	ROOT	0	idtext0021	revenir	F#3##s##	spk1	63.15	63.39	0.01	_
20091112_RATP_SCD_0324	19	3	à	NULL	prep	NULL	B_GP	P_OBJ_LOC	2	idtext0021	à	#####	spk1	63.4	63.42	0.01	_
20091112_RATP_SCD_0324	19	4	cinquante-huit	NULL	det	B_P	I_GP	DET	5	idtext0021	cinquante-huit	#####	spk1	63.43	63.96	0.01	_
20091112_RATP_SCD_0324	19	5	centimes	NULL	nc	I_P	I_GP	OBJ	3	idtext0021	centime	##m#p##	spk1	63.97	64.29	0.01	_
20091112_RATP_SCD_0324	19	6	par	DISF_R	prep	I_P	NULL	NOLINK	0	idtext0021	par	#####	spk1	64.3	64.57	0.01	_
20091112_RATP_SCD_0324	19	7	par	NULL	prep	NULL	B_GP	MOD	5	idtext0021	par	#####	spk1	64.58	64.77	0.01	_
20091112_RATP_SCD_0324	19	8	personne	NULL	nc	NULL	I_GP	OBJ	7	idtext0021	personne	##f#s##	spk1	64.78	65.4	0.01	_
20091112_RATP_SCD_0324	19	9	donc	NULL	coo	NULL	B_NULL	COORD	2	idtext0021	donc	#####	spk1	65.41	65.59	0.01	_
20091112_RATP_SCD_0324	19	10	les	NULL	det	NULL	B_GN	DET	11	idtext0021	le	###p##d	spk1	65.6	65.77	0.01	_
20091112_RATP_SCD_0324	19	11	enfants	NULL	nc	NULL	I_GN	DEP_COORD	9	idtext0021	enfant	###p##	spk1	65.78	66.21	0.01	_
20091112_RATP_SCD_0324	19	12	et	DISF_R	coo	NULL	NULL	NOLINK	0	idtext0021	et	#####	spk1	66.22	66.52	0.01	_
20091112_RATP_SCD_0324	19	13	et	NULL	coo	NULL	B_NULL	COORD	11	idtext0021	et	#####	spk1	66.53	66.96	0.01	_
20091112_RATP_SCD_0324	19	14	les	NULL	det	NULL	B_GN	DET	15	idtext0021	le	###p##d	spk1	66.97	67.21	0.01	_
20091112_RATP_SCD_0324	19	15	accompagnateurs	NULL	nc	NULL	I_GN	DEP_COORD	13	idtext0021	accompagnateur	##m#p##	spk1	67.22	68.27	?	//

20091112_RATP_SCD_0324	20	1	d'accord	NULL	adv	NULL	B_GADV	NOLINK	0	idtext0022	d'accord	#####	spk2	68.51	69.05	?	//

20091112_RATP_SCD_0324	21	1	donc	NULL	coo	NULL	B_NULL	ROOT	0	idtext0023	donc	#####	spk1	69.34	69.53	0.01	_
20091112_RATP_SCD_0324	21	2	c'	NULL	cln	NULL	B_GN	SUJ_IMP	3	idtext0023	ce	###s##	spk1	69.54	69.56	0.01	_
20091112_RATP_SCD_0324	21	3	est	NULL	v	NULL	B_GVf	DEP_COORD	1	idtext0023	être	P#3##s##	spk1	69.57	69.6	0.01	_
20091112_RATP_SCD_0324	21	4	à+ce+moment-là	NULL	adv	NULL	B_GADV	ATS	3	idtext0023	à+ce+moment-là	#####	spk1	69.61	70.05	0.01	_
20091112_RATP_SCD_0324	21	5	vous	NULL	cln	NULL	B_GN	SUJ	6	idtext0023	cln	#2##p##	spk1	70.06	70.14	0.01	_
20091112_RATP_SCD_0324	21	6	pouvez	NULL	v	NULL	B_GVf	ROOT	0	idtext0023	pouvoir	P#2##p##	spk1	70.15	70.34	0.01	_
20091112_RATP_SCD_0324	21	7	télécharger	NULL	vinf	NULL	I_GVf	OBJ	6	idtext0023	télécharger	W#####	spk1	70.35	70.87	0.01	_
20091112_RATP_SCD_0324	21	8	le	DISF_R	det	NULL	NULL	NOLINK	0	idtext0023	le	##m#s##d	spk1	70.88	70.92	0.01	_
20091112_RATP_SCD_0324	21	9	le	DISF_R	det	NULL	NULL	NOLINK	0	idtext0023	le	##m#s##d	spk1	70.93	71.05	0.01	_
20091112_RATP_SCD_0324	21	10	le	NULL	det	NULL	B_GN	DET	11	idtext0023	le	##m#s##d	spk1	71.06	71.39	0.01	_
20091112_RATP_SCD_0324	21	11	formulaire	NULL	nc	NULL	I_GN	OBJ	6	idtext0023	formulaire	##m#s##	spk1	71.4	71.95	0.01	_
20091112_RATP_SCD_0324	21	12	sur	NULL	prep	NULL	B_GP	P_OBJ	11	idtext0023	sur	#####	spk1	71.96	72.06	0.01	_
20091112_RATP_SCD_0324	21	13	le	NULL	det	NULL	I_GP	DET	14	idtext0023	le	##m#s##d	spk1	72.07	72.21	0.01	_
20091112_RATP_SCD_0324	21	14	site	NULL	nc	NULL	I_GP	OBJ	12	idtext0023	site	##m#s##	spk1	72.22	72.35	0.01	_
20091112_RATP_SCD_0324	21	15	RATP	NULL	np	B_ORG	I_GP	MOD	14	idtext0023	RATP	##f#s##	spk1	72.36	72.87	0.01	_
20091112_RATP_SCD_0324	21	16	donc	NULL	coo	NULL	B_NULL	NOLINK	0	idtext0023	donc	#####	spk1	72.88	73.22	?	//

20091112_RATP_SCD_0324	22	1	attendez	NULL	v	NULL	B_GVf	NOLINK	0	idtext0024	attendre	P#2##p##	spk2	73.48	73.71	0.01	_
20091112_RATP_SCD_0324	22	2	talalalala	DISF_M	pres	NULL	NULL	NOLINK	0	idtext0024	talalalala	#####	spk2	73.72	74.9	?	_

20091112_RATP_SCD_0324	23	1	allez	NULL	v	NULL	B_GVf	ROOT	0	idtext0025	aller	P#2##p##	spk1	75.02	75.46	0.01	_
20091112_RATP_SCD_0324	23	2	-y	NULL	clo	NULL	B_GN	P_OBJ_LOC	1	idtext0025	-y	#####	spk1	75.47	75.92	?	_

20091112_RATP_SCD_0324	24	1	télécharger	NULL	vinf	NULL	B_GVi	ROOT	0	idtext0026	télécharger	W#####	spk2	76.01	76.5	0.01	_
20091112_RATP_SCD_0324	24	2	le	NULL	det	NULL	B_GN	DET	3	idtext0026	le	##m#s##d	spk2	76.51	76.53	0.01	_
20091112_RATP_SCD_0324	24	3	formulaire	NULL	nc	NULL	I_GN	OBJ	1	idtext0026	formulaire	##m#s##	spk2	76.54	77.44	0.01	_
20091112_RATP_SCD_0324	24	4	d'accord	NULL	adv	NULL	B_GADV	NOLINK	0	idtext0027	d'accord	#####	spk2	77.45	78.02	?	//

20091112_RATP_SCD_0324	25	1	oui	NULL	adv	NULL	B_GADV	NOLINK	0	idtext0028	oui	#####	spk1	78.06	78.31	0.01	_
20091112_RATP_SCD_0324	25	2	sur	NULL	prep	NULL	B_GP	ROOT	0	idtext0028	sur	#####	spk1	78.32	78.49	0.01	_
20091112_RATP_SCD_0324	25	3	le	NULL	det	NULL	I_GP	DET	4	idtext0028	le	##m#s##d	spk1	78.5	78.56	0.01	_
20091112_RATP_SCD_0324	25	4	site	NULL	nc	NULL	I_GP	OBJ	2	idtext0028	site	##m#s##	spk1	78.57	78.75	0.01	_
20091112_RATP_SCD_0324	25	5	RATP	NULL	np	B_ORG	I_GP	MOD	4	idtext0028	RATP	##f#s##	spk1	78.76	79.09	0.01	_
20091112_RATP_SCD_0324	25	6	donc	NULL	coo	NULL	B_NULL	COORD	4	idtext0028	donc	#####	spk1	79.1	79.27	0.01	_
20091112_RATP_SCD_0324	25	7	y	NULL	clo	NULL	B_GN	AFF	9	idtext0028	y	#####	spk1	79.28	79.3	0.01	_
20091112_RATP_SCD_0324	25	8	aura	NULL	v	NULL	B_GVf	AUX	9	idtext0028	avoir	F#3##s##	spk1	79.31	79.41	0.01	_
20091112_RATP_SCD_0324	25	9	marqué	NULL	vppart	NULL	I_GVf	DEP_COORD	6	idtext0028	marquer	K##m#s##	spk1	79.42	79.66	0.01	_
20091112_RATP_SCD_0324	25	10	groupe	NULL	nc	NULL	B_GN	DEP_COORD	6	idtext0028	groupe	##m#s##	spk1	79.67	79.83	0.01	_
20091112_RATP_SCD_0324	25	11	de	NULL	prep	NULL	B_GP	DEP	10	idtext0028	de	#####	spk1	79.84	79.96	0.01	_
20091112_RATP_SCD_0324	25	12	jeunes	NULL	nc	NULL	I_GP	OBJ	11	idtext0028	jeune	###p##	spk1	79.97	80.22	0.01	_
20091112_RATP_SCD_0324	25	13	hein	DISF_M	pres	NULL	NULL	NOLINK	0	idtext0028	hein	#####	spk1	80.23	80.47	?	//

20091112_RATP_SCD_0324	26	1	d'accord	NULL	adv	NULL	B_GADV	NOLINK	0	idtext0029	d'accord	#####	spk2	80.85	81.32	?	//

20091112_RATP_SCD_0324	27	1	formu()	DISF_T	tronc	NULL	NULL	NOLINK	0	idtext0030	formu()	#####	spk1	81.36	81.89	0.01	_
20091112_RATP_SCD_0324	27	2	formulaire	NULL	adj	NULL	B_GN	MOD	3	idtext0030	formulaire	#####	spk1	81.9	82.26	0.01	_
20091112_RATP_SCD_0324	27	3	groupe	NULL	nc	NULL	I_GN	ROOT	0	idtext0030	groupe	##m#s##	spk1	82.27	82.42	0.01	_
20091112_RATP_SCD_0324	27	4	de	NULL	prep	NULL	B_GP	DEP	3	idtext0030	de	#####	spk1	82.43	82.53	0.01	_
20091112_RATP_SCD_0324	27	5	jeunes	NULL	nc	NULL	I_GP	OBJ	4	idtext0030	jeune	###p##	spk1	82.54	82.98	?	//

20091112_RATP_SCD_0324	28	1	oui	NULL	adv	NULL	B_GADV	NOLINK	0	idtext0031	oui	#####	spk2	83.13	83.46	?	//

20091112_RATP_SCD_0324	29	1	et+donc	NULL	coo	NULL	B_NULL	ROOT	0	idtext0032	et+donc	#####	spk1	83.5	83.73	0.01	_
20091112_RATP_SCD_0324	29	2	faudra	NULL	v	NULL	B_GVf	DEP_COORD	1	idtext0032	falloir	F#3##s##	spk1	83.74	84.07	0.01	_
20091112_RATP_SCD_0324	29	3	inscrire	NULL	vinf	NULL	I_GVf	OBJ	2	idtext0032	inscrire	W#####	spk1	84.08	84.56	0.01	_
20091112_RATP_SCD_0324	29	4	sur	NULL	prep	NULL	B_GP	P_OBJ	2	idtext0032	sur	#####	spk1	84.57	84.75	0.01	_
20091112_RATP_SCD_0324	29	5	le	NULL	det	NULL	I_GP	DET	6	idtext0032	le	##m#s##d	spk1	84.76	84.82	0.01	_
20091112_RATP_SCD_0324	29	6	formulaire	NULL	nc	NULL	I_GP	OBJ	4	idtext0032	formulaire	##m#s##	spk1	84.83	85.46	0.01	_
20091112_RATP_SCD_0324	29	7	votre	NULL	det	NULL	B_GN	DET	8	idtext0032	votre	###s##o	spk1	85.47	85.72	0.01	_
20091112_RATP_SCD_0324	29	8	itinéraire	NULL	nc	NULL	I_GN	MOD	9	idtext0032	itinéraire	##m#s##	spk1	85.73	86.25	0.01	_
20091112_RATP_SCD_0324	29	9	aller	NULL	vinf	NULL	B_GVi	OBJ	2	idtext0032	aller	W#####	spk1	86.26	86.69	0.01	_
20091112_RATP_SCD_0324	29	10	et	NULL	coo	NULL	B_NULL	COORD	9	idtext0032	et	#####	spk1	86.7	86.74	0.01	_
20091112_RATP_SCD_0324	29	11	retour	NULL	nc	NULL	B_GN	DEP_COORD	10	idtext0032	retour	##m#s##	spk1	86.75	87.51	?	/

20091112_RATP_SCD_0324	30	1	d'accord	NULL	adv	NULL	B_GADV	NOLINK	0	idtext0033	d'accord	#####	spk2	87.56	88.0	?	//

20091112_RATP_SCD_0324	31	1	et	NULL	coo	NULL	B_NULL	ROOT	0	idtext0034	et	#####	spk1	88.35	88.46	0.01	_
20091112_RATP_SCD_0324	31	2	à+ce+moment-là	NULL	adv	NULL	B_GADV	NOLINK	0	idtext0034	à+ce+moment-là	#####	spk1	88.47	89.01	0.01	_
20091112_RATP_SCD_0324	31	3	vous	NULL	cln	NULL	B_GN	SUJ	5	idtext0034	cln	#2##p##	spk1	89.02	89.08	0.01	_
20091112_RATP_SCD_0324	31	4	vous	NULL	clr	NULL	B_GVf	AFF	5	idtext0034	cln	#2##p##	spk1	89.09	89.17	0.01	_
20091112_RATP_SCD_0324	31	5	présentez	NULL	v	NULL	I_GVf	DEP_COORD	1	idtext0034	présenter	P#2##p##	spk1	89.18	89.61	0.01	_
20091112_RATP_SCD_0324	31	6	au	NULL	prep	NULL	B_GP	P_OBJ_LOC	5	idtext0034	au	#####	spk1	89.62	89.67	0.01	_
20091112_RATP_SCD_0324	31	7	guichet	NULL	nc	NULL	I_GP	OBJ	6	idtext0034	guichet	##m#s##	spk1	89.68	89.93	0.01	_
20091112_RATP_SCD_0324	31	8	avec	NULL	prep	NULL	B_GP	P_OBJ	7	idtext0034	avec	#####	spk1	89.94	90.12	0.01	_
20091112_RATP_SCD_0324	31	9	le	NULL	det	NULL	I_GP	DET	10	idtext0034	le	##m#s##d	spk1	90.13	90.19	0.01	_
20091112_RATP_SCD_0324	31	10	formulaire	NULL	nc	NULL	I_GP	OBJ	8	idtext0034	formulaire	##m#s##	spk1	90.2	91.31	0.01	_
20091112_RATP_SCD_0324	31	11	et	NULL	coo	NULL	B_NULL	COORD	10	idtext0035	et	#####	spk1	91.32	91.39	0.01	_
20091112_RATP_SCD_0324	31	12	l'	NULL	det	NULL	B_GN	DET	13	idtext0035	le	###s##d	spk1	91.4	91.43	0.01	_
20091112_RATP_SCD_0324	31	13	agent	NULL	nc	NULL	I_GN	DEP_COORD	11	idtext0035	agent	###s##	spk1	91.44	91.66	0.01	_
20091112_RATP_SCD_0324	31	14	en	NULL	prep	NULL	B_GP	P_OBJ	13	idtext0035	en	#####	spk1	91.67	91.69	0.01	_
20091112_RATP_SCD_0324	31	15	station	NULL	nc	NULL	I_GP	OBJ	14	idtext0035	station	##f#s##	spk1	91.7	92.09	0.01	_
20091112_RATP_SCD_0324	31	16	vous	NULL	clo	NULL	B_GN	A_OBJ	17	idtext0035	cln	#2##p##	spk1	92.1	92.19	0.01	_
20091112_RATP_SCD_0324	31	17	donnera	NULL	v	NULL	B_GVf	ROOT	0	idtext0035	donner	F#3##s##	spk1	92.2	92.47	0.01	_
20091112_RATP_SCD_0324	31	18	les	NULL	det	NULL	B_GN	DET	19	idtext0035	le	###p##d	spk1	92.48	92.62	0.01	_
20091112_RATP_SCD_0324	31	19	billets	NULL	nc	NULL	I_GN	OBJ	17	idtext0035	billet	##m#p##	spk1	92.63	93.75	0.01	/
20091112_RATP_SCD_0324	31	20	uniquement	NULL	adv	NULL	B_GADV	MOD	17	idtext0036	uniquement	#####	spk1	93.76	94.16	0.01	_
20091112_RATP_SCD_0324	31	21	pour	NULL	prep	NULL	B_GP	P_OBJ	19	idtext0036	pour	#####	spk1	94.17	94.3	0.01	_
20091112_RATP_SCD_0324	31	22	le	NULL	det	NULL	I_GP	DET	23	idtext0036	le	##m#s##d	spk1	94.31	94.38	0.01	_
20091112_RATP_SCD_0324	31	23	trajet	NULL	nc	NULL	I_GP	OBJ	21	idtext0036	trajet	##m#s##	spk1	94.39	94.77	0.01	_
20091112_RATP_SCD_0324	31	24	aller	NULL	vinf	NULL	B_GVi	OBJ	17	idtext0036	aller	W#####	spk1	94.78	95.02	0.01	_
20091112_RATP_SCD_0324	31	25	et	NULL	coo	NULL	B_NULL	COORD	24	idtext0036	et	#####	spk1	95.03	95.1	0.01	_
20091112_RATP_SCD_0324	31	26	retour	NULL	nc	NULL	B_GN	DEP_COORD	25	idtext0036	retour	##m#s##	spk1	95.11	95.35	0.01	_
20091112_RATP_SCD_0324	31	27	en	NULL	prep	NULL	B_GP	MOD	26	idtext0036	en	#####	spk1	95.36	95.39	0.01	_
20091112_RATP_SCD_0324	31	28	fonction	NULL	nc	NULL	I_GP	OBJ	27	idtext0036	fonction	##f#s##	spk1	95.4	95.57	0.01	_
20091112_RATP_SCD_0324	31	29	de	NULL	prep	NULL	B_GP	DEP	28	idtext0036	de	#####	spk1	95.58	95.6	0.01	_
20091112_RATP_SCD_0324	31	30	la	NULL	det	NULL	I_GP	DET	31	idtext0036	le	##m#s##d	spk1	95.61	95.68	0.01	_
20091112_RATP_SCD_0324	31	31	destination	NULL	nc	NULL	I_GP	OBJ	29	idtext0036	destination	##f#s##	spk1	95.69	96.26	?	//

20091112_RATP_SCD_0324	32	1	c'	NULL	cln	NULL	B_GN	SUJ_IMP	2	idtext0037	ce	###s##	spk2	96.3	96.32	0.01	_
20091112_RATP_SCD_0324	32	2	est	NULL	v	NULL	B_GVf	ROOT	0	idtext0037	être	P#3##s##	spk2	96.33	96.35	0.01	_
20091112_RATP_SCD_0324	32	3	un	NULL	det	NULL	B_GN	DET	4	idtext0037	un	##m#s##i	spk2	96.36	96.46	0.01	_
20091112_RATP_SCD_0324	32	4	aller	NULL	nc	NULL	I_GN	ATS	2	idtext0037	aller	##m#s##	spk2	96.47	96.61	0.01	_
20091112_RATP_SCD_0324	32	5	et	NULL	coo	NULL	B_NULL	COORD	4	idtext0037	et	#####	spk2	96.62	96.66	0.01	_
20091112_RATP_SCD_0324	32	6	retour	NULL	nc	NULL	B_GN	DEP_COORD	5	idtext0037	retour	##m#s##	spk2	96.67	97.09	?	/

20091112_RATP_SCD_0324	33	1	voilà	DISF_M	pres	NULL	NULL	NOLINK	0	idtext0038	voilà	#####	spk1	97.17	97.61	?	//

20091112_RATP_SCD_0324	34	1	alors	NULL	adv	NULL	B_GADV	NOLINK	0	idtext0039	alors	#####	spk2	97.9	98.25	?	//

20091112_RATP_SCD_0324	35	1	si	NULL	csu	NULL	B_NULL	NOLINK	0	idtext0040	si	#####	spk1	98.41	98.63	0.01	_
20091112_RATP_SCD_0324	35	2	ça	DISF_R	pro	NULL	NULL	NOLINK	0	idtext0040	ça	#####	spk1	98.64	98.76	0.01	_
20091112_RATP_SCD_0324	35	3	ça	NULL	pro	NULL	B_GN	SUJ	4	idtext0040	ça	#####	spk1	98.77	98.9	0.01	_
20091112_RATP_SCD_0324	35	4	peut	NULL	v	NULL	B_GVf	ROOT	0	idtext0040	pouvoir	P#3##s##	spk1	98.91	99.09	0.01	_
20091112_RATP_SCD_0324	35	5	être	NULL	vinf	NULL	I_GVfn	OBJ	4	idtext0040	être	W#####	spk1	99.1	99.26	0.01	_
20091112_RATP_SCD_0324	35	6	qu'	NULL	advneg	NULL	I_GVfn	MOD	5	idtext0040	qu'	#####	spk1	99.27	99.41	0.01	_
20091112_RATP_SCD_0324	35	7	un	NULL	det	NULL	B_GN	DET	8	idtext0040	un	##m#s##i	spk1	99.42	99.54	0.01	_
20091112_RATP_SCD_0324	35	8	aller	NULL	nc	NULL	I_GN	ATS	5	idtext0040	aller	##m#s##	spk1	99.55	99.69	0.01	_
20091112_RATP_SCD_0324	35	9	également	NULL	adv	NULL	B_GADV	NOLINK	0	idtext0040	également	#####	spk1	99.7	100.07	0.01	_
20091112_RATP_SCD_0324	35	10	mais	NULL	coo	NULL	B_NULL	NOLINK	0	idtext0040	mais	#####	spk1	100.08	100.15	0.01	_
20091112_RATP_SCD_0324	35	11	bon	DISF_M	pres	NULL	NULL	NOLINK	0	idtext0040	bon	#####	spk1	100.16	100.27	?	/

20091112_RATP_SCD_0324	36	1	d'accord	DISF_R	adv	NULL	NULL	NOLINK	0	idtext0041	d'accord	#####	spk2	100.31	100.57	0.01	_
20091112_RATP_SCD_0324	36	2	d'accord	NULL	adv	NULL	B_GADV	NOLINK	0	idtext0041	d'accord	#####	spk2	100.58	101.03	0.01	_
20091112_RATP_SCD_0324	36	3	mais	NULL	coo	NULL	B_NULL	ROOT	0	idtext0041	mais	#####	spk2	101.04	101.1	0.01	_
20091112_RATP_SCD_0324	36	4	le	DISF_R	det	NULL	NULL	NOLINK	0	idtext0041	le	##m#s##d	spk2	101.11	101.37	0.01	_
20091112_RATP_SCD_0324	36	5	le	DISF_R	det	NULL	NULL	NOLINK	0	idtext0041	le	##m#s##d	spk2	101.38	101.76	0.01	_
20091112_RATP_SCD_0324	36	6	le	DISF_R	det	NULL	NULL	NOLINK	0	idtext0041	le	##m#s##d	spk2	101.77	101.89	0.01	_
20091112_RATP_SCD_0324	36	7	le	NULL	det	NULL	B_GN	DET	8	idtext0041	le	##m#s##d	spk2	101.9	102.02	0.01	_
20091112_RATP_SCD_0324	36	8	site	NULL	nc	NULL	I_GN	ROOT	0	idtext0041	site	##m#s##	spk2	102.03	102.31	0.01	_
20091112_RATP_SCD_0324	36	9	exact	NULL	adj	NULL	I_GN	MOD	8	idtext0041	exact	##m#s##	spk2	102.32	102.7	0.01	_
20091112_RATP_SCD_0324	36	10	c'	NULL	cln	NULL	B_GN	SUJ_IMP	11	idtext0041	ce	###s##	spk2	102.71	102.73	0.01	_
20091112_RATP_SCD_0324	36	11	est	NULL	v	NULL	B_GVf	DEP_COORD	3	idtext0041	être	P#3##s##	spk2	102.74	102.78	0.01	_
20091112_RATP_SCD_0324	36	12	quoi	NULL	pri	NULL	B_NULL	ATS	11	idtext0041	quoi	#####	spk2	102.79	103.13	?	_

20091112_RATP_SCD_0324	37	1	RATP	NULL	np	B_ORG	B_GN	ROOT	0	idtext0042	RATP	##f#s##	spk1	103.2	103.61	0.01	_
20091112_RATP_SCD_0324	37	2	point	NULL	nc	NULL	I_GN	MOD	1	idtext0042	point	##m#s##	spk1	103.62	103.78	0.01	_
20091112_RATP_SCD_0324	37	3	fr	NULL	adv	NULL	B_GADV	NOLINK	0	idtext0042	fr	#####	spk1	103.79	104.2	?	//

20091112_RATP_SCD_0324	38	1	RATP	NULL	np	B_ORG	B_GN	ROOT	0	idtext0043	RATP	##f#s##	spk2	104.33	104.81	0.01	_
20091112_RATP_SCD_0324	38	2	point	NULL	nc	NULL	I_GN	MOD	1	idtext0043	point	##m#s##	spk2	104.82	105.01	0.01	_
20091112_RATP_SCD_0324	38	3	fr	NULL	adv	NULL	B_GADV	NOLINK	0	idtext0043	fr	#####	spk2	105.02	105.26	?	//

20091112_RATP_SCD_0324	39	1	hm	DISF_M	pres	NULL	NULL	NOLINK	0	idtext0044	hm	#####	spk1	105.46	105.83	?	//

20091112_RATP_SCD_0324	40	1	euh	DISF_M	pres	NULL	NULL	NOLINK	0	idtext0045	euh	#####	spk2	105.94	106.86	0.01	//
20091112_RATP_SCD_0324	40	2	euh	DISF_M	pres	NULL	NULL	NOLINK	0	idtext0045	euh	#####	spk2	106.87	107.16	0.01	_
20091112_RATP_SCD_0324	40	3	autre	NULL	adj	NULL	B_GN	MOD	4	idtext0045	autre	###s##	spk2	107.17	107.52	0.01	_
20091112_RATP_SCD_0324	40	4	question	NULL	nc	NULL	I_GN	MOD	9	idtext0045	question	##f#s##	spk2	107.53	109.15	0.01	_
20091112_RATP_SCD_0324	40	5	bah	DISF_M	pres	NULL	NULL	NOLINK	0	idtext0045	bah	#####	spk2	109.16	109.28	0.01	_
20091112_RATP_SCD_0324	40	6	non	NULL	adv	NULL	B_GADV	NOLINK	0	idtext0045	non	#####	spk2	109.29	109.48	0.01	_
20091112_RATP_SCD_0324	40	7	je	NULL	cln	NULL	B_GN	SUJ	9	idtext0045	cln	#1##s##	spk2	109.49	109.51	0.01	_
20091112_RATP_SCD_0324	40	8	n'	NULL	clneg	NULL	B_GVfn	MOD	9	idtext0045	n'	#####	spk2	109.52	109.54	0.01	_
20091112_RATP_SCD_0324	40	9	ai	NULL	v	NULL	I_GVfn	ROOT	0	idtext0045	avoir	P#1##s##	spk2	109.55	109.57	0.01	_
20091112_RATP_SCD_0324	40	10	pas	NULL	advneg	NULL	I_GVfn	MOD	9	idtext0045	pas	#####	spk2	109.58	109.68	0.01	_
20091112_RATP_SCD_0324	40	11	d'	NULL	prep	NULL	B_GP	OBJ	9	idtext0045	d'	#####	spk2	109.69	109.71	0.01	_
20091112_RATP_SCD_0324	40	12	autre	NULL	adj	NULL	I_GP	MOD	13	idtext0045	autre	###s##	spk2	109.72	109.85	0.01	_
20091112_RATP_SCD_0324	40	13	question	NULL	nc	NULL	I_GP	OBJ	11	idtext0045	question	##f#s##	spk2	109.86	110.36	?	//

20091112_RATP_SCD_0324	41	1	donc	NULL	coo	NULL	B_NULL	ROOT	0	idtext0046	donc	#####	spk1	110.45	110.61	0.01	_
20091112_RATP_SCD_0324	41	2	c'	NULL	cln	NULL	B_GN	SUJ_IMP	3	idtext0046	ce	###s##	spk1	110.62	110.67	0.01	_
20091112_RATP_SCD_0324	41	3	est	NULL	v	NULL	B_GVf	DEP_COORD	1	idtext0046	être	P#3##s##	spk1	110.68	110.7	0.01	_
20091112_RATP_SCD_0324	41	4	cinquante-huit	NULL	det	B_P	B_GN	DET	5	idtext0046	cinquante-huit	#####	spk1	110.71	111.11	0.01	_
20091112_RATP_SCD_0324	41	5	centimes	NULL	nc	I_P	I_GN	ATS	3	idtext0046	centime	##m#p##	spk1	111.12	111.43	0.01	_
20091112_RATP_SCD_0324	41	6	au+lieu+d'	NULL	prep	NULL	B_GP	MOD	5	idtext0046	au+lieu+d'	#####	spk1	111.44	111.64	0.01	_
20091112_RATP_SCD_0324	41	7	un	NULL	det	B_P	I_GP	DET	8	idtext0046	un	##m#s##i	spk1	111.65	111.75	0.01	_
20091112_RATP_SCD_0324	41	8	euro	NULL	nc	I_P	I_GP	OBJ	6	idtext0046	euro	##m#s##	spk1	111.76	111.87	0.01	_
20091112_RATP_SCD_0324	41	9	soixante	NULL	adj	I_P	I_GP	MOD	8	idtext0046	soixante	#####	spk1	111.88	112.19	0.01	/
20091112_RATP_SCD_0324	41	10	effectivement	NULL	adv	NULL	B_GADV	NOLINK	0	idtext0046	effectivement	#####	spk1	112.2	112.8	0.01	_
20091112_RATP_SCD_0324	41	11	donc	NULL	coo	NULL	B_NULL	COORD	3	idtext0046	donc	#####	spk1	112.81	112.97	0.01	_
20091112_RATP_SCD_0324	41	12	ça	NULL	pro	NULL	B_GN	SUJ_IMP	13	idtext0046	ça	#####	spk1	112.98	113.11	0.01	_
20091112_RATP_SCD_0324	41	13	va	NULL	v	NULL	B_GVf	DEP_COORD	11	idtext0046	aller	P#3##s##	spk1	113.12	113.31	?	_

20091112_RATP_SCD_0324	42	1	cinquante-huit	NULL	det	B_P	B_GN	DET	2	idtext0047	cinquante-huit	#####	spk2	113.36	113.85	0.01	_
20091112_RATP_SCD_0324	42	2	centimes	NULL	nc	I_P	I_GN	NOLINK	0	idtext0047	centime	##m#p##	spk2	113.86	114.19	?	//

20091112_RATP_SCD_0324	43	1	ça	NULL	pro	NULL	B_GN	SUJ_IMP	2	idtext0048	ça	#####	spk1	114.23	114.37	0.01	_
20091112_RATP_SCD_0324	43	2	ira	NULL	v	NULL	B_GVf	ROOT	0	idtext0048	aller	F#3##s##	spk1	114.38	114.48	?	_

20091112_RATP_SCD_0324	44	1	OK	NULL	adv	NULL	B_GADV	NOLINK	0	idtext0049	ok	#####	spk2	114.52	114.7	0.01	_
20091112_RATP_SCD_0324	44	2	bah	DISF_M	pres	NULL	NULL	NOLINK	0	idtext0049	bah	#####	spk2	114.71	114.78	0.01	_
20091112_RATP_SCD_0324	44	3	écoutez	DISF_M	pres	NULL	NULL	NOLINK	0	idtext0049	écoutez	#####	spk2	114.79	115.14	0.01	_
20091112_RATP_SCD_0324	44	4	je	NULL	cln	NULL	B_GN	SUJ	6	idtext0049	cln	#1##s##	spk2	115.15	115.17	0.01	_
20091112_RATP_SCD_0324	44	5	vous	NULL	clo	NULL	B_GN	OBJ	6	idtext0049	cln	#2##p##	spk2	115.18	115.23	0.01	_
20091112_RATP_SCD_0324	44	6	remercie	NULL	v	NULL	B_GVf	ROOT	0	idtext0049	remercier	PS#13##s##	spk2	115.24	115.48	0.01	_
20091112_RATP_SCD_0324	44	7	beaucoup	NULL	adv	NULL	B_GADV	MOD	6	idtext0049	beaucoup	#####	spk2	115.49	115.85	?	_

20091112_RATP_SCD_0324	45	1	je	NULL	cln	NULL	B_GN	SUJ	4	idtext0050	cln	#1##s##	spk1	115.89	115.91	0.01	_
20091112_RATP_SCD_0324	45	2	vous	NULL	clo	NULL	B_GN	OBJ	4	idtext0050	cln	#2##p##	spk1	115.92	116.06	0.01	_
20091112_RATP_SCD_0324	45	3	en	NULL	clo	NULL	B_GN	DE_OBJ	4	idtext0050	en	#####	spk1	116.07	116.15	0.01	_
20091112_RATP_SCD_0324	45	4	prie	NULL	v	NULL	B_GVf	ROOT	0	idtext0050	prier	PS#13##s##	spk1	116.16	116.32	0.01	_
20091112_RATP_SCD_0324	45	5	bonne	NULL	adj	NULL	B_GN	MOD	6	idtext0050	bon	##f#s##	spk1	116.33	116.47	0.01	_
20091112_RATP_SCD_0324	45	6	journée	NULL	nc	NULL	I_GN	ROOT	0	idtext0050	journée	##f#s##	spk1	116.48	116.74	?	//

20091112_RATP_SCD_0324	46	1	au+revoir	NULL	adv	NULL	B_GADV	NOLINK	0	idtext0051	au+revoir	#####	spk2	116.8	117.16	?	//

20091112_RATP_SCD_0324	47	1	au+revoir	NULL	adv	NULL	B_GADV	NOLINK	0	idtext0052	au+revoir	#####	spk1	117.29	117.81	?	//

