20091112_RATP_SCD_1118	1	1	NNAAMMEE	NULL	np	B_HU	B_GN	ROOT	0	idtext0000	ANONYM	NULL	spk1	6.45	6.64	0.04	_
20091112_RATP_SCD_1118	1	2	bonjour	NULL	adv	NULL	B_GADV	NOLINK	0	idtext0001	bonjour	#####	spk1	6.68	7.93	?	//

20091112_RATP_SCD_1118	2	1	oui	NULL	adv	NULL	B_GADV	MOD	2	idtext0002	oui	#####	spk2	7.97	8.16	0.01	_
20091112_RATP_SCD_1118	2	2	allo	NULL	adv	NULL	I_GADV	ROOT	0	idtext0002	allo	#####	spk2	8.17	8.31	0.01	_
20091112_RATP_SCD_1118	2	3	bonsoir	NULL	nc	NULL	B_GN	NOLINK	0	idtext0002	bonsoir	##m#s##	spk2	8.32	8.97	?	//

20091112_RATP_SCD_1118	3	1	bonsoir	NULL	nc	NULL	B_GN	NOLINK	0	idtext0003	bonsoir	##m#s##	spk1	9.04	9.83	?	//

20091112_RATP_SCD_1118	4	1	oui	NULL	adv	NULL	B_GADV	NOLINK	0	idtext0004	oui	#####	spk2	9.87	10.09	0.01	_
20091112_RATP_SCD_1118	4	2	voilà	DISF_M	pres	NULL	NULL	NOLINK	0	idtext0004	voilà	#####	spk2	10.1	10.39	0.01	_
20091112_RATP_SCD_1118	4	3	je	NULL	cln	NULL	B_GN	SUJ	5	idtext0004	cln	#1##s##	spk2	10.4	10.53	0.01	_
20091112_RATP_SCD_1118	4	4	vous	NULL	clo	NULL	B_GN	OBJ	5	idtext0004	cln	#2##p##	spk2	10.54	10.79	0.01	_
20091112_RATP_SCD_1118	4	5	appelle	NULL	v	NULL	B_GVf	ROOT	0	idtext0004	appeler	PS#13##s##	spk2	10.8	11.12	0.01	_
20091112_RATP_SCD_1118	4	6	parce+que	NULL	csu	NULL	B_NULL	MOD	5	idtext0004	parce+que	#####	spk2	11.13	12.3	0.01	_
20091112_RATP_SCD_1118	4	7	euh	DISF_M	pres	NULL	NULL	NOLINK	0	idtext0004	euh	#####	spk2	12.31	12.34	0.01	_
20091112_RATP_SCD_1118	4	8	je	NULL	cln	NULL	B_GN	SUJ	9	idtext0004	cln	#1##s##	spk2	12.35	12.59	0.01	_
20091112_RATP_SCD_1118	4	9	souhaiterais	NULL	v	NULL	B_GVf	OBJ	6	idtext0004	souhaiter	C#12##s##	spk2	12.6	13.55	0.01	_
20091112_RATP_SCD_1118	4	10	partir	NULL	vinf	NULL	I_GVf	OBJ	9	idtext0004	partir	W#####	spk2	13.56	14.27	0.01	_
20091112_RATP_SCD_1118	4	11	de	NULL	prep	NULL	B_GP	P_OBJ_LOC	10	idtext0004	de	#####	spk2	14.28	14.45	0.01	_
20091112_RATP_SCD_1118	4	12	Gare+de+l'Est	NULL	nc	B_A	I_GP	OBJ	11	idtext0004	Gare+de+l'Est	#####	spk2	14.46	15.78	?	//

20091112_RATP_SCD_1118	5	1	oui	NULL	adv	NULL	B_GADV	NOLINK	0	idtext0005	oui	#####	spk1	15.82	16.41	?	//

20091112_RATP_SCD_1118	6	1	jusqu'à	NULL	prep	NULL	B_GP	ROOT	0	idtext0006	jusqu'à	#####	spk2	16.45	17.57	0.01	_
20091112_RATP_SCD_1118	6	2	Saint-Denis	NULL	nc	B_A	I_GP	OBJ	1	idtext0006	Saint-Denis	##m#s##	spk2	17.58	18.35	?	_

20091112_RATP_SCD_1118	7	1	oui	NULL	adv	NULL	B_GADV	NOLINK	0	idtext0007	oui	#####	spk1	18.5	19.44	?	//

20091112_RATP_SCD_1118	8	1	euh	DISF_M	pres	NULL	NULL	NOLINK	0	idtext0008	euh	#####	spk2	19.48	20.34	0.01	/
20091112_RATP_SCD_1118	8	2	sans	NULL	prep	NULL	B_GP	ROOT	0	idtext0008	sans	#####	spk2	20.35	20.54	0.01	_
20091112_RATP_SCD_1118	8	3	emprunter	NULL	vinf	NULL	I_GP	OBJ	2	idtext0008	emprunter	W#####	spk2	20.55	21.14	0.01	_
20091112_RATP_SCD_1118	8	4	de	NULL	prep	NULL	B_GP	OBJ	3	idtext0008	de	#####	spk2	21.15	21.48	0.01	_
20091112_RATP_SCD_1118	8	5	la	NULL	det	NULL	I_GP	DET	6	idtext0008	le	##m#s##d	spk2	21.49	21.59	0.01	_
20091112_RATP_SCD_1118	8	6	voie	NULL	nc	NULL	I_GP	OBJ	4	idtext0008	voie	##f#s##	spk2	21.6	21.83	0.01	_
20091112_RATP_SCD_1118	8	7	ferrée	NULL	adj	NULL	I_GP	MOD	6	idtext0008	ferré	##f#s##	spk2	21.84	22.26	0.01	_
20091112_RATP_SCD_1118	8	8	tout	NULL	adv	NULL	B_GADV	MOD	3	idtext0008	tout	##m#s##	spk2	22.27	22.38	0.01	_
20091112_RATP_SCD_1118	8	9	ce+qui	NULL	prorel	NULL	B_NULL	SUJ	10	idtext0008	ce+qui	#####	spk2	22.39	22.66	0.01	_
20091112_RATP_SCD_1118	8	10	est	NULL	v	NULL	B_GVf	ROOT	0	idtext0008	être	P#3##s##	spk2	22.67	22.76	0.01	_
20091112_RATP_SCD_1118	8	11	métro	NULL	nc	B_T	B_GN	ATS	10	idtext0008	métro	##m#s##	spk2	22.77	23.38	0.01	_
20091112_RATP_SCD_1118	8	12	RER	NULL	np	I_T	I_GN	MOD	11	idtext0008	RER	#####	spk2	23.39	23.99	0.01	_
20091112_RATP_SCD_1118	8	13	tout	NULL	adv	NULL	B_GADV	NOLINK	0	idtext0008	tout	##m#s##	spk2	24.0	24.09	0.01	_
20091112_RATP_SCD_1118	8	14	ça	NULL	pro	NULL	B_GN	NOLINK	0	idtext0008	ça	#####	spk2	24.1	24.26	0.01	_
20091112_RATP_SCD_1118	8	15	parce+que	NULL	csu	NULL	B_NULL	MOD	3	idtext0008	parce+que	#####	spk2	24.27	25.02	0.01	_
20091112_RATP_SCD_1118	8	16	je	NULL	cln	NULL	B_GN	SUJ	19	idtext0008	cln	#1##s##	spk2	25.03	25.22	0.01	_
20091112_RATP_SCD_1118	8	17	serai	NULL	v	NULL	B_GVf	AUX	19	idtext0008	être	F#1##s##	spk2	25.23	25.53	0.01	_
20091112_RATP_SCD_1118	8	18	trop	NULL	adv	NULL	I_GVf	MOD	19	idtext0008	trop	#####	spk2	25.54	25.75	0.01	_
20091112_RATP_SCD_1118	8	19	chargé	NULL	vppart	NULL	I_GVf	OBJ	15	idtext0008	charger	K##m#s##	spk2	25.76	26.5	?	//

20091112_RATP_SCD_1118	9	1	d'accord	NULL	adv	NULL	B_GADV	NOLINK	0	idtext0009	d'accord	#####	spk1	26.62	27.03	0.01	_
20091112_RATP_SCD_1118	9	2	donc	NULL	coo	NULL	B_NULL	ROOT	0	idtext0009	donc	#####	spk1	27.04	27.2	0.01	_
20091112_RATP_SCD_1118	9	3	vous	NULL	cln	NULL	B_GN	SUJ	4	idtext0009	cln	#2##p##	spk1	27.21	27.28	0.01	_
20091112_RATP_SCD_1118	9	4	voulez	NULL	v	NULL	B_GVf	DEP_COORD	2	idtext0009	vouloir	P#2##p##	spk1	27.29	27.57	0.01	_
20091112_RATP_SCD_1118	9	5	aller	NULL	vinf	NULL	I_GVf	OBJ	4	idtext0009	aller	W#####	spk1	27.58	27.8	0.01	_
20091112_RATP_SCD_1118	9	6	de	NULL	prep	NULL	B_GP	P_OBJ_LOC	5	idtext0009	de	#####	spk1	27.81	27.91	0.01	_
20091112_RATP_SCD_1118	9	7	Gare+de+l'Est	NULL	nc	B_A	I_GP	OBJ	6	idtext0009	Gare+de+l'Est	#####	spk1	27.92	28.59	0.01	_
20091112_RATP_SCD_1118	9	8	à	NULL	prep	NULL	B_GP	P_OBJ_LOC	4	idtext0009	à	#####	spk1	28.6	28.71	0.01	_
20091112_RATP_SCD_1118	9	9	Saint-Denis	NULL	nc	B_A	I_GP	OBJ	8	idtext0009	Saint-Denis	##m#s##	spk1	28.72	29.09	0.01	_
20091112_RATP_SCD_1118	9	10	mais	NULL	coo	NULL	B_NULL	COORD	4	idtext0009	mais	#####	spk1	29.1	29.2	0.01	_
20091112_RATP_SCD_1118	9	11	vous	NULL	cln	NULL	B_GN	SUJ	12	idtext0009	cln	#2##p##	spk1	29.21	29.26	0.01	_
20091112_RATP_SCD_1118	9	12	voulez	NULL	v	NULL	B_GVf	DEP_COORD	10	idtext0009	vouloir	P#2##p##	spk1	29.27	29.39	0.01	_
20091112_RATP_SCD_1118	9	13	aller	NULL	vinf	NULL	I_GVf	OBJ	12	idtext0009	aller	W#####	spk1	29.4	29.49	0.01	_
20091112_RATP_SCD_1118	9	14	où	NULL	adv	NULL	B_GADV	P_OBJ_LOC	12	idtext0009	où	#####	spk1	29.5	29.73	0.01	_
20091112_RATP_SCD_1118	9	15	à	NULL	prep	NULL	B_GP	MOD	14	idtext0009	à	#####	spk1	29.74	30.04	0.01	_
20091112_RATP_SCD_1118	9	16	Saint-Denis	NULL	nc	B_A	I_GP	OBJ	15	idtext0009	Saint-Denis	##m#s##	spk1	30.05	30.47	?	_

20091112_RATP_SCD_1118	10	1	bah	DISF_M	pres	NULL	NULL	NOLINK	0	idtext0010	bah	#####	spk2	31.34	31.58	0.01	_
20091112_RATP_SCD_1118	10	2	plus	NULL	adv	NULL	B_GADV	MOD	3	idtext0010	plus	#####	spk2	31.59	31.77	0.01	_
20091112_RATP_SCD_1118	10	3	précisément	NULL	adv	NULL	I_GADV	ROOT	0	idtext0010	précisément	#####	spk2	31.78	33.12	0.01	_
20091112_RATP_SCD_1118	10	4	euh	DISF_M	pres	NULL	NULL	NOLINK	0	idtext0010	euh	#####	spk2	33.13	33.54	0.04	_
20091112_RATP_SCD_1118	10	5	avenue	NULL	nc	B_A	B_GN	NOLINK	0	idtext0011	avenue	##f#s##	spk2	33.58	34.08	0.01	_
20091112_RATP_SCD_1118	10	6	Jean+Moulin	NULL	np	I_A	I_GN	MOD	5	idtext0011	Jean+Moulin	#####	spk2	34.09	34.65	0.01	_
20091112_RATP_SCD_1118	10	7	Villeneuve-la-Garenne	NULL	np	I_A	I_GN	MOD	6	idtext0011	Villeneuve-la-Garenne	##m#s##	spk2	34.66	36.09	?	//

20091112_RATP_SCD_1118	11	1	ah	DISF_M	pres	NULL	NULL	NOLINK	0	idtext0012	ah	#####	spk1	36.13	36.26	0.01	_
20091112_RATP_SCD_1118	11	2	Villeneuve-la-Garenne	NULL	nc	B_A	B_GN	NOLINK	0	idtext0012	Villeneuve-la-Garenne	##m#s##	spk1	36.27	36.93	0.01	_
20091112_RATP_SCD_1118	11	3	alors	NULL	adv	NULL	B_GADV	NOLINK	0	idtext0012	alors	#####	spk1	36.94	37.75	?	//

20091112_RATP_SCD_1118	12	1	oui	NULL	adv	NULL	B_GADV	NOLINK	0	idtext0013	oui	#####	spk2	37.8	38.28	?	//

20091112_RATP_SCD_1118	13	1	ben	DISF_M	pres	NULL	NULL	NOLINK	0	idtext0014	ben	#####	spk2	39.13	39.66	0.01	//
20091112_RATP_SCD_1118	13	2	oui	NULL	adv	NULL	B_GADV	NOLINK	0	idtext0014	oui	#####	spk2	39.67	40.16	0.01	_
20091112_RATP_SCD_1118	13	3	près+de	NULL	prep	NULL	B_GP	ROOT	0	idtext0014	près+de	#####	spk2	40.17	40.39	0.01	_
20091112_RATP_SCD_1118	13	4	la	NULL	det	NULL	I_GP	DET	5	idtext0014	le	##m#s##d	spk2	40.4	40.49	0.01	_
20091112_RATP_SCD_1118	13	5	mairie	NULL	nc	NULL	I_GP	OBJ	3	idtext0014	mairie	##f#s##	spk2	40.5	40.81	0.01	_
20091112_RATP_SCD_1118	13	6	de	NULL	prep	NULL	B_GP	DEP	5	idtext0014	de	#####	spk2	40.82	40.95	0.01	_
20091112_RATP_SCD_1118	13	7	Villeneuve-la-Garenne	NULL	nc	B_A	I_GP	OBJ	6	idtext0014	Villeneuve-la-Garenne	##m#s##	spk2	40.96	41.82	0.01	_
20091112_RATP_SCD_1118	13	8	en+fait	GREF	adv	NULL	B_GADV	NOLINK	0	idtext0014	en+fait	#####	spk2	41.83	42.51	?	//

20091112_RATP_SCD_1118	14	1	d'accord	NULL	adv	NULL	B_GADV	NOLINK	0	idtext0015	d'accord	#####	spk1	42.56	42.94	0.01	_
20091112_RATP_SCD_1118	14	2	donc	NULL	coo	NULL	B_NULL	ROOT	0	idtext0015	donc	#####	spk1	42.95	43.21	0.01	_
20091112_RATP_SCD_1118	14	3	euh	DISF_M	pres	NULL	NULL	NOLINK	0	idtext0015	euh	#####	spk1	43.22	43.29	0.01	_
20091112_RATP_SCD_1118	14	4	on	NULL	cln	NULL	B_GN	SUJ_IMP	5	idtext0015	cln	#3##s##	spk1	43.3	43.41	0.01	_
20091112_RATP_SCD_1118	14	5	va	NULL	v	NULL	B_GVf	DEP_COORD	2	idtext0015	aller	P#3##s##	spk1	43.42	43.5	0.01	_
20091112_RATP_SCD_1118	14	6	dire	NULL	vinf	NULL	I_GVf	OBJ	5	idtext0015	dire	W#####	spk1	43.51	43.67	0.01	_
20091112_RATP_SCD_1118	14	7	mairie	NULL	nc	NULL	B_GN	NOLINK	0	idtext0015	mairie	##f#s##	spk1	43.68	43.97	0.01	_
20091112_RATP_SCD_1118	14	8	alors	NULL	adv	NULL	B_GADV	NOLINK	0	idtext0015	alors	#####	spk1	43.98	44.48	0.28	/
20091112_RATP_SCD_1118	14	9	mairie	NULL	nc	NULL	B_GN	ROOT	0	idtext0016	mairie	##f#s##	spk1	44.76	45.2	0.01	_
20091112_RATP_SCD_1118	14	10	de	NULL	prep	NULL	B_GP	DEP	9	idtext0016	de	#####	spk1	45.21	45.23	0.01	_
20091112_RATP_SCD_1118	14	11	Villeneuve-la-Garenne	NULL	nc	B_A	I_GP	OBJ	10	idtext0016	Villeneuve-la-Garenne	##m#s##	spk1	45.24	46.43	0.01	_
20091112_RATP_SCD_1118	14	12	euh	DISF_M	pres	I_A	NULL	NOLINK	0	idtext0016	euh	#####	spk1	46.44	46.46	0.01	_
20091112_RATP_SCD_1118	14	13	donc	NULL	coo	NULL	B_NULL	COORD	11	idtext0016	donc	#####	spk1	46.47	46.72	0.01	_
20091112_RATP_SCD_1118	14	14	au+départ+de	NULL	prep	NULL	B_GP	DEP_COORD	13	idtext0016	au+départ+de	#####	spk1	46.73	47.13	0.01	_
20091112_RATP_SCD_1118	14	15	Gare+de+l'Est	NULL	nc	B_A	I_GP	OBJ	14	idtext0016	Gare+de+l'Est	#####	spk1	47.14	47.65	0.01	_
20091112_RATP_SCD_1118	14	16	uniquement	NULL	adv	NULL	B_GADV	NOLINK	0	idtext0016	uniquement	#####	spk1	47.66	48.11	0.01	_
20091112_RATP_SCD_1118	14	17	en	NULL	prep	NULL	B_GP	MOD	20	idtext0016	en	#####	spk1	48.12	48.15	0.01	_
20091112_RATP_SCD_1118	14	18	bus	NULL	nc	NULL	I_GP	OBJ	17	idtext0016	bus	##m###	spk1	48.16	48.34	0.01	_
20091112_RATP_SCD_1118	14	19	c'	NULL	cln	NULL	B_GN	SUJ_IMP	20	idtext0016	ce	###s##	spk1	48.35	48.44	0.01	_
20091112_RATP_SCD_1118	14	20	est	NULL	v	NULL	B_GVf	ROOT	0	idtext0016	être	P#3##s##	spk1	48.45	48.48	0.01	_
20091112_RATP_SCD_1118	14	21	pour	NULL	prep	NULL	B_NULL	ATS	20	idtext0016	pour	#####	spk1	48.49	48.66	0.01	_
20091112_RATP_SCD_1118	14	22	quand	NULL	adv	NULL	B_GADV	NOLINK	0	idtext0016	quand	#####	spk1	48.67	48.9	?	_

20091112_RATP_SCD_1118	15	1	euh	DISF_M	pres	NULL	NULL	NOLINK	0	idtext0017	euh	#####	spk2	49.81	49.91	0.01	_
20091112_RATP_SCD_1118	15	2	pour	NULL	prep	NULL	B_NULL	ROOT	0	idtext0017	pour	#####	spk2	49.92	50.38	0.01	_
20091112_RATP_SCD_1118	15	3	demain	DISF_R	adv	NULL	NULL	NOLINK	0	idtext0017	demain	#####	spk2	50.39	50.79	0.01	_
20091112_RATP_SCD_1118	15	4	demain	NULL	adv	NULL	B_GADV	OBJ	2	idtext0017	demain	#####	spk2	50.8	51.76	?	_

20091112_RATP_SCD_1118	16	1	à	DISF_R	prep	NULL	NULL	NOLINK	0	idtext0018	à	#####	spk1	51.8	51.89	0.01	_
20091112_RATP_SCD_1118	16	2	vers	NULL	prep	NULL	B_GP	ROOT	0	idtext0018	vers	#####	spk1	51.9	52.06	0.01	_
20091112_RATP_SCD_1118	16	3	quelle	NULL	det	NULL	I_GP	DET	4	idtext0018	quel	##f#s##	spk1	52.07	52.23	0.01	_
20091112_RATP_SCD_1118	16	4	heure	NULL	nc	NULL	I_GP	OBJ	2	idtext0018	heure	##f#s##	spk1	52.24	52.49	?	//

20091112_RATP_SCD_1118	17	1	vers	NULL	prep	NULL	B_GP	MOD	4	idtext0019	vers	#####	spk2	53.5	53.91	0.01	_
20091112_RATP_SCD_1118	17	2	euh	DISF_M	pres	NULL	NULL	NOLINK	0	idtext0019	euh	#####	spk2	53.92	54.25	0.01	_
20091112_RATP_SCD_1118	17	3	allez	DISF_R	v	NULL	NULL	NOLINK	0	idtext0019	aller	P#2##p##	spk2	54.26	54.53	0.01	_
20091112_RATP_SCD_1118	17	4	disons	GREF	v	NULL	I_GP	ROOT	0	idtext0019	dire	P#1##p##	spk2	54.54	54.85	0.01	_
20091112_RATP_SCD_1118	17	5	à+partir+de	NULL	prep	NULL	B_GP	ROOT	0	idtext0019	à+partir+de	#####	spk2	54.86	55.52	0.01	_
20091112_RATP_SCD_1118	17	6	midi	NULL	nc	NULL	I_GP	OBJ	5	idtext0019	midi	##m#s##	spk2	55.53	56.62	?	//

20091112_RATP_SCD_1118	18	1	d'accord	NULL	adv	NULL	B_GADV	NOLINK	0	idtext0020	d'accord	#####	spk1	56.66	57.11	0.31	_
20091112_RATP_SCD_1118	18	2	je	NULL	cln	NULL	B_GN	SUJ	4	idtext0021	cln	#1##s##	spk1	57.42	57.51	0.01	_
20091112_RATP_SCD_1118	18	3	vous	NULL	clo	NULL	B_GN	OBJ	4	idtext0021	cln	#2##p##	spk1	57.52	57.6	0.01	_
20091112_RATP_SCD_1118	18	4	fais	NULL	v	NULL	B_GVf	ROOT	0	idtext0021	faire	P#12##s##	spk1	57.61	57.66	0.01	_
20091112_RATP_SCD_1118	18	5	patienter	NULL	vinf	NULL	I_GVf	OBJ	4	idtext0021	patienter	W#####	spk1	57.67	58.11	?	//

20091112_RATP_SCD_1118	19	1	oui	NULL	adv	NULL	B_GADV	MOD	2	idtext0022	oui	#####	spk2	59.14	59.24	0.01	_
20091112_RATP_SCD_1118	19	2	merci	NULL	adv	NULL	I_GADV	ROOT	0	idtext0022	merci	#####	spk2	59.25	59.64	?	//

20091112_RATP_SCD_1118	20	1	s'il+vous+plaît	NULL	adv	NULL	B_GADV	NOLINK	0	idtext0023	s'il+vous+plaît	#####	spk1	71.39	71.68	?	//

20091112_RATP_SCD_1118	21	1	oui	NULL	adv	NULL	B_GADV	NOLINK	0	idtext0024	oui	#####	spk2	72.51	72.67	?	//

20091112_RATP_SCD_1118	22	1	alors	NULL	adv	NULL	B_GADV	NOLINK	0	idtext0025	alors	#####	spk1	72.71	72.99	0.01	//
20091112_RATP_SCD_1118	22	2	de	NULL	prep	NULL	B_GP	MOD	5	idtext0025	de	#####	spk1	73.0	73.13	0.01	_
20091112_RATP_SCD_1118	22	3	Gare+de+l'Est	NULL	nc	B_A	I_GP	OBJ	2	idtext0025	Gare+de+l'Est	#####	spk1	73.14	73.53	0.01	_
20091112_RATP_SCD_1118	22	4	vous	NULL	cln	NULL	B_GN	SUJ	5	idtext0025	cln	#2##p##	spk1	73.54	73.6	0.01	_
20091112_RATP_SCD_1118	22	5	prendrez	NULL	v	NULL	B_GVf	ROOT	0	idtext0025	prendre	F#2##p##	spk1	73.61	74.12	0.01	_
20091112_RATP_SCD_1118	22	6	le	NULL	det	NULL	B_GN	DET	7	idtext0025	le	##m#s##d	spk1	74.13	74.42	0.01	_
20091112_RATP_SCD_1118	22	7	cinquante-six	NULL	nc	B_T	I_GN	OBJ	5	idtext0025	cinquante-six	#####	spk1	74.43	75.09	0.01	_
20091112_RATP_SCD_1118	22	8	direction	NULL	nc	NULL	B_GN	MOD	7	idtext0025	direction	##f#s##	spk1	75.1	75.46	0.01	_
20091112_RATP_SCD_1118	22	9	Porte+de+Clignancourt	NULL	nc	B_A	I_GN	MOD	8	idtext0025	Porte+de+Clignancourt	#####	spk1	75.47	77.27	?	//

20091112_RATP_SCD_1118	23	1	alors	NULL	adv	NULL	B_GADV	NOLINK	0	idtext0026	alors	#####	spk2	77.31	78.61	0.04	_
20091112_RATP_SCD_1118	23	2	le	NULL	det	NULL	B_NULL	NOLINK	0	idtext0027	le	##m#s##d	spk2	78.65	79.53	0.08	_
20091112_RATP_SCD_1118	23	3	cinquante-six	NULL	nc	B_T	B_GN	NOLINK	0	idtext0028	cinquante-six	#####	spk2	79.61	81.73	?	//

20091112_RATP_SCD_1118	24	1	direction	NULL	nc	NULL	B_GN	ROOT	0	idtext0029	direction	##f#s##	spk1	81.77	82.13	0.01	_
20091112_RATP_SCD_1118	24	2	Porte+de+Clignancourt	NULL	nc	B_A	I_GN	MOD	1	idtext0029	Porte+de+Clignancourt	#####	spk1	82.14	83.26	?	//

20091112_RATP_SCD_1118	25	1	d'accord	NULL	adv	NULL	B_GADV	NOLINK	0	idtext0030	d'accord	#####	spk2	86.27	87.22	?	//

20091112_RATP_SCD_1118	26	1	jusqu'	NULL	prep	NULL	B_NULL	ROOT	0	idtext0031	jusqu'	#####	spk1	87.26	87.63	0.01	_
20091112_RATP_SCD_1118	26	2	au	NULL	prep	NULL	B_GP	P_OBJ_LOC	1	idtext0031	au	#####	spk1	87.64	87.69	0.01	_
20091112_RATP_SCD_1118	26	3	terminus	NULL	nc	NULL	I_GP	OBJ	2	idtext0031	terminus	##m###	spk1	87.7	88.27	?	//

20091112_RATP_SCD_1118	27	1	euh	DISF_M	pres	NULL	NULL	NOLINK	0	idtext0032	euh	#####	spk2	91.26	91.78	0.01	//
20091112_RATP_SCD_1118	27	2	ah	DISF_M	pres	NULL	NULL	NOLINK	0	idtext0032	ah	#####	spk2	91.79	92.22	0.01	_
20091112_RATP_SCD_1118	27	3	un	NULL	det	NULL	B_GN	DET	5	idtext0032	un	##m#s##i	spk2	92.23	92.31	0.01	_
20091112_RATP_SCD_1118	27	4	petit	NULL	adj	NULL	I_GN	MOD	5	idtext0032	petit	##m#s##	spk2	92.32	92.52	0.01	_
20091112_RATP_SCD_1118	27	5	problème	NULL	nc	NULL	I_GN	ROOT	0	idtext0032	problème	##m#s##	spk2	92.53	92.95	0.01	_
20091112_RATP_SCD_1118	27	6	de	NULL	prep	NULL	B_GP	DEP	5	idtext0032	de	#####	spk2	92.96	93.58	0.01	_
20091112_RATP_SCD_1118	27	7	stylo	NULL	nc	NULL	I_GP	OBJ	6	idtext0033	stylo	##m#s##	spk2	93.59	94.36	0.01	_
20091112_RATP_SCD_1118	27	8	euh	DISF_M	pres	NULL	NULL	NOLINK	0	idtext0033	euh	#####	spk2	94.37	94.82	0.01	_
20091112_RATP_SCD_1118	27	9	jusqu'	NULL	prep	NULL	B_NULL	NOLINK	0	idtext0033	jusqu'	#####	spk2	94.83	95.3	0.01	_
20091112_RATP_SCD_1118	27	10	au	NULL	prep	NULL	B_GP	ROOT	0	idtext0033	au	#####	spk2	95.31	95.43	0.01	_
20091112_RATP_SCD_1118	27	11	terminus	NULL	nc	NULL	I_GP	OBJ	10	idtext0033	terminus	##m###	spk2	95.44	96.11	?	//

20091112_RATP_SCD_1118	28	1	voilà	DISF_M	pres	NULL	NULL	NOLINK	0	idtext0034	voilà	#####	spk1	96.15	96.46	?	//

20091112_RATP_SCD_1118	29	1	euh	DISF_M	pres	NULL	NULL	NOLINK	0	idtext0035	euh	#####	spk2	98.36	98.67	0.01	_
20091112_RATP_SCD_1118	29	2	oui	NULL	adv	NULL	B_GADV	NOLINK	0	idtext0035	oui	#####	spk2	98.68	99.49	?	_

20091112_RATP_SCD_1118	30	1	là	NULL	adv	NULL	B_GADV	NOLINK	0	idtext0036	là	#####	spk1	100.39	100.6	0.01	_
20091112_RATP_SCD_1118	30	2	donc	NULL	coo	NULL	B_NULL	NOLINK	0	idtext0036	donc	#####	spk1	100.61	100.8	0.01	_
20091112_RATP_SCD_1118	30	3	à	NULL	prep	NULL	B_GP	MOD	6	idtext0036	à	#####	spk1	100.81	100.85	0.01	_
20091112_RATP_SCD_1118	30	4	Porte+de+Clignancourt	NULL	nc	B_A	I_GP	OBJ	3	idtext0036	Porte+de+Clignancourt	#####	spk1	100.86	101.53	0.01	_
20091112_RATP_SCD_1118	30	5	vous	NULL	cln	NULL	B_GN	SUJ	6	idtext0036	cln	#2##p##	spk1	101.54	101.67	0.01	_
20091112_RATP_SCD_1118	30	6	prendrez	NULL	v	NULL	B_GVf	ROOT	0	idtext0036	prendre	F#2##p##	spk1	101.68	102.06	0.01	_
20091112_RATP_SCD_1118	30	7	le	NULL	det	NULL	B_GN	DET	8	idtext0036	le	##m#s##d	spk1	102.07	102.47	0.01	_
20091112_RATP_SCD_1118	30	8	cent+soixante-six	NULL	nc	B_T	I_GN	OBJ	6	idtext0036	cent+soixante-six	#####	spk1	102.48	103.46	0.01	_
20091112_RATP_SCD_1118	30	9	direction	NULL	nc	NULL	I_GN	MOD	8	idtext0036	direction	##f#s##	spk1	103.47	104.02	0.01	_
20091112_RATP_SCD_1118	30	10	Audra	NULL	nc	B_A	B_GN	MOD	9	idtext0036	Audra	##f#s##	spk1	104.03	104.45	?	//

20091112_RATP_SCD_1118	31	1	cent+soixante-six	NULL	nc	B_T	B_GN	NOLINK	0	idtext0037	cent+soixante-six	#####	spk2	106.53	108.7	0.04	_
20091112_RATP_SCD_1118	31	2	direction	NULL	nc	NULL	B_GN	ROOT	0	idtext0038	direction	##f#s##	spk2	108.74	109.74	0.01	_
20091112_RATP_SCD_1118	31	3	Audra	NULL	nc	B_A	I_GN	MOD	2	idtext0038	Audra	##f#s##	spk2	109.75	110.31	?	//

20091112_RATP_SCD_1118	32	1	Audra	NULL	nc	B_A	B_GN	ROOT	0	idtext0039	Audra	##f#s##	spk1	110.36	110.81	0.01	_
20091112_RATP_SCD_1118	32	2	A	NULL	nc	NULL	I_GN	MOD	1	idtext0039	A	#####	spk1	110.82	110.94	0.01	_
20091112_RATP_SCD_1118	32	3	U	NULL	nc	NULL	B_GN	ROOT	0	idtext0039	U	#####	spk1	110.95	111.07	0.01	_
20091112_RATP_SCD_1118	32	4	D	NULL	nc	NULL	I_GN	MOD	3	idtext0039	D	#####	spk1	111.08	111.22	0.01	_
20091112_RATP_SCD_1118	32	5	R	NULL	nc	NULL	B_GN	ROOT	0	idtext0039	R	#####	spk1	111.23	111.37	0.01	_
20091112_RATP_SCD_1118	32	6	A	NULL	nc	NULL	I_GN	MOD	5	idtext0039	A	#####	spk1	111.38	111.44	0.01	//
20091112_RATP_SCD_1118	32	7	hein	DISF_M	pres	NULL	NULL	NOLINK	0	idtext0039	hein	#####	spk1	111.45	111.69	?	//

20091112_RATP_SCD_1118	33	1	vous	NULL	pro	NULL	B_GN	NOLINK	0	idtext0040	vous	#####	spk1	113.42	113.95	0.01	_
20091112_RATP_SCD_1118	33	2	vous	NULL	cln	NULL	B_GN	SUJ	3	idtext0040	cln	#2##p##	spk1	113.96	114.09	0.01	_
20091112_RATP_SCD_1118	33	3	descendrez	NULL	v	NULL	B_GVf	ROOT	0	idtext0040	descendre	F#2##p##	spk1	114.1	114.73	0.01	_
20091112_RATP_SCD_1118	33	4	à	NULL	prep	NULL	B_GP	P_OBJ_LOC	3	idtext0040	à	#####	spk1	114.74	114.91	0.01	_
20091112_RATP_SCD_1118	33	5	rond-point	NULL	nc	NULL	I_GP	OBJ	4	idtext0040	rond-point	##m#s##	spk1	114.92	115.64	0.01	_
20091112_RATP_SCD_1118	33	6	Pierre+Timbaud	NULL	nc	B_A	I_GP	MOD	5	idtext0040	Pierre+Timbaud	#####	spk1	115.65	116.49	?	//

20091112_RATP_SCD_1118	34	1	rond-point	NULL	nc	NULL	B_GN	NOLINK	0	idtext0041	rond-point	##m#s##	spk2	123.32	124.49	0.21	//
20091112_RATP_SCD_1118	34	2	Pierre	NULL	nc	B_A	B_GN	NOLINK	0	idtext0042	Pierre	##m#s##	spk2	124.7	125.52	?	//

20091112_RATP_SCD_1118	35	1	Timbaud	NULL	nc	B_A	B_GN	NOLINK	0	idtext0043	Timbaud	#####	spk1	125.56	125.93	?	//

20091112_RATP_SCD_1118	36	1	Timbaud	NULL	nc	B_A	B_GN	NOLINK	0	idtext0044	Timbaud	#####	spk2	126.76	127.27	?	//

20091112_RATP_SCD_1118	37	1	oui	NULL	adv	NULL	B_GADV	NOLINK	0	idtext0045	oui	#####	spk1	127.31	127.5	?	//

20091112_RATP_SCD_1118	38	1	d'accord	NULL	adv	NULL	B_GADV	NOLINK	0	idtext0046	d'accord	#####	spk2	128.57	129.85	0.04	_
20091112_RATP_SCD_1118	38	2	oui	NULL	adv	NULL	B_GADV	NOLINK	0	idtext0047	oui	#####	spk2	129.89	130.47	?	_

20091112_RATP_SCD_1118	39	1	et	NULL	coo	NULL	B_NULL	ROOT	0	idtext0048	et	#####	spk1	130.53	130.62	0.01	_
20091112_RATP_SCD_1118	39	2	là	NULL	adv	NULL	B_GADV	NOLINK	0	idtext0048	là	#####	spk1	130.63	130.75	0.01	_
20091112_RATP_SCD_1118	39	3	vous	NULL	cln	NULL	B_GN	SUJ	4	idtext0048	cln	#2##p##	spk1	130.76	130.89	0.01	_
20091112_RATP_SCD_1118	39	4	prendrez	NULL	v	NULL	B_GVf	DEP_COORD	1	idtext0048	prendre	F#2##p##	spk1	130.9	131.39	0.01	_
20091112_RATP_SCD_1118	39	5	le	NULL	det	NULL	B_GN	DET	6	idtext0048	le	##m#s##d	spk1	131.4	131.81	0.01	_
20091112_RATP_SCD_1118	39	6	cent+soixante-dix-huit	NULL	nc	B_T	I_GN	OBJ	4	idtext0048	cent+soixante-dix-huit	#####	spk1	131.82	133.34	?	//

20091112_RATP_SCD_1118	40	1	cent+soixante-dix-huit	NULL	nc	B_T	B_GN	NOLINK	0	idtext0049	cent+soixante-dix-huit	#####	spk2	134.35	135.13	0.01	_
20091112_RATP_SCD_1118	40	2	oui	NULL	adv	NULL	B_GADV	NOLINK	0	idtext0049	oui	#####	spk2	135.14	135.72	?	//

20091112_RATP_SCD_1118	41	1	direction	NULL	nc	NULL	B_GN	ROOT	0	idtext0050	direction	##f#s##	spk1	135.76	136.85	0.01	_
20091112_RATP_SCD_1118	41	2	place	NULL	nc	NULL	I_GN	MOD	1	idtext0050	place	##f#s##	spk1	136.86	137.71	0.01	_
20091112_RATP_SCD_1118	41	3	Paul+Herbé	NULL	nc	B_A	B_GN	NOLINK	0	idtext0050	Paul+Herbé	#####	spk1	137.72	138.65	?	//

20091112_RATP_SCD_1118	42	1	comme	NULL	adv	NULL	B_GADV	ROOT	0	idtext0051	comme	#####	spk1	139.47	139.64	0.01	_
20091112_RATP_SCD_1118	42	2	de	NULL	prep	NULL	B_GP	DEP	1	idtext0051	de	#####	spk1	139.65	139.74	0.01	_
20091112_RATP_SCD_1118	42	3	l'	NULL	det	NULL	I_GP	DET	4	idtext0051	le	###s##d	spk1	139.75	139.77	0.01	_
20091112_RATP_SCD_1118	42	4	herbe	NULL	nc	NULL	I_GP	OBJ	2	idtext0051	herbe	##f#s##	spk1	139.78	140.12	?	//

20091112_RATP_SCD_1118	43	1	place	NULL	nc	NULL	B_GN	NOLINK	0	idtext0052	place	##f#s##	spk2	142.61	142.78	?	//

20091112_RATP_SCD_1118	44	1	Paul+Herbé	NULL	nc	B_A	B_GN	NOLINK	0	idtext0053	Paul+Herbé	#####	spk2	144.46	145.6	?	//

20091112_RATP_SCD_1118	45	1	oui	NULL	adv	NULL	B_GADV	NOLINK	0	idtext0054	oui	#####	spk2	146.04	146.48	?	//

20091112_RATP_SCD_1118	46	1	et	NULL	coo	NULL	B_NULL	ROOT	0	idtext0055	et	#####	spk1	146.53	146.62	0.01	_
20091112_RATP_SCD_1118	46	2	vous	NULL	cln	NULL	B_GN	SUJ	3	idtext0055	cln	#2##p##	spk1	146.63	146.73	0.01	_
20091112_RATP_SCD_1118	46	3	descendrez	NULL	v	NULL	B_GVf	DEP_COORD	1	idtext0055	descendre	F#2##p##	spk1	146.74	147.18	0.01	_
20091112_RATP_SCD_1118	46	4	donc	NULL	coo	NULL	B_NULL	NOLINK	0	idtext0055	donc	#####	spk1	147.19	147.42	0.01	_
20091112_RATP_SCD_1118	46	5	à	NULL	prep	NULL	B_GP	ROOT	0	idtext0055	à	#####	spk1	147.43	147.49	0.01	_
20091112_RATP_SCD_1118	46	6	mairie	NULL	nc	NULL	I_GP	OBJ	5	idtext0055	mairie	##f#s##	spk1	147.5	147.85	0.01	/
20091112_RATP_SCD_1118	46	7	de	NULL	prep	NULL	B_GP	DEP	6	idtext0055	de	#####	spk1	147.86	148.01	0.01	_
20091112_RATP_SCD_1118	46	8	Villeneuve-la-Garenne	NULL	nc	B_A	I_GP	OBJ	7	idtext0055	Villeneuve-la-Garenne	##m#s##	spk1	148.02	148.77	?	//

20091112_RATP_SCD_1118	47	1	d'accord	NULL	adv	NULL	B_GADV	NOLINK	0	idtext0056	d'accord	#####	spk2	152.71	153.48	0.01	//
20091112_RATP_SCD_1118	47	2	euh	DISF_M	pres	NULL	NULL	NOLINK	0	idtext0057	euh	#####	spk2	153.49	153.75	0.01	_
20091112_RATP_SCD_1118	47	3	je	NULL	cln	NULL	B_GN	SUJ	4	idtext0057	cln	#1##s##	spk2	153.76	153.91	0.01	_
20091112_RATP_SCD_1118	47	4	peux	NULL	v	NULL	B_GVf	ROOT	0	idtext0057	pouvoir	P#12##s##	spk2	153.92	154.34	0.01	_
20091112_RATP_SCD_1118	47	5	c'	NULL	cln	NULL	B_GN	SUJ_IMP	6	idtext0057	ce	###s##	spk2	154.35	154.46	0.01	_
20091112_RATP_SCD_1118	47	6	est	NULL	v	NULL	B_GVf	ROOT	0	idtext0057	être	P#3##s##	spk2	154.47	154.57	0.01	_
20091112_RATP_SCD_1118	47	7	possible	NULL	adj	NULL	B_GADJ	ATS	6	idtext0057	possible	###s##	spk2	154.58	154.92	0.01	_
20091112_RATP_SCD_1118	47	8	de	NULL	prep	NULL	B_GP	DEP	7	idtext0057	de	#####	spk2	154.93	154.99	0.01	_
20091112_RATP_SCD_1118	47	9	regarder	NULL	vinf	NULL	I_GP	OBJ	8	idtext0057	regarder	W#####	spk2	155.0	155.56	0.01	_
20091112_RATP_SCD_1118	47	10	si	NULL	csu	NULL	B_NULL	OBJ	9	idtext0057	si	#####	spk2	155.57	155.69	0.01	_
20091112_RATP_SCD_1118	47	11	c'	NULL	cln	NULL	B_GN	SUJ_IMP	12	idtext0057	ce	###s##	spk2	155.7	155.76	0.01	_
20091112_RATP_SCD_1118	47	12	est	NULL	v	NULL	B_GVf	OBJ	10	idtext0057	être	P#3##s##	spk2	155.77	155.85	0.01	_
20091112_RATP_SCD_1118	47	13	possible	NULL	adj	NULL	B_GADJ	ATS	12	idtext0057	possible	###s##	spk2	155.86	156.29	0.01	_
20091112_RATP_SCD_1118	47	14	de	NULL	prep	NULL	B_GP	DEP	13	idtext0057	de	#####	spk2	156.3	156.45	0.01	_
20091112_RATP_SCD_1118	47	15	faire	NULL	vinf	NULL	I_GP	OBJ	14	idtext0057	faire	W#####	spk2	156.46	156.86	0.01	_
20091112_RATP_SCD_1118	47	16	en	NULL	prep	NULL	B_GP	P_OBJ	15	idtext0057	en	#####	spk2	156.87	156.96	0.01	_
20091112_RATP_SCD_1118	47	17	bus	NULL	nc	NULL	I_GP	DEP	13	idtext0057	bus	##m###	spk2	156.97	157.44	0.01	_
20091112_RATP_SCD_1118	47	18	euh	DISF_M	pres	NULL	NULL	NOLINK	0	idtext0057	euh	#####	spk2	157.45	158.2	0.01	_
20091112_RATP_SCD_1118	47	19	Meaux	NULL	nc	B_A	I_GP	DEP	13	idtext0058	Meaux	##m#s##	spk2	158.21	158.56	0.01	_
20091112_RATP_SCD_1118	47	20	Gare+de+l'Est	NULL	nc	B_A	B_GN	DEP	13	idtext0058	Gare+de+l'Est	#####	spk2	158.57	159.81	?	//

20091112_RATP_SCD_1118	48	1	Meaux	NULL	nc	B_A	B_GN	ROOT	0	idtext0059	Meaux	##m#s##	spk1	160.32	160.67	0.01	_
20091112_RATP_SCD_1118	48	2	Gare+de+l'Est	NULL	nc	B_A	I_GN	MOD	1	idtext0059	Gare+de+l'Est	#####	spk1	160.68	161.7	?	//

20091112_RATP_SCD_1118	49	1	je	NULL	cln	NULL	B_GN	NOLINK	0	idtext0060	cln	#1##s##	spk1	163.02	163.22	0.01	_
20091112_RATP_SCD_1118	49	2	ne	NULL	clneg	NULL	B_NULL	NOLINK	0	idtext0060	ne	#####	spk1	163.23	163.74	?	_

20091112_RATP_SCD_1118	50	1	pense	NULL	v	NULL	B_GVfn	ROOT	0	idtext0061	penser	PS#13##s##	spk1	164.39	166.38	0.01	_
20091112_RATP_SCD_1118	50	2	pas	NULL	advneg	NULL	I_GVfn	MOD	1	idtext0061	pas	#####	spk1	166.39	166.51	0.01	_
20091112_RATP_SCD_1118	50	3	euh	DISF_M	pres	NULL	NULL	NOLINK	0	idtext0061	euh	#####	spk1	166.52	167.09	0.44	//
20091112_RATP_SCD_1118	50	4	je	NULL	cln	NULL	B_GN	SUJ	5	idtext0062	cln	#1##s##	spk1	167.53	167.65	0.01	_
20091112_RATP_SCD_1118	50	5	regarde	NULL	v	NULL	B_GVf	ROOT	0	idtext0062	regarder	PS#13##s##	spk1	167.66	168.06	0.01	_
20091112_RATP_SCD_1118	50	6	quand+même	NULL	adv	NULL	B_GADV	NOLINK	0	idtext0062	quand+même	#####	spk1	168.07	169.13	?	_

20091112_RATP_SCD_1118	51	1	à+moins+qu'	NULL	csu	NULL	B_NULL	ROOT	0	idtext0063	à+moins+qu'	#####	spk1	170.21	170.6	0.01	_
20091112_RATP_SCD_1118	51	2	il	NULL	cln	NULL	B_GN	SUJ_IMP	4	idtext0063	cln	#3#m#s##	spk1	170.61	170.69	0.01	_
20091112_RATP_SCD_1118	51	3	y	NULL	clo	NULL	B_GN	AFF	4	idtext0063	y	#####	spk1	170.7	170.8	0.01	_
20091112_RATP_SCD_1118	51	4	ait	NULL	v	NULL	B_GVf	OBJ	1	idtext0063	avoir	S#3##s##	spk1	170.81	170.88	0.01	_
20091112_RATP_SCD_1118	51	5	des	DISF_R	det	NULL	NULL	NOLINK	0	idtext0063	des	###p##i	spk1	170.89	171.16	0.01	_
20091112_RATP_SCD_1118	51	6	des	NULL	det	NULL	B_GN	DET	7	idtext0063	des	###p##i	spk1	171.17	171.28	0.01	_
20091112_RATP_SCD_1118	51	7	bus	NULL	nc	NULL	I_GN	OBJ	4	idtext0063	bus	##m###	spk1	171.29	171.6	0.01	_
20091112_RATP_SCD_1118	51	8	directs	NULL	adj	NULL	I_GN	MOD	7	idtext0063	direct	##m#p##	spk1	171.61	171.97	0.01	_
20091112_RATP_SCD_1118	51	9	mais	NULL	coo	NULL	B_NULL	COORD	4	idtext0063	mais	#####	spk1	171.98	172.09	0.01	_
20091112_RATP_SCD_1118	51	10	ça	NULL	pro	NULL	B_GN	SUJ_IMP	12	idtext0063	ça	#####	spk1	172.1	172.27	0.01	_
20091112_RATP_SCD_1118	51	11	m'	NULL	clo	NULL	B_GN	OBJ	12	idtext0063	cla	#1##s##	spk1	172.28	172.49	0.01	_
20091112_RATP_SCD_1118	51	12	étonnerait	NULL	v	NULL	B_GVf	DEP_COORD	9	idtext0063	étonner	C#3##s##	spk1	172.5	174.04	0.91	//
20091112_RATP_SCD_1118	51	13	euh	DISF_M	pres	NULL	NULL	NOLINK	0	idtext0064	euh	#####	spk1	174.95	175.19	0.01	_
20091112_RATP_SCD_1118	51	14	il	NULL	cln	NULL	B_GN	SUJ_IMP	15	idtext0064	cln	#3#m#s##	spk1	175.2	175.27	0.01	_
20091112_RATP_SCD_1118	51	15	faudra	NULL	v	NULL	B_GVf	ROOT	0	idtext0064	falloir	F#3##s##	spk1	175.28	175.55	0.01	_
20091112_RATP_SCD_1118	51	16	trois	NULL	nc	NULL	B_GN	OBJ	15	idtext0064	trois	##m###	spk1	175.56	175.91	0.01	_
20091112_RATP_SCD_1118	51	17	presque	NULL	adv	NULL	B_GADV	MOD	18	idtext0064	presque	#####	spk1	175.92	176.47	0.01	_
20091112_RATP_SCD_1118	51	18	pratiquement	NULL	adv	NULL	I_GADV	MOD	16	idtext0064	pratiquement	#####	spk1	176.48	176.95	0.01	_
20091112_RATP_SCD_1118	51	19	quatre	NULL	det	B_H	B_GN	DET	20	idtext0064	quatre	#####	spk1	176.96	177.24	0.01	_
20091112_RATP_SCD_1118	51	20	heures	NULL	nc	I_H	I_GN	MOD	18	idtext0064	heure	##f#p##	spk1	177.25	177.37	0.01	_
20091112_RATP_SCD_1118	51	21	de	NULL	prep	NULL	B_GP	DEP	20	idtext0064	de	#####	spk1	177.38	177.47	0.01	_
20091112_RATP_SCD_1118	51	22	transport	NULL	nc	NULL	I_GP	OBJ	21	idtext0064	transport	##m#s##	spk1	177.48	178.53	?	//

20091112_RATP_SCD_1118	52	1	euh	DISF_M	pres	NULL	NULL	NOLINK	0	idtext0065	euh	#####	spk2	178.57	178.91	0.01	_
20091112_RATP_SCD_1118	52	2	non	NULL	adv	NULL	B_GADV	NOLINK	0	idtext0065	non	#####	spk2	178.92	179.12	?	_

20091112_RATP_SCD_1118	53	1	il	NULL	cln	NULL	B_GN	SUJ_IMP	2	idtext0066	cln	#3#m#s##	spk1	180.47	180.71	0.01	_
20091112_RATP_SCD_1118	53	2	faudrait	NULL	v	NULL	B_GVf	ROOT	0	idtext0066	falloir	C#3##s##	spk1	180.72	181.09	0.01	_
20091112_RATP_SCD_1118	53	3	un	NULL	nc	NULL	B_GN	OBJ	2	idtext0066	un	##m#s##	spk1	181.1	181.36	0.01	_
20091112_RATP_SCD_1118	53	4	deux	NULL	nc	NULL	I_GN	MOD	3	idtext0066	deux	##m###	spk1	181.37	181.72	0.01	_
20091112_RATP_SCD_1118	53	5	trois	NULL	nc	NULL	B_GN	MOD	4	idtext0066	trois	##m###	spk1	181.73	182.24	0.01	_
20091112_RATP_SCD_1118	53	6	quatre	NULL	adj	NULL	I_GN	MOD	7	idtext0066	quatre	#####	spk1	182.25	182.89	0.01	/
20091112_RATP_SCD_1118	53	7	cinq	NULL	nc	NULL	B_GN	ROOT	0	idtext0066	cinq	##m###	spk1	182.9	183.92	0.01	_
20091112_RATP_SCD_1118	53	8	euh	DISF_M	pres	NULL	NULL	NOLINK	0	idtext0066	euh	#####	spk1	183.93	183.96	0.01	_
20091112_RATP_SCD_1118	53	9	pratiquement	NULL	adv	NULL	B_GN	MOD	10	idtext0066	pratiquement	#####	spk1	183.97	184.48	0.01	_
20091112_RATP_SCD_1118	53	10	cinq	NULL	adj	NULL	I_GN	MOD	4	idtext0066	cinq	#####	spk1	184.49	184.7	0.01	_
20091112_RATP_SCD_1118	53	11	bus	NULL	nc	NULL	I_GN	MOD	4	idtext0066	bus	##m###	spk1	184.71	185.77	?	//

20091112_RATP_SCD_1118	54	1	d'accord	NULL	adv	NULL	B_GADV	NOLINK	0	idtext0067	d'accord	#####	spk2	185.81	186.52	0.01	_
20091112_RATP_SCD_1118	54	2	donc	NULL	coo	NULL	B_NULL	ROOT	0	idtext0067	donc	#####	spk2	186.53	186.92	0.01	_
20091112_RATP_SCD_1118	54	3	cinquante-six	NULL	nc	NULL	B_GN	DEP_COORD	2	idtext0067	cinquante-six	#####	spk2	186.93	188.54	?	//

20091112_RATP_SCD_1118	55	1	oui	NULL	adv	NULL	B_GADV	NOLINK	0	idtext0068	oui	#####	spk1	188.65	189.38	?	//

20091112_RATP_SCD_1118	56	1	direction	NULL	nc	NULL	B_GN	NOLINK	0	idtext0069	direction	##f#s##	spk2	188.59	189.38	?	//

20091112_RATP_SCD_1118	57	1	Porte+de+Clignancourt	NULL	nc	B_A	B_GN	NOLINK	0	idtext0070	Porte+de+Clignancourt	#####	spk2	189.42	190.49	?	//

20091112_RATP_SCD_1118	58	1	oui	NULL	adv	NULL	B_GADV	NOLINK	0	idtext0071	oui	#####	spk1	190.53	190.75	?	//

20091112_RATP_SCD_1118	59	1	au	NULL	prep	NULL	B_GP	MOD	4	idtext0072	au	#####	spk2	190.79	190.95	0.01	_
20091112_RATP_SCD_1118	59	2	terminus	NULL	nc	NULL	I_GP	OBJ	1	idtext0072	terminus	##m###	spk2	190.96	191.41	0.01	_
20091112_RATP_SCD_1118	59	3	je	NULL	cln	NULL	B_GN	SUJ	4	idtext0072	cln	#1##s##	spk2	191.42	191.85	0.01	_
20091112_RATP_SCD_1118	59	4	prends	NULL	v	NULL	B_GVf	ROOT	0	idtext0072	prendre	P#12##s##	spk2	191.86	192.01	0.01	_
20091112_RATP_SCD_1118	59	5	la	NULL	det	NULL	B_GN	DET	6	idtext0072	le	##m#s##d	spk2	192.02	192.23	0.01	_
20091112_RATP_SCD_1118	59	6	cent+soixante-six	NULL	nc	B_T	I_GN	OBJ	4	idtext0072	cent+soixante-six	#####	spk2	192.24	193.14	0.01	_
20091112_RATP_SCD_1118	59	7	direction	NULL	nc	NULL	I_GN	MOD	6	idtext0072	direction	##f#s##	spk2	193.15	193.8	0.01	_
20091112_RATP_SCD_1118	59	8	Audra	NULL	nc	B_A	B_GN	MOD	7	idtext0072	Audra	##f#s##	spk2	193.81	194.41	?	//

20091112_RATP_SCD_1118	60	1	oui	NULL	adv	NULL	B_GADV	NOLINK	0	idtext0073	oui	#####	spk1	194.45	195.01	?	//

20091112_RATP_SCD_1118	61	1	je	NULL	cln	NULL	B_GN	SUJ	2	idtext0074	cln	#1##s##	spk2	195.1	195.12	0.01	_
20091112_RATP_SCD_1118	61	2	descends	NULL	v	NULL	B_GVf	ROOT	0	idtext0074	descendre	P#12##s##	spk2	195.13	195.71	0.01	_
20091112_RATP_SCD_1118	61	3	à	NULL	prep	NULL	B_GP	P_OBJ_LOC	2	idtext0074	à	#####	spk2	195.72	195.85	0.01	_
20091112_RATP_SCD_1118	61	4	rond-point	NULL	nc	NULL	I_GP	OBJ	3	idtext0074	rond-point	##m#s##	spk2	195.86	196.47	0.01	_
20091112_RATP_SCD_1118	61	5	Pierre+Timbaud	NULL	nc	B_A	I_GP	MOD	4	idtext0074	Pierre+Timbaud	#####	spk2	196.48	197.4	?	//

20091112_RATP_SCD_1118	62	1	oui	NULL	adv	NULL	B_GADV	NOLINK	0	idtext0075	oui	#####	spk1	197.45	197.73	?	//

20091112_RATP_SCD_1118	63	1	je	NULL	cln	NULL	B_GN	SUJ	2	idtext0076	cln	#1##s##	spk2	198.68	199.03	0.01	_
20091112_RATP_SCD_1118	63	2	prends	NULL	v	NULL	B_GVf	ROOT	0	idtext0076	prendre	P#12##s##	spk2	199.04	199.29	0.01	_
20091112_RATP_SCD_1118	63	3	le	NULL	det	NULL	B_GN	DET	4	idtext0076	le	##m#s##d	spk2	199.3	199.43	0.01	_
20091112_RATP_SCD_1118	63	4	cent+soixante-dix-huit	NULL	nc	B_T	I_GN	OBJ	2	idtext0076	cent+soixante-dix-huit	#####	spk2	199.44	200.27	0.01	_
20091112_RATP_SCD_1118	63	5	direction	NULL	nc	NULL	I_GN	MOD	4	idtext0076	direction	##f#s##	spk2	200.28	201.22	0.01	_
20091112_RATP_SCD_1118	63	6	place	NULL	nc	NULL	B_GN	MOD	5	idtext0076	place	##f#s##	spk2	201.23	201.67	0.01	_
20091112_RATP_SCD_1118	63	7	Paul+Herbé	NULL	nc	B_A	I_GN	MOD	6	idtext0076	Paul+Herbé	#####	spk2	201.68	202.58	?	//

20091112_RATP_SCD_1118	64	1	oui	NULL	adv	NULL	B_GADV	NOLINK	0	idtext0077	oui	#####	spk1	202.62	203.23	?	//

20091112_RATP_SCD_1118	65	1	et	NULL	coo	NULL	B_NULL	ROOT	0	idtext0078	et	#####	spk2	203.3	203.34	0.01	_
20091112_RATP_SCD_1118	65	2	je	NULL	cln	NULL	B_GN	SUJ	3	idtext0078	cln	#1##s##	spk2	203.35	203.48	0.01	_
20091112_RATP_SCD_1118	65	3	descends	NULL	v	NULL	B_GVf	DEP_COORD	1	idtext0078	descendre	P#12##s##	spk2	203.49	203.81	0.01	_
20091112_RATP_SCD_1118	65	4	à	NULL	prep	NULL	B_GP	P_OBJ_LOC	3	idtext0078	à	#####	spk2	203.82	203.91	0.01	_
20091112_RATP_SCD_1118	65	5	Villeneuve	DISF_R	nc	NULL	NULL	NOLINK	0	idtext0078	Villeneuve	##m#s##	spk2	203.92	204.65	0.01	_
20091112_RATP_SCD_1118	65	6	Villeneuve	NULL	nc	B_A	I_GP	OBJ	4	idtext0078	Villeneuve	##m#s##	spk2	204.66	205.39	0.01	_
20091112_RATP_SCD_1118	65	7	la	NULL	det	NULL	B_GN	DET	8	idtext0078	le	##m#s##d	spk2	205.4	205.72	0.01	_
20091112_RATP_SCD_1118	65	8	mairie	NULL	nc	NULL	I_GN	P_OBJ_LOC	4	idtext0078	mairie	##f#s##	spk2	205.73	206.02	0.01	_
20091112_RATP_SCD_1118	65	9	de	NULL	prep	NULL	B_GP	DEP	8	idtext0078	de	#####	spk2	206.03	206.12	0.01	_
20091112_RATP_SCD_1118	65	10	Villeneuve-la-Garenne	NULL	nc	B_A	I_GP	OBJ	9	idtext0078	Villeneuve-la-Garenne	##m#s##	spk2	206.13	206.82	?	//

20091112_RATP_SCD_1118	66	1	exactement	NULL	adv	NULL	B_GADV	NOLINK	0	idtext0079	exactement	#####	spk1	206.89	208.08	?	//

20091112_RATP_SCD_1118	67	1	d'accord	NULL	adv	NULL	B_GADV	NOLINK	0	idtext0080	d'accord	#####	spk2	208.12	208.62	0.04	_
20091112_RATP_SCD_1118	67	2	bah	DISF_M	pres	NULL	NULL	NOLINK	0	idtext0081	bah	#####	spk2	208.66	208.8	0.01	_
20091112_RATP_SCD_1118	67	3	merci	NULL	adv	NULL	B_GADV	MOD	4	idtext0081	merci	#####	spk2	208.81	209.12	0.01	_
20091112_RATP_SCD_1118	67	4	beaucoup	NULL	adv	NULL	I_GADV	ROOT	0	idtext0081	beaucoup	#####	spk2	209.13	209.6	?	//

20091112_RATP_SCD_1118	68	1	je	NULL	cln	NULL	B_GN	SUJ	4	idtext0082	cln	#1##s##	spk1	209.64	209.78	0.01	_
20091112_RATP_SCD_1118	68	2	vous	NULL	clo	NULL	B_GN	OBJ	4	idtext0082	cln	#2##p##	spk1	209.79	209.84	0.01	_
20091112_RATP_SCD_1118	68	3	en	NULL	clo	NULL	B_GN	DE_OBJ	4	idtext0082	en	#####	spk1	209.85	209.89	0.01	_
20091112_RATP_SCD_1118	68	4	prie	NULL	v	NULL	B_GVf	ROOT	0	idtext0082	prier	PS#13##s##	spk1	209.9	210.52	?	//

20091112_RATP_SCD_1118	69	1	bonne	NULL	adj	NULL	B_GN	MOD	2	idtext0083	bon	##f#s##	spk2	210.56	210.79	0.01	_
20091112_RATP_SCD_1118	69	2	soirée	NULL	nc	NULL	I_GN	ROOT	0	idtext0083	soirée	##f#s##	spk2	210.8	211.19	?	//

20091112_RATP_SCD_1118	70	1	bonne	NULL	adj	NULL	B_GN	MOD	2	idtext0084	bon	##f#s##	spk1	210.56	210.83	0.01	_
20091112_RATP_SCD_1118	70	2	fin	NULL	nc	NULL	I_GN	ROOT	0	idtext0084	fin	###s##	spk1	210.84	210.92	0.01	_
20091112_RATP_SCD_1118	70	3	de	NULL	prep	NULL	B_GP	DEP	2	idtext0084	de	#####	spk1	210.93	210.95	0.01	_
20091112_RATP_SCD_1118	70	4	journée	NULL	nc	NULL	I_GP	OBJ	3	idtext0084	journée	##f#s##	spk1	210.96	211.19	?	//

20091112_RATP_SCD_1118	71	1	au+revoir	NULL	adv	NULL	B_GADV	NOLINK	0	idtext0085	au+revoir	#####	spk1	211.23	211.92	?	//

20091112_RATP_SCD_1118	72	1	merci	NULL	adv	NULL	B_GADV	NOLINK	0	idtext0086	merci	#####	spk2	211.96	212.2	0.01	_
20091112_RATP_SCD_1118	72	2	à	NULL	prep	NULL	B_GP	ROOT	0	idtext0086	à	#####	spk2	212.21	212.23	0.01	_
20091112_RATP_SCD_1118	72	3	vous	NULL	pro	NULL	I_GP	OBJ	2	idtext0086	vous	#####	spk2	212.24	212.3	0.01	_
20091112_RATP_SCD_1118	72	4	aussi	NULL	adv	NULL	B_GADV	NOLINK	0	idtext0086	aussi	#####	spk2	212.31	212.56	?	/

20091112_RATP_SCD_1118	73	1	merci	NULL	adv	NULL	B_GADV	NOLINK	0	idtext0087	merci	#####	spk1	212.6	212.78	?	//

