20091112_RATP_SCD_0379	1	1	NNAAMMEE	NULL	np	B_HU	B_GN	ROOT	0	idtext0000	ANONYM	NULL	spk2	1.65	2.26	0.01	_
20091112_RATP_SCD_0379	1	2	bonjour	NULL	adv	NULL	B_GADV	NOLINK	0	idtext0001	bonjour	#####	spk2	2.27	3.61	?	//

20091112_RATP_SCD_0379	2	1	oui	NULL	adv	NULL	B_GADV	MOD	2	idtext0002	oui	#####	spk1	3.65	3.9	0.01	_
20091112_RATP_SCD_0379	2	2	bonjour	NULL	adv	NULL	I_GADV	ROOT	0	idtext0002	bonjour	#####	spk1	3.91	4.23	0.01	_
20091112_RATP_SCD_0379	2	3	madame	NULL	nc	NULL	B_GN	NOLINK	0	idtext0002	Monsieur	##f#s##	spk1	4.24	4.67	0.01	_
20091112_RATP_SCD_0379	2	4	voilà	DISF_M	pres	NULL	NULL	NOLINK	0	idtext0002	voilà	#####	spk1	4.68	4.93	0.01	//
20091112_RATP_SCD_0379	2	5	je	NULL	cln	NULL	B_GN	SUJ	7	idtext0002	cln	#1##s##	spk1	4.94	5.03	0.01	_
20091112_RATP_SCD_0379	2	6	vous	NULL	clo	NULL	B_GN	A_OBJ	7	idtext0002	cln	#2##p##	spk1	5.04	5.13	0.01	_
20091112_RATP_SCD_0379	2	7	téléphone	NULL	v	NULL	B_GVf	ROOT	0	idtext0002	téléphoner	PS#13##s##	spk1	5.14	5.65	0.01	_
20091112_RATP_SCD_0379	2	8	parce+que	NULL	csu	NULL	B_NULL	MOD	7	idtext0002	parce+que	#####	spk1	5.66	5.98	0.01	_
20091112_RATP_SCD_0379	2	9	ma	NULL	det	NULL	B_GN	DET	10	idtext0002	mon	##f#s##o	spk1	5.99	6.15	0.01	_
20091112_RATP_SCD_0379	2	10	tante	NULL	nc	NULL	I_GN	SUJ	13	idtext0002	tante	##f#s##	spk1	6.16	7.39	0.01	//
20091112_RATP_SCD_0379	2	11	euh	DISF_M	pres	NULL	NULL	NOLINK	0	idtext0002	euh	#####	spk1	7.4	7.49	0.01	_
20091112_RATP_SCD_0379	2	12	euh	DISF_M	pres	NULL	NULL	NOLINK	0	idtext0003	euh	#####	spk1	7.5	7.94	0.01	_
20091112_RATP_SCD_0379	2	13	vient	NULL	v	NULL	B_GVf	OBJ	8	idtext0003	venir	P#3##s##	spk1	7.95	8.17	0.01	_
20091112_RATP_SCD_0379	2	14	de	NULL	prep	NULL	B_GP	OBJ	13	idtext0003	de	#####	spk1	8.18	8.31	0.01	_
20091112_RATP_SCD_0379	2	15	perdre	NULL	vinf	NULL	I_GP	OBJ	14	idtext0003	perdre	W#####	spk1	8.32	8.5	0.01	_
20091112_RATP_SCD_0379	2	16	dans	NULL	prep	NULL	B_GP	P_OBJ_LOC	15	idtext0003	dans	#####	spk1	8.51	8.67	0.01	_
20091112_RATP_SCD_0379	2	17	l'	NULL	det	NULL	I_GP	DET	18	idtext0003	le	###s##d	spk1	8.68	8.73	0.01	_
20091112_RATP_SCD_0379	2	18	autobus	NULL	nc	NULL	I_GP	OBJ	16	idtext0003	autobus	##m###	spk1	8.74	9.48	0.01	_
20091112_RATP_SCD_0379	2	19	hier	NULL	adv	NULL	B_GADV	MOD	18	idtext0003	hier	#####	spk1	9.49	10.08	0.01	_
20091112_RATP_SCD_0379	2	20	euh	DISF_M	pres	NULL	NULL	NOLINK	0	idtext0003	euh	#####	spk1	10.09	10.29	0.01	_
20091112_RATP_SCD_0379	2	21	sa	NULL	det	NULL	B_GN	DET	22	idtext0003	sa	##f#s##o	spk1	10.3	10.53	0.01	_
20091112_RATP_SCD_0379	2	22	carte	NULL	nc	B_PRD	I_GN	ROOT	0	idtext0003	carte	##f#s##	spk1	10.54	10.84	0.01	_
20091112_RATP_SCD_0379	2	23	Améthyste	NULL	np	I_PRD	I_GN	MOD	22	idtext0003	Améthyste	#####	spk1	10.85	11.45	0.01	//
20091112_RATP_SCD_0379	2	24	qu'	NULL	prorel	NULL	B_NULL	OBJ	26	idtext0003	qu'	#####	spk1	11.46	11.52	0.01	_
20091112_RATP_SCD_0379	2	25	elle	NULL	cln	NULL	B_GN	SUJ	26	idtext0003	cln	#3#f#s##	spk1	11.53	11.64	0.01	_
20091112_RATP_SCD_0379	2	26	vient	NULL	v	NULL	B_GVf	MOD_REL	22	idtext0003	venir	P#3##s##	spk1	11.65	11.88	0.01	_
20091112_RATP_SCD_0379	2	27	de	NULL	prep	NULL	B_GP	OBJ	26	idtext0003	de	#####	spk1	11.89	11.93	0.01	_
20091112_RATP_SCD_0379	2	28	recevoir	NULL	vinf	NULL	I_GP	OBJ	27	idtext0003	recevoir	W#####	spk1	11.94	12.52	0.01	_
20091112_RATP_SCD_0379	2	29	malheureusement	NULL	adv	NULL	B_GADV	MOD	28	idtext0003	malheureusement	#####	spk1	12.53	13.32	0.01	_
20091112_RATP_SCD_0379	2	30	euh	DISF_M	pres	NULL	NULL	NOLINK	0	idtext0003	euh	#####	spk1	13.33	14.02	0.01	_
20091112_RATP_SCD_0379	2	31	euh	DISF_M	pres	NULL	NULL	NOLINK	0	idtext0004	euh	#####	spk1	14.03	14.31	0.01	_
20091112_RATP_SCD_0379	2	32	sa	NULL	det	NULL	B_GN	DET	34	idtext0004	sa	##f#s##o	spk1	14.32	14.49	0.01	_
20091112_RATP_SCD_0379	2	33	nouvelle	NULL	adj	NULL	I_GN	MOD	34	idtext0004	nouveau	##f#s##	spk1	14.5	14.81	0.01	_
20091112_RATP_SCD_0379	2	34	carte	NULL	nc	NULL	I_GN	OBJ	28	idtext0004	carte	##f#s##	spk1	14.82	15.31	0.01	_
20091112_RATP_SCD_0379	2	35	alors	NULL	adv	NULL	B_GADV	NOLINK	0	idtext0004	alors	#####	spk1	15.32	15.5	0.01	_
20091112_RATP_SCD_0379	2	36	je	NULL	cln	NULL	B_GN	SUJ	37	idtext0004	cln	#1##s##	spk1	15.51	15.54	0.01	_
20091112_RATP_SCD_0379	2	37	voulais	NULL	v	NULL	B_GVf	ROOT	0	idtext0004	vouloir	I#12##s##	spk1	15.55	15.67	0.01	_
20091112_RATP_SCD_0379	2	38	savoir	NULL	vinf	NULL	I_GVf	OBJ	37	idtext0004	savoir	W#####	spk1	15.68	15.96	0.01	_
20091112_RATP_SCD_0379	2	39	qu'est-ce+qu'	NULL	pri	NULL	B_NULL	OBJ	37	idtext0004	qu'est-ce+qu'	#####	spk1	15.97	16.26	0.01	_
20091112_RATP_SCD_0379	2	40	il	NULL	cln	NULL	B_GN	SUJ	41	idtext0004	cln	#3#m#s##	spk1	16.27	16.37	0.01	_
20091112_RATP_SCD_0379	2	41	fallait	NULL	v	NULL	B_GVf	OBJ	39	idtext0004	falloir	I#3##s##	spk1	16.38	16.73	0.01	_
20091112_RATP_SCD_0379	2	42	faire	NULL	vinf	NULL	I_GVf	OBJ	41	idtext0004	faire	W#####	spk1	16.74	17.45	0.04	_
20091112_RATP_SCD_0379	2	43	vous	NULL	cln	NULL	B_GN	SUJ	44	idtext0005	cln	#2##p##	spk1	17.49	17.54	0.01	_
20091112_RATP_SCD_0379	2	44	pensez	NULL	v	NULL	B_GVf	ROOT	0	idtext0005	penser	P#2##p##	spk1	17.55	17.7	0.01	_
20091112_RATP_SCD_0379	2	45	qu'	NULL	csu	NULL	B_NULL	OBJ	44	idtext0005	qu'	#####	spk1	17.71	17.73	0.01	_
20091112_RATP_SCD_0379	2	46	il	NULL	cln	NULL	B_GN	SUJ_IMP	48	idtext0005	cln	#3#m#s##	spk1	17.74	17.79	0.01	_
20091112_RATP_SCD_0379	2	47	y	NULL	clo	NULL	B_GN	AFF	48	idtext0005	y	#####	spk1	17.8	17.85	0.01	_
20091112_RATP_SCD_0379	2	48	a	NULL	v	NULL	B_GVf	OBJ	45	idtext0005	avoir	P#3##s##	spk1	17.86	17.97	0.01	_
20091112_RATP_SCD_0379	2	49	une	NULL	det	NULL	B_GN	DET	50	idtext0005	un	##f#s##i	spk1	17.98	18.06	0.01	_
20091112_RATP_SCD_0379	2	50	chance	NULL	nc	NULL	I_GN	OBJ	48	idtext0005	chance	##f#s##	spk1	18.07	18.4	0.01	_
20091112_RATP_SCD_0379	2	51	que	DISF_R	csu	NULL	NULL	NOLINK	0	idtext0005	que	#####	spk1	18.41	18.71	0.01	_
20091112_RATP_SCD_0379	2	52	que	NULL	csu	NULL	B_NULL	OBJ	50	idtext0005	que	#####	spk1	18.72	18.88	0.01	_
20091112_RATP_SCD_0379	2	53	quelqu'un	NULL	pro	NULL	B_GN	SUJ	56	idtext0005	quelqu'un	#####	spk1	18.89	19.19	0.01	_
20091112_RATP_SCD_0379	2	54	l'	NULL	clo	NULL	B_GN	OBJ	56	idtext0005	cla	#3##s##	spk1	19.2	19.25	0.01	_
20091112_RATP_SCD_0379	2	55	ait	NULL	v	NULL	B_GVf	AUX	56	idtext0005	avoir	S#3##s##	spk1	19.26	19.33	0.01	_
20091112_RATP_SCD_0379	2	56	donnée	NULL	vppart	NULL	I_GVf	OBJ	52	idtext0005	donner	K##f#s##	spk1	19.34	19.56	0.01	_
20091112_RATP_SCD_0379	2	57	au	NULL	prep	NULL	B_GP	A_OBJ	56	idtext0005	au	#####	spk1	19.57	19.61	0.01	_
20091112_RATP_SCD_0379	2	58	chauffeur	NULL	nc	NULL	I_GP	OBJ	57	idtext0005	chauffeur	##m#s##	spk1	19.62	20.44	?	//

20091112_RATP_SCD_0379	3	1	quelle	NULL	det	NULL	B_NULL	ATS	2	idtext0006	quel	##f#s##	spk2	20.48	20.62	0.01	_
20091112_RATP_SCD_0379	3	2	est	NULL	v	NULL	B_GVf	ROOT	0	idtext0006	être	P#3##s##	spk2	20.63	20.7	0.01	_
20091112_RATP_SCD_0379	3	3	la	NULL	det	NULL	B_GN	DET	4	idtext0006	le	##m#s##d	spk2	20.71	20.82	0.01	_
20091112_RATP_SCD_0379	3	4	ligne	NULL	nc	NULL	I_GN	ATS	2	idtext0006	ligne	##f#s##	spk2	20.83	21.04	0.01	_
20091112_RATP_SCD_0379	3	5	de	NULL	prep	NULL	B_GP	DEP	4	idtext0006	de	#####	spk2	21.05	21.18	0.01	_
20091112_RATP_SCD_0379	3	6	bus	NULL	nc	NULL	I_GP	OBJ	5	idtext0006	bus	##m###	spk2	21.19	21.34	0.01	_
20091112_RATP_SCD_0379	3	7	concernée	NULL	vppart	NULL	B_GVf	MOD	4	idtext0006	concerner	K##f#s##	spk2	21.35	21.64	0.01	_
20091112_RATP_SCD_0379	3	8	madame	NULL	nc	NULL	B_GN	NOLINK	0	idtext0006	Monsieur	##f#s##	spk2	21.65	21.91	?	//

20091112_RATP_SCD_0379	4	1	le	NULL	det	NULL	B_GN	DET	2	idtext0007	le	##m#s##d	spk1	21.95	21.98	0.01	_
20091112_RATP_SCD_0379	4	2	trois+cent+quatre-vingt-quinze	NULL	nc	B_T	I_GN	SUJ	4	idtext0007	trois+cent+quatre-vingt-quinze	#####	spk1	21.99	23.12	0.01	_
20091112_RATP_SCD_0379	4	3	c'	NULL	cln	NULL	B_GN	SUJ_IMP	4	idtext0007	ce	###s##	spk1	23.13	23.15	0.01	_
20091112_RATP_SCD_0379	4	4	était	NULL	v	NULL	B_GVf	ROOT	0	idtext0007	être	I#3##s##	spk1	23.16	23.5	0.01	_
20091112_RATP_SCD_0379	4	5	au	NULL	prep	NULL	B_GP	P_OBJ_LOC	4	idtext0007	au	#####	spk1	23.51	23.77	0.01	_
20091112_RATP_SCD_0379	4	6	Plessis-Robinson	NULL	nc	B_A	I_GP	OBJ	5	idtext0007	Plessis-Robinson	#####	spk1	23.78	24.87	?	//

20091112_RATP_SCD_0379	5	1	d'accord	NULL	adv	NULL	B_GADV	NOLINK	0	idtext0008	d'accord	#####	spk2	25.13	25.59	0.01	//
20091112_RATP_SCD_0379	5	2	la	NULL	det	NULL	B_GN	DET	3	idtext0008	le	##m#s##d	spk2	25.6	25.72	0.01	_
20091112_RATP_SCD_0379	5	3	ligne	NULL	nc	B_T	I_GN	ROOT	0	idtext0008	ligne	##f#s##	spk2	25.73	25.86	0.01	_
20091112_RATP_SCD_0379	5	4	trois+cent+quatre-vingt-quinze	NULL	adj	I_T	I_GN	MOD	3	idtext0008	trois+cent+quatre-vingt-quinze	#####	spk2	25.87	26.99	0.01	_
20091112_RATP_SCD_0379	5	5	et	NULL	coo	NULL	B_NULL	COORD	3	idtext0008	et	#####	spk2	27.0	27.07	0.01	_
20091112_RATP_SCD_0379	5	6	la	NULL	det	NULL	B_GN	DET	7	idtext0008	le	##m#s##d	spk2	27.08	27.15	0.01	_
20091112_RATP_SCD_0379	5	7	carte	NULL	nc	B_PRD	I_GN	SUJ	9	idtext0008	carte	##f#s##	spk2	27.16	27.4	0.01	_
20091112_RATP_SCD_0379	5	8	Améthyste	NULL	np	I_PRD	I_GN	MOD	7	idtext0008	Améthyste	#####	spk2	27.41	27.8	0.01	_
20091112_RATP_SCD_0379	5	9	est	NULL	v	NULL	B_GVf	DEP_COORD	5	idtext0008	être	P#3##s##	spk2	27.81	27.92	0.01	_
20091112_RATP_SCD_0379	5	10	à	NULL	prep	NULL	B_GP	ATS	9	idtext0008	à	#####	spk2	27.93	27.98	0.01	_
20091112_RATP_SCD_0379	5	11	quel	NULL	det	NULL	I_GP	DET	12	idtext0008	quel	##m#s##	spk2	27.99	28.24	0.01	_
20091112_RATP_SCD_0379	5	12	nom	NULL	nc	NULL	I_GP	OBJ	10	idtext0008	nom	##m#s##	spk2	28.25	28.47	?	//

20091112_RATP_SCD_0379	6	1	NNAAMMEE	NULL	np	B_HU	B_GN	ROOT	0	idtext0009	ANONYM	NULL	spk1	29.04	29.41	0.01	_
20091112_RATP_SCD_0379	6	2	en	NULL	prep	NULL	B_GP	ROOT	0	idtext0010	en	#####	spk1	29.42	29.48	0.01	_
20091112_RATP_SCD_0379	6	3	un	NULL	det	NULL	I_GP	DET	4	idtext0010	un	##m#s##i	spk1	29.49	29.51	0.01	_
20091112_RATP_SCD_0379	6	4	mot	NULL	nc	NULL	I_GP	OBJ	2	idtext0010	mot	##m#s##	spk1	29.52	29.87	?	//

20091112_RATP_SCD_0379	7	1	d'accord	NULL	adv	NULL	B_GADV	NOLINK	0	idtext0011	d'accord	#####	spk2	29.91	30.12	?	//

20091112_RATP_SCD_0379	8	1	madame	NULL	nc	NULL	B_GN	NOLINK	0	idtext0012	Monsieur	##f#s##	spk1	30.16	30.8	0.01	_
20091112_RATP_SCD_0379	8	2	NNAAMMEE	NULL	np	B_HU	B_GN	ROOT	0	idtext0013	ANONYM	NULL	spk1	30.81	31.19	?	//

20091112_RATP_SCD_0379	9	1	d'accord	NULL	adv	NULL	B_GADV	NOLINK	0	idtext0014	d'accord	#####	spk2	31.25	32.33	0.01	_
20091112_RATP_SCD_0379	9	2	donc	NULL	coo	NULL	B_NULL	ROOT	0	idtext0015	donc	#####	spk2	32.34	32.55	0.01	_
20091112_RATP_SCD_0379	9	3	là	NULL	adv	NULL	B_GADV	NOLINK	0	idtext0015	là	#####	spk2	32.56	32.67	0.01	_
20091112_RATP_SCD_0379	9	4	vous	NULL	cln	NULL	B_GN	SUJ	6	idtext0015	cln	#2##p##	spk2	32.68	32.81	0.01	_
20091112_RATP_SCD_0379	9	5	m'	NULL	clo	NULL	B_GN	A_OBJ	6	idtext0015	cla	#1##s##	spk2	32.82	32.88	0.01	_
20091112_RATP_SCD_0379	9	6	indiquez	NULL	v	NULL	B_GVf	DEP_COORD	2	idtext0015	indiquer	P#2##p##	spk2	32.89	33.21	0.01	_
20091112_RATP_SCD_0379	9	7	dans+tous+les+cas	NULL	adv	NULL	B_GADV	MOD	6	idtext0015	dans+tous+les+cas	#####	spk2	33.22	33.78	0.01	_
20091112_RATP_SCD_0379	9	8	une	NULL	det	NULL	B_GN	DET	9	idtext0015	un	##f#s##i	spk2	33.79	33.94	0.01	_
20091112_RATP_SCD_0379	9	9	carte	NULL	nc	B_PRD	I_GN	OBJ	6	idtext0015	carte	##f#s##	spk2	33.95	34.19	0.01	_
20091112_RATP_SCD_0379	9	10	Améthyste	NULL	np	I_PRD	I_GN	MOD	9	idtext0015	Améthyste	#####	spk2	34.2	34.72	0.01	_
20091112_RATP_SCD_0379	9	11	de	NULL	prep	NULL	B_GP	DEP	9	idtext0015	de	#####	spk2	34.73	34.85	0.01	_
20091112_RATP_SCD_0379	9	12	perdue	NULL	vppart	NULL	I_GP	OBJ	11	idtext0015	perdre	K##f#s##	spk2	34.86	35.22	0.01	_
20091112_RATP_SCD_0379	9	13	hier	NULL	adv	NULL	B_GADV	MOD	12	idtext0015	hier	#####	spk2	35.23	35.47	0.01	_
20091112_RATP_SCD_0379	9	14	sur	NULL	prep	NULL	B_GP	P_OBJ_LOC	12	idtext0015	sur	#####	spk2	35.48	35.63	0.01	_
20091112_RATP_SCD_0379	9	15	la	NULL	det	NULL	I_GP	DET	16	idtext0015	le	##m#s##d	spk2	35.64	35.73	0.01	_
20091112_RATP_SCD_0379	9	16	ligne	NULL	nc	B_T	I_GP	OBJ	14	idtext0015	ligne	##f#s##	spk2	35.74	35.85	0.01	_
20091112_RATP_SCD_0379	9	17	trois+cent+quatre-vingt-quinze	NULL	adj	I_T	I_GP	MOD	16	idtext0015	trois+cent+quatre-vingt-quinze	#####	spk2	35.86	37.16	0.01	/
20091112_RATP_SCD_0379	9	18	elle	NULL	cln	NULL	B_GN	SUJ	19	idtext0016	cln	#3#f#s##	spk2	37.17	37.3	0.01	_
20091112_RATP_SCD_0379	9	19	serait	NULL	v	NULL	B_GVf	ROOT	0	idtext0016	être	C#3##s##	spk2	37.31	37.47	0.01	_
20091112_RATP_SCD_0379	9	20	au+nom+de	NULL	prep	NULL	B_GP	ATS	19	idtext0016	au+nom+de	#####	spk2	37.48	38.35	0.01	_
20091112_RATP_SCD_0379	9	21	NNAAMMEE	NULL	np	B_HU	B_GN	ROOT	0	idtext0017	ANONYM	NULL	spk2	38.36	38.53	0.01	_
20091112_RATP_SCD_0379	9	22	hein	DISF_M	pres	NULL	NULL	NOLINK	0	idtext0018	hein	#####	spk2	38.54	38.56	0.01	_
20091112_RATP_SCD_0379	9	23	c'	NULL	cln	NULL	I_GP	SUJ_IMP	24	idtext0018	ce	###s##	spk2	38.57	38.59	0.01	_
20091112_RATP_SCD_0379	9	24	est	NULL	v	NULL	B_GVf	ROOT	0	idtext0018	être	P#3##s##	spk2	38.6	38.62	0.01	_
20091112_RATP_SCD_0379	9	25	ça	NULL	pro	NULL	B_GN	ATS	24	idtext0018	ça	#####	spk2	38.63	39.0	?	_

20091112_RATP_SCD_0379	10	1	voilà	DISF_M	pres	NULL	NULL	NOLINK	0	idtext0019	voilà	#####	spk1	39.04	39.2	0.01	_
20091112_RATP_SCD_0379	10	2	NNAAMMEE	NULL	np	B_HU	B_GN	ROOT	0	idtext0020	ANONYM	NULL	spk1	39.21	39.95	?	//

20091112_RATP_SCD_0379	11	1	et	NULL	coo	NULL	B_NULL	NOLINK	0	idtext0021	et	#####	spk2	40.55	40.73	0.01	_
20091112_RATP_SCD_0379	11	2	NNAAMMEE	NULL	np	B_HU	B_GN	ROOT	0	idtext0022	ANONYM	NULL	spk2	40.74	41.01	0.01	_
20091112_RATP_SCD_0379	11	3	le	NULL	det	NULL	B_GN	DET	4	idtext0023	le	##m#s##d	spk2	41.02	41.04	0.01	_
20091112_RATP_SCD_0379	11	4	prénom	NULL	nc	NULL	I_GN	ROOT	0	idtext0023	prénom	##m#s##	spk2	41.05	41.19	0.01	/
20091112_RATP_SCD_0379	11	5	d'accord	NULL	adv	NULL	B_GADV	NOLINK	0	idtext0023	d'accord	#####	spk2	41.2	41.87	0.01	_
20091112_RATP_SCD_0379	11	6	vous	NULL	cln	NULL	B_GN	SUJ	7	idtext0023	cln	#2##p##	spk2	41.88	41.99	0.01	_
20091112_RATP_SCD_0379	11	7	patientez	NULL	v	NULL	B_GVf	ROOT	0	idtext0023	patienter	P#2##p##	spk2	42.0	42.4	0.01	_
20091112_RATP_SCD_0379	11	8	un	NULL	det	NULL	B_GN	DET	9	idtext0023	un	##m#s##i	spk2	42.41	42.55	0.01	_
20091112_RATP_SCD_0379	11	9	instant	NULL	nc	NULL	I_GN	MOD	7	idtext0023	instant	##m#s##	spk2	42.56	42.82	0.01	_
20091112_RATP_SCD_0379	11	10	je	NULL	cln	NULL	B_GN	SUJ	12	idtext0023	cln	#1##s##	spk2	42.83	42.95	0.01	_
20091112_RATP_SCD_0379	11	11	m'	NULL	clr	NULL	B_GVf	AFF	12	idtext0023	cla	#1##s##	spk2	42.96	42.99	0.01	_
20091112_RATP_SCD_0379	11	12	informe	NULL	v	NULL	I_GVf	ROOT	0	idtext0023	informer	PS#13##s##	spk2	43.0	43.19	0.01	_
20091112_RATP_SCD_0379	11	13	madame	NULL	nc	NULL	B_GN	NOLINK	0	idtext0023	Monsieur	##f#s##	spk2	43.2	43.52	?	//

20091112_RATP_SCD_0379	12	1	je	NULL	cln	NULL	B_GN	SUJ	3	idtext0024	cln	#1##s##	spk1	43.56	43.58	0.01	_
20091112_RATP_SCD_0379	12	2	vous	NULL	clo	NULL	B_GN	OBJ	3	idtext0024	cln	#2##p##	spk1	43.59	43.64	0.01	_
20091112_RATP_SCD_0379	12	3	remercie	NULL	v	NULL	B_GVf	ROOT	0	idtext0024	remercier	PS#13##s##	spk1	43.65	44.07	0.01	_
20091112_RATP_SCD_0379	12	4	madame	NULL	nc	NULL	B_GN	NOLINK	0	idtext0024	Monsieur	##f#s##	spk1	44.08	44.95	?	//

20091112_RATP_SCD_0379	13	1	Massy	NULL	nc	B_A	B_GN	ROOT	0	idtext0025	Massy	##m#s##	spk3	65.29	65.71	0.01	_
20091112_RATP_SCD_0379	13	2	bonjour	NULL	adv	NULL	B_GADV	MOD	1	idtext0025	bonjour	#####	spk3	65.72	66.15	?	//

20091112_RATP_SCD_0379	14	1	bonjour	NULL	adv	NULL	B_GADV	NOLINK	0	idtext0026	bonjour	#####	spk2	66.19	66.62	0.01	/
20091112_RATP_SCD_0379	14	2	le	NULL	det	NULL	B_GN	DET	3	idtext0026	le	##m#s##d	spk2	66.63	66.67	0.01	_
20091112_RATP_SCD_0379	14	3	Service+Clients+à+Distance	NULL	np	B_ORG	I_GN	ROOT	0	idtext0026	Service+Clients+à+Distance	#####	spk2	66.68	67.74	0.01	_
20091112_RATP_SCD_0379	14	4	à	NULL	prep	NULL	B_GP	MOD	3	idtext0026	à	#####	spk2	67.75	67.81	0.01	_
20091112_RATP_SCD_0379	14	5	l'	NULL	det	NULL	I_GP	DET	6	idtext0026	le	###s##d	spk2	67.82	67.84	0.01	_
20091112_RATP_SCD_0379	14	6	appareil	NULL	nc	NULL	I_GP	OBJ	4	idtext0026	appareil	##m#s##	spk2	67.85	68.43	?	//

20091112_RATP_SCD_0379	15	1	oui	NULL	adv	NULL	B_GADV	MOD	2	idtext0027	oui	#####	spk3	68.47	68.61	0.01	_
20091112_RATP_SCD_0379	15	2	bonjour	NULL	adv	NULL	I_GADV	ROOT	0	idtext0027	bonjour	#####	spk3	68.62	69.15	0.01	_
20091112_RATP_SCD_0379	15	3	Service+Clients	NULL	np	B_ORG	B_GN	NOLINK	0	idtext0027	Service+Clients	#####	spk3	69.16	69.85	?	//

20091112_RATP_SCD_0379	16	1	sur	NULL	prep	NULL	B_GP	MOD	11	idtext0028	sur	#####	spk2	70.78	70.94	0.01	_
20091112_RATP_SCD_0379	16	2	la	NULL	det	NULL	I_GP	DET	3	idtext0028	le	##m#s##d	spk2	70.95	71.08	0.01	_
20091112_RATP_SCD_0379	16	3	ligne	NULL	nc	B_T	I_GP	OBJ	1	idtext0028	ligne	##f#s##	spk2	71.09	71.38	0.01	_
20091112_RATP_SCD_0379	16	4	trois+cent+quatre-vingt-quinze	NULL	adj	I_T	I_GP	MOD	3	idtext0028	trois+cent+quatre-vingt-quinze	#####	spk2	71.39	72.68	0.01	_
20091112_RATP_SCD_0379	16	5	depuis	NULL	prep	NULL	B_NULL	MOD	11	idtext0028	depuis	#####	spk2	72.69	73.1	0.01	_
20091112_RATP_SCD_0379	16	6	hier	NULL	adv	NULL	B_GADV	OBJ	5	idtext0028	hier	#####	spk2	73.11	73.55	0.01	_
20091112_RATP_SCD_0379	16	7	est-ce+qu'	NULL	pri	NULL	B_NULL	NOLINK	0	idtext0028	est-ce+qu'	#####	spk2	73.56	73.72	0.01	_
20091112_RATP_SCD_0379	16	8	on	NULL	cln	NULL	B_GN	SUJ	11	idtext0028	cln	#3##s##	spk2	73.73	73.78	0.01	_
20091112_RATP_SCD_0379	16	9	t'	NULL	clo	NULL	B_GN	A_OBJ	11	idtext0028	cln	#2##s##	spk2	73.79	73.85	0.01	_
20091112_RATP_SCD_0379	16	10	aurait	NULL	v	NULL	B_GVf	AUX	11	idtext0028	avoir	C#3##s##	spk2	73.86	74.01	0.01	_
20091112_RATP_SCD_0379	16	11	rapporté	NULL	vppart	NULL	I_GVf	ROOT	0	idtext0028	rapporter	K##m#s##	spk2	74.02	74.52	0.01	_
20091112_RATP_SCD_0379	16	12	une	NULL	det	NULL	B_GN	DET	13	idtext0028	un	##f#s##i	spk2	74.53	74.65	0.01	_
20091112_RATP_SCD_0379	16	13	carte	NULL	nc	B_PRD	I_GN	OBJ	11	idtext0028	carte	##f#s##	spk2	74.66	74.91	0.01	_
20091112_RATP_SCD_0379	16	14	Améthyste	NULL	np	I_PRD	I_GN	MOD	13	idtext0028	Améthyste	#####	spk2	74.92	75.63	?	//

20091112_RATP_SCD_0379	17	1	je	NULL	cln	NULL	B_GN	SUJ	2	idtext0029	cln	#1##s##	spk3	75.68	75.82	0.01	_
20091112_RATP_SCD_0379	17	2	regarde	NULL	v	NULL	B_GVf	ROOT	0	idtext0029	regarder	PS#13##s##	spk3	75.83	76.1	0.01	_
20091112_RATP_SCD_0379	17	3	ça	NULL	pro	NULL	B_GN	OBJ	2	idtext0029	ça	#####	spk3	76.11	76.74	?	_

20091112_RATP_SCD_0379	18	1	je	NULL	cln	NULL	B_GN	SUJ	3	idtext0030	cln	#1##s##	spk2	76.84	76.98	0.01	_
20091112_RATP_SCD_0379	18	2	te	NULL	clo	NULL	B_GN	OBJ	3	idtext0030	cla	#2##s##	spk2	76.99	77.02	0.01	_
20091112_RATP_SCD_0379	18	3	remercie	NULL	v	NULL	B_GVf	ROOT	0	idtext0030	remercier	PS#13##s##	spk2	77.03	77.79	?	//

20091112_RATP_SCD_0379	19	1	non	NULL	adv	NULL	B_GADV	NOLINK	0	idtext0031	non	#####	spk3	130.48	130.79	0.01	_
20091112_RATP_SCD_0379	19	2	on	NULL	cln	NULL	B_GN	SUJ	3	idtext0031	cln	#3##s##	spk3	130.8	130.93	0.01	_
20091112_RATP_SCD_0379	19	3	a	NULL	v	NULL	B_GVf	ROOT	0	idtext0031	avoir	P#3##s##	spk3	130.94	130.98	0.01	_
20091112_RATP_SCD_0379	19	4	rien	NULL	pro	NULL	B_GN	OBJ	3	idtext0031	rien	#####	spk3	130.99	131.3	?	_

20091112_RATP_SCD_0379	20	1	tu	NULL	cln	NULL	B_GN	SUJ	3	idtext0032	cln	#2##s##	spk2	131.34	131.47	0.01	/
20091112_RATP_SCD_0379	20	2	n'	NULL	clneg	NULL	B_GVfn	MOD	3	idtext0032	n'	#####	spk2	131.48	131.51	0.01	_
20091112_RATP_SCD_0379	20	3	as	NULL	v	NULL	I_GVfn	ROOT	0	idtext0032	avoir	P#2##s##	spk2	131.52	131.59	0.01	_
20091112_RATP_SCD_0379	20	4	rien	NULL	pro	NULL	B_GN	OBJ	3	idtext0032	rien	#####	spk2	131.6	131.99	0.01	_
20091112_RATP_SCD_0379	20	5	et	NULL	coo	NULL	B_NULL	COORD	3	idtext0032	et	#####	spk2	132.0	132.06	0.01	_
20091112_RATP_SCD_0379	20	6	bien	NULL	adv	NULL	B_GADV	NOLINK	0	idtext0032	bien	#####	spk2	132.07	132.24	0.01	_
20091112_RATP_SCD_0379	20	7	je	NULL	cln	NULL	B_GN	SUJ	9	idtext0032	cln	#1##s##	spk2	132.25	132.38	0.01	_
20091112_RATP_SCD_0379	20	8	te	NULL	clo	NULL	B_GN	OBJ	9	idtext0032	cla	#2##s##	spk2	132.39	132.49	0.01	_
20091112_RATP_SCD_0379	20	9	remercie	NULL	v	NULL	B_GVf	DEP_COORD	5	idtext0032	remercier	PS#13##s##	spk2	132.5	133.09	0.01	_
20091112_RATP_SCD_0379	20	10	bonne	NULL	adj	NULL	B_GN	MOD	11	idtext0032	bon	##f#s##	spk2	133.1	133.3	0.01	_
20091112_RATP_SCD_0379	20	11	journée	NULL	nc	NULL	I_GN	ROOT	0	idtext0032	journée	##f#s##	spk2	133.31	133.59	0.01	_
20091112_RATP_SCD_0379	20	12	au+revoir	NULL	adv	NULL	B_GADV	NOLINK	0	idtext0032	au+revoir	#####	spk2	133.6	134.45	?	//

20091112_RATP_SCD_0379	21	1	ouais	NULL	adv	NULL	B_GN	NOLINK	0	idtext0033	ouais	#####	spk3	131.53	132.45	0.01	_
20091112_RATP_SCD_0379	21	2	allez	DISF_R	v	NULL	NULL	NOLINK	0	idtext0033	aller	P#2##p##	spk3	132.46	133.08	0.01	_
20091112_RATP_SCD_0379	21	3	bonne	NULL	adj	NULL	I_GN	MOD	4	idtext0033	bon	##f#s##	spk3	133.09	133.3	0.01	_
20091112_RATP_SCD_0379	21	4	journée	NULL	nc	NULL	I_GN	ROOT	0	idtext0033	journée	##f#s##	spk3	133.31	133.59	0.01	_
20091112_RATP_SCD_0379	21	5	au+revoir	NULL	adv	NULL	B_GADV	NOLINK	0	idtext0033	au+revoir	#####	spk3	133.6	134.45	?	//

20091112_RATP_SCD_0379	22	1	madame	NULL	nc	NULL	B_GN	NOLINK	0	idtext0034	Monsieur	##f#s##	spk2	136.11	136.7	?	//

20091112_RATP_SCD_0379	23	1	oui	NULL	adv	NULL	B_GADV	NOLINK	0	idtext0035	oui	#####	spk1	136.74	137.08	?	//

20091112_RATP_SCD_0379	24	1	sur	NULL	prep	NULL	B_GP	ROOT	0	idtext0036	sur	#####	spk2	137.37	137.5	0.01	_
20091112_RATP_SCD_0379	24	2	la	NULL	det	NULL	I_GP	DET	3	idtext0036	le	##m#s##d	spk2	137.51	137.64	0.01	_
20091112_RATP_SCD_0379	24	3	ligne	NULL	nc	B_T	I_GP	OBJ	1	idtext0036	ligne	##f#s##	spk2	137.65	137.77	0.01	_
20091112_RATP_SCD_0379	24	4	trois+cent+quatre-vingt-quinze	NULL	adj	I_T	I_GP	MOD	3	idtext0036	trois+cent+quatre-vingt-quinze	#####	spk2	137.78	138.82	0.01	_
20091112_RATP_SCD_0379	24	5	aucune	NULL	det	NULL	B_GN	DET	6	idtext0036	aucun	##f#s##i	spk2	138.83	139.11	0.01	_
20091112_RATP_SCD_0379	24	6	carte	NULL	nc	B_PRD	I_GN	ROOT	0	idtext0036	carte	##f#s##	spk2	139.12	139.35	0.01	_
20091112_RATP_SCD_0379	24	7	Améthyste	NULL	np	I_PRD	I_GN	MOD	6	idtext0036	Améthyste	#####	spk2	139.36	139.78	0.01	_
20091112_RATP_SCD_0379	24	8	au+nom+de	NULL	prep	NULL	B_GP	P_OBJ	6	idtext0036	au+nom+de	#####	spk2	139.79	140.65	0.01	_
20091112_RATP_SCD_0379	24	9	NNAAMMEE	NULL	np	B_HU	B_GN	ROOT	0	idtext0037	ANONYM	NULL	spk2	140.66	140.84	0.01	_
20091112_RATP_SCD_0379	24	10	n'	NULL	clneg	NULL	I_GP	MOD	11	idtext0038	n'	#####	spk2	140.85	140.88	0.01	_
20091112_RATP_SCD_0379	24	11	a	NULL	v	NULL	I_GP	AUX	12	idtext0038	avoir	P#3##s##	spk2	140.89	140.94	0.01	_
20091112_RATP_SCD_0379	24	12	été	NULL	vppart	NULL	B_GVf	AUX	13	idtext0038	être	K#####	spk2	140.95	141.03	0.01	_
20091112_RATP_SCD_0379	24	13	retrouvée	NULL	vppart	NULL	B_GVf	OBJ	8	idtext0038	retrouver	K##f#s##	spk2	141.04	141.34	0.01	//
20091112_RATP_SCD_0379	24	14	hein	DISF_M	pres	NULL	NULL	NOLINK	0	idtext0038	hein	#####	spk2	141.35	141.57	?	//

20091112_RATP_SCD_0379	25	1	aucune	NULL	det	NULL	B_NULL	NOLINK	0	idtext0039	aucun	##f#s##i	spk1	141.61	142.16	?	_

20091112_RATP_SCD_0379	26	1	aucune	NULL	det	NULL	B_NULL	NOLINK	0	idtext0040	aucun	##f#s##i	spk2	142.24	143.0	?	_

20091112_RATP_SCD_0379	27	1	bon	DISF_M	pres	NULL	NULL	NOLINK	0	idtext0041	bon	#####	spk1	143.06	144.09	0.01	_
20091112_RATP_SCD_0379	27	2	bon+bah	DISF_M	pres	NULL	NULL	NOLINK	0	idtext0042	bon+bah	#####	spk1	144.1	144.38	0.01	_
20091112_RATP_SCD_0379	27	3	écoutez	DISF_M	pres	NULL	NULL	NOLINK	0	idtext0042	écoutez	#####	spk1	144.39	144.88	0.01	_
20091112_RATP_SCD_0379	27	4	euh	DISF_M	pres	NULL	NULL	NOLINK	0	idtext0042	euh	#####	spk1	144.89	145.16	0.01	_
20091112_RATP_SCD_0379	27	5	alors	NULL	adv	NULL	B_GADV	NOLINK	0	idtext0043	alors	#####	spk1	145.17	145.7	0.01	_
20091112_RATP_SCD_0379	27	6	donc	NULL	coo	NULL	B_NULL	ROOT	0	idtext0043	donc	#####	spk1	145.71	145.91	0.01	_
20091112_RATP_SCD_0379	27	7	elle	NULL	cln	NULL	B_GN	SUJ	11	idtext0043	cln	#3#f#s##	spk1	145.92	146.0	0.01	_
20091112_RATP_SCD_0379	27	8	l'	NULL	clo	NULL	B_GN	OBJ	11	idtext0043	cla	#3##s##	spk1	146.01	146.03	0.01	_
20091112_RATP_SCD_0379	27	9	a	NULL	v	NULL	B_GVf	AUX	11	idtext0043	avoir	P#3##s##	spk1	146.04	146.09	0.01	_
20091112_RATP_SCD_0379	27	10	peut-être	NULL	adv	NULL	I_GVf	MOD	11	idtext0043	peut-être	#####	spk1	146.1	146.48	0.01	_
20091112_RATP_SCD_0379	27	11	perdue	NULL	vppart	NULL	I_GVf	DEP_COORD	6	idtext0043	perdre	K##f#s##	spk1	146.49	146.77	0.01	_
20091112_RATP_SCD_0379	27	12	autre	NULL	adj	NULL	B_GN	MOD	13	idtext0043	autre	###s##	spk1	146.78	147.0	0.01	_
20091112_RATP_SCD_0379	27	13	part	NULL	nc	NULL	I_GN	ATS	11	idtext0043	part	###s##	spk1	147.01	147.16	0.01	_
20091112_RATP_SCD_0379	27	14	que	NULL	csu	NULL	B_NULL	MOD	13	idtext0043	que	#####	spk1	147.17	147.31	0.01	_
20091112_RATP_SCD_0379	27	15	dans	NULL	prep	NULL	B_GP	OBJ	14	idtext0043	dans	#####	spk1	147.32	147.41	0.01	_
20091112_RATP_SCD_0379	27	16	l'	NULL	det	NULL	I_GP	DET	17	idtext0043	le	###s##d	spk1	147.42	147.47	0.01	_
20091112_RATP_SCD_0379	27	17	autobus	NULL	nc	NULL	I_GP	OBJ	15	idtext0043	autobus	##m###	spk1	147.48	148.1	0.01	//
20091112_RATP_SCD_0379	27	18	alors	NULL	adv	NULL	B_GADV	NOLINK	0	idtext0043	alors	#####	spk1	148.11	149.02	0.01	_
20091112_RATP_SCD_0379	27	19	euh	DISF_M	pres	NULL	NULL	NOLINK	0	idtext0043	euh	#####	spk1	149.03	149.05	0.01	_
20091112_RATP_SCD_0379	27	20	mais	NULL	coo	NULL	B_NULL	COORD	15	idtext0044	mais	#####	spk1	149.06	149.27	0.01	_
20091112_RATP_SCD_0379	27	21	au	DISF_R	prep	NULL	NULL	NOLINK	0	idtext0044	au	#####	spk1	149.28	149.4	0.01	_
20091112_RATP_SCD_0379	27	22	au	NULL	prep	NULL	B_GP	MOD	29	idtext0044	au	#####	spk1	149.41	149.55	0.01	_
20091112_RATP_SCD_0379	27	23	cas	NULL	nc	NULL	I_GP	OBJ	22	idtext0044	cas	##m###	spk1	149.56	149.87	0.01	_
20091112_RATP_SCD_0379	27	24	bon	DISF_M	pres	NULL	NULL	NOLINK	0	idtext0044	bon	#####	spk1	149.88	150.25	0.01	/
20091112_RATP_SCD_0379	27	25	au+cas+où	NULL	csu	NULL	B_NULL	MOD	33	idtext0044	au+cas+où	#####	spk1	150.26	150.64	0.01	_
20091112_RATP_SCD_0379	27	26	elle	NULL	cln	NULL	B_GN	SUJ	29	idtext0044	cln	#3#f#s##	spk1	150.65	150.72	0.01	_
20091112_RATP_SCD_0379	27	27	ne	NULL	clneg	NULL	B_NULL	NOLINK	0	idtext0044	ne	#####	spk1	150.73	150.75	0.01	_
20091112_RATP_SCD_0379	27	28	la	NULL	clo	NULL	B_GN	OBJ	29	idtext0044	cla	#3#f#s##	spk1	150.76	150.81	0.01	_
20091112_RATP_SCD_0379	27	29	retrouverait	NULL	v	NULL	B_GVfn	DEP_COORD	20	idtext0044	retrouver	C#3##s##	spk1	150.82	151.19	0.01	_
20091112_RATP_SCD_0379	27	30	pas	NULL	advneg	NULL	I_GVfn	MOD	29	idtext0044	pas	#####	spk1	151.2	151.34	0.01	_
20091112_RATP_SCD_0379	27	31	parce+qu'	NULL	csu	NULL	B_NULL	MOD	29	idtext0044	parce+qu'	#####	spk1	151.35	151.53	0.01	_
20091112_RATP_SCD_0379	27	32	on	NULL	cln	NULL	B_GN	SUJ_IMP	33	idtext0044	cln	#3##s##	spk1	151.54	151.57	0.01	_
20091112_RATP_SCD_0379	27	33	va	NULL	v	NULL	B_GVf	OBJ	31	idtext0044	aller	P#3##s##	spk1	151.58	151.63	0.01	_
20091112_RATP_SCD_0379	27	34	encore	NULL	adv	NULL	B_GVi	MOD	35	idtext0044	encore	#####	spk1	151.64	151.86	0.01	_
20091112_RATP_SCD_0379	27	35	chercher	NULL	vinf	NULL	I_GVi	OBJ	33	idtext0044	chercher	W#####	spk1	151.87	152.29	0.01	_
20091112_RATP_SCD_0379	27	36	là	NULL	adv	NULL	B_GADV	NOLINK	0	idtext0044	là	#####	spk1	152.3	152.49	?	//

20091112_RATP_SCD_0379	28	1	oui	NULL	adv	NULL	B_GADV	NOLINK	0	idtext0045	oui	#####	spk2	152.66	153.19	?	//

20091112_RATP_SCD_0379	29	1	qu'est-ce+qu'	NULL	pri	NULL	B_NULL	OBJ	6	idtext0046	qu'est-ce+qu'	#####	spk1	153.23	153.38	0.01	_
20091112_RATP_SCD_0379	29	2	il	NULL	cln	NULL	B_GN	SUJ_IMP	3	idtext0046	cln	#3#m#s##	spk1	153.39	153.49	0.01	_
20091112_RATP_SCD_0379	29	3	faut	NULL	v	NULL	B_GVf	ROOT	0	idtext0046	falloir	P#3##s##	spk1	153.5	153.58	0.01	_
20091112_RATP_SCD_0379	29	4	qu'	NULL	csu	NULL	B_NULL	OBJ	3	idtext0046	qu'	#####	spk1	153.59	153.67	0.01	_
20091112_RATP_SCD_0379	29	5	elle	NULL	cln	NULL	B_GN	SUJ	6	idtext0046	cln	#3#f#s##	spk1	153.68	153.83	0.01	_
20091112_RATP_SCD_0379	29	6	fasse	NULL	v	NULL	B_GVf	OBJ	4	idtext0046	faire	S#13##s##	spk1	153.84	154.06	0.01	_
20091112_RATP_SCD_0379	29	7	alors	NULL	adv	NULL	B_GADV	COORD	6	idtext0046	alors	#####	spk1	154.07	154.2	0.01	_
20091112_RATP_SCD_0379	29	8	il	NULL	cln	NULL	B_GN	SUJ_IMP	9	idtext0046	cln	#3#m#s##	spk1	154.21	154.26	0.01	_
20091112_RATP_SCD_0379	29	9	faut	NULL	v	NULL	B_GVf	DEP_COORD	7	idtext0046	falloir	P#3##s##	spk1	154.27	154.32	0.01	_
20091112_RATP_SCD_0379	29	10	qu'	NULL	csu	NULL	B_NULL	OBJ	9	idtext0046	qu'	#####	spk1	154.33	154.42	0.01	_
20091112_RATP_SCD_0379	29	11	elle	NULL	cln	NULL	B_GN	SUJ	12	idtext0046	cln	#3#f#s##	spk1	154.43	154.56	0.01	_
20091112_RATP_SCD_0379	29	12	paye	NULL	v	NULL	B_GVf	OBJ	10	idtext0046	payer	PS#13##s##	spk1	154.57	154.79	0.01	_
20091112_RATP_SCD_0379	29	13	à+nouveau	NULL	adv	NULL	B_GADV	MOD	12	idtext0046	à+nouveau	#####	spk1	154.8	155.16	0.01	_
20091112_RATP_SCD_0379	29	14	pour	NULL	prep	NULL	B_GP	P_OBJ	12	idtext0046	pour	#####	spk1	155.17	155.39	0.01	_
20091112_RATP_SCD_0379	29	15	une	NULL	det	NULL	I_GP	DET	17	idtext0046	un	##f#s##i	spk1	155.4	155.46	0.01	_
20091112_RATP_SCD_0379	29	16	nouvelle	NULL	adj	NULL	I_GP	MOD	17	idtext0046	nouveau	##f#s##	spk1	155.47	155.77	0.01	_
20091112_RATP_SCD_0379	29	17	carte	NULL	nc	NULL	I_GP	OBJ	14	idtext0046	carte	##f#s##	spk1	155.78	156.46	?	//

20091112_RATP_SCD_0379	30	1	alors	NULL	adv	NULL	B_GADV	NOLINK	0	idtext0047	alors	#####	spk2	156.5	156.7	0.01	_
20091112_RATP_SCD_0379	30	2	il	NULL	cln	NULL	B_GN	SUJ_IMP	3	idtext0047	cln	#3#m#s##	spk2	156.71	156.81	0.01	_
20091112_RATP_SCD_0379	30	3	faudrait	NULL	v	NULL	B_GVf	ROOT	0	idtext0047	falloir	C#3##s##	spk2	156.82	157.2	0.01	_
20091112_RATP_SCD_0379	30	4	effectivement	NULL	adv	NULL	B_GVi	MOD	6	idtext0047	effectivement	#####	spk2	157.21	157.89	0.01	_
20091112_RATP_SCD_0379	30	5	se	NULL	clr	NULL	I_GVi	AFF	19	idtext0047	se	#####	spk2	157.9	157.99	0.01	_
20091112_RATP_SCD_0379	30	6	renseigner	NULL	vinf	NULL	I_GVi	OBJ	3	idtext0047	renseigner	W#####	spk2	158.0	158.48	0.01	_
20091112_RATP_SCD_0379	30	7	au	NULL	prep	NULL	B_GP	MOD	6	idtext0047	au	#####	spk2	158.49	158.58	0.01	_
20091112_RATP_SCD_0379	30	8	niveau	NULL	nc	NULL	I_GP	OBJ	7	idtext0047	niveau	##m#s##	spk2	158.59	158.94	0.01	_
20091112_RATP_SCD_0379	30	9	de	DISF_R	prep	NULL	NULL	NOLINK	0	idtext0047	de	#####	spk2	158.95	159.19	0.01	_
20091112_RATP_SCD_0379	30	10	de	DISF_R	prep	NULL	NULL	NOLINK	0	idtext0047	de	#####	spk2	159.2	159.63	0.01	_
20091112_RATP_SCD_0379	30	11	de	NULL	prep	NULL	B_GP	DEP	8	idtext0047	de	#####	spk2	159.64	159.75	0.01	_
20091112_RATP_SCD_0379	30	12	la	NULL	det	NULL	I_GP	DET	13	idtext0047	le	##m#s##d	spk2	159.76	159.89	0.01	_
20091112_RATP_SCD_0379	30	13	mairie	NULL	nc	NULL	I_GP	OBJ	11	idtext0047	mairie	##f#s##	spk2	159.9	160.15	0.01	_
20091112_RATP_SCD_0379	30	14	du	NULL	prep	NULL	B_GP	DEP	13	idtext0047	du	#####	spk2	160.16	160.26	0.01	_
20091112_RATP_SCD_0379	30	15	service	NULL	nc	NULL	I_GP	OBJ	14	idtext0047	service	##m#s##	spk2	160.27	160.61	0.01	_
20091112_RATP_SCD_0379	30	16	social	NULL	adj	NULL	I_GP	MOD	15	idtext0047	social	##m#s##	spk2	160.62	160.94	0.01	/
20091112_RATP_SCD_0379	30	17	qui	NULL	prorel	NULL	B_NULL	SUJ	19	idtext0047	qui	#####	spk2	160.95	161.07	0.01	_
20091112_RATP_SCD_0379	30	18	a	NULL	v	NULL	B_GVf	AUX	19	idtext0047	avoir	P#3##s##	spk2	161.08	161.11	0.01	_
20091112_RATP_SCD_0379	30	19	délivré	NULL	vppart	NULL	I_GVf	MOD_REL	13	idtext0047	délivrer	K##m#s##	spk2	161.12	161.45	0.01	_
20091112_RATP_SCD_0379	30	20	la	NULL	det	NULL	B_GN	DET	21	idtext0047	le	##m#s##d	spk2	161.46	161.55	0.01	_
20091112_RATP_SCD_0379	30	21	carte	NULL	nc	NULL	I_GN	OBJ	19	idtext0047	carte	##f#s##	spk2	161.56	162.96	?	//

20091112_RATP_SCD_0379	31	1	d'accord	NULL	adv	NULL	B_GADV	NOLINK	0	idtext0048	d'accord	#####	spk1	163.0	163.81	?	//

20091112_RATP_SCD_0379	32	1	hm	DISF_M	pres	NULL	NULL	NOLINK	0	idtext0049	hm	#####	spk2	164.04	164.09	?	//

20091112_RATP_SCD_0379	33	1	donc	NULL	coo	NULL	B_NULL	ROOT	0	idtext0050	donc	#####	spk1	164.14	164.3	0.01	_
20091112_RATP_SCD_0379	33	2	c'	NULL	cln	NULL	B_GN	SUJ_IMP	3	idtext0050	ce	###s##	spk1	164.31	164.33	0.01	_
20091112_RATP_SCD_0379	33	3	est	NULL	v	NULL	B_GVf	DEP_COORD	1	idtext0050	être	P#3##s##	spk1	164.34	164.62	0.01	_
20091112_RATP_SCD_0379	33	4	au	NULL	prep	NULL	B_GP	ATS	3	idtext0050	au	#####	spk1	164.63	164.65	0.01	_
20091112_RATP_SCD_0379	33	5	niveau	NULL	nc	NULL	I_GP	OBJ	4	idtext0050	niveau	##m#s##	spk1	164.66	164.86	0.01	_
20091112_RATP_SCD_0379	33	6	de	DISF_R	prep	NULL	NULL	NOLINK	0	idtext0050	de	#####	spk1	164.87	165.12	0.01	_
20091112_RATP_SCD_0379	33	7	de	DISF_R	prep	NULL	NULL	NOLINK	0	idtext0050	de	#####	spk1	165.13	165.37	0.01	_
20091112_RATP_SCD_0379	33	8	de	NULL	prep	NULL	B_GP	DEP	5	idtext0050	de	#####	spk1	165.38	165.56	0.01	_
20091112_RATP_SCD_0379	33	9	la	NULL	det	NULL	I_GP	DET	10	idtext0050	le	##m#s##d	spk1	165.57	165.67	0.01	_
20091112_RATP_SCD_0379	33	10	mairie	NULL	nc	B_ORG	I_GP	OBJ	8	idtext0050	mairie	##f#s##	spk1	165.68	165.9	0.01	_
20091112_RATP_SCD_0379	33	11	du	NULL	prep	I_ORG	I_GP	DEP	10	idtext0050	du	#####	spk1	165.91	165.99	0.01	_
20091112_RATP_SCD_0379	33	12	Plessis	NULL	np	I_ORG	I_GP	OBJ	11	idtext0050	Plessis	#####	spk1	166.0	166.32	0.01	/
20091112_RATP_SCD_0379	33	13	qu'	NULL	csu	NULL	B_NULL	OBJ	10	idtext0050	qu'	#####	spk1	166.33	166.37	0.01	_
20091112_RATP_SCD_0379	33	14	il	NULL	cln	NULL	B_GN	SUJ_IMP	15	idtext0050	cln	#3#m#s##	spk1	166.38	166.43	0.01	_
20091112_RATP_SCD_0379	33	15	faudrait	NULL	v	NULL	B_GVf	OBJ	13	idtext0050	falloir	C#3##s##	spk1	166.44	166.96	0.01	_
20091112_RATP_SCD_0379	33	16	le	NULL	clo	NULL	B_GN	OBJ	17	idtext0050	cla	#3#m#s##	spk1	166.97	167.0	0.01	_
20091112_RATP_SCD_0379	33	17	signaler	NULL	vinf	NULL	B_GVi	OBJ	15	idtext0050	signaler	W#####	spk1	167.01	167.44	0.01	_
20091112_RATP_SCD_0379	33	18	alors	NULL	adv	NULL	B_GADV	NOLINK	0	idtext0050	alors	#####	spk1	167.45	167.65	?	//

20091112_RATP_SCD_0379	34	1	exactement	NULL	adv	NULL	B_GADV	MOD	2	idtext0051	exactement	#####	spk2	167.69	168.57	0.01	_
20091112_RATP_SCD_0379	34	2	tout+à+fait	NULL	adv	NULL	I_GADV	ROOT	0	idtext0051	tout+à+fait	#####	spk2	168.58	169.21	?	_

20091112_RATP_SCD_0379	35	1	d'accord	NULL	adv	NULL	B_GADV	NOLINK	0	idtext0052	d'accord	#####	spk1	169.27	169.72	0.01	_
20091112_RATP_SCD_0379	35	2	bon+bah	DISF_M	pres	NULL	NULL	NOLINK	0	idtext0052	bon+bah	#####	spk1	169.73	169.96	0.01	_
20091112_RATP_SCD_0379	35	3	je	NULL	cln	NULL	B_GN	SUJ	5	idtext0052	cln	#1##s##	spk1	169.97	169.99	0.01	_
20091112_RATP_SCD_0379	35	4	vous	NULL	clo	NULL	B_GN	OBJ	5	idtext0052	cln	#2##p##	spk1	170.0	170.06	0.01	_
20091112_RATP_SCD_0379	35	5	remercie	NULL	v	NULL	B_GVf	ROOT	0	idtext0052	remercier	PS#13##s##	spk1	170.07	170.38	0.01	_
20091112_RATP_SCD_0379	35	6	beaucoup	NULL	adv	NULL	B_GADV	MOD	5	idtext0052	beaucoup	#####	spk1	170.39	170.62	0.01	_
20091112_RATP_SCD_0379	35	7	madame	NULL	nc	NULL	B_GN	NOLINK	0	idtext0052	Monsieur	##f#s##	spk1	170.63	170.95	?	//

20091112_RATP_SCD_0379	36	1	je	NULL	cln	NULL	B_GN	SUJ	4	idtext0053	cln	#1##s##	spk2	170.99	171.09	0.01	_
20091112_RATP_SCD_0379	36	2	vous	NULL	clo	NULL	B_GN	OBJ	4	idtext0053	cln	#2##p##	spk2	171.1	171.15	0.01	_
20091112_RATP_SCD_0379	36	3	en	NULL	clo	NULL	B_GN	DE_OBJ	4	idtext0053	en	#####	spk2	171.16	171.24	0.01	_
20091112_RATP_SCD_0379	36	4	prie	NULL	v	NULL	B_GVf	ROOT	0	idtext0053	prier	PS#13##s##	spk2	171.25	171.45	0.01	_
20091112_RATP_SCD_0379	36	5	bonne	NULL	adj	NULL	B_GN	MOD	6	idtext0053	bon	##f#s##	spk2	171.46	171.64	0.01	_
20091112_RATP_SCD_0379	36	6	journée	NULL	nc	NULL	I_GN	ROOT	0	idtext0053	journée	##f#s##	spk2	171.65	171.92	0.01	_
20091112_RATP_SCD_0379	36	7	au+revoir	NULL	adv	NULL	B_GADV	NOLINK	0	idtext0053	au+revoir	#####	spk2	171.93	190.89	?	//

20091112_RATP_SCD_0379	37	1	au+revoir	NULL	adv	NULL	B_GADV	MOD	2	idtext0054	au+revoir	#####	spk1	171.0	171.81	0.01	_
20091112_RATP_SCD_0379	37	2	merci	NULL	adv	NULL	I_GADV	ROOT	0	idtext0054	merci	#####	spk1	171.82	190.89	?	//

