20091112_RATP_SCD_0066	1	1	NNAAMMEE	NULL	np	B_HU	B_GN	ROOT	0	idtext0000	ANONYM	NULL	spk1	5.92	6.3	0.01	_
20091112_RATP_SCD_0066	1	2	bonjour	NULL	adv	NULL	B_GADV	NOLINK	0	idtext0001	bonjour	#####	spk1	6.31	6.84	0.14	_
20091112_RATP_SCD_0066	1	3	s'il+vous+plaît	NULL	adv	NULL	B_GADV	NOLINK	0	idtext0002	s'il+vous+plaît	#####	spk1	6.98	7.82	?	//

20091112_RATP_SCD_0066	2	1	oui	NULL	adv	NULL	B_GADV	MOD	2	idtext0003	oui	#####	spk2	7.94	8.27	0.01	_
20091112_RATP_SCD_0066	2	2	bonjour	NULL	adv	NULL	I_GADV	ROOT	0	idtext0003	bonjour	#####	spk2	8.28	8.63	0.01	_
20091112_RATP_SCD_0066	2	3	madame	NULL	nc	NULL	B_GN	NOLINK	0	idtext0003	Monsieur	##f#s##	spk2	8.64	9.14	?	//

20091112_RATP_SCD_0066	3	1	madame	NULL	nc	NULL	B_GN	NOLINK	0	idtext0004	Monsieur	##f#s##	spk1	9.18	9.87	?	//

20091112_RATP_SCD_0066	4	1	excusez	NULL	v	NULL	B_GVf	ROOT	0	idtext0005	excuser	P#2##p##	spk2	9.95	10.38	0.01	_
20091112_RATP_SCD_0066	4	2	-moi	NULL	clo	NULL	B_GN	OBJ	1	idtext0005	cla	#1##s##	spk2	10.39	10.57	0.01	_
20091112_RATP_SCD_0066	4	3	de	NULL	prep	NULL	B_GP	DE_OBJ	2	idtext0005	de	#####	spk2	10.58	10.65	0.01	_
20091112_RATP_SCD_0066	4	4	vous	NULL	clo	NULL	I_GP	OBJ	5	idtext0005	cln	#2##p##	spk2	10.66	10.82	0.01	_
20091112_RATP_SCD_0066	4	5	déranger	NULL	vinf	NULL	B_GVi	OBJ	3	idtext0005	déranger	W#####	spk2	10.83	11.47	0.01	_
20091112_RATP_SCD_0066	4	6	moi	NULL	pro	NULL	B_GN	SUJ	9	idtext0005	moi	#####	spk2	11.48	11.65	0.01	_
20091112_RATP_SCD_0066	4	7	j'	NULL	cln	NULL	B_GN	SUJ	9	idtext0005	cln	#1##s##	spk2	11.66	11.77	0.01	_
20091112_RATP_SCD_0066	4	8	ai	NULL	v	NULL	B_GVf	AUX	9	idtext0005	avoir	P#1##s##	spk2	11.78	11.87	0.01	_
20091112_RATP_SCD_0066	4	9	fait	NULL	vppart	NULL	I_GVf	ROOT	0	idtext0005	faire	P#3##s##	spk2	11.88	12.12	0.01	_
20091112_RATP_SCD_0066	4	10	le	NULL	det	NULL	B_NULL	NOLINK	0	idtext0005	le	##m#s##d	spk2	12.13	12.7	?	//

20091112_RATP_SCD_0066	5	1	le	DISF_R	det	NULL	NULL	NOLINK	0	idtext0006	le	##m#s##d	spk2	13.09	13.64	0.01	_
20091112_RATP_SCD_0066	5	2	hum	DISF_M	pres	NULL	NULL	NOLINK	0	idtext0006	hum	#####	spk2	13.65	13.87	0.01	//
20091112_RATP_SCD_0066	5	3	les	NULL	det	NULL	B_GN	DET	4	idtext0006	le	###p##d	spk2	13.88	14.09	0.01	_
20091112_RATP_SCD_0066	5	4	touches	NULL	nc	NULL	I_GN	ROOT	0	idtext0006	touche	##f#p##	spk2	14.1	14.5	0.01	_
20091112_RATP_SCD_0066	5	5	pour	NULL	prep	NULL	B_GP	MOD	4	idtext0006	pour	#####	spk2	14.51	14.98	0.01	_
20091112_RATP_SCD_0066	5	6	euh	DISF_M	pres	NULL	NULL	NOLINK	0	idtext0006	euh	#####	spk2	14.99	15.13	0.01	_
20091112_RATP_SCD_0066	5	7	RATP	NULL	np	B_ORG	I_GP	OBJ	5	idtext0006	RATP	##f#s##	spk2	15.14	15.74	0.01	_
20091112_RATP_SCD_0066	5	8	donc	NULL	coo	NULL	B_NULL	COORD	4	idtext0006	donc	#####	spk2	15.75	15.99	0.01	_
20091112_RATP_SCD_0066	5	9	les	NULL	det	NULL	B_GN	DET	10	idtext0006	le	###p##d	spk2	16.0	16.11	0.01	_
20091112_RATP_SCD_0066	5	10	renseignements	NULL	nc	NULL	I_GN	DEP_COORD	8	idtext0006	renseignement	##m#p##	spk2	16.12	16.79	?	//

20091112_RATP_SCD_0066	6	1	mais	NULL	coo	NULL	B_NULL	ROOT	0	idtext0007	mais	#####	spk2	16.99	17.04	0.01	_
20091112_RATP_SCD_0066	6	2	ils	NULL	cln	NULL	B_GN	SUJ	3	idtext0007	cln	#3#m#p##	spk2	17.05	17.62	0.01	_
20091112_RATP_SCD_0066	6	3	ont	NULL	v	NULL	B_GVf	DEP_COORD	1	idtext0007	avoir	P#3##p##	spk2	17.63	17.72	0.01	_
20091112_RATP_SCD_0066	6	4	que	NULL	advneg	NULL	B_NULL	MOD	3	idtext0007	que	#####	spk2	17.73	17.86	0.01	_
20091112_RATP_SCD_0066	6	5	des	NULL	det	NULL	B_GN	DET	6	idtext0007	des	###p##i	spk2	17.87	18.01	0.01	_
20091112_RATP_SCD_0066	6	6	renseignements	NULL	nc	NULL	I_GN	OBJ	3	idtext0007	renseignement	##m#p##	spk2	18.02	18.87	0.01	_
20091112_RATP_SCD_0066	6	7	sur	NULL	prep	NULL	B_NULL	P_OBJ	6	idtext0007	sur	#####	spk2	18.88	19.1	?	_

20091112_RATP_SCD_0066	7	1	oui	NULL	adv	NULL	B_GADV	NOLINK	0	idtext0008	oui	#####	spk1	17.04	19.1	?	//

20091112_RATP_SCD_0066	8	1	appuyer	NULL	vinf	NULL	B_GVi	ROOT	0	idtext0009	appuyer	W#####	spk2	19.15	19.57	0.01	_
20091112_RATP_SCD_0066	8	2	sur	NULL	prep	NULL	B_GP	P_OBJ	1	idtext0009	sur	#####	spk2	19.58	19.9	0.01	_
20091112_RATP_SCD_0066	8	3	le	NULL	det	NULL	I_GP	DET	4	idtext0009	le	##m#s##d	spk2	19.91	20.14	0.01	_
20091112_RATP_SCD_0066	8	4	A	NULL	nc	NULL	I_GP	OBJ	2	idtext0009	A	#####	spk2	20.15	20.48	0.01	_
20091112_RATP_SCD_0066	8	5	ou	NULL	coo	NULL	B_NULL	COORD	4	idtext0010	ou	#####	spk2	20.49	20.53	0.01	_
20091112_RATP_SCD_0066	8	6	le	NULL	det	NULL	B_GN	DET	7	idtext0010	le	##m#s##d	spk2	20.54	20.65	0.01	_
20091112_RATP_SCD_0066	8	7	B	NULL	nc	NULL	I_GN	DEP_COORD	5	idtext0010	B	#####	spk2	20.66	20.89	0.01	_
20091112_RATP_SCD_0066	8	8	mais	NULL	coo	NULL	B_NULL	COORD	1	idtext0011	mais	#####	spk2	20.9	21.16	0.01	_
20091112_RATP_SCD_0066	8	9	je	NULL	cln	NULL	B_GN	SUJ	10	idtext0011	cln	#1##s##	spk2	21.17	21.19	0.01	_
20091112_RATP_SCD_0066	8	10	voudrais	NULL	v	NULL	B_GVf	DEP_COORD	8	idtext0011	vouloir	C#12##s##	spk2	21.2	21.69	0.01	_
20091112_RATP_SCD_0066	8	11	les	NULL	det	NULL	B_GN	DET	12	idtext0011	le	###p##d	spk2	21.7	21.87	0.01	_
20091112_RATP_SCD_0066	8	12	renseignements	NULL	nc	NULL	I_GN	OBJ	10	idtext0011	renseignement	##m#p##	spk2	21.88	22.44	0.01	_
20091112_RATP_SCD_0066	8	13	sur	NULL	prep	NULL	B_GP	P_OBJ	12	idtext0011	sur	#####	spk2	22.45	22.69	0.01	_
20091112_RATP_SCD_0066	8	14	le	NULL	det	NULL	I_GP	DET	15	idtext0011	le	##m#s##d	spk2	22.7	22.72	0.01	_
20091112_RATP_SCD_0066	8	15	RER+C	NULL	nc	B_T	I_GP	OBJ	13	idtext0011	RER+C	#####	spk2	22.73	23.64	?	//

20091112_RATP_SCD_0066	9	1	ah	DISF_M	pres	NULL	NULL	NOLINK	0	idtext0012	ah	#####	spk1	24.11	24.17	0.01	_
20091112_RATP_SCD_0066	9	2	le	NULL	det	NULL	B_GN	DET	3	idtext0012	le	##m#s##d	spk1	24.18	24.27	0.01	_
20091112_RATP_SCD_0066	9	3	C	NULL	nc	NULL	I_GN	SUJ	5	idtext0012	C	#####	spk1	24.28	24.48	0.01	_
20091112_RATP_SCD_0066	9	4	c'	NULL	cln	NULL	B_GN	SUJ_IMP	5	idtext0013	ce	###s##	spk1	24.49	24.57	0.01	_
20091112_RATP_SCD_0066	9	5	est	NULL	v	NULL	B_GVf	ROOT	0	idtext0013	être	P#3##s##	spk1	24.58	24.62	0.01	_
20091112_RATP_SCD_0066	9	6	la	NULL	det	NULL	B_GN	DET	7	idtext0013	le	##m#s##d	spk1	24.63	24.72	0.01	_
20091112_RATP_SCD_0066	9	7	SNCF	NULL	np	B_ORG	I_GN	ATS	5	idtext0013	SNCF	##f#s##	spk1	24.73	25.49	0.01	_
20091112_RATP_SCD_0066	9	8	vous	NULL	cln	NULL	B_GN	SUJ	9	idtext0013	cln	#2##p##	spk1	25.5	25.58	0.01	_
20091112_RATP_SCD_0066	9	9	désirez	NULL	v	NULL	B_GVf	ROOT	0	idtext0013	désirer	P#2##p##	spk1	25.59	25.93	0.01	_
20091112_RATP_SCD_0066	9	10	quoi	NULL	pri	NULL	B_NULL	OBJ	9	idtext0013	quoi	#####	spk1	25.94	26.09	0.01	_
20091112_RATP_SCD_0066	9	11	comme	NULL	adv	NULL	B_GADV	MOD	10	idtext0013	comme	#####	spk1	26.1	26.29	0.01	_
20091112_RATP_SCD_0066	9	12	renseignement	NULL	nc	NULL	B_GN	OBJ	11	idtext0013	renseignement	##m#s##	spk1	26.3	26.85	?	//

20091112_RATP_SCD_0066	10	1	un	NULL	det	NULL	B_GN	DET	2	idtext0014	un	##m#s##i	spk1	26.89	27.16	0.01	_
20091112_RATP_SCD_0066	10	2	itinéraire	NULL	nc	NULL	I_GN	ROOT	0	idtext0014	itinéraire	##m#s##	spk1	27.17	28.11	?	_

20091112_RATP_SCD_0066	11	1	ben	DISF_M	pres	NULL	NULL	NOLINK	0	idtext0015	ben	#####	spk2	26.89	27.02	0.01	_
20091112_RATP_SCD_0066	11	2	je	NULL	cln	NULL	B_GN	SUJ	3	idtext0015	cln	#1##s##	spk2	27.03	27.15	0.01	_
20091112_RATP_SCD_0066	11	3	voulais	NULL	v	NULL	B_GVf	ROOT	0	idtext0015	vouloir	I#12##s##	spk2	27.16	27.56	0.01	_
20091112_RATP_SCD_0066	11	4	savoir	NULL	vinf	NULL	I_GVf	OBJ	3	idtext0015	savoir	W#####	spk2	27.57	27.89	0.01	_
20091112_RATP_SCD_0066	11	5	juste	NULL	adv	NULL	B_GADV	MOD	3	idtext0015	juste	###s##	spk2	27.9	28.11	?	//

20091112_RATP_SCD_0066	12	1	un	NULL	det	NULL	B_GN	DET	2	idtext0016	un	##m#s##i	spk2	28.16	28.31	0.01	_
20091112_RATP_SCD_0066	12	2	départ	NULL	nc	NULL	I_GN	ROOT	0	idtext0016	départ	##m#s##	spk2	28.32	28.85	0.01	_
20091112_RATP_SCD_0066	12	3	de	DISF_R	prep	NULL	NULL	NOLINK	0	idtext0016	de	#####	spk2	28.86	29.37	0.01	_
20091112_RATP_SCD_0066	12	4	de	NULL	prep	NULL	B_GP	DEP	2	idtext0016	de	#####	spk2	29.38	29.58	0.01	_
20091112_RATP_SCD_0066	12	5	train	NULL	nc	NULL	I_GP	OBJ	4	idtext0016	train	##m#s##	spk2	29.59	29.94	0.01	_
20091112_RATP_SCD_0066	12	6	de	NULL	prep	NULL	B_GP	DEP	5	idtext0016	de	#####	spk2	29.95	30.11	0.01	_
20091112_RATP_SCD_0066	12	7	Franconville	NULL	nc	B_A	I_GP	OBJ	6	idtext0016	Franconville	##m#s##	spk2	30.12	30.86	0.01	_
20091112_RATP_SCD_0066	12	8	pour	NULL	prep	NULL	B_GP	MOD	7	idtext0017	pour	#####	spk2	30.87	31.06	0.01	_
20091112_RATP_SCD_0066	12	9	aller	NULL	vinf	NULL	I_GP	OBJ	8	idtext0017	aller	W#####	spk2	31.07	31.44	0.01	_
20091112_RATP_SCD_0066	12	10	vers	NULL	prep	NULL	B_GP	P_OBJ_LOC	9	idtext0017	vers	#####	spk2	31.45	31.78	0.01	_
20091112_RATP_SCD_0066	12	11	euh	DISF_M	pres	NULL	NULL	NOLINK	0	idtext0017	euh	#####	spk2	31.79	32.16	0.01	_
20091112_RATP_SCD_0066	12	12	Austerlitz	NULL	nc	B_A	I_GP	OBJ	10	idtext0018	Austerlitz	#####	spk2	32.17	32.99	?	_

20091112_RATP_SCD_0066	13	1	Franconville	NULL	nc	B_A	B_GN	NOLINK	0	idtext0019	Franconville	##m#s##	spk1	33.07	34.12	0.01	_
20091112_RATP_SCD_0066	13	2	vous	NULL	cln	NULL	B_GN	SUJ	5	idtext0020	cln	#2##p##	spk1	34.13	34.42	0.01	_
20091112_RATP_SCD_0066	13	3	vers	NULL	prep	NULL	B_GP	ROOT	0	idtext0020	vers	#####	spk1	34.43	34.58	0.01	_
20091112_RATP_SCD_0066	13	4	quelle	NULL	det	NULL	I_GP	DET	5	idtext0020	quel	##f#s##	spk1	34.59	34.84	0.01	_
20091112_RATP_SCD_0066	13	5	heure	NULL	nc	NULL	I_GP	OBJ	3	idtext0020	heure	##f#s##	spk1	34.85	34.94	0.01	_
20091112_RATP_SCD_0066	13	6	madame	NULL	nc	NULL	I_GP	NOLINK	0	idtext0020	Monsieur	##f#s##	spk1	34.95	35.46	?	//

20091112_RATP_SCD_0066	14	1	là	NULL	adv	NULL	B_GADV	NOLINK	0	idtext0021	là	#####	spk2	33.34	33.46	0.01	_
20091112_RATP_SCD_0066	14	2	Gare+Austerlitz	NULL	nc	B_A	B_GN	NOLINK	0	idtext0021	Gare+Austerlitz	#####	spk2	33.47	35.46	?	//

20091112_RATP_SCD_0066	15	1	vers	NULL	prep	NULL	B_GP	ROOT	0	idtext0022	vers	#####	spk2	35.52	35.68	0.01	_
20091112_RATP_SCD_0066	15	2	dix	NULL	det	B_H	I_GP	DET	3	idtext0022	dix	#####	spk2	35.69	35.97	0.01	_
20091112_RATP_SCD_0066	15	3	heures	NULL	nc	I_H	I_GP	OBJ	1	idtext0022	heure	##f#p##	spk2	35.98	36.15	0.01	_
20091112_RATP_SCD_0066	15	4	s'il+vous+plaît	NULL	adv	NULL	B_GADV	NOLINK	0	idtext0022	s'il+vous+plaît	#####	spk2	36.16	36.68	?	//

20091112_RATP_SCD_0066	16	1	vers	NULL	prep	NULL	B_GP	ROOT	0	idtext0023	vers	#####	spk1	36.72	36.85	0.01	_
20091112_RATP_SCD_0066	16	2	dix	NULL	det	B_H	I_GP	DET	3	idtext0023	dix	#####	spk1	36.86	37.11	0.01	_
20091112_RATP_SCD_0066	16	3	heures	NULL	nc	I_H	I_GP	OBJ	1	idtext0023	heure	##f#p##	spk1	37.12	37.58	0.01	//
20091112_RATP_SCD_0066	16	4	un	NULL	det	NULL	B_GN	DET	5	idtext0024	un	##m#s##i	spk1	37.59	37.72	0.01	_
20091112_RATP_SCD_0066	16	5	instant	NULL	nc	NULL	I_GN	ROOT	0	idtext0024	instant	##m#s##	spk1	37.73	38.06	0.01	_
20091112_RATP_SCD_0066	16	6	s'il+vous+plaît	NULL	adv	NULL	B_GADV	NOLINK	0	idtext0024	s'il+vous+plaît	#####	spk1	38.07	38.63	?	//

20091112_RATP_SCD_0066	17	1	merci	NULL	adv	NULL	B_GADV	MOD	2	idtext0025	merci	#####	spk2	38.67	39.11	0.01	_
20091112_RATP_SCD_0066	17	2	beaucoup	NULL	adv	NULL	I_GADV	ROOT	0	idtext0025	beaucoup	#####	spk2	39.12	39.51	?	//

20091112_RATP_SCD_0066	18	1	s'il+vous+plaît	NULL	adv	NULL	B_GADV	NOLINK	0	idtext0026	s'il+vous+plaît	#####	spk1	51.12	51.9	0.01	_
20091112_RATP_SCD_0066	18	2	bé	DISF_M	pres	NULL	NULL	NOLINK	0	idtext0026	bé	#####	spk1	51.91	52.04	0.01	_
20091112_RATP_SCD_0066	18	3	écoutez	DISF_M	pres	NULL	NULL	NOLINK	0	idtext0026	écoutez	#####	spk1	52.05	52.19	0.01	_
20091112_RATP_SCD_0066	18	4	vers	NULL	prep	NULL	B_GP	MOD	8	idtext0026	vers	#####	spk1	52.2	52.5	0.01	_
20091112_RATP_SCD_0066	18	5	dix	NULL	det	B_H	I_GP	DET	6	idtext0026	dix	#####	spk1	52.51	52.74	0.01	_
20091112_RATP_SCD_0066	18	6	heures	NULL	nc	I_H	I_GP	OBJ	4	idtext0026	heure	##f#p##	spk1	52.75	52.86	0.01	_
20091112_RATP_SCD_0066	18	7	vous	NULL	cln	NULL	B_GN	SUJ	8	idtext0026	cln	#2##p##	spk1	52.87	52.96	0.01	_
20091112_RATP_SCD_0066	18	8	avez	NULL	v	NULL	B_GVf	ROOT	0	idtext0026	avoir	P#2##p##	spk1	52.97	53.08	0.01	_
20091112_RATP_SCD_0066	18	9	neuf	NULL	det	B_H	B_GN	DET	10	idtext0026	neuf	#####	spk1	53.09	53.27	0.01	_
20091112_RATP_SCD_0066	18	10	heures	NULL	nc	I_H	I_GN	OBJ	8	idtext0026	heure	##f#p##	spk1	53.28	53.87	0.01	_
20091112_RATP_SCD_0066	18	11	cinquante-cinq	NULL	adj	I_H	I_GN	MOD	10	idtext0026	cinquante-cinq	#####	spk1	53.88	54.47	?	//

20091112_RATP_SCD_0066	19	1	oui	NULL	adv	NULL	B_GADV	NOLINK	0	idtext0027	oui	#####	spk2	54.91	55.4	?	//

20091112_RATP_SCD_0066	20	1	ou	NULL	coo	NULL	B_NULL	ROOT	0	idtext0028	ou	#####	spk1	55.85	56.14	0.01	_
20091112_RATP_SCD_0066	20	2	dix	NULL	det	B_H	B_GN	DET	3	idtext0028	dix	#####	spk1	56.15	56.42	0.01	_
20091112_RATP_SCD_0066	20	3	heures	NULL	nc	I_H	I_GN	DEP_COORD	1	idtext0028	heure	##f#p##	spk1	56.43	56.66	0.01	_
20091112_RATP_SCD_0066	20	4	dix	NULL	adj	I_H	I_GN	MOD	3	idtext0028	dix	#####	spk1	56.67	57.07	0.01	_
20091112_RATP_SCD_0066	20	5	à	NULL	prep	NULL	B_GP	ROOT	0	idtext0028	à	#####	spk1	57.08	57.15	0.01	_
20091112_RATP_SCD_0066	20	6	Franconville	NULL	nc	B_A	I_GP	OBJ	5	idtext0028	Franconville	##m#s##	spk1	57.16	58.26	?	//

20091112_RATP_SCD_0066	21	1	d'accord	NULL	adv	NULL	B_GADV	NOLINK	0	idtext0029	d'accord	#####	spk2	58.51	59.05	0.01	_
20091112_RATP_SCD_0066	21	2	et	NULL	coo	NULL	B_NULL	ROOT	0	idtext0029	et	#####	spk2	59.06	59.22	0.01	_
20091112_RATP_SCD_0066	21	3	qui	NULL	prorel	NULL	B_NULL	DEP_COORD	2	idtext0029	qui	#####	spk2	59.23	59.31	?	_

20091112_RATP_SCD_0066	22	1	va	NULL	v	NULL	B_GVf	ROOT	0	idtext0030	aller	P#3##s##	spk2	59.35	59.81	0.01	_
20091112_RATP_SCD_0066	22	2	à	NULL	prep	NULL	B_GP	P_OBJ_LOC	1	idtext0030	à	#####	spk2	59.82	59.99	0.01	_
20091112_RATP_SCD_0066	22	3	Austerlitz	NULL	nc	B_A	I_GP	OBJ	2	idtext0030	Austerlitz	#####	spk2	60.0	61.72	?	//

20091112_RATP_SCD_0066	23	1	qui	NULL	prorel	NULL	B_NULL	SUJ	2	idtext0031	qui	#####	spk1	59.72	59.95	0.01	_
20091112_RATP_SCD_0066	23	2	va	NULL	v	NULL	B_GVf	ROOT	0	idtext0031	aller	P#3##s##	spk1	59.96	60.37	0.01	_
20091112_RATP_SCD_0066	23	3	à	NULL	prep	NULL	B_GP	P_OBJ_LOC	2	idtext0031	à	#####	spk1	60.38	60.5	0.01	_
20091112_RATP_SCD_0066	23	4	Austerlitz	NULL	nc	B_A	I_GP	OBJ	3	idtext0031	Austerlitz	#####	spk1	60.51	61.0	0.01	_
20091112_RATP_SCD_0066	23	5	tout+à+fait	NULL	adv	NULL	B_GADV	NOLINK	0	idtext0031	tout+à+fait	#####	spk1	61.01	61.72	?	//

20091112_RATP_SCD_0066	24	1	je	NULL	cln	NULL	B_GN	SUJ	3	idtext0032	cln	#1##s##	spk2	61.8	61.93	0.01	_
20091112_RATP_SCD_0066	24	2	vous	NULL	clo	NULL	B_GN	OBJ	3	idtext0032	cln	#2##p##	spk2	61.94	62.04	0.01	_
20091112_RATP_SCD_0066	24	3	remercie	NULL	v	NULL	B_GVf	ROOT	0	idtext0032	remercier	PS#13##s##	spk2	62.05	62.46	0.01	_
20091112_RATP_SCD_0066	24	4	beaucoup	NULL	adv	NULL	B_GADV	MOD	3	idtext0032	beaucoup	#####	spk2	62.47	62.76	0.01	_
20091112_RATP_SCD_0066	24	5	madame	NULL	nc	NULL	B_GN	NOLINK	0	idtext0032	Monsieur	##f#s##	spk2	62.77	63.32	0.01	_
20091112_RATP_SCD_0066	24	6	merci	NULL	adv	NULL	B_GADV	MOD	7	idtext0032	merci	#####	spk2	63.33	64.06	0.01	_
20091112_RATP_SCD_0066	24	7	au+revoir	NULL	adv	NULL	I_GADV	ROOT	0	idtext0032	au+revoir	#####	spk2	64.07	64.65	?	//

20091112_RATP_SCD_0066	25	1	bonne	NULL	adj	NULL	B_GN	MOD	2	idtext0033	bon	##f#s##	spk1	61.8	62.38	0.01	_
20091112_RATP_SCD_0066	25	2	journée	NULL	nc	NULL	I_GN	ROOT	0	idtext0033	journée	##f#s##	spk1	62.39	63.34	0.01	_
20091112_RATP_SCD_0066	25	3	madame	NULL	nc	NULL	B_GN	NOLINK	0	idtext0033	Monsieur	##f#s##	spk1	63.35	63.68	0.01	_
20091112_RATP_SCD_0066	25	4	au+revoir	NULL	adv	NULL	B_GADV	NOLINK	0	idtext0033	au+revoir	#####	spk1	63.69	64.65	?	//

