20091112_RATP_SCD_0243	1	1	NNAAMMEE	NULL	np	B_HU	B_GN	ROOT	0	idtext0000	ANONYM	NULL	spk1	5.76	5.95	0.12	_
20091112_RATP_SCD_0243	1	2	bonjour	NULL	adv	NULL	B_GADV	NOLINK	0	idtext0001	bonjour	#####	spk1	6.07	6.9	?	//

20091112_RATP_SCD_0243	2	1	oui	NULL	adv	NULL	B_GADV	MOD	2	idtext0002	oui	#####	spk2	7.54	7.76	0.01	_
20091112_RATP_SCD_0243	2	2	bonjour	NULL	adv	NULL	I_GADV	ROOT	0	idtext0002	bonjour	#####	spk2	7.77	8.08	0.01	_
20091112_RATP_SCD_0243	2	3	euh	DISF_M	pres	NULL	NULL	NOLINK	0	idtext0002	euh	#####	spk2	8.09	8.9	0.05	_
20091112_RATP_SCD_0243	2	4	NNAAMMEE	NULL	np	B_HU	B_GN	ROOT	0	idtext0003	ANONYM	NULL	spk2	8.95	9.2	0.01	_
20091112_RATP_SCD_0243	2	5	NNAAMMEE	NULL	np	B_HU	B_GN	ROOT	0	idtext0004	ANONYM	NULL	spk2	9.21	9.4	?	//

20091112_RATP_SCD_0243	3	1	en+fait	GREF	adv	NULL	B_GADV	NOLINK	0	idtext0005	en+fait	#####	spk2	10.57	10.75	0.01	_
20091112_RATP_SCD_0243	3	2	je	NULL	cln	NULL	B_GN	SUJ	4	idtext0005	cln	#1##s##	spk2	10.76	10.81	0.01	_
20091112_RATP_SCD_0243	3	3	vous	NULL	clo	NULL	B_GN	OBJ	4	idtext0005	cln	#2##p##	spk2	10.82	10.89	0.01	_
20091112_RATP_SCD_0243	3	4	appelle	NULL	v	NULL	B_GVf	ROOT	0	idtext0005	appeler	PS#13##s##	spk2	10.9	11.13	0.01	_
20091112_RATP_SCD_0243	3	5	parce+que	NULL	csu	NULL	B_NULL	MOD	4	idtext0005	parce+que	#####	spk2	11.14	11.29	0.01	_
20091112_RATP_SCD_0243	3	6	j'	NULL	cln	NULL	B_GN	SUJ	8	idtext0005	cln	#1##s##	spk2	11.3	11.32	0.01	_
20091112_RATP_SCD_0243	3	7	ai	NULL	v	NULL	B_GVf	AUX	8	idtext0005	avoir	P#1##s##	spk2	11.33	11.39	0.01	_
20091112_RATP_SCD_0243	3	8	perdu	NULL	vppart	NULL	I_GVf	OBJ	5	idtext0005	perdre	K##m#s##	spk2	11.4	12.42	0.01	_
20091112_RATP_SCD_0243	3	9	euh	DISF_M	pres	NULL	NULL	NOLINK	0	idtext0005	euh	#####	spk2	12.43	13.46	0.60	_
20091112_RATP_SCD_0243	3	10	deux	NULL	adj	NULL	B_GN	MOD	11	idtext0006	deux	#####	spk2	14.06	14.23	0.01	_
20091112_RATP_SCD_0243	3	11	cartouches	NULL	nc	NULL	I_GN	ROOT	0	idtext0006	cartouche	###p##	spk2	14.24	14.84	0.01	_
20091112_RATP_SCD_0243	3	12	de	NULL	prep	NULL	B_GP	DEP	11	idtext0006	de	#####	spk2	14.85	14.93	0.01	_
20091112_RATP_SCD_0243	3	13	la	NULL	det	NULL	I_GP	DET	14	idtext0006	le	##m#s##d	spk2	14.94	15.01	0.01	_
20091112_RATP_SCD_0243	3	14	FNAC	NULL	np	B_ORG	I_GP	OBJ	12	idtext0007	FNAC	#####	spk2	15.02	15.6	0.01	_
20091112_RATP_SCD_0243	3	15	dans	NULL	prep	NULL	B_GP	MOD	14	idtext0008	dans	#####	spk2	15.61	15.81	0.01	_
20091112_RATP_SCD_0243	3	16	un	NULL	det	NULL	I_GP	DET	17	idtext0008	un	##m#s##i	spk2	15.82	15.99	0.01	_
20091112_RATP_SCD_0243	3	17	plastique	NULL	nc	NULL	I_GP	OBJ	15	idtext0008	plastique	###s##	spk2	16.0	16.72	0.01	//
20091112_RATP_SCD_0243	3	18	c'	NULL	cln	NULL	B_GN	SUJ_IMP	19	idtext0009	ce	###s##	spk2	16.73	16.8	0.01	_
20091112_RATP_SCD_0243	3	19	était	NULL	v	NULL	B_GVf	ROOT	0	idtext0009	être	I#3##s##	spk2	16.81	16.96	0.01	_
20091112_RATP_SCD_0243	3	20	samedi	NULL	nc	B_D	B_GN	ATS	19	idtext0009	samedi	##m#s##	spk2	16.97	17.27	0.01	_
20091112_RATP_SCD_0243	3	21	soir	NULL	nc	I_D	I_GN	MOD	20	idtext0009	soir	##m#s##	spk2	17.28	17.84	?	//

20091112_RATP_SCD_0243	4	1	donc	NULL	coo	NULL	B_NULL	ROOT	0	idtext0010	donc	#####	spk1	18.11	18.75	0.01	_
20091112_RATP_SCD_0243	4	2	samedi	NULL	nc	NULL	B_GN	DEP_COORD	1	idtext0010	samedi	##m#s##	spk1	18.76	19.51	0.01	_
20091112_RATP_SCD_0243	4	3	et	NULL	coo	NULL	B_NULL	ROOT	0	idtext0011	et	#####	spk1	19.52	19.58	0.01	_
20091112_RATP_SCD_0243	4	4	vous	NULL	cln	NULL	B_GN	SUJ	5	idtext0011	cln	#2##p##	spk1	19.59	19.69	0.01	_
20091112_RATP_SCD_0243	4	5	avez	NULL	v	NULL	B_GVf	DEP_COORD	3	idtext0011	avoir	P#2##p##	spk1	19.7	19.86	0.01	_
20091112_RATP_SCD_0243	4	6	une	NULL	det	NULL	B_GN	DET	7	idtext0012	un	##f#s##i	spk1	19.87	19.92	0.01	_
20091112_RATP_SCD_0243	4	7	idée	NULL	nc	NULL	I_GN	OBJ	5	idtext0012	idée	##f#s##	spk1	19.93	20.06	0.01	_
20091112_RATP_SCD_0243	4	8	de	NULL	prep	NULL	B_GP	DEP	7	idtext0012	de	#####	spk1	20.07	20.09	0.01	_
20091112_RATP_SCD_0243	4	9	l'	NULL	det	NULL	I_GP	DET	10	idtext0012	le	###s##d	spk1	20.1	20.15	0.01	_
20091112_RATP_SCD_0243	4	10	endroit	NULL	nc	NULL	I_GP	OBJ	8	idtext0012	endroit	##m#s##	spk1	20.16	20.79	?	//

20091112_RATP_SCD_0243	5	1	et	NULL	coo	NULL	B_NULL	ROOT	0	idtext0013	et	#####	spk2	21.45	21.51	0.01	_
20091112_RATP_SCD_0243	5	2	en+fait	GREF	adv	NULL	B_GADV	NOLINK	0	idtext0013	en+fait	#####	spk2	21.52	21.8	0.01	_
20091112_RATP_SCD_0243	5	3	je	NULL	cln	NULL	B_GN	SUJ	6	idtext0013	cln	#1##s##	spk2	21.81	21.91	0.01	_
20091112_RATP_SCD_0243	5	4	l'	NULL	clo	NULL	B_GN	OBJ	6	idtext0013	cla	#3##s##	spk2	21.92	21.94	0.01	_
20091112_RATP_SCD_0243	5	5	ai	NULL	v	NULL	B_GVf	AUX	6	idtext0013	avoir	P#1##s##	spk2	21.95	22.0	0.01	_
20091112_RATP_SCD_0243	5	6	acheté	NULL	vppart	NULL	I_GVf	DEP_COORD	1	idtext0013	acheter	K##m#s##	spk2	22.01	22.49	0.01	_
20091112_RATP_SCD_0243	5	7	euh	DISF_M	pres	NULL	NULL	NOLINK	0	idtext0013	euh	#####	spk2	22.5	22.6	0.01	_
20091112_RATP_SCD_0243	5	8	sur	NULL	prep	NULL	B_GP	P_OBJ	6	idtext0013	sur	#####	spk2	22.61	22.88	0.01	_
20091112_RATP_SCD_0243	5	9	les	NULL	det	NULL	I_GP	DET	10	idtext0013	le	###p##d	spk2	22.89	23.37	0.01	_
20091112_RATP_SCD_0243	5	10	Champs-Élysées	NULL	nc	B_A	I_GP	OBJ	8	idtext0014	Champs-Élysées	##m#p##	spk2	23.38	24.03	0.01	_
20091112_RATP_SCD_0243	5	11	à	NULL	prep	NULL	B_GP	P_OBJ_LOC	6	idtext0015	à	#####	spk2	24.04	24.09	0.01	_
20091112_RATP_SCD_0243	5	12	Franklin+Roosevelt	NULL	nc	B_A	I_GP	OBJ	11	idtext0016	Franklin+Roosevelt	#####	spk2	24.1	25.09	0.01	_
20091112_RATP_SCD_0243	5	13	et	NULL	coo	NULL	B_NULL	COORD	6	idtext0017	et	#####	spk2	25.1	25.16	0.01	_
20091112_RATP_SCD_0243	5	14	en+fait	GREF	adv	NULL	B_GADV	NOLINK	0	idtext0017	en+fait	#####	spk2	25.17	25.36	0.01	_
20091112_RATP_SCD_0243	5	15	j'	NULL	cln	NULL	B_GN	SUJ	17	idtext0018	cln	#1##s##	spk2	25.37	25.5	0.01	_
20091112_RATP_SCD_0243	5	16	ai	NULL	v	NULL	B_GVf	NOLINK	0	idtext0018	avoir	P#1##s##	spk2	25.51	25.77	0.01	_
20091112_RATP_SCD_0243	5	17	prie	NULL	v	NULL	B_GVf	DEP_COORD	13	idtext0019	prier	PS#13##s##	spk2	25.78	25.97	0.01	_
20091112_RATP_SCD_0243	5	18	le	NULL	det	NULL	B_GN	DET	19	idtext0019	le	##m#s##d	spk2	25.98	26.0	0.01	_
20091112_RATP_SCD_0243	5	19	métro	NULL	nc	NULL	I_GN	OBJ	17	idtext0019	métro	##m#s##	spk2	26.01	26.44	0.01	_
20091112_RATP_SCD_0243	5	20	j'	NULL	cln	NULL	B_GN	SUJ	22	idtext0019	cln	#1##s##	spk2	26.45	26.52	0.01	_
20091112_RATP_SCD_0243	5	21	ai	NULL	v	NULL	B_GVf	AUX	22	idtext0019	avoir	P#1##s##	spk2	26.53	26.55	0.01	_
20091112_RATP_SCD_0243	5	22	changé	NULL	vppart	NULL	I_GVf	ROOT	0	idtext0019	changer	K##m#s##	spk2	26.56	26.99	0.01	_
20091112_RATP_SCD_0243	5	23	à	NULL	prep	NULL	B_NULL	MOD	22	idtext0019	à	#####	spk2	27.0	27.22	0.43	_
20091112_RATP_SCD_0243	5	24	à	NULL	prep	NULL	B_GP	COORD	26	idtext0020	à	#####	spk2	27.65	27.8	0.01	_
20091112_RATP_SCD_0243	5	25	Palais+Royal	NULL	np	B_M	I_GP	OBJ	24	idtext0021	Palais+Royal	#####	spk2	27.81	28.42	0.01	_
20091112_RATP_SCD_0243	5	26	et+donc	NULL	coo	NULL	B_NULL	ROOT	0	idtext0022	et+donc	#####	spk2	28.43	28.66	0.01	_
20091112_RATP_SCD_0243	5	27	j'	NULL	cln	NULL	B_GN	SUJ	29	idtext0022	cln	#1##s##	spk2	28.67	28.71	0.01	_
20091112_RATP_SCD_0243	5	28	ai	NULL	v	NULL	B_GVf	AUX	29	idtext0022	avoir	P#1##s##	spk2	28.72	28.75	0.01	_
20091112_RATP_SCD_0243	5	29	supposé	NULL	vppart	NULL	I_GVf	DEP_COORD	26	idtext0022	supposer	K##m#s##	spk2	28.76	29.15	0.01	_
20091112_RATP_SCD_0243	5	30	qu'	NULL	csu	NULL	B_NULL	OBJ	29	idtext0022	qu'	#####	spk2	29.16	29.22	0.01	_
20091112_RATP_SCD_0243	5	31	en	NULL	prep	NULL	B_GP	MOD	36	idtext0022	en	#####	spk2	29.23	29.26	0.01	_
20091112_RATP_SCD_0243	5	32	me	NULL	clo	NULL	I_GP	A_OBJ	33	idtext0022	cla	#1##s##	spk2	29.27	29.35	0.01	_
20091112_RATP_SCD_0243	5	33	relevant	NULL	vprespart	NULL	B_GVf	OBJ	31	idtext0022	relever	G#####	spk2	29.36	29.76	0.01	_
20091112_RATP_SCD_0243	5	34	j'	NULL	cln	NULL	B_GN	SUJ	36	idtext0022	cln	#1##s##	spk2	29.77	29.85	0.01	_
20091112_RATP_SCD_0243	5	35	ai	NULL	v	NULL	B_GVf	AUX	36	idtext0022	avoir	P#1##s##	spk2	29.86	29.89	0.01	_
20091112_RATP_SCD_0243	5	36	dû	NULL	vppart	NULL	I_GVf	OBJ	30	idtext0022	devoir	K##m#s##	spk2	29.9	30.01	0.01	_
20091112_RATP_SCD_0243	5	37	laisser	NULL	vinf	NULL	B_GVi	OBJ	36	idtext0022	laisser	W#####	spk2	30.02	30.27	0.01	_
20091112_RATP_SCD_0243	5	38	le	NULL	det	NULL	B_GN	DET	39	idtext0022	le	##m#s##d	spk2	30.28	30.3	0.01	_
20091112_RATP_SCD_0243	5	39	plastique	NULL	nc	NULL	I_GN	OBJ	37	idtext0022	plastique	###s##	spk2	30.31	31.01	0.01	_
20091112_RATP_SCD_0243	5	40	euh	DISF_M	pres	NULL	NULL	NOLINK	0	idtext0022	euh	#####	spk2	31.02	31.05	0.01	_
20091112_RATP_SCD_0243	5	41	par	NULL	prep	NULL	B_GP	P_OBJ	39	idtext0022	par	#####	spk2	31.06	31.28	0.01	_
20091112_RATP_SCD_0243	5	42	terre	NULL	nc	NULL	I_GP	OBJ	41	idtext0022	terre	##f#s##	spk2	31.29	32.27	?	//

20091112_RATP_SCD_0243	6	1	donc	NULL	coo	NULL	B_NULL	ROOT	0	idtext0023	donc	#####	spk1	32.31	32.44	0.01	_
20091112_RATP_SCD_0243	6	2	c'	NULL	cln	NULL	B_GN	SUJ_IMP	3	idtext0023	ce	###s##	spk1	32.45	32.5	0.01	_
20091112_RATP_SCD_0243	6	3	est	NULL	v	NULL	B_GVf	DEP_COORD	1	idtext0023	être	P#3##s##	spk1	32.51	32.55	0.01	_
20091112_RATP_SCD_0243	6	4	un	NULL	det	NULL	B_GN	DET	5	idtext0023	un	##m#s##i	spk1	32.56	32.68	0.01	_
20091112_RATP_SCD_0243	6	5	sac	NULL	nc	NULL	I_GN	ATS	3	idtext0023	sac	##m#s##	spk1	32.69	32.83	0.01	_
20091112_RATP_SCD_0243	6	6	de	NULL	prep	NULL	B_GP	DEP	5	idtext0023	de	#####	spk1	32.84	32.93	0.01	_
20091112_RATP_SCD_0243	6	7	la	NULL	det	NULL	I_GP	DET	8	idtext0023	le	##m#s##d	spk1	32.94	33.02	0.01	_
20091112_RATP_SCD_0243	6	8	FNAC	NULL	np	B_ORG	I_GP	OBJ	6	idtext0024	FNAC	#####	spk1	33.03	33.42	0.01	_
20091112_RATP_SCD_0243	6	9	hein	DISF_M	pres	I_ORG	NULL	NOLINK	0	idtext0025	hein	#####	spk1	33.43	33.5	0.01	_
20091112_RATP_SCD_0243	6	10	c'	NULL	cln	NULL	B_GN	SUJ_IMP	11	idtext0025	ce	###s##	spk1	33.51	33.58	0.01	_
20091112_RATP_SCD_0243	6	11	est	NULL	v	NULL	B_GVf	ROOT	0	idtext0025	être	P#3##s##	spk1	33.59	33.64	0.01	_
20091112_RATP_SCD_0243	6	12	ça	NULL	pro	NULL	B_GN	ATS	11	idtext0025	ça	#####	spk1	33.65	33.81	0.01	_
20091112_RATP_SCD_0243	6	13	avec	NULL	prep	NULL	B_NULL	NOLINK	0	idtext0025	avec	#####	spk1	33.82	33.93	0.01	_
20091112_RATP_SCD_0243	6	14	des	NULL	det	NULL	B_NULL	NOLINK	0	idtext0025	des	###p##i	spk1	33.94	34.01	?	_

20091112_RATP_SCD_0243	7	1	c'	NULL	cln	NULL	B_GN	SUJ_IMP	2	idtext0026	ce	###s##	spk2	34.05	34.07	0.01	_
20091112_RATP_SCD_0243	7	2	est	NULL	v	NULL	B_GVf	ROOT	0	idtext0026	être	P#3##s##	spk2	34.08	34.1	0.01	_
20091112_RATP_SCD_0243	7	3	un	NULL	det	NULL	B_GN	DET	4	idtext0026	un	##m#s##i	spk2	34.11	34.16	0.01	_
20091112_RATP_SCD_0243	7	4	sac	NULL	nc	NULL	I_GN	ATS	2	idtext0026	sac	##m#s##	spk2	34.17	34.39	0.01	_
20091112_RATP_SCD_0243	7	5	de	NULL	prep	NULL	B_GP	DEP	4	idtext0026	de	#####	spk2	34.4	34.43	0.01	_
20091112_RATP_SCD_0243	7	6	la	NULL	det	NULL	I_GP	DET	7	idtext0026	le	##m#s##d	spk2	34.44	34.56	0.01	_
20091112_RATP_SCD_0243	7	7	FNAC	NULL	np	B_ORG	I_GP	OBJ	5	idtext0027	FNAC	#####	spk2	34.57	34.94	0.01	//
20091112_RATP_SCD_0243	7	8	oui	NULL	adv	NULL	B_GADV	NOLINK	0	idtext0028	oui	#####	spk2	34.95	35.03	0.01	_
20091112_RATP_SCD_0243	7	9	avec	NULL	prep	NULL	B_GP	MOD	4	idtext0028	avec	#####	spk2	35.04	35.19	0.01	_
20091112_RATP_SCD_0243	7	10	des	NULL	det	NULL	I_GP	DET	11	idtext0028	des	###p##i	spk2	35.2	35.29	0.01	_
20091112_RATP_SCD_0243	7	11	cartouches	NULL	nc	NULL	I_GP	OBJ	9	idtext0028	cartouche	###p##	spk2	35.3	35.89	0.01	_
20091112_RATP_SCD_0243	7	12	numéro	NULL	nc	NULL	B_GN	MOD	11	idtext0028	numéro	##m#s##	spk2	35.9	36.25	0.01	_
20091112_RATP_SCD_0243	7	13	quinze	NULL	nc	NULL	I_GN	MOD	12	idtext0028	quinze	##m###	spk2	36.26	36.62	0.01	_
20091112_RATP_SCD_0243	7	14	et	NULL	coo	NULL	B_NULL	COORD	13	idtext0028	et	#####	spk2	36.63	36.68	0.01	_
20091112_RATP_SCD_0243	7	15	dix-sept	NULL	nc	NULL	B_GN	DEP_COORD	14	idtext0029	dix-sept	#####	spk2	36.69	37.52	0.01	_
20091112_RATP_SCD_0243	7	16	de	NULL	prep	NULL	B_GP	DEP	15	idtext0029	de	#####	spk2	37.53	37.74	0.01	_
20091112_RATP_SCD_0243	7	17	HP	NULL	np	B_PRD	I_GP	OBJ	16	idtext0030	HP	#####	spk2	37.75	38.16	0.01	//
20091112_RATP_SCD_0243	7	18	la	NULL	det	NULL	B_GN	DET	19	idtext0031	le	##m#s##d	spk2	38.17	38.28	0.01	_
20091112_RATP_SCD_0243	7	19	marque	NULL	nc	NULL	I_GN	P_OBJ_LOC	16	idtext0031	marque	##f#s##	spk2	38.29	38.57	0.01	_
20091112_RATP_SCD_0243	7	20	HP	NULL	np	B_PRD	I_GN	MOD	19	idtext0032	HP	#####	spk2	38.58	39.04	?	_

20091112_RATP_SCD_0243	8	1	d'accord	NULL	adv	NULL	B_GADV	NOLINK	0	idtext0033	d'accord	#####	spk1	39.08	39.43	0.28	_
20091112_RATP_SCD_0243	8	2	un	NULL	det	NULL	B_GN	DET	3	idtext0034	un	##m#s##i	spk1	39.71	39.89	0.01	_
20091112_RATP_SCD_0243	8	3	instant	NULL	nc	NULL	I_GN	ROOT	0	idtext0034	instant	##m#s##	spk1	39.9	40.27	0.01	_
20091112_RATP_SCD_0243	8	4	s'il+vous+plaît	NULL	adv	NULL	B_GADV	NOLINK	0	idtext0034	s'il+vous+plaît	#####	spk1	40.28	40.94	?	//

20091112_RATP_SCD_0243	9	1	merci	NULL	adv	NULL	B_GADV	NOLINK	0	idtext0035	merci	#####	spk2	41.13	41.69	?	//

20091112_RATP_SCD_0243	10	1	vous	NULL	clo	NULL	B_GN	NOLINK	0	idtext0036	cln	#2##p##	spk1	140.0	140.05	0.01	_
20091112_RATP_SCD_0243	10	2	plaît	NULL	v	NULL	B_GVf	ROOT	0	idtext0036	plaire	P#3##s##	spk1	140.06	140.88	0.01	_
20091112_RATP_SCD_0243	10	3	ça	NULL	pro	NULL	B_GN	OBJ	2	idtext0036	ça	#####	spk1	140.89	141.12	0.01	_
20091112_RATP_SCD_0243	10	4	n'	NULL	clneg	NULL	B_GVfn	MOD	5	idtext0036	n'	#####	spk1	141.13	141.15	0.01	_
20091112_RATP_SCD_0243	10	5	a	NULL	v	NULL	I_GVfn	AUX	7	idtext0036	avoir	P#3##s##	spk1	141.16	141.22	0.01	_
20091112_RATP_SCD_0243	10	6	pas	NULL	advneg	NULL	I_GVfn	MOD	5	idtext0036	pas	#####	spk1	141.23	141.3	0.01	_
20091112_RATP_SCD_0243	10	7	été	NULL	vppart	NULL	I_GVfn	AUX	9	idtext0036	être	K#####	spk1	141.31	141.39	0.01	_
20091112_RATP_SCD_0243	10	8	re()	DISF_T	tronc	NULL	NULL	NOLINK	0	idtext0036	re()	#####	spk1	141.4	141.62	0.01	_
20091112_RATP_SCD_0243	10	9	retrouvé	NULL	vppart	NULL	I_GVfn	ATO	3	idtext0036	retrouver	K##m#s##	spk1	141.63	141.82	0.01	_
20091112_RATP_SCD_0243	10	10	hein	DISF_M	pres	NULL	NULL	NOLINK	0	idtext0036	hein	#####	spk1	141.83	141.96	?	//

20091112_RATP_SCD_0243	11	1	comment	NULL	adv	NULL	B_GADV	NOLINK	0	idtext0037	comment	#####	spk2	142.23	142.58	?	//

20091112_RATP_SCD_0243	12	1	j'	NULL	cln	NULL	B_GN	SUJ	3	idtext0038	cln	#1##s##	spk1	142.62	142.74	0.01	_
20091112_RATP_SCD_0243	12	2	ai	NULL	v	NULL	B_GVf	AUX	3	idtext0038	avoir	P#1##s##	spk1	142.75	142.8	0.01	_
20091112_RATP_SCD_0243	12	3	fait	NULL	vppart	NULL	I_GVf	ROOT	0	idtext0038	faire	P#3##s##	spk1	142.81	142.93	0.01	_
20091112_RATP_SCD_0243	12	4	une	NULL	det	NULL	B_GN	DET	5	idtext0038	un	##f#s##i	spk1	142.94	143.01	0.01	_
20091112_RATP_SCD_0243	12	5	recherche	NULL	nc	NULL	I_GN	OBJ	3	idtext0038	recherche	##f#s##	spk1	143.02	143.39	0.01	_
20091112_RATP_SCD_0243	12	6	générale	NULL	adj	NULL	B_GN	MOD	5	idtext0038	général	##f#s##	spk1	143.4	143.95	0.01	//
20091112_RATP_SCD_0243	12	7	ça	NULL	pro	NULL	I_GN	SUJ	12	idtext0038	ça	#####	spk1	143.96	144.05	0.01	_
20091112_RATP_SCD_0243	12	8	n'	NULL	clneg	NULL	B_GVfn	MOD	9	idtext0038	n'	#####	spk1	144.06	144.1	0.01	_
20091112_RATP_SCD_0243	12	9	a	NULL	v	NULL	I_GVfn	AUX	11	idtext0038	avoir	P#3##s##	spk1	144.11	144.16	0.01	_
20091112_RATP_SCD_0243	12	10	pas	NULL	advneg	NULL	I_GVfn	MOD	9	idtext0038	pas	#####	spk1	144.17	144.33	0.01	_
20091112_RATP_SCD_0243	12	11	été	NULL	vppart	NULL	I_GVfn	AUX	12	idtext0038	être	K#####	spk1	144.34	144.57	0.01	_
20091112_RATP_SCD_0243	12	12	retrouvé	NULL	vppart	NULL	I_GVfn	ROOT	0	idtext0038	retrouver	K##m#s##	spk1	144.58	145.38	?	//

20091112_RATP_SCD_0243	13	1	ouais	NULL	adv	NULL	B_GADV	NOLINK	0	idtext0039	ouais	#####	spk2	145.68	145.78	0.01	_
20091112_RATP_SCD_0243	13	2	ben	DISF_M	pres	NULL	NULL	NOLINK	0	idtext0039	ben	#####	spk2	145.79	145.93	0.01	_
20091112_RATP_SCD_0243	13	3	quelqu'un	NULL	pro	NULL	B_GN	SUJ	5	idtext0039	quelqu'un	#####	spk2	145.94	146.14	0.01	_
20091112_RATP_SCD_0243	13	4	a	NULL	v	NULL	B_GVf	AUX	5	idtext0039	avoir	P#3##s##	spk2	146.15	146.17	0.01	_
20091112_RATP_SCD_0243	13	5	dû	NULL	vppart	NULL	I_GVf	ROOT	0	idtext0039	devoir	K##m#s##	spk2	146.18	146.29	0.01	_
20091112_RATP_SCD_0243	13	6	les	DISF_R	clo	NULL	NULL	NOLINK	0	idtext0039	cla	#3##p##	spk2	146.3	146.63	0.01	_
20091112_RATP_SCD_0243	13	7	les	NULL	clo	NULL	B_GN	OBJ	8	idtext0039	cla	#3##p##	spk2	146.64	146.79	0.01	_
20091112_RATP_SCD_0243	13	8	garder	NULL	vinf	NULL	B_GVi	OBJ	5	idtext0039	garder	W#####	spk2	146.8	147.12	0.01	_
20091112_RATP_SCD_0243	13	9	quoi	DISF_M	pres	NULL	NULL	NOLINK	0	idtext0039	quoi	#####	spk2	147.13	147.34	0.05	_
20091112_RATP_SCD_0243	13	10	carrément	NULL	adv	NULL	B_GADV	NOLINK	0	idtext0040	carrément	#####	spk2	147.39	148.15	?	_

20091112_RATP_SCD_0243	14	1	pas	NULL	advneg	NULL	B_NULL	NOLINK	0	idtext0041	pas	#####	spk1	148.2	148.3	0.01	_
20091112_RATP_SCD_0243	14	2	tout+à+fait	NULL	adv	NULL	B_GADV	MOD	3	idtext0041	tout+à+fait	#####	spk1	148.31	148.8	0.01	_
20091112_RATP_SCD_0243	14	3	oui	NULL	adv	NULL	I_GADV	ROOT	0	idtext0041	oui	#####	spk1	148.81	148.86	0.01	_
20091112_RATP_SCD_0243	14	4	il	NULL	cln	NULL	B_GN	SUJ_IMP	6	idtext0041	cln	#3#m#s##	spk1	148.87	148.92	0.01	_
20091112_RATP_SCD_0243	14	5	y	NULL	clo	NULL	B_GN	AFF	6	idtext0041	y	#####	spk1	148.93	148.95	0.01	_
20091112_RATP_SCD_0243	14	6	a	NULL	v	NULL	B_GVf	ROOT	0	idtext0041	avoir	P#3##s##	spk1	148.96	148.99	0.01	_
20091112_RATP_SCD_0243	14	7	des	NULL	det	NULL	B_GN	DET	8	idtext0041	des	###p##i	spk1	149.0	149.08	0.01	_
20091112_RATP_SCD_0243	14	8	chances	NULL	nc	NULL	I_GN	OBJ	6	idtext0041	chance	##f#p##	spk1	149.09	149.48	?	//

20091112_RATP_SCD_0243	15	1	ça	NULL	pro	NULL	B_GN	NOLINK	0	idtext0042	ça	#####	spk2	149.08	149.48	?	_

20091112_RATP_SCD_0243	16	1	c'	NULL	cln	NULL	B_GN	SUJ_IMP	2	idtext0043	ce	###s##	spk2	149.52	149.54	0.01	_
20091112_RATP_SCD_0243	16	2	est	NULL	v	NULL	B_GVf	ROOT	0	idtext0043	être	P#3##s##	spk2	149.55	149.58	0.01	_
20091112_RATP_SCD_0243	16	3	clair	NULL	adj	NULL	B_GADJ	ATS	2	idtext0043	clair	##m#s##	spk2	149.59	149.85	0.01	//
20091112_RATP_SCD_0243	16	4	que	NULL	csu	NULL	B_NULL	OBJ	3	idtext0043	que	#####	spk2	149.86	149.97	0.01	_
20091112_RATP_SCD_0243	16	5	les	NULL	det	NULL	B_GN	DET	6	idtext0043	le	###p##d	spk2	149.98	150.16	0.01	_
20091112_RATP_SCD_0243	16	6	gens	NULL	nc	NULL	I_GN	SUJ	7	idtext0043	gens	##m#p##	spk2	150.17	150.39	0.01	_
20091112_RATP_SCD_0243	16	7	sont	NULL	v	NULL	B_GVfn	OBJ	4	idtext0043	être	P#3##p##	spk2	150.4	150.55	0.01	_
20091112_RATP_SCD_0243	16	8	pas	NULL	advneg	NULL	I_GVfn	MOD	7	idtext0043	pas	#####	spk2	150.56	150.69	0.01	_
20091112_RATP_SCD_0243	16	9	tellement	NULL	adv	NULL	B_GADV	MOD	7	idtext0043	tellement	#####	spk2	150.7	151.17	0.01	_
20091112_RATP_SCD_0243	16	10	euh	DISF_M	pres	NULL	NULL	NOLINK	0	idtext0043	euh	#####	spk2	151.18	151.61	?	//

20091112_RATP_SCD_0243	17	1	on	NULL	cln	NULL	B_GN	SUJ	2	idtext0044	cln	#3##s##	spk1	151.69	151.79	0.01	_
20091112_RATP_SCD_0243	17	2	trouve	NULL	v	NULL	B_GVf	ROOT	0	idtext0044	trouver	PS#13##s##	spk1	151.8	152.01	0.01	_
20091112_RATP_SCD_0243	17	3	de	NULL	det	NULL	B_GN	DET	4	idtext0044	de	###p##i	spk1	152.02	152.11	0.01	_
20091112_RATP_SCD_0243	17	4	tout	NULL	pro	NULL	I_GN	OBJ	2	idtext0044	tout	#####	spk1	152.12	152.27	0.01	_
20091112_RATP_SCD_0243	17	5	vous	GREF	cln	NULL	B_GN	SUJ	6	idtext0044	cln	#2##p##	spk1	152.28	152.34	0.01	_
20091112_RATP_SCD_0243	17	6	savez	GREF	v	NULL	B_GVf	ROOT	0	idtext0044	savoir	P#2##p##	spk1	152.35	152.62	0.01	_
20091112_RATP_SCD_0243	17	7	alors	NULL	adv	NULL	B_GADV	MOD	8	idtext0044	alors	#####	spk1	152.63	152.74	0.01	_
20091112_RATP_SCD_0243	17	8	là	NULL	adv	NULL	I_GADV	MOD	9	idtext0044	là	#####	spk1	152.75	153.07	0.01	_
20091112_RATP_SCD_0243	17	9	dessus	NULL	adv	NULL	I_GADV	NOLINK	0	idtext0044	dessus	#####	spk1	153.08	153.38	?	_

20091112_RATP_SCD_0243	18	1	ah+bon	DISF_M	pres	NULL	NULL	NOLINK	0	idtext0045	ah+bon	#####	spk2	153.47	153.83	?	//

20091112_RATP_SCD_0243	19	1	ah	DISF_M	pres	NULL	NULL	NOLINK	0	idtext0046	ah	#####	spk1	153.95	153.98	0.01	_
20091112_RATP_SCD_0243	19	2	oui	DISF_R	adv	NULL	NULL	NOLINK	0	idtext0046	oui	#####	spk1	153.99	154.13	0.01	_
20091112_RATP_SCD_0243	19	3	oui	NULL	adv	NULL	B_GADV	NOLINK	0	idtext0046	oui	#####	spk1	154.14	154.27	0.01	_
20091112_RATP_SCD_0243	19	4	on	NULL	cln	NULL	B_GN	SUJ_IMP	5	idtext0046	cln	#3##s##	spk1	154.28	154.32	0.01	_
20091112_RATP_SCD_0243	19	5	retrouve	NULL	v	NULL	B_GVf	ROOT	0	idtext0046	retrouver	PS#13##s##	spk1	154.33	154.54	0.01	_
20091112_RATP_SCD_0243	19	6	des	NULL	det	NULL	B_GN	DET	7	idtext0046	des	###p##i	spk1	154.55	154.67	0.01	_
20091112_RATP_SCD_0243	19	7	choses	NULL	nc	NULL	I_GN	OBJ	5	idtext0046	chose	##f#p##	spk1	154.68	154.98	0.01	_
20091112_RATP_SCD_0243	19	8	et	NULL	coo	NULL	B_NULL	COORD	5	idtext0046	et	#####	spk1	154.99	155.1	0.01	_
20091112_RATP_SCD_0243	19	9	on	DISF_R	cln	NULL	NULL	NOLINK	0	idtext0046	cln	#3##s##	spk1	155.11	155.23	0.01	_
20091112_RATP_SCD_0243	19	10	va	DISF_R	v	NULL	NULL	NOLINK	0	idtext0046	aller	P#3##s##	spk1	155.24	155.33	0.01	_
20091112_RATP_SCD_0243	19	11	on	NULL	cln	NULL	B_GN	SUJ_IMP	12	idtext0046	cln	#3##s##	spk1	155.34	155.41	0.01	_
20091112_RATP_SCD_0243	19	12	va	NULL	v	NULL	B_GVf	DEP_COORD	8	idtext0046	aller	P#3##s##	spk1	155.42	155.49	0.01	_
20091112_RATP_SCD_0243	19	13	retrouver	NULL	vinf	NULL	I_GVf	OBJ	12	idtext0046	retrouver	W#####	spk1	155.5	155.71	0.01	_
20091112_RATP_SCD_0243	19	14	des	NULL	det	NULL	B_GN	DET	15	idtext0046	des	###p##i	spk1	155.72	155.85	0.01	_
20091112_RATP_SCD_0243	19	15	ordinateurs	NULL	nc	NULL	I_GN	OBJ	13	idtext0046	ordinateur	##m#p##	spk1	155.86	156.29	0.01	_
20091112_RATP_SCD_0243	19	16	portables	NULL	adj	NULL	I_GN	MOD	15	idtext0046	portable	###p##	spk1	156.3	156.6	0.01	//
20091112_RATP_SCD_0243	19	17	vous	NULL	clo	NULL	B_GN	P_OBJ_LOC	12	idtext0046	cln	#2##p##	spk1	156.61	156.69	?	_

20091112_RATP_SCD_0243	20	1	savez	NULL	v	NULL	B_GVf	NOLINK	0	idtext0047	savoir	P#2##p##	spk1	156.78	157.02	0.01	_
20091112_RATP_SCD_0243	20	2	alors	NULL	adv	NULL	B_GADV	MOD	5	idtext0047	alors	#####	spk1	157.03	157.55	0.01	_
20091112_RATP_SCD_0243	20	3	hein	DISF_M	pres	NULL	NULL	NOLINK	0	idtext0047	hein	#####	spk1	157.56	157.65	0.01	_
20091112_RATP_SCD_0243	20	4	ah	DISF_M	pres	NULL	NULL	NOLINK	0	idtext0047	ah	#####	spk1	157.66	157.72	0.01	_
20091112_RATP_SCD_0243	20	5	oui	NULL	adv	NULL	I_GADV	MOD	6	idtext0047	oui	#####	spk1	157.73	157.85	0.01	_
20091112_RATP_SCD_0243	20	6	non	NULL	adv	NULL	I_GADV	ROOT	0	idtext0047	non	#####	spk1	157.86	158.3	0.01	_
20091112_RATP_SCD_0243	20	7	il	NULL	cln	NULL	B_GN	SUJ_IMP	9	idtext0047	cln	#3#m#s##	spk1	158.31	158.36	0.01	_
20091112_RATP_SCD_0243	20	8	y	NULL	clo	NULL	B_GN	AFF	9	idtext0047	y	#####	spk1	158.37	158.44	0.01	_
20091112_RATP_SCD_0243	20	9	a	NULL	v	NULL	B_GVf	NOLINK	0	idtext0047	avoir	P#3##s##	spk1	158.45	158.49	?	//

20091112_RATP_SCD_0243	21	1	ah	DISF_M	pres	NULL	NULL	NOLINK	0	idtext0048	ah	#####	spk2	156.98	157.3	0.01	_
20091112_RATP_SCD_0243	21	2	carrément	NULL	adv	NULL	B_GADV	NOLINK	0	idtext0048	carrément	#####	spk2	157.31	157.94	0.01	_
20091112_RATP_SCD_0243	21	3	ouah	DISF_M	pres	NULL	NULL	NOLINK	0	idtext0048	ouah	#####	spk2	157.95	158.17	0.01	_
20091112_RATP_SCD_0243	21	4	ouah	DISF_M	pres	NULL	NULL	NOLINK	0	idtext0048	ouah	#####	spk2	158.18	158.49	?	//

20091112_RATP_SCD_0243	22	1	pas	NULL	advneg	NULL	B_NULL	NOLINK	0	idtext0049	pas	#####	spk1	158.53	158.62	0.01	_
20091112_RATP_SCD_0243	22	2	de	NULL	det	NULL	B_GN	DET	3	idtext0049	de	###p##i	spk1	158.63	158.72	0.01	_
20091112_RATP_SCD_0243	22	3	règle	NULL	nc	NULL	I_GN	ROOT	0	idtext0049	règle	##f#s##	spk1	158.73	158.92	0.01	//
20091112_RATP_SCD_0243	22	4	hein	DISF_M	pres	NULL	NULL	NOLINK	0	idtext0049	hein	#####	spk1	158.93	158.99	0.01	_
20091112_RATP_SCD_0243	22	5	il	NULL	cln	NULL	B_GN	SUJ_IMP	7	idtext0049	cln	#3#m#s##	spk1	159.0	159.05	0.01	_
20091112_RATP_SCD_0243	22	6	y	NULL	clo	NULL	B_GN	AFF	7	idtext0049	y	#####	spk1	159.06	159.08	0.01	_
20091112_RATP_SCD_0243	22	7	a	NULL	v	NULL	B_GVfn	ROOT	0	idtext0049	avoir	P#3##s##	spk1	159.09	159.11	0.01	_
20091112_RATP_SCD_0243	22	8	pas	NULL	advneg	NULL	I_GVfn	MOD	7	idtext0049	pas	#####	spk1	159.12	159.25	0.01	_
20091112_RATP_SCD_0243	22	9	de	NULL	det	NULL	B_GN	DET	10	idtext0049	de	###p##i	spk1	159.26	159.33	0.01	_
20091112_RATP_SCD_0243	22	10	règle	NULL	nc	NULL	I_GN	OBJ	7	idtext0049	règle	##f#s##	spk1	159.34	159.55	0.01	_
20091112_RATP_SCD_0243	22	11	hein	DISF_M	pres	NULL	NULL	NOLINK	0	idtext0049	hein	#####	spk1	159.56	159.67	?	//

20091112_RATP_SCD_0243	23	1	non	NULL	adv	NULL	B_GADV	MOD	2	idtext0050	non	#####	spk1	160.04	160.16	0.01	_
20091112_RATP_SCD_0243	23	2	là	NULL	adv	NULL	I_GADV	ROOT	0	idtext0050	là	#####	spk1	160.17	160.22	0.01	_
20091112_RATP_SCD_0243	23	3	il	NULL	cln	NULL	B_GN	SUJ_IMP	5	idtext0050	cln	#3#m#s##	spk1	160.23	160.28	0.01	_
20091112_RATP_SCD_0243	23	4	y	NULL	clo	NULL	B_GN	AFF	5	idtext0050	y	#####	spk1	160.29	160.32	0.01	_
20091112_RATP_SCD_0243	23	5	a	NULL	v	NULL	B_GVf	ROOT	0	idtext0050	avoir	P#3##s##	spk1	160.33	160.36	0.01	_
20091112_RATP_SCD_0243	23	6	pas	NULL	advneg	NULL	B_NULL	NOLINK	0	idtext0050	pas	#####	spk1	160.37	160.72	0.01	_
20091112_RATP_SCD_0243	23	7	il	NULL	cln	NULL	B_GN	SUJ_IMP	9	idtext0050	cln	#3#m#s##	spk1	160.73	160.78	0.01	_
20091112_RATP_SCD_0243	23	8	y	NULL	clo	NULL	B_GN	AFF	9	idtext0050	y	#####	spk1	160.79	160.81	0.01	_
20091112_RATP_SCD_0243	23	9	a	NULL	v	NULL	B_GVf	OBJ	5	idtext0050	avoir	P#3##s##	spk1	160.82	160.91	0.01	_
20091112_RATP_SCD_0243	23	10	pas	NULL	advneg	NULL	B_NULL	MOD	9	idtext0050	pas	#####	spk1	160.92	161.04	0.01	_
20091112_RATP_SCD_0243	23	11	là	DISF_R	adv	NULL	NULL	NOLINK	0	idtext0050	là	#####	spk1	161.05	161.19	0.01	_
20091112_RATP_SCD_0243	23	12	là	NULL	adv	NULL	B_GADV	NOLINK	0	idtext0050	là	#####	spk1	161.2	161.55	?	_

20091112_RATP_SCD_0243	24	1	ouah	DISF_M	pres	NULL	NULL	NOLINK	0	idtext0051	ouah	#####	spk2	160.37	161.55	?	//

20091112_RATP_SCD_0243	25	1	parce+qu'	NULL	csu	NULL	B_NULL	ROOT	0	idtext0052	parce+qu'	#####	spk2	161.75	161.94	0.01	_
20091112_RATP_SCD_0243	25	2	après	NULL	adv	NULL	B_GADV	NOLINK	0	idtext0052	après	#####	spk2	161.95	162.11	0.01	_
20091112_RATP_SCD_0243	25	3	je	DISF_R	cln	NULL	NULL	NOLINK	0	idtext0052	cln	#1##s##	spk2	162.12	162.51	0.01	_
20091112_RATP_SCD_0243	25	4	s()	DISF_T	tronc	NULL	NULL	NOLINK	0	idtext0052	s()	#####	spk2	162.52	162.54	0.01	_
20091112_RATP_SCD_0243	25	5	euh	DISF_M	pres	NULL	NULL	NOLINK	0	idtext0052	euh	#####	spk2	162.55	162.58	0.01	_
20091112_RATP_SCD_0243	25	6	j'	NULL	cln	NULL	B_GN	SUJ	8	idtext0052	cln	#1##s##	spk2	162.59	162.63	0.01	_
20091112_RATP_SCD_0243	25	7	ai	NULL	v	NULL	B_GVf	AUX	8	idtext0052	avoir	P#1##s##	spk2	162.64	162.68	0.01	_
20091112_RATP_SCD_0243	25	8	changé	NULL	vppart	NULL	I_GVf	OBJ	1	idtext0052	changer	K##m#s##	spk2	162.69	163.06	0.01	_
20091112_RATP_SCD_0243	25	9	à	DISF_R	prep	NULL	NULL	NOLINK	0	idtext0052	à	#####	spk2	163.07	163.18	0.01	_
20091112_RATP_SCD_0243	25	10	à	NULL	prep	NULL	B_GP	P_OBJ_LOC	8	idtext0052	à	#####	spk2	163.19	163.33	0.01	_
20091112_RATP_SCD_0243	25	11	Palais+Royal	NULL	np	B_M	I_GP	OBJ	10	idtext0053	Palais+Royal	#####	spk2	163.34	163.87	0.01	_
20091112_RATP_SCD_0243	25	12	et	NULL	coo	NULL	B_NULL	COORD	8	idtext0054	et	#####	spk2	163.88	163.92	0.01	_
20091112_RATP_SCD_0243	25	13	après	NULL	adv	NULL	B_GADV	NOLINK	0	idtext0054	après	#####	spk2	163.93	164.1	0.01	_
20091112_RATP_SCD_0243	25	14	je	NULL	cln	NULL	B_GN	SUJ	16	idtext0054	cln	#1##s##	spk2	164.11	164.17	0.01	_
20091112_RATP_SCD_0243	25	15	suis	NULL	v	NULL	B_GVf	AUX	16	idtext0054	être	P#1##s##	spk2	164.18	164.27	0.01	_
20091112_RATP_SCD_0243	25	16	descendue	NULL	vppart	NULL	I_GVf	DEP_COORD	12	idtext0054	descendre	K##f#s##	spk2	164.28	164.63	0.01	_
20091112_RATP_SCD_0243	25	17	à	NULL	prep	NULL	B_GP	P_OBJ_LOC	16	idtext0054	à	#####	spk2	164.64	164.67	0.01	_
20091112_RATP_SCD_0243	25	18	Tolbiac	NULL	nc	B_A	I_GP	OBJ	17	idtext0055	Tolbiac	#####	spk2	164.68	165.17	0.01	_
20091112_RATP_SCD_0243	25	19	enfin	NULL	adv	NULL	B_GADV	NOLINK	0	idtext0056	enfin	#####	spk2	165.18	165.34	0.01	_
20091112_RATP_SCD_0243	25	20	donc	NULL	coo	NULL	B_NULL	COORD	16	idtext0056	donc	#####	spk2	165.35	165.53	0.01	_
20091112_RATP_SCD_0243	25	21	je	NULL	cln	NULL	B_GN	SUJ	24	idtext0056	cln	#1##s##	spk2	165.54	165.64	0.01	_
20091112_RATP_SCD_0243	25	22	me	NULL	clr	NULL	B_GVf	AFF	24	idtext0056	cla	#1##s##	spk2	165.65	165.67	0.01	_
20091112_RATP_SCD_0243	25	23	suis	NULL	v	NULL	I_GVf	AUX	24	idtext0056	être	P#1##s##	spk2	165.68	165.79	0.01	_
20091112_RATP_SCD_0243	25	24	dit	NULL	vppart	NULL	I_GVf	DEP_COORD	20	idtext0056	dire	J#3##s##	spk2	165.8	165.85	0.01	_
20091112_RATP_SCD_0243	25	25	c'	NULL	cln	NULL	B_GN	SUJ_IMP	26	idtext0056	ce	###s##	spk2	165.86	165.95	0.01	_
20091112_RATP_SCD_0243	25	26	est	NULL	v	NULL	B_GVf	ROOT	0	idtext0056	être	P#3##s##	spk2	165.96	165.99	0.01	_
20091112_RATP_SCD_0243	25	27	l'	NULL	det	NULL	B_GN	DET	28	idtext0056	le	###s##d	spk2	166.0	166.07	0.01	_
20091112_RATP_SCD_0243	25	28	un	NULL	pro	NULL	I_GN	ATS	26	idtext0056	un	#####	spk2	166.08	166.17	0.01	_
20091112_RATP_SCD_0243	25	29	ou	NULL	coo	NULL	B_NULL	COORD	28	idtext0056	ou	#####	spk2	166.18	166.35	0.01	_
20091112_RATP_SCD_0243	25	30	l'autre	NULL	pro	NULL	B_GN	DEP_COORD	29	idtext0056	l'autre	#####	spk2	166.36	166.56	0.01	_
20091112_RATP_SCD_0243	25	31	ou+alors	NULL	coo	NULL	B_NULL	COORD	26	idtext0056	ou+alors	#####	spk2	166.57	166.9	0.01	_
20091112_RATP_SCD_0243	25	32	je	NULL	cln	NULL	B_GN	SUJ	35	idtext0056	cln	#1##s##	spk2	166.91	167.01	0.01	_
20091112_RATP_SCD_0243	25	33	l'	NULL	clo	NULL	B_GN	OBJ	35	idtext0056	cla	#3##s##	spk2	167.02	167.05	0.01	_
20091112_RATP_SCD_0243	25	34	ai	NULL	v	NULL	B_GVf	AUX	35	idtext0056	avoir	P#1##s##	spk2	167.06	167.08	0.01	_
20091112_RATP_SCD_0243	25	35	oublié	NULL	vppart	NULL	I_GVf	DEP_COORD	31	idtext0056	oublier	K##m#s##	spk2	167.09	167.45	0.01	_
20091112_RATP_SCD_0243	25	36	carrément	NULL	adv	NULL	B_GADJ	MOD	37	idtext0056	carrément	#####	spk2	167.46	167.88	0.01	_
20091112_RATP_SCD_0243	25	37	là	NULL	adv	NULL	I_GADJ	MOD	38	idtext0056	là	#####	spk2	167.89	168.0	0.01	_
20091112_RATP_SCD_0243	25	38	bas	NULL	adj	NULL	I_GADJ	ATS	35	idtext0056	bas	##m###	spk2	168.01	168.77	0.01	_
20091112_RATP_SCD_0243	25	39	euh	DISF_M	pres	NULL	NULL	NOLINK	0	idtext0056	euh	#####	spk2	168.78	169.03	0.37	_
20091112_RATP_SCD_0243	25	40	à	NULL	prep	NULL	B_GP	ROOT	0	idtext0057	à	#####	spk2	169.4	169.43	0.01	_
20091112_RATP_SCD_0243	25	41	la	NULL	det	NULL	I_GP	DET	42	idtext0057	le	##m#s##d	spk2	169.44	169.64	0.01	_
20091112_RATP_SCD_0243	25	42	FNAC	NULL	np	B_ORG	I_GP	OBJ	40	idtext0058	FNAC	#####	spk2	169.65	169.93	0.01	_
20091112_RATP_SCD_0243	25	43	mais	NULL	coo	NULL	B_NULL	COORD	40	idtext0059	mais	#####	spk2	169.94	170.07	0.01	_
20091112_RATP_SCD_0243	25	44	il	NULL	cln	NULL	B_GN	SUJ_IMP	46	idtext0059	cln	#3#m#s##	spk2	170.08	170.16	0.01	_
20091112_RATP_SCD_0243	25	45	me	NULL	clo	NULL	B_GN	A_OBJ	46	idtext0059	cla	#1##s##	spk2	170.17	170.22	0.01	_
20091112_RATP_SCD_0243	25	46	semble	NULL	v	NULL	B_GVfn	DEP_COORD	43	idtext0059	sembler	PS#13##s##	spk2	170.23	170.54	0.01	_
20091112_RATP_SCD_0243	25	47	pas+du+tout	NULL	advneg	NULL	I_GVfn	MOD	46	idtext0059	pas+du+tout	#####	spk2	170.55	171.05	0.01	_
20091112_RATP_SCD_0243	25	48	quoi	DISF_M	pres	NULL	NULL	NOLINK	0	idtext0059	quoi	#####	spk2	171.06	171.4	0.39	_
20091112_RATP_SCD_0243	25	49	je	NULL	cln	NULL	B_GN	SUJ	50	idtext0060	cln	#1##s##	spk2	171.79	171.91	0.01	_
20091112_RATP_SCD_0243	25	50	vais	NULL	v	NULL	B_GVf	ROOT	0	idtext0060	aller	P#1##s##	spk2	171.92	171.98	0.01	_
20091112_RATP_SCD_0243	25	51	retourner	NULL	vinf	NULL	I_GVf	OBJ	50	idtext0060	retourner	W#####	spk2	171.99	172.32	0.01	_
20091112_RATP_SCD_0243	25	52	les	NULL	clo	NULL	B_GN	OBJ	53	idtext0060	cla	#3##p##	spk2	172.33	172.42	0.01	_
20091112_RATP_SCD_0243	25	53	voir	NULL	vinf	NULL	B_GVi	OBJ	50	idtext0060	voir	W#####	spk2	172.43	172.66	0.01	_
20091112_RATP_SCD_0243	25	54	en+fait	GREF	adv	NULL	B_GADV	NOLINK	0	idtext0060	en+fait	#####	spk2	172.67	172.92	0.10	_
20091112_RATP_SCD_0243	25	55	c'	NULL	cln	NULL	B_GN	SUJ_IMP	56	idtext0061	ce	###s##	spk2	173.02	173.05	0.01	_
20091112_RATP_SCD_0243	25	56	est	NULL	v	NULL	B_GVf	ROOT	0	idtext0061	être	P#3##s##	spk2	173.06	173.13	0.01	_
20091112_RATP_SCD_0243	25	57	clair	NULL	adj	NULL	B_GADJ	ATS	56	idtext0061	clair	##m#s##	spk2	173.14	173.57	0.01	//
20091112_RATP_SCD_0243	25	58	quand	NULL	csu	NULL	B_NULL	MOD	56	idtext0061	quand	#####	spk2	173.58	173.86	0.01	_
20091112_RATP_SCD_0243	25	59	vous	NULL	cln	NULL	B_GN	SUJ	60	idtext0061	cln	#2##p##	spk2	173.87	174.04	0.01	_
20091112_RATP_SCD_0243	25	60	dites	NULL	v	NULL	B_GVf	OBJ	58	idtext0061	dire	P#2##p##	spk2	174.05	174.22	0.01	_
20091112_RATP_SCD_0243	25	61	les	NULL	det	NULL	B_GN	DET	62	idtext0061	le	###p##d	spk2	174.23	174.31	0.01	_
20091112_RATP_SCD_0243	25	62	gens	NULL	nc	NULL	I_GN	OBJ	60	idtext0061	gens	##m#p##	spk2	174.32	174.57	0.01	_
20091112_RATP_SCD_0243	25	63	euh	DISF_M	pres	NULL	NULL	NOLINK	0	idtext0061	euh	#####	spk2	174.58	174.69	0.80	_
20091112_RATP_SCD_0243	25	64	ou	NULL	coo	NULL	B_NULL	ROOT	0	idtext0062	ou	#####	spk2	175.49	175.59	0.01	_
20091112_RATP_SCD_0243	25	65	ils	NULL	cln	NULL	B_GN	SUJ	67	idtext0062	cln	#3#m#p##	spk2	175.6	175.72	0.01	_
20091112_RATP_SCD_0243	25	66	se	NULL	clr	NULL	B_GVf	AFF	67	idtext0062	se	#####	spk2	175.73	175.82	0.01	_
20091112_RATP_SCD_0243	25	67	servent	NULL	v	NULL	I_GVf	DEP_COORD	64	idtext0062	servir	PS#3##p##	spk2	175.83	176.24	0.01	_
20091112_RATP_SCD_0243	25	68	malheureusement	NULL	adv	NULL	B_GADV	MOD	67	idtext0062	malheureusement	#####	spk2	176.25	176.74	0.01	_
20091112_RATP_SCD_0243	25	69	ils	NULL	cln	NULL	B_GN	SUJ	70	idtext0062	cln	#3#m#p##	spk2	176.75	176.84	0.01	_
20091112_RATP_SCD_0243	25	70	font	NULL	v	NULL	B_GVfn	ROOT	0	idtext0062	faire	P#3##p##	spk2	176.85	177.04	0.01	_
20091112_RATP_SCD_0243	25	71	pas	NULL	advneg	NULL	I_GVfn	MOD	70	idtext0062	pas	#####	spk2	177.05	177.16	0.01	_
20091112_RATP_SCD_0243	25	72	de	NULL	prep	NULL	B_NULL	NOLINK	0	idtext0062	de	#####	spk2	177.17	178.17	?	_

20091112_RATP_SCD_0243	26	1	ça	NULL	pro	NULL	B_GN	SUJ_IMP	2	idtext0063	ça	#####	spk1	178.36	178.46	0.01	_
20091112_RATP_SCD_0243	26	2	peut	NULL	v	NULL	B_GVf	ROOT	0	idtext0063	pouvoir	P#3##s##	spk1	178.47	178.6	0.01	_
20091112_RATP_SCD_0243	26	3	arriver	NULL	vinf	NULL	I_GVf	OBJ	2	idtext0063	arriver	W#####	spk1	178.61	178.95	0.01	_
20091112_RATP_SCD_0243	26	4	hein	DISF_M	pres	NULL	NULL	NOLINK	0	idtext0063	hein	#####	spk1	178.96	179.12	?	//

20091112_RATP_SCD_0243	27	1	parce+qu'	NULL	csu	NULL	B_NULL	ROOT	0	idtext0064	parce+qu'	#####	spk1	179.16	179.31	0.01	_
20091112_RATP_SCD_0243	27	2	ils	NULL	cln	NULL	B_GN	SUJ	3	idtext0064	cln	#3#m#p##	spk1	179.32	179.49	0.01	_
20091112_RATP_SCD_0243	27	3	regardent	NULL	v	NULL	B_GVfn	OBJ	1	idtext0064	regarder	PS#3##p##	spk1	179.5	180.27	0.01	_
20091112_RATP_SCD_0243	27	4	pas	NULL	advneg	NULL	I_GVfn	MOD	3	idtext0064	pas	#####	spk1	180.28	180.64	?	_

20091112_RATP_SCD_0243	28	1	s'	NULL	csu	NULL	B_NULL	ROOT	0	idtext0065	se	#3##p##	spk2	179.2	179.28	0.01	_
20091112_RATP_SCD_0243	28	2	ils	NULL	cln	NULL	B_GN	SUJ	3	idtext0065	cln	#3#m#p##	spk2	179.29	179.5	0.01	_
20091112_RATP_SCD_0243	28	3	ont	NULL	v	NULL	B_GVfn	OBJ	1	idtext0065	avoir	P#3##p##	spk2	179.51	179.69	0.01	_
20091112_RATP_SCD_0243	28	4	pas	NULL	advneg	NULL	I_GVfn	MOD	3	idtext0065	pas	#####	spk2	179.7	179.82	0.01	_
20091112_RATP_SCD_0243	28	5	de	NULL	det	NULL	B_GN	DET	6	idtext0065	de	###p##i	spk2	179.83	179.98	0.01	_
20091112_RATP_SCD_0243	28	6	respect	NULL	nc	NULL	I_GN	OBJ	3	idtext0065	respect	##m#s##	spk2	179.99	180.64	?	//

20091112_RATP_SCD_0243	29	1	enfin	NULL	adv	NULL	B_GADV	NOLINK	0	idtext0066	enfin	#####	spk2	180.71	180.87	0.01	_
20091112_RATP_SCD_0243	29	2	ou	NULL	coo	NULL	B_NULL	NOLINK	0	idtext0066	ou	#####	spk2	180.88	181.08	0.01	_
20091112_RATP_SCD_0243	29	3	euh	DISF_M	pres	NULL	NULL	NOLINK	0	idtext0066	euh	#####	spk2	181.09	181.45	0.01	_
20091112_RATP_SCD_0243	29	4	oui	NULL	adv	NULL	B_GADV	NOLINK	0	idtext0066	oui	#####	spk2	181.46	181.85	0.01	_
20091112_RATP_SCD_0243	29	5	ou	NULL	coo	NULL	B_NULL	ROOT	0	idtext0067	ou	#####	spk2	181.86	182.03	0.01	_
20091112_RATP_SCD_0243	29	6	ils	NULL	cln	NULL	B_GN	SUJ	8	idtext0067	cln	#3#m#p##	spk2	182.04	182.18	0.01	_
20091112_RATP_SCD_0243	29	7	le	NULL	clo	NULL	B_GN	OBJ	8	idtext0067	cla	#3#m#s##	spk2	182.19	182.21	0.01	_
20091112_RATP_SCD_0243	29	8	laissent	NULL	v	NULL	B_GVf	DEP_COORD	5	idtext0067	laisser	PS#3##p##	spk2	182.22	182.34	0.01	_
20091112_RATP_SCD_0243	29	9	carrément	NULL	adv	NULL	B_GADV	MOD	8	idtext0067	carrément	#####	spk2	182.35	182.71	0.01	_
20091112_RATP_SCD_0243	29	10	à	NULL	prep	NULL	B_GP	MOD	8	idtext0067	à	#####	spk2	182.72	182.74	0.01	_
20091112_RATP_SCD_0243	29	11	l'	NULL	det	NULL	I_GP	DET	12	idtext0067	le	###s##d	spk2	182.75	182.79	0.01	_
20091112_RATP_SCD_0243	29	12	intérieur	NULL	nc	NULL	I_GP	OBJ	10	idtext0067	intérieur	##m#s##	spk2	182.8	183.32	0.01	_
20091112_RATP_SCD_0243	29	13	ils	NULL	cln	NULL	B_GN	SUJ	14	idtext0067	cln	#3#m#p##	spk2	183.33	183.38	0.01	_
20091112_RATP_SCD_0243	29	14	font	NULL	v	NULL	B_GVf	ROOT	0	idtext0067	faire	P#3##p##	spk2	183.39	183.56	0.01	_
20091112_RATP_SCD_0243	29	15	rien	NULL	pro	NULL	B_GN	OBJ	14	idtext0067	rien	#####	spk2	183.57	183.75	0.01	_
20091112_RATP_SCD_0243	29	16	du+tout	NULL	adv	NULL	B_GADV	MOD	15	idtext0067	du+tout	#####	spk2	183.76	184.02	0.01	_
20091112_RATP_SCD_0243	29	17	quoi	DISF_M	pres	NULL	NULL	NOLINK	0	idtext0067	quoi	#####	spk2	184.03	184.11	0.01	_
20091112_RATP_SCD_0243	29	18	en+fait	GREF	adv	NULL	I_GADV	NOLINK	0	idtext0067	en+fait	#####	spk2	184.12	185.12	?	_

20091112_RATP_SCD_0243	30	1	non	NULL	adv	NULL	B_GADV	NOLINK	0	idtext0068	non	#####	spk1	185.3	185.39	0.01	_
20091112_RATP_SCD_0243	30	2	on	DISF_R	cln	NULL	NULL	NOLINK	0	idtext0068	cln	#3##s##	spk1	185.4	185.42	0.01	_
20091112_RATP_SCD_0243	30	3	n'	DISF_R	clneg	NULL	NULL	NOLINK	0	idtext0068	n'	#####	spk1	185.43	185.49	0.01	_
20091112_RATP_SCD_0243	30	4	a	DISF_R	v	NULL	NULL	NOLINK	0	idtext0068	avoir	P#3##s##	spk1	185.5	185.73	0.01	//
20091112_RATP_SCD_0243	30	5	on	NULL	cln	NULL	B_GN	SUJ	7	idtext0068	cln	#3##s##	spk1	185.74	185.77	0.01	_
20091112_RATP_SCD_0243	30	6	n'	NULL	clneg	NULL	B_GVfn	MOD	7	idtext0068	n'	#####	spk1	185.78	185.84	0.01	_
20091112_RATP_SCD_0243	30	7	a	NULL	v	NULL	I_GVfn	ROOT	0	idtext0068	avoir	P#3##s##	spk1	185.85	185.88	0.01	_
20091112_RATP_SCD_0243	30	8	rien	NULL	pro	NULL	B_GN	OBJ	7	idtext0068	rien	#####	spk1	185.89	186.15	0.01	_
20091112_RATP_SCD_0243	30	9	là	NULL	adv	NULL	B_GADV	MOD	13	idtext0068	là	#####	spk1	186.16	186.22	0.01	_
20091112_RATP_SCD_0243	30	10	hein	DISF_M	pres	NULL	NULL	NOLINK	0	idtext0068	hein	#####	spk1	186.23	186.34	0.01	_
20091112_RATP_SCD_0243	30	11	j'	NULL	cln	NULL	B_GN	SUJ	13	idtext0068	cln	#1##s##	spk1	186.35	186.42	0.01	_
20091112_RATP_SCD_0243	30	12	ai	NULL	v	NULL	B_GVf	AUX	13	idtext0068	avoir	P#1##s##	spk1	186.43	186.48	0.01	_
20091112_RATP_SCD_0243	30	13	vérifié	NULL	vppart	NULL	I_GVf	ROOT	0	idtext0068	vérifier	K##m#s##	spk1	186.49	186.82	0.01	_
20091112_RATP_SCD_0243	30	14	de	NULL	prep	NULL	B_NULL	OBJ	13	idtext0068	de	#####	spk1	186.83	186.93	0.01	_
20091112_RATP_SCD_0243	30	15	partout	NULL	adv	NULL	B_GADV	MOD	13	idtext0068	partout	#####	spk1	186.94	187.29	0.01	_
20091112_RATP_SCD_0243	30	16	hein	DISF_M	pres	NULL	NULL	NOLINK	0	idtext0068	hein	#####	spk1	187.3	187.38	?	//

20091112_RATP_SCD_0243	31	1	très+bien	DISF_R	adv	NULL	NULL	NOLINK	0	idtext0069	très+bien	#####	spk2	185.28	186.48	0.01	_
20091112_RATP_SCD_0243	31	2	très+bien	NULL	adv	NULL	B_GADV	NOLINK	0	idtext0069	très+bien	#####	spk2	186.49	187.38	?	_

20091112_RATP_SCD_0243	32	1	merci	NULL	adv	NULL	B_GADV	NOLINK	0	idtext0070	merci	#####	spk2	187.97	188.61	?	//

20091112_RATP_SCD_0243	33	1	bonne	NULL	adj	NULL	B_GN	MOD	2	idtext0071	bon	##f#s##	spk1	188.65	188.78	0.01	_
20091112_RATP_SCD_0243	33	2	journée	NULL	nc	NULL	I_GN	ROOT	0	idtext0071	journée	##f#s##	spk1	188.79	189.04	0.01	_
20091112_RATP_SCD_0243	33	3	madame	NULL	nc	NULL	B_GN	NOLINK	0	idtext0071	Monsieur	##f#s##	spk1	189.05	189.35	?	//

20091112_RATP_SCD_0243	34	1	au+revoir	NULL	adv	NULL	B_GADV	NOLINK	0	idtext0072	au+revoir	#####	spk1	189.39	190.53	?	//

20091112_RATP_SCD_0243	35	1	vous	NULL	pro	NULL	B_GN	NOLINK	0	idtext0073	vous	#####	spk2	189.52	189.72	0.01	_
20091112_RATP_SCD_0243	35	2	aussi	NULL	adv	NULL	B_GADV	MOD	3	idtext0073	aussi	#####	spk2	189.73	189.91	0.01	_
20091112_RATP_SCD_0243	35	3	au+revoir	NULL	adv	NULL	I_GADV	ROOT	0	idtext0073	au+revoir	#####	spk2	189.92	190.53	?	_

