20091112_RATP_SCD_0741	1	1	NNAAMMEE	NULL	np	B_HU	B_GN	ROOT	0	idtext0000	ANONYM	NULL	spk1	4.45	4.64	0.04	_
20091112_RATP_SCD_0741	1	2	bonjour	NULL	adv	NULL	B_GADV	NOLINK	0	idtext0001	bonjour	#####	spk1	4.68	5.3	?	//

20091112_RATP_SCD_0741	2	1	oui	NULL	adv	NULL	B_GADV	MOD	2	idtext0002	oui	#####	spk2	5.38	5.86	0.01	_
20091112_RATP_SCD_0741	2	2	bonjour	NULL	adv	NULL	I_GADV	ROOT	0	idtext0002	bonjour	#####	spk2	5.87	6.03	0.01	_
20091112_RATP_SCD_0741	2	3	monsieur	NULL	nc	NULL	B_GN	NOLINK	0	idtext0002	Monsieur	##m#s##	spk2	6.04	6.21	0.01	_
20091112_RATP_SCD_0741	2	4	je	NULL	cln	NULL	B_GN	SUJ	5	idtext0003	cln	#1##s##	spk2	6.22	6.36	0.01	_
20091112_RATP_SCD_0741	2	5	voudrais	NULL	v	NULL	B_GVf	ROOT	0	idtext0003	vouloir	C#12##s##	spk2	6.37	6.51	0.01	_
20091112_RATP_SCD_0741	2	6	avoir	NULL	vinf	NULL	I_GVf	OBJ	5	idtext0003	avoir	W#####	spk2	6.52	6.66	0.01	_
20091112_RATP_SCD_0741	2	7	un	NULL	det	NULL	B_GN	DET	9	idtext0003	un	##m#s##i	spk2	6.67	6.69	0.01	_
20091112_RATP_SCD_0741	2	8	petit	NULL	adj	NULL	I_GN	MOD	9	idtext0003	petit	##m#s##	spk2	6.7	6.78	0.01	_
20091112_RATP_SCD_0741	2	9	renseignement	NULL	nc	NULL	I_GN	OBJ	5	idtext0003	renseignement	##m#s##	spk2	6.79	7.42	?	//

20091112_RATP_SCD_0741	3	1	euh	DISF_M	pres	NULL	NULL	NOLINK	0	idtext0004	euh	#####	spk2	7.61	7.7	0.01	_
20091112_RATP_SCD_0741	3	2	je	NULL	cln	NULL	B_GN	SUJ	3	idtext0004	cln	#1##s##	spk2	7.71	7.8	0.01	_
20091112_RATP_SCD_0741	3	3	voudrais	NULL	v	NULL	B_GVf	ROOT	0	idtext0004	vouloir	C#12##s##	spk2	7.81	7.95	0.01	_
20091112_RATP_SCD_0741	3	4	savoir	NULL	vinf	NULL	I_GVf	OBJ	3	idtext0004	savoir	W#####	spk2	7.96	8.15	0.01	_
20091112_RATP_SCD_0741	3	5	comment	NULL	adv	NULL	B_GADV	OBJ	3	idtext0004	comment	#####	spk2	8.16	8.48	0.01	_
20091112_RATP_SCD_0741	3	6	ça	NULL	pro	NULL	B_GN	SUJ_IMP	8	idtext0004	ça	#####	spk2	8.49	8.56	0.01	_
20091112_RATP_SCD_0741	3	7	se	NULL	clr	NULL	B_GVf	AFF	8	idtext0004	se	#####	spk2	8.57	8.65	0.01	_
20091112_RATP_SCD_0741	3	8	passe	NULL	v	NULL	I_GVf	OBJ	5	idtext0004	passer	PS#13##s##	spk2	8.66	8.92	0.01	_
20091112_RATP_SCD_0741	3	9	au+niveau+du	NULL	prep	NULL	B_NULL	MOD	8	idtext0004	au+niveau+du	#####	spk2	8.93	10.12	0.04	_
20091112_RATP_SCD_0741	3	10	d'	NULL	prep	NULL	B_GP	ROOT	0	idtext0005	d'	#####	spk2	10.16	10.21	0.01	_
20091112_RATP_SCD_0741	3	11	un	NULL	det	NULL	I_GP	DET	13	idtext0005	un	##m#s##i	spk2	10.22	10.33	0.01	_
20091112_RATP_SCD_0741	3	12	éventuel	NULL	adj	NULL	I_GP	MOD	13	idtext0005	éventuel	##m#s##	spk2	10.34	10.71	0.01	_
20091112_RATP_SCD_0741	3	13	remboursement	NULL	nc	NULL	I_GP	OBJ	10	idtext0005	remboursement	##m#s##	spk2	10.72	11.38	0.01	_
20091112_RATP_SCD_0741	3	14	de	NULL	prep	NULL	B_NULL	NOLINK	0	idtext0005	de	#####	spk2	11.39	11.97	0.98	_
20091112_RATP_SCD_0741	3	15	de	DISF_R	prep	NULL	NULL	NOLINK	0	idtext0006	de	#####	spk2	12.95	13.08	0.01	_
20091112_RATP_SCD_0741	3	16	ti()	DISF_T	tronc	NULL	NULL	NOLINK	0	idtext0006	ti()	#####	spk2	13.09	13.43	0.01	_
20091112_RATP_SCD_0741	3	17	du	NULL	prep	NULL	B_GP	ROOT	0	idtext0006	du	#####	spk2	13.44	13.62	0.01	_
20091112_RATP_SCD_0741	3	18	titre	NULL	nc	NULL	I_GP	OBJ	17	idtext0006	titre	##m#s##	spk2	13.63	13.91	0.01	_
20091112_RATP_SCD_0741	3	19	de	NULL	prep	NULL	B_GP	DEP	18	idtext0006	de	#####	spk2	13.92	13.94	0.01	_
20091112_RATP_SCD_0741	3	20	transport	NULL	nc	NULL	I_GP	OBJ	19	idtext0006	transport	##m#s##	spk2	13.95	14.41	0.01	_
20091112_RATP_SCD_0741	3	21	au	NULL	prep	NULL	B_GP	ROOT	0	idtext0006	au	#####	spk2	14.42	14.46	0.01	_
20091112_RATP_SCD_0741	3	22	vu	NULL	vppart	NULL	I_GP	OBJ	21	idtext0006	voir	K##m#s##	spk2	14.47	14.64	0.01	_
20091112_RATP_SCD_0741	3	23	des	NULL	det	NULL	B_GN	DET	24	idtext0006	des	###p##i	spk2	14.65	14.79	0.01	_
20091112_RATP_SCD_0741	3	24	grèves	NULL	nc	NULL	I_GN	OBJ	22	idtext0006	grève	##f#p##	spk2	14.8	15.43	?	//

20091112_RATP_SCD_0741	4	1	parce+qu'	NULL	csu	NULL	B_NULL	ROOT	0	idtext0007	parce+qu'	#####	spk2	15.49	15.67	0.01	_
20091112_RATP_SCD_0741	4	2	on	NULL	cln	NULL	B_GN	SUJ	5	idtext0007	cln	#3##s##	spk2	15.68	15.72	0.01	_
20091112_RATP_SCD_0741	4	3	m'	NULL	clo	NULL	B_GN	A_OBJ	5	idtext0007	cla	#1##s##	spk2	15.73	15.82	0.01	_
20091112_RATP_SCD_0741	4	4	a	NULL	v	NULL	B_GVf	AUX	5	idtext0007	avoir	P#3##s##	spk2	15.83	15.86	0.01	_
20091112_RATP_SCD_0741	4	5	dit	NULL	vppart	NULL	I_GVf	OBJ	1	idtext0007	dire	J#3##s##	spk2	15.87	16.03	0.01	_
20091112_RATP_SCD_0741	4	6	de	NULL	prep	NULL	B_NULL	OBJ	5	idtext0007	de	#####	spk2	16.04	16.39	0.01	_
20091112_RATP_SCD_0741	4	7	que	NULL	prorel	NULL	B_NULL	OBJ	6	idtext0007	que	#####	spk2	16.4	16.58	0.01	_
20091112_RATP_SCD_0741	4	8	vous	NULL	cln	NULL	B_GN	SUJ	9	idtext0007	cln	#2##p##	spk2	16.59	16.69	0.01	_
20091112_RATP_SCD_0741	4	9	auriez	NULL	v	NULL	B_GVf	OBJ	7	idtext0007	avoir	C#2##p##	spk2	16.7	16.88	0.01	_
20091112_RATP_SCD_0741	4	10	l'	NULL	det	NULL	B_GN	DET	11	idtext0007	le	###s##d	spk2	16.89	16.98	0.01	_
20091112_RATP_SCD_0741	4	11	info	NULL	nc	NULL	I_GN	OBJ	9	idtext0007	info	##f#s##	spk2	16.99	17.3	0.01	_
20091112_RATP_SCD_0741	4	12	aujourd'hui	NULL	adv	NULL	B_GADV	MOD	11	idtext0007	aujourd'hui	#####	spk2	17.31	18.1	?	//

20091112_RATP_SCD_0741	5	1	alors	NULL	adv	NULL	B_GADV	NOLINK	0	idtext0008	alors	#####	spk1	15.59	16.02	0.01	_
20091112_RATP_SCD_0741	5	2	pour	DISF_R	prep	NULL	NULL	NOLINK	0	idtext0008	pour	#####	spk1	16.03	16.25	0.01	_
20091112_RATP_SCD_0741	5	3	l'	DISF_R	det	NULL	NULL	NOLINK	0	idtext0008	le	###s##d	spk1	16.26	16.28	0.01	_
20091112_RATP_SCD_0741	5	4	in()	DISF_T	tronc	NULL	NULL	NOLINK	0	idtext0008	in()	#####	spk1	16.29	16.4	0.01	_
20091112_RATP_SCD_0741	5	5	pour	DISF_R	prep	NULL	NULL	NOLINK	0	idtext0008	pour	#####	spk1	16.41	16.56	0.01	_
20091112_RATP_SCD_0741	5	6	l'	DISF_R	det	NULL	NULL	NOLINK	0	idtext0008	le	###s##d	spk1	16.57	16.85	0.01	_
20091112_RATP_SCD_0741	5	7	instant	DISF_R	nc	NULL	NULL	NOLINK	0	idtext0008	instant	##m#s##	spk1	16.86	17.44	0.01	_
20091112_RATP_SCD_0741	5	8	pour	NULL	prep	NULL	B_GP	ROOT	0	idtext0008	pour	#####	spk1	17.45	17.56	0.01	_
20091112_RATP_SCD_0741	5	9	l'	NULL	det	NULL	I_GP	DET	10	idtext0008	le	###s##d	spk1	17.57	17.61	0.01	_
20091112_RATP_SCD_0741	5	10	instant	NULL	nc	NULL	I_GP	OBJ	8	idtext0008	instant	##m#s##	spk1	17.62	18.1	?	//

20091112_RATP_SCD_0741	6	1	on	NULL	cln	NULL	B_GN	SUJ	3	idtext0009	cln	#3##s##	spk1	18.14	18.16	0.01	_
20091112_RATP_SCD_0741	6	2	n'	NULL	clneg	NULL	B_GVfn	MOD	3	idtext0009	n'	#####	spk1	18.17	18.19	0.01	_
20091112_RATP_SCD_0741	6	3	a	NULL	v	NULL	I_GVfn	ROOT	0	idtext0009	avoir	P#3##s##	spk1	18.2	18.22	0.01	_
20091112_RATP_SCD_0741	6	4	pas	NULL	advneg	NULL	I_GVfn	MOD	3	idtext0009	pas	#####	spk1	18.23	18.37	0.01	_
20091112_RATP_SCD_0741	6	5	d'	NULL	prep	NULL	B_GP	OBJ	3	idtext0009	d'	#####	spk1	18.38	18.46	0.01	_
20091112_RATP_SCD_0741	6	6	infos	NULL	nc	NULL	I_GP	OBJ	5	idtext0009	info	##f#p##	spk1	18.47	18.77	0.01	_
20091112_RATP_SCD_0741	6	7	précis	NULL	adj	NULL	I_GP	MOD	6	idtext0009	précis	##m###	spk1	18.78	19.25	0.01	_
20091112_RATP_SCD_0741	6	8	par+rapport	NULL	prep	NULL	B_NULL	NOLINK	0	idtext0010	par+rapport	#####	spk1	19.26	19.92	0.01	_
20091112_RATP_SCD_0741	6	9	euh	DISF_M	pres	NULL	NULL	NOLINK	0	idtext0010	euh	#####	spk1	19.93	20.59	0.08	_
20091112_RATP_SCD_0741	6	10	au	NULL	prep	NULL	B_GP	ROOT	0	idtext0011	au	#####	spk1	20.67	20.77	0.01	_
20091112_RATP_SCD_0741	6	11	mode	NULL	nc	NULL	I_GP	OBJ	10	idtext0011	mode	###s##	spk1	20.78	20.95	0.01	_
20091112_RATP_SCD_0741	6	12	de	DISF_R	prep	NULL	NULL	NOLINK	0	idtext0011	de	#####	spk1	20.96	21.24	0.01	_
20091112_RATP_SCD_0741	6	13	de	NULL	prep	NULL	B_GP	DEP	11	idtext0011	de	#####	spk1	21.25	21.36	0.01	_
20091112_RATP_SCD_0741	6	14	remboursement	NULL	nc	NULL	I_GP	OBJ	13	idtext0011	remboursement	##m#s##	spk1	21.37	22.0	0.08	_
20091112_RATP_SCD_0741	6	15	vous	NULL	cln	NULL	B_GN	SUJ	17	idtext0012	cln	#2##p##	spk1	22.08	22.19	0.01	_
20091112_RATP_SCD_0741	6	16	êtes	NULL	v	NULL	B_GVf	AUX	17	idtext0012	être	P#2##p##	spk1	22.2	22.36	0.01	_
20091112_RATP_SCD_0741	6	17	abonné	NULL	vppart	NULL	I_GVf	ROOT	0	idtext0012	abonner	K##m#s##	spk1	22.37	22.68	0.01	_
20091112_RATP_SCD_0741	6	18	à	NULL	prep	NULL	B_GP	A_OBJ	17	idtext0012	à	#####	spk1	22.69	22.73	0.01	_
20091112_RATP_SCD_0741	6	19	l'	NULL	det	NULL	I_GP	DET	20	idtext0012	le	###s##d	spk1	22.74	22.79	0.01	_
20091112_RATP_SCD_0741	6	20	Intégrale	NULL	np	B_PRD	I_GP	OBJ	18	idtext0012	Intégrale	#####	spk1	22.8	23.44	?	_

20091112_RATP_SCD_0741	7	1	ou+bien	NULL	coo	NULL	B_NULL	ROOT	0	idtext0013	ou+bien	#####	spk1	23.6	23.79	0.01	_
20091112_RATP_SCD_0741	7	2	vous	NULL	cln	NULL	B_GN	SUJ	4	idtext0013	cln	#2##p##	spk1	23.8	23.87	0.01	_
20091112_RATP_SCD_0741	7	3	êtes	NULL	v	NULL	B_GVf	AUX	4	idtext0013	être	P#2##p##	spk1	23.88	24.09	0.01	_
20091112_RATP_SCD_0741	7	4	prélevé	NULL	vppart	NULL	I_GVf	DEP_COORD	1	idtext0013	prélever	K##m#s##	spk1	24.1	24.33	0.01	_
20091112_RATP_SCD_0741	7	5	chaque	NULL	det	NULL	B_NULL	NOLINK	0	idtext0013	chaque	###s##i	spk1	24.34	24.56	?	//

20091112_RATP_SCD_0741	8	1	ben	DISF_M	pres	NULL	NULL	NOLINK	0	idtext0014	ben	#####	spk2	23.6	24.56	?	//

20091112_RATP_SCD_0741	9	1	mois	NULL	nc	NULL	B_GN	ROOT	0	idtext0015	mois	##m###	spk1	24.63	24.98	0.01	_
20091112_RATP_SCD_0741	9	2	ou	NULL	coo	NULL	B_NULL	COORD	1	idtext0015	ou	#####	spk1	24.99	25.14	0.01	_
20091112_RATP_SCD_0741	9	3	vous	NULL	cln	NULL	B_GN	SUJ	4	idtext0015	cln	#2##p##	spk1	25.15	25.24	0.01	_
20091112_RATP_SCD_0741	9	4	chargez	NULL	v	NULL	B_GVf	DEP_COORD	2	idtext0015	charger	P#2##p##	spk1	25.25	25.54	0.01	_
20091112_RATP_SCD_0741	9	5	votre	NULL	det	NULL	B_GN	DET	6	idtext0015	votre	###s##o	spk1	25.55	25.74	0.01	_
20091112_RATP_SCD_0741	9	6	passe	NULL	nc	NULL	I_GN	OBJ	4	idtext0015	passe	###s##	spk1	25.75	26.21	?	//

20091112_RATP_SCD_0741	10	1	moi	NULL	pro	NULL	B_GN	SUJ	3	idtext0016	moi	#####	spk2	26.29	26.52	0.01	_
20091112_RATP_SCD_0741	10	2	je	NULL	cln	NULL	B_GN	SUJ	3	idtext0016	cln	#1##s##	spk2	26.53	26.68	0.01	_
20091112_RATP_SCD_0741	10	3	charge	NULL	v	NULL	B_GVf	ROOT	0	idtext0016	charger	PS#13##s##	spk2	26.69	27.02	0.01	_
20091112_RATP_SCD_0741	10	4	mon	NULL	det	NULL	B_GN	DET	5	idtext0016	mon	###s##o	spk2	27.03	27.2	0.01	_
20091112_RATP_SCD_0741	10	5	passe	NULL	nc	NULL	I_GN	OBJ	3	idtext0016	passe	###s##	spk2	27.21	27.71	?	//

20091112_RATP_SCD_0741	11	1	vous	NULL	cln	NULL	B_GN	SUJ	2	idtext0017	cln	#2##p##	spk1	27.79	27.84	0.01	_
20091112_RATP_SCD_0741	11	2	chargez	NULL	v	NULL	B_GVf	ROOT	0	idtext0017	charger	P#2##p##	spk1	27.85	28.12	0.01	_
20091112_RATP_SCD_0741	11	3	votre	NULL	det	NULL	B_GN	DET	4	idtext0017	votre	###s##o	spk1	28.13	28.3	0.01	_
20091112_RATP_SCD_0741	11	4	passe	NULL	nc	NULL	I_GN	OBJ	2	idtext0017	passe	###s##	spk1	28.31	28.78	?	//

20091112_RATP_SCD_0741	12	1	hm	DISF_M	pres	NULL	NULL	NOLINK	0	idtext0018	hm	#####	spk2	28.82	28.99	?	//

20091112_RATP_SCD_0741	13	1	d'accord	NULL	adv	NULL	B_GADV	NOLINK	0	idtext0019	d'accord	#####	spk1	29.05	29.46	0.05	_
20091112_RATP_SCD_0741	13	2	alors	NULL	adv	NULL	B_GADV	NOLINK	0	idtext0020	alors	#####	spk1	29.51	29.67	0.01	_
20091112_RATP_SCD_0741	13	3	il	NULL	cln	NULL	B_GN	SUJ_IMP	4	idtext0020	cln	#3#m#s##	spk1	29.68	29.75	0.01	_
20091112_RATP_SCD_0741	13	4	devrait	NULL	v	NULL	B_GVf	ROOT	0	idtext0020	devoir	C#3##s##	spk1	29.76	29.98	0.01	_
20091112_RATP_SCD_0741	13	5	y	NULL	clo	NULL	B_GN	AFF	6	idtext0020	y	#####	spk1	29.99	30.01	0.01	_
20091112_RATP_SCD_0741	13	6	avoir	NULL	vinf	NULL	B_GVi	OBJ	4	idtext0020	avoir	W#####	spk1	30.02	30.27	0.01	_
20091112_RATP_SCD_0741	13	7	une	NULL	det	NULL	B_GN	DET	8	idtext0020	un	##f#s##i	spk1	30.28	30.34	0.01	_
20091112_RATP_SCD_0741	13	8	note	NULL	nc	NULL	I_GN	OBJ	6	idtext0020	note	##f#s##	spk1	30.35	30.49	0.01	_
20091112_RATP_SCD_0741	13	9	d'	NULL	prep	NULL	B_GP	DEP	8	idtext0020	d'	#####	spk1	30.5	30.55	0.01	_
20091112_RATP_SCD_0741	13	10	information	NULL	nc	NULL	I_GP	OBJ	9	idtext0020	information	##f#s##	spk1	30.56	31.11	0.01	/
20091112_RATP_SCD_0741	13	11	sur	NULL	prep	NULL	B_GP	P_OBJ	10	idtext0020	sur	#####	spk1	31.12	31.29	0.01	_
20091112_RATP_SCD_0741	13	12	le	NULL	det	NULL	I_GP	DET	13	idtext0020	le	##m#s##d	spk1	31.3	31.45	0.01	_
20091112_RATP_SCD_0741	13	13	site	NULL	nc	NULL	I_GP	OBJ	11	idtext0020	site	##m#s##	spk1	31.46	31.89	?	//

20091112_RATP_SCD_0741	14	1	ouais	NULL	adv	NULL	B_GADV	NOLINK	0	idtext0021	ouais	#####	spk2	32.05	32.47	?	//

20091112_RATP_SCD_0741	15	1	euh	DISF_M	pres	NULL	NULL	NOLINK	0	idtext0022	euh	#####	spk1	32.51	32.97	0.04	_
20091112_RATP_SCD_0741	15	2	il	NULL	cln	NULL	B_GN	SUJ_IMP	3	idtext0023	cln	#3#m#s##	spk1	33.01	33.06	0.01	_
20091112_RATP_SCD_0741	15	3	faudra	NULL	v	NULL	B_GVf	ROOT	0	idtext0023	falloir	F#3##s##	spk1	33.07	33.26	0.01	_
20091112_RATP_SCD_0741	15	4	attendre	NULL	vinf	NULL	I_GVf	OBJ	3	idtext0023	attendre	W#####	spk1	33.27	33.53	0.01	_
20091112_RATP_SCD_0741	15	5	qu'	NULL	csu	NULL	B_NULL	OBJ	4	idtext0023	qu'	#####	spk1	33.54	33.59	0.01	_
20091112_RATP_SCD_0741	15	6	on	NULL	cln	NULL	B_GN	SUJ_IMP	7	idtext0023	cln	#3##s##	spk1	33.6	33.74	0.01	_
20091112_RATP_SCD_0741	15	7	ait	NULL	v	NULL	B_GVf	OBJ	5	idtext0023	avoir	S#3##s##	spk1	33.75	33.77	0.01	_
20091112_RATP_SCD_0741	15	8	la	NULL	det	NULL	B_GN	DET	9	idtext0023	le	##m#s##d	spk1	33.78	33.9	0.01	_
20091112_RATP_SCD_0741	15	9	confirmation	NULL	nc	NULL	I_GN	OBJ	7	idtext0023	confirmation	##f#s##	spk1	33.91	34.69	?	//

20091112_RATP_SCD_0741	16	1	mais	NULL	coo	NULL	B_NULL	NOLINK	0	idtext0024	mais	#####	spk2	34.78	35.05	0.01	_
20091112_RATP_SCD_0741	16	2	grosso+modo	NULL	adv	NULL	B_GADV	NOLINK	0	idtext0024	grosso+modo	#####	spk2	35.06	35.82	?	_

20091112_RATP_SCD_0741	17	1	pour	NULL	prep	NULL	B_NULL	NOLINK	0	idtext0025	pour	#####	spk1	34.76	35.77	0.01	_
20091112_RATP_SCD_0741	17	2	euh	DISF_M	pres	NULL	NULL	NOLINK	0	idtext0025	euh	#####	spk1	35.78	35.82	?	//

20091112_RATP_SCD_0741	18	1	même+si	NULL	csu	NULL	B_NULL	ROOT	0	idtext0026	même+si	#####	spk2	35.86	36.15	0.01	_
20091112_RATP_SCD_0741	18	2	c'	NULL	cln	NULL	B_GN	SUJ_IMP	3	idtext0026	ce	###s##	spk2	36.16	36.19	0.01	_
20091112_RATP_SCD_0741	18	3	est	NULL	v	NULL	B_GVfn	OBJ	1	idtext0026	être	P#3##s##	spk2	36.2	36.24	0.01	_
20091112_RATP_SCD_0741	18	4	pas	NULL	advneg	NULL	I_GVfn	MOD	3	idtext0026	pas	#####	spk2	36.25	36.39	0.01	_
20091112_RATP_SCD_0741	18	5	vraiment	NULL	adv	NULL	I_GVfn	MOD	6	idtext0026	vraiment	#####	spk2	36.4	36.69	0.01	_
20091112_RATP_SCD_0741	18	6	confirmé	NULL	vppart	NULL	I_GVfn	ATS	3	idtext0026	confirmer	K##m#s##	spk2	36.7	37.24	0.04	/
20091112_RATP_SCD_0741	18	7	c'	NULL	cln	NULL	B_GN	SUJ_IMP	8	idtext0027	ce	###s##	spk2	37.28	37.36	0.01	_
20091112_RATP_SCD_0741	18	8	est	NULL	v	NULL	B_GVf	ROOT	0	idtext0027	être	P#3##s##	spk2	37.37	37.41	0.01	_
20091112_RATP_SCD_0741	18	9	pour	NULL	prep	NULL	B_GP	ATS	8	idtext0027	pour	#####	spk2	37.42	37.57	0.01	_
20091112_RATP_SCD_0741	18	10	avoir	NULL	vinf	NULL	I_GP	OBJ	9	idtext0027	avoir	W#####	spk2	37.58	37.76	0.01	_
20091112_RATP_SCD_0741	18	11	une	NULL	det	NULL	B_GN	DET	12	idtext0027	un	##f#s##i	spk2	37.77	37.86	0.01	_
20091112_RATP_SCD_0741	18	12	idée	NULL	nc	NULL	I_GN	OBJ	10	idtext0027	idée	##f#s##	spk2	37.87	38.08	0.01	_
20091112_RATP_SCD_0741	18	13	quoi	DISF_M	pres	NULL	NULL	NOLINK	0	idtext0027	quoi	#####	spk2	38.09	38.29	?	_

20091112_RATP_SCD_0741	19	1	euh	DISF_M	pres	NULL	NULL	NOLINK	0	idtext0028	euh	#####	spk1	38.9	39.05	0.01	_
20091112_RATP_SCD_0741	19	2	oui	NULL	adv	NULL	B_GADV	NOLINK	0	idtext0028	oui	#####	spk1	39.06	39.42	0.04	_
20091112_RATP_SCD_0741	19	3	mais	NULL	coo	NULL	B_NULL	ROOT	0	idtext0029	mais	#####	spk1	39.46	39.54	0.01	_
20091112_RATP_SCD_0741	19	4	je	NULL	cln	NULL	B_GN	SUJ	5	idtext0029	cln	#1##s##	spk1	39.55	39.63	0.01	_
20091112_RATP_SCD_0741	19	5	peux	NULL	v	NULL	B_GVfn	DEP_COORD	3	idtext0029	pouvoir	P#12##s##	spk1	39.64	39.75	0.01	_
20091112_RATP_SCD_0741	19	6	pas	NULL	advneg	NULL	I_GVfn	MOD	5	idtext0029	pas	#####	spk1	39.76	39.87	0.01	_
20091112_RATP_SCD_0741	19	7	m'	NULL	clr	NULL	B_GVi	AFF	8	idtext0029	cla	#1##s##	spk1	39.88	39.94	0.01	_
20091112_RATP_SCD_0741	19	8	avancer	NULL	vinf	NULL	I_GVi	OBJ	5	idtext0029	avancer	W#####	spk1	39.95	40.28	0.01	_
20091112_RATP_SCD_0741	19	9	étant	NULL	vprespart	NULL	B_GVf	AUX	10	idtext0029	être	G#####	spk1	40.29	40.46	0.01	_
20091112_RATP_SCD_0741	19	10	donné	NULL	vppart	NULL	I_GVf	OBJ	8	idtext0029	donner	K##m#s##	spk1	40.47	40.78	?	_

20091112_RATP_SCD_0741	20	1	non	DISF_R	adv	NULL	NULL	NOLINK	0	idtext0030	non	#####	spk2	40.86	41.64	0.01	_
20091112_RATP_SCD_0741	20	2	non	NULL	adv	NULL	B_GADV	NOLINK	0	idtext0030	non	#####	spk2	41.65	41.83	?	_

20091112_RATP_SCD_0741	21	1	que	NULL	csu	NULL	B_NULL	ROOT	0	idtext0031	que	#####	spk1	40.86	40.89	0.01	_
20091112_RATP_SCD_0741	21	2	c'	NULL	cln	NULL	B_GN	SUJ_IMP	5	idtext0031	ce	###s##	spk1	40.9	40.92	0.01	_
20091112_RATP_SCD_0741	21	3	est	NULL	v	NULL	B_GVf	AUX	5	idtext0031	être	P#3##s##	spk1	40.93	40.96	0.01	_
20091112_RATP_SCD_0741	21	4	pas+encore	NULL	adv	NULL	I_GVf	MOD	5	idtext0031	pas+encore	#####	spk1	40.97	41.18	0.01	_
20091112_RATP_SCD_0741	21	5	arrivé	NULL	vppart	NULL	I_GVf	OBJ	1	idtext0031	arriver	K##m#s##	spk1	41.19	41.58	0.01	_
20091112_RATP_SCD_0741	21	6	chez	NULL	prep	NULL	B_GP	P_OBJ	5	idtext0031	chez	#####	spk1	41.59	41.65	0.01	_
20091112_RATP_SCD_0741	21	7	nous	NULL	pro	NULL	I_GP	OBJ	6	idtext0031	nous	#####	spk1	41.66	41.83	?	_

20091112_RATP_SCD_0741	22	1	mais	NULL	coo	NULL	B_NULL	ROOT	0	idtext0032	mais	#####	spk1	42.02	42.22	0.01	_
20091112_RATP_SCD_0741	22	2	effectivement	NULL	adv	NULL	B_GADV	NOLINK	0	idtext0032	effectivement	#####	spk1	42.23	42.62	0.01	_
20091112_RATP_SCD_0741	22	3	l'	NULL	det	NULL	B_GN	DET	4	idtext0032	le	###s##d	spk1	42.63	42.66	0.01	_
20091112_RATP_SCD_0741	22	4	année	NULL	nc	NULL	I_GN	DEP_COORD	1	idtext0032	année	##f#s##	spk1	42.67	42.84	0.01	_
20091112_RATP_SCD_0741	22	5	dernière	NULL	adj	NULL	I_GN	MOD	4	idtext0032	dernier	##f#s##	spk1	42.85	43.25	0.01	/
20091112_RATP_SCD_0741	22	6	ça	NULL	pro	NULL	B_GN	SUJ_IMP	9	idtext0033	ça	#####	spk1	43.26	43.35	0.01	_
20091112_RATP_SCD_0741	22	7	s'	NULL	clr	NULL	B_GVf	AFF	9	idtext0033	se	#3##p##	spk1	43.36	43.45	0.01	_
20091112_RATP_SCD_0741	22	8	est	NULL	v	NULL	I_GVf	AUX	9	idtext0033	être	P#3##s##	spk1	43.46	43.51	0.01	_
20091112_RATP_SCD_0741	22	9	passé	NULL	vppart	NULL	I_GVf	ROOT	0	idtext0033	passer	K##m#s##	spk1	43.52	43.8	0.01	_
20091112_RATP_SCD_0741	22	10	sur	NULL	prep	NULL	B_GP	P_OBJ	9	idtext0033	sur	#####	spk1	43.81	43.93	0.01	_
20091112_RATP_SCD_0741	22	11	le	NULL	det	NULL	I_GP	DET	12	idtext0033	le	##m#s##d	spk1	43.94	43.98	0.01	_
20091112_RATP_SCD_0741	22	12	réseau	NULL	nc	NULL	I_GP	OBJ	10	idtext0033	réseau	##m#s##	spk1	43.99	44.22	0.01	_
20091112_RATP_SCD_0741	22	13	SNCF	NULL	np	B_ORG	I_GP	MOD	12	idtext0033	SNCF	##f#s##	spk1	44.23	45.06	0.43	/
20091112_RATP_SCD_0741	22	14	et	NULL	coo	NULL	B_NULL	ROOT	0	idtext0034	et	#####	spk1	45.49	45.74	0.01	_
20091112_RATP_SCD_0741	22	15	les	NULL	det	NULL	B_GN	DET	16	idtext0034	le	###p##d	spk1	45.75	45.84	0.01	_
20091112_RATP_SCD_0741	22	16	gens	NULL	nc	NULL	I_GN	DEP_COORD	14	idtext0034	gens	##m#p##	spk1	45.85	46.01	0.01	/
20091112_RATP_SCD_0741	22	17	qui	NULL	prorel	NULL	B_NULL	SUJ	18	idtext0034	qui	#####	spk1	46.02	46.16	0.01	_
20091112_RATP_SCD_0741	22	18	allaient	NULL	v	NULL	B_GVf	MOD_REL	16	idtext0034	aller	I#3##p##	spk1	46.17	46.35	0.01	_
20091112_RATP_SCD_0741	22	19	recharger	NULL	vinf	NULL	I_GVf	OBJ	18	idtext0034	recharger	W#####	spk1	46.36	46.82	0.01	_
20091112_RATP_SCD_0741	22	20	leur	NULL	det	NULL	B_GN	DET	21	idtext0034	leur	###s##o	spk1	46.83	46.98	0.01	_
20091112_RATP_SCD_0741	22	21	passe	NULL	nc	NULL	I_GN	SUJ	23	idtext0034	passe	###s##	spk1	46.99	47.25	0.01	_
20091112_RATP_SCD_0741	22	22	avaient	NULL	v	NULL	B_GVf	AUX	23	idtext0034	avoir	I#3##p##	spk1	47.26	47.38	0.01	_
20091112_RATP_SCD_0741	22	23	bénéficié	NULL	vppart	NULL	I_GVf	ROOT	0	idtext0034	bénéficier	K##m#s##	spk1	47.39	47.9	0.01	_
20091112_RATP_SCD_0741	22	24	d'	NULL	prep	NULL	B_GP	DE_OBJ	23	idtext0034	d'	#####	spk1	47.91	47.93	0.01	_
20091112_RATP_SCD_0741	22	25	une	NULL	det	NULL	I_GP	DET	26	idtext0034	un	##f#s##i	spk1	47.94	48.06	0.01	_
20091112_RATP_SCD_0741	22	26	réduction	NULL	nc	NULL	I_GP	OBJ	24	idtext0034	réduction	##f#s##	spk1	48.07	48.59	0.26	_
20091112_RATP_SCD_0741	22	27	lors	NULL	adv	NULL	B_GADV	NOLINK	0	idtext0035	lors	#####	spk1	48.85	49.02	0.01	_
20091112_RATP_SCD_0741	22	28	du	NULL	prep	NULL	B_GP	ROOT	0	idtext0035	du	#####	spk1	49.03	49.12	0.01	_
20091112_RATP_SCD_0741	22	29	chargement	NULL	nc	NULL	I_GP	OBJ	28	idtext0035	chargement	##m#s##	spk1	49.13	49.73	0.19	/
20091112_RATP_SCD_0741	22	30	et	NULL	coo	NULL	B_NULL	ROOT	0	idtext0036	et	#####	spk1	49.92	49.95	0.01	_
20091112_RATP_SCD_0741	22	31	ceux	NULL	pro	NULL	B_GN	DEP_COORD	30	idtext0036	ceux	#####	spk1	49.96	50.08	0.01	_
20091112_RATP_SCD_0741	22	32	qui	NULL	prorel	NULL	B_NULL	SUJ	33	idtext0036	qui	#####	spk1	50.09	50.21	0.01	_
20091112_RATP_SCD_0741	22	33	étaient	NULL	v	NULL	B_GVf	MOD_REL	31	idtext0036	étayer	PS#3##p##	spk1	50.22	50.42	0.01	_
20091112_RATP_SCD_0741	22	34	en+fait	GREF	adv	NULL	B_GADJ	MOD	35	idtext0036	en+fait	#####	spk1	50.43	50.72	0.01	_
20091112_RATP_SCD_0741	22	35	abonnés	NULL	adj	NULL	I_GADJ	ATS	33	idtext0036	abonné	##m#p##	spk1	50.73	51.24	0.01	_
20091112_RATP_SCD_0741	22	36	euh	DISF_M	pres	NULL	NULL	NOLINK	0	idtext0036	euh	#####	spk1	51.25	51.54	0.32	_
20091112_RATP_SCD_0741	22	37	Intégrale	NULL	np	B_PRD	B_GN	SUJ	40	idtext0037	Intégrale	#####	spk1	51.86	52.27	0.01	_
20091112_RATP_SCD_0741	22	38	qui	NULL	prorel	NULL	B_NULL	SUJ	40	idtext0037	qui	#####	spk1	52.28	52.34	0.01	_
20091112_RATP_SCD_0741	22	39	étaient	NULL	v	NULL	B_GVf	AUX	40	idtext0037	étayer	PS#3##p##	spk1	52.35	52.49	0.01	_
20091112_RATP_SCD_0741	22	40	prélevés	NULL	vppart	NULL	I_GVf	ROOT	0	idtext0037	prélever	K##m#p##	spk1	52.5	52.74	0.01	_
20091112_RATP_SCD_0741	22	41	chaque	NULL	det	NULL	B_GN	DET	42	idtext0037	chaque	###s##i	spk1	52.75	53.01	0.01	_
20091112_RATP_SCD_0741	22	42	mois	NULL	nc	NULL	I_GN	OBJ	40	idtext0037	mois	##m###	spk1	53.02	53.25	0.33	//
20091112_RATP_SCD_0741	22	43	avaient	NULL	v	NULL	B_GVf	ROOT	0	idtext0038	avoir	I#3##p##	spk1	53.58	53.76	0.01	_
20091112_RATP_SCD_0741	22	44	une	NULL	det	NULL	B_GN	DET	45	idtext0038	un	##f#s##i	spk1	53.77	53.85	0.01	_
20091112_RATP_SCD_0741	22	45	réduction	NULL	nc	NULL	I_GN	OBJ	43	idtext0038	réduction	##f#s##	spk1	53.86	54.41	?	//

20091112_RATP_SCD_0741	23	1	euh	DISF_M	pres	NULL	NULL	NOLINK	0	idtext0039	euh	#####	spk1	54.45	55.04	?	//

20091112_RATP_SCD_0741	24	1	depuis	NULL	prep	NULL	B_NULL	NOLINK	0	idtext0040	depuis	#####	spk2	54.45	54.8	0.01	_
20091112_RATP_SCD_0741	24	2	ce+qui	NULL	prorel	NULL	B_NULL	SUJ	4	idtext0040	ce+qui	#####	spk2	54.81	54.92	0.01	_
20091112_RATP_SCD_0741	24	3	s'	NULL	clr	NULL	B_GVf	AFF	4	idtext0040	se	#3##p##	spk2	54.93	54.96	0.01	_
20091112_RATP_SCD_0741	24	4	est	NULL	v	NULL	I_GVf	ROOT	0	idtext0040	être	P#3##s##	spk2	54.97	55.04	?	//

20091112_RATP_SCD_0741	25	1	passé	NULL	vppart	NULL	B_GVf	ROOT	0	idtext0041	passer	K##m#s##	spk2	55.08	55.19	0.01	_
20091112_RATP_SCD_0741	25	2	l'	NULL	det	NULL	B_GN	DET	3	idtext0041	le	###s##d	spk2	55.2	55.22	0.01	_
20091112_RATP_SCD_0741	25	3	année	NULL	nc	NULL	I_GN	OBJ	1	idtext0041	année	##f#s##	spk2	55.23	55.31	0.01	_
20091112_RATP_SCD_0741	25	4	dernière	NULL	adj	NULL	I_GN	MOD	3	idtext0041	dernier	##f#s##	spk2	55.32	55.62	?	//

20091112_RATP_SCD_0741	26	1	voilà	DISF_M	pres	NULL	NULL	NOLINK	0	idtext0042	voilà	#####	spk1	55.66	55.94	0.01	_
20091112_RATP_SCD_0741	26	2	exactement	NULL	adv	NULL	B_GADV	NOLINK	0	idtext0042	exactement	#####	spk1	55.95	56.38	0.01	_
20091112_RATP_SCD_0741	26	3	ça	NULL	pro	NULL	B_GN	SUJ_IMP	6	idtext0043	ça	#####	spk1	56.39	56.5	0.01	_
20091112_RATP_SCD_0741	26	4	s'	NULL	clr	NULL	B_GVf	AFF	6	idtext0043	se	#3##p##	spk1	56.51	56.53	0.01	_
20091112_RATP_SCD_0741	26	5	est	NULL	v	NULL	I_GVf	AUX	6	idtext0043	être	P#3##s##	spk1	56.54	56.63	0.01	_
20091112_RATP_SCD_0741	26	6	passé	NULL	vppart	NULL	I_GVf	ROOT	0	idtext0043	passer	K##m#s##	spk1	56.64	56.92	0.01	_
20091112_RATP_SCD_0741	26	7	l'	NULL	det	NULL	B_GN	DET	8	idtext0043	le	###s##d	spk1	56.93	56.95	0.01	_
20091112_RATP_SCD_0741	26	8	année	NULL	nc	NULL	I_GN	OBJ	6	idtext0043	année	##f#s##	spk1	56.96	57.04	0.01	_
20091112_RATP_SCD_0741	26	9	dernière	NULL	adj	NULL	I_GN	MOD	8	idtext0043	dernier	##f#s##	spk1	57.05	57.37	0.01	//
20091112_RATP_SCD_0741	26	10	donc	NULL	coo	NULL	B_NULL	NOLINK	0	idtext0043	donc	#####	spk1	57.38	57.6	0.01	_
20091112_RATP_SCD_0741	26	11	euh	DISF_M	pres	NULL	NULL	NOLINK	0	idtext0043	euh	#####	spk1	57.61	57.75	0.27	_
20091112_RATP_SCD_0741	26	12	là	NULL	adv	NULL	B_GADV	NOLINK	0	idtext0044	là	#####	spk1	58.02	58.16	0.01	_
20091112_RATP_SCD_0741	26	13	c'	NULL	cln	NULL	B_GN	SUJ_IMP	14	idtext0044	ce	###s##	spk1	58.17	58.27	0.01	_
20091112_RATP_SCD_0741	26	14	est	NULL	v	NULL	B_GVf	ROOT	0	idtext0044	être	P#3##s##	spk1	58.28	58.3	0.01	_
20091112_RATP_SCD_0741	26	15	en+cours	NULL	adv	NULL	B_GADV	MOD	14	idtext0044	en+cours	#####	spk1	58.31	58.7	0.01	_
20091112_RATP_SCD_0741	26	16	de	DISF_R	prep	NULL	NULL	NOLINK	0	idtext0044	de	#####	spk1	58.71	58.87	0.01	_
20091112_RATP_SCD_0741	26	17	de	NULL	prep	NULL	B_GP	DEP	15	idtext0044	de	#####	spk1	58.88	58.98	0.01	_
20091112_RATP_SCD_0741	26	18	préparation	NULL	nc	NULL	I_GP	OBJ	17	idtext0044	préparation	##f#s##	spk1	58.99	59.6	0.01	_
20091112_RATP_SCD_0741	26	19	pour	NULL	prep	NULL	B_GP	P_OBJ	18	idtext0045	pour	#####	spk1	59.61	59.7	0.01	_
20091112_RATP_SCD_0741	26	20	cette	NULL	det	NULL	I_GP	DET	21	idtext0045	cet	##f#s##e	spk1	59.71	59.87	0.01	_
20091112_RATP_SCD_0741	26	21	fois-ci	NULL	nc	NULL	I_GP	OBJ	19	idtext0045	fois-ci	#####	spk1	59.88	60.11	0.01	_
20091112_RATP_SCD_0741	26	22	à+nouveau	NULL	adv	NULL	B_GADV	NOLINK	0	idtext0045	à+nouveau	#####	spk1	60.12	60.52	?	_

20091112_RATP_SCD_0741	27	1	donc	NULL	coo	NULL	B_NULL	ROOT	0	idtext0046	donc	#####	spk2	60.76	60.99	0.01	_
20091112_RATP_SCD_0741	27	2	en+fait	GREF	adv	NULL	B_GADV	NOLINK	0	idtext0046	en+fait	#####	spk2	61.0	61.34	0.01	_
20091112_RATP_SCD_0741	27	3	les	DISF_R	det	NULL	NULL	NOLINK	0	idtext0046	le	###p##d	spk2	61.35	61.52	0.01	_
20091112_RATP_SCD_0741	27	4	le	DISF_R	det	NULL	NULL	NOLINK	0	idtext0046	le	##m#s##d	spk2	61.53	61.83	0.01	_
20091112_RATP_SCD_0741	27	5	l()	DISF_T	tronc	NULL	NULL	NOLINK	0	idtext0046	l()	#####	spk2	61.84	61.9	0.01	_
20091112_RATP_SCD_0741	27	6	le	NULL	det	NULL	B_GN	DET	8	idtext0046	le	##m#s##d	spk2	61.91	62.52	0.01	_
20091112_RATP_SCD_0741	27	7	prochain	NULL	adj	NULL	I_GN	MOD	8	idtext0046	prochain	##m#s##	spk2	62.53	62.97	0.01	_
20091112_RATP_SCD_0741	27	8	chargement	NULL	nc	NULL	I_GN	DEP_COORD	1	idtext0046	chargement	##m#s##	spk2	62.98	63.86	?	//

20091112_RATP_SCD_0741	28	1	voilà	DISF_M	pres	NULL	NULL	NOLINK	0	idtext0047	voilà	#####	spk1	64.0	64.74	?	//

20091112_RATP_SCD_0741	29	1	il	NULL	cln	NULL	B_GN	SUJ_IMP	3	idtext0048	cln	#3#m#s##	spk2	64.06	64.28	0.01	_
20091112_RATP_SCD_0741	29	2	y	NULL	clo	NULL	B_GN	AFF	3	idtext0048	y	#####	spk2	64.29	64.43	0.01	_
20091112_RATP_SCD_0741	29	3	aurait	NULL	v	NULL	B_GVf	ROOT	0	idtext0048	avoir	C#3##s##	spk2	64.44	64.74	?	//

20091112_RATP_SCD_0741	30	1	euh	DISF_M	pres	NULL	NULL	NOLINK	0	idtext0049	euh	#####	spk2	64.79	65.54	0.01	_
20091112_RATP_SCD_0741	30	2	un	NULL	det	NULL	B_GN	DET	3	idtext0049	un	##m#s##i	spk2	65.55	65.69	0.01	_
20091112_RATP_SCD_0741	30	3	tarif	NULL	nc	NULL	I_GN	ROOT	0	idtext0049	tarif	##m#s##	spk2	65.7	66.03	0.01	_
20091112_RATP_SCD_0741	30	4	particulier	NULL	adj	NULL	I_GN	MOD	3	idtext0049	particulier	##m#s##	spk2	66.04	66.6	?	//

20091112_RATP_SCD_0741	31	1	voilà	DISF_M	pres	NULL	NULL	NOLINK	0	idtext0050	voilà	#####	spk1	66.64	66.87	0.01	_
20091112_RATP_SCD_0741	31	2	si	NULL	csu	NULL	B_NULL	ROOT	0	idtext0050	si	#####	spk1	66.88	67.08	0.01	_
20091112_RATP_SCD_0741	31	3	ça	NULL	pro	NULL	B_GN	SUJ_IMP	5	idtext0050	ça	#####	spk1	67.09	67.24	0.01	_
20091112_RATP_SCD_0741	31	4	se	NULL	clr	NULL	B_GVf	AFF	5	idtext0050	se	#####	spk1	67.25	67.32	0.01	_
20091112_RATP_SCD_0741	31	5	passe	NULL	v	NULL	I_GVf	OBJ	2	idtext0050	passer	PS#13##s##	spk1	67.33	67.59	0.01	_
20091112_RATP_SCD_0741	31	6	comme	NULL	adv	NULL	B_GADV	MOD	5	idtext0050	comme	#####	spk1	67.6	67.78	0.01	_
20091112_RATP_SCD_0741	31	7	l'	NULL	det	NULL	B_GN	DET	8	idtext0050	le	###s##d	spk1	67.79	67.82	0.01	_
20091112_RATP_SCD_0741	31	8	année	NULL	nc	NULL	I_GN	MOD	5	idtext0050	année	##f#s##	spk1	67.83	68.0	0.01	_
20091112_RATP_SCD_0741	31	9	dernière	NULL	adj	NULL	I_GN	MOD	8	idtext0050	dernier	##f#s##	spk1	68.01	68.53	0.01	_
20091112_RATP_SCD_0741	31	10	si	NULL	csu	NULL	B_NULL	ROOT	0	idtext0051	si	#####	spk1	68.54	68.59	0.01	_
20091112_RATP_SCD_0741	31	11	il	NULL	cln	NULL	B_GN	SUJ_IMP	13	idtext0051	cln	#3#m#s##	spk1	68.6	68.69	0.01	_
20091112_RATP_SCD_0741	31	12	y	NULL	clo	NULL	B_GN	AFF	13	idtext0051	y	#####	spk1	68.7	68.72	0.01	_
20091112_RATP_SCD_0741	31	13	a	NULL	v	NULL	B_GVfn	OBJ	10	idtext0051	avoir	P#3##s##	spk1	68.73	68.76	0.01	_
20091112_RATP_SCD_0741	31	14	pas	NULL	advneg	NULL	I_GVfn	MOD	13	idtext0051	pas	#####	spk1	68.77	68.92	0.01	_
20091112_RATP_SCD_0741	31	15	de	NULL	det	NULL	B_GN	DET	16	idtext0051	de	###p##i	spk1	68.93	68.95	0.01	_
20091112_RATP_SCD_0741	31	16	changement	NULL	nc	NULL	I_GN	OBJ	13	idtext0051	changement	##m#s##	spk1	68.96	69.56	0.37	/
20091112_RATP_SCD_0741	31	17	ça	NULL	pro	NULL	B_GN	SUJ_IMP	19	idtext0052	ça	#####	spk1	69.93	69.99	0.01	_
20091112_RATP_SCD_0741	31	18	s'	NULL	clr	NULL	B_GVf	AFF	19	idtext0052	se	#3##p##	spk1	70.0	70.15	0.01	_
20091112_RATP_SCD_0741	31	19	effectuera	NULL	v	NULL	I_GVf	ROOT	0	idtext0052	effectuer	F#3##s##	spk1	70.16	70.65	0.01	_
20091112_RATP_SCD_0741	31	20	de	DISF_R	prep	NULL	NULL	NOLINK	0	idtext0052	de	#####	spk1	70.66	71.25	0.01	_
20091112_RATP_SCD_0741	31	21	l()	DISF_T	tronc	NULL	NULL	NOLINK	0	idtext0052	l()	#####	spk1	71.26	71.28	0.01	_
20091112_RATP_SCD_0741	31	22	de	NULL	prep	NULL	B_GP	DE_OBJ	19	idtext0052	de	#####	spk1	71.29	71.31	0.01	_
20091112_RATP_SCD_0741	31	23	la	NULL	det	NULL	I_GP	DET	25	idtext0052	le	##m#s##d	spk1	71.32	71.41	0.01	_
20091112_RATP_SCD_0741	31	24	même	NULL	adj	NULL	I_GP	MOD	25	idtext0052	même	###s##	spk1	71.42	71.7	0.01	_
20091112_RATP_SCD_0741	31	25	façon	NULL	nc	NULL	I_GP	OBJ	22	idtext0052	façon	##f#s##	spk1	71.71	72.09	?	//

20091112_RATP_SCD_0741	32	1	d'accord	DISF_R	adv	NULL	NULL	NOLINK	0	idtext0053	d'accord	#####	spk2	72.13	72.73	0.01	_
20091112_RATP_SCD_0741	32	2	d'accord	NULL	adv	NULL	B_GADV	NOLINK	0	idtext0053	d'accord	#####	spk2	72.74	73.48	?	_

20091112_RATP_SCD_0741	33	1	que	NULL	csu	NULL	B_NULL	NOLINK	0	idtext0054	que	#####	spk1	72.14	72.16	0.01	_
20091112_RATP_SCD_0741	33	2	l'	NULL	det	NULL	B_GN	DET	3	idtext0054	le	###s##d	spk1	72.17	72.26	0.01	_
20091112_RATP_SCD_0741	33	3	année	NULL	nc	NULL	I_GN	ROOT	0	idtext0054	année	##f#s##	spk1	72.27	72.52	0.01	_
20091112_RATP_SCD_0741	33	4	dernière	NULL	adj	NULL	I_GN	MOD	3	idtext0054	dernier	##f#s##	spk1	72.53	73.07	0.01	_
20091112_RATP_SCD_0741	33	5	ouais	NULL	adv	NULL	B_GADV	NOLINK	0	idtext0054	ouais	#####	spk1	73.08	73.48	?	//

20091112_RATP_SCD_0741	34	1	et	NULL	coo	NULL	B_NULL	ROOT	0	idtext0055	et	#####	spk2	73.7	74.17	0.01	_
20091112_RATP_SCD_0741	34	2	j'	NULL	cln	NULL	B_GN	SUJ	4	idtext0055	cln	#1##s##	spk2	74.18	74.27	0.01	_
20091112_RATP_SCD_0741	34	3	ai	NULL	v	NULL	B_GVf	AUX	4	idtext0055	avoir	P#1##s##	spk2	74.28	74.33	0.01	_
20091112_RATP_SCD_0741	34	4	entendu	NULL	vppart	NULL	I_GVf	DEP_COORD	1	idtext0055	entendre	K##m#s##	spk2	74.34	74.63	0.01	_
20091112_RATP_SCD_0741	34	5	vaguement	NULL	adv	NULL	B_GADV	MOD	4	idtext0055	vaguement	#####	spk2	74.64	74.93	0.01	_
20091112_RATP_SCD_0741	34	6	que	NULL	csu	NULL	B_NULL	NOLINK	0	idtext0055	que	#####	spk2	74.94	75.39	0.04	_
20091112_RATP_SCD_0741	34	7	le	NULL	det	NULL	B_GN	DET	8	idtext0056	le	##m#s##d	spk2	75.43	75.45	0.01	_
20091112_RATP_SCD_0741	34	8	passe+Navigo	NULL	np	B_PRD	I_GN	ROOT	0	idtext0056	passe+Navigo	#####	spk2	75.46	76.08	0.01	/
20091112_RATP_SCD_0741	34	9	ou	NULL	coo	NULL	B_NULL	COORD	8	idtext0056	ou	#####	spk2	76.09	76.22	0.01	_
20091112_RATP_SCD_0741	34	10	la	NULL	det	NULL	B_GN	DET	11	idtext0056	le	##m#s##d	spk2	76.23	76.31	0.01	_
20091112_RATP_SCD_0741	34	11	carte	NULL	nc	B_PRD	I_GN	SUJ	13	idtext0056	carte	##f#s##	spk2	76.32	76.52	0.01	_
20091112_RATP_SCD_0741	34	12	Imagine+R	NULL	np	I_PRD	I_GN	MOD	11	idtext0056	Imagine+R	#####	spk2	76.53	77.0	0.01	_
20091112_RATP_SCD_0741	34	13	va	NULL	v	NULL	B_GVf	DEP_COORD	9	idtext0056	aller	P#3##s##	spk2	77.01	77.14	0.01	_
20091112_RATP_SCD_0741	34	14	être	NULL	vinf	NULL	I_GVf	OBJ	13	idtext0056	être	W#####	spk2	77.15	77.51	0.01	_
20091112_RATP_SCD_0741	34	15	euh	DISF_M	pres	NULL	NULL	NOLINK	0	idtext0056	euh	#####	spk2	77.52	77.54	0.01	_
20091112_RATP_SCD_0741	34	16	à	NULL	prep	NULL	B_GP	ATS	14	idtext0056	à	#####	spk2	77.55	77.57	0.01	_
20091112_RATP_SCD_0741	34	17	un	NULL	det	NULL	I_GP	DET	18	idtext0056	un	##m#s##i	spk2	77.58	77.7	0.01	_
20091112_RATP_SCD_0741	34	18	prix	NULL	nc	NULL	I_GP	OBJ	16	idtext0056	prix	##m###	spk2	77.71	78.1	0.01	//
20091112_RATP_SCD_0741	34	19	euh	DISF_M	pres	NULL	NULL	NOLINK	0	idtext0056	euh	#####	spk2	78.11	78.43	0.01	_
20091112_RATP_SCD_0741	34	20	forfaitaire	NULL	adj	NULL	I_GP	MOD	18	idtext0056	forfaitaire	###s##	spk2	78.44	79.18	0.01	_
20091112_RATP_SCD_0741	34	21	c'	NULL	cln	NULL	B_GN	SUJ_IMP	22	idtext0056	ce	###s##	spk2	79.19	79.22	0.01	_
20091112_RATP_SCD_0741	34	22	est	NULL	v	NULL	B_GVf	ROOT	0	idtext0056	être	P#3##s##	spk2	79.23	79.26	0.01	_
20091112_RATP_SCD_0741	34	23	vrai	NULL	adj	NULL	B_GN	ATS	22	idtext0056	vrai	##m#s##	spk2	79.27	79.41	0.01	/
20091112_RATP_SCD_0741	34	24	ça	NULL	pro	NULL	I_GN	SUJ	22	idtext0056	ça	#####	spk2	79.42	79.63	0.01	_
20091112_RATP_SCD_0741	34	25	ou	NULL	coo	NULL	B_NULL	NOLINK	0	idtext0056	ou	#####	spk2	79.64	80.05	0.04	_
20091112_RATP_SCD_0741	34	26	enfin	NULL	adv	NULL	B_GADV	MOD	27	idtext0057	enfin	#####	spk2	80.09	80.26	0.01	_
20091112_RATP_SCD_0741	34	27	indépendamment	NULL	adv	NULL	I_GADV	ROOT	0	idtext0057	indépendamment	#####	spk2	80.27	80.75	0.01	_
20091112_RATP_SCD_0741	34	28	des	NULL	det	NULL	B_GN	DET	29	idtext0057	des	###p##i	spk2	80.76	80.83	0.01	_
20091112_RATP_SCD_0741	34	29	grèves	NULL	nc	NULL	I_GN	ROOT	0	idtext0057	grève	##f#p##	spk2	80.84	81.04	0.01	_
20091112_RATP_SCD_0741	34	30	hein	DISF_M	pres	NULL	NULL	NOLINK	0	idtext0057	hein	#####	spk2	81.05	81.1	0.01	_
20091112_RATP_SCD_0741	34	31	je	NULL	cln	NULL	B_GN	SUJ	32	idtext0057	cln	#1##s##	spk2	81.11	81.2	0.01	_
20091112_RATP_SCD_0741	34	32	parle	NULL	v	NULL	B_GVf	ROOT	0	idtext0057	parler	PS#13##s##	spk2	81.21	81.36	0.01	//
20091112_RATP_SCD_0741	34	33	hein	DISF_M	pres	NULL	NULL	NOLINK	0	idtext0057	hein	#####	spk2	81.37	81.52	0.34	_
20091112_RATP_SCD_0741	34	34	ça	NULL	pro	NULL	B_GN	SUJ_IMP	35	idtext0058	ça	#####	spk2	81.86	82.05	0.01	_
20091112_RATP_SCD_0741	34	35	a	NULL	v	NULL	B_GVf	ROOT	0	idtext0058	avoir	P#3##s##	spk2	82.06	82.08	0.01	_
20091112_RATP_SCD_0741	34	36	rien	NULL	pro	NULL	B_GN	OBJ	35	idtext0058	rien	#####	spk2	82.09	82.17	0.01	_
20091112_RATP_SCD_0741	34	37	à	NULL	prep	NULL	B_GP	P_OBJ	36	idtext0058	à	#####	spk2	82.18	82.21	0.01	_
20091112_RATP_SCD_0741	34	38	voir	NULL	vinf	NULL	I_GP	OBJ	37	idtext0058	voir	W#####	spk2	82.22	82.39	0.01	_
20091112_RATP_SCD_0741	34	39	c'	NULL	cln	NULL	B_GN	SUJ_IMP	40	idtext0058	ce	###s##	spk2	82.4	82.43	0.01	_
20091112_RATP_SCD_0741	34	40	est	NULL	v	NULL	B_GVf	ROOT	0	idtext0058	être	P#3##s##	spk2	82.44	82.46	0.01	_
20091112_RATP_SCD_0741	34	41	une	NULL	det	NULL	B_GN	DET	42	idtext0058	un	##f#s##i	spk2	82.47	82.55	0.01	_
20091112_RATP_SCD_0741	34	42	question	NULL	nc	NULL	I_GN	ATS	40	idtext0058	question	##f#s##	spk2	82.56	82.93	0.01	_
20091112_RATP_SCD_0741	34	43	indépendante	NULL	adj	NULL	I_GN	MOD	42	idtext0058	indépendant	##f#s##	spk2	82.94	83.37	?	//

20091112_RATP_SCD_0741	35	1	forfaitaire	NULL	adj	NULL	B_GADJ	NOLINK	0	idtext0059	forfaitaire	###s##	spk1	83.41	83.91	0.01	_
20091112_RATP_SCD_0741	35	2	c'est-à-dire	NULL	coo	NULL	B_NULL	NOLINK	0	idtext0059	c'est-à-dire	#####	spk1	83.92	84.33	?	_

20091112_RATP_SCD_0741	36	1	je	NULL	cln	NULL	B_GN	SUJ	2	idtext0060	cln	#1##s##	spk2	84.37	84.48	0.01	_
20091112_RATP_SCD_0741	36	2	sais	NULL	v	NULL	B_GVfn	ROOT	0	idtext0060	savoir	P#12##s##	spk2	84.49	84.63	0.01	_
20091112_RATP_SCD_0741	36	3	pas	NULL	advneg	NULL	I_GVfn	MOD	2	idtext0060	pas	#####	spk2	84.64	84.78	0.01	_
20091112_RATP_SCD_0741	36	4	j'	NULL	cln	NULL	B_GN	SUJ	6	idtext0060	cln	#1##s##	spk2	84.79	84.81	0.01	_
20091112_RATP_SCD_0741	36	5	ai	NULL	v	NULL	B_GVf	AUX	6	idtext0060	avoir	P#1##s##	spk2	84.82	84.84	0.01	_
20091112_RATP_SCD_0741	36	6	entendu	NULL	vppart	NULL	I_GVf	ROOT	0	idtext0060	entendre	K##m#s##	spk2	84.85	85.2	0.01	_
20091112_RATP_SCD_0741	36	7	dire	NULL	vinf	NULL	B_GVi	OBJ	6	idtext0060	dire	W#####	spk2	85.21	85.42	0.01	_
20091112_RATP_SCD_0741	36	8	que	NULL	csu	NULL	B_NULL	OBJ	7	idtext0060	que	#####	spk2	85.43	85.85	0.59	_
20091112_RATP_SCD_0741	36	9	je	NULL	cln	NULL	B_GN	SUJ	10	idtext0061	cln	#1##s##	spk2	86.44	86.52	0.01	_
20091112_RATP_SCD_0741	36	10	sais	NULL	v	NULL	B_GVfn	ROOT	0	idtext0061	savoir	P#12##s##	spk2	86.53	86.59	0.01	_
20091112_RATP_SCD_0741	36	11	pas	NULL	advneg	NULL	I_GVfn	MOD	10	idtext0061	pas	#####	spk2	86.6	86.69	0.01	_
20091112_RATP_SCD_0741	36	12	vaguement	NULL	adv	NULL	B_GADV	NOLINK	0	idtext0061	vaguement	#####	spk2	86.7	87.1	0.01	_
20091112_RATP_SCD_0741	36	13	je	NULL	cln	NULL	B_GN	SUJ	14	idtext0061	cln	#1##s##	spk2	87.11	87.15	0.01	_
20091112_RATP_SCD_0741	36	14	sais	NULL	v	NULL	B_GVfn	ROOT	0	idtext0061	savoir	P#12##s##	spk2	87.16	87.23	0.01	_
20091112_RATP_SCD_0741	36	15	plus	NULL	advneg	NULL	I_GVfn	MOD	14	idtext0061	plus	#####	spk2	87.24	87.43	0.01	_
20091112_RATP_SCD_0741	36	16	si	NULL	csu	NULL	B_NULL	OBJ	14	idtext0061	si	#####	spk2	87.44	87.54	0.01	_
20091112_RATP_SCD_0741	36	17	c'	NULL	cln	NULL	B_GN	SUJ_IMP	18	idtext0061	ce	###s##	spk2	87.55	87.58	0.01	_
20091112_RATP_SCD_0741	36	18	est	NULL	v	NULL	B_GVf	OBJ	16	idtext0061	être	P#3##s##	spk2	87.59	87.66	0.01	_
20091112_RATP_SCD_0741	36	19	le	NULL	det	NULL	B_GN	DET	20	idtext0061	le	##m#s##d	spk2	87.67	87.97	0.01	_
20091112_RATP_SCD_0741	36	20	Navigo	NULL	np	B_PRD	I_GN	ATS	18	idtext0061	Navigo	#####	spk2	87.98	88.38	0.01	_
20091112_RATP_SCD_0741	36	21	ou	NULL	coo	NULL	B_NULL	COORD	20	idtext0061	ou	#####	spk2	88.39	88.51	0.01	_
20091112_RATP_SCD_0741	36	22	pas	NULL	advneg	NULL	B_NULL	DEP_COORD	21	idtext0061	pas	#####	spk2	88.52	88.85	0.15	_
20091112_RATP_SCD_0741	36	23	ce	NULL	cln	NULL	B_GN	SUJ_IMP	24	idtext0062	ce	#####	spk2	89.0	89.02	0.01	_
20091112_RATP_SCD_0741	36	24	serait	NULL	v	NULL	B_GVf	ROOT	0	idtext0062	être	C#3##s##	spk2	89.03	89.13	0.01	_
20091112_RATP_SCD_0741	36	25	soixante	NULL	det	B_P	B_GN	DET	26	idtext0063	soixante	#####	spk2	89.14	89.49	0.01	_
20091112_RATP_SCD_0741	36	26	euros	NULL	nc	I_P	I_GN	ATS	24	idtext0063	euro	##m#p##	spk2	89.5	89.72	0.01	_
20091112_RATP_SCD_0741	36	27	quel	NULL	det	NULL	B_NULL	ATS	29	idtext0063	quel	##m#s##	spk2	89.73	89.82	0.01	//
20091112_RATP_SCD_0741	36	28	que	NULL	prorel	NULL	B_NULL	SUJ	29	idtext0063	que	#####	spk2	89.83	89.98	0.01	_
20091112_RATP_SCD_0741	36	29	soit	NULL	v	NULL	B_GVf	ROOT	0	idtext0063	être	S#3##s##	spk2	89.99	90.18	0.01	_
20091112_RATP_SCD_0741	36	30	le	NULL	det	NULL	B_NULL	NOLINK	0	idtext0063	le	##m#s##d	spk2	90.19	90.55	0.57	_
20091112_RATP_SCD_0741	36	31	nombre	NULL	nc	NULL	B_GN	ROOT	0	idtext0064	nombre	##m#s##	spk2	91.12	91.4	0.01	_
20091112_RATP_SCD_0741	36	32	de	NULL	prep	NULL	B_GP	DEP	31	idtext0064	de	#####	spk2	91.41	91.43	0.01	_
20091112_RATP_SCD_0741	36	33	zones	NULL	nc	NULL	I_GP	OBJ	32	idtext0065	zone	##f#p##	spk2	91.44	91.82	?	//

20091112_RATP_SCD_0741	37	1	pour	NULL	prep	NULL	B_GP	ROOT	0	idtext0066	pour	#####	spk1	91.86	91.94	0.01	_
20091112_RATP_SCD_0741	37	2	l'	NULL	det	NULL	I_GP	DET	3	idtext0066	le	###s##d	spk1	91.95	91.97	0.01	_
20091112_RATP_SCD_0741	37	3	instant	NULL	nc	NULL	I_GP	OBJ	1	idtext0066	instant	##m#s##	spk1	91.98	92.29	0.01	_
20091112_RATP_SCD_0741	37	4	j'	NULL	cln	NULL	B_GN	SUJ	5	idtext0066	cln	#1##s##	spk1	92.3	92.37	0.01	_
20091112_RATP_SCD_0741	37	5	ai	NULL	v	NULL	B_GVfn	ROOT	0	idtext0066	avoir	P#1##s##	spk1	92.38	92.43	0.01	_
20091112_RATP_SCD_0741	37	6	pas	NULL	advneg	NULL	I_GVfn	MOD	5	idtext0066	pas	#####	spk1	92.44	92.58	0.01	_
20091112_RATP_SCD_0741	37	7	cette	NULL	det	NULL	B_GN	DET	8	idtext0066	cet	##f#s##e	spk1	92.59	92.69	0.01	_
20091112_RATP_SCD_0741	37	8	information	NULL	nc	NULL	I_GN	OBJ	5	idtext0066	information	##f#s##	spk1	92.7	93.21	0.01	_
20091112_RATP_SCD_0741	37	9	là	NULL	adv	NULL	B_GADV	NOLINK	0	idtext0066	là	#####	spk1	93.22	93.38	0.20	_
20091112_RATP_SCD_0741	37	10	il	NULL	cln	NULL	B_GN	SUJ_IMP	11	idtext0067	cln	#3#m#s##	spk1	93.58	93.69	0.01	_
20091112_RATP_SCD_0741	37	11	faut	NULL	v	NULL	B_GVf	ROOT	0	idtext0067	falloir	P#3##s##	spk1	93.7	93.79	0.01	_
20091112_RATP_SCD_0741	37	12	savoir	NULL	vinf	NULL	I_GVf	OBJ	11	idtext0067	savoir	W#####	spk1	93.8	94.15	0.01	_
20091112_RATP_SCD_0741	37	13	que	NULL	csu	NULL	B_NULL	OBJ	12	idtext0067	que	#####	spk1	94.16	94.2	0.01	_
20091112_RATP_SCD_0741	37	14	c'	NULL	cln	NULL	B_GN	SUJ_IMP	15	idtext0067	ce	###s##	spk1	94.21	94.23	0.01	_
20091112_RATP_SCD_0741	37	15	est	NULL	v	NULL	B_GVf	OBJ	13	idtext0067	être	P#3##s##	spk1	94.24	94.32	0.01	_
20091112_RATP_SCD_0741	37	16	le	NULL	det	NULL	B_GN	DET	17	idtext0067	le	##m#s##d	spk1	94.33	94.49	0.01	_
20091112_RATP_SCD_0741	37	17	STIF	NULL	np	B_ORG	I_GN	ATS	15	idtext0067	STIF	#####	spk1	94.5	94.84	0.01	_
20091112_RATP_SCD_0741	37	18	qui	NULL	prorel	NULL	B_NULL	SUJ	19	idtext0067	qui	#####	spk1	94.85	94.96	0.01	_
20091112_RATP_SCD_0741	37	19	décide	NULL	v	NULL	B_GVf	MOD_REL	17	idtext0067	décider	PS#13##s##	spk1	94.97	95.32	0.01	_
20091112_RATP_SCD_0741	37	20	de	NULL	prep	NULL	B_NULL	OBJ	19	idtext0067	de	#####	spk1	95.33	95.5	0.01	_
20091112_RATP_SCD_0741	37	21	tout	NULL	adv	NULL	B_GADV	OBJ	20	idtext0067	tout	##m#s##	spk1	95.51	95.66	0.01	_
20091112_RATP_SCD_0741	37	22	ça	NULL	pro	NULL	B_GN	OBJ	19	idtext0067	ça	#####	spk1	95.67	95.9	0.04	_
20091112_RATP_SCD_0741	37	23	de	NULL	prep	NULL	B_GP	ROOT	0	idtext0068	de	#####	spk1	95.94	95.96	0.01	_
20091112_RATP_SCD_0741	37	24	mettre	NULL	vinf	NULL	I_GP	OBJ	23	idtext0068	mettre	W#####	spk1	95.97	96.1	0.01	_
20091112_RATP_SCD_0741	37	25	en+place	NULL	adv	NULL	B_GADV	MOD	26	idtext0068	en+place	#####	spk1	96.11	96.45	0.01	_
20091112_RATP_SCD_0741	37	26	en+fait	GREF	adv	NULL	I_GADV	ROOT	0	idtext0068	en+fait	#####	spk1	96.46	96.69	0.01	_
20091112_RATP_SCD_0741	37	27	toutes+ces	NULL	det	NULL	B_GN	DET	29	idtext0068	toutes+ces	#####	spk1	96.7	96.95	0.01	_
20091112_RATP_SCD_0741	37	28	ces	DISF_R	det	NULL	NULL	NOLINK	0	idtext0068	ce	###p##e	spk1	96.96	97.04	0.01	_
20091112_RATP_SCD_0741	37	29	procédures	NULL	nc	NULL	I_GN	ROOT	0	idtext0068	procédure	##f#p##	spk1	97.05	97.71	0.55	/
20091112_RATP_SCD_0741	37	30	et	NULL	coo	NULL	B_NULL	ROOT	0	idtext0069	et	#####	spk1	98.26	98.36	0.01	_
20091112_RATP_SCD_0741	37	31	une+fois+que	NULL	csu	NULL	B_NULL	DEP_COORD	30	idtext0069	une+fois+que	#####	spk1	98.37	98.76	0.01	_
20091112_RATP_SCD_0741	37	32	le	NULL	det	NULL	B_GN	DET	33	idtext0069	le	##m#s##d	spk1	98.77	98.79	0.01	_
20091112_RATP_SCD_0741	37	33	STIF	NULL	np	B_ORG	I_GN	SUJ	35	idtext0069	STIF	#####	spk1	98.8	99.04	0.01	_
20091112_RATP_SCD_0741	37	34	a	NULL	v	NULL	B_GVf	AUX	35	idtext0069	avoir	P#3##s##	spk1	99.05	99.1	0.01	_
20091112_RATP_SCD_0741	37	35	avalisé	NULL	vppart	NULL	I_GVf	OBJ	31	idtext0069	avaliser	K##m#s##	spk1	99.11	99.54	0.01	_
20091112_RATP_SCD_0741	37	36	tout	NULL	adv	NULL	B_GADV	MOD	35	idtext0069	tout	##m#s##	spk1	99.55	99.73	0.01	_
20091112_RATP_SCD_0741	37	37	ça	NULL	pro	NULL	B_GN	SUJ_IMP	35	idtext0069	ça	#####	spk1	99.74	100.07	0.04	/
20091112_RATP_SCD_0741	37	38	bon	DISF_M	pres	NULL	NULL	NOLINK	0	idtext0070	bon	#####	spk1	100.11	100.19	0.01	_
20091112_RATP_SCD_0741	37	39	ça	DISF_R	pro	NULL	NULL	NOLINK	0	idtext0070	ça	#####	spk1	100.2	100.35	0.01	_
20091112_RATP_SCD_0741	37	40	m()	DISF_T	tronc	NULL	NULL	NOLINK	0	idtext0070	m()	#####	spk1	100.36	100.49	0.01	_
20091112_RATP_SCD_0741	37	41	ça	NULL	pro	NULL	B_GN	SUJ_IMP	42	idtext0070	ça	#####	spk1	100.5	100.66	0.01	_
20091112_RATP_SCD_0741	37	42	arrive	NULL	v	NULL	B_GVf	ROOT	0	idtext0070	arriver	PS#13##s##	spk1	100.67	100.85	0.01	_
20091112_RATP_SCD_0741	37	43	chez	NULL	prep	NULL	B_GP	P_OBJ	42	idtext0070	chez	#####	spk1	100.86	101.02	0.01	_
20091112_RATP_SCD_0741	37	44	nous	NULL	pro	NULL	I_GP	OBJ	43	idtext0070	nous	#####	spk1	101.03	101.31	?	_

20091112_RATP_SCD_0741	38	1	donc	NULL	coo	NULL	B_NULL	NOLINK	0	idtext0071	donc	#####	spk1	101.5	101.89	0.01	//
20091112_RATP_SCD_0741	38	2	euh	DISF_M	pres	NULL	NULL	NOLINK	0	idtext0071	euh	#####	spk1	101.9	102.67	?	//

20091112_RATP_SCD_0741	39	1	d'accord	NULL	adv	NULL	B_GADV	NOLINK	0	idtext0072	d'accord	#####	spk2	101.5	102.67	?	//

20091112_RATP_SCD_0741	40	1	pour	NULL	prep	NULL	B_GP	ROOT	0	idtext0073	pour	#####	spk1	102.71	102.79	0.01	_
20091112_RATP_SCD_0741	40	2	l'	NULL	det	NULL	I_GP	DET	3	idtext0073	le	###s##d	spk1	102.8	102.82	0.01	_
20091112_RATP_SCD_0741	40	3	instant	NULL	nc	NULL	I_GP	OBJ	1	idtext0073	instant	##m#s##	spk1	102.83	103.2	0.01	_
20091112_RATP_SCD_0741	40	4	euh	DISF_M	pres	NULL	NULL	NOLINK	0	idtext0073	euh	#####	spk1	103.21	103.73	0.06	_
20091112_RATP_SCD_0741	40	5	ce+que	NULL	prorel	NULL	B_NULL	OBJ	7	idtext0074	ce+que	#####	spk1	103.79	103.88	0.01	_
20091112_RATP_SCD_0741	40	6	vous	NULL	cln	NULL	B_GN	SUJ	7	idtext0074	cln	#2##p##	spk1	103.89	104.09	0.01	_
20091112_RATP_SCD_0741	40	7	pouvez	NULL	v	NULL	B_GVf	ROOT	0	idtext0074	pouvoir	P#2##p##	spk1	104.1	104.36	0.01	_
20091112_RATP_SCD_0741	40	8	faire	NULL	vinf	NULL	I_GVf	OBJ	7	idtext0074	faire	W#####	spk1	104.37	104.57	0.01	_
20091112_RATP_SCD_0741	40	9	c'	NULL	cln	NULL	B_GN	SUJ_IMP	10	idtext0074	ce	###s##	spk1	104.58	104.65	0.01	_
20091112_RATP_SCD_0741	40	10	est	NULL	v	NULL	B_GVf	ROOT	0	idtext0074	être	P#3##s##	spk1	104.66	105.28	0.05	_
20091112_RATP_SCD_0741	40	11	euh	DISF_M	pres	NULL	NULL	NOLINK	0	idtext0075	euh	#####	spk1	105.33	105.55	?	//

20091112_RATP_SCD_0741	41	1	vous	NULL	cln	NULL	B_GN	SUJ	2	idtext0076	cln	#2##p##	spk1	106.26	106.41	0.01	_
20091112_RATP_SCD_0741	41	2	avez	NULL	v	NULL	B_GVf	ROOT	0	idtext0076	avoir	P#2##p##	spk1	106.42	106.55	0.01	_
20091112_RATP_SCD_0741	41	3	internet	NULL	nc	NULL	B_GN	OBJ	2	idtext0076	internet	##m#s##	spk1	106.56	106.89	0.01	_
20091112_RATP_SCD_0741	41	4	donc	NULL	coo	NULL	B_NULL	COORD	2	idtext0076	donc	#####	spk1	106.9	107.04	0.01	_
20091112_RATP_SCD_0741	41	5	consultez	NULL	v	NULL	B_GVf	DEP_COORD	4	idtext0076	consulter	P#2##p##	spk1	107.05	107.5	0.01	_
20091112_RATP_SCD_0741	41	6	le	NULL	det	NULL	B_GN	DET	7	idtext0076	le	##m#s##d	spk1	107.51	107.57	0.01	_
20091112_RATP_SCD_0741	41	7	STIF	NULL	np	B_ORG	I_GN	OBJ	5	idtext0076	STIF	#####	spk1	107.58	107.99	0.01	_
20091112_RATP_SCD_0741	41	8	le	NULL	det	NULL	B_GN	DET	9	idtext0076	le	##m#s##d	spk1	108.0	108.14	0.01	_
20091112_RATP_SCD_0741	41	9	site	NULL	nc	NULL	I_GN	OBJ	5	idtext0076	site	##m#s##	spk1	108.15	108.38	0.01	_
20091112_RATP_SCD_0741	41	10	du	NULL	prep	NULL	B_GP	DEP	9	idtext0076	du	#####	spk1	108.39	108.5	0.01	_
20091112_RATP_SCD_0741	41	11	STIF	NULL	np	B_ORG	I_GP	OBJ	10	idtext0076	STIF	#####	spk1	108.51	109.05	?	//

20091112_RATP_SCD_0741	42	1	d'accord	NULL	adv	NULL	B_GADV	NOLINK	0	idtext0077	d'accord	#####	spk2	109.1	110.12	?	//

20091112_RATP_SCD_0741	43	1	syndicat	NULL	nc	NULL	B_GN	NOLINK	0	idtext0078	syndicat	##m#s##	spk1	109.19	110.12	?	//

20091112_RATP_SCD_0741	44	1	syndicat	NULL	nc	NULL	B_GN	ROOT	0	idtext0079	syndicat	##m#s##	spk1	110.31	110.67	0.01	_
20091112_RATP_SCD_0741	44	2	des	NULL	prep	NULL	B_GP	NOLINK	0	idtext0079	des	#####	spk1	110.68	110.73	0.01	_
20091112_RATP_SCD_0741	44	3	transports	NULL	nc	NULL	I_GP	DEP	1	idtext0079	transport	##m#p##	spk1	110.74	111.04	0.01	_
20091112_RATP_SCD_0741	44	4	Île-de-France	NULL	nc	B_A	I_GP	DEP	1	idtext0079	Île-de-France	#####	spk1	111.05	111.53	?	//

20091112_RATP_SCD_0741	45	1	donc	NULL	coo	NULL	B_NULL	ROOT	0	idtext0080	donc	#####	spk2	111.68	111.96	0.01	_
20091112_RATP_SCD_0741	45	2	là	NULL	adv	NULL	B_GADV	NOLINK	0	idtext0080	là	#####	spk2	111.97	112.08	0.01	_
20091112_RATP_SCD_0741	45	3	on	NULL	cln	NULL	B_GN	SUJ	4	idtext0080	cln	#3##s##	spk2	112.09	112.2	0.01	_
20091112_RATP_SCD_0741	45	4	pourra	NULL	v	NULL	B_GVf	DEP_COORD	1	idtext0080	pouvoir	F#3##s##	spk2	112.21	112.39	0.01	_
20091112_RATP_SCD_0741	45	5	savoir	NULL	vinf	NULL	I_GVf	OBJ	4	idtext0080	savoir	W#####	spk2	112.4	113.54	0.01	_
20091112_RATP_SCD_0741	45	6	hum	DISF_M	pres	NULL	NULL	NOLINK	0	idtext0080	hum	#####	spk2	113.55	113.76	?	//

20091112_RATP_SCD_0741	46	1	s()	DISF_T	tronc	NULL	NULL	NOLINK	0	idtext0081	s()	#####	spk1	111.75	111.88	0.01	_
20091112_RATP_SCD_0741	46	2	ces	NULL	det	NULL	B_GN	DET	3	idtext0081	ce	###p##e	spk1	111.89	112.37	0.01	_
20091112_RATP_SCD_0741	46	3	procédures	NULL	nc	NULL	I_GN	SUJ	6	idtext0081	procédure	##f#p##	spk1	112.38	113.01	0.01	_
20091112_RATP_SCD_0741	46	4	voilà	DISF_M	pres	NULL	NULL	NOLINK	0	idtext0081	voilà	#####	spk1	113.02	113.23	0.01	_
20091112_RATP_SCD_0741	46	5	sont	NULL	v	NULL	B_GVf	AUX	6	idtext0081	être	P#3##p##	spk1	113.24	113.41	0.01	/
20091112_RATP_SCD_0741	46	6	mises	NULL	vppart	NULL	I_GVf	ROOT	0	idtext0081	miser	PS#2##s##	spk1	113.42	113.63	0.01	_
20091112_RATP_SCD_0741	46	7	en	NULL	prep	NULL	B_NULL	MOD	6	idtext0081	en	#####	spk1	113.64	113.76	?	_

20091112_RATP_SCD_0741	47	1	place	NULL	nc	NULL	B_GN	ROOT	0	idtext0082	place	##f#s##	spk1	113.8	113.95	0.01	_
20091112_RATP_SCD_0741	47	2	par	NULL	prep	NULL	B_GP	MOD	1	idtext0082	par	#####	spk1	113.96	114.08	0.01	_
20091112_RATP_SCD_0741	47	3	le	NULL	det	NULL	I_GP	DET	4	idtext0082	le	##m#s##d	spk1	114.09	114.16	0.01	_
20091112_RATP_SCD_0741	47	4	STIF	NULL	np	B_ORG	I_GP	OBJ	2	idtext0082	STIF	#####	spk1	114.17	114.49	0.38	//
20091112_RATP_SCD_0741	47	5	et	NULL	coo	NULL	B_NULL	ROOT	0	idtext0083	et	#####	spk1	114.87	114.92	0.01	_
20091112_RATP_SCD_0741	47	6	c'	NULL	cln	NULL	B_GN	SUJ_IMP	7	idtext0083	ce	###s##	spk1	114.93	115.01	0.01	_
20091112_RATP_SCD_0741	47	7	est	NULL	v	NULL	B_GVf	DEP_COORD	5	idtext0083	être	P#3##s##	spk1	115.02	115.05	0.01	_
20091112_RATP_SCD_0741	47	8	vrai	NULL	adj	NULL	B_GADJ	ATS	7	idtext0083	vrai	##m#s##	spk1	115.06	115.21	0.01	_
20091112_RATP_SCD_0741	47	9	que	NULL	csu	NULL	B_NULL	NOLINK	0	idtext0083	que	#####	spk1	115.22	115.79	0.34	_
20091112_RATP_SCD_0741	47	10	on	NULL	cln	NULL	B_GN	SUJ_IMP	12	idtext0084	cln	#3##s##	spk1	116.13	116.38	0.01	_
20091112_RATP_SCD_0741	47	11	est	NULL	v	NULL	B_GVf	AUX	12	idtext0084	être	P#3##s##	spk1	116.39	116.41	0.01	_
20091112_RATP_SCD_0741	47	12	avertis	NULL	vppart	NULL	I_GVf	ROOT	0	idtext0084	avertir	PJ#12##s##	spk1	116.42	116.77	0.01	_
20091112_RATP_SCD_0741	47	13	nous	NULL	clo	NULL	B_GN	OBJ	12	idtext0084	cln	#1##p##	spk1	116.78	117.0	0.01	_
20091112_RATP_SCD_0741	47	14	mais	NULL	coo	NULL	B_NULL	COORD	12	idtext0084	mais	#####	spk1	117.01	117.25	0.01	_
20091112_RATP_SCD_0741	47	15	euh	DISF_M	pres	NULL	NULL	NOLINK	0	idtext0084	euh	#####	spk1	117.26	117.51	0.01	_
20091112_RATP_SCD_0741	47	16	il	NULL	cln	NULL	B_GN	SUJ_IMP	18	idtext0084	cln	#3#m#s##	spk1	117.52	117.6	0.01	_
20091112_RATP_SCD_0741	47	17	y	NULL	clo	NULL	B_GN	AFF	18	idtext0084	y	#####	spk1	117.61	117.63	0.01	_
20091112_RATP_SCD_0741	47	18	a	NULL	v	NULL	B_GVf	DEP_COORD	14	idtext0084	avoir	P#3##s##	spk1	117.64	117.66	0.01	_
20091112_RATP_SCD_0741	47	19	un	NULL	det	NULL	I_GP	DET	21	idtext0084	un	##m#s##i	spk1	117.67	117.76	0.01	_
20091112_RATP_SCD_0741	47	20	petit	NULL	adj	NULL	I_GP	MOD	21	idtext0084	petit	##m#s##	spk1	117.77	117.91	0.01	_
20091112_RATP_SCD_0741	47	21	temps	NULL	nc	NULL	I_GP	OBJ	18	idtext0084	temps	##m###	spk1	117.92	118.04	0.01	_
20091112_RATP_SCD_0741	47	22	entre	NULL	prep	NULL	B_GP	MOD	21	idtext0084	entre	#####	spk1	118.05	118.21	0.01	_
20091112_RATP_SCD_0741	47	23	le	NULL	det	NULL	I_GP	DET	24	idtext0084	le	##m#s##d	spk1	118.22	118.24	0.01	_
20091112_RATP_SCD_0741	47	24	moment	NULL	nc	NULL	I_GP	OBJ	22	idtext0084	moment	##m#s##	spk1	118.25	118.48	0.01	_
20091112_RATP_SCD_0741	47	25	où	NULL	prorel	NULL	B_NULL	NOLINK	0	idtext0084	où	#####	spk1	118.49	118.58	?	_

20091112_RATP_SCD_0741	48	1	donc	NULL	coo	NULL	B_NULL	ROOT	0	idtext0085	donc	#####	spk2	118.62	118.87	0.01	_
20091112_RATP_SCD_0741	48	2	en+fait	GREF	adv	NULL	B_GADV	NOLINK	0	idtext0085	en+fait	#####	spk2	118.88	119.19	0.01	_
20091112_RATP_SCD_0741	48	3	si	NULL	csu	NULL	B_NULL	OBJ	1	idtext0085	si	#####	spk2	119.2	119.28	0.01	_
20091112_RATP_SCD_0741	48	4	je	NULL	cln	NULL	B_GN	SUJ	5	idtext0085	cln	#1##s##	spk2	119.29	119.46	0.01	_
20091112_RATP_SCD_0741	48	5	veux	NULL	v	NULL	B_GVf	OBJ	3	idtext0085	vouloir	P#12##s##	spk2	119.47	119.52	0.01	_
20091112_RATP_SCD_0741	48	6	savoir	NULL	vinf	NULL	I_GVf	OBJ	5	idtext0085	savoir	W#####	spk2	119.53	119.88	?	//

20091112_RATP_SCD_0741	49	1	c'	NULL	cln	NULL	B_GN	SUJ_IMP	3	idtext0086	ce	###s##	spk1	118.63	118.65	0.01	_
20091112_RATP_SCD_0741	49	2	est	NULL	v	NULL	B_GVf	AUX	3	idtext0086	être	P#3##s##	spk1	118.66	118.71	0.01	_
20091112_RATP_SCD_0741	49	3	pris	NULL	vppart	NULL	I_GVf	ROOT	0	idtext0086	prendre	K##m###	spk1	118.72	118.88	0.01	_
20091112_RATP_SCD_0741	49	4	en	NULL	clo	NULL	B_GN	OBJ	3	idtext0086	en	#####	spk1	118.89	119.22	0.01	_
20091112_RATP_SCD_0741	49	5	voilà	DISF_M	pres	NULL	NULL	NOLINK	0	idtext0086	voilà	#####	spk1	119.23	119.88	?	//

20091112_RATP_SCD_0741	50	1	si	NULL	csu	NULL	B_NULL	ROOT	0	idtext0087	si	#####	spk2	119.92	120.18	0.01	_
20091112_RATP_SCD_0741	50	2	euh	DISF_M	pres	NULL	NULL	NOLINK	0	idtext0087	euh	#####	spk2	120.19	120.48	0.01	_
20091112_RATP_SCD_0741	50	3	il	NULL	cln	NULL	B_GN	SUJ_IMP	5	idtext0087	cln	#3#m#s##	spk2	120.49	120.54	0.01	_
20091112_RATP_SCD_0741	50	4	y	NULL	clo	NULL	B_GN	AFF	5	idtext0087	y	#####	spk2	120.55	120.57	0.01	_
20091112_RATP_SCD_0741	50	5	a	NULL	v	NULL	B_GVf	OBJ	1	idtext0087	avoir	P#3##s##	spk2	120.58	120.6	0.01	_
20091112_RATP_SCD_0741	50	6	un	NULL	det	NULL	B_GN	DET	7	idtext0087	un	##m#s##i	spk2	120.61	120.63	0.01	_
20091112_RATP_SCD_0741	50	7	remboursement	NULL	nc	NULL	I_GN	OBJ	5	idtext0087	remboursement	##m#s##	spk2	120.64	121.33	0.01	_
20091112_RATP_SCD_0741	50	8	partiel	NULL	adj	NULL	I_GP	MOD	7	idtext0087	partiel	##m#s##	spk2	121.34	121.71	0.01	_
20091112_RATP_SCD_0741	50	9	ou	NULL	coo	NULL	I_GP	COORD	8	idtext0087	ou	#####	spk2	121.72	121.9	0.01	_
20091112_RATP_SCD_0741	50	10	autre	NULL	adj	NULL	I_GP	DEP_COORD	9	idtext0087	autre	###s##	spk2	121.91	122.32	0.01	_
20091112_RATP_SCD_0741	50	11	euh	DISF_M	pres	NULL	NULL	NOLINK	0	idtext0087	euh	#####	spk2	122.33	122.38	?	//

20091112_RATP_SCD_0741	51	1	par	NULL	prep	NULL	B_GP	ROOT	0	idtext0088	par	#####	spk1	122.42	122.53	0.01	_
20091112_RATP_SCD_0741	51	2	le	NULL	det	NULL	I_GP	DET	3	idtext0088	le	##m#s##d	spk1	122.54	122.64	0.01	_
20091112_RATP_SCD_0741	51	3	STIF	NULL	np	B_ORG	I_GP	OBJ	1	idtext0088	STIF	#####	spk1	122.65	123.29	?	//

20091112_RATP_SCD_0741	52	1	ouais	NULL	adv	NULL	B_GADV	MOD	2	idtext0089	ouais	#####	spk1	123.35	123.58	0.01	_
20091112_RATP_SCD_0741	52	2	tout+à+fait	NULL	adv	NULL	I_GADV	ROOT	0	idtext0090	tout+à+fait	#####	spk1	123.59	124.12	?	_

20091112_RATP_SCD_0741	53	1	OK	NULL	adv	NULL	B_GADV	MOD	2	idtext0091	ok	#####	spk2	124.17	124.57	0.01	_
20091112_RATP_SCD_0741	53	2	d'accord	NULL	adv	NULL	I_GADV	ROOT	0	idtext0091	d'accord	#####	spk2	124.58	125.25	?	//

20091112_RATP_SCD_0741	54	1	tout+à+fait	NULL	adv	NULL	B_GADV	NOLINK	0	idtext0092	tout+à+fait	#####	spk1	124.16	125.25	?	//

20091112_RATP_SCD_0741	55	1	OK	NULL	adv	NULL	B_GADV	NOLINK	0	idtext0093	ok	#####	spk2	125.4	125.73	0.01	_
20091112_RATP_SCD_0741	55	2	ben	DISF_M	pres	NULL	NULL	NOLINK	0	idtext0093	ben	#####	spk2	125.74	125.92	0.01	_
20091112_RATP_SCD_0741	55	3	je	NULL	cln	NULL	B_GN	NOLINK	0	idtext0093	cln	#1##s##	spk2	125.93	125.97	0.01	_
20091112_RATP_SCD_0741	55	4	vous	NULL	clo	NULL	B_GN	NOLINK	0	idtext0093	cln	#2##p##	spk2	125.98	126.06	?	_

20091112_RATP_SCD_0741	56	1	je	NULL	cln	NULL	B_GN	SUJ	4	idtext0094	cln	#1##s##	spk1	126.1	126.12	0.01	_
20091112_RATP_SCD_0741	56	2	vous	NULL	clo	NULL	B_GN	OBJ	4	idtext0094	cln	#2##p##	spk1	126.13	126.45	0.01	_
20091112_RATP_SCD_0741	56	3	en	NULL	clo	NULL	B_GN	DE_OBJ	4	idtext0094	en	#####	spk1	126.46	126.55	0.01	_
20091112_RATP_SCD_0741	56	4	prie	NULL	v	NULL	B_GVf	ROOT	0	idtext0094	prier	PS#13##s##	spk1	126.56	126.69	0.01	_
20091112_RATP_SCD_0741	56	5	monsieur	NULL	nc	NULL	B_GN	NOLINK	0	idtext0094	Monsieur	##m#s##	spk1	126.7	127.2	?	//

20091112_RATP_SCD_0741	57	1	remercie	NULL	v	NULL	B_GVf	NOLINK	0	idtext0095	remercier	PS#13##s##	spk2	126.1	126.87	0.01	_
20091112_RATP_SCD_0741	57	2	au+revoir	NULL	adv	NULL	B_GADV	NOLINK	0	idtext0095	au+revoir	#####	spk2	126.88	127.2	?	//

20091112_RATP_SCD_0741	58	1	bonne	NULL	adj	NULL	B_GN	MOD	2	idtext0096	bon	##f#s##	spk1	127.24	127.36	0.01	_
20091112_RATP_SCD_0741	58	2	journée	NULL	nc	NULL	I_GN	ROOT	0	idtext0096	journée	##f#s##	spk1	127.37	127.73	0.01	_
20091112_RATP_SCD_0741	58	3	à	NULL	prep	NULL	B_GP	ROOT	0	idtext0096	à	#####	spk1	127.74	127.76	0.01	_
20091112_RATP_SCD_0741	58	4	vous	NULL	pro	NULL	I_GP	OBJ	3	idtext0096	vous	#####	spk1	127.77	127.82	0.01	_
20091112_RATP_SCD_0741	58	5	au+revoir	NULL	adv	NULL	B_GADV	NOLINK	0	idtext0096	au+revoir	#####	spk1	127.83	128.27	?	//

