20091112_RATP_SCD_0320	1	1	NNAAMMEE	NULL	np	B_HU	B_GN	ROOT	0	idtext0000	ANONYM	NULL	spk1	3.48	3.89	0.01	_
20091112_RATP_SCD_0320	1	2	va	NULL	v	NULL	B_GVf	ROOT	0	idtext0001	aller	P#3##s##	spk1	3.9	4.06	0.01	_
20091112_RATP_SCD_0320	1	3	vous	NULL	clo	NULL	B_GN	A_OBJ	4	idtext0001	cln	#2##p##	spk1	4.07	4.12	0.01	_
20091112_RATP_SCD_0320	1	4	répondre	NULL	vinf	NULL	B_GVi	OBJ	2	idtext0001	répondre	W#####	spk1	4.13	4.33	?	//

20091112_RATP_SCD_0320	2	1	bonjour	NULL	adv	NULL	B_GADV	NOLINK	0	idtext0002	bonjour	#####	spk1	4.66	5.04	0.01	_
20091112_RATP_SCD_0320	2	2	monsieur	NULL	nc	NULL	B_GN	NOLINK	0	idtext0002	Monsieur	##m#s##	spk1	5.05	5.33	0.01	_
20091112_RATP_SCD_0320	2	3	NNAAMMEE	NULL	np	B_HU	B_GN	ROOT	0	idtext0003	ANONYM	NULL	spk1	5.34	6.04	?	//

20091112_RATP_SCD_0320	3	1	bonjour	NULL	adv	NULL	B_GADV	NOLINK	0	idtext0004	bonjour	#####	spk2	6.08	6.89	?	//

20091112_RATP_SCD_0320	4	1	euh	DISF_M	pres	NULL	NULL	NOLINK	0	idtext0005	euh	#####	spk1	7.13	7.42	0.01	_
20091112_RATP_SCD_0320	4	2	voilà	DISF_M	pres	NULL	NULL	NOLINK	0	idtext0005	voilà	#####	spk1	7.43	7.76	0.01	_
20091112_RATP_SCD_0320	4	3	je	NULL	cln	NULL	B_GN	SUJ	4	idtext0005	cln	#1##s##	spk1	7.77	7.91	0.01	_
20091112_RATP_SCD_0320	4	4	voudrais	NULL	v	NULL	B_GVf	ROOT	0	idtext0005	vouloir	C#12##s##	spk1	7.92	8.18	0.01	_
20091112_RATP_SCD_0320	4	5	savoir	NULL	vinf	NULL	I_GVf	OBJ	4	idtext0005	savoir	W#####	spk1	8.19	8.71	0.01	_
20091112_RATP_SCD_0320	4	6	je	NULL	cln	NULL	B_GN	SUJ	9	idtext0005	cln	#1##s##	spk1	8.72	8.82	0.01	_
20091112_RATP_SCD_0320	4	7	m'	NULL	clr	NULL	B_GNr	AFF	9	idtext0005	cla	#1##s##	spk1	8.83	8.94	0.01	_
20091112_RATP_SCD_0320	4	8	en	NULL	clo	NULL	B_GN	DE_OBJ	9	idtext0005	en	#####	spk1	8.95	9.01	0.01	_
20091112_RATP_SCD_0320	4	9	vais	NULL	v	NULL	B_GVf	ROOT	0	idtext0005	aller	P#1##s##	spk1	9.02	9.15	0.01	_
20091112_RATP_SCD_0320	4	10	sur	NULL	prep	NULL	B_GP	P_OBJ_LOC	9	idtext0005	sur	#####	spk1	9.16	9.39	0.01	_
20091112_RATP_SCD_0320	4	11	Créteil	NULL	nc	B_A	I_GP	OBJ	10	idtext0005	Créteil	#####	spk1	9.4	10.19	0.01	_
20091112_RATP_SCD_0320	4	12	je	NULL	cln	NULL	B_GN	SUJ	13	idtext0005	cln	#1##s##	spk1	10.2	10.4	0.01	_
20091112_RATP_SCD_0320	4	13	prends	NULL	v	NULL	B_GVf	ROOT	0	idtext0005	prendre	P#12##s##	spk1	10.41	11.26	0.01	_
20091112_RATP_SCD_0320	4	14	bon	DISF_M	pres	NULL	NULL	NOLINK	0	idtext0005	bon	#####	spk1	11.27	11.51	0.01	_
20091112_RATP_SCD_0320	4	15	les	NULL	det	NULL	B_GN	DET	16	idtext0005	le	###p##d	spk1	11.52	11.76	0.01	_
20091112_RATP_SCD_0320	4	16	autobus	NULL	nc	NULL	I_GN	OBJ	13	idtext0005	autobus	##m###	spk1	11.77	12.88	0.01	_
20091112_RATP_SCD_0320	4	17	et	NULL	coo	NULL	B_NULL	COORD	16	idtext0006	et	#####	spk1	12.89	13.2	0.01	_
20091112_RATP_SCD_0320	4	18	le	NULL	det	NULL	B_GN	DET	19	idtext0006	le	##m#s##d	spk1	13.21	13.47	0.01	_
20091112_RATP_SCD_0320	4	19	RER+A	NULL	nc	B_T	I_GN	DEP_COORD	17	idtext0006	RER+A	#####	spk1	13.48	14.45	0.68	_
20091112_RATP_SCD_0320	4	20	donc	NULL	coo	NULL	B_NULL	ROOT	0	idtext0007	donc	#####	spk1	15.13	15.32	0.01	_
20091112_RATP_SCD_0320	4	21	je	NULL	cln	NULL	B_GN	SUJ	22	idtext0007	cln	#1##s##	spk1	15.33	15.42	0.01	_
20091112_RATP_SCD_0320	4	22	voulais	NULL	v	NULL	B_GVf	DEP_COORD	20	idtext0007	vouloir	I#12##s##	spk1	15.43	15.65	0.01	_
20091112_RATP_SCD_0320	4	23	savoir	NULL	vinf	NULL	I_GVf	OBJ	22	idtext0007	savoir	W#####	spk1	15.66	16.26	0.01	_
20091112_RATP_SCD_0320	4	24	s'	NULL	csu	NULL	B_NULL	OBJ	23	idtext0007	se	#3##p##	spk1	16.27	16.29	0.01	_
20091112_RATP_SCD_0320	4	25	il	NULL	cln	NULL	B_GN	SUJ_IMP	28	idtext0007	cln	#3#m#s##	spk1	16.3	16.9	0.01	_
20091112_RATP_SCD_0320	4	26	n'	NULL	clneg	NULL	B_NULL	MOD	28	idtext0007	n'	#####	spk1	16.91	16.93	0.01	_
20091112_RATP_SCD_0320	4	27	y	NULL	clo	NULL	B_GN	NOLINK	0	idtext0007	y	#####	spk1	16.94	17.15	0.01	_
20091112_RATP_SCD_0320	4	28	avait	NULL	v	NULL	B_GVfn	OBJ	24	idtext0007	avoir	I#3##s##	spk1	17.16	17.34	0.01	_
20091112_RATP_SCD_0320	4	29	pas	NULL	advneg	NULL	I_GVfn	MOD	28	idtext0007	pas	#####	spk1	17.35	17.54	0.01	_
20091112_RATP_SCD_0320	4	30	de	NULL	det	NULL	B_GN	DET	31	idtext0007	de	###p##i	spk1	17.55	17.62	0.01	_
20091112_RATP_SCD_0320	4	31	problèmes	NULL	nc	NULL	I_GN	OBJ	28	idtext0007	problème	##m#p##	spk1	17.63	19.44	?	//

20091112_RATP_SCD_0320	5	1	ah	DISF_M	pres	NULL	NULL	NOLINK	0	idtext0008	ah	#####	spk2	19.49	19.59	0.01	_
20091112_RATP_SCD_0320	5	2	non	NULL	adv	NULL	B_GADV	NOLINK	0	idtext0008	non	#####	spk2	19.6	19.67	0.01	_
20091112_RATP_SCD_0320	5	3	il	NULL	cln	NULL	B_GN	SUJ	6	idtext0008	cln	#3#m#s##	spk2	19.68	19.75	0.01	_
20091112_RATP_SCD_0320	5	4	n'	NULL	clneg	NULL	B_NULL	MOD	6	idtext0008	n'	#####	spk2	19.76	19.79	0.01	_
20091112_RATP_SCD_0320	5	5	y	NULL	clo	NULL	B_GN	AFF	6	idtext0008	y	#####	spk2	19.8	19.82	0.01	_
20091112_RATP_SCD_0320	5	6	a	NULL	v	NULL	B_GVfn	ROOT	0	idtext0008	avoir	P#3##s##	spk2	19.83	19.88	0.01	_
20091112_RATP_SCD_0320	5	7	pas	NULL	advneg	NULL	I_GVfn	MOD	6	idtext0008	pas	#####	spk2	19.89	20.01	0.01	_
20091112_RATP_SCD_0320	5	8	de	NULL	det	NULL	B_GN	DET	9	idtext0008	de	###p##i	spk2	20.02	20.09	0.01	_
20091112_RATP_SCD_0320	5	9	soucis	NULL	nc	NULL	I_GN	OBJ	6	idtext0008	souci	##m#p##	spk2	20.1	20.34	0.01	_
20091112_RATP_SCD_0320	5	10	madame	NULL	nc	NULL	I_GN	NOLINK	0	idtext0008	Monsieur	##f#s##	spk2	20.35	20.72	?	//

20091112_RATP_SCD_0320	6	1	il	NULL	cln	NULL	B_GN	NOLINK	0	idtext0009	cln	#3#m#s##	spk1	20.79	20.84	0.01	_
20091112_RATP_SCD_0320	6	2	n'	NULL	clneg	NULL	B_NULL	NOLINK	0	idtext0009	n'	#####	spk1	20.85	20.87	0.01	_
20091112_RATP_SCD_0320	6	3	y	NULL	clo	NULL	B_GN	AFF	4	idtext0009	y	#####	spk1	20.88	20.93	0.01	_
20091112_RATP_SCD_0320	6	4	a	NULL	v	NULL	B_GVfn	ROOT	0	idtext0009	avoir	P#3##s##	spk1	20.94	20.97	0.01	_
20091112_RATP_SCD_0320	6	5	pas	NULL	advneg	NULL	I_GVfn	MOD	4	idtext0009	pas	#####	spk1	20.98	21.29	0.01	_
20091112_RATP_SCD_0320	6	6	de	NULL	det	NULL	B_GN	DET	7	idtext0009	de	###p##i	spk1	21.3	21.51	0.01	_
20091112_RATP_SCD_0320	6	7	soucis	NULL	nc	NULL	I_GN	OBJ	4	idtext0009	souci	##m#p##	spk1	21.52	21.94	?	//

20091112_RATP_SCD_0320	7	1	non	DISF_R	adv	NULL	NULL	NOLINK	0	idtext0010	non	#####	spk2	22.04	22.17	0.01	_
20091112_RATP_SCD_0320	7	2	non	NULL	adv	NULL	B_GADV	NOLINK	0	idtext0010	non	#####	spk2	22.18	22.52	?	_

20091112_RATP_SCD_0320	8	1	je	NULL	cln	NULL	B_GN	SUJ	2	idtext0011	cln	#1##s##	spk1	22.63	22.77	0.01	_
20091112_RATP_SCD_0320	8	2	voulais	NULL	v	NULL	B_GVf	ROOT	0	idtext0011	vouloir	I#12##s##	spk1	22.78	23.03	0.01	_
20091112_RATP_SCD_0320	8	3	me	NULL	clr	NULL	B_GVi	AFF	4	idtext0011	cla	#1##s##	spk1	23.04	23.15	0.01	_
20091112_RATP_SCD_0320	8	4	renseigner	NULL	vinf	NULL	I_GVi	OBJ	2	idtext0011	renseigner	W#####	spk1	23.16	24.03	?	//

20091112_RATP_SCD_0320	9	1	sur	NULL	prep	NULL	B_GP	ROOT	0	idtext0012	sur	#####	spk2	24.07	24.15	0.01	_
20091112_RATP_SCD_0320	9	2	le	NULL	det	NULL	I_GP	DET	3	idtext0012	le	##m#s##d	spk2	24.16	24.18	0.01	_
20091112_RATP_SCD_0320	9	3	RER+A	NULL	nc	B_T	I_GP	OBJ	1	idtext0012	RER+A	#####	spk2	24.19	24.97	?	//

20091112_RATP_SCD_0320	10	1	d'accord	NULL	adv	NULL	B_GADV	NOLINK	0	idtext0013	d'accord	#####	spk1	25.22	26.43	?	//

20091112_RATP_SCD_0320	11	1	vous	NULL	cln	NULL	B_GN	SUJ	2	idtext0014	cln	#2##p##	spk2	26.53	26.68	0.01	_
20091112_RATP_SCD_0320	11	2	prenez	NULL	v	NULL	B_GVf	ROOT	0	idtext0014	prendre	P#2##p##	spk2	26.69	26.88	0.01	_
20091112_RATP_SCD_0320	11	3	quel	NULL	det	NULL	B_GN	DET	4	idtext0014	quel	##m#s##	spk2	26.89	27.08	0.01	_
20091112_RATP_SCD_0320	11	4	bus	NULL	nc	NULL	I_GN	OBJ	2	idtext0014	bus	##m###	spk2	27.09	27.34	?	//

20091112_RATP_SCD_0320	12	1	eh+bien	DISF_M	pres	NULL	NULL	NOLINK	0	idtext0015	eh+bien	#####	spk1	27.48	28.26	0.01	_
20091112_RATP_SCD_0320	12	2	écoutez	DISF_M	pres	NULL	NULL	NOLINK	0	idtext0015	écoutez	#####	spk1	28.27	28.72	0.01	/
20091112_RATP_SCD_0320	12	3	je	NULL	cln	NULL	B_GN	SUJ	4	idtext0015	cln	#1##s##	spk1	28.73	28.93	0.01	_
20091112_RATP_SCD_0320	12	4	prends	NULL	v	NULL	B_GVf	ROOT	0	idtext0015	prendre	P#12##s##	spk1	28.94	29.33	0.01	_
20091112_RATP_SCD_0320	12	5	le	NULL	det	NULL	B_GN	DET	6	idtext0015	le	##m#s##d	spk1	29.34	29.65	0.01	_
20091112_RATP_SCD_0320	12	6	cent+dix-huit	NULL	nc	B_T	I_GN	OBJ	4	idtext0015	cent+dix-huit	#####	spk1	29.66	30.39	0.01	_
20091112_RATP_SCD_0320	12	7	d'+abord	NULL	adv	NULL	B_GADV	MOD	4	idtext0015	d'+abord	#####	spk1	30.4	31.43	0.01	_
20091112_RATP_SCD_0320	12	8	je	NULL	cln	NULL	B_GN	SUJ	9	idtext0016	cln	#1##s##	spk1	31.44	31.64	0.01	_
20091112_RATP_SCD_0320	12	9	prends	NULL	v	NULL	B_GVf	ROOT	0	idtext0016	prendre	P#12##s##	spk1	31.65	31.86	0.01	_
20091112_RATP_SCD_0320	12	10	le	NULL	det	NULL	B_GN	DET	11	idtext0016	le	##m#s##d	spk1	31.87	32.14	0.01	_
20091112_RATP_SCD_0320	12	11	RER	NULL	nc	B_T	I_GN	OBJ	9	idtext0016	RER	#####	spk1	32.15	33.12	0.01	_
20091112_RATP_SCD_0320	12	12	jusqu'à	NULL	prep	NULL	B_GP	MOD	11	idtext0017	jusqu'à	#####	spk1	33.13	33.65	0.01	_
20091112_RATP_SCD_0320	12	13	Joinville	NULL	nc	B_A	I_GP	OBJ	12	idtext0017	Joinville	##m#s##	spk1	33.66	34.43	0.01	_
20091112_RATP_SCD_0320	12	14	et	NULL	coo	NULL	B_NULL	COORD	9	idtext0017	et	#####	spk1	34.44	34.6	0.01	_
20091112_RATP_SCD_0320	12	15	après	NULL	adv	NULL	B_GADV	NOLINK	0	idtext0017	après	#####	spk1	34.61	35.12	0.01	_
20091112_RATP_SCD_0320	12	16	je	NULL	cln	NULL	B_GN	SUJ	17	idtext0017	cln	#1##s##	spk1	35.13	35.25	0.01	_
20091112_RATP_SCD_0320	12	17	prends	NULL	v	NULL	B_GVf	DEP_COORD	14	idtext0017	prendre	P#12##s##	spk1	35.26	35.53	0.01	_
20091112_RATP_SCD_0320	12	18	le	NULL	det	NULL	B_GN	DET	19	idtext0017	le	##m#s##d	spk1	35.54	35.71	0.01	_
20091112_RATP_SCD_0320	12	19	deux+cent+quatre-vingt-un	NULL	nc	B_T	I_GN	OBJ	17	idtext0017	deux+cent+quatre-vingt-un	#####	spk1	35.72	37.61	0.01	_
20091112_RATP_SCD_0320	12	20	jusqu'à	NULL	prep	NULL	B_GP	MOD	19	idtext0017	jusqu'à	#####	spk1	37.62	37.97	0.01	_
20091112_RATP_SCD_0320	12	21	Créteil	NULL	nc	B_A	I_GP	OBJ	20	idtext0017	Créteil	#####	spk1	37.98	39.23	?	//

20091112_RATP_SCD_0320	13	1	alors	NULL	adv	NULL	B_GADV	NOLINK	0	idtext0018	alors	#####	spk2	39.38	39.65	0.01	_
20091112_RATP_SCD_0320	13	2	le	NULL	det	NULL	B_GN	DET	3	idtext0018	le	##m#s##d	spk2	39.66	39.76	0.01	_
20091112_RATP_SCD_0320	13	3	deux+cent+quatre-vingt-un	NULL	nc	B_T	I_GN	ROOT	0	idtext0018	deux+cent+quatre-vingt-un	#####	spk2	39.77	41.04	1.50	//
20091112_RATP_SCD_0320	13	4	c'	NULL	cln	NULL	B_GN	SUJ_IMP	5	idtext0019	ce	###s##	spk2	42.54	42.67	0.01	_
20091112_RATP_SCD_0320	13	5	est	NULL	v	NULL	B_GVf	ROOT	0	idtext0019	être	P#3##s##	spk2	42.68	42.76	0.01	_
20091112_RATP_SCD_0320	13	6	bon	NULL	adj	NULL	B_GN	ATS	5	idtext0019	bon	##m#s##	spk2	42.77	42.9	0.01	_
20091112_RATP_SCD_0320	13	7	madame	NULL	nc	NULL	I_GN	ATS	5	idtext0019	Monsieur	##f#s##	spk2	42.91	43.37	?	//

20091112_RATP_SCD_0320	14	1	c'	NULL	cln	NULL	B_GN	SUJ_IMP	2	idtext0020	ce	###s##	spk1	43.52	43.54	0.01	_
20091112_RATP_SCD_0320	14	2	est	NULL	v	NULL	B_GVf	ROOT	0	idtext0020	être	P#3##s##	spk1	43.55	43.63	0.01	_
20091112_RATP_SCD_0320	14	3	bon	NULL	adj	NULL	B_GADJ	ATS	2	idtext0020	bon	##m#s##	spk1	43.64	44.04	?	//

20091112_RATP_SCD_0320	15	1	oui	DISF_R	adv	NULL	NULL	NOLINK	0	idtext0021	oui	#####	spk2	44.08	44.17	0.01	_
20091112_RATP_SCD_0320	15	2	oui	NULL	adv	NULL	B_GADV	NOLINK	0	idtext0021	oui	#####	spk2	44.18	44.62	?	_

20091112_RATP_SCD_0320	16	1	merci	NULL	adv	NULL	B_GADV	MOD	2	idtext0022	merci	#####	spk1	44.68	45.2	0.01	_
20091112_RATP_SCD_0320	16	2	beaucoup	NULL	adv	NULL	I_GADV	ROOT	0	idtext0022	beaucoup	#####	spk1	45.21	45.88	?	//

20091112_RATP_SCD_0320	17	1	je	NULL	cln	NULL	B_GN	SUJ	4	idtext0023	cln	#1##s##	spk2	45.92	45.94	0.01	_
20091112_RATP_SCD_0320	17	2	vous	NULL	clo	NULL	B_GN	OBJ	4	idtext0023	cln	#2##p##	spk2	45.95	46.01	0.01	_
20091112_RATP_SCD_0320	17	3	en	NULL	clo	NULL	B_GN	DE_OBJ	4	idtext0023	en	#####	spk2	46.02	46.07	0.01	_
20091112_RATP_SCD_0320	17	4	prie	NULL	v	NULL	B_GVf	ROOT	0	idtext0023	prier	PS#13##s##	spk2	46.08	46.33	0.01	_
20091112_RATP_SCD_0320	17	5	madame	NULL	nc	NULL	B_GN	NOLINK	0	idtext0023	Monsieur	##f#s##	spk2	46.34	46.73	?	//

20091112_RATP_SCD_0320	18	1	au+revoir	NULL	adv	NULL	B_GADV	NOLINK	0	idtext0024	au+revoir	#####	spk1	46.8	47.22	?	//

20091112_RATP_SCD_0320	19	1	au+revoir	NULL	adv	NULL	B_GN	NOLINK	0	idtext0025	au+revoir	#####	spk2	47.32	47.74	0.01	_
20091112_RATP_SCD_0320	19	2	bonne	NULL	adj	NULL	I_GN	MOD	3	idtext0025	bon	##f#s##	spk2	47.75	47.92	0.01	_
20091112_RATP_SCD_0320	19	3	journée	NULL	nc	NULL	I_GN	ROOT	0	idtext0025	journée	##f#s##	spk2	47.93	48.33	?	//

20091112_RATP_SCD_0320	20	1	vous	NULL	pro	NULL	B_GN	NOLINK	0	idtext0026	vous	#####	spk1	48.62	48.92	0.01	_
20091112_RATP_SCD_0320	20	2	aussi	NULL	adv	NULL	B_GADV	NOLINK	0	idtext0026	aussi	#####	spk1	48.93	49.23	?	_

20091112_RATP_SCD_0320	21	1	merci	NULL	adv	NULL	B_GADV	NOLINK	0	idtext0027	merci	#####	spk2	49.3	49.99	?	//

