20091112_RATP_SCD_0200	1	1	décroché	NULL	vppart	NULL	B_GVf	NOLINK	0	idtext0000	décrocher	K##m#s##	spk1	2.15	2.26	?	//

20091112_RATP_SCD_0200	2	1	bonjour	NULL	adv	NULL	B_GADV	NOLINK	0	idtext0001	bonjour	#####	spk3	3.9	5.12	?	//

20091112_RATP_SCD_0200	3	1	oui	NULL	adv	NULL	B_GADV	MOD	2	idtext0002	oui	#####	spk2	5.88	6.12	0.01	_
20091112_RATP_SCD_0200	3	2	bonjour	NULL	adv	NULL	I_GADV	ROOT	0	idtext0002	bonjour	#####	spk2	6.13	6.57	?	//

20091112_RATP_SCD_0200	4	1	bonjour	NULL	adv	NULL	B_GADV	NOLINK	0	idtext0003	bonjour	#####	spk3	6.61	6.88	0.01	_
20091112_RATP_SCD_0200	4	2	madame	NULL	nc	NULL	B_GN	NOLINK	0	idtext0003	Monsieur	##f#s##	spk3	6.89	7.41	?	//

20091112_RATP_SCD_0200	5	1	euh	DISF_M	pres	NULL	NULL	NOLINK	0	idtext0004	euh	#####	spk2	8.08	8.21	0.01	_
20091112_RATP_SCD_0200	5	2	je	NULL	cln	NULL	B_GN	SUJ	3	idtext0004	cln	#1##s##	spk2	8.22	8.4	0.01	_
20091112_RATP_SCD_0200	5	3	souhaiterais	NULL	v	NULL	B_GVf	ROOT	0	idtext0004	souhaiter	C#12##s##	spk2	8.41	8.97	0.01	_
20091112_RATP_SCD_0200	5	4	juste	NULL	adv	NULL	B_GVi	MOD	6	idtext0004	juste	###s##	spk2	8.98	9.49	0.01	_
20091112_RATP_SCD_0200	5	5	euh	DISF_M	pres	NULL	NULL	NOLINK	0	idtext0004	euh	#####	spk2	9.5	9.59	0.01	_
20091112_RATP_SCD_0200	5	6	savoir	NULL	vinf	NULL	I_GVi	OBJ	3	idtext0004	savoir	W#####	spk2	9.6	10.0	0.01	_
20091112_RATP_SCD_0200	5	7	euh	DISF_M	pres	NULL	NULL	NOLINK	0	idtext0004	euh	#####	spk2	10.01	10.03	0.01	_
20091112_RATP_SCD_0200	5	8	si	NULL	csu	NULL	B_NULL	OBJ	6	idtext0004	si	#####	spk2	10.04	10.23	0.01	_
20091112_RATP_SCD_0200	5	9	euh	DISF_M	pres	NULL	NULL	NOLINK	0	idtext0004	euh	#####	spk2	10.24	10.26	0.01	_
20091112_RATP_SCD_0200	5	10	la	NULL	det	NULL	B_GN	DET	11	idtext0004	le	##m#s##d	spk2	10.27	10.55	0.01	_
20091112_RATP_SCD_0200	5	11	grève	NULL	nc	NULL	I_GN	SUJ	12	idtext0004	grève	##f#s##	spk2	10.56	10.81	0.01	_
20091112_RATP_SCD_0200	5	12	va	NULL	v	NULL	B_GVf	OBJ	8	idtext0004	aller	P#3##s##	spk2	10.82	10.93	0.01	_
20091112_RATP_SCD_0200	5	13	continuer	NULL	vinf	NULL	I_GVf	OBJ	12	idtext0004	continuer	W#####	spk2	10.94	11.4	0.01	_
20091112_RATP_SCD_0200	5	14	aujourd'hui	NULL	adv	NULL	B_GADV	MOD	12	idtext0004	aujourd'hui	#####	spk2	11.41	12.04	0.01	//
20091112_RATP_SCD_0200	5	15	ou	NULL	coo	NULL	B_NULL	COORD	14	idtext0004	ou	#####	spk2	12.05	12.16	0.01	_
20091112_RATP_SCD_0200	5	16	pas	NULL	advneg	NULL	B_NULL	DEP_COORD	15	idtext0004	pas	#####	spk2	12.17	12.45	?	_

20091112_RATP_SCD_0200	6	1	au+niveau+du	NULL	prep	NULL	B_GP	ROOT	0	idtext0005	au+niveau+du	#####	spk3	12.96	13.42	0.01	_
20091112_RATP_SCD_0200	6	2	B	NULL	nc	NULL	I_GP	OBJ	1	idtext0005	B	#####	spk3	13.43	13.76	?	//

20091112_RATP_SCD_0200	7	1	oui	NULL	adv	NULL	B_GADV	NOLINK	0	idtext0006	oui	#####	spk2	14.26	14.57	?	//

20091112_RATP_SCD_0200	8	1	non	NULL	adv	NULL	B_GADV	MOD	2	idtext0007	non	#####	spk3	14.61	14.72	0.01	_
20091112_RATP_SCD_0200	8	2	là	NULL	adv	NULL	I_GADV	ROOT	0	idtext0007	là	#####	spk3	14.73	14.85	0.01	_
20091112_RATP_SCD_0200	8	3	y	NULL	clo	NULL	B_GN	AFF	4	idtext0007	y	#####	spk3	14.86	14.92	0.01	_
20091112_RATP_SCD_0200	8	4	a	NULL	v	NULL	B_GVf	ROOT	0	idtext0007	avoir	P#3##s##	spk3	14.93	14.96	0.01	_
20091112_RATP_SCD_0200	8	5	toujours	NULL	adv	NULL	B_GADV	MOD	4	idtext0007	toujours	#####	spk3	14.97	15.26	0.01	_
20091112_RATP_SCD_0200	8	6	il	DISF_R	cln	NULL	B_GN	NOLINK	0	idtext0007	cln	#3#m#s##	spk3	15.27	15.32	0.01	_
20091112_RATP_SCD_0200	8	7	y	DISF_R	clo	NULL	B_GN	NOLINK	0	idtext0007	y	#####	spk3	15.33	15.37	0.01	_
20091112_RATP_SCD_0200	8	8	a	DISF_R	v	NULL	B_GVf	NOLINK	0	idtext0007	avoir	P#3##s##	spk3	15.38	15.92	0.01	_
20091112_RATP_SCD_0200	8	9	il	NULL	cln	NULL	B_GN	SUJ_IMP	11	idtext0007	cln	#3#m#s##	spk3	15.93	15.98	0.01	_
20091112_RATP_SCD_0200	8	10	y	NULL	clo	NULL	B_GN	AFF	11	idtext0007	y	#####	spk3	15.99	16.01	0.01	_
20091112_RATP_SCD_0200	8	11	a	NULL	v	NULL	B_GVf	OBJ	4	idtext0007	avoir	P#3##s##	spk3	16.02	16.08	0.01	_
20091112_RATP_SCD_0200	8	12	trois	NULL	adj	NULL	I_GP	MOD	13	idtext0007	trois	#####	spk3	16.09	16.28	0.01	_
20091112_RATP_SCD_0200	8	13	trains	NULL	nc	NULL	I_GP	OBJ	11	idtext0007	train	##m#p##	spk3	16.29	16.47	0.01	_
20091112_RATP_SCD_0200	8	14	sur	NULL	prep	NULL	B_NULL	DEP	13	idtext0007	sur	#####	spk3	16.48	16.71	0.01	_
20091112_RATP_SCD_0200	8	15	quatre	NULL	adj	NULL	B_GADJ	OBJ	14	idtext0007	quatre	#####	spk3	16.72	17.01	0.01	_
20091112_RATP_SCD_0200	8	16	là	NULL	adv	NULL	B_GADV	NOLINK	0	idtext0007	là	#####	spk3	17.02	17.19	?	/

20091112_RATP_SCD_0200	9	1	et	NULL	coo	NULL	B_NULL	ROOT	0	idtext0008	et	#####	spk3	17.81	17.87	0.01	_
20091112_RATP_SCD_0200	9	2	y	NULL	clo	NULL	B_GN	AFF	3	idtext0008	y	#####	spk3	17.88	17.91	0.01	_
20091112_RATP_SCD_0200	9	3	a	NULL	v	NULL	B_GVfn	DEP_COORD	1	idtext0008	avoir	P#3##s##	spk3	17.92	17.95	0.01	_
20091112_RATP_SCD_0200	9	4	plus	NULL	advneg	NULL	I_GVfn	MOD	3	idtext0008	plus	#####	spk3	17.96	18.08	0.01	_
20091112_RATP_SCD_0200	9	5	d'	NULL	prep	NULL	B_NULL	OBJ	3	idtext0008	d'	#####	spk3	18.09	18.13	0.01	_
20091112_RATP_SCD_0200	9	6	inte()	DISF_T	tronc	NULL	NULL	NOLINK	0	idtext0008	inte()	#####	spk3	18.14	18.33	0.01	_
20091112_RATP_SCD_0200	9	7	par+contre	NULL	adv	NULL	B_GADV	NOLINK	0	idtext0008	par+contre	#####	spk3	18.34	18.63	0.01	_
20091112_RATP_SCD_0200	9	8	l'	NULL	det	NULL	B_GN	DET	9	idtext0008	le	###s##d	spk3	18.64	18.66	0.01	_
20091112_RATP_SCD_0200	9	9	interconnexion	NULL	nc	NULL	I_GN	OBJ	5	idtext0008	interconnexion	##f#s##	spk3	18.67	19.33	0.01	_
20091112_RATP_SCD_0200	9	10	ça	NULL	pro	NULL	I_GN	SUJ_IMP	12	idtext0008	ça	#####	spk3	19.34	19.47	0.01	_
20091112_RATP_SCD_0200	9	11	a	NULL	v	NULL	B_GVf	AUX	12	idtext0008	avoir	P#3##s##	spk3	19.48	19.5	0.01	_
20091112_RATP_SCD_0200	9	12	repris	NULL	vppart	NULL	I_GVf	ROOT	0	idtext0008	reprendre	K##m###	spk3	19.51	19.92	0.01	_
20091112_RATP_SCD_0200	9	13	hein	DISF_M	pres	NULL	NULL	NOLINK	0	idtext0008	hein	#####	spk3	19.93	20.06	?	//

20091112_RATP_SCD_0200	10	1	d'accord	NULL	adv	NULL	B_GADV	NOLINK	0	idtext0009	d'accord	#####	spk2	20.88	21.4	?	//

20091112_RATP_SCD_0200	11	1	ça	NULL	pro	NULL	B_GN	SUJ_IMP	2	idtext0010	ça	#####	spk3	22.61	22.74	0.01	_
20091112_RATP_SCD_0200	11	2	refonctionne	NULL	v	NULL	B_GVf	ROOT	0	idtext0010	refonctionne	#####	spk3	22.75	23.3	0.01	_
20091112_RATP_SCD_0200	11	3	hein	DISF_M	pres	NULL	NULL	NOLINK	0	idtext0010	hein	#####	spk3	23.31	23.44	0.01	_
20091112_RATP_SCD_0200	11	4	pardon	DISF_M	pres	NULL	NULL	NOLINK	0	idtext0010	pardon	#####	spk3	23.45	23.7	?	//

20091112_RATP_SCD_0200	12	1	je	NULL	cln	NULL	B_GN	SUJ	4	idtext0011	cln	#1##s##	spk3	24.56	24.67	0.01	_
20091112_RATP_SCD_0200	12	2	vous	NULL	clo	NULL	B_GN	OBJ	4	idtext0011	cln	#2##p##	spk3	24.68	24.8	0.01	_
20091112_RATP_SCD_0200	12	3	en	NULL	clo	NULL	B_GN	DE_OBJ	4	idtext0011	en	#####	spk3	24.81	24.88	0.01	_
20091112_RATP_SCD_0200	12	4	prie	NULL	v	NULL	B_GVf	ROOT	0	idtext0011	prier	PS#13##s##	spk3	24.89	25.2	0.01	_
20091112_RATP_SCD_0200	12	5	bonne	NULL	adj	NULL	B_GN	MOD	6	idtext0011	bon	##f#s##	spk3	25.21	25.49	0.01	_
20091112_RATP_SCD_0200	12	6	journée	NULL	nc	NULL	I_GN	ROOT	0	idtext0011	journée	##f#s##	spk3	25.5	26.16	?	//

20091112_RATP_SCD_0200	13	1	au+revoir	NULL	adv	NULL	B_GADV	NOLINK	0	idtext0012	au+revoir	#####	spk2	24.68	26.16	?	//

20091112_RATP_SCD_0200	14	1	au+revoir	NULL	adv	NULL	B_GADV	NOLINK	0	idtext0013	au+revoir	#####	spk3	26.41	27.55	?	//

20091112_RATP_SCD_0200	15	1	vous	NULL	pro	NULL	B_GN	NOLINK	0	idtext0014	vous	#####	spk2	26.44	26.69	0.01	_
20091112_RATP_SCD_0200	15	2	aussi	NULL	adv	NULL	B_GADV	NOLINK	0	idtext0014	aussi	#####	spk2	26.7	27.55	?	_

