20091112_RATP_SCD_0039	1	1	NNAAMMEE	NULL	np	B_HU	B_GN	ROOT	0	idtext0000	ANONYM	NULL	spk1	4.83	5.02	0.04	_
20091112_RATP_SCD_0039	1	2	bonjour	NULL	adv	NULL	B_GADV	NOLINK	0	idtext0001	bonjour	#####	spk1	5.06	5.75	?	//

20091112_RATP_SCD_0039	2	1	oui	NULL	adv	NULL	B_GADV	MOD	2	idtext0002	oui	#####	spk2	6.47	6.69	0.01	_
20091112_RATP_SCD_0039	2	2	bonjour	NULL	adv	NULL	I_GADV	ROOT	0	idtext0002	bonjour	#####	spk2	6.7	7.07	0.01	_
20091112_RATP_SCD_0039	2	3	madame	NULL	nc	NULL	B_GN	NOLINK	0	idtext0002	Monsieur	##f#s##	spk2	7.08	7.58	?	//

20091112_RATP_SCD_0039	3	1	je	NULL	cln	NULL	B_GN	SUJ	2	idtext0003	cln	#1##s##	spk2	7.87	8.05	0.01	_
20091112_RATP_SCD_0039	3	2	suis	NULL	v	NULL	B_GVf	ROOT	0	idtext0003	être	P#1##s##	spk2	8.06	8.34	0.01	_
20091112_RATP_SCD_0039	3	3	à	NULL	prep	NULL	B_GP	P_OBJ_LOC	2	idtext0003	à	#####	spk2	8.35	8.41	0.01	_
20091112_RATP_SCD_0039	3	4	Chilly-Mazarin	NULL	nc	B_A	I_GP	OBJ	3	idtext0004	Chilly-Mazarin	##m#s##	spk2	8.42	9.48	0.07	_
20091112_RATP_SCD_0039	3	5	j'	NULL	cln	NULL	B_GN	SUJ	6	idtext0005	cln	#1##s##	spk2	9.55	9.7	0.01	_
20091112_RATP_SCD_0039	3	6	attends	NULL	v	NULL	B_GVf	ROOT	0	idtext0005	attendre	P#12##s##	spk2	9.71	9.99	0.01	_
20091112_RATP_SCD_0039	3	7	le	NULL	det	NULL	B_GN	DET	8	idtext0005	le	##m#s##d	spk2	10.0	10.16	0.01	_
20091112_RATP_SCD_0039	3	8	bus	NULL	nc	B_T	I_GN	OBJ	6	idtext0005	bus	##m###	spk2	10.17	10.39	0.01	_
20091112_RATP_SCD_0039	3	9	quatre	NULL	adj	I_T	I_GN	MOD	8	idtext0005	quatre	#####	spk2	10.4	10.63	0.01	_
20091112_RATP_SCD_0039	3	10	cent	NULL	adj	I_T	I_GN	MOD	9	idtext0005	cent	#####	spk2	10.64	10.75	0.01	_
20091112_RATP_SCD_0039	3	11	quatre-vingt-douze	NULL	adj	I_T	I_GN	MOD	10	idtext0005	quatre-vingt-douze	#####	spk2	10.76	11.95	0.01	_
20091112_RATP_SCD_0039	3	12	et	NULL	coo	NULL	B_NULL	COORD	6	idtext0006	et	#####	spk2	11.96	12.01	0.01	_
20091112_RATP_SCD_0039	3	13	il	NULL	cln	NULL	B_GN	SUJ	18	idtext0006	cln	#3#m#s##	spk2	12.02	12.22	0.01	_
20091112_RATP_SCD_0039	3	14	n'	NULL	clneg	NULL	B_GVfn	MOD	15	idtext0006	n'	#####	spk2	12.23	12.29	0.01	_
20091112_RATP_SCD_0039	3	15	est	NULL	v	NULL	I_GVfn	AUX	18	idtext0006	être	P#3##s##	spk2	12.3	12.38	0.01	_
20091112_RATP_SCD_0039	3	16	toujours	NULL	adv	NULL	B_GADV	MOD	17	idtext0006	toujours	#####	spk2	12.39	12.67	0.01	_
20091112_RATP_SCD_0039	3	17	pas	NULL	advneg	NULL	B_NULL	MOD	18	idtext0006	pas	#####	spk2	12.68	12.8	0.01	_
20091112_RATP_SCD_0039	3	18	passé	NULL	vppart	NULL	B_GVf	ROOT	0	idtext0006	passer	K##m#s##	spk2	12.81	13.56	0.01	_
20091112_RATP_SCD_0039	3	19	euh	DISF_M	pres	NULL	NULL	NOLINK	0	idtext0006	euh	#####	spk2	13.57	13.87	0.01	_
20091112_RATP_SCD_0039	3	20	il	NULL	cln	NULL	B_GN	SUJ_IMP	21	idtext0006	cln	#3#m#s##	spk2	13.88	13.95	0.01	_
20091112_RATP_SCD_0039	3	21	devait	NULL	v	NULL	B_GVf	DEP_COORD	12	idtext0006	devoir	I#3##s##	spk2	13.96	14.27	0.01	_
20091112_RATP_SCD_0039	3	22	passer	NULL	vinf	NULL	I_GVf	OBJ	21	idtext0006	passer	W#####	spk2	14.28	14.61	0.01	_
20091112_RATP_SCD_0039	3	23	à	NULL	prep	NULL	B_GP	MOD	21	idtext0006	à	#####	spk2	14.62	14.7	0.01	_
20091112_RATP_SCD_0039	3	24	sept	NULL	det	B_H	I_GP	DET	25	idtext0006	sept	#####	spk2	14.71	15.03	0.01	_
20091112_RATP_SCD_0039	3	25	heures	NULL	nc	I_H	I_GP	OBJ	23	idtext0006	heure	##f#p##	spk2	15.04	15.17	0.01	_
20091112_RATP_SCD_0039	3	26	trente-sept	NULL	adj	I_H	I_GP	MOD	25	idtext0006	trente-sept	#####	spk2	15.18	16.12	0.01	_
20091112_RATP_SCD_0039	3	27	et	NULL	coo	NULL	B_NULL	COORD	25	idtext0006	et	#####	spk2	16.13	16.2	0.01	_
20091112_RATP_SCD_0039	3	28	sept	NULL	det	B_H	B_GN	DET	29	idtext0006	sept	#####	spk2	16.21	16.46	0.01	_
20091112_RATP_SCD_0039	3	29	heures	NULL	nc	I_H	I_GN	DEP_COORD	27	idtext0006	heure	##f#p##	spk2	16.47	16.66	0.01	_
20091112_RATP_SCD_0039	3	30	cinquante-et-un	NULL	adj	I_H	I_GN	MOD	29	idtext0006	cinquante-et-un	#####	spk2	16.67	17.95	0.01	_
20091112_RATP_SCD_0039	3	31	et	NULL	coo	NULL	B_NULL	COORD	21	idtext0007	et	#####	spk2	17.96	18.05	0.01	_
20091112_RATP_SCD_0039	3	32	il	NULL	cln	NULL	B_GN	SUJ	35	idtext0007	cln	#3#m#s##	spk2	18.06	18.11	0.01	_
20091112_RATP_SCD_0039	3	33	n'	NULL	clneg	NULL	B_NULL	MOD	43	idtext0007	n'	#####	spk2	18.12	18.18	0.01	_
20091112_RATP_SCD_0039	3	34	y	NULL	clo	NULL	B_GN	NOLINK	0	idtext0007	y	#####	spk2	18.19	18.21	0.01	_
20091112_RATP_SCD_0039	3	35	a	NULL	v	NULL	B_GVf	DEP_COORD	31	idtext0007	avoir	P#3##s##	spk2	18.22	18.27	0.01	_
20091112_RATP_SCD_0039	3	36	toujours	NULL	adv	NULL	B_GADV	MOD	37	idtext0007	toujours	#####	spk2	18.28	18.61	0.01	_
20091112_RATP_SCD_0039	3	37	pas	NULL	advneg	NULL	B_NULL	MOD	35	idtext0007	pas	#####	spk2	18.62	18.76	0.01	_
20091112_RATP_SCD_0039	3	38	de	NULL	det	NULL	B_GN	DET	39	idtext0007	de	###p##i	spk2	18.77	18.84	0.01	_
20091112_RATP_SCD_0039	3	39	bus	NULL	nc	NULL	I_GN	OBJ	35	idtext0007	bus	##m###	spk2	18.85	19.16	0.01	_
20091112_RATP_SCD_0039	3	40	donc	NULL	coo	NULL	B_NULL	COORD	35	idtext0007	donc	#####	spk2	19.17	19.33	0.01	_
20091112_RATP_SCD_0039	3	41	je	NULL	cln	NULL	B_GN	SUJ	42	idtext0007	cln	#1##s##	spk2	19.34	19.41	0.01	_
20091112_RATP_SCD_0039	3	42	souhaiterais	NULL	v	NULL	B_GVf	DEP_COORD	40	idtext0007	souhaiter	C#12##s##	spk2	19.42	19.7	0.01	_
20091112_RATP_SCD_0039	3	43	savoir	NULL	vinf	NULL	I_GVf	OBJ	42	idtext0007	savoir	W#####	spk2	19.71	20.04	0.01	_
20091112_RATP_SCD_0039	3	44	ce+qui	NULL	prorel	NULL	B_NULL	SUJ	46	idtext0007	ce+qui	#####	spk2	20.05	20.31	0.01	_
20091112_RATP_SCD_0039	3	45	se	NULL	clr	NULL	B_GVf	AFF	46	idtext0007	se	#####	spk2	20.32	20.34	0.01	_
20091112_RATP_SCD_0039	3	46	passait	NULL	v	NULL	I_GVf	OBJ	42	idtext0007	passer	I#3##s##	spk2	20.35	20.84	0.01	_
20091112_RATP_SCD_0039	3	47	hein	DISF_M	pres	NULL	NULL	NOLINK	0	idtext0007	hein	#####	spk2	20.85	21.13	?	//

20091112_RATP_SCD_0039	4	1	ah	DISF_M	pres	NULL	NULL	NOLINK	0	idtext0008	ah	#####	spk1	21.61	21.77	0.01	_
20091112_RATP_SCD_0039	4	2	oui	NULL	adv	NULL	B_GADV	NOLINK	0	idtext0008	oui	#####	spk1	21.78	21.92	0.01	_
20091112_RATP_SCD_0039	4	3	mais	NULL	coo	NULL	B_NULL	ROOT	0	idtext0008	mais	#####	spk1	21.93	22.08	0.01	_
20091112_RATP_SCD_0039	4	4	c'	NULL	cln	NULL	B_GN	SUJ_IMP	5	idtext0008	ce	###s##	spk1	22.09	22.24	0.01	_
20091112_RATP_SCD_0039	4	5	est	NULL	v	NULL	B_GVf	DEP_COORD	3	idtext0008	être	P#3##s##	spk1	22.25	22.37	0.01	_
20091112_RATP_SCD_0039	4	6	la	NULL	det	NULL	B_GN	DET	7	idtext0008	le	##m#s##d	spk1	22.38	22.47	0.01	_
20091112_RATP_SCD_0039	4	7	société	NULL	nc	NULL	I_GN	ATS	5	idtext0008	société	##f#s##	spk1	22.48	22.98	0.01	_
20091112_RATP_SCD_0039	4	8	Athis+Cars	NULL	np	B_ORG	I_GN	MOD	7	idtext0008	Athis+Cars	#####	spk1	22.99	23.69	0.01	_
20091112_RATP_SCD_0039	4	9	qui	NULL	prorel	NULL	B_NULL	SUJ	10	idtext0008	qui	#####	spk1	23.7	23.85	0.01	_
20091112_RATP_SCD_0039	4	10	commande	NULL	v	NULL	B_GVf	MOD_REL	7	idtext0008	commander	PS#13##s##	spk1	23.86	24.38	0.01	_
20091112_RATP_SCD_0039	4	11	ce	NULL	det	NULL	B_NULL	NOLINK	0	idtext0008	ce	##m#s##e	spk1	24.39	24.94	?	_

20091112_RATP_SCD_0039	5	1	ce	NULL	det	NULL	B_GN	DET	2	idtext0009	ce	##m#s##e	spk1	25.14	25.35	0.01	_
20091112_RATP_SCD_0039	5	2	bus	NULL	nc	NULL	I_GN	ROOT	0	idtext0009	bus	##m###	spk1	25.36	25.66	?	//

20091112_RATP_SCD_0039	6	1	ben	DISF_M	pres	NULL	NULL	NOLINK	0	idtext0010	ben	#####	spk2	25.19	25.34	0.01	_
20091112_RATP_SCD_0039	6	2	oui	NULL	adv	NULL	B_GADV	NOLINK	0	idtext0010	oui	#####	spk2	25.35	25.47	0.01	_
20091112_RATP_SCD_0039	6	3	mais	NULL	coo	NULL	B_NULL	NOLINK	0	idtext0010	mais	#####	spk2	25.48	25.66	?	_

20091112_RATP_SCD_0039	7	1	toutes+les	NULL	det	NULL	B_GN	DET	2	idtext0011	toutes+les	#####	spk2	25.7	25.95	0.01	_
20091112_RATP_SCD_0039	7	2	coordonnées	NULL	nc	NULL	I_GN	ROOT	0	idtext0011	coordonnée	##f#p##	spk2	25.96	26.6	0.01	_
20091112_RATP_SCD_0039	7	3	qui	NULL	prorel	NULL	B_NULL	SUJ	4	idtext0011	qui	#####	spk2	26.61	26.78	0.01	_
20091112_RATP_SCD_0039	7	4	figurent	NULL	v	NULL	B_GVf	MOD_REL	2	idtext0011	figurer	PS#3##p##	spk2	26.79	27.17	0.01	_
20091112_RATP_SCD_0039	7	5	sur	NULL	prep	NULL	B_GP	P_OBJ_LOC	4	idtext0011	sur	#####	spk2	27.18	27.37	0.01	_
20091112_RATP_SCD_0039	7	6	le	NULL	det	NULL	I_GP	DET	7	idtext0011	le	##m#s##d	spk2	27.38	27.41	0.01	_
20091112_RATP_SCD_0039	7	7	panneau	NULL	nc	NULL	I_GP	OBJ	5	idtext0011	panneau	##m#s##	spk2	27.42	27.78	0.01	_
20091112_RATP_SCD_0039	7	8	sont	NULL	v	NULL	B_GVf	ROOT	0	idtext0011	être	P#3##p##	spk2	27.79	28.0	0.01	_
20091112_RATP_SCD_0039	7	9	les	NULL	det	NULL	B_NULL	OBJ	8	idtext0011	le	###p##d	spk2	28.01	28.16	?	_

20091112_RATP_SCD_0039	8	1	vôtre	NULL	pro	NULL	B_GN	NOLINK	0	idtext0012	vôtre	#####	spk2	28.2	28.76	?	//

20091112_RATP_SCD_0039	9	1	oui	NULL	adv	NULL	B_GADV	NOLINK	0	idtext0013	oui	#####	spk1	28.2	28.39	0.01	_
20091112_RATP_SCD_0039	9	2	mais	NULL	coo	NULL	B_NULL	ROOT	0	idtext0013	mais	#####	spk1	28.4	28.53	0.01	_
20091112_RATP_SCD_0039	9	3	je	NULL	cln	NULL	B_GN	SUJ	4	idtext0013	cln	#1##s##	spk1	28.54	28.64	0.01	_
20091112_RATP_SCD_0039	9	4	vais	NULL	v	NULL	B_GVf	DEP_COORD	2	idtext0013	aller	P#1##s##	spk1	28.65	28.76	?	//

20091112_RATP_SCD_0039	10	1	vous	NULL	clo	NULL	B_GN	A_OBJ	2	idtext0014	cln	#2##p##	spk1	28.8	28.9	0.01	_
20091112_RATP_SCD_0039	10	2	donner	NULL	vinf	NULL	B_GVi	ROOT	0	idtext0014	donner	W#####	spk1	28.91	29.25	0.01	_
20091112_RATP_SCD_0039	10	3	le	NULL	det	NULL	B_GN	DET	4	idtext0014	le	##m#s##d	spk1	29.26	29.32	0.01	_
20091112_RATP_SCD_0039	10	4	numéro	NULL	nc	NULL	I_GN	OBJ	2	idtext0014	numéro	##m#s##	spk1	29.33	29.88	0.01	_
20091112_RATP_SCD_0039	10	5	d'	NULL	prep	NULL	B_GP	DEP	4	idtext0014	d'	#####	spk1	29.89	29.96	0.01	_
20091112_RATP_SCD_0039	10	6	Athis+Cars	NULL	np	B_ORG	I_GP	OBJ	5	idtext0014	Athis+Cars	#####	spk1	29.97	30.58	0.01	_
20091112_RATP_SCD_0039	10	7	madame	NULL	nc	NULL	I_GP	NOLINK	0	idtext0014	Monsieur	##f#s##	spk1	30.59	31.11	?	//

20091112_RATP_SCD_0039	11	1	vous	NULL	cln	NULL	B_GN	SUJ	2	idtext0015	cln	#2##p##	spk1	32.18	32.23	0.01	_
20091112_RATP_SCD_0039	11	2	avez	NULL	v	NULL	B_GVf	ROOT	0	idtext0015	avoir	P#2##p##	spk1	32.24	32.7	0.01	_
20091112_RATP_SCD_0039	11	3	de+quoi	NULL	prorel	NULL	B_NULL	OBJ	2	idtext0015	de+quoi	#####	spk1	32.71	32.88	0.01	_
20091112_RATP_SCD_0039	11	4	noter	NULL	vinf	NULL	B_GVi	OBJ	3	idtext0015	noter	W#####	spk1	32.89	33.37	?	_

20091112_RATP_SCD_0039	12	1	ben	DISF_M	pres	NULL	NULL	NOLINK	0	idtext0016	ben	#####	spk2	33.88	34.03	0.01	_
20091112_RATP_SCD_0039	12	2	non	NULL	adv	NULL	B_GADV	NOLINK	0	idtext0016	non	#####	spk2	34.04	34.18	0.01	_
20091112_RATP_SCD_0039	12	3	j'	NULL	cln	NULL	B_GN	SUJ	4	idtext0016	cln	#1##s##	spk2	34.19	34.28	0.01	_
20091112_RATP_SCD_0039	12	4	ai	NULL	v	NULL	B_GVfn	ROOT	0	idtext0016	avoir	P#1##s##	spk2	34.29	34.32	0.01	_
20091112_RATP_SCD_0039	12	5	pas	NULL	advneg	NULL	I_GVfn	MOD	4	idtext0016	pas	#####	spk2	34.33	34.44	0.01	_
20091112_RATP_SCD_0039	12	6	de+quoi	NULL	prorel	NULL	B_NULL	MOD	7	idtext0016	de+quoi	#####	spk2	34.45	34.64	0.01	_
20091112_RATP_SCD_0039	12	7	noter	NULL	vinf	NULL	B_GVi	OBJ	4	idtext0016	noter	W#####	spk2	34.65	34.94	0.01	_
20091112_RATP_SCD_0039	12	8	je	NULL	cln	NULL	B_GN	SUJ	9	idtext0016	cln	#1##s##	spk2	34.95	34.98	0.01	_
20091112_RATP_SCD_0039	12	9	suis	NULL	v	NULL	B_GVf	ROOT	0	idtext0016	être	P#1##s##	spk2	34.99	35.09	0.01	_
20091112_RATP_SCD_0039	12	10	à	NULL	prep	NULL	B_GP	ATS	9	idtext0016	à	#####	spk2	35.1	35.12	0.01	_
20091112_RATP_SCD_0039	12	11	l'	NULL	det	NULL	I_GP	DET	12	idtext0016	le	###s##d	spk2	35.13	35.16	0.01	_
20091112_RATP_SCD_0039	12	12	arrêt	NULL	nc	NULL	I_GP	OBJ	10	idtext0016	arrêt	##m#s##	spk2	35.17	35.36	0.01	_
20091112_RATP_SCD_0039	12	13	de	NULL	prep	NULL	B_NULL	DEP	12	idtext0016	de	#####	spk2	35.37	35.46	?	_

20091112_RATP_SCD_0039	13	1	bus	NULL	nc	NULL	B_GN	NOLINK	0	idtext0017	bus	##m###	spk2	35.51	35.93	?	//

20091112_RATP_SCD_0039	14	1	oui	NULL	adv	NULL	B_GADV	NOLINK	0	idtext0018	oui	#####	spk1	35.63	35.79	0.01	_
20091112_RATP_SCD_0039	14	2	mais	NULL	coo	NULL	B_NULL	NOLINK	0	idtext0018	mais	#####	spk1	35.8	35.93	?	_

20091112_RATP_SCD_0039	15	1	moi	NULL	pro	NULL	B_GN	SUJ	3	idtext0019	moi	#####	spk1	35.97	36.07	0.01	_
20091112_RATP_SCD_0039	15	2	je	NULL	cln	NULL	B_GN	SUJ	3	idtext0019	cln	#1##s##	spk1	36.08	36.13	0.01	_
20091112_RATP_SCD_0039	15	3	peux	NULL	v	NULL	B_GVfn	ROOT	0	idtext0019	pouvoir	P#12##s##	spk1	36.14	36.24	0.01	_
20091112_RATP_SCD_0039	15	4	pas	NULL	advneg	NULL	I_GVfn	MOD	3	idtext0019	pas	#####	spk1	36.25	36.38	0.01	_
20091112_RATP_SCD_0039	15	5	les	NULL	clo	NULL	B_GN	OBJ	6	idtext0019	cla	#3##p##	spk1	36.39	36.57	0.01	_
20091112_RATP_SCD_0039	15	6	appeler	NULL	vinf	NULL	B_GVi	OBJ	3	idtext0019	appeler	W#####	spk1	36.58	36.79	0.01	_
20091112_RATP_SCD_0039	15	7	pour	NULL	prep	NULL	B_GP	P_OBJ	6	idtext0019	pour	#####	spk1	36.8	36.96	0.01	_
20091112_RATP_SCD_0039	15	8	vous	NULL	pro	NULL	I_GP	OBJ	7	idtext0019	vous	#####	spk1	36.97	37.24	0.01	_
20091112_RATP_SCD_0039	15	9	hein	DISF_M	pres	NULL	NULL	NOLINK	0	idtext0019	hein	#####	spk1	37.25	37.31	0.01	_
20091112_RATP_SCD_0039	15	10	c'	NULL	cln	NULL	B_GN	SUJ_IMP	11	idtext0019	ce	###s##	spk1	37.32	37.42	0.01	_
20091112_RATP_SCD_0039	15	11	est	NULL	v	NULL	B_GVf	ROOT	0	idtext0019	être	P#3##s##	spk1	37.43	37.46	0.01	_
20091112_RATP_SCD_0039	15	12	à	NULL	prep	NULL	B_GP	ATS	11	idtext0019	à	#####	spk1	37.47	37.52	0.01	_
20091112_RATP_SCD_0039	15	13	vous	NULL	pro	NULL	I_GP	OBJ	12	idtext0019	vous	#####	spk1	37.53	37.66	0.01	_
20091112_RATP_SCD_0039	15	14	de	NULL	prep	NULL	B_GP	P_OBJ	13	idtext0019	de	#####	spk1	37.67	37.73	0.01	_
20091112_RATP_SCD_0039	15	15	les	NULL	clo	NULL	I_GP	OBJ	16	idtext0019	cla	#3##p##	spk1	37.74	37.9	0.01	_
20091112_RATP_SCD_0039	15	16	appeler	NULL	vinf	NULL	B_GVi	OBJ	14	idtext0019	appeler	W#####	spk1	37.91	38.22	0.01	_
20091112_RATP_SCD_0039	15	17	Athis+Cars	NULL	np	B_ORG	B_GN	OBJ	16	idtext0019	Athis+Cars	#####	spk1	38.23	38.77	?	//

20091112_RATP_SCD_0039	16	1	c'	NULL	cln	NULL	B_GN	SUJ_IMP	2	idtext0020	ce	###s##	spk1	38.81	38.84	0.01	_
20091112_RATP_SCD_0039	16	2	est	NULL	v	NULL	B_GVf	ROOT	0	idtext0020	être	P#3##s##	spk1	38.85	38.87	0.01	_
20091112_RATP_SCD_0039	16	3	eux	NULL	pro	NULL	B_GN	ATS	2	idtext0020	eux	#####	spk1	38.88	38.94	0.01	_
20091112_RATP_SCD_0039	16	4	qui	NULL	prorel	NULL	B_NULL	SUJ	5	idtext0020	qui	#####	spk1	38.95	39.16	0.01	_
20091112_RATP_SCD_0039	16	5	commandent	NULL	v	NULL	B_GVf	MOD_REL	3	idtext0020	commander	PS#3##p##	spk1	39.17	39.68	0.01	_
20091112_RATP_SCD_0039	16	6	la	NULL	det	NULL	B_GN	DET	7	idtext0020	le	##m#s##d	spk1	39.69	39.9	0.01	_
20091112_RATP_SCD_0039	16	7	ligne	NULL	nc	NULL	I_GN	OBJ	5	idtext0020	ligne	##f#s##	spk1	39.91	40.1	0.01	_
20091112_RATP_SCD_0039	16	8	ce	NULL	cln	NULL	B_GN	SUJ_IMP	9	idtext0020	ce	#####	spk1	40.11	40.13	0.01	_
20091112_RATP_SCD_0039	16	9	sont	NULL	v	NULL	B_GVf	ROOT	0	idtext0020	être	P#3##p##	spk1	40.14	40.19	0.01	_
20091112_RATP_SCD_0039	16	10	des	NULL	det	NULL	B_GN	DET	11	idtext0020	des	###p##i	spk1	40.2	40.28	0.01	_
20091112_RATP_SCD_0039	16	11	cars	NULL	nc	NULL	I_GN	ATS	9	idtext0020	car	##m#p##	spk1	40.29	41.2	0.01	_
20091112_RATP_SCD_0039	16	12	privés	NULL	adj	NULL	I_GN	MOD	11	idtext0020	priver	K##m#p##	spk1	41.21	41.74	?	//

20091112_RATP_SCD_0039	17	1	ben	DISF_M	pres	NULL	NULL	NOLINK	0	idtext0021	ben	#####	spk2	38.81	38.95	0.01	_
20091112_RATP_SCD_0039	17	2	oui	NULL	adv	NULL	B_GADV	NOLINK	0	idtext0021	oui	#####	spk2	38.96	39.06	0.01	_
20091112_RATP_SCD_0039	17	3	mais	NULL	coo	NULL	B_NULL	ROOT	0	idtext0021	mais	#####	spk2	39.07	39.18	0.01	_
20091112_RATP_SCD_0039	17	4	pourquoi	DISF_R	adv	NULL	NULL	NOLINK	0	idtext0021	pourquoi	#####	spk2	39.19	39.59	0.01	_
20091112_RATP_SCD_0039	17	5	pourquoi	NULL	adv	NULL	B_GADV	NOLINK	0	idtext0021	pourquoi	#####	spk2	39.6	39.9	0.01	_
20091112_RATP_SCD_0039	17	6	vous	NULL	cln	NULL	B_GN	SUJ	7	idtext0021	cln	#2##p##	spk2	39.91	40.11	0.01	_
20091112_RATP_SCD_0039	17	7	indiquez	NULL	v	NULL	B_GVf	DEP_COORD	3	idtext0021	indiquer	P#2##p##	spk2	40.12	40.42	0.01	_
20091112_RATP_SCD_0039	17	8	le	NULL	det	NULL	B_GN	DET	9	idtext0021	le	##m#s##d	spk2	40.43	40.49	0.01	_
20091112_RATP_SCD_0039	17	9	numéro	NULL	nc	NULL	I_GN	OBJ	7	idtext0021	numéro	##m#s##	spk2	40.5	41.21	0.01	_
20091112_RATP_SCD_0039	17	10	de	NULL	prep	NULL	B_NULL	DEP	9	idtext0021	de	#####	spk2	41.22	41.74	?	_

20091112_RATP_SCD_0039	18	1	madame	NULL	nc	NULL	B_GN	NOLINK	0	idtext0022	Monsieur	##f#s##	spk1	41.78	42.14	0.01	/
20091112_RATP_SCD_0039	18	2	ce	NULL	cln	NULL	B_GN	SUJ_IMP	4	idtext0022	ce	#####	spk1	42.15	42.24	0.01	_
20091112_RATP_SCD_0039	18	3	n'	NULL	clneg	NULL	B_GVfn	MOD	4	idtext0022	n'	#####	spk1	42.25	42.29	0.01	_
20091112_RATP_SCD_0039	18	4	est	NULL	v	NULL	I_GVfn	ROOT	0	idtext0022	être	P#3##s##	spk1	42.3	42.46	0.01	_
20091112_RATP_SCD_0039	18	5	pas	NULL	advneg	NULL	I_GVfn	MOD	4	idtext0022	pas	#####	spk1	42.47	42.73	?	_

20091112_RATP_SCD_0039	19	1	ça	NULL	pro	NULL	B_GN	SUJ_IMP	2	idtext0023	ça	#####	spk1	42.77	42.85	0.01	_
20091112_RATP_SCD_0039	19	2	appartient	NULL	v	NULL	B_GVfn	ROOT	0	idtext0023	appartenir	P#3##s##	spk1	42.86	43.27	0.01	_
20091112_RATP_SCD_0039	19	3	pas	NULL	advneg	NULL	I_GVfn	MOD	2	idtext0023	pas	#####	spk1	43.28	43.39	0.01	_
20091112_RATP_SCD_0039	19	4	à	NULL	prep	NULL	B_GP	A_OBJ	2	idtext0023	à	#####	spk1	43.4	43.47	0.01	_
20091112_RATP_SCD_0039	19	5	la	NULL	det	NULL	I_GP	DET	6	idtext0023	le	##m#s##d	spk1	43.48	43.57	0.01	_
20091112_RATP_SCD_0039	19	6	RATP	NULL	np	B_ORG	I_GP	OBJ	4	idtext0023	RATP	##f#s##	spk1	43.58	44.38	?	//

20091112_RATP_SCD_0039	20	1	ben	DISF_M	pres	NULL	NULL	NOLINK	0	idtext0024	ben	#####	spk2	42.77	42.85	0.01	_
20091112_RATP_SCD_0039	20	2	oui	NULL	adv	NULL	B_GADV	NOLINK	0	idtext0024	oui	#####	spk2	42.86	43.05	0.01	_
20091112_RATP_SCD_0039	20	3	mais	NULL	coo	NULL	B_NULL	ROOT	0	idtext0024	mais	#####	spk2	43.06	43.14	0.01	_
20091112_RATP_SCD_0039	20	4	pourquoi	NULL	adv	NULL	B_GADV	NOLINK	0	idtext0024	pourquoi	#####	spk2	43.15	43.57	0.01	_
20091112_RATP_SCD_0039	20	5	vous	NULL	cln	NULL	B_GN	SUJ	7	idtext0024	cln	#2##p##	spk2	43.58	43.64	0.01	_
20091112_RATP_SCD_0039	20	6	n'	NULL	clneg	NULL	B_GVfn	MOD	7	idtext0024	n'	#####	spk2	43.65	43.68	0.01	_
20091112_RATP_SCD_0039	20	7	indiquez	NULL	v	NULL	I_GVfn	DEP_COORD	3	idtext0024	indiquer	P#2##p##	spk2	43.69	44.38	?	//

20091112_RATP_SCD_0039	21	1	pourquoi	NULL	adv	NULL	B_GADV	NOLINK	0	idtext0025	pourquoi	#####	spk2	44.42	44.75	0.01	_
20091112_RATP_SCD_0039	21	2	vous	NULL	cln	NULL	B_GN	NOLINK	0	idtext0025	cln	#2##p##	spk2	44.76	44.87	?	_

20091112_RATP_SCD_0039	22	1	n'	NULL	clneg	NULL	B_GVfn	MOD	2	idtext0026	n'	#####	spk2	44.91	44.95	0.01	_
20091112_RATP_SCD_0039	22	2	indiquez	NULL	v	NULL	I_GVfn	ROOT	0	idtext0026	indiquer	P#2##p##	spk2	44.96	45.39	0.01	_
20091112_RATP_SCD_0039	22	3	pas	NULL	advneg	NULL	I_GVfn	MOD	2	idtext0026	pas	#####	spk2	45.4	45.67	0.01	_
20091112_RATP_SCD_0039	22	4	leurs	NULL	det	NULL	B_GN	DET	5	idtext0026	leur	###p##o	spk2	45.68	46.01	0.01	_
20091112_RATP_SCD_0039	22	5	coordonnées	NULL	nc	NULL	I_GN	OBJ	2	idtext0026	coordonnée	##f#p##	spk2	46.02	46.81	?	//

20091112_RATP_SCD_0039	23	1	hein	DISF_M	pres	NULL	NULL	NOLINK	0	idtext0027	hein	#####	spk1	45.0	45.18	0.01	_
20091112_RATP_SCD_0039	23	2	pourquoi	NULL	adv	NULL	B_GADV	NOLINK	0	idtext0027	pourquoi	#####	spk1	45.19	45.67	0.01	_
20091112_RATP_SCD_0039	23	3	ça	NULL	pro	NULL	B_GN	OBJ	6	idtext0027	ça	#####	spk1	45.68	45.95	0.01	_
20091112_RATP_SCD_0039	23	4	moi	NULL	pro	NULL	I_GN	SUJ	6	idtext0027	moi	#####	spk1	45.96	46.16	0.01	_
20091112_RATP_SCD_0039	23	5	je	NULL	cln	NULL	B_GN	SUJ	6	idtext0027	cln	#1##s##	spk1	46.17	46.26	0.01	_
20091112_RATP_SCD_0039	23	6	demanderais	NULL	v	NULL	B_GVf	ROOT	0	idtext0027	demander	C#12##s##	spk1	46.27	46.75	0.01	_
20091112_RATP_SCD_0039	23	7	au	NULL	prep	NULL	B_NULL	NOLINK	0	idtext0027	au	#####	spk1	46.76	46.81	?	_

20091112_RATP_SCD_0039	24	1	Service+Clientèle	NULL	np	B_ORG	B_GN	NOLINK	0	idtext0028	Service+Clientèle	#####	spk1	46.85	47.79	0.01	_
20091112_RATP_SCD_0039	24	2	quand	NULL	csu	NULL	B_NULL	MOD	8	idtext0028	quand	#####	spk1	47.8	48.02	0.01	_
20091112_RATP_SCD_0039	24	3	ils	NULL	cln	NULL	B_GN	SUJ	5	idtext0028	cln	#3#m#p##	spk1	48.03	48.11	0.01	_
20091112_RATP_SCD_0039	24	4	seront	NULL	v	NULL	B_GVf	AUX	5	idtext0028	être	F#3##p##	spk1	48.12	48.29	0.01	_
20091112_RATP_SCD_0039	24	5	ouverts	NULL	vppart	NULL	I_GVf	OBJ	2	idtext0028	ouvrir	K##m#p##	spk1	48.3	49.17	0.01	/
20091112_RATP_SCD_0039	24	6	ils	NULL	cln	NULL	B_GN	SUJ	8	idtext0029	cln	#3#m#p##	spk1	49.18	49.27	0.01	_
20091112_RATP_SCD_0039	24	7	n'	NULL	clneg	NULL	B_GVfn	MOD	8	idtext0029	n'	#####	spk1	49.28	49.32	0.01	_
20091112_RATP_SCD_0039	24	8	ouvrent	NULL	v	NULL	I_GVfn	ROOT	0	idtext0029	ouvrer	PS#3##p##	spk1	49.33	49.43	0.01	_
20091112_RATP_SCD_0039	24	9	qu'	NULL	advneg	NULL	I_GVfn	MOD	8	idtext0029	qu'	#####	spk1	49.44	49.49	0.01	_
20091112_RATP_SCD_0039	24	10	à+partir+de	NULL	prep	NULL	B_GP	MOD	8	idtext0029	à+partir+de	#####	spk1	49.5	49.96	0.01	_
20091112_RATP_SCD_0039	24	11	neuf	NULL	det	B_H	I_GP	DET	12	idtext0029	neuf	#####	spk1	49.97	50.22	0.01	_
20091112_RATP_SCD_0039	24	12	heures	NULL	nc	I_H	I_GP	OBJ	10	idtext0029	heure	##f#p##	spk1	50.23	50.72	?	//

20091112_RATP_SCD_0039	25	1	en+plus	NULL	adv	NULL	B_GADV	NOLINK	0	idtext0030	en+plus	#####	spk2	52.26	52.99	?	//

20091112_RATP_SCD_0039	26	1	et	NULL	coo	NULL	B_NULL	NOLINK	0	idtext0031	et	#####	spk1	53.53	53.67	0.01	_
20091112_RATP_SCD_0039	26	2	oui	NULL	adv	NULL	B_GADV	NOLINK	0	idtext0031	oui	#####	spk1	53.68	54.11	?	_

20091112_RATP_SCD_0039	27	1	non	NULL	adv	NULL	B_GADV	NOLINK	0	idtext0032	non	#####	spk2	54.34	54.41	0.01	_
20091112_RATP_SCD_0039	27	2	mais	NULL	coo	NULL	B_NULL	ROOT	0	idtext0032	mais	#####	spk2	54.42	54.54	0.01	_
20091112_RATP_SCD_0039	27	3	c'	NULL	cln	NULL	B_GN	SUJ_IMP	4	idtext0032	ce	###s##	spk2	54.55	54.72	0.01	_
20091112_RATP_SCD_0039	27	4	est	NULL	v	NULL	B_GVf	DEP_COORD	2	idtext0032	être	P#3##s##	spk2	54.73	54.77	0.01	_
20091112_RATP_SCD_0039	27	5	inadmissible	NULL	adj	NULL	B_GADJ	ATS	4	idtext0032	inadmissible	###s##	spk2	54.78	55.87	0.01	//
20091112_RATP_SCD_0039	27	6	en+plus	NULL	adv	NULL	B_GADV	NOLINK	0	idtext0033	en+plus	#####	spk2	55.88	56.06	0.01	_
20091112_RATP_SCD_0039	27	7	je	NULL	cln	NULL	B_GN	SUJ	10	idtext0033	cln	#1##s##	spk2	56.07	56.13	0.01	_
20091112_RATP_SCD_0039	27	8	vous	NULL	clo	NULL	B_GN	OBJ	10	idtext0033	cln	#2##p##	spk2	56.14	56.22	0.01	_
20091112_RATP_SCD_0039	27	9	ai	NULL	v	NULL	B_GVf	AUX	10	idtext0033	avoir	P#1##s##	spk2	56.23	56.3	0.01	_
20091112_RATP_SCD_0039	27	10	écrit	NULL	vppart	NULL	I_GVf	ROOT	0	idtext0033	écrire	P#3##s##	spk2	56.31	56.55	0.01	_
20091112_RATP_SCD_0039	27	11	à	NULL	prep	NULL	B_NULL	A_OBJ	10	idtext0033	à	#####	spk2	56.56	56.66	0.01	_
20091112_RATP_SCD_0039	27	12	plusieurs	NULL	det	NULL	B_NULL	NOLINK	0	idtext0033	plusieurs	###p##i	spk2	56.67	57.03	?	_

20091112_RATP_SCD_0039	28	1	reprises	NULL	nc	NULL	B_GN	NOLINK	0	idtext0034	reprise	##f#p##	spk2	57.07	57.5	0.01	/
20091112_RATP_SCD_0039	28	2	parce+que	NULL	csu	NULL	B_NULL	ROOT	0	idtext0034	parce+que	#####	spk2	57.51	57.94	0.01	_
20091112_RATP_SCD_0039	28	3	c'	NULL	cln	NULL	B_GN	SUJ_IMP	4	idtext0034	ce	###s##	spk2	57.95	57.97	0.01	_
20091112_RATP_SCD_0039	28	4	est	NULL	v	NULL	B_GVf	OBJ	2	idtext0034	être	P#3##s##	spk2	57.98	58.05	0.01	_
20091112_RATP_SCD_0039	28	5	régulièrement	DISF_R	adv	NULL	NULL	NOLINK	0	idtext0034	régulièrement	#####	spk2	58.06	59.23	0.01	_
20091112_RATP_SCD_0039	28	6	régulièrement	NULL	adv	NULL	B_GADV	MOD	4	idtext0034	régulièrement	#####	spk2	59.24	60.14	0.01	_
20091112_RATP_SCD_0039	28	7	il	NULL	cln	NULL	B_GN	SUJ_IMP	9	idtext0034	cln	#3#m#s##	spk2	60.15	60.23	0.01	_
20091112_RATP_SCD_0039	28	8	y	NULL	clo	NULL	B_GN	AFF	9	idtext0034	y	#####	spk2	60.24	60.27	0.01	_
20091112_RATP_SCD_0039	28	9	a	NULL	v	NULL	B_GVf	NOLINK	0	idtext0034	avoir	P#3##s##	spk2	60.28	60.33	0.01	_
20091112_RATP_SCD_0039	28	10	des	NULL	det	NULL	B_NULL	NOLINK	0	idtext0034	des	###p##i	spk2	60.34	60.6	?	_

20091112_RATP_SCD_0039	29	1	non	NULL	adv	NULL	B_GADV	NOLINK	0	idtext0035	non	#####	spk1	57.07	57.16	0.01	_
20091112_RATP_SCD_0039	29	2	mais	NULL	coo	NULL	B_NULL	NOLINK	0	idtext0035	mais	#####	spk1	57.17	57.28	0.01	_
20091112_RATP_SCD_0039	29	3	parce+que	NULL	csu	NULL	B_NULL	ROOT	0	idtext0035	parce+que	#####	spk1	57.29	57.63	0.01	_
20091112_RATP_SCD_0039	29	4	là	NULL	adv	NULL	B_GADV	NOLINK	0	idtext0035	là	#####	spk1	57.64	57.83	0.01	_
20091112_RATP_SCD_0039	29	5	nous	NULL	pro	NULL	B_GN	SUJ	7	idtext0035	nous	#####	spk1	57.84	57.97	0.01	_
20091112_RATP_SCD_0039	29	6	on	NULL	cln	NULL	B_GN	SUJ	7	idtext0035	cln	#3##s##	spk1	57.98	58.02	0.01	_
20091112_RATP_SCD_0039	29	7	a	NULL	v	NULL	B_GVf	OBJ	3	idtext0035	avoir	P#3##s##	spk1	58.03	58.13	0.01	_
20091112_RATP_SCD_0039	29	8	aucune	NULL	det	NULL	B_GN	DET	9	idtext0035	aucun	##f#s##i	spk1	58.14	58.51	0.01	_
20091112_RATP_SCD_0039	29	9	information	NULL	nc	NULL	I_GN	OBJ	7	idtext0035	information	##f#s##	spk1	58.52	59.15	0.01	_
20091112_RATP_SCD_0039	29	10	concernant	NULL	prep	NULL	B_GP	P_OBJ	9	idtext0035	concernant	#####	spk1	59.16	59.67	0.01	_
20091112_RATP_SCD_0039	29	11	certaines	NULL	det	NULL	I_GP	DET	12	idtext0035	certain	##f#p##i	spk1	59.68	60.23	0.01	_
20091112_RATP_SCD_0039	29	12	lignes	NULL	nc	NULL	I_GP	OBJ	10	idtext0035	ligne	##f#p##	spk1	60.24	60.35	0.01	_
20091112_RATP_SCD_0039	29	13	madame	NULL	nc	NULL	I_GP	NOLINK	0	idtext0035	Monsieur	##f#s##	spk1	60.36	60.6	?	//

20091112_RATP_SCD_0039	30	1	soucis	NULL	nc	NULL	B_GN	NOLINK	0	idtext0036	souci	##m#p##	spk2	60.64	60.98	0.01	_
20091112_RATP_SCD_0039	30	2	sur	NULL	prep	NULL	B_NULL	NOLINK	0	idtext0036	sur	#####	spk2	60.99	61.18	0.01	_
20091112_RATP_SCD_0039	30	3	cette	NULL	det	NULL	B_NULL	NOLINK	0	idtext0036	cet	##f#s##e	spk2	61.19	61.31	?	_

20091112_RATP_SCD_0039	31	1	ligne	NULL	nc	NULL	B_GN	ROOT	0	idtext0037	ligne	##f#s##	spk2	61.47	61.6	0.01	_
20091112_RATP_SCD_0039	31	2	et	NULL	coo	NULL	B_NULL	COORD	1	idtext0037	et	#####	spk2	61.61	61.71	0.01	_
20091112_RATP_SCD_0039	31	3	vous	NULL	cln	NULL	B_GN	SUJ	6	idtext0037	cln	#2##p##	spk2	61.72	61.79	0.01	_
20091112_RATP_SCD_0039	31	4	ne	NULL	clneg	NULL	B_NULL	NOLINK	0	idtext0037	ne	#####	spk2	61.8	62.11	0.01	_
20091112_RATP_SCD_0039	31	5	me	NULL	clo	NULL	B_GN	A_OBJ	6	idtext0037	cla	#1##s##	spk2	62.12	62.41	0.01	_
20091112_RATP_SCD_0039	31	6	répondez	NULL	v	NULL	B_GVf	DEP_COORD	2	idtext0037	répondre	P#2##p##	spk2	62.42	63.11	0.01	_
20091112_RATP_SCD_0039	31	7	jamais	NULL	adv	NULL	B_GADV	MOD	6	idtext0037	jamais	#####	spk2	63.12	63.72	0.01	_
20091112_RATP_SCD_0039	31	8	quoi	DISF_M	pres	NULL	NULL	NOLINK	0	idtext0037	quoi	#####	spk2	63.73	63.89	?	_

20091112_RATP_SCD_0039	32	1	aucune	NULL	det	NULL	B_GN	DET	2	idtext0038	aucun	##f#s##i	spk1	61.35	61.86	0.01	_
20091112_RATP_SCD_0039	32	2	information	NULL	nc	NULL	I_GN	ROOT	0	idtext0038	information	##f#s##	spk1	61.87	62.95	0.01	_
20091112_RATP_SCD_0039	32	3	sur	NULL	prep	NULL	B_GP	P_OBJ	2	idtext0038	sur	#####	spk1	62.96	63.28	0.01	_
20091112_RATP_SCD_0039	32	4	le	NULL	det	NULL	I_GP	DET	5	idtext0038	le	##m#s##d	spk1	63.29	63.33	0.01	_
20091112_RATP_SCD_0039	32	5	quatre-vingt-trois	NULL	nc	B_T	I_GP	OBJ	3	idtext0038	quatre-vingt-trois	#####	spk1	63.34	63.89	?	_

20091112_RATP_SCD_0039	33	1	quatre-vingt-six	NULL	nc	B_T	B_GN	NOLINK	0	idtext0039	quatre-vingt-six	#####	spk1	63.93	64.25	0.01	/
20091112_RATP_SCD_0039	33	2	quatre-vingt-sept	NULL	nc	B_T	B_GN	ROOT	0	idtext0039	quatre-vingt-sept	#####	spk1	64.26	64.92	0.01	_
20091112_RATP_SCD_0039	33	3	quatre-vingt-douze	NULL	nc	B_T	I_GN	MOD	2	idtext0039	quatre-vingt-douze	#####	spk1	64.93	65.74	0.01	_
20091112_RATP_SCD_0039	33	4	on	NULL	cln	NULL	B_GN	SUJ	5	idtext0039	cln	#3##s##	spk1	65.75	65.97	0.01	_
20091112_RATP_SCD_0039	33	5	a	NULL	v	NULL	B_GVf	ROOT	0	idtext0039	avoir	P#3##s##	spk1	65.98	66.0	0.01	_
20091112_RATP_SCD_0039	33	6	rien	NULL	pro	NULL	B_GN	OBJ	5	idtext0039	rien	#####	spk1	66.01	66.37	?	_

20091112_RATP_SCD_0039	34	1	désolé	NULL	vppart	NULL	B_GVf	NOLINK	0	idtext0040	désoler	K##m#s##	spk1	68.37	68.9	?	//

20091112_RATP_SCD_0039	35	1	ben	DISF_M	pres	NULL	NULL	NOLINK	0	idtext0041	ben	#####	spk2	68.35	68.68	0.01	_
20091112_RATP_SCD_0039	35	2	oui	NULL	adv	NULL	B_GADV	NOLINK	0	idtext0041	oui	#####	spk2	68.69	68.9	?	_

20091112_RATP_SCD_0039	36	1	mais	NULL	coo	NULL	B_NULL	ROOT	0	idtext0042	mais	#####	spk2	68.94	69.17	0.01	_
20091112_RATP_SCD_0039	36	2	euh	DISF_M	pres	NULL	NULL	NOLINK	0	idtext0042	euh	#####	spk2	69.18	69.26	0.01	_
20091112_RATP_SCD_0039	36	3	voilà	DISF_M	pres	NULL	NULL	NOLINK	0	idtext0042	voilà	#####	spk2	69.27	69.52	0.01	_
20091112_RATP_SCD_0039	36	4	et	NULL	coo	NULL	B_NULL	ROOT	0	idtext0042	et	#####	spk2	69.53	69.6	0.01	_
20091112_RATP_SCD_0039	36	5	nous	NULL	pro	NULL	B_GN	SUJ	9	idtext0042	nous	#####	spk2	69.61	69.72	0.01	_
20091112_RATP_SCD_0039	36	6	on	DISF_R	cln	NULL	NULL	NOLINK	0	idtext0042	cln	#3##s##	spk2	69.73	69.92	0.01	_
20091112_RATP_SCD_0039	36	7	attend	DISF_R	v	NULL	NULL	NOLINK	0	idtext0042	attendre	P#3##s##	spk2	69.93	70.76	0.01	_
20091112_RATP_SCD_0039	36	8	on	NULL	cln	NULL	B_GN	SUJ	9	idtext0042	cln	#3##s##	spk2	70.77	70.96	0.01	_
20091112_RATP_SCD_0039	36	9	attend	NULL	v	NULL	B_GVf	DEP_COORD	4	idtext0042	attendre	P#3##s##	spk2	70.97	71.35	0.01	_
20091112_RATP_SCD_0039	36	10	ça	NULL	pro	NULL	B_GN	SUJ_IMP	11	idtext0042	ça	#####	spk2	71.36	71.51	0.01	_
20091112_RATP_SCD_0039	36	11	fait	NULL	v	NULL	B_GVf	DEP_COORD	1	idtext0042	faire	P#3##s##	spk2	71.52	71.67	0.01	_
20091112_RATP_SCD_0039	36	12	une	NULL	det	NULL	B_GN	DET	13	idtext0042	un	##f#s##i	spk2	71.68	71.74	0.01	_
20091112_RATP_SCD_0039	36	13	demi-heure	NULL	nc	NULL	I_GN	OBJ	11	idtext0042	demi-heure	##f#s##	spk2	71.75	72.19	0.01	_
20091112_RATP_SCD_0039	36	14	qu'	NULL	csu	NULL	B_NULL	OBJ	13	idtext0042	qu'	#####	spk2	72.2	72.26	0.01	_
20091112_RATP_SCD_0039	36	15	on	NULL	cln	NULL	B_GN	SUJ	16	idtext0042	cln	#3##s##	spk2	72.27	72.41	0.01	_
20091112_RATP_SCD_0039	36	16	attend	NULL	v	NULL	B_GVf	OBJ	14	idtext0042	attendre	P#3##s##	spk2	72.42	73.04	?	//

20091112_RATP_SCD_0039	37	1	et	NULL	coo	NULL	B_NULL	ROOT	0	idtext0043	et	#####	spk2	73.14	73.38	0.01	_
20091112_RATP_SCD_0039	37	2	euh	DISF_M	pres	NULL	NULL	NOLINK	0	idtext0043	euh	#####	spk2	73.39	73.71	0.01	_
20091112_RATP_SCD_0039	37	3	on	NULL	cln	NULL	B_GN	SUJ	4	idtext0043	cln	#3##s##	spk2	73.72	73.89	0.01	_
20091112_RATP_SCD_0039	37	4	a	NULL	v	NULL	B_GVf	DEP_COORD	1	idtext0043	avoir	P#3##s##	spk2	73.9	74.09	0.01	_
20091112_RATP_SCD_0039	37	5	aucune	NULL	det	NULL	B_GN	DET	6	idtext0043	aucun	##f#s##i	spk2	74.1	74.27	0.01	_
20091112_RATP_SCD_0039	37	6	information	NULL	nc	NULL	I_GN	OBJ	4	idtext0043	information	##f#s##	spk2	74.28	75.69	?	//

20091112_RATP_SCD_0039	38	1	oui	NULL	adv	NULL	B_GADV	NOLINK	0	idtext0044	oui	#####	spk1	73.11	73.21	0.01	/
20091112_RATP_SCD_0039	38	2	mais	NULL	coo	NULL	B_NULL	ROOT	0	idtext0044	mais	#####	spk1	73.22	73.35	0.01	_
20091112_RATP_SCD_0039	38	3	moi	NULL	pro	NULL	B_GN	SUJ	10	idtext0044	moi	#####	spk1	73.36	73.49	0.01	_
20091112_RATP_SCD_0039	38	4	je	DISF_R	cln	NULL	NULL	NOLINK	0	idtext0044	cln	#1##s##	spk1	73.5	73.73	0.01	_
20091112_RATP_SCD_0039	38	5	n'	DISF_R	clneg	NULL	NULL	NOLINK	0	idtext0044	n'	#####	spk1	73.74	73.77	0.01	_
20091112_RATP_SCD_0039	38	6	ai	DISF_R	v	NULL	NULL	NOLINK	0	idtext0044	avoir	P#1##s##	spk1	73.78	73.85	0.01	_
20091112_RATP_SCD_0039	38	7	pas	DISF_R	advneg	NULL	NULL	NOLINK	0	idtext0044	pas	#####	spk1	73.86	74.12	0.01	_
20091112_RATP_SCD_0039	38	8	je	NULL	cln	NULL	B_GN	SUJ	10	idtext0044	cln	#1##s##	spk1	74.13	74.22	0.01	_
20091112_RATP_SCD_0039	38	9	n'	NULL	clneg	NULL	B_GVfn	MOD	10	idtext0044	n'	#####	spk1	74.23	74.37	0.01	_
20091112_RATP_SCD_0039	38	10	ai	NULL	v	NULL	I_GVfn	DEP_COORD	2	idtext0044	avoir	P#1##s##	spk1	74.38	74.4	0.01	_
20091112_RATP_SCD_0039	38	11	pas	NULL	advneg	NULL	I_GVfn	MOD	10	idtext0044	pas	#####	spk1	74.41	74.54	0.01	_
20091112_RATP_SCD_0039	38	12	la	NULL	det	NULL	B_GN	DET	13	idtext0044	le	##m#s##d	spk1	74.55	74.87	0.01	_
20091112_RATP_SCD_0039	38	13	possibilité	NULL	nc	NULL	I_GN	OBJ	10	idtext0044	possibilité	##f#s##	spk1	74.88	75.69	?	//

20091112_RATP_SCD_0039	39	1	de	NULL	prep	NULL	B_GP	ROOT	0	idtext0045	de	#####	spk1	75.73	75.77	0.01	_
20091112_RATP_SCD_0039	39	2	les	NULL	clo	NULL	I_GP	OBJ	3	idtext0045	cla	#3##p##	spk1	75.78	75.99	0.01	_
20091112_RATP_SCD_0039	39	3	appeler	NULL	vinf	NULL	B_GVi	OBJ	1	idtext0045	appeler	W#####	spk1	76.0	76.29	0.01	_
20091112_RATP_SCD_0039	39	4	madame	NULL	nc	NULL	B_GN	NOLINK	0	idtext0045	Monsieur	##f#s##	spk1	76.3	76.68	0.01	_
20091112_RATP_SCD_0039	39	5	hein	DISF_M	pres	NULL	NULL	NOLINK	0	idtext0045	hein	#####	spk1	76.69	76.8	0.01	_
20091112_RATP_SCD_0039	39	6	c'	NULL	cln	NULL	B_GN	SUJ_IMP	7	idtext0045	ce	###s##	spk1	76.81	76.91	0.01	_
20091112_RATP_SCD_0039	39	7	est	NULL	v	NULL	B_GVf	ROOT	0	idtext0045	être	P#3##s##	spk1	76.92	76.94	0.01	_
20091112_RATP_SCD_0039	39	8	à	NULL	prep	NULL	B_GP	ATS	7	idtext0045	à	#####	spk1	76.95	76.98	0.01	_
20091112_RATP_SCD_0039	39	9	vous	NULL	pro	NULL	I_GP	OBJ	8	idtext0045	vous	#####	spk1	76.99	77.11	0.01	_
20091112_RATP_SCD_0039	39	10	de	NULL	prep	NULL	B_GP	P_OBJ	9	idtext0045	de	#####	spk1	77.12	77.17	0.01	_
20091112_RATP_SCD_0039	39	11	les	NULL	clo	NULL	I_GP	OBJ	12	idtext0045	cla	#3##p##	spk1	77.18	77.36	0.01	_
20091112_RATP_SCD_0039	39	12	appeler	NULL	vinf	NULL	B_GVi	OBJ	10	idtext0045	appeler	W#####	spk1	77.37	77.76	?	//

20091112_RATP_SCD_0039	40	1	bon+ben	DISF_M	pres	NULL	NULL	NOLINK	0	idtext0046	bon+ben	#####	spk2	81.26	81.51	0.01	_
20091112_RATP_SCD_0039	40	2	voilà	DISF_M	pres	NULL	NULL	NOLINK	0	idtext0046	voilà	#####	spk2	81.52	81.92	0.01	_
20091112_RATP_SCD_0039	40	3	ça	NULL	pro	NULL	B_GN	SUJ_IMP	5	idtext0046	ça	#####	spk2	81.93	82.03	0.01	_
20091112_RATP_SCD_0039	40	4	c'	NULL	cln	NULL	B_GN	SUJ_IMP	5	idtext0046	ce	###s##	spk2	82.04	82.12	0.01	_
20091112_RATP_SCD_0039	40	5	est	NULL	v	NULL	B_GVf	ROOT	0	idtext0046	être	P#3##s##	spk2	82.13	82.17	0.01	_
20091112_RATP_SCD_0039	40	6	de	NULL	prep	NULL	B_GP	ATS	5	idtext0046	de	#####	spk2	82.18	82.23	0.01	_
20091112_RATP_SCD_0039	40	7	l'	NULL	det	NULL	I_GP	DET	8	idtext0046	le	###s##d	spk2	82.24	82.27	0.01	_
20091112_RATP_SCD_0039	40	8	information	NULL	nc	NULL	I_GP	OBJ	6	idtext0046	information	##f#s##	spk2	82.28	82.98	0.01	_
20091112_RATP_SCD_0039	40	9	ça	NULL	pro	NULL	I_GP	SUJ_IMP	5	idtext0046	ça	#####	spk2	82.99	83.23	?	_

20091112_RATP_SCD_0039	41	1	merci	NULL	adv	NULL	B_GADV	NOLINK	0	idtext0047	merci	#####	spk2	83.37	83.69	0.01	//
20091112_RATP_SCD_0039	41	2	madame	NULL	nc	NULL	B_GN	NOLINK	0	idtext0047	Monsieur	##f#s##	spk2	83.7	84.02	?	//

20091112_RATP_SCD_0039	42	1	au+revoir	NULL	adv	NULL	B_GADV	NOLINK	0	idtext0048	au+revoir	#####	spk2	84.06	84.69	?	//

20091112_RATP_SCD_0039	43	1	au+revoir	NULL	adv	NULL	B_GADV	NOLINK	0	idtext0049	au+revoir	#####	spk1	84.06	84.69	?	//

