20091112_RATP_SCD_0046	1	1	NNAAMMEE	NULL	np	B_HU	B_GN	ROOT	0	idtext0000	ANONYM	NULL	spk1	4.06	4.25	0.04	_
20091112_RATP_SCD_0046	1	2	bonjour	NULL	adv	NULL	B_GADV	NOLINK	0	idtext0001	bonjour	#####	spk1	4.29	4.59	?	//

20091112_RATP_SCD_0046	2	1	NNAAMMEE	NULL	np	B_HU	B_GN	ROOT	0	idtext0002	ANONYM	NULL	spk1	5.91	6.1	0.04	_
20091112_RATP_SCD_0046	2	2	bonjour	NULL	adv	NULL	B_GADV	NOLINK	0	idtext0003	bonjour	#####	spk1	6.14	6.5	?	//

20091112_RATP_SCD_0046	3	1	oui	NULL	adv	NULL	B_GADV	MOD	2	idtext0004	oui	#####	spk2	6.91	7.13	0.01	_
20091112_RATP_SCD_0046	3	2	bonjour	NULL	adv	NULL	I_GADV	ROOT	0	idtext0004	bonjour	#####	spk2	7.14	7.52	?	//

20091112_RATP_SCD_0046	4	1	monsieur	NULL	nc	NULL	B_GN	NOLINK	0	idtext0005	Monsieur	##m#s##	spk2	7.56	8.4	?	//

20091112_RATP_SCD_0046	5	1	bonjour	NULL	adv	NULL	B_GADV	NOLINK	0	idtext0006	bonjour	#####	spk1	7.56	7.91	0.01	_
20091112_RATP_SCD_0046	5	2	madame	NULL	nc	NULL	B_GN	NOLINK	0	idtext0006	Monsieur	##f#s##	spk1	7.92	8.4	?	//

20091112_RATP_SCD_0046	6	1	voilà	DISF_M	pres	NULL	NULL	NOLINK	0	idtext0007	voilà	#####	spk2	8.44	8.75	0.01	_
20091112_RATP_SCD_0046	6	2	j'	NULL	cln	NULL	B_GN	SUJ	4	idtext0007	cln	#1##s##	spk2	8.76	8.89	0.01	_
20091112_RATP_SCD_0046	6	3	aurais	NULL	v	NULL	B_GVf	AUX	4	idtext0007	avoir	C#12##s##	spk2	8.9	9.1	0.01	_
20091112_RATP_SCD_0046	6	4	voulu	NULL	vppart	NULL	I_GVf	ROOT	0	idtext0007	vouloir	K##m#s##	spk2	9.11	9.29	0.01	_
20091112_RATP_SCD_0046	6	5	avoir	NULL	vinf	NULL	B_GVi	OBJ	4	idtext0007	avoir	W#####	spk2	9.3	9.58	0.01	_
20091112_RATP_SCD_0046	6	6	un	NULL	det	NULL	B_GN	DET	7	idtext0007	un	##m#s##i	spk2	9.59	9.69	0.01	_
20091112_RATP_SCD_0046	6	7	renseignement	NULL	nc	NULL	I_GN	OBJ	5	idtext0007	renseignement	##m#s##	spk2	9.7	10.88	0.01	_
20091112_RATP_SCD_0046	6	8	j'	NULL	cln	NULL	B_GN	SUJ	10	idtext0008	cln	#1##s##	spk2	10.89	11.0	0.01	_
20091112_RATP_SCD_0046	6	9	ai	NULL	v	NULL	B_GVf	AUX	10	idtext0008	avoir	P#1##s##	spk2	11.01	11.07	0.01	_
20091112_RATP_SCD_0046	6	10	perdu	NULL	vppart	NULL	I_GVf	ROOT	0	idtext0008	perdre	K##m#s##	spk2	11.08	11.66	0.01	_
20091112_RATP_SCD_0046	6	11	euh	DISF_M	pres	NULL	NULL	NOLINK	0	idtext0008	euh	#####	spk2	11.67	11.82	0.01	_
20091112_RATP_SCD_0046	6	12	mon	NULL	det	NULL	B_GN	DET	13	idtext0008	mon	###s##o	spk2	11.83	12.03	0.01	_
20091112_RATP_SCD_0046	6	13	coupon	NULL	nc	NULL	I_GN	OBJ	10	idtext0008	coupon	##m#s##	spk2	12.04	13.2	0.01	_
20091112_RATP_SCD_0046	6	14	euh	DISF_M	pres	NULL	NULL	NOLINK	0	idtext0008	euh	#####	spk2	13.21	13.4	?	//

20091112_RATP_SCD_0046	7	1	euh	DISF_M	pres	NULL	NULL	NOLINK	0	idtext0009	euh	#####	spk2	14.07	14.17	0.01	_
20091112_RATP_SCD_0046	7	2	mensuel	NULL	adj	NULL	B_GADJ	ROOT	0	idtext0009	mensuel	##m#s##	spk2	14.18	15.47	0.01	_
20091112_RATP_SCD_0046	7	3	et	NULL	coo	NULL	B_NULL	COORD	2	idtext0010	et	#####	spk2	15.48	15.53	0.01	_
20091112_RATP_SCD_0046	7	4	j'	NULL	cln	NULL	B_GN	SUJ	6	idtext0010	cln	#1##s##	spk2	15.54	15.62	0.01	_
20091112_RATP_SCD_0046	7	5	aurais	NULL	v	NULL	B_GVf	AUX	6	idtext0010	avoir	C#12##s##	spk2	15.63	15.75	0.01	_
20091112_RATP_SCD_0046	7	6	voulu	NULL	vppart	NULL	I_GVf	DEP_COORD	3	idtext0010	vouloir	K##m#s##	spk2	15.76	16.04	0.01	_
20091112_RATP_SCD_0046	7	7	savoir	NULL	vinf	NULL	B_GVi	OBJ	6	idtext0010	savoir	W#####	spk2	16.05	16.29	0.01	_
20091112_RATP_SCD_0046	7	8	parce+que	NULL	csu	NULL	B_NULL	MOD	7	idtext0010	parce+que	#####	spk2	16.3	16.58	0.01	_
20091112_RATP_SCD_0046	7	9	j'	NULL	cln	NULL	B_GN	SUJ	11	idtext0010	cln	#1##s##	spk2	16.59	16.7	0.01	_
20091112_RATP_SCD_0046	7	10	ai	NULL	v	NULL	B_GVf	AUX	11	idtext0010	avoir	P#1##s##	spk2	16.71	16.78	0.01	_
20091112_RATP_SCD_0046	7	11	gardé	NULL	vppart	NULL	I_GVf	OBJ	8	idtext0010	garder	K##m#s##	spk2	16.79	17.19	0.01	_
20091112_RATP_SCD_0046	7	12	la	NULL	det	NULL	B_GN	DET	13	idtext0010	le	##m#s##d	spk2	17.2	17.29	0.01	_
20091112_RATP_SCD_0046	7	13	facture	NULL	nc	NULL	I_GN	OBJ	11	idtext0010	facture	##f#s##	spk2	17.3	17.84	0.01	_
20091112_RATP_SCD_0046	7	14	d'	NULL	prep	NULL	B_GP	DEP	13	idtext0010	d'	#####	spk2	17.85	17.92	0.01	_
20091112_RATP_SCD_0046	7	15	achat	NULL	nc	NULL	I_GP	OBJ	14	idtext0010	achat	##m#s##	spk2	17.93	18.71	?	//

20091112_RATP_SCD_0046	8	1	parce+que	NULL	csu	NULL	B_NULL	NOLINK	0	idtext0011	parce+que	#####	spk2	18.88	19.77	?	_

20091112_RATP_SCD_0046	9	1	de	NULL	prep	NULL	B_GP	ROOT	0	idtext0012	de	#####	spk1	18.75	19.0	0.01	_
20091112_RATP_SCD_0046	9	2	votre	NULL	det	NULL	I_GP	DET	3	idtext0012	votre	###s##o	spk1	19.01	19.25	0.01	_
20091112_RATP_SCD_0046	9	3	coupon	NULL	nc	NULL	I_GP	OBJ	1	idtext0012	coupon	##m#s##	spk1	19.26	19.77	?	//

20091112_RATP_SCD_0046	10	1	oui	NULL	adv	NULL	B_GADV	NOLINK	0	idtext0013	oui	#####	spk2	19.89	20.23	?	//

20091112_RATP_SCD_0046	11	1	euh	DISF_M	pres	NULL	NULL	NOLINK	0	idtext0014	euh	#####	spk1	20.9	21.71	0.01	_
20091112_RATP_SCD_0046	11	2	hum	DISF_M	pres	NULL	NULL	NOLINK	0	idtext0014	hum	#####	spk1	21.72	21.82	?	//

20091112_RATP_SCD_0046	12	1	non	NULL	adv	NULL	B_GADV	NOLINK	0	idtext0015	non	#####	spk1	21.98	22.11	0.01	_
20091112_RATP_SCD_0046	12	2	mais	NULL	coo	NULL	B_NULL	NOLINK	0	idtext0015	mais	#####	spk1	22.12	22.33	0.01	_
20091112_RATP_SCD_0046	12	3	OK	NULL	adv	NULL	B_GADV	NOLINK	0	idtext0015	ok	#####	spk1	22.34	22.63	?	/

20091112_RATP_SCD_0046	13	1	ça	NULL	pro	NULL	B_GN	SUJ_IMP	3	idtext0016	ça	#####	spk2	21.91	22.1	0.01	_
20091112_RATP_SCD_0046	13	2	me	NULL	clo	NULL	B_GN	A_OBJ	3	idtext0016	cla	#1##s##	spk2	22.11	22.17	0.01	_
20091112_RATP_SCD_0046	13	3	fait	NULL	v	NULL	B_GVf	ROOT	0	idtext0016	faire	P#3##s##	spk2	22.18	22.25	0.01	_
20091112_RATP_SCD_0046	13	4	le	NULL	det	NULL	B_GN	DET	5	idtext0016	le	##m#s##d	spk2	22.26	22.39	0.01	_
20091112_RATP_SCD_0046	13	5	passe	NULL	nc	NULL	I_GN	OBJ	3	idtext0016	passe	###s##	spk2	22.4	22.63	?	//

20091112_RATP_SCD_0046	14	1	Navigo	NULL	np	B_PRD	B_GN	NOLINK	0	idtext0017	Navigo	#####	spk2	22.67	23.22	0.01	_
20091112_RATP_SCD_0046	14	2	là	NULL	adv	NULL	B_GADV	NOLINK	0	idtext0017	là	#####	spk2	23.23	23.43	?	//

20091112_RATP_SCD_0046	15	1	oui	NULL	adv	NULL	B_GADV	NOLINK	0	idtext0018	oui	#####	spk1	23.48	23.56	0.01	_
20091112_RATP_SCD_0046	15	2	vous	NULL	cln	NULL	B_GN	SUJ	4	idtext0018	cln	#2##p##	spk1	23.57	23.62	0.01	_
20091112_RATP_SCD_0046	15	3	n'	NULL	clneg	NULL	B_GVfn	MOD	4	idtext0018	n'	#####	spk1	23.63	23.65	0.01	_
20091112_RATP_SCD_0046	15	4	avez	NULL	v	NULL	I_GVfn	ROOT	0	idtext0018	avoir	P#2##p##	spk1	23.66	23.77	0.01	_
20091112_RATP_SCD_0046	15	5	plus	NULL	advneg	NULL	I_GVfn	MOD	4	idtext0018	plus	#####	spk1	23.78	23.95	0.01	_
20091112_RATP_SCD_0046	15	6	le	NULL	det	NULL	B_GN	DET	7	idtext0018	le	##m#s##d	spk1	23.96	23.98	0.01	_
20091112_RATP_SCD_0046	15	7	coupon	NULL	nc	NULL	I_GN	OBJ	4	idtext0018	coupon	##m#s##	spk1	23.99	24.28	0.01	_
20091112_RATP_SCD_0046	15	8	maintenant	NULL	adv	NULL	B_GADV	MOD	4	idtext0018	maintenant	#####	spk1	24.29	24.67	?	//

20091112_RATP_SCD_0046	16	1	c'	NULL	cln	NULL	B_GN	SUJ_IMP	2	idtext0019	ce	###s##	spk1	24.71	24.73	0.01	_
20091112_RATP_SCD_0046	16	2	est	NULL	v	NULL	B_GVf	ROOT	0	idtext0019	être	P#3##s##	spk1	24.74	24.78	0.01	_
20091112_RATP_SCD_0046	16	3	le	NULL	det	NULL	B_GN	DET	4	idtext0019	le	##m#s##d	spk1	24.79	24.9	0.01	_
20091112_RATP_SCD_0046	16	4	Navigo	NULL	np	B_PRD	I_GN	ATS	2	idtext0019	Navigo	#####	spk1	24.91	25.26	0.01	_
20091112_RATP_SCD_0046	16	5	Orange	NULL	np	I_PRD	I_GN	MOD	4	idtext0019	Orange	##m#s##	spk1	25.27	25.64	0.01	_
20091112_RATP_SCD_0046	16	6	en+fait	GREF	adv	NULL	B_GADV	NOLINK	0	idtext0019	en+fait	#####	spk1	25.65	26.41	?	_

20091112_RATP_SCD_0046	17	1	oui	NULL	adv	NULL	B_GADV	NOLINK	0	idtext0020	oui	#####	spk2	24.73	24.78	0.01	_
20091112_RATP_SCD_0046	17	2	voilà	DISF_M	pres	NULL	NULL	NOLINK	0	idtext0020	voilà	#####	spk2	24.79	25.16	0.01	_
20091112_RATP_SCD_0046	17	3	voilà	DISF_M	pres	NULL	NULL	NOLINK	0	idtext0020	voilà	#####	spk2	25.17	25.67	0.01	_
20091112_RATP_SCD_0046	17	4	voilà	DISF_M	pres	NULL	NULL	NOLINK	0	idtext0020	voilà	#####	spk2	25.68	26.41	?	_

20091112_RATP_SCD_0046	18	1	vous	NULL	cln	NULL	B_GN	SUJ	3	idtext0021	cln	#2##p##	spk1	26.47	26.62	0.01	_
20091112_RATP_SCD_0046	18	2	avez	NULL	v	NULL	B_GVf	AUX	3	idtext0021	avoir	P#2##p##	spk1	26.63	26.82	0.01	_
20091112_RATP_SCD_0046	18	3	mis	NULL	vppart	NULL	I_GVf	ROOT	0	idtext0021	mettre	J#12##s##	spk1	26.83	26.95	0.01	_
20091112_RATP_SCD_0046	18	4	dessus	NULL	adv	NULL	B_GADV	MOD	3	idtext0021	dessus	#####	spk1	26.96	27.25	0.01	_
20091112_RATP_SCD_0046	18	5	votre	NULL	det	NULL	B_GN	DET	6	idtext0021	votre	###s##o	spk1	27.26	27.55	0.01	_
20091112_RATP_SCD_0046	18	6	chargement	NULL	nc	NULL	I_GN	OBJ	3	idtext0021	chargement	##m#s##	spk1	27.56	28.05	0.01	_
20091112_RATP_SCD_0046	18	7	pour	NULL	prep	NULL	B_GP	P_OBJ	6	idtext0021	pour	#####	spk1	28.06	28.22	0.01	_
20091112_RATP_SCD_0046	18	8	le	NULL	det	NULL	I_GP	DET	9	idtext0021	le	##m#s##d	spk1	28.23	28.3	0.01	_
20091112_RATP_SCD_0046	18	9	mois	NULL	nc	NULL	I_GP	OBJ	7	idtext0021	mois	##m###	spk1	28.31	28.71	?	//

20091112_RATP_SCD_0046	19	1	exactement	NULL	adv	NULL	B_GADV	NOLINK	0	idtext0022	exactement	#####	spk2	28.88	29.76	?	//

20091112_RATP_SCD_0046	20	1	alors	NULL	adv	NULL	B_GADV	NOLINK	0	idtext0023	alors	#####	spk1	29.89	30.45	0.01	/
20091112_RATP_SCD_0046	20	2	ce+qui	NULL	prorel	NULL	B_NULL	SUJ	4	idtext0023	ce+qui	#####	spk1	30.46	30.63	0.01	_
20091112_RATP_SCD_0046	20	3	se	NULL	clr	NULL	B_GVf	AFF	4	idtext0023	se	#####	spk1	30.64	30.67	0.01	_
20091112_RATP_SCD_0046	20	4	passe	NULL	v	NULL	I_GVf	ROOT	0	idtext0023	passer	PS#13##s##	spk1	30.68	30.93	0.01	_
20091112_RATP_SCD_0046	20	5	maintenant	NULL	adv	NULL	B_GADV	MOD	4	idtext0023	maintenant	#####	spk1	30.94	31.19	0.01	_
20091112_RATP_SCD_0046	20	6	avec	NULL	prep	NULL	B_GP	P_OBJ	4	idtext0023	avec	#####	spk1	31.2	31.38	0.01	_
20091112_RATP_SCD_0046	20	7	le	NULL	det	NULL	I_GP	DET	8	idtext0023	le	##m#s##d	spk1	31.39	31.49	0.01	_
20091112_RATP_SCD_0046	20	8	principe	NULL	nc	NULL	I_GP	OBJ	6	idtext0023	principe	##m#s##	spk1	31.5	31.85	0.01	_
20091112_RATP_SCD_0046	20	9	du	NULL	prep	NULL	B_GP	DEP	8	idtext0023	du	#####	spk1	31.86	31.98	0.01	_
20091112_RATP_SCD_0046	20	10	Navigo	NULL	np	B_PRD	I_GP	OBJ	9	idtext0023	Navigo	#####	spk1	31.99	32.47	?	//

20091112_RATP_SCD_0046	21	1	c'	NULL	cln	NULL	B_GN	SUJ_IMP	2	idtext0024	ce	###s##	spk1	33.03	33.05	0.01	_
20091112_RATP_SCD_0046	21	2	est	NULL	v	NULL	B_GVf	ROOT	0	idtext0024	être	P#3##s##	spk1	33.06	33.1	0.01	_
20091112_RATP_SCD_0046	21	3	qu'	NULL	csu	NULL	B_NULL	ATS	2	idtext0024	qu'	#####	spk1	33.11	33.18	0.01	_
20091112_RATP_SCD_0046	21	4	on	NULL	cln	NULL	B_GN	SUJ_IMP	5	idtext0024	cln	#3##s##	spk1	33.19	33.27	0.01	_
20091112_RATP_SCD_0046	21	5	récupère	NULL	v	NULL	B_GVf	OBJ	3	idtext0024	récupérer	PS#13##s##	spk1	33.28	33.76	0.01	_
20091112_RATP_SCD_0046	21	6	l'	NULL	det	NULL	B_GN	DET	7	idtext0024	le	###s##d	spk1	33.77	33.81	0.01	_
20091112_RATP_SCD_0046	21	7	intégralité	NULL	nc	NULL	I_GN	OBJ	5	idtext0024	intégralité	##f#s##	spk1	33.82	34.52	0.01	_
20091112_RATP_SCD_0046	21	8	de	NULL	prep	NULL	B_GP	DEP	7	idtext0024	de	#####	spk1	34.53	34.69	0.01	_
20091112_RATP_SCD_0046	21	9	ce+qu'	NULL	prorel	NULL	I_GP	OBJ	12	idtext0024	ce+qu'	#####	spk1	34.7	34.84	0.01	_
20091112_RATP_SCD_0046	21	10	on	NULL	cln	NULL	B_GN	SUJ	12	idtext0024	cln	#3##s##	spk1	34.85	34.97	0.01	_
20091112_RATP_SCD_0046	21	11	a	NULL	v	NULL	B_GVf	AUX	12	idtext0024	avoir	P#3##s##	spk1	34.98	35.07	0.01	_
20091112_RATP_SCD_0046	21	12	mis	NULL	vppart	NULL	I_GVf	ROOT	0	idtext0024	mettre	J#12##s##	spk1	35.08	35.46	0.01	_
20091112_RATP_SCD_0046	21	13	comme	NULL	adv	NULL	B_GADV	MOD	12	idtext0024	comme	#####	spk1	35.47	35.62	0.01	_
20091112_RATP_SCD_0046	21	14	transport	NULL	nc	NULL	B_GN	OBJ	13	idtext0024	transport	##m#s##	spk1	35.63	36.04	0.01	_
20091112_RATP_SCD_0046	21	15	sur	NULL	prep	NULL	B_GP	P_OBJ	12	idtext0024	sur	#####	spk1	36.05	36.21	0.01	_
20091112_RATP_SCD_0046	21	16	le	NULL	det	NULL	I_GP	DET	17	idtext0024	le	##m#s##d	spk1	36.22	36.33	0.01	_
20091112_RATP_SCD_0046	21	17	passe	NULL	nc	NULL	I_GP	OBJ	15	idtext0024	passe	###s##	spk1	36.34	36.59	?	//

20091112_RATP_SCD_0046	22	1	c'est-à-dire	NULL	coo	NULL	B_NULL	NOLINK	0	idtext0025	c'est-à-dire	#####	spk2	37.52	38.11	?	_

20091112_RATP_SCD_0046	23	1	alors	NULL	adv	NULL	B_GADV	NOLINK	0	idtext0026	alors	#####	spk1	38.22	38.52	0.01	_
20091112_RATP_SCD_0046	23	2	c'est-à-dire	NULL	coo	NULL	B_NULL	ROOT	0	idtext0026	c'est-à-dire	#####	spk1	38.53	38.75	0.01	_
20091112_RATP_SCD_0046	23	3	que	NULL	csu	NULL	B_NULL	OBJ	2	idtext0026	que	#####	spk1	38.76	38.78	0.01	_
20091112_RATP_SCD_0046	23	4	vous	NULL	cln	NULL	B_GN	SUJ	5	idtext0026	cln	#2##p##	spk1	38.79	39.07	0.01	_
20091112_RATP_SCD_0046	23	5	allez	NULL	v	NULL	B_GVf	OBJ	3	idtext0026	aller	P#2##p##	spk1	39.08	39.21	0.01	_
20091112_RATP_SCD_0046	23	6	en	NULL	prep	NULL	B_GP	P_OBJ	5	idtext0026	en	#####	spk1	39.22	39.34	0.01	_
20091112_RATP_SCD_0046	23	7	agence	NULL	nc	NULL	I_GP	OBJ	6	idtext0026	agence	##f#s##	spk1	39.35	39.66	0.01	_
20091112_RATP_SCD_0046	23	8	par+contre	NULL	adv	NULL	B_GADV	NOLINK	0	idtext0026	par+contre	#####	spk1	39.67	40.09	0.01	_
20091112_RATP_SCD_0046	23	9	hein	DISF_M	pres	NULL	NULL	NOLINK	0	idtext0026	hein	#####	spk1	40.1	40.16	0.01	_
20091112_RATP_SCD_0046	23	10	il	NULL	cln	NULL	B_GN	SUJ_IMP	11	idtext0026	cln	#3#m#s##	spk1	40.17	40.22	0.01	_
20091112_RATP_SCD_0046	23	11	faut	NULL	v	NULL	B_GVf	ROOT	0	idtext0026	falloir	P#3##s##	spk1	40.23	40.32	0.01	_
20091112_RATP_SCD_0046	23	12	aller	NULL	vinf	NULL	I_GVf	OBJ	11	idtext0026	aller	W#####	spk1	40.33	40.41	0.01	_
20091112_RATP_SCD_0046	23	13	dans	NULL	prep	NULL	B_GP	P_OBJ_LOC	11	idtext0026	dans	#####	spk1	40.42	40.58	0.01	_
20091112_RATP_SCD_0046	23	14	une	NULL	det	NULL	I_GP	DET	15	idtext0026	un	##f#s##i	spk1	40.59	40.67	0.01	_
20091112_RATP_SCD_0046	23	15	agence	NULL	nc	NULL	I_GP	OBJ	13	idtext0026	agence	##f#s##	spk1	40.68	40.94	0.01	_
20091112_RATP_SCD_0046	23	16	commerciale	NULL	adj	NULL	I_GP	MOD	15	idtext0026	commercial	##f#s##	spk1	40.95	41.54	?	//

20091112_RATP_SCD_0046	24	1	hm+hm	DISF_M	pres	NULL	NULL	NOLINK	0	idtext0027	hm+hm	#####	spk2	41.63	42.34	?	//

20091112_RATP_SCD_0046	25	1	vous	NULL	cln	NULL	B_GN	SUJ	2	idtext0028	cln	#2##p##	spk1	42.51	42.62	0.01	_
20091112_RATP_SCD_0046	25	2	déclarez	NULL	v	NULL	B_GVf	ROOT	0	idtext0028	déclarer	P#2##p##	spk1	42.63	43.03	0.01	_
20091112_RATP_SCD_0046	25	3	la	NULL	det	NULL	B_GN	DET	4	idtext0028	le	##m#s##d	spk1	43.04	43.15	0.01	_
20091112_RATP_SCD_0046	25	4	perte	NULL	nc	NULL	I_GN	OBJ	2	idtext0028	perte	##f#s##	spk1	43.16	43.37	0.01	_
20091112_RATP_SCD_0046	25	5	de	NULL	prep	NULL	B_GP	DEP	4	idtext0028	de	#####	spk1	43.38	43.45	0.01	_
20091112_RATP_SCD_0046	25	6	votre	NULL	det	NULL	I_GP	DET	7	idtext0028	votre	###s##o	spk1	43.46	43.63	0.01	_
20091112_RATP_SCD_0046	25	7	passe	NULL	nc	NULL	I_GP	OBJ	5	idtext0028	passe	###s##	spk1	43.64	44.04	?	//

20091112_RATP_SCD_0046	26	1	comme+ça	NULL	adv	NULL	B_GADV	NOLINK	0	idtext0029	comme+ça	#####	spk1	44.08	44.26	0.01	_
20091112_RATP_SCD_0046	26	2	ils	NULL	cln	NULL	B_GN	SUJ	3	idtext0029	cln	#3#m#p##	spk1	44.27	44.36	0.01	_
20091112_RATP_SCD_0046	26	3	vont	NULL	v	NULL	B_GVf	ROOT	0	idtext0029	aller	P#3##p##	spk1	44.37	44.51	0.01	_
20091112_RATP_SCD_0046	26	4	le	NULL	clo	NULL	B_GN	OBJ	5	idtext0029	cla	#3#m#s##	spk1	44.52	44.54	0.01	_
20091112_RATP_SCD_0046	26	5	mettre	NULL	vinf	NULL	B_GVi	OBJ	3	idtext0029	mettre	W#####	spk1	44.55	44.73	?	//

20091112_RATP_SCD_0046	27	1	hm+hm	DISF_M	pres	NULL	NULL	NOLINK	0	idtext0030	hm+hm	#####	spk2	44.13	44.73	?	//

20091112_RATP_SCD_0046	28	1	en	NULL	prep	NULL	B_GP	OBJ	4	idtext0031	en	#####	spk1	44.77	44.82	0.01	_
20091112_RATP_SCD_0046	28	2	opposition	NULL	nc	NULL	I_GP	OBJ	1	idtext0031	opposition	##f#s##	spk1	44.83	45.4	0.01	_
20091112_RATP_SCD_0046	28	3	vous	NULL	cln	NULL	B_GN	SUJ	4	idtext0031	cln	#2##p##	spk1	45.41	45.59	0.01	_
20091112_RATP_SCD_0046	28	4	récupérez	NULL	v	NULL	B_GVf	ROOT	0	idtext0031	récupérer	P#2##p##	spk1	45.6	46.39	0.01	_
20091112_RATP_SCD_0046	28	5	tout	NULL	adv	NULL	B_GADV	MOD	4	idtext0031	tout	##m#s##	spk1	46.4	46.5	0.01	_
20091112_RATP_SCD_0046	28	6	ce+qu'	NULL	prorel	NULL	B_NULL	OBJ	9	idtext0031	ce+qu'	#####	spk1	46.51	46.64	0.01	_
20091112_RATP_SCD_0046	28	7	il	NULL	cln	NULL	B_GN	SUJ_IMP	9	idtext0031	cln	#3#m#s##	spk1	46.65	46.7	0.01	_
20091112_RATP_SCD_0046	28	8	y	NULL	clo	NULL	B_GN	AFF	9	idtext0031	y	#####	spk1	46.71	46.74	0.01	_
20091112_RATP_SCD_0046	28	9	avait	NULL	v	NULL	B_GVf	ROOT	0	idtext0031	avoir	I#3##s##	spk1	46.75	46.92	0.01	_
20091112_RATP_SCD_0046	28	10	dessus	NULL	adv	NULL	B_GADV	MOD	11	idtext0031	dessus	#####	spk1	46.93	47.68	0.01	_
20091112_RATP_SCD_0046	28	11	par+contre	NULL	adv	NULL	I_GADV	MOD	19	idtext0032	par+contre	#####	spk1	47.69	48.05	0.01	_
20091112_RATP_SCD_0046	28	12	ils	NULL	cln	NULL	B_GN	SUJ	13	idtext0032	cln	#3#m#p##	spk1	48.06	48.11	0.01	_
20091112_RATP_SCD_0046	28	13	vont	NULL	v	NULL	B_GVf	DEP_COORD	11	idtext0032	aller	P#3##p##	spk1	48.12	48.28	0.01	_
20091112_RATP_SCD_0046	28	14	vous	NULL	clo	NULL	B_GN	A_OBJ	15	idtext0032	cln	#2##p##	spk1	48.29	48.37	0.01	_
20091112_RATP_SCD_0046	28	15	demander	NULL	vinf	NULL	B_GVi	OBJ	13	idtext0032	demander	W#####	spk1	48.38	48.73	0.01	_
20091112_RATP_SCD_0046	28	16	huit	NULL	det	B_P	B_GN	DET	17	idtext0032	huit	#####	spk1	48.74	48.95	0.01	_
20091112_RATP_SCD_0046	28	17	euros	NULL	nc	I_P	I_GN	OBJ	15	idtext0032	euro	##m#p##	spk1	48.96	49.23	0.01	//
20091112_RATP_SCD_0046	28	18	c'	NULL	cln	NULL	B_GN	SUJ_IMP	19	idtext0032	ce	###s##	spk1	49.24	49.28	0.01	_
20091112_RATP_SCD_0046	28	19	est	NULL	v	NULL	B_GVf	ROOT	0	idtext0032	être	P#3##s##	spk1	49.29	49.32	0.01	_
20091112_RATP_SCD_0046	28	20	le	NULL	det	NULL	B_GN	DET	21	idtext0032	le	##m#s##d	spk1	49.33	49.38	0.01	_
20091112_RATP_SCD_0046	28	21	coût	NULL	nc	NULL	I_GN	ATS	19	idtext0032	coût	##m#s##	spk1	49.39	49.52	0.01	_
20091112_RATP_SCD_0046	28	22	de	NULL	prep	NULL	B_GP	DEP	21	idtext0032	de	#####	spk1	49.53	49.58	0.01	_
20091112_RATP_SCD_0046	28	23	refabrication	NULL	nc	NULL	I_GP	OBJ	22	idtext0032	refabrication	##f#s##	spk1	49.59	50.29	0.01	_
20091112_RATP_SCD_0046	28	24	du	NULL	prep	NULL	B_GP	DEP	23	idtext0032	du	#####	spk1	50.3	50.41	0.01	_
20091112_RATP_SCD_0046	28	25	passe	NULL	nc	NULL	I_GP	OBJ	24	idtext0032	passe	###s##	spk1	50.42	50.88	?	//

20091112_RATP_SCD_0046	29	1	et	NULL	coo	NULL	B_NULL	ROOT	0	idtext0033	et	#####	spk1	51.14	51.34	0.01	_
20091112_RATP_SCD_0046	29	2	vous	NULL	cln	NULL	B_GN	SUJ	3	idtext0033	cln	#2##p##	spk1	51.35	51.51	0.01	_
20091112_RATP_SCD_0046	29	3	avez	NULL	v	NULL	B_GVf	DEP_COORD	1	idtext0033	avoir	P#2##p##	spk1	51.52	51.76	?	//

20091112_RATP_SCD_0046	30	1	c'	NULL	cln	NULL	B_GN	SUJ_IMP	2	idtext0034	ce	###s##	spk2	51.11	51.15	0.01	_
20091112_RATP_SCD_0046	30	2	est	NULL	v	NULL	B_GVfn	ROOT	0	idtext0034	être	P#3##s##	spk2	51.16	51.26	0.01	_
20091112_RATP_SCD_0046	30	3	pas	NULL	advneg	NULL	I_GVfn	MOD	2	idtext0034	pas	#####	spk2	51.27	51.33	0.01	_
20091112_RATP_SCD_0046	30	4	la	NULL	det	NULL	B_GN	DET	5	idtext0034	le	##m#s##d	spk2	51.34	51.45	0.01	_
20091112_RATP_SCD_0046	30	5	carte	NULL	nc	NULL	I_GN	ATS	2	idtext0034	carte	##f#s##	spk2	51.46	51.76	?	//

20091112_RATP_SCD_0046	31	1	Intégrale	NULL	np	B_PRD	B_GN	NOLINK	0	idtext0035	Intégrale	#####	spk2	51.81	52.42	0.01	_
20091112_RATP_SCD_0046	31	2	hein	DISF_M	pres	I_PRD	NULL	NOLINK	0	idtext0035	hein	#####	spk2	52.43	52.77	?	//

20091112_RATP_SCD_0046	32	1	non	NULL	adv	NULL	B_GADV	NOLINK	0	idtext0036	non	#####	spk1	52.9	53.11	0.01	_
20091112_RATP_SCD_0046	32	2	c'	NULL	cln	NULL	B_GN	SUJ_IMP	3	idtext0036	ce	###s##	spk1	53.12	53.21	0.01	_
20091112_RATP_SCD_0046	32	3	est	NULL	v	NULL	B_GVf	ROOT	0	idtext0036	être	P#3##s##	spk1	53.22	53.24	0.01	_
20091112_RATP_SCD_0046	32	4	le	NULL	det	NULL	B_GN	DET	5	idtext0036	le	##m#s##d	spk1	53.25	53.33	0.01	_
20091112_RATP_SCD_0046	32	5	Navigo	NULL	np	B_PRD	I_GN	ATS	3	idtext0036	Navigo	#####	spk1	53.34	53.68	0.01	_
20091112_RATP_SCD_0046	32	6	Orange	NULL	np	I_PRD	I_GN	MOD	5	idtext0036	Orange	##m#s##	spk1	53.69	53.93	0.01	_
20091112_RATP_SCD_0046	32	7	que	NULL	prorel	NULL	B_NULL	OBJ	9	idtext0036	que	#####	spk1	53.94	53.96	0.01	_
20091112_RATP_SCD_0046	32	8	vous	NULL	cln	NULL	B_GN	SUJ	9	idtext0036	cln	#2##p##	spk1	53.97	54.19	0.01	_
20091112_RATP_SCD_0046	32	9	avez	NULL	v	NULL	B_GVf	MOD_REL	5	idtext0036	avoir	P#2##p##	spk1	54.2	54.39	0.01	_
20091112_RATP_SCD_0046	32	10	oui	NULL	adv	NULL	B_GADV	NOLINK	0	idtext0036	oui	#####	spk1	54.4	54.5	?	_

20091112_RATP_SCD_0046	33	1	c'	NULL	cln	NULL	B_GN	SUJ_IMP	2	idtext0037	ce	###s##	spk1	54.54	54.56	0.01	_
20091112_RATP_SCD_0046	33	2	est	NULL	v	NULL	B_GVf	ROOT	0	idtext0037	être	P#3##s##	spk1	54.57	54.69	0.01	_
20091112_RATP_SCD_0046	33	3	ça	NULL	pro	NULL	B_GN	ATS	2	idtext0037	ça	#####	spk1	54.7	54.8	0.01	_
20091112_RATP_SCD_0046	33	4	que	NULL	prorel	NULL	B_NULL	OBJ	6	idtext0037	que	#####	spk1	54.81	54.87	0.01	_
20091112_RATP_SCD_0046	33	5	vous	NULL	cln	NULL	B_GN	SUJ	6	idtext0037	cln	#2##p##	spk1	54.88	54.93	0.01	_
20091112_RATP_SCD_0046	33	6	rechargez	NULL	v	NULL	B_GVf	MOD_REL	3	idtext0037	recharger	P#2##p##	spk1	54.94	55.5	0.01	_
20091112_RATP_SCD_0046	33	7	donc	NULL	coo	NULL	B_NULL	NOLINK	0	idtext0037	donc	#####	spk1	55.51	55.64	0.01	_
20091112_RATP_SCD_0046	33	8	en+fait	GREF	adv	NULL	B_GADV	NOLINK	0	idtext0037	en+fait	#####	spk1	55.65	56.17	?	_

20091112_RATP_SCD_0046	34	1	exactement	NULL	adv	NULL	B_GADV	MOD	2	idtext0038	exactement	#####	spk2	54.54	55.53	0.01	_
20091112_RATP_SCD_0046	34	2	oui	NULL	adv	NULL	I_GADV	ROOT	0	idtext0038	oui	#####	spk2	55.54	56.17	?	_

20091112_RATP_SCD_0046	35	1	vous	NULL	cln	NULL	B_GN	SUJ	3	idtext0039	cln	#2##p##	spk1	56.32	56.39	0.01	_
20091112_RATP_SCD_0046	35	2	ne	NULL	clneg	NULL	B_GVfn	MOD	3	idtext0039	ne	#####	spk1	56.4	56.46	0.01	_
20091112_RATP_SCD_0046	35	3	payez	NULL	v	NULL	I_GVfn	ROOT	0	idtext0039	payer	P#2##p##	spk1	56.47	56.7	0.01	_
20091112_RATP_SCD_0046	35	4	que	NULL	advneg	NULL	I_GVfn	MOD	3	idtext0039	que	#####	spk1	56.71	56.82	0.01	_
20091112_RATP_SCD_0046	35	5	huit	NULL	det	B_P	B_GN	DET	6	idtext0039	huit	#####	spk1	56.83	57.01	0.01	_
20091112_RATP_SCD_0046	35	6	euros	NULL	nc	I_P	I_GN	OBJ	3	idtext0039	euro	##m#p##	spk1	57.02	57.22	0.01	_
20091112_RATP_SCD_0046	35	7	et	NULL	coo	NULL	B_NULL	COORD	3	idtext0039	et	#####	spk1	57.23	57.25	0.01	_
20091112_RATP_SCD_0046	35	8	vous	NULL	cln	NULL	B_GN	SUJ	9	idtext0039	cln	#2##p##	spk1	57.26	57.38	0.01	_
20091112_RATP_SCD_0046	35	9	récupérez	NULL	v	NULL	B_GVf	DEP_COORD	7	idtext0039	récupérer	P#2##p##	spk1	57.39	58.04	0.01	_
20091112_RATP_SCD_0046	35	10	l()	DISF_T	tronc	NULL	NULL	NOLINK	0	idtext0039	l()	#####	spk1	58.05	58.41	0.01	_
20091112_RATP_SCD_0046	35	11	l'	NULL	det	NULL	B_GN	DET	12	idtext0040	le	###s##d	spk1	58.42	58.55	0.01	_
20091112_RATP_SCD_0046	35	12	intégralité	NULL	nc	NULL	I_GN	OBJ	9	idtext0040	intégralité	##f#s##	spk1	58.56	59.23	0.01	_
20091112_RATP_SCD_0046	35	13	de	NULL	prep	NULL	B_GP	DEP	12	idtext0040	de	#####	spk1	59.24	59.36	0.01	_
20091112_RATP_SCD_0046	35	14	votre	NULL	det	NULL	I_GP	DET	15	idtext0040	votre	###s##o	spk1	59.37	59.6	0.01	_
20091112_RATP_SCD_0046	35	15	mois	NULL	nc	NULL	I_GP	OBJ	13	idtext0040	mois	##m###	spk1	59.61	60.03	?	//

20091112_RATP_SCD_0046	36	1	jusqu'à	NULL	prep	NULL	B_NULL	NOLINK	0	idtext0041	jusqu'à	#####	spk1	60.29	60.9	?	_

20091112_RATP_SCD_0046	37	1	d'accord	NULL	adv	NULL	B_GADV	NOLINK	0	idtext0042	d'accord	#####	spk2	60.16	60.9	?	//

20091112_RATP_SCD_0046	38	1	la	NULL	det	NULL	B_GN	DET	2	idtext0043	le	##m#s##d	spk1	60.94	60.99	0.01	_
20091112_RATP_SCD_0046	38	2	fin	NULL	nc	NULL	I_GN	ROOT	0	idtext0043	fin	###s##	spk1	61.0	61.14	0.01	_
20091112_RATP_SCD_0046	38	3	du	NULL	prep	NULL	B_GP	DEP	2	idtext0043	du	#####	spk1	61.15	61.23	0.01	_
20091112_RATP_SCD_0046	38	4	mois	NULL	nc	NULL	I_GP	OBJ	3	idtext0043	mois	##m###	spk1	61.24	61.39	0.01	_
20091112_RATP_SCD_0046	38	5	de	NULL	prep	NULL	B_GP	DEP	4	idtext0043	de	#####	spk1	61.4	61.42	0.01	_
20091112_RATP_SCD_0046	38	6	novembre	NULL	nc	NULL	I_GP	OBJ	5	idtext0043	novembre	##m#s##	spk1	61.43	61.86	?	//

20091112_RATP_SCD_0046	39	1	d'accord	NULL	adv	NULL	B_GADV	NOLINK	0	idtext0044	d'accord	#####	spk2	61.95	62.39	0.01	_
20091112_RATP_SCD_0046	39	2	donc	NULL	coo	NULL	B_NULL	ROOT	0	idtext0044	donc	#####	spk2	62.4	62.6	0.01	_
20091112_RATP_SCD_0046	39	3	je	NULL	cln	NULL	B_GN	SUJ	4	idtext0044	cln	#1##s##	spk2	62.61	62.73	0.01	_
20091112_RATP_SCD_0046	39	4	dois	NULL	v	NULL	B_GVf	DEP_COORD	2	idtext0044	devoir	P#12##s##	spk2	62.74	62.87	0.01	_
20091112_RATP_SCD_0046	39	5	aller	NULL	vinf	NULL	I_GVf	OBJ	4	idtext0044	aller	W#####	spk2	62.88	63.05	0.01	_
20091112_RATP_SCD_0046	39	6	en	NULL	prep	NULL	B_GP	P_OBJ_LOC	4	idtext0044	en	#####	spk2	63.06	63.22	0.01	_
20091112_RATP_SCD_0046	39	7	agence	NULL	nc	NULL	I_GP	OBJ	6	idtext0044	agence	##f#s##	spk2	63.23	63.55	?	//

20091112_RATP_SCD_0046	40	1	pour	NULL	prep	NULL	B_GP	ROOT	0	idtext0045	pour	#####	spk2	63.84	63.98	0.01	_
20091112_RATP_SCD_0046	40	2	ça	NULL	pro	NULL	I_GP	OBJ	1	idtext0045	ça	#####	spk2	63.99	64.21	?	_

20091112_RATP_SCD_0046	41	1	exactement	NULL	adv	NULL	B_GADV	NOLINK	0	idtext0046	exactement	#####	spk1	63.59	64.21	?	//

20091112_RATP_SCD_0046	42	1	tout+à+fait	NULL	adv	NULL	B_GADV	NOLINK	0	idtext0047	tout+à+fait	#####	spk1	64.31	64.63	0.01	_
20091112_RATP_SCD_0046	42	2	madame	NULL	nc	NULL	B_GN	NOLINK	0	idtext0047	Monsieur	##f#s##	spk1	64.64	64.93	?	//

20091112_RATP_SCD_0046	43	1	ah	DISF_M	pres	NULL	NULL	NOLINK	0	idtext0048	ah	#####	spk2	65.09	65.37	0.01	_
20091112_RATP_SCD_0046	43	2	OK	NULL	adv	NULL	B_GADV	NOLINK	0	idtext0048	ok	#####	spk2	65.38	65.83	?	//

20091112_RATP_SCD_0046	44	1	c'	NULL	cln	NULL	B_GN	SUJ_IMP	2	idtext0049	ce	###s##	spk2	65.91	65.93	0.01	_
20091112_RATP_SCD_0046	44	2	est	NULL	v	NULL	B_GVf	ROOT	0	idtext0049	être	P#3##s##	spk2	65.94	66.03	?	//

20091112_RATP_SCD_0046	45	1	ouais	NULL	adv	NULL	B_GADV	NOLINK	0	idtext0050	ouais	#####	spk1	65.89	66.03	?	//

20091112_RATP_SCD_0046	46	1	huit	NULL	det	B_P	B_GN	DET	2	idtext0051	huit	#####	spk2	66.07	66.28	0.01	_
20091112_RATP_SCD_0046	46	2	euros	NULL	nc	I_P	I_GN	NOLINK	0	idtext0051	euro	##m#p##	spk2	66.29	66.56	?	//

20091112_RATP_SCD_0046	47	1	simplement	NULL	adv	NULL	B_GADV	NOLINK	0	idtext0052	simplement	#####	spk2	66.67	67.19	?	//

20091112_RATP_SCD_0046	48	1	huit	NULL	det	B_P	B_GN	DET	2	idtext0053	huit	#####	spk1	66.74	66.91	0.01	_
20091112_RATP_SCD_0046	48	2	euros	NULL	nc	I_P	I_GN	NOLINK	0	idtext0053	euro	##m#p##	spk1	66.92	67.19	?	//

20091112_RATP_SCD_0046	49	1	tout+à+fait	NULL	adv	NULL	B_GADV	NOLINK	0	idtext0054	tout+à+fait	#####	spk1	67.24	67.77	?	//

20091112_RATP_SCD_0046	50	1	bon+ben	DISF_M	pres	NULL	NULL	NOLINK	0	idtext0055	bon+ben	#####	spk2	67.93	68.33	0.01	_
20091112_RATP_SCD_0046	50	2	je	NULL	cln	NULL	B_GN	SUJ	3	idtext0055	cln	#1##s##	spk2	68.34	68.51	0.01	_
20091112_RATP_SCD_0046	50	3	vais	NULL	v	NULL	B_GVf	ROOT	0	idtext0055	aller	P#1##s##	spk2	68.52	68.6	0.01	_
20091112_RATP_SCD_0046	50	4	y	NULL	clo	NULL	B_GN	P_OBJ_LOC	5	idtext0055	y	#####	spk2	68.61	68.64	0.01	_
20091112_RATP_SCD_0046	50	5	aller	NULL	vinf	NULL	B_GVi	OBJ	3	idtext0055	aller	W#####	spk2	68.65	68.78	?	//

20091112_RATP_SCD_0046	51	1	aujourd'hui	NULL	adv	NULL	B_GADV	MOD	2	idtext0056	aujourd'hui	#####	spk2	68.82	69.3	0.01	_
20091112_RATP_SCD_0046	51	2	alors	NULL	adv	NULL	I_GADV	ROOT	0	idtext0056	alors	#####	spk2	69.31	69.57	?	_

20091112_RATP_SCD_0046	52	1	hm	DISF_M	pres	NULL	NULL	NOLINK	0	idtext0057	hm	#####	spk1	68.82	68.92	0.01	_
20091112_RATP_SCD_0046	52	2	très+bien	NULL	adv	NULL	B_GADV	NOLINK	0	idtext0057	très+bien	#####	spk1	68.93	69.57	?	//

20091112_RATP_SCD_0046	53	1	et	NULL	coo	NULL	B_NULL	ROOT	0	idtext0058	et	#####	spk2	69.64	69.7	0.01	_
20091112_RATP_SCD_0046	53	2	je	NULL	cln	NULL	B_GN	SUJ	3	idtext0058	cln	#1##s##	spk2	69.71	69.76	0.01	_
20091112_RATP_SCD_0046	53	3	dois	NULL	v	NULL	B_GVf	DEP_COORD	1	idtext0058	devoir	P#12##s##	spk2	69.77	69.87	0.01	_
20091112_RATP_SCD_0046	53	4	montrer	NULL	vinf	NULL	I_GVf	OBJ	3	idtext0058	montrer	W#####	spk2	69.88	70.32	0.01	_
20091112_RATP_SCD_0046	53	5	les	DISF_R	det	NULL	NULL	NOLINK	0	idtext0058	le	###p##d	spk2	70.33	70.51	0.01	_
20091112_RATP_SCD_0046	53	6	euh	DISF_M	pres	NULL	NULL	NOLINK	0	idtext0058	euh	#####	spk2	70.52	70.54	0.01	_
20091112_RATP_SCD_0046	53	7	le	NULL	det	NULL	B_GN	DET	8	idtext0058	le	##m#s##d	spk2	70.55	71.34	0.01	_
20091112_RATP_SCD_0046	53	8	titre	NULL	nc	NULL	I_GN	OBJ	3	idtext0058	titre	##m#s##	spk2	71.35	71.71	0.01	_
20091112_RATP_SCD_0046	53	9	de	NULL	prep	NULL	B_GP	DEP	8	idtext0058	de	#####	spk2	71.72	71.82	0.01	_
20091112_RATP_SCD_0046	53	10	paiement	NULL	nc	NULL	I_GP	OBJ	9	idtext0058	paiement	##m#s##	spk2	71.83	72.38	?	//

20091112_RATP_SCD_0046	54	1	vous	NULL	cln	NULL	B_GN	SUJ	2	idtext0059	cln	#2##p##	spk1	72.49	72.64	0.01	_
20091112_RATP_SCD_0046	54	2	venez	NULL	v	NULL	B_GVf	ROOT	0	idtext0059	venir	P#2##p##	spk1	72.65	72.77	0.01	_
20091112_RATP_SCD_0046	54	3	avec	NULL	prep	NULL	B_GP	P_OBJ	2	idtext0059	avec	#####	spk1	72.78	73.02	0.01	_
20091112_RATP_SCD_0046	54	4	une	DISF_R	det	NULL	NULL	NOLINK	0	idtext0059	un	##f#s##i	spk1	73.03	73.22	0.01	_
20091112_RATP_SCD_0046	54	5	votre	NULL	det	NULL	I_GP	DET	6	idtext0059	votre	###s##o	spk1	73.23	73.41	0.01	_
20091112_RATP_SCD_0046	54	6	pièce	NULL	nc	NULL	I_GP	OBJ	3	idtext0059	pièce	##f#s##	spk1	73.42	73.57	0.01	_
20091112_RATP_SCD_0046	54	7	d'	NULL	prep	NULL	B_GP	DEP	6	idtext0059	d'	#####	spk1	73.58	73.6	0.01	_
20091112_RATP_SCD_0046	54	8	identité	NULL	nc	NULL	I_GP	OBJ	7	idtext0059	identité	##f#s##	spk1	73.61	74.31	?	//

20091112_RATP_SCD_0046	55	1	oui	NULL	adv	NULL	B_GADV	NOLINK	0	idtext0060	oui	#####	spk2	74.49	74.76	?	//

20091112_RATP_SCD_0046	56	1	hein	DISF_M	pres	NULL	NULL	NOLINK	0	idtext0061	hein	#####	spk1	74.8	75.04	0.01	_
20091112_RATP_SCD_0046	56	2	et+puis	NULL	coo	NULL	B_NULL	ROOT	0	idtext0061	et+puis	#####	spk1	75.05	75.27	0.01	_
20091112_RATP_SCD_0046	56	3	ils	NULL	cln	NULL	B_GN	SUJ	4	idtext0061	cln	#3#m#p##	spk1	75.28	75.33	0.01	_
20091112_RATP_SCD_0046	56	4	vont	NULL	v	NULL	B_GVf	DEP_COORD	2	idtext0061	aller	P#3##p##	spk1	75.34	75.49	0.01	_
20091112_RATP_SCD_0046	56	5	vous	NULL	clo	NULL	B_GN	A_OBJ	6	idtext0061	cln	#2##p##	spk1	75.5	75.87	0.01	_
20091112_RATP_SCD_0046	56	6	ressortir	NULL	vinf	NULL	B_GVi	OBJ	4	idtext0061	ressortir	W#####	spk1	75.88	76.31	0.01	_
20091112_RATP_SCD_0046	56	7	le	NULL	det	NULL	B_GN	DET	8	idtext0061	le	##m#s##d	spk1	76.32	76.43	0.01	_
20091112_RATP_SCD_0046	56	8	dossier	NULL	nc	NULL	I_GN	OBJ	6	idtext0061	dossier	##m#s##	spk1	76.44	76.8	0.01	//
20091112_RATP_SCD_0046	56	9	hein	DISF_M	pres	NULL	NULL	NOLINK	0	idtext0061	hein	#####	spk1	76.81	76.98	0.01	_
20091112_RATP_SCD_0046	56	10	euh	DISF_M	pres	NULL	NULL	NOLINK	0	idtext0061	euh	#####	spk1	76.99	77.24	?	//

20091112_RATP_SCD_0046	57	1	un	NULL	det	NULL	B_GN	DET	2	idtext0062	un	##m#s##i	spk1	77.28	77.3	0.01	_
20091112_RATP_SCD_0046	57	2	justificatif	NULL	nc	NULL	I_GN	ROOT	0	idtext0062	justificatif	##m#s##	spk1	77.31	77.92	?	_

20091112_RATP_SCD_0046	58	1	d'accord	NULL	adv	NULL	B_GADV	NOLINK	0	idtext0063	d'accord	#####	spk2	77.43	77.92	?	//

20091112_RATP_SCD_0046	59	1	du	NULL	prep	NULL	B_GP	ROOT	0	idtext0064	du	#####	spk1	77.96	78.01	0.01	_
20091112_RATP_SCD_0046	59	2	domicile	NULL	nc	NULL	I_GP	OBJ	1	idtext0064	domicile	##m#s##	spk1	78.02	78.36	0.01	/
20091112_RATP_SCD_0046	59	3	et	NULL	coo	NULL	B_NULL	COORD	1	idtext0064	et	#####	spk1	78.37	78.39	0.01	_
20091112_RATP_SCD_0046	59	4	ils	NULL	cln	NULL	B_GN	SUJ	5	idtext0064	cln	#3#m#p##	spk1	78.4	78.47	0.01	_
20091112_RATP_SCD_0046	59	5	vont	NULL	v	NULL	B_GVf	DEP_COORD	3	idtext0064	aller	P#3##p##	spk1	78.48	78.57	0.01	_
20091112_RATP_SCD_0046	59	6	ressortir	DISF_R	vinf	NULL	NULL	NOLINK	0	idtext0064	ressortir	W#####	spk1	78.58	79.01	0.01	_
20091112_RATP_SCD_0046	59	7	refabriquer	NULL	vinf	NULL	I_GVf	OBJ	5	idtext0064	refabriquer	W#####	spk1	79.02	79.43	0.01	_
20091112_RATP_SCD_0046	59	8	le	NULL	det	NULL	B_GN	DET	9	idtext0064	le	##m#s##d	spk1	79.44	79.49	0.01	_
20091112_RATP_SCD_0046	59	9	passe	NULL	nc	NULL	I_GN	OBJ	5	idtext0064	passe	###s##	spk1	79.5	79.7	?	//

20091112_RATP_SCD_0046	60	1	ah	DISF_M	pres	NULL	NULL	NOLINK	0	idtext0065	ah	#####	spk2	80.36	80.62	0.01	_
20091112_RATP_SCD_0046	60	2	un	NULL	det	NULL	B_GN	DET	3	idtext0065	un	##m#s##i	spk2	80.63	80.8	0.01	_
20091112_RATP_SCD_0046	60	3	justificatif	NULL	nc	NULL	I_GN	ROOT	0	idtext0065	justificatif	##m#s##	spk2	80.81	81.57	0.01	_
20091112_RATP_SCD_0046	60	4	de	NULL	prep	NULL	B_GP	DEP	3	idtext0065	de	#####	spk2	81.58	81.71	0.01	_
20091112_RATP_SCD_0046	60	5	domicile	NULL	nc	NULL	I_GP	OBJ	4	idtext0065	domicile	##m#s##	spk2	81.72	82.19	?	//

20091112_RATP_SCD_0046	61	1	également	NULL	adv	NULL	B_GADV	NOLINK	0	idtext0066	également	#####	spk2	82.29	82.85	?	//

20091112_RATP_SCD_0046	62	1	si	NULL	csu	NULL	B_NULL	ROOT	0	idtext0067	si	#####	spk1	82.23	82.3	0.01	_
20091112_RATP_SCD_0046	62	2	vous	NULL	cln	NULL	B_GN	SUJ	3	idtext0067	cln	#2##p##	spk1	82.31	82.42	0.01	_
20091112_RATP_SCD_0046	62	3	avez	NULL	v	NULL	B_GVf	OBJ	1	idtext0067	avoir	P#2##p##	spk1	82.43	82.67	0.01	_
20091112_RATP_SCD_0046	62	4	votre	NULL	det	NULL	B_NULL	NOLINK	0	idtext0067	votre	###s##o	spk1	82.68	82.85	?	_

20091112_RATP_SCD_0046	63	1	pièce	NULL	nc	NULL	B_GN	ROOT	0	idtext0068	pièce	##f#s##	spk1	82.89	83.04	0.01	_
20091112_RATP_SCD_0046	63	2	d'	NULL	prep	NULL	B_GP	DEP	1	idtext0068	d'	#####	spk1	83.05	83.07	0.01	_
20091112_RATP_SCD_0046	63	3	identité	NULL	nc	NULL	I_GP	OBJ	2	idtext0068	identité	##f#s##	spk1	83.08	83.6	?	//

20091112_RATP_SCD_0046	64	1	euh	DISF_M	pres	NULL	NULL	NOLINK	0	idtext0069	euh	#####	spk1	83.64	84.26	?	//

20091112_RATP_SCD_0046	65	1	c'	NULL	cln	NULL	B_GN	SUJ_IMP	2	idtext0070	ce	###s##	spk2	83.64	83.66	0.01	_
20091112_RATP_SCD_0046	65	2	est	NULL	v	NULL	B_GVf	ROOT	0	idtext0070	être	P#3##s##	spk2	83.67	83.96	0.01	_
20091112_RATP_SCD_0046	65	3	bon	NULL	adj	NULL	B_GADJ	ATS	2	idtext0070	bon	##m#s##	spk2	83.97	84.26	?	//

20091112_RATP_SCD_0046	66	1	c'	NULL	cln	NULL	B_GN	SUJ_IMP	2	idtext0071	ce	###s##	spk1	84.37	84.41	0.01	_
20091112_RATP_SCD_0046	66	2	est	NULL	v	NULL	B_GVf	ROOT	0	idtext0071	être	P#3##s##	spk1	84.42	84.44	0.01	_
20091112_RATP_SCD_0046	66	3	suffisant	NULL	adj	NULL	B_GADJ	ATS	2	idtext0071	suffisant	##m#s##	spk1	84.45	85.01	?	//

20091112_RATP_SCD_0046	67	1	là	NULL	adv	NULL	B_GADV	NOLINK	0	idtext0072	là	#####	spk1	85.09	85.21	0.01	_
20091112_RATP_SCD_0046	67	2	ils	NULL	cln	NULL	B_GN	SUJ	3	idtext0072	cln	#3#m#p##	spk1	85.22	85.27	0.01	_
20091112_RATP_SCD_0046	67	3	vont	NULL	v	NULL	B_GVf	ROOT	0	idtext0072	aller	P#3##p##	spk1	85.28	85.59	0.01	_
20091112_RATP_SCD_0046	67	4	retrouver	NULL	vinf	NULL	I_GVf	OBJ	3	idtext0072	retrouver	W#####	spk1	85.6	85.9	?	//

20091112_RATP_SCD_0046	68	1	ouais	NULL	adv	NULL	B_GADV	MOD	2	idtext0073	ouais	#####	spk2	85.08	85.28	0.01	_
20091112_RATP_SCD_0046	68	2	d'accord	NULL	adv	NULL	I_GADV	ROOT	0	idtext0073	d'accord	#####	spk2	85.29	85.9	?	_

20091112_RATP_SCD_0046	69	1	retrouver	DISF_R	vinf	NULL	NULL	NOLINK	0	idtext0074	retrouver	W#####	spk1	85.94	86.3	0.01	_
20091112_RATP_SCD_0046	69	2	retrouver	NULL	vinf	NULL	B_GVi	ROOT	0	idtext0074	retrouver	W#####	spk1	86.31	86.72	0.01	_
20091112_RATP_SCD_0046	69	3	le	NULL	det	NULL	B_GN	DET	4	idtext0074	le	##m#s##d	spk1	86.73	86.79	0.01	_
20091112_RATP_SCD_0046	69	4	dossier	NULL	nc	NULL	I_GN	OBJ	2	idtext0074	dossier	##m#s##	spk1	86.8	87.18	0.01	_
20091112_RATP_SCD_0046	69	5	hein	DISF_M	pres	NULL	NULL	NOLINK	0	idtext0074	hein	#####	spk1	87.19	87.32	?	//

20091112_RATP_SCD_0046	70	1	avec	NULL	prep	NULL	B_GP	ROOT	0	idtext0075	avec	#####	spk1	87.36	87.65	0.01	_
20091112_RATP_SCD_0046	70	2	vos	NULL	det	NULL	I_GP	DET	3	idtext0075	votre	###p##o	spk1	87.66	87.71	0.01	_
20091112_RATP_SCD_0046	70	3	coordonnées	NULL	nc	NULL	I_GP	OBJ	1	idtext0075	coordonnée	##f#p##	spk1	87.72	88.35	?	//

20091112_RATP_SCD_0046	71	1	OK	NULL	adv	NULL	B_GADV	NOLINK	0	idtext0076	ok	#####	spk2	87.8	88.35	?	_

20091112_RATP_SCD_0046	72	1	OK	NULL	adv	NULL	B_GADV	NOLINK	0	idtext0077	ok	#####	spk2	88.45	88.75	?	_

20091112_RATP_SCD_0046	73	1	ça	NULL	pro	NULL	B_GN	SUJ_IMP	3	idtext0078	ça	#####	spk2	88.82	88.88	0.01	_
20091112_RATP_SCD_0046	73	2	me	NULL	clo	NULL	B_GN	A_OBJ	3	idtext0078	cla	#1##s##	spk2	88.89	88.98	0.01	_
20091112_RATP_SCD_0046	73	3	rassure	NULL	v	NULL	B_GVf	ROOT	0	idtext0078	rassurer	PS#13##s##	spk2	88.99	89.57	?	//

20091112_RATP_SCD_0046	74	1	d'accord	NULL	adv	NULL	B_GADV	NOLINK	0	idtext0079	d'accord	#####	spk1	88.89	89.57	?	//

20091112_RATP_SCD_0046	75	1	merci	NULL	adv	NULL	B_GADV	NOLINK	0	idtext0080	merci	#####	spk2	90.02	90.47	?	//

20091112_RATP_SCD_0046	76	1	je	NULL	cln	NULL	B_GN	SUJ	4	idtext0081	cln	#1##s##	spk1	90.51	90.58	0.01	_
20091112_RATP_SCD_0046	76	2	vous	NULL	clo	NULL	B_GN	OBJ	4	idtext0081	cln	#2##p##	spk1	90.59	90.68	0.01	_
20091112_RATP_SCD_0046	76	3	en	NULL	clo	NULL	B_GN	DE_OBJ	4	idtext0081	en	#####	spk1	90.69	90.77	0.01	_
20091112_RATP_SCD_0046	76	4	prie	NULL	v	NULL	B_GVf	ROOT	0	idtext0081	prier	PS#13##s##	spk1	90.78	91.08	?	//

20091112_RATP_SCD_0046	77	1	bonne	NULL	adj	NULL	B_GN	MOD	2	idtext0082	bon	##f#s##	spk1	91.14	91.67	0.01	_
20091112_RATP_SCD_0046	77	2	journée	NULL	nc	NULL	I_GN	ROOT	0	idtext0082	journée	##f#s##	spk1	91.68	91.87	0.01	_
20091112_RATP_SCD_0046	77	3	à	NULL	prep	NULL	B_GP	ROOT	0	idtext0082	à	#####	spk1	91.88	91.9	0.01	_
20091112_RATP_SCD_0046	77	4	vous	NULL	pro	NULL	I_GP	OBJ	3	idtext0082	vous	#####	spk1	91.91	92.09	?	_

20091112_RATP_SCD_0046	78	1	oui	NULL	adv	NULL	B_GADV	MOD	2	idtext0083	oui	#####	spk2	91.15	91.29	0.01	_
20091112_RATP_SCD_0046	78	2	au+revoir	NULL	adv	NULL	I_GADV	ROOT	0	idtext0083	au+revoir	#####	spk2	91.3	92.09	?	_

20091112_RATP_SCD_0046	79	1	au+revoir	NULL	adv	NULL	B_GADV	NOLINK	0	idtext0084	au+revoir	#####	spk1	92.14	92.49	?	//

