20091112_RATP_SCD_1212	1	1	bonsoir	NULL	nc	NULL	B_GN	NOLINK	0	idtext0000	bonsoir	##m#s##	spk1	4.75	5.4	0.01	/
20091112_RATP_SCD_1212	1	2	je	NULL	cln	NULL	B_GN	SUJ	4	idtext0000	cln	#1##s##	spk1	5.41	5.6	0.01	_
20091112_RATP_SCD_1212	1	3	vous	NULL	clo	NULL	B_GN	OBJ	4	idtext0000	cln	#2##p##	spk1	5.61	5.66	0.01	_
20091112_RATP_SCD_1212	1	4	écoute	NULL	v	NULL	B_GVf	ROOT	0	idtext0000	écouter	PS#13##s##	spk1	5.67	6.54	?	//

20091112_RATP_SCD_1212	2	1	oui	NULL	adv	NULL	B_GADV	NOLINK	0	idtext0001	oui	#####	spk2	7.22	7.58	0.01	_
20091112_RATP_SCD_1212	2	2	bonsoir	NULL	nc	NULL	B_GN	NOLINK	0	idtext0001	bonsoir	##m#s##	spk2	7.59	8.19	?	//

20091112_RATP_SCD_1212	3	1	euh	DISF_M	pres	NULL	NULL	NOLINK	0	idtext0002	euh	#####	spk2	8.39	8.42	0.01	_
20091112_RATP_SCD_1212	3	2	j'	NULL	cln	NULL	B_GN	SUJ	4	idtext0002	cln	#1##s##	spk2	8.43	8.58	0.01	_
20091112_RATP_SCD_1212	3	3	aurais	NULL	v	NULL	B_GVf	AUX	4	idtext0002	avoir	C#12##s##	spk2	8.59	9.03	0.01	_
20091112_RATP_SCD_1212	3	4	voulu	NULL	vppart	NULL	I_GVf	ROOT	0	idtext0002	vouloir	K##m#s##	spk2	9.04	9.29	0.01	_
20091112_RATP_SCD_1212	3	5	avoir	NULL	vinf	NULL	B_GVi	OBJ	4	idtext0002	avoir	W#####	spk2	9.3	9.65	0.01	_
20091112_RATP_SCD_1212	3	6	en+fait	GREF	adv	NULL	B_GADV	NOLINK	0	idtext0002	en+fait	#####	spk2	9.66	9.96	0.01	_
20091112_RATP_SCD_1212	3	7	une	NULL	det	NULL	B_GN	DET	8	idtext0002	un	##f#s##i	spk2	9.97	10.03	0.01	_
20091112_RATP_SCD_1212	3	8	information	NULL	nc	NULL	I_GN	OBJ	5	idtext0002	information	##f#s##	spk2	10.04	10.65	0.01	_
20091112_RATP_SCD_1212	3	9	concernant	NULL	prep	NULL	B_GP	MOD	8	idtext0002	concernant	#####	spk2	10.66	11.33	0.01	_
20091112_RATP_SCD_1212	3	10	le	NULL	det	NULL	I_GP	DET	11	idtext0002	le	##m#s##d	spk2	11.34	11.48	0.01	_
20091112_RATP_SCD_1212	3	11	trafic	NULL	nc	NULL	I_GP	OBJ	9	idtext0002	trafic	##m#s##	spk2	11.49	12.36	0.01	_
20091112_RATP_SCD_1212	3	12	euh	DISF_M	pres	NULL	NULL	NOLINK	0	idtext0002	euh	#####	spk2	12.37	12.82	0.01	_
20091112_RATP_SCD_1212	3	13	à	NULL	prep	NULL	B_GP	MOD	11	idtext0003	à	#####	spk2	12.83	12.91	0.01	_
20091112_RATP_SCD_1212	3	14	quelle	NULL	det	NULL	I_GP	DET	15	idtext0003	quel	##f#s##	spk2	12.92	13.09	0.01	_
20091112_RATP_SCD_1212	3	15	heure	NULL	nc	NULL	I_GP	OBJ	13	idtext0003	heure	##f#s##	spk2	13.1	13.19	0.01	_
20091112_RATP_SCD_1212	3	16	partirait	NULL	v	NULL	B_GVf	NOLINK	0	idtext0003	partir	C#3##s##	spk2	13.2	13.68	0.01	_
20091112_RATP_SCD_1212	3	17	en+fait	GREF	adv	NULL	B_GADV	NOLINK	0	idtext0003	en+fait	#####	spk2	13.69	14.04	0.01	_
20091112_RATP_SCD_1212	3	18	euh	DISF_M	pres	NULL	NULL	NOLINK	0	idtext0003	euh	#####	spk2	14.05	14.07	0.01	_
20091112_RATP_SCD_1212	3	19	le	NULL	det	NULL	B_GN	DET	20	idtext0003	le	##m#s##d	spk2	14.08	14.32	0.01	_
20091112_RATP_SCD_1212	3	20	RER+B	NULL	nc	B_T	I_GN	OBJ	5	idtext0003	RER+B	#####	spk2	14.33	16.54	0.01	_
20091112_RATP_SCD_1212	3	21	en	NULL	prep	NULL	B_GP	P_OBJ	20	idtext0003	en	#####	spk2	16.55	16.99	0.01	_
20091112_RATP_SCD_1212	3	22	départ	NULL	nc	NULL	I_GP	OBJ	21	idtext0003	départ	##m#s##	spk2	17.0	17.51	0.01	_
20091112_RATP_SCD_1212	3	23	d'	NULL	prep	NULL	B_GP	DEP	22	idtext0003	d'	#####	spk2	17.52	17.57	0.01	_
20091112_RATP_SCD_1212	3	24	Orsay	NULL	nc	B_A	I_GP	OBJ	23	idtext0003	Orsay	##m#s##	spk2	17.58	17.88	0.01	_
20091112_RATP_SCD_1212	3	25	direction	NULL	nc	NULL	B_GN	MOD	24	idtext0003	direction	##f#s##	spk2	17.89	18.34	0.01	_
20091112_RATP_SCD_1212	3	26	Massy	NULL	nc	B_A	I_GN	MOD	25	idtext0003	Massy	##m#s##	spk2	18.35	18.97	?	//

20091112_RATP_SCD_1212	4	1	ah	DISF_M	pres	NULL	NULL	NOLINK	0	idtext0004	ah	#####	spk1	20.99	21.24	0.01	_
20091112_RATP_SCD_1212	4	2	aujourd'hui	NULL	adv	NULL	B_GADV	NOLINK	0	idtext0005	aujourd'hui	#####	spk1	21.25	22.03	?	_

20091112_RATP_SCD_1212	5	1	ouais	NULL	adv	NULL	B_GADV	NOLINK	0	idtext0006	ouais	#####	spk2	22.61	22.97	?	//

20091112_RATP_SCD_1212	6	1	j'	NULL	cln	NULL	B_GN	SUJ	2	idtext0007	cln	#1##s##	spk1	23.15	23.17	0.01	_
20091112_RATP_SCD_1212	6	2	ai	NULL	v	NULL	B_GVfn	ROOT	0	idtext0007	avoir	P#1##s##	spk1	23.18	23.25	0.01	_
20091112_RATP_SCD_1212	6	3	pas	NULL	advneg	NULL	I_GVfn	MOD	2	idtext0007	pas	#####	spk1	23.26	23.39	0.01	_
20091112_RATP_SCD_1212	6	4	d'	NULL	det	NULL	B_GN	DET	5	idtext0007	de	###p##i	spk1	23.4	23.48	0.01	_
20091112_RATP_SCD_1212	6	5	horaire	NULL	nc	NULL	I_GN	OBJ	2	idtext0007	horaire	##m#s##	spk1	23.49	23.89	0.01	_
20091112_RATP_SCD_1212	6	6	madame	NULL	nc	NULL	I_GN	NOLINK	0	idtext0007	Monsieur	##f#s##	spk1	23.9	24.17	0.01	_
20091112_RATP_SCD_1212	6	7	aujourd'hui	NULL	adv	NULL	B_GADV	MOD	10	idtext0007	aujourd'hui	#####	spk1	24.18	24.77	0.01	/
20091112_RATP_SCD_1212	6	8	comme	NULL	adv	NULL	I_GADV	ROOT	0	idtext0007	comme	#####	spk1	24.78	24.95	0.01	_
20091112_RATP_SCD_1212	6	9	c'	NULL	cln	NULL	B_GN	SUJ_IMP	10	idtext0007	ce	###s##	spk1	24.96	25.07	0.01	_
20091112_RATP_SCD_1212	6	10	est	NULL	v	NULL	B_GVf	OBJ	8	idtext0007	être	P#3##s##	spk1	25.08	25.14	0.01	_
20091112_RATP_SCD_1212	6	11	la	NULL	det	NULL	B_GN	DET	12	idtext0007	le	##m#s##d	spk1	25.15	25.26	0.01	_
20091112_RATP_SCD_1212	6	12	grève	NULL	nc	NULL	I_GN	ATS	10	idtext0007	grève	##f#s##	spk1	25.27	25.56	0.01	/
20091112_RATP_SCD_1212	6	13	tout	NULL	pro	NULL	I_GN	SUJ	15	idtext0007	tout	#####	spk1	25.57	25.83	0.01	_
20091112_RATP_SCD_1212	6	14	est	NULL	v	NULL	B_GVf	AUX	15	idtext0007	être	P#3##s##	spk1	25.84	25.91	0.01	_
20091112_RATP_SCD_1212	6	15	désorganisé	NULL	vppart	NULL	I_GVf	ROOT	0	idtext0007	désorganiser	K##m#s##	spk1	25.92	26.77	0.01	_
20091112_RATP_SCD_1212	6	16	je	NULL	cln	NULL	B_GN	SUJ	17	idtext0007	cln	#1##s##	spk1	26.78	26.88	0.01	_
20091112_RATP_SCD_1212	6	17	peux	NULL	v	NULL	B_GVfn	ROOT	0	idtext0007	pouvoir	P#12##s##	spk1	26.89	27.01	0.01	_
20091112_RATP_SCD_1212	6	18	pas	NULL	advneg	NULL	I_GVfn	MOD	17	idtext0007	pas	#####	spk1	27.02	27.16	0.01	_
20091112_RATP_SCD_1212	6	19	vous	NULL	clo	NULL	B_GN	A_OBJ	20	idtext0007	cln	#2##p##	spk1	27.17	27.26	0.01	_
20091112_RATP_SCD_1212	6	20	donner	NULL	vinf	NULL	B_GVi	OBJ	17	idtext0007	donner	W#####	spk1	27.27	27.58	0.01	_
20091112_RATP_SCD_1212	6	21	d'	NULL	prep	NULL	B_GP	OBJ	20	idtext0007	d'	#####	spk1	27.59	27.66	0.01	_
20091112_RATP_SCD_1212	6	22	horaire	NULL	nc	NULL	I_GP	OBJ	21	idtext0007	horaire	##m#s##	spk1	27.67	28.34	?	//

20091112_RATP_SCD_1212	7	1	parce+que	NULL	csu	NULL	B_NULL	ROOT	0	idtext0008	parce+que	#####	spk2	28.85	29.25	0.01	_
20091112_RATP_SCD_1212	7	2	en+fait	GREF	adv	NULL	B_GADV	NOLINK	0	idtext0008	en+fait	#####	spk2	29.26	29.63	0.01	_
20091112_RATP_SCD_1212	7	3	sur	NULL	prep	NULL	B_GP	MOD	8	idtext0008	sur	#####	spk2	29.64	29.78	0.01	_
20091112_RATP_SCD_1212	7	4	votre	NULL	det	NULL	I_GP	DET	5	idtext0008	votre	###s##o	spk2	29.79	29.98	0.01	_
20091112_RATP_SCD_1212	7	5	site	NULL	nc	NULL	I_GP	OBJ	3	idtext0008	site	##m#s##	spk2	29.99	30.14	0.01	_
20091112_RATP_SCD_1212	7	6	c'	NULL	cln	NULL	B_GN	SUJ_IMP	8	idtext0008	ce	###s##	spk2	30.15	30.18	0.01	_
20091112_RATP_SCD_1212	7	7	est	NULL	v	NULL	B_GVf	AUX	8	idtext0008	être	P#3##s##	spk2	30.19	30.27	0.01	_
20091112_RATP_SCD_1212	7	8	marqué	NULL	vppart	NULL	I_GVf	OBJ	1	idtext0008	marquer	K##m#s##	spk2	30.28	30.63	0.01	_
20091112_RATP_SCD_1212	7	9	qu'	NULL	csu	NULL	B_NULL	OBJ	8	idtext0008	qu'	#####	spk2	30.64	30.66	0.01	_
20091112_RATP_SCD_1212	7	10	il	NULL	cln	NULL	B_GN	SUJ_IMP	12	idtext0008	cln	#3#m#s##	spk2	30.67	30.72	0.01	_
20091112_RATP_SCD_1212	7	11	y	NULL	clo	NULL	B_GN	AFF	12	idtext0008	y	#####	spk2	30.73	30.79	0.01	_
20091112_RATP_SCD_1212	7	12	aura	NULL	v	NULL	B_GVf	OBJ	9	idtext0008	avoir	F#3##s##	spk2	30.8	30.89	0.01	_
20091112_RATP_SCD_1212	7	13	un	NULL	det	NULL	B_GN	DET	14	idtext0008	un	##m#s##i	spk2	30.9	31.04	0.01	_
20091112_RATP_SCD_1212	7	14	train	NULL	nc	NULL	I_GN	OBJ	12	idtext0008	train	##m#s##	spk2	31.05	31.25	0.01	_
20091112_RATP_SCD_1212	7	15	sur	NULL	prep	NULL	B_NULL	MOD	14	idtext0008	sur	#####	spk2	31.26	31.5	0.01	_
20091112_RATP_SCD_1212	7	16	quatre	NULL	adj	NULL	B_GADJ	OBJ	15	idtext0008	quatre	#####	spk2	31.51	32.83	0.01	//
20091112_RATP_SCD_1212	7	17	mais	NULL	coo	NULL	B_NULL	NOLINK	0	idtext0008	mais	#####	spk2	32.84	32.97	0.01	_
20091112_RATP_SCD_1212	7	18	euh	DISF_M	pres	NULL	NULL	NOLINK	0	idtext0008	euh	#####	spk2	32.98	33.07	0.75	//
20091112_RATP_SCD_1212	7	19	euh	DISF_M	pres	NULL	NULL	NOLINK	0	idtext0009	euh	#####	spk2	33.82	33.85	0.01	_
20091112_RATP_SCD_1212	7	20	mais	NULL	coo	NULL	B_NULL	ROOT	0	idtext0009	mais	#####	spk2	33.86	33.97	0.01	_
20091112_RATP_SCD_1212	7	21	je	NULL	cln	NULL	B_GN	OBJ	23	idtext0009	cln	#1##s##	spk2	33.98	34.68	0.01	_
20091112_RATP_SCD_1212	7	22	les	NULL	clo	NULL	B_GN	OBJ	21	idtext0009	cla	#3##p##	spk2	34.69	34.99	0.01	_
20091112_RATP_SCD_1212	7	23	enfin	NULL	adv	NULL	B_GADV	DEP_COORD	20	idtext0009	enfin	#####	spk2	35.0	35.14	?	_

20091112_RATP_SCD_1212	8	1	je	NULL	cln	NULL	B_GN	NOLINK	0	idtext0010	cln	#1##s##	spk2	35.59	36.12	?	_

20091112_RATP_SCD_1212	9	1	c'	NULL	cln	NULL	B_GN	SUJ_IMP	2	idtext0011	ce	###s##	spk1	35.54	35.56	0.01	_
20091112_RATP_SCD_1212	9	2	est	NULL	v	NULL	B_GVf	ROOT	0	idtext0011	être	P#3##s##	spk1	35.57	35.74	0.01	_
20091112_RATP_SCD_1212	9	3	des	NULL	det	NULL	B_NULL	ATS	2	idtext0011	des	###p##i	spk1	35.75	35.84	0.01	_
20091112_RATP_SCD_1212	9	4	c'	NULL	cln	NULL	B_GN	SUJ_IMP	5	idtext0011	ce	###s##	spk1	35.85	35.87	0.01	_
20091112_RATP_SCD_1212	9	5	est	NULL	v	NULL	B_GVf	ROOT	0	idtext0011	être	P#3##s##	spk1	35.88	35.94	0.01	_
20091112_RATP_SCD_1212	9	6	des	NULL	det	NULL	B_NULL	ATS	5	idtext0011	des	###p##i	spk1	35.95	36.12	?	_

20091112_RATP_SCD_1212	10	1	moyennes	NULL	adj	NULL	B_GADJ	NOLINK	0	idtext0012	moyen	##f#p##	spk1	36.16	36.76	0.01	//
20091112_RATP_SCD_1212	10	2	hein	DISF_M	pres	NULL	NULL	NOLINK	0	idtext0012	hein	#####	spk1	36.77	36.95	0.01	_
20091112_RATP_SCD_1212	10	3	c'	NULL	cln	NULL	B_GN	SUJ_IMP	4	idtext0012	ce	###s##	spk1	36.96	37.03	0.01	_
20091112_RATP_SCD_1212	10	4	est	NULL	v	NULL	B_GVf	ROOT	0	idtext0012	être	P#3##s##	spk1	37.04	37.2	0.01	_
20091112_RATP_SCD_1212	10	5	des	NULL	det	NULL	B_NULL	ATS	4	idtext0012	des	###p##i	spk1	37.21	37.78	?	_

20091112_RATP_SCD_1212	11	1	ouais	NULL	adv	NULL	B_GADV	NOLINK	0	idtext0013	ouais	#####	spk2	38.22	38.64	?	//

20091112_RATP_SCD_1212	12	1	mais	NULL	coo	NULL	B_NULL	ROOT	0	idtext0014	mais	#####	spk1	38.69	38.87	0.01	_
20091112_RATP_SCD_1212	12	2	on	NULL	cln	NULL	B_GN	SUJ	4	idtext0014	cln	#3##s##	spk1	38.88	39.03	0.01	_
20091112_RATP_SCD_1212	12	3	n'	NULL	clneg	NULL	B_GVfn	MOD	4	idtext0014	n'	#####	spk1	39.04	39.08	0.01	_
20091112_RATP_SCD_1212	12	4	a	NULL	v	NULL	I_GVfn	DEP_COORD	1	idtext0014	avoir	P#3##s##	spk1	39.09	39.18	0.01	_
20091112_RATP_SCD_1212	12	5	pas	NULL	advneg	NULL	I_GVfn	MOD	4	idtext0014	pas	#####	spk1	39.19	39.31	0.01	_
20091112_RATP_SCD_1212	12	6	d'	NULL	prep	NULL	B_GP	OBJ	4	idtext0014	d'	#####	spk1	39.32	39.38	0.01	_
20091112_RATP_SCD_1212	12	7	horaire	NULL	nc	NULL	I_GP	OBJ	6	idtext0014	horaire	##m#s##	spk1	39.39	39.81	0.01	_
20091112_RATP_SCD_1212	12	8	madame	NULL	nc	NULL	I_GP	NOLINK	0	idtext0014	Monsieur	##f#s##	spk1	39.82	40.15	0.01	_
20091112_RATP_SCD_1212	12	9	non	NULL	adv	NULL	B_GADV	NOLINK	0	idtext0014	non	#####	spk1	40.16	40.53	?	_

20091112_RATP_SCD_1212	13	1	d'accord	NULL	adv	NULL	B_GADV	NOLINK	0	idtext0015	d'accord	#####	spk2	41.21	41.87	?	//

20091112_RATP_SCD_1212	14	1	hm	DISF_M	pres	NULL	NULL	NOLINK	0	idtext0016	hm	#####	spk1	42.07	42.12	?	//

20091112_RATP_SCD_1212	15	1	donc	NULL	coo	NULL	B_NULL	ROOT	0	idtext0017	donc	#####	spk2	42.22	42.59	0.01	_
20091112_RATP_SCD_1212	15	2	euh	DISF_M	pres	NULL	NULL	NOLINK	0	idtext0017	euh	#####	spk2	42.6	42.75	0.01	_
20091112_RATP_SCD_1212	15	3	en	NULL	prep	NULL	B_NULL	ROOT	0	idtext0017	en	#####	spk2	42.76	42.84	0.01	_
20091112_RATP_SCD_1212	15	4	en+général	NULL	adv	NULL	B_GADV	MOD	5	idtext0017	en+général	#####	spk2	42.85	43.6	0.01	_
20091112_RATP_SCD_1212	15	5	en+fait	GREF	adv	NULL	I_GADV	MOD	7	idtext0017	en+fait	#####	spk2	43.61	43.9	0.01	_
20091112_RATP_SCD_1212	15	6	ils	NULL	cln	NULL	B_GN	SUJ	7	idtext0017	cln	#3#m#p##	spk2	43.91	44.01	0.01	_
20091112_RATP_SCD_1212	15	7	passent	NULL	v	NULL	B_GVf	OBJ	3	idtext0017	passer	PS#3##p##	spk2	44.02	44.14	0.01	_
20091112_RATP_SCD_1212	15	8	enfin	NULL	adv	NULL	B_GADV	MOD	9	idtext0017	enfin	#####	spk2	44.15	44.31	0.01	_
20091112_RATP_SCD_1212	15	9	normalement	NULL	adv	NULL	I_GADV	MOD	12	idtext0017	normalement	#####	spk2	44.32	44.57	0.01	_
20091112_RATP_SCD_1212	15	10	il	NULL	cln	NULL	B_GN	SUJ_IMP	12	idtext0017	cln	#3#m#s##	spk2	44.58	44.66	0.01	_
20091112_RATP_SCD_1212	15	11	y	NULL	clo	NULL	B_GN	AFF	12	idtext0017	y	#####	spk2	44.67	44.69	0.01	_
20091112_RATP_SCD_1212	15	12	a	NULL	v	NULL	B_GVf	DEP_COORD	1	idtext0017	avoir	P#3##s##	spk2	44.7	44.75	0.01	_
20091112_RATP_SCD_1212	15	13	pas	NULL	advneg	NULL	B_NULL	NOLINK	0	idtext0017	pas	#####	spk2	44.76	44.94	0.01	_
20091112_RATP_SCD_1212	15	14	il	NULL	cln	NULL	B_GN	SUJ_IMP	16	idtext0017	cln	#3#m#s##	spk2	44.95	45.0	0.01	_
20091112_RATP_SCD_1212	15	15	y	NULL	clo	NULL	B_GN	AFF	16	idtext0017	y	#####	spk2	45.01	45.04	0.01	_
20091112_RATP_SCD_1212	15	16	a	NULL	v	NULL	B_GVfn	OBJ	12	idtext0017	avoir	P#3##s##	spk2	45.05	45.09	0.01	_
20091112_RATP_SCD_1212	15	17	pas	NULL	advneg	NULL	I_GVfn	MOD	16	idtext0017	pas	#####	spk2	45.1	45.22	0.01	_
20091112_RATP_SCD_1212	15	18	de	NULL	det	NULL	B_GN	DET	19	idtext0017	de	###p##i	spk2	45.23	45.26	0.01	_
20091112_RATP_SCD_1212	15	19	moyenne	NULL	nc	NULL	I_GN	OBJ	16	idtext0017	moyenne	##f#s##	spk2	45.27	45.62	0.01	_
20091112_RATP_SCD_1212	15	20	en+fait	GREF	adv	NULL	B_GADV	NOLINK	0	idtext0017	en+fait	#####	spk2	45.63	45.86	0.01	_
20091112_RATP_SCD_1212	15	21	genre	NULL	nc	NULL	B_GN	SUJ	24	idtext0017	genre	##m#s##	spk2	45.87	46.22	0.01	_
20091112_RATP_SCD_1212	15	22	euh	DISF_M	pres	NULL	NULL	NOLINK	0	idtext0017	euh	#####	spk2	46.23	46.27	0.01	_
20091112_RATP_SCD_1212	15	23	ils	NULL	cln	NULL	B_GN	SUJ	24	idtext0017	cln	#3#m#p##	spk2	46.28	46.45	0.01	_
20091112_RATP_SCD_1212	15	24	passent	NULL	v	NULL	B_GVf	ROOT	0	idtext0017	passer	PS#3##p##	spk2	46.46	46.66	0.01	_
20091112_RATP_SCD_1212	15	25	toutes+les	NULL	det	NULL	B_GN	DET	26	idtext0017	toutes+les	#####	spk2	46.67	47.07	0.01	_
20091112_RATP_SCD_1212	15	26	heures	NULL	nc	NULL	I_GN	OBJ	24	idtext0017	heure	##f#p##	spk2	47.08	47.33	0.01	//
20091112_RATP_SCD_1212	15	27	ou	NULL	coo	NULL	B_NULL	COORD	26	idtext0017	ou	#####	spk2	47.34	47.54	0.01	_
20091112_RATP_SCD_1212	15	28	non	NULL	adv	NULL	B_GADV	NOLINK	0	idtext0017	non	#####	spk2	47.55	47.73	0.01	_
20091112_RATP_SCD_1212	15	29	il	NULL	cln	NULL	B_GN	SUJ_IMP	31	idtext0017	cln	#3#m#s##	spk2	47.74	47.79	0.01	_
20091112_RATP_SCD_1212	15	30	y	NULL	clo	NULL	B_GN	AFF	31	idtext0017	y	#####	spk2	47.8	47.82	0.01	_
20091112_RATP_SCD_1212	15	31	a	NULL	v	NULL	B_GVf	DEP_COORD	27	idtext0017	avoir	P#3##s##	spk2	47.83	47.85	0.01	_
20091112_RATP_SCD_1212	15	32	pas	NULL	advneg	NULL	B_NULL	MOD	31	idtext0017	pas	#####	spk2	47.86	48.02	0.01	_
20091112_RATP_SCD_1212	15	33	de	NULL	prep	NULL	B_NULL	NOLINK	0	idtext0017	de	#####	spk2	48.03	48.37	?	_

20091112_RATP_SCD_1212	16	1	non	NULL	adv	NULL	B_GADJ	MOD	3	idtext0018	non	#####	spk1	48.95	49.63	0.01	_
20091112_RATP_SCD_1212	16	2	oh	DISF_M	pres	NULL	NULL	NOLINK	0	idtext0018	oh	#####	spk1	49.64	49.88	0.01	_
20091112_RATP_SCD_1212	16	3	trois	NULL	adj	NULL	I_GADJ	ROOT	0	idtext0018	trois	#####	spk1	49.89	50.29	0.01	_
20091112_RATP_SCD_1212	16	4	quand	NULL	csu	NULL	B_NULL	ROOT	0	idtext0018	quand	#####	spk1	50.3	50.47	0.01	_
20091112_RATP_SCD_1212	16	5	il	NULL	cln	NULL	B_GN	SUJ_IMP	7	idtext0018	cln	#3#m#s##	spk1	50.48	50.58	0.01	_
20091112_RATP_SCD_1212	16	6	y	NULL	clo	NULL	B_GN	AFF	7	idtext0018	y	#####	spk1	50.59	50.63	0.01	_
20091112_RATP_SCD_1212	16	7	a	NULL	v	NULL	B_GVf	OBJ	4	idtext0018	avoir	P#3##s##	spk1	50.64	50.69	0.01	_
20091112_RATP_SCD_1212	16	8	trois	NULL	adj	NULL	I_GP	MOD	9	idtext0018	trois	#####	spk1	50.7	51.0	0.01	_
20091112_RATP_SCD_1212	16	9	trains	NULL	nc	NULL	I_GP	OBJ	7	idtext0018	train	##m#p##	spk1	51.01	51.3	0.01	_
20091112_RATP_SCD_1212	16	10	sur	NULL	prep	NULL	B_NULL	DEP	9	idtext0018	sur	#####	spk1	51.31	51.68	0.01	_
20091112_RATP_SCD_1212	16	11	quatre	NULL	adj	NULL	B_GADJ	OBJ	10	idtext0018	quatre	#####	spk1	51.69	52.39	0.30	/
20091112_RATP_SCD_1212	16	12	euh	DISF_M	pres	NULL	NULL	NOLINK	0	idtext0019	euh	#####	spk1	52.69	52.71	0.01	_
20091112_RATP_SCD_1212	16	13	c'	NULL	cln	NULL	B_GN	SUJ_IMP	14	idtext0019	ce	###s##	spk1	52.72	52.74	0.01	_
20091112_RATP_SCD_1212	16	14	est	NULL	v	NULL	B_GVf	ROOT	0	idtext0019	être	P#3##s##	spk1	52.75	53.88	0.01	_
20091112_RATP_SCD_1212	16	15	plus+qu'	NULL	csu	NULL	B_NULL	ATS	14	idtext0019	plus+qu'	#####	spk1	53.89	54.27	0.01	_
20091112_RATP_SCD_1212	16	16	un	NULL	nc	NULL	B_GN	OBJ	15	idtext0019	un	##m#s##	spk1	54.28	54.37	0.01	_
20091112_RATP_SCD_1212	16	17	par	NULL	prep	NULL	B_GP	P_OBJ	16	idtext0019	par	#####	spk1	54.38	54.67	0.01	_
20091112_RATP_SCD_1212	16	18	heure	NULL	nc	NULL	I_GP	OBJ	17	idtext0019	heure	##f#s##	spk1	54.68	54.86	0.01	_
20091112_RATP_SCD_1212	16	19	quand+même	NULL	adv	NULL	B_GADV	NOLINK	0	idtext0019	quand+même	#####	spk1	54.87	55.41	0.01	_
20091112_RATP_SCD_1212	16	20	hein	DISF_M	pres	NULL	NULL	NOLINK	0	idtext0019	hein	#####	spk1	55.42	55.8	?	//

20091112_RATP_SCD_1212	17	1	parce+que	NULL	csu	NULL	B_NULL	ROOT	0	idtext0020	parce+que	#####	spk2	56.49	58.2	0.01	_
20091112_RATP_SCD_1212	17	2	là	NULL	adv	NULL	B_GADV	NOLINK	0	idtext0020	là	#####	spk2	58.21	58.45	0.01	_
20091112_RATP_SCD_1212	17	3	il	NULL	cln	NULL	B_GN	SUJ_IMP	4	idtext0020	cln	#3#m#s##	spk2	58.46	58.53	0.01	_
20091112_RATP_SCD_1212	17	4	devait	NULL	v	NULL	B_GVf	OBJ	1	idtext0020	devoir	I#3##s##	spk2	58.54	58.69	0.01	_
20091112_RATP_SCD_1212	17	5	y	NULL	clo	NULL	B_GN	AFF	7	idtext0020	y	#####	spk2	58.7	58.72	0.01	_
20091112_RATP_SCD_1212	17	6	en	NULL	clo	NULL	B_GN	OBJ	7	idtext0020	en	#####	spk2	58.73	58.75	0.01	_
20091112_RATP_SCD_1212	17	7	avoir	NULL	vinf	NULL	B_GVi	OBJ	4	idtext0020	avoir	W#####	spk2	58.76	59.0	0.01	_
20091112_RATP_SCD_1212	17	8	un	NULL	pro	NULL	B_GN	OBJ	7	idtext0020	un	#####	spk2	59.01	59.14	0.01	_
20091112_RATP_SCD_1212	17	9	à	DISF_R	prep	NULL	NULL	NOLINK	0	idtext0020	à	#####	spk2	59.15	59.43	0.01	_
20091112_RATP_SCD_1212	17	10	d()	DISF_T	tronc	NULL	NULL	NOLINK	0	idtext0020	d()	#####	spk2	59.44	59.63	0.01	_
20091112_RATP_SCD_1212	17	11	à	DISF_R	prep	NULL	NULL	NOLINK	0	idtext0020	à	#####	spk2	59.64	59.9	0.01	_
20091112_RATP_SCD_1212	17	12	dix	DISF_R	adj	NULL	NULL	NOLINK	0	idtext0020	dix	#####	spk2	59.91	60.38	0.01	_
20091112_RATP_SCD_1212	17	13	à	NULL	prep	NULL	B_GP	MOD	7	idtext0020	à	#####	spk2	60.39	60.48	0.01	_
20091112_RATP_SCD_1212	17	14	dix-huit	NULL	det	B_H	I_GP	DET	15	idtext0020	dix-huit	#####	spk2	60.49	60.83	0.01	_
20091112_RATP_SCD_1212	17	15	heures	NULL	nc	I_H	I_GP	OBJ	13	idtext0020	heure	##f#p##	spk2	60.84	60.96	0.01	_
20091112_RATP_SCD_1212	17	16	dix	NULL	adj	I_H	I_GP	MOD	15	idtext0020	dix	#####	spk2	60.97	61.38	?	//

20091112_RATP_SCD_1212	18	1	oui	NULL	adv	NULL	B_GADV	NOLINK	0	idtext0021	oui	#####	spk1	61.55	61.97	?	//

20091112_RATP_SCD_1212	19	1	et	NULL	coo	NULL	B_NULL	ROOT	0	idtext0022	et	#####	spk2	62.14	62.16	0.01	_
20091112_RATP_SCD_1212	19	2	en+fait	GREF	adv	NULL	B_GADV	NOLINK	0	idtext0022	en+fait	#####	spk2	62.17	62.44	0.01	_
20091112_RATP_SCD_1212	19	3	après	NULL	adv	NULL	I_GADV	MOD	7	idtext0022	après	#####	spk2	62.45	62.76	0.01	_
20091112_RATP_SCD_1212	19	4	il	NULL	cln	NULL	B_GN	SUJ	7	idtext0022	cln	#3#m#s##	spk2	62.77	62.82	0.01	_
20091112_RATP_SCD_1212	19	5	a	NULL	v	NULL	B_GVf	AUX	6	idtext0022	avoir	P#3##s##	spk2	62.83	62.85	0.01	_
20091112_RATP_SCD_1212	19	6	été	NULL	vppart	NULL	I_GVf	AUX	7	idtext0022	être	K#####	spk2	62.86	63.0	0.01	_
20091112_RATP_SCD_1212	19	7	reporté	NULL	vppart	NULL	I_GVf	DEP_COORD	1	idtext0022	reporter	K##m#s##	spk2	63.01	63.38	0.01	_
20091112_RATP_SCD_1212	19	8	à	NULL	prep	NULL	B_GP	P_OBJ_LOC	7	idtext0022	à	#####	spk2	63.39	63.48	0.01	_
20091112_RATP_SCD_1212	19	9	quarante-cinq	NULL	nc	NULL	I_GP	OBJ	8	idtext0022	quarante-cinq	#####	spk2	63.49	64.18	0.01	_
20091112_RATP_SCD_1212	19	10	et	NULL	coo	NULL	B_NULL	COORD	7	idtext0022	et	#####	spk2	64.19	64.22	0.01	_
20091112_RATP_SCD_1212	19	11	là	NULL	adv	NULL	B_GADV	NOLINK	0	idtext0022	là	#####	spk2	64.23	64.34	0.01	_
20091112_RATP_SCD_1212	19	12	il	NULL	cln	NULL	B_GN	SUJ	14	idtext0022	cln	#3#m#s##	spk2	64.35	64.5	0.01	_
20091112_RATP_SCD_1212	19	13	est	NULL	v	NULL	B_GVf	AUX	14	idtext0022	être	P#3##s##	spk2	64.51	64.54	0.01	_
20091112_RATP_SCD_1212	19	14	reporté	NULL	vppart	NULL	I_GVf	DEP_COORD	10	idtext0022	reporter	K##m#s##	spk2	64.55	65.05	0.01	_
20091112_RATP_SCD_1212	19	15	encore	NULL	adv	NULL	B_GADV	MOD	14	idtext0022	encore	#####	spk2	65.06	65.34	0.01	_
20091112_RATP_SCD_1212	19	16	à	NULL	prep	NULL	B_GP	MOD	14	idtext0022	à	#####	spk2	65.35	65.42	0.01	_
20091112_RATP_SCD_1212	19	17	dix-neuf	NULL	det	B_H	I_GP	DET	18	idtext0022	dix-neuf	#####	spk2	65.43	65.73	0.01	_
20091112_RATP_SCD_1212	19	18	heures	NULL	nc	I_H	I_GP	OBJ	16	idtext0022	heure	##f#p##	spk2	65.74	65.83	0.01	_
20091112_RATP_SCD_1212	19	19	dix	NULL	adj	I_H	I_GP	MOD	18	idtext0022	dix	#####	spk2	65.84	66.41	?	//

20091112_RATP_SCD_1212	20	1	hm	DISF_M	pres	NULL	NULL	NOLINK	0	idtext0023	hm	#####	spk1	66.68	66.75	?	//

20091112_RATP_SCD_1212	21	1	donc	NULL	coo	NULL	B_NULL	NOLINK	0	idtext0024	donc	#####	spk2	66.81	67.51	0.01	_
20091112_RATP_SCD_1212	21	2	euh	DISF_M	pres	NULL	NULL	NOLINK	0	idtext0024	euh	#####	spk2	67.52	67.74	?	//

20091112_RATP_SCD_1212	22	1	oui	NULL	adv	NULL	B_GADV	NOLINK	0	idtext0025	oui	#####	spk1	67.79	68.06	?	//

20091112_RATP_SCD_1212	23	1	bon	DISF_M	pres	NULL	NULL	NOLINK	0	idtext0026	bon	#####	spk2	67.8	68.06	?	_

20091112_RATP_SCD_1212	24	1	ben	DISF_M	pres	NULL	NULL	NOLINK	0	idtext0027	ben	#####	spk2	68.17	68.35	0.01	_
20091112_RATP_SCD_1212	24	2	je	NULL	cln	NULL	B_GN	SUJ	3	idtext0027	cln	#1##s##	spk2	68.36	68.66	0.01	_
20091112_RATP_SCD_1212	24	3	savais	NULL	v	NULL	B_GVf	ROOT	0	idtext0027	savoir	I#12##s##	spk2	68.67	68.91	?	//

20091112_RATP_SCD_1212	25	1	pas	NULL	advneg	NULL	B_NULL	NOLINK	0	idtext0028	pas	#####	spk2	69.11	69.23	0.01	_
20091112_RATP_SCD_1212	25	2	en+fait	GREF	adv	NULL	B_GADV	NOLINK	0	idtext0028	en+fait	#####	spk2	69.24	69.66	0.01	_
20091112_RATP_SCD_1212	25	3	quel	NULL	det	NULL	B_NULL	ATS	4	idtext0028	quel	##m#s##	spk2	69.67	69.9	0.01	_
20091112_RATP_SCD_1212	25	4	est	NULL	v	NULL	B_GVf	ROOT	0	idtext0028	être	P#3##s##	spk2	69.91	70.33	?	//

20091112_RATP_SCD_1212	26	1	mais	NULL	coo	NULL	B_NULL	ROOT	0	idtext0029	mais	#####	spk1	69.27	69.53	0.01	_
20091112_RATP_SCD_1212	26	2	le	NULL	det	NULL	B_NULL	DEP_COORD	1	idtext0029	le	##m#s##d	spk1	69.54	69.71	0.01	_
20091112_RATP_SCD_1212	26	3	oui	NULL	adv	NULL	B_GADV	NOLINK	0	idtext0029	oui	#####	spk1	69.72	70.33	?	//

20091112_RATP_SCD_1212	27	1	non	NULL	adv	NULL	B_GADV	NOLINK	0	idtext0030	non	#####	spk1	70.38	70.7	0.01	_
20091112_RATP_SCD_1212	27	2	il	DISF_R	cln	NULL	NULL	NOLINK	0	idtext0030	cln	#3#m#s##	spk1	70.71	70.81	0.01	_
20091112_RATP_SCD_1212	27	3	on	NULL	cln	NULL	B_GN	SUJ_IMP	4	idtext0030	cln	#3##s##	spk1	70.82	70.89	0.01	_
20091112_RATP_SCD_1212	27	4	peut	NULL	v	NULL	B_GVfn	ROOT	0	idtext0030	pouvoir	P#3##s##	spk1	70.9	71.01	0.01	_
20091112_RATP_SCD_1212	27	5	pas	NULL	advneg	NULL	I_GVfn	MOD	4	idtext0030	pas	#####	spk1	71.02	71.16	0.01	_
20091112_RATP_SCD_1212	27	6	donner	NULL	vinf	NULL	B_GVi	OBJ	4	idtext0030	donner	W#####	spk1	71.17	71.44	0.01	_
20091112_RATP_SCD_1212	27	7	d'	NULL	prep	NULL	B_GP	OBJ	6	idtext0030	d'	#####	spk1	71.45	71.53	0.01	_
20091112_RATP_SCD_1212	27	8	horaire	NULL	nc	NULL	I_GP	OBJ	7	idtext0030	horaire	##m#s##	spk1	71.54	71.79	0.01	_
20091112_RATP_SCD_1212	27	9	madame	NULL	nc	NULL	I_GP	NOLINK	0	idtext0030	Monsieur	##f#s##	spk1	71.8	72.01	0.01	_
20091112_RATP_SCD_1212	27	10	c'	NULL	cln	NULL	B_GN	SUJ_IMP	11	idtext0030	ce	###s##	spk1	72.02	72.17	0.01	_
20091112_RATP_SCD_1212	27	11	est	NULL	v	NULL	B_GVf	ROOT	0	idtext0030	être	P#3##s##	spk1	72.18	72.5	0.01	_
20091112_RATP_SCD_1212	27	12	euh	DISF_M	pres	NULL	NULL	NOLINK	0	idtext0030	euh	#####	spk1	72.51	72.66	?	//

20091112_RATP_SCD_1212	28	1	OK	NULL	adv	NULL	B_GADV	NOLINK	0	idtext0031	ok	#####	spk2	72.7	73.13	?	_

20091112_RATP_SCD_1212	29	1	au	NULL	prep	NULL	B_GP	ROOT	0	idtext0032	au	#####	spk1	72.7	72.73	0.01	_
20091112_RATP_SCD_1212	29	2	coup	NULL	nc	NULL	I_GP	OBJ	1	idtext0032	coup	##m#s##	spk1	72.74	72.94	0.01	_
20091112_RATP_SCD_1212	29	3	par	NULL	prep	NULL	B_NULL	NOLINK	0	idtext0032	par	#####	spk1	72.95	73.13	?	_

20091112_RATP_SCD_1212	30	1	coup	NULL	nc	NULL	B_GN	NOLINK	0	idtext0033	coup	##m#s##	spk1	73.25	73.62	0.01	_
20091112_RATP_SCD_1212	30	2	oui	DISF_R	adv	NULL	NULL	NOLINK	0	idtext0033	oui	#####	spk1	73.63	74.07	0.01	_
20091112_RATP_SCD_1212	30	3	oui	DISF_R	adv	NULL	NULL	NOLINK	0	idtext0033	oui	#####	spk1	74.08	74.22	0.01	_
20091112_RATP_SCD_1212	30	4	oui	NULL	adv	NULL	B_GADV	NOLINK	0	idtext0033	oui	#####	spk1	74.23	74.61	?	_

20091112_RATP_SCD_1212	31	1	d'accord	NULL	adv	NULL	B_GADV	NOLINK	0	idtext0034	d'accord	#####	spk2	74.7	75.11	0.01	_
20091112_RATP_SCD_1212	31	2	bon+ben	DISF_M	pres	NULL	NULL	NOLINK	0	idtext0034	bon+ben	#####	spk2	75.12	75.47	0.01	//
20091112_RATP_SCD_1212	31	3	c'	NULL	cln	NULL	B_GN	SUJ_IMP	4	idtext0034	ce	###s##	spk2	75.48	75.51	0.01	_
20091112_RATP_SCD_1212	31	4	est	NULL	v	NULL	B_GVfn	ROOT	0	idtext0034	être	P#3##s##	spk2	75.52	75.6	0.01	_
20091112_RATP_SCD_1212	31	5	pas	NULL	advneg	NULL	I_GVfn	MOD	4	idtext0034	pas	#####	spk2	75.61	75.74	0.01	_
20091112_RATP_SCD_1212	31	6	grave	NULL	adj	NULL	B_GADJ	ATS	4	idtext0034	grave	###s##	spk2	75.75	76.0	?	//

20091112_RATP_SCD_1212	32	1	hm	DISF_M	pres	NULL	NULL	NOLINK	0	idtext0035	hm	#####	spk1	76.32	76.71	?	//

20091112_RATP_SCD_1212	33	1	merci	NULL	adv	NULL	B_GADV	NOLINK	0	idtext0036	merci	#####	spk2	77.1	77.4	?	//

20091112_RATP_SCD_1212	34	1	beaucoup	NULL	adv	NULL	B_GADV	MOD	2	idtext0037	beaucoup	#####	spk2	77.47	77.89	0.01	_
20091112_RATP_SCD_1212	34	2	au+revoir	NULL	adv	NULL	I_GADV	ROOT	0	idtext0037	au+revoir	#####	spk2	77.9	78.69	?	_

20091112_RATP_SCD_1212	35	1	je	NULL	cln	NULL	B_GN	SUJ	4	idtext0038	cln	#1##s##	spk1	77.47	77.62	0.01	_
20091112_RATP_SCD_1212	35	2	vous	NULL	clo	NULL	B_GN	OBJ	4	idtext0038	cln	#2##p##	spk1	77.63	77.89	0.01	_
20091112_RATP_SCD_1212	35	3	en	NULL	clo	NULL	B_GN	DE_OBJ	4	idtext0038	en	#####	spk1	77.9	78.25	0.01	_
20091112_RATP_SCD_1212	35	4	prie	NULL	v	NULL	B_GVf	ROOT	0	idtext0038	prier	PS#13##s##	spk1	78.26	78.69	?	//

20091112_RATP_SCD_1212	36	1	au+revoir	NULL	adv	NULL	B_GADV	NOLINK	0	idtext0039	au+revoir	#####	spk1	78.77	79.03	0.01	_
20091112_RATP_SCD_1212	36	2	madame	NULL	nc	NULL	B_GN	NOLINK	0	idtext0039	Monsieur	##f#s##	spk1	79.04	79.45	?	//

