20091112_RATP_SCD_0852	1	1	NNAAMMEE	NULL	np	B_HU	B_GN	ROOT	0	idtext0000	ANONYM	NULL	spk1	4.43	4.62	0.23	_
20091112_RATP_SCD_0852	1	2	va	NULL	v	NULL	B_GVf	ROOT	0	idtext0001	aller	P#3##s##	spk1	4.85	5.0	0.01	_
20091112_RATP_SCD_0852	1	3	vous	NULL	clo	NULL	B_GN	A_OBJ	4	idtext0001	cln	#2##p##	spk1	5.01	5.41	0.01	_
20091112_RATP_SCD_0852	1	4	répondre	NULL	vinf	NULL	B_GVi	OBJ	2	idtext0001	répondre	W#####	spk1	5.42	5.88	?	//

20091112_RATP_SCD_0852	2	1	NNAAMMEE	NULL	np	B_HU	B_GN	ROOT	0	idtext0002	ANONYM	NULL	spk2	7.07	7.26	0.04	_
20091112_RATP_SCD_0852	2	2	bonjour	NULL	adv	NULL	B_GADV	NOLINK	0	idtext0003	bonjour	#####	spk2	7.3	7.65	?	//

20091112_RATP_SCD_0852	3	1	oui	NULL	adv	NULL	B_GADV	MOD	2	idtext0004	oui	#####	spk3	7.95	8.08	0.01	_
20091112_RATP_SCD_0852	3	2	bonjour	NULL	adv	NULL	I_GADV	ROOT	0	idtext0004	bonjour	#####	spk3	8.09	8.31	0.01	_
20091112_RATP_SCD_0852	3	3	madame	NULL	nc	NULL	B_GN	NOLINK	0	idtext0004	Monsieur	##f#s##	spk3	8.32	8.56	0.01	_
20091112_RATP_SCD_0852	3	4	excusez	NULL	v	NULL	B_GVf	ROOT	0	idtext0004	excuser	P#2##p##	spk3	8.57	8.77	0.01	_
20091112_RATP_SCD_0852	3	5	-moi	NULL	clo	NULL	B_GN	OBJ	4	idtext0004	cla	#1##s##	spk3	8.78	8.86	0.01	_
20091112_RATP_SCD_0852	3	6	de	NULL	prep	NULL	B_GP	DE_OBJ	4	idtext0004	de	#####	spk3	8.87	8.91	0.01	_
20091112_RATP_SCD_0852	3	7	vous	NULL	clo	NULL	I_GP	OBJ	8	idtext0004	cln	#2##p##	spk3	8.92	9.0	0.01	_
20091112_RATP_SCD_0852	3	8	déranger	NULL	vinf	NULL	B_GVi	OBJ	6	idtext0004	déranger	W#####	spk3	9.01	9.46	0.05	_
20091112_RATP_SCD_0852	3	9	NNAAMMEE	NULL	np	B_HU	B_GN	ROOT	0	idtext0005	ANONYM	NULL	spk3	9.51	9.68	0.01	_
20091112_RATP_SCD_0852	3	10	NNAAMMEE	NULL	np	B_HU	B_GN	ROOT	0	idtext0006	ANONYM	NULL	spk3	9.69	9.95	?	//

20091112_RATP_SCD_0852	4	1	voilà	DISF_M	pres	NULL	NULL	NOLINK	0	idtext0007	voilà	#####	spk3	10.3	10.49	0.01	_
20091112_RATP_SCD_0852	4	2	je	NULL	cln	NULL	B_GN	SUJ	3	idtext0007	cln	#1##s##	spk3	10.5	10.61	0.01	_
20091112_RATP_SCD_0852	4	3	suis	NULL	v	NULL	B_GVf	ROOT	0	idtext0007	être	P#1##s##	spk3	10.62	10.74	0.01	_
20091112_RATP_SCD_0852	4	4	actuellement	NULL	adv	NULL	B_GADV	MOD	15	idtext0007	actuellement	#####	spk3	10.75	11.31	0.01	_
20091112_RATP_SCD_0852	4	5	en	NULL	prep	NULL	B_GP	MOD	15	idtext0007	en	#####	spk3	11.32	11.44	0.01	_
20091112_RATP_SCD_0852	4	6	stage	NULL	nc	NULL	I_GP	OBJ	5	idtext0007	stage	##m#s##	spk3	11.45	12.12	0.01	_
20091112_RATP_SCD_0852	4	7	à	DISF_R	prep	NULL	NULL	NOLINK	0	idtext0007	à	#####	spk3	12.13	12.19	0.01	_
20091112_RATP_SCD_0852	4	8	dans	NULL	prep	NULL	B_GP	P_OBJ_LOC	6	idtext0007	dans	#####	spk3	12.2	12.36	0.01	_
20091112_RATP_SCD_0852	4	9	une	NULL	det	NULL	I_GP	DET	10	idtext0007	un	##f#s##i	spk3	12.37	12.5	0.01	_
20091112_RATP_SCD_0852	4	10	société	NULL	nc	NULL	I_GP	OBJ	8	idtext0007	société	##f#s##	spk3	12.51	12.81	0.01	_
20091112_RATP_SCD_0852	4	11	à	NULL	prep	NULL	B_GP	MOD	10	idtext0007	à	#####	spk3	12.82	12.85	0.01	_
20091112_RATP_SCD_0852	4	12	Paris	NULL	nc	B_A	I_GP	OBJ	11	idtext0007	Paris	##m#s##	spk3	12.86	13.28	0.01	_
20091112_RATP_SCD_0852	4	13	j'	NULL	cln	NULL	B_GN	SUJ	15	idtext0007	cln	#1##s##	spk3	13.29	13.36	0.01	_
20091112_RATP_SCD_0852	4	14	aurais	NULL	v	NULL	B_GVf	AUX	15	idtext0007	avoir	C#12##s##	spk3	13.37	13.48	0.01	_
20091112_RATP_SCD_0852	4	15	voulu	NULL	vppart	NULL	I_GVf	ROOT	0	idtext0007	vouloir	K##m#s##	spk3	13.49	13.92	0.01	_
20091112_RATP_SCD_0852	4	16	savoir	NULL	vinf	NULL	B_GVi	OBJ	15	idtext0007	savoir	W#####	spk3	13.93	14.23	0.01	_
20091112_RATP_SCD_0852	4	17	quels	NULL	det	NULL	B_GN	DET	18	idtext0007	quel	##m#p##	spk3	14.24	14.41	0.01	_
20091112_RATP_SCD_0852	4	18	documents	NULL	nc	NULL	I_GN	OBJ	16	idtext0007	document	##m#p##	spk3	14.42	14.79	0.01	/
20091112_RATP_SCD_0852	4	19	justifier	NULL	vinf	NULL	B_GVi	OBJ	16	idtext0007	justifier	W#####	spk3	14.8	15.58	0.01	_
20091112_RATP_SCD_0852	4	20	et	NULL	coo	NULL	B_NULL	COORD	19	idtext0007	et	#####	spk3	15.59	15.81	0.01	_
20091112_RATP_SCD_0852	4	21	fournir	NULL	vinf	NULL	B_GVi	DEP_COORD	20	idtext0007	fournir	W#####	spk3	15.82	16.41	0.01	_
20091112_RATP_SCD_0852	4	22	pour	NULL	prep	NULL	B_GP	MOD	21	idtext0007	pour	#####	spk3	16.42	16.8	0.01	_
20091112_RATP_SCD_0852	4	23	euh	DISF_M	pres	NULL	NULL	NOLINK	0	idtext0007	euh	#####	spk3	16.81	16.97	0.01	_
20091112_RATP_SCD_0852	4	24	bénéficier	NULL	vinf	NULL	I_GP	OBJ	22	idtext0007	bénéficier	W#####	spk3	16.98	17.47	0.01	_
20091112_RATP_SCD_0852	4	25	de	NULL	prep	NULL	B_GP	DEP	24	idtext0007	de	#####	spk3	17.48	17.51	0.01	_
20091112_RATP_SCD_0852	4	26	la	NULL	det	NULL	I_GP	DET	27	idtext0007	le	##m#s##d	spk3	17.52	17.58	0.01	_
20091112_RATP_SCD_0852	4	27	carte	NULL	nc	B_PRD	I_GP	OBJ	25	idtext0007	carte	##f#s##	spk3	17.59	17.77	0.01	_
20091112_RATP_SCD_0852	4	28	Orange	NULL	np	I_PRD	I_GP	MOD	27	idtext0007	Orange	##m#s##	spk3	17.78	18.04	0.01	_
20091112_RATP_SCD_0852	4	29	enfin	NULL	adv	NULL	B_GVi	MOD	31	idtext0007	enfin	#####	spk3	18.05	18.29	0.01	_
20091112_RATP_SCD_0852	4	30	d()	DISF_T	tronc	NULL	NULL	NOLINK	0	idtext0007	d()	#####	spk3	18.3	18.52	0.01	_
20091112_RATP_SCD_0852	4	31	faire	NULL	vinf	NULL	I_GVi	OBJ	27	idtext0007	faire	W#####	spk3	18.53	18.75	0.01	_
20091112_RATP_SCD_0852	4	32	une	NULL	det	NULL	B_GN	DET	33	idtext0007	un	##f#s##i	spk3	18.76	18.81	0.01	_
20091112_RATP_SCD_0852	4	33	demande	NULL	nc	NULL	I_GN	OBJ	31	idtext0007	demande	##f#s##	spk3	18.82	19.05	0.01	_
20091112_RATP_SCD_0852	4	34	carte	NULL	nc	B_PRD	I_GN	MOD	33	idtext0007	carte	##f#s##	spk3	19.06	19.24	0.01	_
20091112_RATP_SCD_0852	4	35	Orange	NULL	np	I_PRD	I_GN	MOD	34	idtext0007	Orange	##m#s##	spk3	19.25	19.58	?	//

20091112_RATP_SCD_0852	5	1	alors	NULL	adv	NULL	B_GADV	NOLINK	0	idtext0008	alors	#####	spk2	20.05	20.28	0.01	_
20091112_RATP_SCD_0852	5	2	il	NULL	cln	NULL	B_GN	SUJ_IMP	3	idtext0008	cln	#3#m#s##	spk2	20.29	20.35	0.01	_
20091112_RATP_SCD_0852	5	3	faut	NULL	v	NULL	B_GVf	ROOT	0	idtext0008	falloir	P#3##s##	spk2	20.36	20.6	0.01	_
20091112_RATP_SCD_0852	5	4	un	NULL	det	NULL	B_GN	DET	5	idtext0008	un	##m#s##i	spk2	20.61	20.73	0.01	_
20091112_RATP_SCD_0852	5	5	justificatif	NULL	nc	NULL	I_GN	OBJ	3	idtext0008	justificatif	##m#s##	spk2	20.74	21.32	0.01	_
20091112_RATP_SCD_0852	5	6	de	NULL	prep	NULL	B_GP	DEP	5	idtext0008	de	#####	spk2	21.33	21.42	0.01	_
20091112_RATP_SCD_0852	5	7	domicile	NULL	nc	NULL	I_GP	OBJ	6	idtext0008	domicile	##m#s##	spk2	21.43	22.09	?	//

20091112_RATP_SCD_0852	6	1	et	NULL	coo	NULL	B_NULL	ROOT	0	idtext0009	et	#####	spk2	22.2	22.28	0.01	_
20091112_RATP_SCD_0852	6	2	une	NULL	det	NULL	B_NULL	DEP_COORD	1	idtext0009	un	##f#s##i	spk2	22.29	22.68	?	_

20091112_RATP_SCD_0852	7	1	d'accord	NULL	adv	NULL	B_GADV	NOLINK	0	idtext0010	d'accord	#####	spk3	22.16	22.68	?	//

20091112_RATP_SCD_0852	8	1	pièce	NULL	nc	NULL	B_GN	ROOT	0	idtext0011	pièce	##f#s##	spk2	22.72	22.83	0.01	_
20091112_RATP_SCD_0852	8	2	d'	NULL	prep	NULL	B_GP	DEP	1	idtext0011	d'	#####	spk2	22.84	22.86	0.01	_
20091112_RATP_SCD_0852	8	3	identité	NULL	nc	NULL	I_GP	OBJ	2	idtext0011	identité	##f#s##	spk2	22.87	23.41	?	//

20091112_RATP_SCD_0852	9	1	OK	NULL	adv	NULL	B_GADV	MOD	2	idtext0012	ok	#####	spk3	23.79	24.03	0.01	_
20091112_RATP_SCD_0852	9	2	tout	NULL	adv	NULL	I_GADV	MOD	3	idtext0012	tout	##m#s##	spk3	24.04	24.19	0.01	_
20091112_RATP_SCD_0852	9	3	simplement	NULL	adv	NULL	I_GADV	ROOT	0	idtext0012	simplement	#####	spk3	24.2	24.67	?	_

20091112_RATP_SCD_0852	10	1	par+contre	NULL	adv	NULL	B_GADV	MOD	2	idtext0013	par+contre	#####	spk3	24.87	25.22	0.01	_
20091112_RATP_SCD_0852	10	2	oui	NULL	adv	NULL	I_GADV	ROOT	0	idtext0013	oui	#####	spk3	25.23	25.48	?	//

20091112_RATP_SCD_0852	11	1	tout+à+fait	NULL	adv	NULL	B_GADV	NOLINK	0	idtext0014	tout+à+fait	#####	spk2	25.13	25.48	?	//

20091112_RATP_SCD_0852	12	1	forcément	NULL	adv	NULL	B_GADV	MOD	2	idtext0015	forcément	#####	spk3	25.52	26.14	0.01	_
20091112_RATP_SCD_0852	12	2	enfin	NULL	adv	NULL	I_GADV	ROOT	0	idtext0016	enfin	#####	spk3	26.15	26.32	0.01	_
20091112_RATP_SCD_0852	12	3	à+savoir+que	NULL	csu	NULL	B_NULL	ROOT	0	idtext0016	à+savoir+que	#####	spk3	26.33	27.22	0.01	_
20091112_RATP_SCD_0852	12	4	moi	NULL	pro	NULL	B_GN	SUJ	6	idtext0016	moi	#####	spk3	27.23	27.37	0.01	_
20091112_RATP_SCD_0852	12	5	je	NULL	cln	NULL	B_GN	SUJ	6	idtext0016	cln	#1##s##	spk3	27.38	27.53	0.01	_
20091112_RATP_SCD_0852	12	6	suis	NULL	v	NULL	B_GVf	OBJ	3	idtext0016	être	P#1##s##	spk3	27.54	27.72	0.01	_
20091112_RATP_SCD_0852	12	7	en	DISF_R	prep	NULL	NULL	NOLINK	0	idtext0016	en	#####	spk3	27.73	27.98	0.01	_
20091112_RATP_SCD_0852	12	8	en	NULL	prep	NULL	B_GP	ATS	6	idtext0016	en	#####	spk3	27.99	28.09	0.01	_
20091112_RATP_SCD_0852	12	9	stage	NULL	nc	NULL	I_GP	OBJ	8	idtext0016	stage	##m#s##	spk3	28.1	28.43	0.01	//
20091112_RATP_SCD_0852	12	10	euh	DISF_M	pres	NULL	NULL	NOLINK	0	idtext0016	euh	#####	spk3	28.44	28.53	0.01	_
20091112_RATP_SCD_0852	12	11	que	NULL	csu	NULL	B_NULL	OBJ	9	idtext0016	que	#####	spk3	28.54	28.77	0.01	_
20091112_RATP_SCD_0852	12	12	pour	NULL	prep	NULL	B_GP	OBJ	11	idtext0016	pour	#####	spk3	28.78	29.14	0.01	_
20091112_RATP_SCD_0852	12	13	euh	DISF_M	pres	NULL	NULL	NOLINK	0	idtext0016	euh	#####	spk3	29.15	29.36	0.01	_
20091112_RATP_SCD_0852	12	14	une	NULL	det	NULL	I_GP	DET	16	idtext0016	un	##f#s##i	spk3	29.37	29.5	0.01	_
20091112_RATP_SCD_0852	12	15	courte	NULL	adj	NULL	I_GP	MOD	16	idtext0016	court	##f#s##	spk3	29.51	29.79	0.01	_
20091112_RATP_SCD_0852	12	16	période	NULL	nc	NULL	I_GP	OBJ	12	idtext0016	période	###s##	spk3	29.8	30.16	0.01	_
20091112_RATP_SCD_0852	12	17	donc	NULL	coo	NULL	B_NULL	COORD	6	idtext0016	donc	#####	spk3	30.17	30.42	0.01	_
20091112_RATP_SCD_0852	12	18	euh	DISF_M	pres	NULL	NULL	NOLINK	0	idtext0016	euh	#####	spk3	30.43	30.78	0.01	_
20091112_RATP_SCD_0852	12	19	aujourd'hui	NULL	adv	NULL	B_GADV	MOD	23	idtext0016	aujourd'hui	#####	spk3	30.79	31.17	0.01	_
20091112_RATP_SCD_0852	12	20	j'	DISF_R	cln	NULL	NULL	NOLINK	0	idtext0016	cln	#1##s##	spk3	31.18	31.28	0.01	_
20091112_RATP_SCD_0852	12	21	habite	DISF_R	v	NULL	NULL	NOLINK	0	idtext0016	habiter	PS#13##s##	spk3	31.29	32.12	0.01	_
20091112_RATP_SCD_0852	12	22	j'	NULL	cln	NULL	B_GN	SUJ	23	idtext0016	cln	#1##s##	spk3	32.13	32.22	0.01	_
20091112_RATP_SCD_0852	12	23	habite	NULL	v	NULL	B_GVf	DEP_COORD	17	idtext0016	habiter	PS#13##s##	spk3	32.23	32.49	0.01	_
20091112_RATP_SCD_0852	12	24	chez	NULL	prep	NULL	B_GP	P_OBJ_LOC	23	idtext0016	chez	#####	spk3	32.5	32.65	0.01	_
20091112_RATP_SCD_0852	12	25	quelqu'un	NULL	pro	NULL	I_GP	OBJ	24	idtext0016	quelqu'un	#####	spk3	32.66	33.01	0.01	_
20091112_RATP_SCD_0852	12	26	donc	NULL	coo	NULL	B_NULL	NOLINK	0	idtext0016	donc	#####	spk3	33.02	33.32	0.01	_
20091112_RATP_SCD_0852	12	27	euh	DISF_M	pres	NULL	NULL	NOLINK	0	idtext0016	euh	#####	spk3	33.33	33.4	?	//

20091112_RATP_SCD_0852	13	1	donc	NULL	coo	NULL	B_NULL	ROOT	0	idtext0017	donc	#####	spk2	33.44	33.59	0.01	_
20091112_RATP_SCD_0852	13	2	euh	DISF_M	pres	NULL	NULL	NOLINK	0	idtext0017	euh	#####	spk2	33.6	33.73	0.01	_
20091112_RATP_SCD_0852	13	3	vous	DISF_R	cln	NULL	NULL	NOLINK	0	idtext0017	cln	#2##p##	spk2	33.74	33.79	0.01	_
20091112_RATP_SCD_0852	13	4	demandez	DISF_R	v	NULL	NULL	NOLINK	0	idtext0017	demander	P#2##p##	spk2	33.8	34.06	0.01	_
20091112_RATP_SCD_0852	13	5	vous	NULL	cln	NULL	B_GN	SUJ	6	idtext0017	cln	#2##p##	spk2	34.07	34.16	0.01	_
20091112_RATP_SCD_0852	13	6	faites	NULL	v	NULL	B_GVf	DEP_COORD	1	idtext0017	faire	P#2##p##	spk2	34.17	34.38	0.01	_
20091112_RATP_SCD_0852	13	7	une	NULL	det	NULL	B_GN	DET	8	idtext0017	un	##f#s##i	spk2	34.39	34.46	0.01	_
20091112_RATP_SCD_0852	13	8	attestation	NULL	nc	NULL	I_GN	OBJ	6	idtext0017	attestation	##f#s##	spk2	34.47	34.85	0.01	_
20091112_RATP_SCD_0852	13	9	d'	NULL	prep	NULL	B_GP	DEP	8	idtext0017	d'	#####	spk2	34.86	34.9	0.01	_
20091112_RATP_SCD_0852	13	10	hébergement	NULL	nc	NULL	I_GP	OBJ	9	idtext0017	hébergement	##m#s##	spk2	34.91	35.43	?	//

20091112_RATP_SCD_0852	14	1	d'accord	NULL	adv	NULL	B_GADV	NOLINK	0	idtext0018	d'accord	#####	spk3	35.96	36.31	?	//

20091112_RATP_SCD_0852	15	1	tout	NULL	adv	NULL	B_GADV	MOD	2	idtext0019	tout	##m#s##	spk3	36.35	36.41	0.01	_
20091112_RATP_SCD_0852	15	2	simplement	NULL	adv	NULL	I_GADV	ROOT	0	idtext0019	simplement	#####	spk3	36.42	36.81	?	_

20091112_RATP_SCD_0852	16	1	hein	DISF_M	pres	NULL	NULL	NOLINK	0	idtext0020	hein	#####	spk2	36.47	36.81	?	//

20091112_RATP_SCD_0852	17	1	voilà	DISF_M	pres	NULL	NULL	NOLINK	0	idtext0021	voilà	#####	spk2	36.85	37.14	0.01	_
20091112_RATP_SCD_0852	17	2	tout	NULL	adv	NULL	B_GADV	MOD	3	idtext0021	tout	##m#s##	spk2	37.15	37.2	0.01	_
20091112_RATP_SCD_0852	17	3	simplement	NULL	adv	NULL	I_GADV	ROOT	0	idtext0021	simplement	#####	spk2	37.21	37.66	0.01	_
20091112_RATP_SCD_0852	17	4	et	NULL	coo	NULL	B_NULL	COORD	3	idtext0021	et	#####	spk2	37.67	37.96	0.01	_
20091112_RATP_SCD_0852	17	5	euh	DISF_M	pres	NULL	NULL	NOLINK	0	idtext0021	euh	#####	spk2	37.97	38.0	0.01	_
20091112_RATP_SCD_0852	17	6	photocopie	NULL	nc	NULL	B_GN	DEP_COORD	4	idtext0021	photocopie	##f#s##	spk2	38.01	38.54	0.01	_
20091112_RATP_SCD_0852	17	7	de	NULL	prep	NULL	B_GP	DEP	6	idtext0021	de	#####	spk2	38.55	38.57	0.01	_
20091112_RATP_SCD_0852	17	8	la	NULL	det	NULL	I_GP	DET	9	idtext0021	le	##m#s##d	spk2	38.58	38.66	0.01	_
20091112_RATP_SCD_0852	17	9	pièce	NULL	nc	NULL	I_GP	OBJ	7	idtext0021	pièce	##f#s##	spk2	38.67	38.85	0.01	_
20091112_RATP_SCD_0852	17	10	d'	NULL	prep	NULL	B_GP	DEP	9	idtext0021	d'	#####	spk2	38.86	38.88	0.01	_
20091112_RATP_SCD_0852	17	11	identité	NULL	nc	NULL	I_GP	OBJ	10	idtext0021	identité	##f#s##	spk2	38.89	39.12	0.01	_
20091112_RATP_SCD_0852	17	12	de	NULL	prep	NULL	B_GP	DEP	11	idtext0021	de	#####	spk2	39.13	39.15	0.01	_
20091112_RATP_SCD_0852	17	13	la	NULL	det	NULL	I_GP	DET	14	idtext0021	le	##m#s##d	spk2	39.16	39.24	0.01	_
20091112_RATP_SCD_0852	17	14	personne	NULL	nc	NULL	I_GP	OBJ	12	idtext0021	personne	##f#s##	spk2	39.25	39.75	0.01	_
20091112_RATP_SCD_0852	17	15	voilà	DISF_M	pres	NULL	NULL	NOLINK	0	idtext0021	voilà	#####	spk2	39.76	40.1	?	//

20091112_RATP_SCD_0852	18	1	de	NULL	prep	NULL	B_GP	ROOT	0	idtext0022	de	#####	spk3	40.14	40.26	0.01	_
20091112_RATP_SCD_0852	18	2	sa	NULL	det	NULL	I_GP	DET	3	idtext0022	sa	##f#s##o	spk3	40.27	40.4	0.01	_
20091112_RATP_SCD_0852	18	3	personne	NULL	nc	NULL	I_GP	OBJ	1	idtext0022	personne	##f#s##	spk3	40.41	40.67	?	//

20091112_RATP_SCD_0852	19	1	à	NULL	prep	NULL	B_GP	ROOT	0	idtext0023	à	#####	spk3	40.71	40.76	0.01	_
20091112_RATP_SCD_0852	19	2	lui	NULL	clo	NULL	I_GP	OBJ	1	idtext0023	lui	#####	spk3	40.77	41.01	?	_

20091112_RATP_SCD_0852	20	1	oui	NULL	adv	NULL	B_GADV	NOLINK	0	idtext0024	oui	#####	spk2	40.71	41.01	?	//

20091112_RATP_SCD_0852	21	1	oui	NULL	adv	NULL	B_GADV	NOLINK	0	idtext0025	oui	#####	spk2	41.08	41.42	?	//

20091112_RATP_SCD_0852	22	1	tout+à+fait	NULL	adv	NULL	B_GADV	NOLINK	0	idtext0026	tout+à+fait	#####	spk2	41.64	42.1	?	//

20091112_RATP_SCD_0852	23	1	d'accord	NULL	adv	NULL	B_GADV	NOLINK	0	idtext0027	d'accord	#####	spk3	41.58	42.1	?	//

20091112_RATP_SCD_0852	24	1	OK	NULL	adv	NULL	B_GADV	NOLINK	0	idtext0028	ok	#####	spk3	42.6	43.11	?	_

20091112_RATP_SCD_0852	25	1	hein	DISF_M	pres	NULL	NULL	NOLINK	0	idtext0029	hein	#####	spk2	43.21	43.42	?	//

20091112_RATP_SCD_0852	26	1	merci	NULL	adv	NULL	B_GADV	NOLINK	0	idtext0030	merci	#####	spk3	43.48	43.79	?	//

20091112_RATP_SCD_0852	27	1	beaucoup	NULL	adv	NULL	B_GADV	NOLINK	0	idtext0031	beaucoup	#####	spk3	43.83	44.18	?	//

20091112_RATP_SCD_0852	28	1	je	NULL	cln	NULL	B_GN	NOLINK	0	idtext0032	cln	#1##s##	spk2	44.01	44.18	?	_

20091112_RATP_SCD_0852	29	1	en	NULL	prep	NULL	B_GP	NOLINK	0	idtext0033	en	#####	spk2	44.22	44.27	0.01	_
20091112_RATP_SCD_0852	29	2	prie	NULL	v	NULL	I_GP	NOLINK	0	idtext0033	prier	PS#13##s##	spk2	44.28	44.5	?	//

20091112_RATP_SCD_0852	30	1	bonne	NULL	adj	NULL	B_GN	MOD	2	idtext0034	bon	##f#s##	spk2	44.58	44.66	0.01	_
20091112_RATP_SCD_0852	30	2	journée	NULL	nc	NULL	I_GN	ROOT	0	idtext0034	journée	##f#s##	spk2	44.67	44.86	?	//

20091112_RATP_SCD_0852	31	1	au+revoir	NULL	adv	NULL	B_GADV	NOLINK	0	idtext0035	au+revoir	#####	spk3	44.55	44.86	?	//

20091112_RATP_SCD_0852	32	1	au+revoir	NULL	adv	NULL	B_GADV	NOLINK	0	idtext0036	au+revoir	#####	spk2	44.9	45.38	?	//

