20091112_RATP_SCD_0715	1	1	je	DISF_R	cln	NULL	NULL	NOLINK	0	idtext0000	cln	#1##s##	spk1	2.39	2.41	0.01	_
20091112_RATP_SCD_0715	1	2	v()	DISF_T	tronc	NULL	NULL	NOLINK	0	idtext0000	v()	#####	spk1	2.42	2.44	0.01	_
20091112_RATP_SCD_0715	1	3	c'	NULL	cln	NULL	B_GN	SUJ_IMP	4	idtext0000	ce	###s##	spk1	2.45	2.47	0.01	_
20091112_RATP_SCD_0715	1	4	est	NULL	v	NULL	B_GVf	ROOT	0	idtext0000	être	P#3##s##	spk1	2.48	2.85	0.01	_
20091112_RATP_SCD_0715	1	5	pour	NULL	prep	NULL	B_GP	ATS	4	idtext0000	pour	#####	spk1	2.86	2.94	0.01	_
20091112_RATP_SCD_0715	1	6	ça	NULL	pro	NULL	I_GP	OBJ	5	idtext0000	ça	#####	spk1	2.95	3.0	0.01	_
20091112_RATP_SCD_0715	1	7	que	NULL	csu	NULL	B_NULL	OBJ	6	idtext0000	que	#####	spk1	3.01	3.03	0.01	_
20091112_RATP_SCD_0715	1	8	je	NULL	cln	NULL	B_GN	SUJ	11	idtext0000	cln	#1##s##	spk1	3.04	3.11	0.01	_
20091112_RATP_SCD_0715	1	9	me	NULL	clr	NULL	B_GVf	AFF	11	idtext0000	cla	#1##s##	spk1	3.12	3.14	0.01	_
20091112_RATP_SCD_0715	1	10	suis	NULL	v	NULL	I_GVf	AUX	11	idtext0000	être	P#1##s##	spk1	3.15	3.3	0.01	_
20091112_RATP_SCD_0715	1	11	permis	NULL	vppart	NULL	I_GVf	OBJ	7	idtext0000	permettre	J#12##s##	spk1	3.31	3.63	0.01	_
20091112_RATP_SCD_0715	1	12	d'	NULL	prep	NULL	B_GP	OBJ	11	idtext0000	d'	#####	spk1	3.64	3.66	0.01	_
20091112_RATP_SCD_0715	1	13	aller	NULL	vinf	NULL	I_GP	OBJ	12	idtext0000	aller	W#####	spk1	3.67	3.88	0.01	_
20091112_RATP_SCD_0715	1	14	te	NULL	clo	NULL	B_GN	OBJ	15	idtext0000	cla	#2##s##	spk1	3.89	3.96	0.01	_
20091112_RATP_SCD_0715	1	15	voir	NULL	vinf	NULL	B_GVi	OBJ	13	idtext0000	voir	W#####	spk1	3.97	4.21	0.01	_
20091112_RATP_SCD_0715	1	16	parce+que	NULL	csu	NULL	B_NULL	MOD	11	idtext0000	parce+que	#####	spk1	4.22	4.57	0.01	_
20091112_RATP_SCD_0715	1	17	bon	DISF_M	pres	NULL	NULL	NOLINK	0	idtext0000	bon	#####	spk1	4.58	4.81	?	//

20091112_RATP_SCD_0715	2	1	euh	DISF_M	pres	NULL	NULL	NOLINK	0	idtext0001	euh	#####	spk2	5.88	6.1	0.01	//
20091112_RATP_SCD_0715	2	2	bonjour	NULL	adv	NULL	B_GADV	NOLINK	0	idtext0001	bonjour	#####	spk2	6.11	6.51	?	_

20091112_RATP_SCD_0715	3	1	NNAAMMEE	NULL	np	B_HU	B_GN	ROOT	0	idtext0002	ANONYM	NULL	spk1	6.55	7.0	0.04	_
20091112_RATP_SCD_0715	3	2	bonjour	NULL	adv	NULL	B_GADV	NOLINK	0	idtext0003	bonjour	#####	spk1	7.04	7.85	?	//

20091112_RATP_SCD_0715	4	1	euh	DISF_M	pres	NULL	NULL	NOLINK	0	idtext0004	euh	#####	spk2	7.92	8.14	0.01	_
20091112_RATP_SCD_0715	4	2	je	NULL	cln	NULL	B_GN	SUJ	3	idtext0004	cln	#1##s##	spk2	8.15	8.25	0.01	_
20091112_RATP_SCD_0715	4	3	voudrais	NULL	v	NULL	B_GVf	ROOT	0	idtext0004	vouloir	C#12##s##	spk2	8.26	8.63	0.01	_
20091112_RATP_SCD_0715	4	4	savoir	NULL	vinf	NULL	I_GVf	OBJ	3	idtext0004	savoir	W#####	spk2	8.64	9.18	0.01	_
20091112_RATP_SCD_0715	4	5	euh	DISF_M	pres	NULL	NULL	NOLINK	0	idtext0004	euh	#####	spk2	9.19	9.77	0.01	_
20091112_RATP_SCD_0715	4	6	s'	NULL	csu	NULL	B_NULL	OBJ	3	idtext0004	se	#3##p##	spk2	9.78	9.93	0.01	_
20091112_RATP_SCD_0715	4	7	il	NULL	cln	NULL	B_GN	SUJ_IMP	9	idtext0004	cln	#3#m#s##	spk2	9.94	10.06	0.01	_
20091112_RATP_SCD_0715	4	8	y	NULL	clo	NULL	B_GN	AFF	9	idtext0004	y	#####	spk2	10.07	10.11	0.01	_
20091112_RATP_SCD_0715	4	9	a	NULL	v	NULL	B_GVf	OBJ	6	idtext0004	avoir	P#3##s##	spk2	10.12	10.2	0.01	_
20091112_RATP_SCD_0715	4	10	une	NULL	det	NULL	B_GN	DET	11	idtext0004	un	##f#s##i	spk2	10.21	10.26	0.01	_
20091112_RATP_SCD_0715	4	11	prévision	NULL	nc	NULL	I_GN	OBJ	9	idtext0004	prévision	##f#s##	spk2	10.27	10.82	0.01	_
20091112_RATP_SCD_0715	4	12	de	NULL	prep	NULL	B_GP	DEP	11	idtext0004	de	#####	spk2	10.83	10.99	0.01	_
20091112_RATP_SCD_0715	4	13	l'	NULL	det	NULL	I_GP	DET	14	idtext0004	le	###s##d	spk2	11.0	11.08	0.01	_
20091112_RATP_SCD_0715	4	14	horaire	NULL	nc	NULL	I_GP	OBJ	12	idtext0004	horaire	##m#s##	spk2	11.09	11.52	0.01	_
20091112_RATP_SCD_0715	4	15	du	NULL	prep	NULL	B_GP	DEP	14	idtext0004	du	#####	spk2	11.53	11.64	0.01	_
20091112_RATP_SCD_0715	4	16	dernière	NULL	adj	NULL	I_GP	MOD	17	idtext0004	dernier	##f#s##	spk2	11.65	12.1	0.01	_
20091112_RATP_SCD_0715	4	17	RER+B	NULL	nc	B_T	I_GP	OBJ	15	idtext0004	RER+B	#####	spk2	12.11	13.33	0.01	/
20091112_RATP_SCD_0715	4	18	ce	NULL	det	NULL	B_GN	DET	19	idtext0004	ce	##m#s##e	spk2	13.34	13.59	0.01	_
20091112_RATP_SCD_0715	4	19	soir	NULL	nc	NULL	I_GN	MOD	17	idtext0004	soir	##m#s##	spk2	13.6	14.0	0.01	_
20091112_RATP_SCD_0715	4	20	vers	NULL	prep	NULL	B_NULL	MOD	19	idtext0004	vers	#####	spk2	14.01	14.29	?	_

20091112_RATP_SCD_0715	5	1	Saint-Rémy-lès-Chevreuse	NULL	nc	B_A	B_GN	NOLINK	0	idtext0005	Saint-Rémy-lès-Chevreuse	#####	spk2	14.33	15.44	?	_

20091112_RATP_SCD_0715	6	1	ou	NULL	coo	NULL	B_NULL	NOLINK	0	idtext0006	ou	#####	spk1	14.34	14.51	0.01	_
20091112_RATP_SCD_0715	6	2	mais	NULL	coo	NULL	B_NULL	NOLINK	0	idtext0006	mais	#####	spk1	14.52	14.6	0.01	_
20091112_RATP_SCD_0715	6	3	malheureusement	NULL	adv	NULL	B_GADV	NOLINK	0	idtext0006	malheureusement	#####	spk1	14.61	15.44	?	_

20091112_RATP_SCD_0715	7	1	non	NULL	adv	NULL	B_GADV	NOLINK	0	idtext0007	non	#####	spk1	15.52	15.76	0.01	_
20091112_RATP_SCD_0715	7	2	il	NULL	cln	NULL	B_GN	SUJ	5	idtext0007	cln	#3#m#s##	spk1	15.77	15.82	0.01	_
20091112_RATP_SCD_0715	7	3	n'	NULL	clneg	NULL	B_NULL	MOD	5	idtext0007	n'	#####	spk1	15.83	15.86	0.01	_
20091112_RATP_SCD_0715	7	4	y	NULL	clo	NULL	B_GN	AFF	5	idtext0007	y	#####	spk1	15.87	15.89	0.01	_
20091112_RATP_SCD_0715	7	5	a	NULL	v	NULL	B_GVfn	ROOT	0	idtext0007	avoir	P#3##s##	spk1	15.9	15.92	0.01	_
20091112_RATP_SCD_0715	7	6	pas	NULL	advneg	NULL	I_GVfn	MOD	5	idtext0007	pas	#####	spk1	15.93	16.1	0.01	_
20091112_RATP_SCD_0715	7	7	de	NULL	det	NULL	B_GN	DET	8	idtext0007	de	###p##i	spk1	16.11	16.13	0.01	_
20091112_RATP_SCD_0715	7	8	prévision	NULL	nc	NULL	I_GN	OBJ	5	idtext0007	prévision	##f#s##	spk1	16.14	16.57	0.01	_
20091112_RATP_SCD_0715	7	9	sur	NULL	prep	NULL	B_GP	P_OBJ	8	idtext0007	sur	#####	spk1	16.58	16.72	0.01	_
20091112_RATP_SCD_0715	7	10	le	NULL	det	NULL	I_GP	DET	12	idtext0007	le	##m#s##d	spk1	16.73	16.79	0.01	_
20091112_RATP_SCD_0715	7	11	dernier	NULL	adj	NULL	I_GP	MOD	12	idtext0007	dernier	##m#s##	spk1	16.8	17.05	0.01	_
20091112_RATP_SCD_0715	7	12	RER+B	NULL	nc	B_T	I_GP	OBJ	9	idtext0007	RER+B	#####	spk1	17.06	17.44	0.04	_
20091112_RATP_SCD_0715	7	13	et	NULL	coo	NULL	B_NULL	ROOT	0	idtext0008	et	#####	spk1	17.48	17.6	0.01	_
20091112_RATP_SCD_0715	7	14	ils	NULL	cln	NULL	B_GN	SUJ	16	idtext0008	cln	#3#m#p##	spk1	17.61	17.66	0.01	_
20091112_RATP_SCD_0715	7	15	ne	NULL	clneg	NULL	B_GVfn	MOD	16	idtext0008	ne	#####	spk1	17.67	17.69	0.01	_
20091112_RATP_SCD_0715	7	16	savent	NULL	v	NULL	I_GVfn	DEP_COORD	13	idtext0008	savoir	P#3##p##	spk1	17.7	17.97	0.01	_
20091112_RATP_SCD_0715	7	17	même	NULL	adv	NULL	B_GADV	MOD	18	idtext0008	même	###s##	spk1	17.98	18.08	0.01	_
20091112_RATP_SCD_0715	7	18	pas	NULL	advneg	NULL	B_NULL	MOD	16	idtext0008	pas	#####	spk1	18.09	18.21	0.01	_
20091112_RATP_SCD_0715	7	19	comment	NULL	adv	NULL	B_GADV	MOD	21	idtext0008	comment	#####	spk1	18.22	18.54	0.01	_
20091112_RATP_SCD_0715	7	20	ça	NULL	pro	NULL	B_GN	SUJ_IMP	21	idtext0008	ça	#####	spk1	18.55	18.63	0.01	_
20091112_RATP_SCD_0715	7	21	va	NULL	v	NULL	B_GVf	ROOT	0	idtext0008	aller	P#3##s##	spk1	18.64	18.69	0.01	_
20091112_RATP_SCD_0715	7	22	rouler	NULL	vinf	NULL	I_GVf	OBJ	21	idtext0008	rouler	W#####	spk1	18.7	19.01	0.01	_
20091112_RATP_SCD_0715	7	23	dans	NULL	prep	NULL	B_GP	P_OBJ	21	idtext0008	dans	#####	spk1	19.02	19.15	0.01	_
20091112_RATP_SCD_0715	7	24	la	NULL	det	NULL	I_GP	DET	25	idtext0008	le	##m#s##d	spk1	19.16	19.22	0.01	_
20091112_RATP_SCD_0715	7	25	soirée	NULL	nc	NULL	I_GP	OBJ	23	idtext0008	soirée	##f#s##	spk1	19.23	20.54	?	//

20091112_RATP_SCD_0715	8	1	hm	DISF_M	pres	NULL	NULL	NOLINK	0	idtext0009	hm	#####	spk2	20.78	20.81	0.01	//
20091112_RATP_SCD_0715	8	2	parce+que	NULL	csu	NULL	B_NULL	ROOT	0	idtext0009	parce+que	#####	spk2	20.82	21.03	0.01	_
20091112_RATP_SCD_0715	8	3	je	NULL	cln	NULL	B_GN	SUJ	4	idtext0009	cln	#1##s##	spk2	21.04	21.24	0.01	_
20091112_RATP_SCD_0715	8	4	vois	NULL	v	NULL	B_GVf	OBJ	2	idtext0009	voir	P#12##s##	spk2	21.25	21.35	0.01	_
20091112_RATP_SCD_0715	8	5	que	NULL	csu	NULL	B_NULL	OBJ	4	idtext0009	que	#####	spk2	21.36	21.53	0.01	_
20091112_RATP_SCD_0715	8	6	le	NULL	det	NULL	B_GN	DET	7	idtext0009	le	##m#s##d	spk2	21.54	21.56	0.01	_
20091112_RATP_SCD_0715	8	7	service	NULL	nc	NULL	I_GN	SUJ	10	idtext0009	service	##m#s##	spk2	21.57	21.92	0.01	_
20091112_RATP_SCD_0715	8	8	est	NULL	v	NULL	B_GVf	AUX	10	idtext0009	être	P#3##s##	spk2	21.93	21.99	0.01	_
20091112_RATP_SCD_0715	8	9	encore	NULL	adv	NULL	I_GVf	MOD	10	idtext0009	encore	#####	spk2	22.0	22.21	0.01	_
20091112_RATP_SCD_0715	8	10	perturbé	NULL	vppart	NULL	I_GVf	OBJ	5	idtext0009	perturber	K##m#s##	spk2	22.22	22.85	?	//

20091112_RATP_SCD_0715	9	1	oui	NULL	adv	NULL	B_GADV	MOD	2	idtext0010	oui	#####	spk1	22.89	23.16	0.01	_
20091112_RATP_SCD_0715	9	2	tout+à+fait	NULL	adv	NULL	I_GADV	ROOT	0	idtext0010	tout+à+fait	#####	spk1	23.17	24.2	?	_

20091112_RATP_SCD_0715	10	1	et	NULL	coo	NULL	B_NULL	NOLINK	0	idtext0011	et	#####	spk2	24.25	24.88	0.01	_
20091112_RATP_SCD_0715	10	2	euh	DISF_M	pres	NULL	NULL	NOLINK	0	idtext0011	euh	#####	spk2	24.89	24.92	0.01	_
20091112_RATP_SCD_0715	10	3	donc	NULL	coo	NULL	B_NULL	NOLINK	0	idtext0011	donc	#####	spk2	24.93	25.14	0.01	_
20091112_RATP_SCD_0715	10	4	je	NULL	cln	NULL	B_GN	SUJ	5	idtext0011	cln	#1##s##	spk2	25.15	25.27	0.01	_
20091112_RATP_SCD_0715	10	5	voudrais	NULL	v	NULL	B_GVf	ROOT	0	idtext0011	vouloir	C#12##s##	spk2	25.28	25.45	0.01	_
20091112_RATP_SCD_0715	10	6	avoir	NULL	vinf	NULL	I_GVf	OBJ	5	idtext0011	avoir	W#####	spk2	25.46	25.78	0.01	_
20091112_RATP_SCD_0715	10	7	une	NULL	det	NULL	B_GN	DET	8	idtext0011	un	##f#s##i	spk2	25.79	25.87	0.01	_
20091112_RATP_SCD_0715	10	8	idée	NULL	nc	NULL	I_GN	OBJ	6	idtext0011	idée	##f#s##	spk2	25.88	26.31	0.01	/
20091112_RATP_SCD_0715	10	9	c'	NULL	cln	NULL	B_GN	SUJ_IMP	10	idtext0011	ce	###s##	spk2	26.32	26.36	0.01	_
20091112_RATP_SCD_0715	10	10	est	NULL	v	NULL	B_GVf	ROOT	0	idtext0011	être	P#3##s##	spk2	26.37	26.77	?	//

20091112_RATP_SCD_0715	11	1	contrairement	NULL	adv	NULL	B_GADV	NOLINK	0	idtext0012	contrairement	#####	spk1	26.81	27.24	0.01	_
20091112_RATP_SCD_0715	11	2	aux	NULL	prep	NULL	B_GP	ROOT	0	idtext0012	aux	#####	spk1	27.25	27.28	0.01	_
20091112_RATP_SCD_0715	11	3	prévisions	NULL	nc	NULL	I_GP	OBJ	2	idtext0012	prévision	##f#p##	spk1	27.29	27.75	0.01	//
20091112_RATP_SCD_0715	11	4	oui	NULL	adv	NULL	B_GADV	NOLINK	0	idtext0012	oui	#####	spk1	27.76	27.92	0.01	_
20091112_RATP_SCD_0715	11	5	c'	NULL	cln	NULL	B_GN	SUJ_IMP	8	idtext0012	ce	###s##	spk1	27.93	28.0	0.01	_
20091112_RATP_SCD_0715	11	6	est	NULL	v	NULL	B_GVf	AUX	8	idtext0012	être	P#3##s##	spk1	28.01	28.03	0.01	_
20091112_RATP_SCD_0715	11	7	encore	NULL	adv	NULL	I_GVf	MOD	8	idtext0012	encore	#####	spk1	28.04	28.27	0.01	_
20091112_RATP_SCD_0715	11	8	perturbé	NULL	vppart	NULL	I_GVf	ROOT	0	idtext0012	perturber	K##m#s##	spk1	28.28	28.78	0.01	_
20091112_RATP_SCD_0715	11	9	hein	DISF_M	pres	NULL	NULL	NOLINK	0	idtext0012	hein	#####	spk1	28.79	28.92	0.01	_
20091112_RATP_SCD_0715	11	10	là	NULL	adv	NULL	B_GADV	NOLINK	0	idtext0012	là	#####	spk1	28.93	29.06	0.01	_
20091112_RATP_SCD_0715	11	11	il	NULL	cln	NULL	B_GN	SUJ_IMP	13	idtext0012	cln	#3#m#s##	spk1	29.07	29.13	0.01	_
20091112_RATP_SCD_0715	11	12	y	NULL	clo	NULL	B_GN	AFF	13	idtext0012	y	#####	spk1	29.14	29.17	0.01	_
20091112_RATP_SCD_0715	11	13	a	NULL	v	NULL	B_GVf	ROOT	0	idtext0012	avoir	P#3##s##	spk1	29.18	29.33	0.01	_
20091112_RATP_SCD_0715	11	14	à+peu+près	NULL	adv	NULL	B_GADV	MOD	13	idtext0012	à+peu+près	#####	spk1	29.34	29.99	0.01	_
20091112_RATP_SCD_0715	11	15	euh	DISF_M	pres	NULL	NULL	NOLINK	0	idtext0012	euh	#####	spk1	30.0	31.77	0.30	//
20091112_RATP_SCD_0715	11	16	à+peu+près	NULL	adv	NULL	B_GN	MOD	17	idtext0013	à+peu+près	#####	spk1	32.07	32.48	0.01	_
20091112_RATP_SCD_0715	11	17	trois	NULL	adj	NULL	I_GN	MOD	18	idtext0013	trois	#####	spk1	32.49	32.72	0.01	_
20091112_RATP_SCD_0715	11	18	quatre	NULL	nc	NULL	I_GN	ROOT	0	idtext0013	quatre	##m###	spk1	32.73	33.26	0.01	_
20091112_RATP_SCD_0715	11	19	trains	NULL	nc	NULL	B_GN	NOLINK	0	idtext0013	train	##m#p##	spk1	33.27	33.45	0.01	_
20091112_RATP_SCD_0715	11	20	sur	NULL	prep	NULL	B_NULL	ROOT	0	idtext0013	sur	#####	spk1	33.46	33.68	0.01	_
20091112_RATP_SCD_0715	11	21	quatre	NULL	adj	NULL	B_GADJ	OBJ	20	idtext0013	quatre	#####	spk1	33.69	33.96	?	_

20091112_RATP_SCD_0715	12	1	hm	DISF_M	pres	NULL	NULL	NOLINK	0	idtext0014	hm	#####	spk2	34.0	34.11	?	//

20091112_RATP_SCD_0715	13	1	mais+encore	NULL	coo	NULL	B_NULL	NOLINK	0	idtext0015	mais+encore	#####	spk1	34.15	34.53	0.01	_
20091112_RATP_SCD_0715	13	2	bon	DISF_M	pres	NULL	NULL	NOLINK	0	idtext0015	bon	#####	spk1	34.54	34.71	0.01	_
20091112_RATP_SCD_0715	13	3	ça	NULL	pro	NULL	B_GN	SUJ_IMP	4	idtext0015	ça	#####	spk1	34.72	34.86	0.01	_
20091112_RATP_SCD_0715	13	4	veut	NULL	v	NULL	B_GVf	ROOT	0	idtext0015	vouloir	P#3##s##	spk1	34.87	34.98	0.01	_
20091112_RATP_SCD_0715	13	5	rien	NULL	pro	NULL	B_GN	OBJ	4	idtext0015	rien	#####	spk1	34.99	35.17	0.01	_
20091112_RATP_SCD_0715	13	6	dire	NULL	vinf	NULL	B_GVi	OBJ	4	idtext0015	dire	W#####	spk1	35.18	35.37	0.01	_
20091112_RATP_SCD_0715	13	7	hein	DISF_M	pres	NULL	NULL	NOLINK	0	idtext0015	hein	#####	spk1	35.38	35.74	?	//

20091112_RATP_SCD_0715	14	1	c'	NULL	cln	NULL	B_GN	SUJ_IMP	2	idtext0016	ce	###s##	spk1	35.78	35.8	0.01	_
20091112_RATP_SCD_0715	14	2	est	NULL	v	NULL	B_GVfn	ROOT	0	idtext0016	être	P#3##s##	spk1	35.81	36.73	0.01	_
20091112_RATP_SCD_0715	14	3	pas	NULL	advneg	NULL	I_GVfn	MOD	2	idtext0016	pas	#####	spk1	36.74	37.35	?	_

20091112_RATP_SCD_0715	15	1	hm	DISF_M	pres	NULL	NULL	NOLINK	0	idtext0017	hm	#####	spk2	35.86	37.35	?	//

20091112_RATP_SCD_0715	16	1	et	NULL	coo	NULL	B_NULL	ROOT	0	idtext0018	et	#####	spk1	37.39	37.54	0.01	_
20091112_RATP_SCD_0715	16	2	bon	DISF_M	pres	NULL	NULL	NOLINK	0	idtext0018	bon	#####	spk1	37.55	37.66	0.01	_
20091112_RATP_SCD_0715	16	3	pour	NULL	prep	NULL	B_GP	MOD	11	idtext0018	pour	#####	spk1	37.67	37.85	0.01	_
20091112_RATP_SCD_0715	16	4	ce	NULL	det	NULL	I_GP	DET	5	idtext0018	ce	##m#s##e	spk1	37.86	37.99	0.01	_
20091112_RATP_SCD_0715	16	5	soir	NULL	nc	NULL	I_GP	OBJ	3	idtext0018	soir	##m#s##	spk1	38.0	38.2	0.01	_
20091112_RATP_SCD_0715	16	6	on	NULL	cln	NULL	B_GN	SUJ_IMP	7	idtext0018	cln	#3##s##	spk1	38.21	38.26	0.01	_
20091112_RATP_SCD_0715	16	7	peut	NULL	v	NULL	B_GVf	ROOT	0	idtext0018	pouvoir	P#3##s##	spk1	38.27	38.36	0.01	_
20091112_RATP_SCD_0715	16	8	pas	NULL	advneg	NULL	B_GVin	MOD	9	idtext0018	pas	#####	spk1	38.37	38.47	0.01	_
20091112_RATP_SCD_0715	16	9	savoir	NULL	vinf	NULL	I_GVin	OBJ	7	idtext0018	savoir	W#####	spk1	38.48	38.95	0.01	_
20091112_RATP_SCD_0715	16	10	comme	NULL	prep	NULL	B_GP	MOD	9	idtext0019	comme	#####	spk1	38.96	39.14	0.01	_
20091112_RATP_SCD_0715	16	11	ça	NULL	pro	NULL	B_GN	SUJ	12	idtext0019	ça	#####	spk1	39.15	39.28	0.01	_
20091112_RATP_SCD_0715	16	12	sera	NULL	v	NULL	B_GVf	OBJ	10	idtext0019	être	F#3##s##	spk1	39.29	39.48	0.01	_
20091112_RATP_SCD_0715	16	13	un	NULL	det	NULL	B_GN	DET	15	idtext0019	un	##m#s##i	spk1	39.49	39.59	0.01	_
20091112_RATP_SCD_0715	16	14	autre	NULL	adj	NULL	I_GN	MOD	15	idtext0019	autre	###s##	spk1	39.6	39.73	0.01	_
20091112_RATP_SCD_0715	16	15	service	NULL	nc	NULL	I_GN	ATS	12	idtext0019	service	##m#s##	spk1	39.74	40.85	?	//

20091112_RATP_SCD_0715	17	1	comment	NULL	adv	NULL	B_GADV	NOLINK	0	idtext0020	comment	#####	spk2	40.91	41.33	?	//

20091112_RATP_SCD_0715	18	1	comme	NULL	prep	NULL	B_GP	MOD	8	idtext0021	comme	#####	spk1	41.37	41.45	0.01	_
20091112_RATP_SCD_0715	18	2	ça	NULL	pro	NULL	B_GN	SUJ	3	idtext0021	ça	#####	spk1	41.46	41.56	0.01	_
20091112_RATP_SCD_0715	18	3	sera	NULL	v	NULL	B_GVf	ROOT	0	idtext0021	être	F#3##s##	spk1	41.57	41.75	0.01	_
20091112_RATP_SCD_0715	18	4	un	NULL	det	NULL	B_GN	DET	6	idtext0021	un	##m#s##i	spk1	41.76	41.85	0.01	_
20091112_RATP_SCD_0715	18	5	autre	NULL	adj	NULL	I_GN	MOD	6	idtext0021	autre	###s##	spk1	41.86	42.0	0.01	_
20091112_RATP_SCD_0715	18	6	service	NULL	nc	NULL	I_GN	ATS	3	idtext0021	service	##m#s##	spk1	42.01	42.34	0.01	_
20091112_RATP_SCD_0715	18	7	ça	NULL	pro	NULL	B_GN	SUJ_IMP	8	idtext0021	ça	#####	spk1	42.35	42.44	0.01	_
20091112_RATP_SCD_0715	18	8	sera	NULL	v	NULL	B_GVf	ROOT	0	idtext0021	être	F#3##s##	spk1	42.45	42.61	0.01	_
20091112_RATP_SCD_0715	18	9	le	NULL	det	NULL	B_GN	DET	10	idtext0021	le	##m#s##d	spk1	42.62	42.64	0.01	_
20091112_RATP_SCD_0715	18	10	service	NULL	nc	NULL	I_GN	ATS	8	idtext0021	service	##m#s##	spk1	42.65	42.95	0.01	_
20091112_RATP_SCD_0715	18	11	de	NULL	prep	NULL	B_GP	DEP	10	idtext0021	de	#####	spk1	42.96	43.07	0.01	_
20091112_RATP_SCD_0715	18	12	nuit	NULL	nc	NULL	I_GP	OBJ	11	idtext0021	nuit	##f#s##	spk1	43.08	43.51	0.29	/
20091112_RATP_SCD_0715	18	13	on	NULL	cln	NULL	B_GN	SUJ	14	idtext0022	cln	#3##s##	spk1	43.8	43.91	0.01	_
20091112_RATP_SCD_0715	18	14	sait	NULL	v	NULL	B_GVfn	ROOT	0	idtext0022	savoir	P#3##s##	spk1	43.92	44.06	0.01	_
20091112_RATP_SCD_0715	18	15	pas	NULL	advneg	NULL	I_GVfn	MOD	14	idtext0022	pas	#####	spk1	44.07	44.27	0.01	_
20091112_RATP_SCD_0715	18	16	si	NULL	csu	NULL	B_NULL	OBJ	14	idtext0022	si	#####	spk1	44.28	44.57	0.01	_
20091112_RATP_SCD_0715	18	17	euh	DISF_M	pres	NULL	NULL	NOLINK	0	idtext0022	euh	#####	spk1	44.58	44.74	0.01	_
20091112_RATP_SCD_0715	18	18	il	NULL	cln	NULL	B_GN	SUJ_IMP	20	idtext0022	cln	#3#m#s##	spk1	44.75	44.83	0.01	_
20091112_RATP_SCD_0715	18	19	y	NULL	clo	NULL	B_GN	AFF	20	idtext0022	y	#####	spk1	44.84	44.86	0.01	_
20091112_RATP_SCD_0715	18	20	aura	NULL	v	NULL	B_GVf	OBJ	16	idtext0022	avoir	F#3##s##	spk1	44.87	45.16	0.01	_
20091112_RATP_SCD_0715	18	21	plus	NULL	adv	NULL	B_GADV	MOD	20	idtext0022	plus	#####	spk1	45.17	45.42	0.01	_
20091112_RATP_SCD_0715	18	22	de	NULL	det	NULL	B_GN	DET	23	idtext0022	de	###p##i	spk1	45.43	45.54	0.01	_
20091112_RATP_SCD_0715	18	23	grévistes	NULL	nc	NULL	I_GN	OBJ	20	idtext0022	gréviste	###p##	spk1	45.55	45.94	0.01	//
20091112_RATP_SCD_0715	18	24	ou	DISF_R	coo	NULL	NULL	NOLINK	0	idtext0022	ou	#####	spk1	45.95	46.15	0.01	_
20091112_RATP_SCD_0715	18	25	ou	NULL	coo	NULL	B_NULL	COORD	20	idtext0022	ou	#####	spk1	46.16	46.29	0.01	_
20091112_RATP_SCD_0715	18	26	moins	NULL	adv	NULL	B_GADV	MOD	28	idtext0022	moins	#####	spk1	46.3	46.84	0.01	_
20091112_RATP_SCD_0715	18	27	on	NULL	cln	NULL	B_GN	SUJ	28	idtext0022	cln	#3##s##	spk1	46.85	46.94	0.01	_
20091112_RATP_SCD_0715	18	28	sait	NULL	v	NULL	B_GVfn	DEP_COORD	25	idtext0022	savoir	P#3##s##	spk1	46.95	47.07	0.01	_
20091112_RATP_SCD_0715	18	29	pas	NULL	advneg	NULL	I_GVfn	MOD	28	idtext0022	pas	#####	spk1	47.08	47.67	?	_

20091112_RATP_SCD_0715	19	1	hm	DISF_M	pres	NULL	NULL	NOLINK	0	idtext0023	hm	#####	spk2	47.85	47.97	0.01	_
20091112_RATP_SCD_0715	19	2	d'accord	NULL	adv	NULL	B_GADV	NOLINK	0	idtext0023	d'accord	#####	spk2	47.98	49.32	0.06	_
20091112_RATP_SCD_0715	19	3	OK	NULL	adv	NULL	B_GADV	NOLINK	0	idtext0024	ok	#####	spk2	49.38	49.67	0.01	_
20091112_RATP_SCD_0715	19	4	c'	NULL	cln	NULL	B_GN	SUJ_IMP	5	idtext0024	ce	###s##	spk2	49.68	49.76	0.01	_
20091112_RATP_SCD_0715	19	5	est	NULL	v	NULL	B_GVf	ROOT	0	idtext0024	être	P#3##s##	spk2	49.77	49.82	0.01	_
20091112_RATP_SCD_0715	19	6	ça	NULL	pro	NULL	B_GN	ATS	5	idtext0024	ça	#####	spk2	49.83	50.0	?	_

20091112_RATP_SCD_0715	20	1	merci	NULL	adv	NULL	B_GADV	NOLINK	0	idtext0025	merci	#####	spk2	50.04	50.37	?	//

20091112_RATP_SCD_0715	21	1	je	NULL	cln	NULL	B_GN	SUJ	4	idtext0026	cln	#1##s##	spk1	50.41	50.43	0.01	_
20091112_RATP_SCD_0715	21	2	vous	NULL	clo	NULL	B_GN	OBJ	4	idtext0026	cln	#2##p##	spk1	50.44	50.49	0.01	_
20091112_RATP_SCD_0715	21	3	en	NULL	clo	NULL	B_GN	DE_OBJ	4	idtext0026	en	#####	spk1	50.5	50.54	0.01	_
20091112_RATP_SCD_0715	21	4	prie	NULL	v	NULL	B_GVf	ROOT	0	idtext0026	prier	PS#13##s##	spk1	50.55	51.31	?	//

20091112_RATP_SCD_0715	22	1	bonne	NULL	adj	NULL	B_GN	MOD	2	idtext0027	bon	##f#s##	spk2	51.36	51.5	0.01	_
20091112_RATP_SCD_0715	22	2	journée	NULL	nc	NULL	I_GN	ROOT	0	idtext0027	journée	##f#s##	spk2	51.51	51.69	0.01	_
20091112_RATP_SCD_0715	22	3	au+revoir	NULL	adv	NULL	B_GADV	NOLINK	0	idtext0027	au+revoir	#####	spk2	51.7	51.91	?	//

20091112_RATP_SCD_0715	23	1	au+revoir	NULL	adv	NULL	B_GADV	NOLINK	0	idtext0028	au+revoir	#####	spk1	51.36	51.91	?	//

