20091112_RATP_SCD_0410	1	1	NNAAMMEE	NULL	np	B_HU	B_GN	ROOT	0	idtext0000	ANONYM	NULL	spk1	5.56	5.73	0.01	_
20091112_RATP_SCD_0410	1	2	bonjour	NULL	adv	NULL	B_GADV	NOLINK	0	idtext0001	bonjour	#####	spk1	5.74	6.79	?	//

20091112_RATP_SCD_0410	2	1	oui	NULL	adv	NULL	B_GADV	MOD	2	idtext0002	oui	#####	spk2	7.35	7.62	0.01	_
20091112_RATP_SCD_0410	2	2	bonjour	NULL	adv	NULL	I_GADV	ROOT	0	idtext0002	bonjour	#####	spk2	7.63	7.85	?	//

20091112_RATP_SCD_0410	3	1	monsieur	NULL	nc	NULL	B_GN	NOLINK	0	idtext0003	Monsieur	##m#s##	spk2	7.89	8.81	?	//

20091112_RATP_SCD_0410	4	1	bonjour	NULL	adv	NULL	B_GADV	NOLINK	0	idtext0004	bonjour	#####	spk1	7.96	8.18	0.01	_
20091112_RATP_SCD_0410	4	2	madame	NULL	nc	NULL	B_GN	NOLINK	0	idtext0004	Monsieur	##f#s##	spk1	8.19	8.81	?	//

20091112_RATP_SCD_0410	5	1	euh	DISF_M	pres	NULL	NULL	NOLINK	0	idtext0005	euh	#####	spk2	8.86	9.02	0.01	_
20091112_RATP_SCD_0410	5	2	je	NULL	cln	NULL	B_GN	SUJ	4	idtext0005	cln	#1##s##	spk2	9.03	9.24	0.01	_
20091112_RATP_SCD_0410	5	3	vous	NULL	clo	NULL	B_GN	OBJ	4	idtext0005	cln	#2##p##	spk2	9.25	9.38	0.01	_
20091112_RATP_SCD_0410	5	4	appelle	NULL	v	NULL	B_GVf	ROOT	0	idtext0005	appeler	PS#13##s##	spk2	9.39	9.62	0.01	_
20091112_RATP_SCD_0410	5	5	parce+que	NULL	csu	NULL	B_NULL	MOD	4	idtext0005	parce+que	#####	spk2	9.63	10.06	0.01	_
20091112_RATP_SCD_0410	5	6	j'	NULL	cln	NULL	B_GN	SUJ	8	idtext0005	cln	#1##s##	spk2	10.07	10.2	0.01	_
20091112_RATP_SCD_0410	5	7	ai	NULL	v	NULL	B_GVf	AUX	8	idtext0005	avoir	P#1##s##	spk2	10.21	10.57	0.01	_
20091112_RATP_SCD_0410	5	8	laissé	NULL	vppart	NULL	I_GVf	OBJ	5	idtext0005	laisser	K##m#s##	spk2	10.58	10.89	0.01	_
20091112_RATP_SCD_0410	5	9	un	NULL	det	NULL	B_GN	DET	10	idtext0005	un	##m#s##i	spk2	10.9	11.02	0.01	_
20091112_RATP_SCD_0410	5	10	sac	NULL	nc	NULL	I_GN	OBJ	8	idtext0005	sac	##m#s##	spk2	11.03	11.16	0.01	_
20091112_RATP_SCD_0410	5	11	dans	NULL	prep	NULL	B_GP	MOD	10	idtext0005	dans	#####	spk2	11.17	11.38	0.01	_
20091112_RATP_SCD_0410	5	12	le	NULL	det	NULL	I_GP	DET	13	idtext0005	le	##m#s##d	spk2	11.39	11.41	0.01	_
20091112_RATP_SCD_0410	5	13	métro	NULL	nc	NULL	I_GP	OBJ	11	idtext0005	métro	##m#s##	spk2	11.42	11.93	0.01	_
20091112_RATP_SCD_0410	5	14	euh	DISF_M	pres	NULL	NULL	NOLINK	0	idtext0005	euh	#####	spk2	11.94	12.36	0.01	_
20091112_RATP_SCD_0410	5	15	lundi	NULL	nc	NULL	B_GN	MOD	8	idtext0005	lundi	##m#s##	spk2	12.37	12.59	0.01	_
20091112_RATP_SCD_0410	5	16	dernier	NULL	adj	NULL	I_GN	MOD	15	idtext0005	dernier	##m#s##	spk2	12.6	13.13	0.01	_
20091112_RATP_SCD_0410	5	17	et	NULL	coo	NULL	B_NULL	COORD	8	idtext0005	et	#####	spk2	13.14	13.22	0.01	_
20091112_RATP_SCD_0410	5	18	on	NULL	cln	NULL	B_GN	SUJ_IMP	21	idtext0005	cln	#3##s##	spk2	13.23	13.27	0.01	_
20091112_RATP_SCD_0410	5	19	m'	NULL	clo	NULL	B_GN	A_OBJ	21	idtext0005	cla	#1##s##	spk2	13.28	13.37	0.01	_
20091112_RATP_SCD_0410	5	20	a	NULL	v	NULL	B_GVf	AUX	21	idtext0005	avoir	P#3##s##	spk2	13.38	13.41	0.01	_
20091112_RATP_SCD_0410	5	21	dit	NULL	vppart	NULL	I_GVf	DEP_COORD	17	idtext0005	dire	J#3##s##	spk2	13.42	13.59	0.01	_
20091112_RATP_SCD_0410	5	22	qu'	NULL	csu	NULL	B_NULL	OBJ	21	idtext0005	qu'	#####	spk2	13.6	13.66	0.01	_
20091112_RATP_SCD_0410	5	23	il	NULL	cln	NULL	B_GN	SUJ_IMP	25	idtext0005	cln	#3#m#s##	spk2	13.67	13.72	0.01	_
20091112_RATP_SCD_0410	5	24	y	NULL	clo	NULL	B_GN	AFF	25	idtext0005	y	#####	spk2	13.73	13.75	0.01	_
20091112_RATP_SCD_0410	5	25	avait	NULL	v	NULL	B_GVf	OBJ	22	idtext0005	avoir	I#3##s##	spk2	13.76	13.93	0.01	_
20091112_RATP_SCD_0410	5	26	un	NULL	det	NULL	B_GN	DET	27	idtext0005	un	##m#s##i	spk2	13.94	14.27	0.01	_
20091112_RATP_SCD_0410	5	27	service	NULL	nc	NULL	I_GN	OBJ	25	idtext0005	service	##m#s##	spk2	14.28	14.66	0.01	_
20091112_RATP_SCD_0410	5	28	d'	NULL	prep	NULL	B_GP	DEP	27	idtext0005	d'	#####	spk2	14.67	14.73	0.01	_
20091112_RATP_SCD_0410	5	29	objets	NULL	nc	NULL	I_GP	OBJ	28	idtext0005	objet	##m#p##	spk2	14.74	14.94	0.01	_
20091112_RATP_SCD_0410	5	30	trouvés	NULL	vppart	NULL	B_GVf	MOD	29	idtext0005	trouver	K##m#p##	spk2	14.95	15.25	0.01	_
20091112_RATP_SCD_0410	5	31	à	NULL	prep	NULL	B_GP	P_OBJ_LOC	29	idtext0005	à	#####	spk2	15.26	15.28	0.01	_
20091112_RATP_SCD_0410	5	32	la	NULL	det	NULL	I_GP	DET	33	idtext0005	le	##m#s##d	spk2	15.29	15.39	0.01	_
20091112_RATP_SCD_0410	5	33	RATP	NULL	np	B_ORG	I_GP	OBJ	31	idtext0005	RATP	##f#s##	spk2	15.4	15.9	?	//

20091112_RATP_SCD_0410	6	1	lundi	NULL	nc	NULL	B_GN	NOLINK	0	idtext0006	lundi	##m#s##	spk1	15.94	16.24	0.01	//
20091112_RATP_SCD_0410	6	2	cette	NULL	det	NULL	B_GN	DET	3	idtext0006	cet	##f#s##e	spk1	16.25	16.49	0.01	_
20091112_RATP_SCD_0410	6	3	semaine	NULL	nc	NULL	I_GN	ROOT	0	idtext0006	semaine	##f#s##	spk1	16.5	16.82	0.01	_
20091112_RATP_SCD_0410	6	4	alors	NULL	adv	NULL	B_GADV	NOLINK	0	idtext0006	alors	#####	spk1	16.83	17.06	0.01	_
20091112_RATP_SCD_0410	6	5	hein	DISF_M	pres	NULL	NULL	NOLINK	0	idtext0006	hein	#####	spk1	17.07	17.45	?	//

20091112_RATP_SCD_0410	7	1	oui	NULL	adv	NULL	B_GADV	NOLINK	0	idtext0007	oui	#####	spk2	17.63	17.82	0.01	_
20091112_RATP_SCD_0410	7	2	cette	NULL	det	NULL	B_GN	DET	3	idtext0007	cet	##f#s##e	spk2	17.83	18.0	0.01	_
20091112_RATP_SCD_0410	7	3	semaine	NULL	nc	NULL	I_GN	ROOT	0	idtext0007	semaine	##f#s##	spk2	18.01	18.27	0.01	_
20091112_RATP_SCD_0410	7	4	oui	NULL	adv	NULL	B_GADV	NOLINK	0	idtext0007	oui	#####	spk2	18.28	18.55	?	//

20091112_RATP_SCD_0410	8	1	sur	NULL	prep	NULL	B_GP	ROOT	0	idtext0008	sur	#####	spk1	18.67	18.81	0.01	_
20091112_RATP_SCD_0410	8	2	quelle	NULL	det	NULL	I_GP	DET	3	idtext0008	quel	##f#s##	spk1	18.82	19.02	0.01	_
20091112_RATP_SCD_0410	8	3	ligne	NULL	nc	NULL	I_GP	OBJ	1	idtext0008	ligne	##f#s##	spk1	19.03	19.61	?	//

20091112_RATP_SCD_0410	9	1	euh	DISF_M	pres	NULL	NULL	NOLINK	0	idtext0009	euh	#####	spk2	19.93	19.95	0.01	_
20091112_RATP_SCD_0410	9	2	c'	NULL	cln	NULL	B_GN	SUJ_IMP	3	idtext0009	ce	###s##	spk2	19.96	20.05	0.01	_
20091112_RATP_SCD_0410	9	3	est	NULL	v	NULL	B_GVf	ROOT	0	idtext0009	être	P#3##s##	spk2	20.06	20.19	0.01	_
20091112_RATP_SCD_0410	9	4	la	NULL	det	NULL	B_GN	DET	5	idtext0009	le	##m#s##d	spk2	20.2	20.28	0.01	_
20091112_RATP_SCD_0410	9	5	ligne	NULL	nc	NULL	I_GN	ATS	3	idtext0009	ligne	##f#s##	spk2	20.29	21.08	0.01	//
20091112_RATP_SCD_0410	9	6	euh	DISF_M	pres	NULL	NULL	NOLINK	0	idtext0009	euh	#####	spk2	21.09	21.14	0.01	_
20091112_RATP_SCD_0410	9	7	huit	NULL	nc	NULL	I_GN	MOD	5	idtext0009	huit	##m###	spk2	21.15	21.66	?	//

20091112_RATP_SCD_0410	10	1	huit	NULL	adj	NULL	B_GADJ	ROOT	0	idtext0010	huit	#####	spk1	21.75	21.87	0.01	_
20091112_RATP_SCD_0410	10	2	et	NULL	coo	NULL	B_NULL	COORD	1	idtext0010	et	#####	spk1	21.88	22.0	0.01	_
20091112_RATP_SCD_0410	10	3	c'	NULL	cln	NULL	B_GN	SUJ_IMP	4	idtext0010	ce	###s##	spk1	22.01	22.04	0.01	_
20091112_RATP_SCD_0410	10	4	est	NULL	v	NULL	B_GVf	DEP_COORD	2	idtext0010	être	P#3##s##	spk1	22.05	22.31	0.01	_
20091112_RATP_SCD_0410	10	5	un	NULL	det	NULL	B_GN	DET	6	idtext0010	un	##m#s##i	spk1	22.32	22.45	0.01	_
20091112_RATP_SCD_0410	10	6	sac	NULL	nc	NULL	I_GN	ATS	4	idtext0010	sac	##m#s##	spk1	22.46	22.71	0.01	_
20091112_RATP_SCD_0410	10	7	comment	NULL	adv	NULL	B_GADV	MOD	6	idtext0010	comment	#####	spk1	22.72	23.19	?	//

20091112_RATP_SCD_0410	11	1	c'	NULL	cln	NULL	B_GN	SUJ_IMP	2	idtext0011	ce	###s##	spk2	23.68	23.82	0.01	_
20091112_RATP_SCD_0410	11	2	est	NULL	v	NULL	B_GVf	ROOT	0	idtext0011	être	P#3##s##	spk2	23.83	23.96	0.01	_
20091112_RATP_SCD_0410	11	3	un	DISF_R	det	NULL	NULL	NOLINK	0	idtext0011	un	##m#s##i	spk2	23.97	24.65	0.01	_
20091112_RATP_SCD_0410	11	4	un	NULL	det	NULL	B_GN	DET	6	idtext0011	un	##m#s##i	spk2	24.66	24.98	0.01	_
20091112_RATP_SCD_0410	11	5	petit	NULL	adj	NULL	I_GN	MOD	6	idtext0011	petit	##m#s##	spk2	24.99	25.19	0.01	_
20091112_RATP_SCD_0410	11	6	sac	NULL	nc	NULL	I_GN	ATS	2	idtext0011	sac	##m#s##	spk2	25.2	25.39	0.01	_
20091112_RATP_SCD_0410	11	7	en	NULL	prep	NULL	B_GP	MOD	6	idtext0011	en	#####	spk2	25.4	25.48	0.01	_
20091112_RATP_SCD_0410	11	8	toile	NULL	nc	NULL	I_GP	OBJ	7	idtext0011	toile	##f#s##	spk2	25.49	25.84	0.01	/
20091112_RATP_SCD_0410	11	9	avec	NULL	prep	NULL	B_GP	P_OBJ	6	idtext0011	avec	#####	spk2	25.85	26.11	0.01	_
20091112_RATP_SCD_0410	11	10	une	NULL	det	NULL	I_GP	DET	11	idtext0011	un	##f#s##i	spk2	26.12	26.19	0.01	_
20091112_RATP_SCD_0410	11	11	paire	NULL	nc	NULL	I_GP	OBJ	9	idtext0011	paire	##f#s##	spk2	26.2	26.35	0.01	_
20091112_RATP_SCD_0410	11	12	de	NULL	prep	NULL	B_GP	DEP	11	idtext0011	de	#####	spk2	26.36	26.45	0.01	_
20091112_RATP_SCD_0410	11	13	chaussures	NULL	nc	NULL	I_GP	OBJ	12	idtext0011	chaussure	##f#p##	spk2	26.46	26.8	0.01	_
20091112_RATP_SCD_0410	11	14	dedans	NULL	adv	NULL	B_GADV	MOD	13	idtext0011	dedans	#####	spk2	26.81	27.27	?	//

20091112_RATP_SCD_0410	12	1	c'	NULL	cln	NULL	B_GN	SUJ_IMP	2	idtext0012	ce	###s##	spk1	27.32	27.44	0.01	_
20091112_RATP_SCD_0410	12	2	est	NULL	v	NULL	B_GVf	ROOT	0	idtext0012	être	P#3##s##	spk1	27.45	27.54	0.01	_
20091112_RATP_SCD_0410	12	3	tout	NULL	adv	NULL	B_GADV	ATS	2	idtext0012	tout	##m#s##	spk1	27.55	27.76	0.01	_
20091112_RATP_SCD_0410	12	4	hein	DISF_M	pres	NULL	NULL	NOLINK	0	idtext0012	hein	#####	spk1	27.77	28.21	?	//

20091112_RATP_SCD_0410	13	1	oui	NULL	adv	NULL	B_GADV	NOLINK	0	idtext0013	oui	#####	spk2	28.51	28.73	?	//

20091112_RATP_SCD_0410	14	1	c'	NULL	cln	NULL	B_GN	SUJ_IMP	2	idtext0014	ce	###s##	spk2	28.77	28.84	0.01	_
20091112_RATP_SCD_0410	14	2	est	NULL	v	NULL	B_GVf	ROOT	0	idtext0014	être	P#3##s##	spk2	28.85	29.12	0.01	_
20091112_RATP_SCD_0410	14	3	tout	NULL	adv	NULL	B_GADV	ATS	2	idtext0014	tout	##m#s##	spk2	29.13	29.42	0.01	_
20091112_RATP_SCD_0410	14	4	ouais	NULL	adv	NULL	I_GADV	NOLINK	0	idtext0014	ouais	#####	spk2	29.43	29.98	?	//

20091112_RATP_SCD_0410	15	1	vous	NULL	cln	NULL	B_GN	SUJ	4	idtext0015	cln	#2##p##	spk1	28.77	28.82	0.01	_
20091112_RATP_SCD_0410	15	2	m'	NULL	clo	NULL	B_GN	A_OBJ	4	idtext0015	cla	#1##s##	spk1	28.83	28.85	0.01	_
20091112_RATP_SCD_0410	15	3	avez	NULL	v	NULL	B_GVf	AUX	4	idtext0015	avoir	P#2##p##	spk1	28.86	28.95	0.01	_
20091112_RATP_SCD_0410	15	4	dit	NULL	vppart	NULL	I_GVf	ROOT	0	idtext0015	dire	J#3##s##	spk1	28.96	29.01	0.01	_
20091112_RATP_SCD_0410	15	5	que	NULL	csu	NULL	B_NULL	OBJ	4	idtext0015	que	#####	spk1	29.02	29.04	0.01	_
20091112_RATP_SCD_0410	15	6	c'	NULL	cln	NULL	B_GN	SUJ_IMP	7	idtext0015	ce	###s##	spk1	29.05	29.07	0.01	_
20091112_RATP_SCD_0410	15	7	était	NULL	v	NULL	B_GVf	OBJ	5	idtext0015	être	I#3##s##	spk1	29.08	29.27	0.01	_
20091112_RATP_SCD_0410	15	8	lundi	NULL	nc	NULL	B_GN	ATS	7	idtext0015	lundi	##m#s##	spk1	29.28	29.65	0.01	_
20091112_RATP_SCD_0410	15	9	hein	DISF_M	pres	NULL	NULL	NOLINK	0	idtext0015	hein	#####	spk1	29.66	29.98	?	//

20091112_RATP_SCD_0410	16	1	c'	NULL	cln	NULL	B_GN	SUJ_IMP	2	idtext0016	ce	###s##	spk2	30.22	30.36	0.01	_
20091112_RATP_SCD_0410	16	2	était	NULL	v	NULL	B_GVf	ROOT	0	idtext0016	être	I#3##s##	spk2	30.37	30.58	0.01	_
20091112_RATP_SCD_0410	16	3	lundi	NULL	nc	NULL	B_GN	ATS	2	idtext0016	lundi	##m#s##	spk2	30.59	30.9	0.01	_
20091112_RATP_SCD_0410	16	4	oui	NULL	adv	NULL	B_GADV	NOLINK	0	idtext0016	oui	#####	spk2	30.91	31.24	?	//

20091112_RATP_SCD_0410	17	1	je	NULL	cln	NULL	B_GN	SUJ	3	idtext0017	cln	#1##s##	spk1	31.43	31.6	0.01	_
20091112_RATP_SCD_0410	17	2	me	NULL	clr	NULL	B_GVf	AFF	3	idtext0017	cla	#1##s##	spk1	31.61	31.65	0.01	_
20091112_RATP_SCD_0410	17	3	renseigne	NULL	v	NULL	I_GVf	ROOT	0	idtext0017	renseigner	PS#13##s##	spk1	31.66	32.14	0.01	_
20091112_RATP_SCD_0410	17	4	hein	DISF_M	pres	NULL	NULL	NOLINK	0	idtext0017	hein	#####	spk1	32.15	32.18	0.01	_
20091112_RATP_SCD_0410	17	5	un	NULL	det	NULL	B_GN	DET	7	idtext0017	un	##m#s##i	spk1	32.19	32.25	0.01	_
20091112_RATP_SCD_0410	17	6	petit	NULL	adj	NULL	I_GN	MOD	7	idtext0017	petit	##m#s##	spk1	32.26	32.37	0.01	_
20091112_RATP_SCD_0410	17	7	instant	NULL	nc	NULL	I_GN	MOD	3	idtext0017	instant	##m#s##	spk1	32.38	32.59	?	//

20091112_RATP_SCD_0410	18	1	merci	NULL	adv	NULL	B_GADV	NOLINK	0	idtext0018	merci	#####	spk2	32.63	33.28	?	//

20091112_RATP_SCD_0410	19	1	madame	NULL	nc	NULL	B_GN	NOLINK	0	idtext0019	Monsieur	##f#s##	spk1	125.38	126.41	?	//

20091112_RATP_SCD_0410	20	1	oui	NULL	adv	NULL	B_GADV	NOLINK	0	idtext0020	oui	#####	spk2	126.56	126.79	?	//

20091112_RATP_SCD_0410	21	1	non	NULL	adv	NULL	B_GADV	NOLINK	0	idtext0021	non	#####	spk1	126.83	126.94	0.01	_
20091112_RATP_SCD_0410	21	2	écoutez	DISF_M	pres	NULL	NULL	NOLINK	0	idtext0021	écoutez	#####	spk1	126.95	127.22	0.01	_
20091112_RATP_SCD_0410	21	3	on	NULL	cln	NULL	B_GN	SUJ	5	idtext0021	cln	#3##s##	spk1	127.23	127.3	0.01	_
20091112_RATP_SCD_0410	21	4	n'	NULL	clneg	NULL	B_GVfn	MOD	5	idtext0021	n'	#####	spk1	127.31	127.35	0.01	_
20091112_RATP_SCD_0410	21	5	a	NULL	v	NULL	I_GVfn	ROOT	0	idtext0021	avoir	P#3##s##	spk1	127.36	127.43	0.01	_
20091112_RATP_SCD_0410	21	6	aucune	NULL	det	NULL	B_GN	DET	7	idtext0021	aucun	##f#s##i	spk1	127.44	127.75	0.01	_
20091112_RATP_SCD_0410	21	7	paire	NULL	nc	NULL	I_GN	OBJ	5	idtext0021	paire	##f#s##	spk1	127.76	127.93	0.01	_
20091112_RATP_SCD_0410	21	8	de	NULL	prep	NULL	B_GP	DEP	7	idtext0021	de	#####	spk1	127.94	128.05	0.01	_
20091112_RATP_SCD_0410	21	9	chaussures	NULL	nc	NULL	I_GP	OBJ	8	idtext0021	chaussure	##f#p##	spk1	128.06	128.51	0.01	_
20091112_RATP_SCD_0410	21	10	hein	DISF_M	pres	NULL	NULL	NOLINK	0	idtext0021	hein	#####	spk1	128.52	128.64	?	//

20091112_RATP_SCD_0410	22	1	ouais	NULL	adv	NULL	B_GADV	NOLINK	0	idtext0022	ouais	#####	spk2	129.09	129.36	?	//

20091112_RATP_SCD_0410	23	1	bon+ben	DISF_M	pres	NULL	NULL	NOLINK	0	idtext0023	bon+ben	#####	spk2	129.42	129.91	0.01	_
20091112_RATP_SCD_0410	23	2	tant+pis	NULL	adv	NULL	B_GADV	NOLINK	0	idtext0023	tant+pis	#####	spk2	129.92	130.88	?	//

20091112_RATP_SCD_0410	24	1	non	NULL	adv	NULL	B_GADV	NOLINK	0	idtext0024	non	#####	spk1	129.42	129.83	0.01	_
20091112_RATP_SCD_0410	24	2	on	NULL	cln	NULL	B_GN	SUJ	4	idtext0024	cln	#3##s##	spk1	129.84	129.92	0.01	_
20091112_RATP_SCD_0410	24	3	n'	NULL	clneg	NULL	B_GVfn	MOD	4	idtext0024	n'	#####	spk1	129.93	129.98	0.01	_
20091112_RATP_SCD_0410	24	4	a	NULL	v	NULL	I_GVfn	ROOT	0	idtext0024	avoir	P#3##s##	spk1	129.99	130.09	0.01	_
20091112_RATP_SCD_0410	24	5	pas	NULL	advneg	NULL	I_GVfn	MOD	4	idtext0024	pas	#####	spk1	130.1	130.24	0.01	_
20091112_RATP_SCD_0410	24	6	ça	NULL	pro	NULL	B_GN	OBJ	4	idtext0024	ça	#####	spk1	130.25	130.88	?	_

20091112_RATP_SCD_0410	25	1	merci	NULL	adv	NULL	B_GADV	MOD	2	idtext0025	merci	#####	spk2	130.92	131.2	0.01	_
20091112_RATP_SCD_0410	25	2	beaucoup	NULL	adv	NULL	I_GADV	ROOT	0	idtext0025	beaucoup	#####	spk2	131.21	131.63	?	//

20091112_RATP_SCD_0410	26	1	bonne	NULL	adj	NULL	B_GN	MOD	2	idtext0026	bon	##f#s##	spk1	131.67	131.77	0.01	_
20091112_RATP_SCD_0410	26	2	journée	NULL	nc	NULL	I_GN	ROOT	0	idtext0026	journée	##f#s##	spk1	131.78	132.37	?	//

20091112_RATP_SCD_0410	27	1	au+revoir	NULL	adv	NULL	B_GADV	NOLINK	0	idtext0027	au+revoir	#####	spk2	132.44	133.7	?	//

20091112_RATP_SCD_0410	28	1	au+revoir	NULL	adv	NULL	B_GADV	NOLINK	0	idtext0028	au+revoir	#####	spk1	132.44	133.7	?	//

