20091112_RATP_SCD_0550	1	1	NNAAMMEE	NULL	np	B_HU	B_GN	ROOT	0	idtext0000	ANONYM	NULL	spk1	6.68	6.87	0.06	_
20091112_RATP_SCD_0550	1	2	bonjour	NULL	adv	NULL	B_GADV	NOLINK	0	idtext0001	bonjour	#####	spk1	6.93	7.46	?	//

20091112_RATP_SCD_0550	2	1	euh	DISF_M	pres	NULL	NULL	NOLINK	0	idtext0002	euh	#####	spk2	7.67	7.71	0.01	_
20091112_RATP_SCD_0550	2	2	bonjour	NULL	adv	NULL	B_GADV	NOLINK	0	idtext0002	bonjour	#####	spk2	7.72	7.94	0.01	_
20091112_RATP_SCD_0550	2	3	monsieur	NULL	nc	NULL	B_GN	NOLINK	0	idtext0003	Monsieur	##m#s##	spk2	7.95	8.27	?	//

20091112_RATP_SCD_0550	3	1	je	NULL	cln	NULL	B_GN	SUJ	3	idtext0004	cln	#1##s##	spk2	8.82	9.0	0.01	_
20091112_RATP_SCD_0550	3	2	vous	NULL	clo	NULL	B_GN	OBJ	3	idtext0004	cln	#2##p##	spk2	9.01	9.16	0.01	_
20091112_RATP_SCD_0550	3	3	appelle	NULL	v	NULL	B_GVf	ROOT	0	idtext0004	appeler	PS#13##s##	spk2	9.17	9.6	0.01	_
20091112_RATP_SCD_0550	3	4	pour	NULL	prep	NULL	B_GP	P_OBJ	3	idtext0004	pour	#####	spk2	9.61	10.1	0.01	_
20091112_RATP_SCD_0550	3	5	euh	DISF_M	pres	NULL	NULL	NOLINK	0	idtext0004	euh	#####	spk2	10.11	10.48	0.01	_
20091112_RATP_SCD_0550	3	6	ma	DISF_R	det	NULL	NULL	NOLINK	0	idtext0004	mon	##f#s##o	spk2	10.49	10.96	0.01	_
20091112_RATP_SCD_0550	3	7	c()	DISF_T	tronc	NULL	NULL	NOLINK	0	idtext0004	c()	#####	spk2	10.97	11.3	0.01	_
20091112_RATP_SCD_0550	3	8	ma	NULL	det	NULL	I_GP	DET	9	idtext0004	mon	##f#s##o	spk2	11.31	11.44	0.01	_
20091112_RATP_SCD_0550	3	9	carte	NULL	nc	B_PRD	I_GP	OBJ	4	idtext0004	carte	##f#s##	spk2	11.45	11.7	0.01	_
20091112_RATP_SCD_0550	3	10	Navigo	NULL	np	I_PRD	I_GP	MOD	9	idtext0004	Navigo	#####	spk2	11.71	12.14	?	//

20091112_RATP_SCD_0550	4	1	et	NULL	coo	NULL	B_NULL	ROOT	0	idtext0005	et	#####	spk2	12.49	12.64	0.01	_
20091112_RATP_SCD_0550	4	2	que	NULL	csu	NULL	B_NULL	DEP_COORD	1	idtext0005	que	#####	spk2	12.65	12.74	?	_

20091112_RATP_SCD_0550	5	1	oui	NULL	adv	NULL	B_GADV	NOLINK	0	idtext0006	oui	#####	spk1	12.42	12.74	?	//

20091112_RATP_SCD_0550	6	1	j'	NULL	cln	NULL	B_GN	SUJ	2	idtext0007	cln	#1##s##	spk2	12.78	12.89	0.01	_
20091112_RATP_SCD_0550	6	2	ai	NULL	v	NULL	B_GVf	ROOT	0	idtext0007	avoir	P#1##s##	spk2	12.9	13.04	0.01	_
20091112_RATP_SCD_0550	6	3	annuelle	NULL	adj	NULL	B_GADJ	ATO	2	idtext0007	annuel	##f#s##	spk2	13.05	13.52	0.43	_
20091112_RATP_SCD_0550	6	4	et	NULL	coo	NULL	B_NULL	ROOT	0	idtext0008	et	#####	spk2	13.95	14.03	0.01	_
20091112_RATP_SCD_0550	6	5	j'	NULL	cln	NULL	B_GN	SUJ	6	idtext0008	cln	#1##s##	spk2	14.04	14.12	0.01	_
20091112_RATP_SCD_0550	6	6	ai	NULL	v	NULL	B_GVf	DEP_COORD	4	idtext0008	avoir	P#1##s##	spk2	14.13	14.18	0.01	_
20091112_RATP_SCD_0550	6	7	des	NULL	det	NULL	B_GN	DET	8	idtext0008	des	###p##i	spk2	14.19	14.38	0.01	_
20091112_RATP_SCD_0550	6	8	zones	NULL	nc	NULL	I_GN	OBJ	6	idtext0008	zone	##f#p##	spk2	14.39	14.59	0.01	_
20091112_RATP_SCD_0550	6	9	de	NULL	prep	NULL	B_NULL	DEP	8	idtext0008	de	#####	spk2	14.6	14.83	0.01	_
20091112_RATP_SCD_0550	6	10	un	NULL	det	NULL	B_NULL	MOD	8	idtext0008	un	##m#s##i	spk2	14.84	15.0	0.01	_
20091112_RATP_SCD_0550	6	11	à	NULL	prep	NULL	B_GP	DEP	10	idtext0008	à	#####	spk2	15.01	15.04	0.01	_
20091112_RATP_SCD_0550	6	12	six	NULL	nc	NULL	I_GP	OBJ	11	idtext0008	six	##m###	spk2	15.05	16.04	0.01	_
20091112_RATP_SCD_0550	6	13	et	NULL	coo	NULL	B_NULL	COORD	6	idtext0009	et	#####	spk2	16.05	16.1	0.01	_
20091112_RATP_SCD_0550	6	14	je	NULL	cln	NULL	B_GN	SUJ	15	idtext0009	cln	#1##s##	spk2	16.11	16.2	0.01	_
20091112_RATP_SCD_0550	6	15	voudrais	NULL	v	NULL	B_GVf	DEP_COORD	13	idtext0009	vouloir	C#12##s##	spk2	16.21	16.54	0.01	_
20091112_RATP_SCD_0550	6	16	mettre	NULL	vinf	NULL	I_GVf	OBJ	15	idtext0009	mettre	W#####	spk2	16.55	16.78	0.01	_
20091112_RATP_SCD_0550	6	17	maintenant	NULL	adv	NULL	B_GADV	MOD	15	idtext0009	maintenant	#####	spk2	16.79	17.22	0.01	/
20091112_RATP_SCD_0550	6	18	zones	NULL	nc	NULL	B_GN	OBJ	15	idtext0009	zone	##f#p##	spk2	17.23	17.38	0.01	_
20091112_RATP_SCD_0550	6	19	de	NULL	prep	NULL	B_NULL	DEP	18	idtext0009	de	#####	spk2	17.39	17.57	0.01	_
20091112_RATP_SCD_0550	6	20	un	NULL	det	NULL	B_NULL	OBJ	19	idtext0009	un	##m#s##i	spk2	17.58	17.79	0.01	_
20091112_RATP_SCD_0550	6	21	à	NULL	prep	NULL	B_GP	DEP	20	idtext0009	à	#####	spk2	17.8	17.94	0.01	_
20091112_RATP_SCD_0550	6	22	cinq	NULL	nc	NULL	I_GP	OBJ	21	idtext0009	cinq	##m###	spk2	17.95	18.53	?	_

20091112_RATP_SCD_0550	7	1	d'accord	NULL	adv	NULL	B_GADV	NOLINK	0	idtext0010	d'accord	#####	spk1	18.75	19.34	0.01	_
20091112_RATP_SCD_0550	7	2	il	DISF_R	cln	NULL	NULL	NOLINK	0	idtext0010	cln	#3#m#s##	spk1	19.35	19.43	0.01	_
20091112_RATP_SCD_0550	7	3	faudrait	DISF_R	v	NULL	NULL	NOLINK	0	idtext0010	falloir	C#3##s##	spk1	19.44	20.39	0.01	_
20091112_RATP_SCD_0550	7	4	non	DISF_M	pres	NULL	NULL	NOLINK	0	idtext0010	non	#####	spk1	20.4	20.45	0.01	_
20091112_RATP_SCD_0550	7	5	je	DISF_R	cln	NULL	NULL	NOLINK	0	idtext0010	cln	#1##s##	spk1	20.46	20.57	0.01	_
20091112_RATP_SCD_0550	7	6	sais	DISF_R	v	NULL	NULL	NOLINK	0	idtext0010	savoir	P#12##s##	spk1	20.58	20.83	0.01	_
20091112_RATP_SCD_0550	7	7	pas	DISF_R	advneg	NULL	NULL	NOLINK	0	idtext0010	pas	#####	spk1	20.84	20.89	0.01	_
20091112_RATP_SCD_0550	7	8	il	NULL	cln	NULL	B_GN	SUJ_IMP	9	idtext0010	cln	#3#m#s##	spk1	20.9	20.98	0.01	_
20091112_RATP_SCD_0550	7	9	faudrait	NULL	v	NULL	B_GVf	ROOT	0	idtext0010	falloir	C#3##s##	spk1	20.99	21.23	0.01	_
20091112_RATP_SCD_0550	7	10	passer	NULL	vinf	NULL	I_GVf	OBJ	9	idtext0010	passer	W#####	spk1	21.24	21.5	0.01	_
20091112_RATP_SCD_0550	7	11	directement	NULL	adv	NULL	B_GADV	MOD	9	idtext0010	directement	#####	spk1	21.51	21.99	0.01	_
20091112_RATP_SCD_0550	7	12	dans	NULL	prep	NULL	B_GP	P_OBJ_LOC	9	idtext0010	dans	#####	spk1	22.0	22.2	0.01	_
20091112_RATP_SCD_0550	7	13	une	NULL	det	NULL	I_GP	DET	14	idtext0010	un	##f#s##i	spk1	22.21	22.3	0.01	_
20091112_RATP_SCD_0550	7	14	agence	NULL	nc	NULL	I_GP	OBJ	12	idtext0010	agence	##f#s##	spk1	22.31	22.57	0.01	_
20091112_RATP_SCD_0550	7	15	commerciale	NULL	adj	NULL	I_GP	MOD	14	idtext0010	commercial	##f#s##	spk1	22.58	23.07	0.01	_
20091112_RATP_SCD_0550	7	16	madame	NULL	nc	NULL	B_GN	NOLINK	0	idtext0010	Monsieur	##f#s##	spk1	23.08	23.61	?	//

20091112_RATP_SCD_0550	8	1	ah+mince	NULL	pres	NULL	B_NULL	NOLINK	0	idtext0011	ah+mince	#####	spk2	24.42	25.1	?	//

20091112_RATP_SCD_0550	9	1	oui	NULL	adv	NULL	B_GADV	NOLINK	0	idtext0012	oui	#####	spk1	25.18	25.68	0.01	_
20091112_RATP_SCD_0550	9	2	en	NULL	prep	NULL	B_GP	MOD	7	idtext0012	en	#####	spk1	25.69	25.81	0.01	_
20091112_RATP_SCD_0550	9	3	agence	NULL	nc	NULL	I_GP	OBJ	2	idtext0012	agence	##f#s##	spk1	25.82	26.05	0.01	_
20091112_RATP_SCD_0550	9	4	commerciale	NULL	adj	NULL	I_GP	MOD	3	idtext0012	commercial	##f#s##	spk1	26.06	26.44	0.01	_
20091112_RATP_SCD_0550	9	5	ils	NULL	cln	NULL	B_GN	SUJ	7	idtext0012	cln	#3#m#p##	spk1	26.45	26.51	0.01	_
20091112_RATP_SCD_0550	9	6	vous	NULL	clo	NULL	B_GN	A_OBJ	7	idtext0012	cln	#2##p##	spk1	26.52	26.57	0.01	_
20091112_RATP_SCD_0550	9	7	font	NULL	v	NULL	B_GVf	ROOT	0	idtext0012	faire	P#3##p##	spk1	26.58	26.8	0.01	_
20091112_RATP_SCD_0550	9	8	le	DISF_R	det	NULL	NULL	NOLINK	0	idtext0012	le	##m#s##d	spk1	26.81	27.24	0.01	_
20091112_RATP_SCD_0550	9	9	le	NULL	det	NULL	B_GN	DET	10	idtext0012	le	##m#s##d	spk1	27.25	27.6	0.01	_
20091112_RATP_SCD_0550	9	10	changement	NULL	nc	NULL	I_GN	OBJ	7	idtext0012	changement	##m#s##	spk1	27.61	28.13	?	//

20091112_RATP_SCD_0550	10	1	et	NULL	coo	NULL	B_NULL	ROOT	0	idtext0013	et	#####	spk2	28.41	28.49	0.01	_
20091112_RATP_SCD_0550	10	2	ils	NULL	cln	NULL	B_GN	SUJ	4	idtext0013	cln	#3#m#p##	spk2	28.5	28.55	0.01	_
20091112_RATP_SCD_0550	10	3	le	NULL	clo	NULL	B_GN	OBJ	4	idtext0013	cla	#3#m#s##	spk2	28.56	28.62	0.01	_
20091112_RATP_SCD_0550	10	4	font	NULL	v	NULL	B_GVf	DEP_COORD	1	idtext0013	faire	P#3##p##	spk2	28.63	28.82	0.01	_
20091112_RATP_SCD_0550	10	5	tout+de+suite	NULL	adv	NULL	B_GADV	MOD	6	idtext0013	tout+de+suite	#####	spk2	28.83	29.22	0.01	_
20091112_RATP_SCD_0550	10	6	comment	NULL	adv	NULL	I_GADV	MOD	9	idtext0013	comment	#####	spk2	29.23	29.44	0.01	_
20091112_RATP_SCD_0550	10	7	ça	NULL	pro	NULL	B_GN	SUJ_IMP	9	idtext0013	ça	#####	spk2	29.45	29.55	0.01	_
20091112_RATP_SCD_0550	10	8	se	NULL	clr	NULL	B_GVf	AFF	9	idtext0013	se	#####	spk2	29.56	29.64	0.01	_
20091112_RATP_SCD_0550	10	9	passe	NULL	v	NULL	I_GVf	ROOT	0	idtext0013	passer	PS#13##s##	spk2	29.65	30.2	?	//

20091112_RATP_SCD_0550	11	1	euh	DISF_M	pres	NULL	NULL	NOLINK	0	idtext0014	euh	#####	spk1	30.83	31.39	0.01	_
20091112_RATP_SCD_0550	11	2	ça	NULL	pro	NULL	B_GN	SUJ_IMP	3	idtext0014	ça	#####	spk1	31.4	31.49	0.01	_
20091112_RATP_SCD_0550	11	3	serait	NULL	v	NULL	B_GVf	ROOT	0	idtext0014	être	C#3##s##	spk1	31.5	31.67	0.01	_
20091112_RATP_SCD_0550	11	4	pour	NULL	prep	NULL	B_GP	ATS	3	idtext0014	pour	#####	spk1	31.68	31.9	0.01	_
20091112_RATP_SCD_0550	11	5	un	NULL	det	NULL	I_GP	DET	6	idtext0014	un	##m#s##i	spk1	31.91	32.38	0.01	_
20091112_RATP_SCD_0550	11	6	changement	NULL	nc	NULL	I_GP	OBJ	4	idtext0014	changement	##m#s##	spk1	32.39	32.7	0.01	_
20091112_RATP_SCD_0550	11	7	à+partir+de	NULL	prep	NULL	B_NULL	P_OBJ	3	idtext0014	à+partir+de	#####	spk1	32.71	33.12	0.01	_
20091112_RATP_SCD_0550	11	8	quand	NULL	adv	NULL	B_GADV	OBJ	7	idtext0014	quand	#####	spk1	33.13	33.55	?	_

20091112_RATP_SCD_0550	12	1	ben	DISF_M	pres	NULL	NULL	NOLINK	0	idtext0015	ben	#####	spk2	33.62	33.74	0.01	_
20091112_RATP_SCD_0550	12	2	du	NULL	prep	NULL	B_GP	ROOT	0	idtext0015	du	#####	spk2	33.75	33.86	0.01	_
20091112_RATP_SCD_0550	12	3	premier	NULL	adj	NULL	I_GP	MOD	4	idtext0015	premier	##m#s##	spk2	33.87	34.12	0.01	_
20091112_RATP_SCD_0550	12	4	décembre	NULL	nc	NULL	I_GP	OBJ	2	idtext0015	décembre	##m#s##	spk2	34.13	34.77	?	//

20091112_RATP_SCD_0550	13	1	oui	NULL	adv	NULL	B_GADV	NOLINK	0	idtext0016	oui	#####	spk1	35.44	35.58	0.01	_
20091112_RATP_SCD_0550	13	2	donc	NULL	coo	NULL	B_NULL	ROOT	0	idtext0016	donc	#####	spk1	35.59	35.82	0.01	_
20091112_RATP_SCD_0550	13	3	ils	NULL	cln	NULL	B_GN	SUJ	5	idtext0016	cln	#3#m#p##	spk1	35.83	35.92	0.01	_
20091112_RATP_SCD_0550	13	4	le	NULL	clo	NULL	B_GN	OBJ	5	idtext0016	cla	#3#m#s##	spk1	35.93	36.01	0.01	_
20091112_RATP_SCD_0550	13	5	feront	NULL	v	NULL	B_GVf	DEP_COORD	2	idtext0016	faire	F#3##p##	spk1	36.02	36.31	0.01	_
20091112_RATP_SCD_0550	13	6	pour	NULL	prep	NULL	B_GP	P_OBJ	5	idtext0016	pour	#####	spk1	36.32	36.55	0.01	_
20091112_RATP_SCD_0550	13	7	le	NULL	det	NULL	I_GP	DET	9	idtext0016	le	##m#s##d	spk1	36.56	36.8	0.01	_
20091112_RATP_SCD_0550	13	8	premier	NULL	adj	NULL	I_GP	MOD	9	idtext0016	premier	##m#s##	spk1	36.81	37.16	0.01	_
20091112_RATP_SCD_0550	13	9	décembre	NULL	nc	NULL	I_GP	OBJ	6	idtext0016	décembre	##m#s##	spk1	37.17	37.41	0.01	_
20091112_RATP_SCD_0550	13	10	oui	NULL	adv	NULL	B_GADV	NOLINK	0	idtext0016	oui	#####	spk1	37.42	37.61	?	//

20091112_RATP_SCD_0550	14	1	euh	DISF_M	pres	NULL	NULL	NOLINK	0	idtext0017	euh	#####	spk1	38.39	38.84	?	//

20091112_RATP_SCD_0550	15	1	maintenant	NULL	adv	NULL	B_GADV	MOD	3	idtext0018	maintenant	#####	spk2	38.31	38.65	0.01	_
20091112_RATP_SCD_0550	15	2	on	NULL	cln	NULL	B_GN	SUJ_IMP	3	idtext0018	cln	#3##s##	spk2	38.66	38.68	0.01	_
20091112_RATP_SCD_0550	15	3	peut	NULL	v	NULL	B_GVf	ROOT	0	idtext0018	pouvoir	P#3##s##	spk2	38.69	38.84	?	//

20091112_RATP_SCD_0550	16	1	plus	NULL	advneg	NULL	B_GVfn	NOLINK	0	idtext0019	plus	#####	spk2	38.88	39.0	0.01	_
20091112_RATP_SCD_0550	16	2	le	NULL	clo	NULL	B_GN	OBJ	3	idtext0019	cla	#3#m#s##	spk2	39.01	39.03	0.01	_
20091112_RATP_SCD_0550	16	3	faire	NULL	vinf	NULL	B_GVi	ROOT	0	idtext0019	faire	W#####	spk2	39.04	39.25	0.01	_
20091112_RATP_SCD_0550	16	4	euh	DISF_M	pres	NULL	NULL	NOLINK	0	idtext0019	euh	#####	spk2	39.26	39.28	0.01	_
20091112_RATP_SCD_0550	16	5	par	NULL	prep	NULL	B_GP	P_OBJ	3	idtext0019	par	#####	spk2	39.29	39.56	0.01	_
20091112_RATP_SCD_0550	16	6	téléphone	NULL	nc	NULL	I_GP	OBJ	5	idtext0019	téléphone	##m#s##	spk2	39.57	40.2	0.01	_
20091112_RATP_SCD_0550	16	7	ça	NULL	pro	NULL	I_GP	OBJ	3	idtext0019	ça	#####	spk2	40.21	40.54	?	_

20091112_RATP_SCD_0550	17	1	hum	DISF_M	pres	NULL	NULL	NOLINK	0	idtext0020	hum	#####	spk1	41.04	41.97	?	//

20091112_RATP_SCD_0550	18	1	oh	DISF_M	pres	NULL	NULL	NOLINK	0	idtext0021	oh	#####	spk2	40.85	41.01	0.01	//
20091112_RATP_SCD_0550	18	2	parce+que	NULL	csu	NULL	B_NULL	NOLINK	0	idtext0021	parce+que	#####	spk2	41.02	41.97	?	_

20091112_RATP_SCD_0550	19	1	j'	NULL	cln	NULL	B_GN	SUJ	2	idtext0022	cln	#1##s##	spk2	42.01	42.15	0.01	_
20091112_RATP_SCD_0550	19	2	ai	NULL	v	NULL	B_GVfn	ROOT	0	idtext0022	avoir	P#1##s##	spk2	42.16	42.26	0.01	_
20091112_RATP_SCD_0550	19	3	pas	NULL	advneg	NULL	I_GVfn	MOD	2	idtext0022	pas	#####	spk2	42.27	42.41	0.01	_
20091112_RATP_SCD_0550	19	4	de	NULL	prep	NULL	B_NULL	OBJ	2	idtext0022	de	#####	spk2	42.42	42.75	?	_

20091112_RATP_SCD_0550	20	1	pourquoi	NULL	adv	NULL	B_GADV	NOLINK	0	idtext0023	pourquoi	#####	spk1	42.8	43.0	0.01	_
20091112_RATP_SCD_0550	20	2	vous	NULL	cln	NULL	B_GN	SUJ	6	idtext0023	cln	#2##p##	spk1	43.01	43.06	0.01	_
20091112_RATP_SCD_0550	20	3	l'	NULL	clo	NULL	B_GN	OBJ	6	idtext0023	cla	#3##s##	spk1	43.07	43.09	0.01	_
20091112_RATP_SCD_0550	20	4	avez	NULL	v	NULL	B_GVf	AUX	6	idtext0023	avoir	P#2##p##	spk1	43.1	43.18	0.01	_
20091112_RATP_SCD_0550	20	5	déjà	NULL	adv	NULL	I_GVf	MOD	6	idtext0023	déjà	#####	spk1	43.19	43.36	0.01	_
20091112_RATP_SCD_0550	20	6	fait	NULL	vppart	NULL	I_GVf	ROOT	0	idtext0023	faire	P#3##s##	spk1	43.37	43.47	0.01	_
20091112_RATP_SCD_0550	20	7	par	NULL	prep	NULL	B_GP	P_OBJ	6	idtext0023	par	#####	spk1	43.48	43.6	0.01	_
20091112_RATP_SCD_0550	20	8	téléphone	NULL	nc	NULL	I_GP	OBJ	7	idtext0023	téléphone	##m#s##	spk1	43.61	44.13	?	//

20091112_RATP_SCD_0550	21	1	oui	NULL	adv	NULL	B_GADV	NOLINK	0	idtext0024	oui	#####	spk2	44.17	44.29	0.01	_
20091112_RATP_SCD_0550	21	2	je	NULL	cln	NULL	B_GN	SUJ	6	idtext0024	cln	#1##s##	spk2	44.3	44.32	0.01	_
20091112_RATP_SCD_0550	21	3	l'	NULL	clo	NULL	B_GN	OBJ	6	idtext0024	cla	#3##s##	spk2	44.33	44.35	0.01	_
20091112_RATP_SCD_0550	21	4	ai	NULL	v	NULL	B_GVf	AUX	6	idtext0024	avoir	P#1##s##	spk2	44.36	44.42	0.01	_
20091112_RATP_SCD_0550	21	5	déjà	NULL	adv	NULL	I_GVf	MOD	6	idtext0024	déjà	#####	spk2	44.43	44.58	0.01	_
20091112_RATP_SCD_0550	21	6	fait	NULL	vppart	NULL	I_GVf	ROOT	0	idtext0024	faire	P#3##s##	spk2	44.59	44.75	0.01	_
20091112_RATP_SCD_0550	21	7	par	NULL	prep	NULL	B_GP	P_OBJ	6	idtext0024	par	#####	spk2	44.76	45.0	0.01	_
20091112_RATP_SCD_0550	21	8	téléphone	NULL	nc	NULL	I_GP	OBJ	7	idtext0024	téléphone	##m#s##	spk2	45.01	45.47	0.01	_
20091112_RATP_SCD_0550	21	9	oui	NULL	adv	NULL	B_GADV	NOLINK	0	idtext0024	oui	#####	spk2	45.48	45.63	?	//

20091112_RATP_SCD_0550	22	1	alors	NULL	adv	NULL	B_GADV	NOLINK	0	idtext0025	alors	#####	spk1	45.72	45.99	0.01	_
20091112_RATP_SCD_0550	22	2	je	NULL	cln	NULL	B_GN	SUJ	3	idtext0025	cln	#1##s##	spk1	46.0	46.06	0.01	_
20091112_RATP_SCD_0550	22	3	vais	NULL	v	NULL	B_GVf	ROOT	0	idtext0025	aller	P#1##s##	spk1	46.07	46.12	0.01	_
20091112_RATP_SCD_0550	22	4	vous	NULL	clo	NULL	B_GN	A_OBJ	5	idtext0025	cln	#2##p##	spk1	46.13	46.22	0.01	_
20091112_RATP_SCD_0550	22	5	communiquer	NULL	vinf	NULL	B_GVi	OBJ	3	idtext0025	communiquer	W#####	spk1	46.23	46.68	0.01	_
20091112_RATP_SCD_0550	22	6	le	NULL	det	NULL	B_GN	DET	7	idtext0025	le	##m#s##d	spk1	46.69	46.71	0.01	_
20091112_RATP_SCD_0550	22	7	numéro	NULL	nc	NULL	I_GN	OBJ	5	idtext0025	numéro	##m#s##	spk1	46.72	47.15	0.01	_
20091112_RATP_SCD_0550	22	8	du	NULL	prep	NULL	B_GP	DEP	7	idtext0025	du	#####	spk1	47.16	47.24	0.01	_
20091112_RATP_SCD_0550	22	9	centre	NULL	nc	NULL	I_GP	OBJ	8	idtext0025	centre	##m#s##	spk1	47.25	47.6	0.01	_
20091112_RATP_SCD_0550	22	10	de	NULL	prep	NULL	B_GP	DEP	9	idtext0025	de	#####	spk1	47.61	47.73	0.01	_
20091112_RATP_SCD_0550	22	11	gestion	NULL	nc	NULL	I_GP	OBJ	10	idtext0025	gestion	##f#s##	spk1	47.74	48.33	0.19	/
20091112_RATP_SCD_0550	22	12	s'	NULL	csu	NULL	B_NULL	ROOT	0	idtext0026	se	#3##p##	spk1	48.52	48.55	0.01	_
20091112_RATP_SCD_0550	22	13	ils	NULL	cln	NULL	B_GN	SUJ	15	idtext0026	cln	#3#m#p##	spk1	48.56	48.65	0.01	_
20091112_RATP_SCD_0550	22	14	le	NULL	clo	NULL	B_GN	OBJ	15	idtext0026	cla	#3#m#s##	spk1	48.66	48.69	0.01	_
20091112_RATP_SCD_0550	22	15	font	NULL	v	NULL	B_GVf	OBJ	12	idtext0026	faire	P#3##p##	spk1	48.7	48.9	0.01	_
20091112_RATP_SCD_0550	22	16	par	NULL	prep	NULL	B_GP	P_OBJ	15	idtext0026	par	#####	spk1	48.91	49.1	0.01	_
20091112_RATP_SCD_0550	22	17	téléphone	NULL	nc	NULL	I_GP	OBJ	16	idtext0026	téléphone	##m#s##	spk1	49.11	49.73	?	//

20091112_RATP_SCD_0550	23	1	oui	NULL	adv	NULL	B_GADV	NOLINK	0	idtext0027	oui	#####	spk2	49.78	50.1	?	//

20091112_RATP_SCD_0550	24	1	c'	NULL	cln	NULL	B_GN	SUJ_IMP	2	idtext0028	ce	###s##	spk1	50.18	50.2	0.01	_
20091112_RATP_SCD_0550	24	2	est	NULL	v	NULL	B_GVf	ROOT	0	idtext0028	être	P#3##s##	spk1	50.21	50.24	0.01	_
20091112_RATP_SCD_0550	24	3	le	NULL	det	NULL	B_GN	DET	4	idtext0028	le	##m#s##d	spk1	50.25	50.4	0.01	_
20091112_RATP_SCD_0550	24	4	zéro+huit+onze	NULL	nc	B_TEL	I_GN	ATS	2	idtext0028	zéro+huit+onze	#####	spk1	50.41	51.53	?	//

20091112_RATP_SCD_0550	25	1	zéro+huit+onze	NULL	nc	B_TEL	B_GN	NOLINK	0	idtext0029	zéro+huit+onze	#####	spk2	51.85	52.91	?	_

20091112_RATP_SCD_0550	26	1	cinquante-cinq+cinquante-cinq+vingt	NULL	nc	NULL	B_GN	NOLINK	0	idtext0030	cinquante-cinq+cinquante-cinq+vingt	#####	spk1	53.0	54.64	?	//

20091112_RATP_SCD_0550	27	1	cinquante-cinq+vingt	NULL	nc	NULL	B_GN	ROOT	0	idtext0031	cinquante-cinq+vingt	#####	spk2	55.28	56.64	?	//

20091112_RATP_SCD_0550	28	1	oui	NULL	adv	NULL	B_GADV	NOLINK	0	idtext0032	oui	#####	spk1	56.84	56.97	?	//

20091112_RATP_SCD_0550	29	1	hum	DISF_M	pres	NULL	NULL	NOLINK	0	idtext0033	hum	#####	spk2	57.07	57.26	0.01	_
20091112_RATP_SCD_0550	29	2	d'accord	NULL	adv	NULL	B_GADV	NOLINK	0	idtext0033	d'accord	#####	spk2	57.27	57.7	?	//

20091112_RATP_SCD_0550	30	1	ben	DISF_M	pres	NULL	NULL	NOLINK	0	idtext0034	ben	#####	spk2	57.75	57.85	0.01	_
20091112_RATP_SCD_0550	30	2	je	NULL	cln	NULL	B_GN	SUJ	4	idtext0034	cln	#1##s##	spk2	57.86	57.91	0.01	_
20091112_RATP_SCD_0550	30	3	vous	NULL	clo	NULL	B_GN	OBJ	4	idtext0034	cln	#2##p##	spk2	57.92	57.97	0.01	_
20091112_RATP_SCD_0550	30	4	remercie	NULL	v	NULL	B_GVf	ROOT	0	idtext0034	remercier	PS#13##s##	spk2	57.98	58.31	0.01	_
20091112_RATP_SCD_0550	30	5	beaucoup	NULL	adv	NULL	B_GADV	MOD	6	idtext0034	beaucoup	#####	spk2	58.32	58.59	0.01	_
20091112_RATP_SCD_0550	30	6	au+revoir	NULL	adv	NULL	I_GADV	ROOT	0	idtext0034	au+revoir	#####	spk2	58.6	59.11	0.01	_
20091112_RATP_SCD_0550	30	7	monsieur	NULL	nc	NULL	B_GN	NOLINK	0	idtext0034	Monsieur	##m#s##	spk2	59.12	59.42	?	//

20091112_RATP_SCD_0550	31	1	je	NULL	cln	NULL	B_GN	SUJ	4	idtext0035	cln	#1##s##	spk1	57.84	58.31	0.01	_
20091112_RATP_SCD_0550	31	2	vous	NULL	clo	NULL	B_GN	OBJ	4	idtext0035	cln	#2##p##	spk1	58.32	58.61	0.01	_
20091112_RATP_SCD_0550	31	3	en	NULL	clo	NULL	B_GN	DE_OBJ	4	idtext0035	en	#####	spk1	58.62	58.68	0.01	_
20091112_RATP_SCD_0550	31	4	prie	NULL	v	NULL	B_GVf	ROOT	0	idtext0035	prier	PS#13##s##	spk1	58.69	58.86	0.01	_
20091112_RATP_SCD_0550	31	5	madame	NULL	nc	NULL	B_GN	NOLINK	0	idtext0035	Monsieur	##f#s##	spk1	58.87	59.42	?	//

20091112_RATP_SCD_0550	32	1	bonne	NULL	adj	NULL	B_GN	MOD	2	idtext0036	bon	##f#s##	spk1	59.46	59.55	0.01	_
20091112_RATP_SCD_0550	32	2	journée	NULL	nc	NULL	I_GN	ROOT	0	idtext0036	journée	##f#s##	spk1	59.56	59.9	0.01	_
20091112_RATP_SCD_0550	32	3	au+revoir	NULL	adv	NULL	B_GADV	NOLINK	0	idtext0036	au+revoir	#####	spk1	59.91	60.29	?	//

