20091112_RATP_SCD_0338	1	1	service	NULL	nc	NULL	B_GN	ROOT	0	idtext0000	service	##m#s##	spk1	2.12	3.55	0.01	_
20091112_RATP_SCD_0338	1	2	d'	NULL	prep	NULL	B_GP	DEP	1	idtext0000	d'	#####	spk1	3.56	3.66	0.01	_
20091112_RATP_SCD_0338	1	3	accueil	NULL	nc	NULL	I_GP	OBJ	2	idtext0000	accueil	##m#s##	spk1	3.67	4.92	0.01	_
20091112_RATP_SCD_0338	1	4	VGC	NULL	np	B_ORG	I_GP	MOD	3	idtext0000	VGC	#####	spk1	4.93	5.74	0.01	_
20091112_RATP_SCD_0338	1	5	bonjour	NULL	adv	NULL	B_GADV	NOLINK	0	idtext0000	bonjour	#####	spk1	5.75	6.18	?	//

20091112_RATP_SCD_0338	2	1	bonjour	NULL	adv	NULL	B_GADV	NOLINK	0	idtext0001	bonjour	#####	spk2	6.22	6.85	?	//

20091112_RATP_SCD_0338	3	1	bonjour	NULL	adv	NULL	B_GADV	NOLINK	0	idtext0002	bonjour	#####	spk1	6.89	7.04	0.01	_
20091112_RATP_SCD_0338	3	2	madame	NULL	nc	NULL	B_GN	NOLINK	0	idtext0002	Monsieur	##f#s##	spk1	7.05	7.44	?	//

20091112_RATP_SCD_0338	4	1	euh	DISF_M	pres	NULL	NULL	NOLINK	0	idtext0003	euh	#####	spk2	7.48	7.94	0.01	_
20091112_RATP_SCD_0338	4	2	NNAAMMEE	NULL	np	B_HU	B_GN	ROOT	0	idtext0004	ANONYM	NULL	spk2	7.95	8.72	0.01	_
20091112_RATP_SCD_0338	4	3	INGSVO	NULL	nc	NULL	B_GN	ROOT	0	idtext0005	INGSVO	#####	spk2	8.73	10.07	0.01	_
20091112_RATP_SCD_0338	4	4	une	NULL	det	NULL	B_GN	DET	6	idtext0006	un	##f#s##i	spk2	10.08	10.3	0.01	_
20091112_RATP_SCD_0338	4	5	petite	NULL	adj	NULL	I_GN	MOD	6	idtext0006	petit	##f#s##	spk2	10.31	10.6	0.01	_
20091112_RATP_SCD_0338	4	6	question	NULL	nc	NULL	I_GN	MOD	3	idtext0006	question	##f#s##	spk2	10.61	11.11	0.01	_
20091112_RATP_SCD_0338	4	7	pour	NULL	prep	NULL	B_GP	ROOT	0	idtext0006	pour	#####	spk2	11.12	11.27	0.01	_
20091112_RATP_SCD_0338	4	8	les	NULL	det	NULL	I_GP	DET	9	idtext0006	le	###p##d	spk2	11.28	11.35	0.01	_
20091112_RATP_SCD_0338	4	9	renouvellements	NULL	nc	NULL	I_GP	OBJ	7	idtext0006	renouvellement	##m#p##	spk2	11.36	11.88	0.01	_
20091112_RATP_SCD_0338	4	10	de	NULL	prep	NULL	B_GP	DEP	9	idtext0006	de	#####	spk2	11.89	12.05	0.01	_
20091112_RATP_SCD_0338	4	11	carte	NULL	nc	NULL	I_GP	OBJ	10	idtext0006	carte	##f#s##	spk2	12.06	13.25	0.01	_
20091112_RATP_SCD_0338	4	12	euh	DISF_M	pres	NULL	NULL	NOLINK	0	idtext0006	euh	#####	spk2	13.26	13.52	0.01	_
20091112_RATP_SCD_0338	4	13	ayant-droit	NULL	nc	NULL	I_GP	NOLINK	0	idtext0006	ayant-droit	###s##	spk2	13.53	14.26	?	//

20091112_RATP_SCD_0338	5	1	oui	NULL	adv	NULL	B_GADV	NOLINK	0	idtext0007	oui	#####	spk1	14.35	14.8	?	//

20091112_RATP_SCD_0338	6	1	euh	DISF_M	pres	NULL	NULL	NOLINK	0	idtext0008	euh	#####	spk2	15.6	15.96	0.01	_
20091112_RATP_SCD_0338	6	2	il	NULL	cln	NULL	B_GN	SUJ_IMP	3	idtext0008	cln	#3#m#s##	spk2	15.97	16.05	0.01	_
20091112_RATP_SCD_0338	6	3	faut	NULL	v	NULL	B_GVf	ROOT	0	idtext0008	falloir	P#3##s##	spk2	16.06	16.3	0.01	_
20091112_RATP_SCD_0338	6	4	utiliser	NULL	vinf	NULL	I_GVf	OBJ	3	idtext0008	utiliser	W#####	spk2	16.31	16.7	0.01	_
20091112_RATP_SCD_0338	6	5	le	NULL	det	NULL	B_GN	DET	6	idtext0008	le	##m#s##d	spk2	16.71	16.78	0.01	_
20091112_RATP_SCD_0338	6	6	formulaire	NULL	nc	NULL	I_GN	OBJ	4	idtext0008	formulaire	##m#s##	spk2	16.79	17.23	0.01	_
20091112_RATP_SCD_0338	6	7	classique	NULL	adj	NULL	B_GN	MOD	8	idtext0008	classique	###s##	spk2	17.24	17.61	0.01	/
20091112_RATP_SCD_0338	6	8	carte	NULL	nc	NULL	I_GN	ROOT	0	idtext0008	carte	##f#s##	spk2	17.62	17.81	0.01	_
20091112_RATP_SCD_0338	6	9	de	NULL	prep	NULL	B_GP	DEP	8	idtext0008	de	#####	spk2	17.82	17.91	0.01	_
20091112_RATP_SCD_0338	6	10	famille	NULL	nc	NULL	I_GP	OBJ	9	idtext0008	famille	##f#s##	spk2	17.92	18.24	0.01	_
20091112_RATP_SCD_0338	6	11	mais	NULL	coo	NULL	B_NULL	COORD	3	idtext0008	mais	#####	spk2	18.25	18.33	0.01	_
20091112_RATP_SCD_0338	6	12	est-ce+qu'	NULL	pri	NULL	B_NULL	NOLINK	0	idtext0008	est-ce+qu'	#####	spk2	18.34	18.5	0.01	_
20091112_RATP_SCD_0338	6	13	il	NULL	cln	NULL	B_GN	SUJ_IMP	14	idtext0008	cln	#3#m#s##	spk2	18.51	18.56	0.01	_
20091112_RATP_SCD_0338	6	14	faut	NULL	v	NULL	B_GVf	DEP_COORD	11	idtext0008	falloir	P#3##s##	spk2	18.57	18.76	0.01	_
20091112_RATP_SCD_0338	6	15	remettre	NULL	vinf	NULL	I_GVf	OBJ	14	idtext0008	remettre	W#####	spk2	18.77	19.15	0.01	_
20091112_RATP_SCD_0338	6	16	une	NULL	det	NULL	B_GN	DET	17	idtext0008	un	##f#s##i	spk2	19.16	19.21	0.01	_
20091112_RATP_SCD_0338	6	17	photo	NULL	nc	NULL	I_GN	OBJ	15	idtext0008	photo	##f#s##	spk2	19.22	20.0	?	//

20091112_RATP_SCD_0338	7	1	ah	DISF_M	pres	NULL	NULL	NOLINK	0	idtext0009	ah	#####	spk1	20.12	20.35	0.01	_
20091112_RATP_SCD_0338	7	2	bonne	NULL	adj	NULL	B_GN	MOD	3	idtext0009	bon	##f#s##	spk1	20.36	20.54	0.01	_
20091112_RATP_SCD_0338	7	3	question	NULL	nc	NULL	I_GN	SUJ	5	idtext0009	question	##f#s##	spk1	20.55	21.44	0.01	_
20091112_RATP_SCD_0338	7	4	c'	NULL	cln	NULL	B_GN	SUJ_IMP	5	idtext0009	ce	###s##	spk1	21.45	21.49	0.01	_
20091112_RATP_SCD_0338	7	5	est	NULL	v	NULL	B_GVf	ROOT	0	idtext0009	être	P#3##s##	spk1	21.5	21.58	0.01	_
20091112_RATP_SCD_0338	7	6	quelqu'un	NULL	pro	NULL	B_GN	ATS	5	idtext0009	quelqu'un	#####	spk1	21.59	22.32	0.01	_
20091112_RATP_SCD_0338	7	7	euh	DISF_M	pres	NULL	NULL	NOLINK	0	idtext0009	euh	#####	spk1	22.33	23.09	0.01	_
20091112_RATP_SCD_0338	7	8	oui	NULL	adv	NULL	B_GADV	NOLINK	0	idtext0009	oui	#####	spk1	23.1	23.22	0.01	_
20091112_RATP_SCD_0338	7	9	c'	NULL	cln	NULL	B_GN	SUJ_IMP	10	idtext0009	ce	###s##	spk1	23.23	23.32	0.01	_
20091112_RATP_SCD_0338	7	10	est	NULL	v	NULL	B_GVf	ROOT	0	idtext0009	être	P#3##s##	spk1	23.33	23.47	0.01	_
20091112_RATP_SCD_0338	7	11	un	DISF_R	det	NULL	NULL	NOLINK	0	idtext0009	un	##m#s##i	spk1	23.48	24.69	0.01	_
20091112_RATP_SCD_0338	7	12	une	NULL	det	NULL	B_GN	DET	13	idtext0010	un	##f#s##i	spk1	24.7	25.46	0.01	_
20091112_RATP_SCD_0338	7	13	carte	NULL	nc	NULL	I_GN	ATS	10	idtext0010	carte	##f#s##	spk1	25.47	25.67	0.01	_
20091112_RATP_SCD_0338	7	14	pour	NULL	prep	NULL	B_GP	P_OBJ	13	idtext0010	pour	#####	spk1	25.68	25.77	0.01	_
20091112_RATP_SCD_0338	7	15	les	NULL	det	NULL	I_GP	DET	16	idtext0010	le	###p##d	spk1	25.78	25.84	0.01	_
20091112_RATP_SCD_0338	7	16	Famille+d'Agent	NULL	np	B_PRD	I_GP	OBJ	14	idtext0010	Famille+d'Agent	#####	spk1	25.85	26.36	0.01	_
20091112_RATP_SCD_0338	7	17	c'	NULL	cln	NULL	B_GN	SUJ_IMP	18	idtext0010	ce	###s##	spk1	26.37	26.39	0.01	_
20091112_RATP_SCD_0338	7	18	est	NULL	v	NULL	B_GVf	ROOT	0	idtext0010	être	P#3##s##	spk1	26.4	26.42	0.01	_
20091112_RATP_SCD_0338	7	19	ça	NULL	pro	NULL	B_GN	ATS	18	idtext0010	ça	#####	spk1	26.43	26.5	?	_

20091112_RATP_SCD_0338	8	1	voilà	DISF_M	pres	NULL	NULL	NOLINK	0	idtext0011	voilà	#####	spk2	26.57	26.86	0.01	_
20091112_RATP_SCD_0338	8	2	c'	NULL	cln	NULL	B_GN	SUJ_IMP	3	idtext0011	ce	###s##	spk2	26.87	26.89	0.01	_
20091112_RATP_SCD_0338	8	3	est	NULL	v	NULL	B_GVf	ROOT	0	idtext0011	être	P#3##s##	spk2	26.9	27.01	0.01	_
20091112_RATP_SCD_0338	8	4	ça	NULL	pro	NULL	B_GN	ATS	3	idtext0011	ça	#####	spk2	27.02	27.19	0.01	_
20091112_RATP_SCD_0338	8	5	oui	NULL	adv	NULL	B_GADV	NOLINK	0	idtext0011	oui	#####	spk2	27.2	27.95	?	/

20091112_RATP_SCD_0338	9	1	d'accord	NULL	adv	NULL	B_GADV	NOLINK	0	idtext0012	d'accord	#####	spk1	27.99	28.35	0.01	_
20091112_RATP_SCD_0338	9	2	et	NULL	coo	NULL	B_NULL	ROOT	0	idtext0012	et	#####	spk1	28.36	28.4	0.01	_
20091112_RATP_SCD_0338	9	3	vous	NULL	cln	NULL	B_GN	SUJ	4	idtext0012	cln	#2##p##	spk1	28.41	28.61	0.01	_
20091112_RATP_SCD_0338	9	4	êtes	NULL	v	NULL	B_GVf	DEP_COORD	2	idtext0012	être	P#2##p##	spk1	28.62	28.73	0.01	_
20091112_RATP_SCD_0338	9	5	quel	NULL	det	NULL	B_GN	DET	6	idtext0012	quel	##m#s##	spk1	28.74	28.9	0.01	//
20091112_RATP_SCD_0338	9	6	service	NULL	nc	NULL	I_GN	ATS	4	idtext0012	service	##m#s##	spk1	28.91	29.32	0.01	_
20091112_RATP_SCD_0338	9	7	vous	NULL	clo	NULL	B_GN	NOLINK	0	idtext0012	cln	#2##p##	spk1	29.33	29.62	?	_

20091112_RATP_SCD_0338	10	1	euh	DISF_M	pres	NULL	NULL	NOLINK	0	idtext0013	euh	#####	spk2	29.72	29.92	0.01	_
20091112_RATP_SCD_0338	10	2	INGSVO	NULL	nc	NULL	B_GN	NOLINK	0	idtext0013	INGSVO	#####	spk2	29.93	31.69	?	//

20091112_RATP_SCD_0338	11	1	INGSVO	NULL	nc	NULL	B_GN	NOLINK	0	idtext0014	INGSVO	#####	spk1	31.73	33.3	0.01	_
20091112_RATP_SCD_0338	11	2	alors	NULL	adv	NULL	B_GADV	NOLINK	0	idtext0014	alors	#####	spk1	33.31	33.63	0.01	_
20091112_RATP_SCD_0338	11	3	c'	NULL	cln	NULL	B_GN	SUJ_IMP	4	idtext0014	ce	###s##	spk1	33.64	33.67	0.01	_
20091112_RATP_SCD_0338	11	4	est	NULL	v	NULL	B_GVf	ROOT	0	idtext0014	être	P#3##s##	spk1	33.68	33.73	0.01	_
20091112_RATP_SCD_0338	11	5	quel	NULL	det	NULL	B_GN	DET	6	idtext0014	quel	##m#s##	spk1	33.74	33.89	0.01	_
20091112_RATP_SCD_0338	11	6	service	NULL	nc	NULL	I_GN	ATS	4	idtext0014	service	##m#s##	spk1	33.9	34.33	0.01	//
20091112_RATP_SCD_0338	11	7	ça	NULL	pro	NULL	I_GN	SUJ_IMP	9	idtext0014	ça	#####	spk1	34.34	34.46	0.01	_
20091112_RATP_SCD_0338	11	8	c'	NULL	cln	NULL	B_GN	SUJ_IMP	9	idtext0014	ce	###s##	spk1	34.47	34.58	0.01	_
20091112_RATP_SCD_0338	11	9	est	NULL	v	NULL	B_GVf	ROOT	0	idtext0014	être	P#3##s##	spk1	34.59	35.24	0.01	_
20091112_RATP_SCD_0338	11	10	ingénierie	NULL	nc	NULL	B_GN	ATS	9	idtext0014	ingénierie	##f#s##	spk1	35.25	35.74	0.01	_
20091112_RATP_SCD_0338	11	11	c'	NULL	cln	NULL	B_GN	SUJ_IMP	12	idtext0014	ce	###s##	spk1	35.75	35.83	0.01	_
20091112_RATP_SCD_0338	11	12	est	NULL	v	NULL	B_GVf	ROOT	0	idtext0014	être	P#3##s##	spk1	35.84	35.87	0.01	_
20091112_RATP_SCD_0338	11	13	ça	NULL	pro	NULL	B_GN	ATS	12	idtext0014	ça	#####	spk1	35.88	36.03	?	_

20091112_RATP_SCD_0338	12	1	ingénierie	NULL	nc	NULL	B_GN	NOLINK	0	idtext0015	ingénierie	##f#s##	spk2	36.07	36.32	0.01	_
20091112_RATP_SCD_0338	12	2	voilà	DISF_M	pres	NULL	NULL	NOLINK	0	idtext0015	voilà	#####	spk2	36.33	36.49	?	//

20091112_RATP_SCD_0338	13	1	ah	DISF_M	pres	NULL	NULL	NOLINK	0	idtext0016	ah	#####	spk1	36.53	36.67	0.01	_
20091112_RATP_SCD_0338	13	2	oui	NULL	adv	NULL	B_GN	MOD	3	idtext0016	oui	#####	spk1	36.68	36.94	0.01	_
20091112_RATP_SCD_0338	13	3	d'accord	NULL	adv	NULL	I_GN	MOD	4	idtext0016	d'accord	#####	spk1	36.95	37.89	0.01	_
20091112_RATP_SCD_0338	13	4	alors	NULL	adv	NULL	I_GN	ROOT	0	idtext0016	alors	#####	spk1	37.9	38.09	0.01	_
20091112_RATP_SCD_0338	13	5	bonne	NULL	adj	NULL	I_GN	MOD	6	idtext0016	bon	##f#s##	spk1	38.1	38.27	0.01	_
20091112_RATP_SCD_0338	13	6	question	NULL	nc	NULL	I_GN	ROOT	0	idtext0016	question	##f#s##	spk1	38.28	38.66	0.01	/
20091112_RATP_SCD_0338	13	7	normalement	NULL	adv	NULL	B_GADV	MOD	9	idtext0016	normalement	#####	spk1	38.67	40.76	0.01	_
20091112_RATP_SCD_0338	13	8	euh	DISF_M	pres	NULL	NULL	NOLINK	0	idtext0016	euh	#####	spk1	40.77	41.67	0.01	_
20091112_RATP_SCD_0338	13	9	alors	NULL	adv	NULL	I_GADV	ROOT	0	idtext0016	alors	#####	spk1	41.68	41.91	0.01	_
20091112_RATP_SCD_0338	13	10	ce+que	NULL	prorel	NULL	B_NULL	OBJ	12	idtext0016	ce+que	#####	spk1	41.92	42.11	0.01	_
20091112_RATP_SCD_0338	13	11	je	NULL	cln	NULL	B_GN	SUJ	12	idtext0016	cln	#1##s##	spk1	42.12	42.18	0.01	_
20091112_RATP_SCD_0338	13	12	vais	NULL	v	NULL	B_GVf	ROOT	0	idtext0016	aller	P#1##s##	spk1	42.19	42.25	0.01	_
20091112_RATP_SCD_0338	13	13	faire	NULL	vinf	NULL	I_GVf	OBJ	12	idtext0016	faire	W#####	spk1	42.26	42.44	0.01	_
20091112_RATP_SCD_0338	13	14	parce+que	NULL	csu	NULL	B_NULL	MOD	12	idtext0016	parce+que	#####	spk1	42.45	42.62	0.01	_
20091112_RATP_SCD_0338	13	15	là	NULL	adv	NULL	B_GADV	NOLINK	0	idtext0016	là	#####	spk1	42.63	42.71	0.01	_
20091112_RATP_SCD_0338	13	16	vous	NULL	cln	NULL	B_GN	SUJ	17	idtext0016	cln	#2##p##	spk1	42.72	42.88	0.01	_
20091112_RATP_SCD_0338	13	17	êtes	NULL	v	NULL	B_GVf	OBJ	14	idtext0016	être	P#2##p##	spk1	42.89	42.98	0.01	_
20091112_RATP_SCD_0338	13	18	sur	NULL	prep	NULL	B_GP	ATS	17	idtext0016	sur	#####	spk1	42.99	43.12	0.01	_
20091112_RATP_SCD_0338	13	19	l'	NULL	det	NULL	I_GP	DET	20	idtext0016	le	###s##d	spk1	43.13	43.17	0.01	_
20091112_RATP_SCD_0338	13	20	accueil	NULL	nc	NULL	I_GP	OBJ	18	idtext0016	accueil	##m#s##	spk1	43.18	43.43	0.01	_
20091112_RATP_SCD_0338	13	21	du	NULL	prep	NULL	B_GP	DEP	20	idtext0016	du	#####	spk1	43.44	43.56	0.01	_
20091112_RATP_SCD_0338	13	22	service	NULL	nc	NULL	I_GP	OBJ	21	idtext0016	service	##m#s##	spk1	43.57	43.95	0.01	_
20091112_RATP_SCD_0338	13	23	VGC	NULL	np	B_ORG	I_GP	MOD	22	idtext0016	VGC	#####	spk1	43.96	44.56	?	//

20091112_RATP_SCD_0338	14	1	ah	DISF_M	pres	NULL	NULL	NOLINK	0	idtext0017	ah	#####	spk2	44.64	44.76	0.01	_
20091112_RATP_SCD_0338	14	2	d'accord	NULL	adv	NULL	B_GADV	NOLINK	0	idtext0017	d'accord	#####	spk2	44.77	45.16	?	_

20091112_RATP_SCD_0338	15	1	euh	DISF_M	pres	NULL	NULL	NOLINK	0	idtext0018	euh	#####	spk1	45.2	45.22	0.01	_
20091112_RATP_SCD_0338	15	2	je	NULL	cln	NULL	B_GN	SUJ	3	idtext0018	cln	#1##s##	spk1	45.23	45.61	0.01	_
20091112_RATP_SCD_0338	15	3	vais	NULL	v	NULL	B_GVf	ROOT	0	idtext0018	aller	P#1##s##	spk1	45.62	45.68	0.01	_
20091112_RATP_SCD_0338	15	4	tenter	NULL	vinf	NULL	I_GVf	OBJ	3	idtext0018	tenter	W#####	spk1	45.69	45.96	0.01	_
20091112_RATP_SCD_0338	15	5	d'	NULL	prep	NULL	B_GP	OBJ	3	idtext0018	d'	#####	spk1	45.97	46.02	0.01	_
20091112_RATP_SCD_0338	15	6	avoir	NULL	vinf	NULL	I_GP	OBJ	5	idtext0018	avoir	W#####	spk1	46.03	46.24	0.01	_
20091112_RATP_SCD_0338	15	7	la	DISF_R	det	NULL	NULL	NOLINK	0	idtext0018	le	##m#s##d	spk1	46.25	46.41	0.01	_
20091112_RATP_SCD_0338	15	8	la	NULL	det	NULL	B_GN	DET	9	idtext0018	le	##m#s##d	spk1	46.42	46.51	0.01	_
20091112_RATP_SCD_0338	15	9	réponse	NULL	nc	NULL	I_GN	OBJ	6	idtext0018	réponse	##f#s##	spk1	46.52	46.87	0.01	_
20091112_RATP_SCD_0338	15	10	auprès	NULL	prep	NULL	B_NULL	NOLINK	0	idtext0018	auprès	#####	spk1	46.88	47.11	0.01	_
20091112_RATP_SCD_0338	15	11	d'	DISF_R	prep	NULL	NULL	NOLINK	0	idtext0018	d'	#####	spk1	47.12	47.19	0.01	_
20091112_RATP_SCD_0338	15	12	un	DISF_R	det	NULL	NULL	NOLINK	0	idtext0018	un	##m#s##i	spk1	47.2	47.43	0.01	_
20091112_RATP_SCD_0338	15	13	d'	NULL	prep	NULL	B_GP	MOD	6	idtext0018	d'	#####	spk1	47.44	47.49	0.01	_
20091112_RATP_SCD_0338	15	14	un	NULL	det	NULL	I_GP	DET	15	idtext0018	un	##m#s##i	spk1	47.5	47.6	0.01	_
20091112_RATP_SCD_0338	15	15	agent	NULL	nc	NULL	I_GP	OBJ	13	idtext0018	agent	###s##	spk1	47.61	47.84	0.01	_
20091112_RATP_SCD_0338	15	16	qui	NULL	prorel	NULL	B_NULL	SUJ	18	idtext0018	qui	#####	spk1	47.85	47.9	0.01	_
20091112_RATP_SCD_0338	15	17	est	NULL	v	NULL	B_GVf	AUX	18	idtext0018	être	P#3##s##	spk1	47.91	47.94	0.01	_
20091112_RATP_SCD_0338	15	18	chargé	NULL	vppart	NULL	I_GVf	MOD_REL	15	idtext0018	charger	K##m#s##	spk1	47.95	48.23	0.01	_
20091112_RATP_SCD_0338	15	19	des	NULL	det	NULL	B_NULL	MOD	6	idtext0018	des	###p##i	spk1	48.24	49.19	0.01	_
20091112_RATP_SCD_0338	15	20	hein	DISF_M	pres	NULL	NULL	NOLINK	0	idtext0019	hein	#####	spk1	49.2	49.33	0.01	_
20091112_RATP_SCD_0338	15	21	de	NULL	prep	NULL	B_GP	DEP	19	idtext0019	de	#####	spk1	49.34	49.36	0.01	_
20091112_RATP_SCD_0338	15	22	la	NULL	det	NULL	I_GP	DET	23	idtext0019	le	##m#s##d	spk1	49.37	49.66	0.01	_
20091112_RATP_SCD_0338	15	23	fabrication	NULL	nc	NULL	I_GP	OBJ	21	idtext0019	fabrication	##f#s##	spk1	49.67	50.18	0.01	_
20091112_RATP_SCD_0338	15	24	des	NULL	prep	NULL	B_GP	DEP	23	idtext0019	des	#####	spk1	50.19	50.26	0.01	_
20091112_RATP_SCD_0338	15	25	titres	NULL	nc	NULL	I_GP	OBJ	24	idtext0019	titre	##m#p##	spk1	50.27	50.48	0.01	_
20091112_RATP_SCD_0338	15	26	de	NULL	prep	NULL	B_GP	DEP	25	idtext0019	de	#####	spk1	50.49	50.51	0.01	_
20091112_RATP_SCD_0338	15	27	transport	NULL	nc	NULL	I_GP	OBJ	26	idtext0019	transport	##m#s##	spk1	50.52	50.95	0.01	_
20091112_RATP_SCD_0338	15	28	hein	DISF_M	pres	NULL	NULL	NOLINK	0	idtext0019	hein	#####	spk1	50.96	51.16	?	//

20091112_RATP_SCD_0338	16	1	d'accord	NULL	adv	NULL	B_GADV	NOLINK	0	idtext0020	d'accord	#####	spk2	51.22	51.52	?	//

20091112_RATP_SCD_0338	17	1	en+fait	GREF	adv	NULL	B_GADV	NOLINK	0	idtext0021	en+fait	#####	spk1	51.56	51.64	0.01	_
20091112_RATP_SCD_0338	17	2	vous	NULL	cln	NULL	B_GN	SUJ	3	idtext0021	cln	#2##p##	spk1	51.65	51.7	0.01	_
20091112_RATP_SCD_0338	17	3	avez	NULL	v	NULL	B_GVf	ROOT	0	idtext0021	avoir	P#2##p##	spk1	51.71	51.83	0.01	_
20091112_RATP_SCD_0338	17	4	le	NULL	det	NULL	B_GN	DET	5	idtext0021	le	##m#s##d	spk1	51.84	51.86	0.01	_
20091112_RATP_SCD_0338	17	5	formulaire	NULL	nc	NULL	I_GN	OBJ	3	idtext0021	formulaire	##m#s##	spk1	51.87	52.64	0.01	_
20091112_RATP_SCD_0338	17	6	c'	NULL	cln	NULL	B_GN	SUJ_IMP	7	idtext0021	ce	###s##	spk1	52.65	52.68	0.01	_
20091112_RATP_SCD_0338	17	7	est	NULL	v	NULL	B_GVf	ROOT	0	idtext0021	être	P#3##s##	spk1	52.69	52.72	0.01	_
20091112_RATP_SCD_0338	17	8	ça	NULL	pro	NULL	B_GN	ATS	7	idtext0021	ça	#####	spk1	52.73	53.07	?	_

20091112_RATP_SCD_0338	18	1	voilà	DISF_M	pres	NULL	NULL	NOLINK	0	idtext0022	voilà	#####	spk2	53.13	53.39	?	//

20091112_RATP_SCD_0338	19	1	et	NULL	coo	NULL	B_NULL	ROOT	0	idtext0023	et	#####	spk1	53.43	53.45	0.01	_
20091112_RATP_SCD_0338	19	2	vous	NULL	cln	NULL	B_GN	SUJ	3	idtext0023	cln	#2##p##	spk1	53.46	53.51	0.01	_
20091112_RATP_SCD_0338	19	3	voulez	NULL	v	NULL	B_GVf	DEP_COORD	1	idtext0023	vouloir	P#2##p##	spk1	53.52	53.63	0.01	_
20091112_RATP_SCD_0338	19	4	savoir	NULL	vinf	NULL	I_GVf	OBJ	3	idtext0023	savoir	W#####	spk1	53.64	53.9	0.01	_
20091112_RATP_SCD_0338	19	5	si	NULL	csu	NULL	B_NULL	OBJ	4	idtext0023	si	#####	spk1	53.91	54.25	0.01	_
20091112_RATP_SCD_0338	19	6	euh	DISF_M	pres	NULL	NULL	NOLINK	0	idtext0023	euh	#####	spk1	54.26	54.35	0.01	_
20091112_RATP_SCD_0338	19	7	il	NULL	cln	NULL	B_GN	SUJ_IMP	8	idtext0023	cln	#3#m#s##	spk1	54.36	54.43	0.01	_
20091112_RATP_SCD_0338	19	8	faut	NULL	v	NULL	B_GVf	OBJ	5	idtext0023	falloir	P#3##s##	spk1	54.44	54.62	0.01	_
20091112_RATP_SCD_0338	19	9	remettre	NULL	vinf	NULL	I_GVf	OBJ	8	idtext0023	remettre	W#####	spk1	54.63	54.95	0.01	_
20091112_RATP_SCD_0338	19	10	une	NULL	det	NULL	B_GN	DET	11	idtext0023	un	##f#s##i	spk1	54.96	55.02	0.01	_
20091112_RATP_SCD_0338	19	11	photo	NULL	nc	NULL	I_GN	OBJ	9	idtext0023	photo	##f#s##	spk1	55.03	55.46	?	//

20091112_RATP_SCD_0338	20	1	oui	NULL	adv	NULL	B_GADV	NOLINK	0	idtext0024	oui	#####	spk2	55.5	55.6	0.01	_
20091112_RATP_SCD_0338	20	2	parce+que	NULL	csu	NULL	B_NULL	NOLINK	0	idtext0024	parce+que	#####	spk2	55.61	55.77	?	_

20091112_RATP_SCD_0338	21	1	pour	NULL	prep	NULL	B_GP	ROOT	0	idtext0025	pour	#####	spk1	55.78	55.78	0.00	_
20091112_RATP_SCD_0338	21	2	faire	NULL	vinf	NULL	I_GP	OBJ	1	idtext0025	faire	W#####	spk1	55.78	55.78	0.00	_
20091112_RATP_SCD_0338	21	3	la	NULL	det	NULL	B_GN	DET	4	idtext0025	le	##m#s##d	spk1	55.78	55.78	0.00	_
20091112_RATP_SCD_0338	21	4	demande	NULL	nc	NULL	I_GN	OBJ	2	idtext0025	demande	##f#s##	spk1	55.78	56.08	?	//

20091112_RATP_SCD_0338	22	1	comme	NULL	adv	NULL	B_GADV	MOD	4	idtext0026	comme	#####	spk2	56.17	56.29	0.01	_
20091112_RATP_SCD_0338	22	2	pour	NULL	prep	NULL	B_GP	ROOT	0	idtext0026	pour	#####	spk2	56.3	56.43	0.01	_
20091112_RATP_SCD_0338	22	3	les	NULL	det	NULL	I_GP	DET	4	idtext0026	le	###p##d	spk2	56.44	56.62	0.01	_
20091112_RATP_SCD_0338	22	4	agents	NULL	nc	NULL	I_GP	OBJ	2	idtext0026	agent	###p##	spk2	56.63	57.05	0.01	_
20091112_RATP_SCD_0338	22	5	y	NULL	clo	NULL	B_GN	AFF	6	idtext0026	y	#####	spk2	57.06	57.24	0.01	_
20091112_RATP_SCD_0338	22	6	a	NULL	v	NULL	B_GVf	OBJ	1	idtext0026	avoir	P#3##s##	spk2	57.25	57.27	0.01	_
20091112_RATP_SCD_0338	22	7	déjà	NULL	adv	NULL	B_GADV	MOD	9	idtext0026	déjà	#####	spk2	57.28	57.51	0.01	_
20091112_RATP_SCD_0338	22	8	la	NULL	det	NULL	B_GN	DET	9	idtext0026	le	##m#s##d	spk2	57.52	57.61	0.01	_
20091112_RATP_SCD_0338	22	9	photo	NULL	nc	NULL	I_GN	OBJ	6	idtext0026	photo	##f#s##	spk2	57.62	57.9	0.01	_
20091112_RATP_SCD_0338	22	10	et	NULL	coo	NULL	B_NULL	COORD	6	idtext0026	et	#####	spk2	57.91	57.96	0.01	_
20091112_RATP_SCD_0338	22	11	ils	NULL	cln	NULL	B_GN	SUJ	13	idtext0026	cln	#3#m#p##	spk2	57.97	58.19	0.01	_
20091112_RATP_SCD_0338	22	12	la	NULL	clo	NULL	B_GN	OBJ	13	idtext0026	cla	#3#f#s##	spk2	58.2	58.28	0.01	_
20091112_RATP_SCD_0338	22	13	scannent	NULL	v	NULL	B_GVf	DEP_COORD	10	idtext0026	scanner	PS#3##p##	spk2	58.29	58.85	?	//

20091112_RATP_SCD_0338	23	1	oui	NULL	adv	NULL	B_GADV	NOLINK	0	idtext0027	oui	#####	spk1	58.9	59.3	?	//

20091112_RATP_SCD_0338	24	1	je	NULL	cln	NULL	B_GN	SUJ	2	idtext0028	cln	#1##s##	spk2	59.34	59.36	0.01	_
20091112_RATP_SCD_0338	24	2	sais	NULL	v	NULL	B_GVfn	ROOT	0	idtext0028	savoir	P#12##s##	spk2	59.37	59.45	0.01	_
20091112_RATP_SCD_0338	24	3	pas	NULL	advneg	NULL	I_GVfn	MOD	2	idtext0028	pas	#####	spk2	59.46	59.74	0.01	_
20091112_RATP_SCD_0338	24	4	s'	NULL	csu	NULL	B_NULL	OBJ	2	idtext0028	se	#3##p##	spk2	59.75	59.77	0.01	_
20091112_RATP_SCD_0338	24	5	ils	NULL	cln	NULL	B_GN	SUJ	6	idtext0028	cln	#3#m#p##	spk2	59.78	59.83	0.01	_
20091112_RATP_SCD_0338	24	6	font	NULL	v	NULL	B_GVf	OBJ	4	idtext0028	faire	P#3##p##	spk2	59.84	59.97	0.01	_
20091112_RATP_SCD_0338	24	7	pareil	NULL	adj	NULL	B_GADJ	ATS	6	idtext0028	pareil	##m#s##	spk2	59.98	60.55	0.01	_
20091112_RATP_SCD_0338	24	8	pour	NULL	prep	NULL	B_GP	P_OBJ	7	idtext0028	pour	#####	spk2	60.56	60.64	0.01	_
20091112_RATP_SCD_0338	24	9	les	DISF_R	det	NULL	NULL	NOLINK	0	idtext0028	le	###p##d	spk2	60.65	60.71	0.01	_
20091112_RATP_SCD_0338	24	10	les	NULL	det	NULL	I_GP	DET	11	idtext0028	le	###p##d	spk2	60.72	60.82	0.01	_
20091112_RATP_SCD_0338	24	11	ayant-droit	NULL	nc	NULL	I_GP	OBJ	8	idtext0028	ayant-droit	###s##	spk2	60.83	61.28	?	//

20091112_RATP_SCD_0338	25	1	pour	NULL	prep	NULL	B_GP	ROOT	0	idtext0029	pour	#####	spk1	61.32	61.4	0.01	_
20091112_RATP_SCD_0338	25	2	les	NULL	det	NULL	I_GP	DET	3	idtext0029	le	###p##d	spk1	61.41	61.46	0.01	_
20091112_RATP_SCD_0338	25	3	ayant-droit	NULL	nc	NULL	I_GP	OBJ	1	idtext0029	ayant-droit	###s##	spk1	61.47	61.91	?	//

20091112_RATP_SCD_0338	26	1	hm	DISF_M	pres	NULL	NULL	NOLINK	0	idtext0030	hm	#####	spk2	61.99	62.39	?	//

20091112_RATP_SCD_0338	27	1	ouais	NULL	adv	NULL	B_GADV	NOLINK	0	idtext0031	ouais	#####	spk1	62.47	62.66	0.01	_
20091112_RATP_SCD_0338	27	2	c'	NULL	cln	NULL	B_GN	SUJ_IMP	3	idtext0031	ce	###s##	spk1	62.67	62.78	0.01	_
20091112_RATP_SCD_0338	27	3	est	NULL	v	NULL	B_GVf	ROOT	0	idtext0031	être	P#3##s##	spk1	62.79	62.92	0.01	_
20091112_RATP_SCD_0338	27	4	un	DISF_R	det	NULL	NULL	NOLINK	0	idtext0031	un	##m#s##i	spk1	62.93	63.07	0.01	_
20091112_RATP_SCD_0338	27	5	ro()	DISF_T	tronc	NULL	NULL	NOLINK	0	idtext0031	ro()	#####	spk1	63.08	63.7	0.01	_
20091112_RATP_SCD_0338	27	6	un	DISF_R	det	NULL	NULL	NOLINK	0	idtext0031	un	##m#s##i	spk1	63.71	63.85	0.01	_
20091112_RATP_SCD_0338	27	7	re()	DISF_T	tronc	NULL	NULL	NOLINK	0	idtext0031	re()	#####	spk1	63.86	63.97	0.01	_
20091112_RATP_SCD_0338	27	8	un	NULL	det	NULL	B_GN	DET	9	idtext0031	un	##m#s##i	spk1	63.98	64.03	0.01	_
20091112_RATP_SCD_0338	27	9	renouvellement	NULL	nc	NULL	I_GN	ATS	3	idtext0031	renouvellement	##m#s##	spk1	64.04	64.79	0.01	_
20091112_RATP_SCD_0338	27	10	c'	NULL	cln	NULL	B_GN	SUJ_IMP	11	idtext0031	ce	###s##	spk1	64.8	64.83	0.01	_
20091112_RATP_SCD_0338	27	11	est	NULL	v	NULL	B_GVf	ROOT	0	idtext0031	être	P#3##s##	spk1	64.84	64.87	0.01	_
20091112_RATP_SCD_0338	27	12	ça	NULL	pro	NULL	B_GN	ATS	11	idtext0031	ça	#####	spk1	64.88	65.14	?	_

20091112_RATP_SCD_0338	28	1	oui	NULL	adv	NULL	B_GADV	NOLINK	0	idtext0032	oui	#####	spk2	65.19	65.29	0.01	_
20091112_RATP_SCD_0338	28	2	voilà	DISF_M	pres	NULL	NULL	NOLINK	0	idtext0032	voilà	#####	spk2	65.3	66.26	?	//

20091112_RATP_SCD_0338	29	1	d'accord	NULL	adv	NULL	B_GADV	NOLINK	0	idtext0033	d'accord	#####	spk1	66.3	66.59	0.01	_
20091112_RATP_SCD_0338	29	2	je	NULL	cln	NULL	B_GN	SUJ	3	idtext0033	cln	#1##s##	spk1	66.6	66.68	0.01	_
20091112_RATP_SCD_0338	29	3	vais	NULL	v	NULL	B_GVf	ROOT	0	idtext0033	aller	P#1##s##	spk1	66.69	66.76	0.01	_
20091112_RATP_SCD_0338	29	4	poser	NULL	vinf	NULL	I_GVf	OBJ	3	idtext0033	poser	W#####	spk1	66.77	67.03	0.01	_
20091112_RATP_SCD_0338	29	5	la	NULL	det	NULL	B_GN	DET	6	idtext0033	le	##m#s##d	spk1	67.04	67.09	0.01	_
20091112_RATP_SCD_0338	29	6	question	NULL	nc	NULL	I_GN	OBJ	4	idtext0033	question	##f#s##	spk1	67.1	67.37	0.01	_
20091112_RATP_SCD_0338	29	7	quand+même	NULL	adv	NULL	B_GADV	MOD	6	idtext0033	quand+même	#####	spk1	67.38	67.77	0.01	_
20091112_RATP_SCD_0338	29	8	quittez	NULL	v	NULL	B_GVfn	ROOT	0	idtext0033	quitter	P#2##p##	spk1	67.78	68.0	0.01	_
20091112_RATP_SCD_0338	29	9	pas	NULL	advneg	NULL	I_GVfn	MOD	8	idtext0033	pas	#####	spk1	68.01	68.22	0.01	_
20091112_RATP_SCD_0338	29	10	hein	DISF_M	pres	NULL	NULL	NOLINK	0	idtext0033	hein	#####	spk1	68.23	68.41	?	//

20091112_RATP_SCD_0338	30	1	merci	NULL	adv	NULL	B_GADV	NOLINK	0	idtext0034	merci	#####	spk2	68.48	68.65	?	//

20091112_RATP_SCD_0338	31	1	merci+bien	NULL	adv	NULL	B_GADV	NOLINK	0	idtext0035	merci+bien	#####	spk1	68.7	69.43	?	//

20091112_RATP_SCD_0338	32	1	s'il+vous+plaît	NULL	adv	NULL	B_GADV	NOLINK	0	idtext0036	s'il+vous+plaît	#####	spk1	133.73	134.36	?	//

20091112_RATP_SCD_0338	33	1	oui	NULL	adv	NULL	B_GADV	NOLINK	0	idtext0037	oui	#####	spk2	134.4	134.64	?	//

20091112_RATP_SCD_0338	34	1	je	NULL	cln	NULL	B_GN	SUJ	3	idtext0038	cln	#1##s##	spk1	134.68	134.71	0.01	_
20091112_RATP_SCD_0338	34	2	vous	NULL	clo	NULL	B_GN	OBJ	3	idtext0038	cln	#2##p##	spk1	134.72	134.77	0.01	_
20091112_RATP_SCD_0338	34	3	remercie	NULL	v	NULL	B_GVf	ROOT	0	idtext0038	remercier	PS#13##s##	spk1	134.78	134.97	0.01	_
20091112_RATP_SCD_0338	34	4	d'	NULL	prep	NULL	B_GP	OBJ	3	idtext0038	d'	#####	spk1	134.98	135.0	0.01	_
20091112_RATP_SCD_0338	34	5	avoir	NULL	vinf	NULL	I_GP	OBJ	4	idtext0038	avoir	W#####	spk1	135.01	135.18	0.01	_
20091112_RATP_SCD_0338	34	6	patienté	NULL	vppart	NULL	I_GP	OBJ	5	idtext0038	patienter	K##m#s##	spk1	135.19	135.91	0.01	_
20091112_RATP_SCD_0338	34	7	alors	NULL	adv	NULL	B_GADV	NOLINK	0	idtext0038	alors	#####	spk1	135.92	136.23	0.01	_
20091112_RATP_SCD_0338	34	8	je	NULL	cln	NULL	B_GN	SUJ	10	idtext0038	cln	#1##s##	spk1	136.24	136.29	0.01	_
20091112_RATP_SCD_0338	34	9	n'	NULL	clneg	NULL	B_GVfn	MOD	10	idtext0038	n'	#####	spk1	136.3	136.35	0.01	_
20091112_RATP_SCD_0338	34	10	ai	NULL	v	NULL	I_GVfn	ROOT	0	idtext0038	avoir	P#1##s##	spk1	136.36	136.41	0.01	_
20091112_RATP_SCD_0338	34	11	personne	NULL	pro	NULL	B_GN	OBJ	10	idtext0038	personne	#####	spk1	136.42	136.81	0.01	_
20091112_RATP_SCD_0338	34	12	au	NULL	prep	NULL	B_GP	MOD	15	idtext0038	au	#####	spk1	136.82	136.84	0.01	_
20091112_RATP_SCD_0338	34	13	service	NULL	nc	NULL	I_GP	OBJ	12	idtext0038	service	##m#s##	spk1	136.85	137.23	0.01	/
20091112_RATP_SCD_0338	34	14	ils	NULL	cln	NULL	B_GN	SUJ	15	idtext0038	cln	#3#m#p##	spk1	137.24	137.32	0.01	_
20091112_RATP_SCD_0338	34	15	sont	NULL	v	NULL	B_GVf	ROOT	0	idtext0038	être	P#3##p##	spk1	137.33	137.53	0.01	_
20091112_RATP_SCD_0338	34	16	en	NULL	prep	NULL	B_GP	ATS	15	idtext0038	en	#####	spk1	137.54	137.61	0.01	_
20091112_RATP_SCD_0338	34	17	contact	NULL	nc	NULL	I_GP	OBJ	16	idtext0038	contact	##m#s##	spk1	137.62	138.01	0.01	/
20091112_RATP_SCD_0338	34	18	clientèle	NULL	nc	NULL	B_GN	MOD	17	idtext0038	clientèle	##f#s##	spk1	138.02	138.76	0.01	_
20091112_RATP_SCD_0338	34	19	moi	NULL	pro	NULL	I_GN	SUJ	21	idtext0039	moi	#####	spk1	138.77	138.87	0.01	_
20091112_RATP_SCD_0338	34	20	je	NULL	cln	NULL	B_GN	SUJ	21	idtext0039	cln	#1##s##	spk1	138.88	139.02	0.01	_
20091112_RATP_SCD_0338	34	21	sais	NULL	v	NULL	B_GVf	ROOT	0	idtext0039	savoir	P#12##s##	spk1	139.03	139.2	0.01	_
20091112_RATP_SCD_0338	34	22	que	NULL	csu	NULL	B_NULL	OBJ	21	idtext0039	que	#####	spk1	139.21	139.25	0.01	_
20091112_RATP_SCD_0338	34	23	pour	NULL	prep	NULL	B_GP	MOD	30	idtext0039	pour	#####	spk1	139.26	139.38	0.01	_
20091112_RATP_SCD_0338	34	24	mon	NULL	det	NULL	I_GP	DET	25	idtext0039	mon	###s##o	spk1	139.39	139.6	0.01	_
20091112_RATP_SCD_0338	34	25	ami	NULL	nc	NULL	I_GP	OBJ	23	idtext0039	ami	##m#s##	spk1	139.61	139.91	0.01	_
20091112_RATP_SCD_0338	34	26	euh	DISF_M	pres	NULL	NULL	NOLINK	0	idtext0039	euh	#####	spk1	139.92	140.08	0.01	_
20091112_RATP_SCD_0338	34	27	personnellement	NULL	adv	NULL	B_GADV	MOD	5	idtext0039	personnellement	#####	spk1	140.09	141.2	0.01	/
20091112_RATP_SCD_0338	34	28	euh	DISF_M	pres	NULL	NULL	NOLINK	0	idtext0039	euh	#####	spk1	141.21	141.57	0.01	_
20091112_RATP_SCD_0338	34	29	je	NULL	cln	NULL	B_GN	SUJ	30	idtext0039	cln	#1##s##	spk1	141.58	141.78	0.01	_
20091112_RATP_SCD_0338	34	30	sais	NULL	v	NULL	B_GVf	OBJ	22	idtext0039	savoir	P#12##s##	spk1	141.79	141.93	0.01	_
20091112_RATP_SCD_0338	34	31	que	NULL	csu	NULL	B_NULL	OBJ	30	idtext0039	que	#####	spk1	141.94	141.96	0.01	_
20091112_RATP_SCD_0338	34	32	j'	NULL	cln	NULL	B_GN	SUJ	35	idtext0039	cln	#1##s##	spk1	141.97	142.04	0.01	_
20091112_RATP_SCD_0338	34	33	avais	NULL	v	NULL	B_GVfn	AUX	35	idtext0039	avoir	I#12##s##	spk1	142.05	142.19	0.01	_
20091112_RATP_SCD_0338	34	34	pas	NULL	advneg	NULL	I_GVfn	MOD	35	idtext0039	pas	#####	spk1	142.2	142.36	0.01	_
20091112_RATP_SCD_0338	34	35	remis	NULL	vppart	NULL	I_GVfn	OBJ	31	idtext0039	remettre	K##m###	spk1	142.37	142.61	0.01	_
20091112_RATP_SCD_0338	34	36	de	NULL	prep	NULL	B_GP	OBJ	35	idtext0039	de	#####	spk1	142.62	142.64	0.01	_
20091112_RATP_SCD_0338	34	37	photo	NULL	nc	NULL	I_GP	OBJ	36	idtext0039	photo	##f#s##	spk1	142.65	143.68	0.01	_
20091112_RATP_SCD_0338	34	38	auprès+de	NULL	prep	NULL	B_GP	MOD	37	idtext0039	auprès+de	#####	spk1	143.69	145.53	0.01	_
20091112_RATP_SCD_0338	34	39	mon	NULL	det	NULL	I_GP	DET	40	idtext0039	mon	###s##o	spk1	145.54	145.68	0.01	_
20091112_RATP_SCD_0338	34	40	attachement	NULL	nc	NULL	I_GP	OBJ	38	idtext0039	attachement	##m#s##	spk1	145.69	146.44	?	//

20091112_RATP_SCD_0338	35	1	hm+hm	DISF_M	pres	NULL	NULL	NOLINK	0	idtext0040	hm+hm	#####	spk2	146.48	146.82	?	//

20091112_RATP_SCD_0338	36	1	euh	DISF_M	pres	NULL	NULL	NOLINK	0	idtext0041	euh	#####	spk1	146.9	147.32	0.01	_
20091112_RATP_SCD_0338	36	2	donc	NULL	coo	NULL	B_NULL	ROOT	0	idtext0041	donc	#####	spk1	147.33	147.59	0.01	_
20091112_RATP_SCD_0338	36	3	ils	NULL	cln	NULL	B_GN	SUJ	5	idtext0041	cln	#3#m#p##	spk1	147.6	147.69	0.01	_
20091112_RATP_SCD_0338	36	4	avaient	NULL	v	NULL	B_GVf	AUX	5	idtext0041	avoir	I#3##p##	spk1	147.7	147.87	0.01	_
20091112_RATP_SCD_0338	36	5	récupéré	NULL	vppart	NULL	I_GVf	DEP_COORD	2	idtext0041	récupérer	K##m#s##	spk1	147.88	148.45	0.01	_
20091112_RATP_SCD_0338	36	6	la	NULL	det	NULL	B_NULL	NOLINK	0	idtext0041	le	##m#s##d	spk1	148.46	148.96	?	//

20091112_RATP_SCD_0338	37	1	l'	NULL	det	NULL	B_GN	DET	2	idtext0042	le	###s##d	spk2	149.0	149.1	0.01	_
20091112_RATP_SCD_0338	37	2	ancienne	NULL	adj	NULL	I_GN	ROOT	0	idtext0042	ancien	##f#s##	spk2	149.11	149.49	?	_

20091112_RATP_SCD_0338	38	1	la	NULL	det	NULL	B_GN	DET	2	idtext0043	le	##m#s##d	spk1	149.53	149.58	0.01	_
20091112_RATP_SCD_0338	38	2	carte	NULL	nc	NULL	I_GN	ROOT	0	idtext0043	carte	##f#s##	spk1	149.59	149.74	?	//

20091112_RATP_SCD_0338	39	1	puis	NULL	coo	NULL	B_NULL	ROOT	0	idtext0044	puis	#####	spk2	149.84	149.93	0.01	_
20091112_RATP_SCD_0338	39	2	ils	NULL	cln	NULL	B_GN	SUJ	4	idtext0044	cln	#3#m#p##	spk2	149.94	150.0	0.01	_
20091112_RATP_SCD_0338	39	3	ont	NULL	v	NULL	B_GVf	AUX	4	idtext0044	avoir	P#3##p##	spk2	150.01	150.04	0.01	_
20091112_RATP_SCD_0338	39	4	scanné	NULL	vppart	NULL	I_GVf	DEP_COORD	1	idtext0044	scanner	K##m#s##	spk2	150.05	150.52	?	//

20091112_RATP_SCD_0338	40	1	oui	NULL	adv	NULL	B_GADV	NOLINK	0	idtext0045	oui	#####	spk1	150.56	150.8	0.01	_
20091112_RATP_SCD_0338	40	2	ils	NULL	cln	NULL	B_GN	SUJ	4	idtext0045	cln	#3#m#p##	spk1	150.81	150.91	0.01	_
20091112_RATP_SCD_0338	40	3	ont	NULL	v	NULL	B_GVf	AUX	4	idtext0045	avoir	P#3##p##	spk1	150.92	151.03	0.01	_
20091112_RATP_SCD_0338	40	4	scanné	NULL	vppart	NULL	I_GVf	ROOT	0	idtext0045	scanner	K##m#s##	spk1	151.04	151.67	0.01	//
20091112_RATP_SCD_0338	40	5	euh	DISF_M	pres	NULL	NULL	NOLINK	0	idtext0045	euh	#####	spk1	151.68	152.28	0.01	_
20091112_RATP_SCD_0338	40	6	bon	DISF_M	pres	NULL	NULL	NOLINK	0	idtext0045	bon	#####	spk1	152.29	152.73	0.01	//
20091112_RATP_SCD_0338	40	7	alors	NULL	adv	NULL	B_GADV	MOD	8	idtext0045	alors	#####	spk1	152.74	153.27	0.01	_
20091112_RATP_SCD_0338	40	8	normalement	NULL	adv	NULL	I_GADV	MOD	4	idtext0045	normalement	#####	spk1	153.28	153.87	0.01	_
20091112_RATP_SCD_0338	40	9	je	NULL	cln	NULL	B_GN	SUJ	10	idtext0045	cln	#1##s##	spk1	153.88	153.99	0.01	_
20091112_RATP_SCD_0338	40	10	pense	NULL	v	NULL	B_GVfn	ROOT	0	idtext0045	penser	PS#13##s##	spk1	154.0	154.23	0.01	_
20091112_RATP_SCD_0338	40	11	pas	NULL	advneg	NULL	I_GVfn	MOD	10	idtext0045	pas	#####	spk1	154.24	154.4	0.01	_
20091112_RATP_SCD_0338	40	12	que	NULL	csu	NULL	B_NULL	OBJ	10	idtext0045	que	#####	spk1	154.41	154.5	0.01	_
20091112_RATP_SCD_0338	40	13	ça	NULL	pro	NULL	B_GN	SUJ_IMP	14	idtext0045	ça	#####	spk1	154.51	154.62	0.01	_
20091112_RATP_SCD_0338	40	14	puisse	NULL	v	NULL	B_GVf	OBJ	12	idtext0045	pouvoir	S#1##s##	spk1	154.63	154.82	0.01	_
20091112_RATP_SCD_0338	40	15	poser	NULL	vinf	NULL	I_GVf	OBJ	14	idtext0045	poser	W#####	spk1	154.83	155.11	0.01	_
20091112_RATP_SCD_0338	40	16	de	NULL	prep	NULL	B_GN	DET	17	idtext0045	de	#####	spk1	155.12	155.14	0.01	_
20091112_RATP_SCD_0338	40	17	problème	NULL	nc	NULL	I_GN	OBJ	15	idtext0045	problème	##m#s##	spk1	155.15	155.71	0.01	_
20091112_RATP_SCD_0338	40	18	je	NULL	cln	NULL	B_GN	SUJ	21	idtext0045	cln	#1##s##	spk1	155.72	155.77	0.01	_
20091112_RATP_SCD_0338	40	19	vous	NULL	clo	NULL	B_GN	A_OBJ	21	idtext0045	cln	#2##p##	spk1	155.78	155.96	0.01	_
20091112_RATP_SCD_0338	40	20	aurais	NULL	v	NULL	B_GVf	AUX	21	idtext0045	avoir	C#12##s##	spk1	155.97	156.1	0.01	_
20091112_RATP_SCD_0338	40	21	dit	NULL	vppart	NULL	I_GVf	ROOT	0	idtext0045	dire	J#3##s##	spk1	156.11	156.19	0.01	_
20091112_RATP_SCD_0338	40	22	quand+même	NULL	adv	NULL	B_GADV	NOLINK	0	idtext0045	quand+même	#####	spk1	156.2	156.45	0.01	_
20091112_RATP_SCD_0338	40	23	de	NULL	prep	NULL	B_GP	OBJ	21	idtext0045	de	#####	spk1	156.46	156.55	0.01	_
20091112_RATP_SCD_0338	40	24	joindre	NULL	vinf	NULL	I_GP	OBJ	23	idtext0045	joindre	W#####	spk1	156.56	156.72	0.01	_
20091112_RATP_SCD_0338	40	25	une	NULL	det	NULL	B_GN	DET	26	idtext0045	un	##f#s##i	spk1	156.73	156.82	0.01	_
20091112_RATP_SCD_0338	40	26	photo	NULL	nc	NULL	I_GN	OBJ	24	idtext0045	photo	##f#s##	spk1	156.83	157.18	0.01	_
20091112_RATP_SCD_0338	40	27	au+cas+où	NULL	csu	NULL	B_NULL	MOD	26	idtext0045	au+cas+où	#####	spk1	157.19	158.18	?	//

20091112_RATP_SCD_0338	41	1	mais	NULL	coo	NULL	B_NULL	ROOT	0	idtext0046	mais	#####	spk2	158.22	158.35	0.01	_
20091112_RATP_SCD_0338	41	2	bon	DISF_M	pres	NULL	NULL	NOLINK	0	idtext0046	bon	#####	spk2	158.36	158.53	0.01	_
20091112_RATP_SCD_0338	41	3	au	NULL	prep	NULL	B_GP	DEP_COORD	1	idtext0046	au	#####	spk2	158.54	158.56	0.01	_
20091112_RATP_SCD_0338	41	4	pire	NULL	nc	NULL	I_GP	OBJ	3	idtext0046	pire	##m#s##	spk2	158.57	158.67	?	//

20091112_RATP_SCD_0338	42	1	hein	DISF_M	pres	NULL	NULL	NOLINK	0	idtext0047	hein	#####	spk1	158.71	158.84	?	//

20091112_RATP_SCD_0338	43	1	hein	DISF_M	pres	NULL	NULL	NOLINK	0	idtext0048	hein	#####	spk2	158.99	159.04	0.01	_
20091112_RATP_SCD_0338	43	2	bon	DISF_M	pres	NULL	NULL	NOLINK	0	idtext0048	bon	#####	spk2	159.05	159.28	0.01	_
20091112_RATP_SCD_0338	43	3	dans	NULL	prep	NULL	B_GP	MOD	11	idtext0048	dans	#####	spk2	159.29	159.37	0.01	_
20091112_RATP_SCD_0338	43	4	le	NULL	det	NULL	I_GP	DET	5	idtext0048	le	##m#s##d	spk2	159.38	159.48	0.01	_
20091112_RATP_SCD_0338	43	5	bénéfice	NULL	nc	NULL	I_GP	OBJ	3	idtext0048	bénéfice	##m#s##	spk2	159.49	159.82	0.01	_
20091112_RATP_SCD_0338	43	6	du	NULL	prep	NULL	B_GP	DEP	5	idtext0048	du	#####	spk2	159.83	159.92	0.01	_
20091112_RATP_SCD_0338	43	7	doute	NULL	nc	NULL	I_GP	OBJ	6	idtext0048	doute	##m#s##	spk2	159.93	160.23	0.01	//
20091112_RATP_SCD_0338	43	8	ils	DISF_R	cln	NULL	NULL	NOLINK	0	idtext0048	cln	#3#m#p##	spk2	160.24	160.31	0.01	_
20091112_RATP_SCD_0338	43	9	joignent	DISF_R	v	NULL	NULL	NOLINK	0	idtext0048	joindre	PS#3##p##	spk2	160.32	160.51	0.01	/
20091112_RATP_SCD_0338	43	10	ils	NULL	cln	NULL	B_GN	SUJ	11	idtext0048	cln	#3#m#p##	spk2	160.52	160.57	0.01	_
20091112_RATP_SCD_0338	43	11	joignent	NULL	v	NULL	B_GVf	ROOT	0	idtext0048	joindre	PS#3##p##	spk2	160.58	160.74	0.01	_
20091112_RATP_SCD_0338	43	12	la	NULL	det	NULL	B_GN	DET	13	idtext0048	le	##m#s##d	spk2	160.75	160.82	0.01	_
20091112_RATP_SCD_0338	43	13	photo	NULL	nc	NULL	I_GN	OBJ	11	idtext0048	photo	##f#s##	spk2	160.83	161.01	?	//

20091112_RATP_SCD_0338	44	1	voilà	DISF_M	pres	NULL	NULL	NOLINK	0	idtext0049	voilà	#####	spk1	161.05	161.28	?	//

20091112_RATP_SCD_0338	45	1	et+puis	NULL	coo	NULL	B_NULL	NOLINK	0	idtext0050	et+puis	#####	spk2	161.29	161.29	0.00	_
20091112_RATP_SCD_0338	45	2	comme	NULL	adv	NULL	B_GADV	ROOT	0	idtext0050	comme	#####	spk2	161.29	161.29	0.00	_
20091112_RATP_SCD_0338	45	3	elle	NULL	cln	NULL	B_GN	SUJ	5	idtext0050	cln	#3#f#s##	spk2	161.29	161.29	0.00	_
20091112_RATP_SCD_0338	45	4	est	NULL	v	NULL	B_GVf	AUX	5	idtext0050	être	P#3##s##	spk2	161.29	161.29	0.00	_
20091112_RATP_SCD_0338	45	5	retournée	NULL	vppart	NULL	I_GVf	OBJ	2	idtext0050	retourner	K##f#s##	spk2	161.29	161.68	?	//

20091112_RATP_SCD_0338	46	1	voilà	DISF_M	pres	NULL	NULL	NOLINK	0	idtext0051	voilà	#####	spk1	161.72	161.91	0.01	_
20091112_RATP_SCD_0338	46	2	voilà	DISF_M	pres	NULL	NULL	NOLINK	0	idtext0051	voilà	#####	spk1	161.92	162.16	0.01	_
20091112_RATP_SCD_0338	46	3	exactement	NULL	adv	NULL	B_GADV	MOD	5	idtext0051	exactement	#####	spk1	162.17	163.36	0.01	_
20091112_RATP_SCD_0338	46	4	hein	DISF_M	pres	NULL	NULL	NOLINK	0	idtext0051	hein	#####	spk1	163.37	163.46	0.01	_
20091112_RATP_SCD_0338	46	5	de+toute+façon	NULL	adv	NULL	I_GADV	ROOT	0	idtext0051	de+toute+façon	#####	spk1	163.47	163.97	0.01	_
20091112_RATP_SCD_0338	46	6	s'	NULL	csu	NULL	B_NULL	MOD	18	idtext0051	se	#3##p##	spk1	163.98	164.09	0.01	_
20091112_RATP_SCD_0338	46	7	ils	NULL	cln	NULL	B_GN	SUJ	9	idtext0051	cln	#3#m#p##	spk1	164.1	164.21	0.01	_
20091112_RATP_SCD_0338	46	8	en	NULL	clo	NULL	B_GN	DE_OBJ	11	idtext0051	en	#####	spk1	164.22	164.3	0.01	_
20091112_RATP_SCD_0338	46	9	ont	NULL	v	NULL	B_GVfn	OBJ	6	idtext0051	avoir	P#3##p##	spk1	164.31	164.38	0.01	_
20091112_RATP_SCD_0338	46	10	pas	NULL	advneg	NULL	I_GVfn	MOD	9	idtext0051	pas	#####	spk1	164.39	164.55	0.01	_
20091112_RATP_SCD_0338	46	11	besoin	NULL	nc	NULL	B_GN	OBJ	9	idtext0051	besoin	##m#s##	spk1	164.56	165.03	0.01	_
20091112_RATP_SCD_0338	46	12	à	NULL	prep	NULL	B_GP	ROOT	0	idtext0051	à	#####	spk1	165.04	165.06	0.01	_
20091112_RATP_SCD_0338	46	13	la	NULL	det	NULL	I_GP	DET	14	idtext0051	le	##m#s##d	spk1	165.07	165.13	0.01	_
20091112_RATP_SCD_0338	46	14	limite	NULL	nc	NULL	I_GP	OBJ	12	idtext0051	limite	##f#s##	spk1	165.14	165.5	0.01	_
20091112_RATP_SCD_0338	46	15	ils	DISF_R	cln	NULL	NULL	NOLINK	0	idtext0051	cln	#3#m#p##	spk1	165.51	166.12	0.01	_
20091112_RATP_SCD_0338	46	16	hein	DISF_M	pres	NULL	NULL	NOLINK	0	idtext0051	hein	#####	spk1	166.13	166.43	0.01	_
20091112_RATP_SCD_0338	46	17	ils	NULL	cln	NULL	B_GN	SUJ	18	idtext0051	cln	#3#m#p##	spk1	166.44	166.74	0.01	_
20091112_RATP_SCD_0338	46	18	peuvent	NULL	v	NULL	B_GVf	ROOT	0	idtext0051	pouvoir	P#3##p##	spk1	166.75	166.98	0.01	_
20091112_RATP_SCD_0338	46	19	éventuellement	NULL	adv	NULL	B_GADV	MOD	18	idtext0051	éventuellement	#####	spk1	166.99	167.39	0.01	_
20091112_RATP_SCD_0338	46	20	la	NULL	clo	NULL	B_GN	OBJ	21	idtext0051	cla	#3#f#s##	spk1	167.4	167.5	0.01	_
20091112_RATP_SCD_0338	46	21	retourner	NULL	vinf	NULL	B_GVi	OBJ	18	idtext0051	retourner	W#####	spk1	167.51	168.03	0.01	_
20091112_RATP_SCD_0338	46	22	euh	DISF_M	pres	NULL	NULL	NOLINK	0	idtext0051	euh	#####	spk1	168.04	168.18	?	//

20091112_RATP_SCD_0338	47	1	et	NULL	coo	NULL	B_NULL	ROOT	0	idtext0052	et	#####	spk2	168.22	168.25	0.01	_
20091112_RATP_SCD_0338	47	2	c'	NULL	cln	NULL	B_GN	SUJ_IMP	3	idtext0052	ce	###s##	spk2	168.26	168.28	0.01	_
20091112_RATP_SCD_0338	47	3	est	NULL	v	NULL	B_GVf	DEP_COORD	1	idtext0052	être	P#3##s##	spk2	168.29	168.31	0.01	_
20091112_RATP_SCD_0338	47	4	le	NULL	det	NULL	B_GN	DET	5	idtext0052	le	##m#s##d	spk2	168.32	168.34	0.01	_
20091112_RATP_SCD_0338	47	5	même	NULL	adv	NULL	I_GN	MOD	6	idtext0052	même	###s##	spk2	168.35	168.48	0.01	_
20091112_RATP_SCD_0338	47	6	formulaire	NULL	adj	NULL	I_GN	ATS	3	idtext0052	formulaire	#####	spk2	168.49	168.95	0.01	//
20091112_RATP_SCD_0338	47	7	hein	DISF_M	pres	NULL	NULL	NOLINK	0	idtext0052	hein	#####	spk2	168.96	169.0	0.01	_
20091112_RATP_SCD_0338	47	8	ils	NULL	cln	NULL	B_GN	SUJ	9	idtext0052	cln	#3#m#p##	spk2	169.01	169.11	0.01	_
20091112_RATP_SCD_0338	47	9	ont	NULL	v	NULL	B_GVfn	ROOT	0	idtext0052	avoir	P#3##p##	spk2	169.12	169.17	0.01	_
20091112_RATP_SCD_0338	47	10	pas	NULL	advneg	NULL	I_GVfn	MOD	9	idtext0052	pas	#####	spk2	169.18	169.41	?	_

20091112_RATP_SCD_0338	48	1	oui	NULL	adv	NULL	B_GADV	NOLINK	0	idtext0053	oui	#####	spk1	169.45	169.63	?	//

20091112_RATP_SCD_0338	49	1	de	NULL	prep	NULL	B_GP	ROOT	0	idtext0054	de	#####	spk2	169.67	169.69	0.01	_
20091112_RATP_SCD_0338	49	2	formulaire	NULL	nc	NULL	I_GP	OBJ	1	idtext0054	formulaire	##m#s##	spk2	169.7	169.96	0.01	_
20091112_RATP_SCD_0338	49	3	pour	NULL	prep	NULL	B_GP	ROOT	0	idtext0054	pour	#####	spk2	169.97	170.13	0.01	_
20091112_RATP_SCD_0338	49	4	deux	NULL	adj	NULL	I_GP	MOD	5	idtext0054	deux	#####	spk2	170.14	170.28	0.01	_
20091112_RATP_SCD_0338	49	5	renouvellements	NULL	nc	NULL	I_GP	OBJ	3	idtext0054	renouvellement	##m#p##	spk2	170.29	171.09	?	//

20091112_RATP_SCD_0338	50	1	non	DISF_R	adv	NULL	NULL	NOLINK	0	idtext0055	non	#####	spk1	171.13	171.29	0.01	_
20091112_RATP_SCD_0338	50	2	non	DISF_R	adv	NULL	NULL	NOLINK	0	idtext0055	non	#####	spk1	171.3	171.4	0.01	_
20091112_RATP_SCD_0338	50	3	non	DISF_R	adv	NULL	NULL	NOLINK	0	idtext0055	non	#####	spk1	171.41	171.52	0.01	_
20091112_RATP_SCD_0338	50	4	non	NULL	adv	NULL	B_GADV	NOLINK	0	idtext0055	non	#####	spk1	171.53	171.84	?	_

20091112_RATP_SCD_0338	51	1	que	NULL	csu	NULL	B_NULL	NOLINK	0	idtext0056	que	#####	spk2	171.88	171.92	0.01	_
20091112_RATP_SCD_0338	51	2	le	NULL	det	NULL	B_GN	DET	3	idtext0056	le	##m#s##d	spk2	171.93	171.95	0.01	_
20091112_RATP_SCD_0338	51	3	formulaire	NULL	nc	NULL	I_GN	ROOT	0	idtext0056	formulaire	##m#s##	spk2	171.96	172.22	0.01	_
20091112_RATP_SCD_0338	51	4	carte	NULL	nc	NULL	I_GN	MOD	3	idtext0056	carte	##f#s##	spk2	172.23	172.42	0.01	_
20091112_RATP_SCD_0338	51	5	de	NULL	prep	NULL	B_GP	ROOT	0	idtext0056	de	#####	spk2	172.43	172.56	0.01	_
20091112_RATP_SCD_0338	51	6	famille	NULL	nc	NULL	I_GP	OBJ	5	idtext0056	famille	##f#s##	spk2	172.57	172.96	?	//

20091112_RATP_SCD_0338	52	1	tout+à+fait	NULL	adv	NULL	B_GADV	MOD	2	idtext0057	tout+à+fait	#####	spk1	173.03	173.44	0.01	_
20091112_RATP_SCD_0338	52	2	exactement	NULL	adv	NULL	I_GADV	ROOT	0	idtext0057	exactement	#####	spk1	173.45	174.1	?	_

20091112_RATP_SCD_0338	53	1	d'accord	NULL	adv	NULL	B_GADV	NOLINK	0	idtext0058	d'accord	#####	spk2	174.15	175.41	0.01	_
20091112_RATP_SCD_0338	53	2	bah	DISF_M	pres	NULL	NULL	NOLINK	0	idtext0059	bah	#####	spk2	175.42	175.54	0.01	_
20091112_RATP_SCD_0338	53	3	je	NULL	cln	NULL	B_GN	SUJ	5	idtext0059	cln	#1##s##	spk2	175.55	175.62	0.01	_
20091112_RATP_SCD_0338	53	4	vous	NULL	clo	NULL	B_GN	OBJ	5	idtext0059	cln	#2##p##	spk2	175.63	175.68	0.01	_
20091112_RATP_SCD_0338	53	5	remercie	NULL	v	NULL	B_GVf	ROOT	0	idtext0059	remercier	PS#13##s##	spk2	175.69	175.89	?	//

20091112_RATP_SCD_0338	54	1	je	NULL	cln	NULL	B_GN	SUJ	4	idtext0060	cln	#1##s##	spk1	175.95	176.02	0.01	_
20091112_RATP_SCD_0338	54	2	vous	NULL	clo	NULL	B_GN	OBJ	4	idtext0060	cln	#2##p##	spk1	176.03	176.12	0.01	_
20091112_RATP_SCD_0338	54	3	en	NULL	clo	NULL	B_GN	DE_OBJ	4	idtext0060	en	#####	spk1	176.13	176.16	0.01	_
20091112_RATP_SCD_0338	54	4	prie	NULL	v	NULL	B_GVf	ROOT	0	idtext0060	prier	PS#13##s##	spk1	176.17	176.27	?	//

20091112_RATP_SCD_0338	55	1	je	NULL	cln	NULL	B_GN	SUJ	3	idtext0061	cln	#1##s##	spk2	176.32	176.34	0.01	_
20091112_RATP_SCD_0338	55	2	vous	NULL	clo	NULL	B_GN	A_OBJ	3	idtext0061	cln	#2##p##	spk2	176.35	176.4	0.01	_
20091112_RATP_SCD_0338	55	3	souhaite	NULL	v	NULL	B_GVf	ROOT	0	idtext0061	souhaiter	PS#13##s##	spk2	176.41	176.52	0.01	_
20091112_RATP_SCD_0338	55	4	une	NULL	det	NULL	B_GN	DET	6	idtext0061	un	##f#s##i	spk2	176.53	176.58	0.01	_
20091112_RATP_SCD_0338	55	5	bonne	NULL	adj	NULL	I_GN	MOD	6	idtext0061	bon	##f#s##	spk2	176.59	176.75	0.01	_
20091112_RATP_SCD_0338	55	6	journée	NULL	nc	NULL	I_GN	OBJ	3	idtext0061	journée	##f#s##	spk2	176.76	176.99	?	//

20091112_RATP_SCD_0338	56	1	merci	NULL	adv	NULL	B_GADV	NOLINK	0	idtext0062	merci	#####	spk1	177.03	177.17	0.01	/
20091112_RATP_SCD_0338	56	2	vous	NULL	pro	NULL	B_GN	NOLINK	0	idtext0062	vous	#####	spk1	177.18	177.23	0.01	_
20091112_RATP_SCD_0338	56	3	de+même	NULL	adv	NULL	B_GADV	MOD	4	idtext0062	de+même	#####	spk1	177.24	177.58	0.01	_
20091112_RATP_SCD_0338	56	4	au+revoir	NULL	adv	NULL	I_GADV	ROOT	0	idtext0062	au+revoir	#####	spk1	177.59	177.86	?	//

20091112_RATP_SCD_0338	57	1	au+revoir	NULL	adv	NULL	B_GADV	NOLINK	0	idtext0063	au+revoir	#####	spk2	177.91	178.13	?	//

20091112_RATP_SCD_0338	58	1	au+revoir	NULL	adv	NULL	B_GADV	NOLINK	0	idtext0064	au+revoir	#####	spk1	178.17	178.98	?	//

