20091112_RATP_SCD_0754	1	1	NNAAMMEE	NULL	np	B_HU	B_GN	ROOT	0	idtext0000	ANONYM	NULL	spk1	4.34	4.53	0.04	_
20091112_RATP_SCD_0754	1	2	bonjour	NULL	adv	NULL	B_GADV	NOLINK	0	idtext0001	bonjour	#####	spk1	4.57	4.89	?	//

20091112_RATP_SCD_0754	2	1	allo	NULL	adv	NULL	B_GADV	NOLINK	0	idtext0002	allo	#####	spk2	5.79	6.14	?	//

20091112_RATP_SCD_0754	3	1	oui	NULL	adv	NULL	B_GADV	MOD	2	idtext0003	oui	#####	spk1	6.63	6.7	0.01	_
20091112_RATP_SCD_0754	3	2	bonjour	NULL	adv	NULL	I_GADV	ROOT	0	idtext0003	bonjour	#####	spk1	6.71	6.96	0.01	_
20091112_RATP_SCD_0754	3	3	madame	NULL	nc	NULL	B_GN	NOLINK	0	idtext0003	Monsieur	##f#s##	spk1	6.97	7.41	?	//

20091112_RATP_SCD_0754	4	1	oui	NULL	adv	NULL	B_GADV	MOD	2	idtext0004	oui	#####	spk2	7.46	7.76	0.01	_
20091112_RATP_SCD_0754	4	2	bonjour	NULL	adv	NULL	I_GADV	ROOT	0	idtext0004	bonjour	#####	spk2	7.77	8.31	0.01	_
20091112_RATP_SCD_0754	4	3	excusez	NULL	v	NULL	B_GVf	ROOT	0	idtext0004	excuser	P#2##p##	spk2	8.32	8.69	0.01	_
20091112_RATP_SCD_0754	4	4	-moi	NULL	clo	NULL	B_GN	OBJ	3	idtext0004	cla	#1##s##	spk2	8.7	8.82	0.01	_
20091112_RATP_SCD_0754	4	5	de	NULL	prep	NULL	B_GP	DE_OBJ	4	idtext0004	de	#####	spk2	8.83	8.86	0.01	_
20091112_RATP_SCD_0754	4	6	vous	NULL	clo	NULL	I_GP	OBJ	7	idtext0004	cln	#2##p##	spk2	8.87	8.92	0.01	_
20091112_RATP_SCD_0754	4	7	déranger	NULL	vinf	NULL	B_GVi	OBJ	5	idtext0004	déranger	W#####	spk2	8.93	9.42	?	//

20091112_RATP_SCD_0754	5	1	euh	DISF_M	pres	NULL	NULL	NOLINK	0	idtext0005	euh	#####	spk2	9.74	9.76	0.01	_
20091112_RATP_SCD_0754	5	2	je	NULL	cln	NULL	B_GN	SUJ	4	idtext0005	cln	#1##s##	spk2	9.77	10.57	0.01	_
20091112_RATP_SCD_0754	5	3	vous	NULL	clo	NULL	B_GN	OBJ	4	idtext0005	cln	#2##p##	spk2	10.58	11.0	0.01	_
20091112_RATP_SCD_0754	5	4	appelle	NULL	v	NULL	B_GVf	ROOT	0	idtext0005	appeler	PS#13##s##	spk2	11.01	11.31	0.01	_
20091112_RATP_SCD_0754	5	5	parce+qu'	NULL	csu	NULL	B_NULL	MOD	4	idtext0005	parce+qu'	#####	spk2	11.32	11.63	0.01	_
20091112_RATP_SCD_0754	5	6	en+fait	GREF	adv	NULL	B_GADV	NOLINK	0	idtext0005	en+fait	#####	spk2	11.64	11.83	0.01	_
20091112_RATP_SCD_0754	5	7	j'	DISF_R	cln	NULL	NULL	NOLINK	0	idtext0005	cln	#1##s##	spk2	11.84	11.86	0.01	_
20091112_RATP_SCD_0754	5	8	attendais	DISF_R	v	NULL	NULL	NOLINK	0	idtext0005	attendre	I#12##s##	spk2	11.87	12.46	0.01	_
20091112_RATP_SCD_0754	5	9	j'	NULL	cln	NULL	B_GN	SUJ	10	idtext0005	cln	#1##s##	spk2	12.47	12.64	0.01	_
20091112_RATP_SCD_0754	5	10	attendais	NULL	v	NULL	B_GVf	OBJ	5	idtext0005	attendre	I#12##s##	spk2	12.65	13.21	0.01	_
20091112_RATP_SCD_0754	5	11	ma	NULL	det	NULL	B_GN	DET	12	idtext0005	mon	##f#s##o	spk2	13.22	13.32	0.01	_
20091112_RATP_SCD_0754	5	12	carte	NULL	nc	B_PRD	I_GN	OBJ	10	idtext0006	carte	##f#s##	spk2	13.33	13.61	0.01	_
20091112_RATP_SCD_0754	5	13	Imagine+R	NULL	np	I_PRD	I_GN	MOD	12	idtext0006	Imagine+R	#####	spk2	13.62	14.33	?	//

20091112_RATP_SCD_0754	6	1	oui	NULL	adv	NULL	B_GADV	NOLINK	0	idtext0007	oui	#####	spk1	14.54	14.79	?	//

20091112_RATP_SCD_0754	7	1	et	NULL	coo	NULL	B_NULL	ROOT	0	idtext0008	et	#####	spk2	14.84	15.11	0.01	_
20091112_RATP_SCD_0754	7	2	je	NULL	cln	NULL	B_GN	SUJ	4	idtext0008	cln	#1##s##	spk2	15.12	15.14	0.01	_
20091112_RATP_SCD_0754	7	3	l'	NULL	clo	NULL	B_GN	OBJ	4	idtext0008	cla	#3##s##	spk2	15.15	15.17	0.01	_
20091112_RATP_SCD_0754	7	4	attendais	NULL	v	NULL	B_GVf	DEP_COORD	1	idtext0008	attendre	I#12##s##	spk2	15.18	15.48	0.01	_
20091112_RATP_SCD_0754	7	5	pour	DISF_R	prep	NULL	NULL	NOLINK	0	idtext0008	pour	#####	spk2	15.49	15.75	0.01	_
20091112_RATP_SCD_0754	7	6	euh	DISF_M	pres	NULL	NULL	NOLINK	0	idtext0008	euh	#####	spk2	15.76	15.87	0.01	_
20091112_RATP_SCD_0754	7	7	pour	NULL	prep	NULL	B_GP	P_OBJ	4	idtext0008	pour	#####	spk2	15.88	16.03	0.01	_
20091112_RATP_SCD_0754	7	8	le	NULL	det	NULL	I_GP	DET	9	idtext0008	le	##m#s##d	spk2	16.04	16.09	0.01	_
20091112_RATP_SCD_0754	7	9	début	NULL	nc	NULL	I_GP	OBJ	7	idtext0008	début	##m#s##	spk2	16.1	16.33	0.01	_
20091112_RATP_SCD_0754	7	10	du	NULL	prep	NULL	B_GP	DEP	9	idtext0008	du	#####	spk2	16.34	16.45	0.01	_
20091112_RATP_SCD_0754	7	11	mois	NULL	nc	NULL	I_GP	OBJ	10	idtext0008	mois	##m###	spk2	16.46	16.84	0.01	_
20091112_RATP_SCD_0754	7	12	et	NULL	coo	NULL	B_NULL	COORD	4	idtext0008	et	#####	spk2	16.85	16.88	0.01	_
20091112_RATP_SCD_0754	7	13	elle	NULL	cln	NULL	B_GN	SUJ	16	idtext0008	cln	#3#f#s##	spk2	16.89	17.15	0.01	_
20091112_RATP_SCD_0754	7	14	est	NULL	v	NULL	B_GVfn	AUX	16	idtext0008	être	P#3##s##	spk2	17.16	17.21	0.01	_
20091112_RATP_SCD_0754	7	15	pas	NULL	advneg	NULL	I_GVfn	MOD	16	idtext0008	pas	#####	spk2	17.22	17.35	0.01	_
20091112_RATP_SCD_0754	7	16	arrivée	NULL	vppart	NULL	I_GVfn	DEP_COORD	12	idtext0008	arriver	K##f#s##	spk2	17.36	17.7	0.38	//
20091112_RATP_SCD_0754	7	17	donc	NULL	coo	NULL	B_NULL	ROOT	0	idtext0009	donc	#####	spk2	18.08	18.55	0.01	_
20091112_RATP_SCD_0754	7	18	j'	NULL	cln	NULL	B_GN	SUJ	20	idtext0009	cln	#1##s##	spk2	18.56	18.75	0.01	_
20091112_RATP_SCD_0754	7	19	ai	NULL	v	NULL	B_GVf	AUX	20	idtext0009	avoir	P#1##s##	spk2	18.76	19.06	0.01	_
20091112_RATP_SCD_0754	7	20	acheté	NULL	vppart	NULL	I_GVf	DEP_COORD	17	idtext0009	acheter	K##m#s##	spk2	19.07	19.53	0.01	_
20091112_RATP_SCD_0754	7	21	une	NULL	det	NULL	B_GN	DET	22	idtext0009	un	##f#s##i	spk2	19.54	19.67	0.01	_
20091112_RATP_SCD_0754	7	22	carte	NULL	nc	B_PRD	I_GN	OBJ	20	idtext0010	carte	##f#s##	spk2	19.68	19.92	0.01	_
20091112_RATP_SCD_0754	7	23	Orange	NULL	np	I_PRD	I_GN	MOD	22	idtext0010	Orange	##m#s##	spk2	19.93	20.23	0.01	_
20091112_RATP_SCD_0754	7	24	à	NULL	prep	NULL	B_GP	MOD	22	idtext0011	à	#####	spk2	20.24	20.28	0.01	_
20091112_RATP_SCD_0754	7	25	la	NULL	det	NULL	I_GP	DET	26	idtext0011	le	##m#s##d	spk2	20.29	20.46	0.01	_
20091112_RATP_SCD_0754	7	26	semaine	NULL	nc	NULL	I_GP	OBJ	24	idtext0011	semaine	##f#s##	spk2	20.47	21.02	0.10	_
20091112_RATP_SCD_0754	7	27	et	NULL	coo	NULL	B_NULL	ROOT	0	idtext0012	et	#####	spk2	21.12	21.32	0.01	_
20091112_RATP_SCD_0754	7	28	ma	NULL	det	NULL	B_GN	DET	29	idtext0012	mon	##f#s##o	spk2	21.33	21.52	0.01	_
20091112_RATP_SCD_0754	7	29	carte	NULL	nc	B_PRD	I_GN	SUJ	35	idtext0013	carte	##f#s##	spk2	21.53	21.79	0.01	_
20091112_RATP_SCD_0754	7	30	Orange	NULL	np	I_PRD	I_GN	MOD	29	idtext0013	Orange	##m#s##	spk2	21.8	22.15	0.01	_
20091112_RATP_SCD_0754	7	31	ma	NULL	det	NULL	B_GN	DET	32	idtext0014	mon	##f#s##o	spk2	22.16	22.24	0.01	_
20091112_RATP_SCD_0754	7	32	carte	NULL	nc	B_PRD	I_GN	SUJ	35	idtext0015	carte	##f#s##	spk2	22.25	22.45	0.01	_
20091112_RATP_SCD_0754	7	33	Imagine+R	NULL	np	I_PRD	I_GN	MOD	32	idtext0015	Imagine+R	#####	spk2	22.46	22.82	0.01	_
20091112_RATP_SCD_0754	7	34	est	NULL	v	NULL	B_GVf	AUX	35	idtext0016	être	P#3##s##	spk2	22.83	22.91	0.01	//
20091112_RATP_SCD_0754	7	35	arrivée	NULL	vppart	NULL	I_GVf	DEP_COORD	27	idtext0016	arriver	K##f#s##	spk2	22.92	23.21	0.01	_
20091112_RATP_SCD_0754	7	36	hier	NULL	adv	NULL	B_GADV	MOD	35	idtext0016	hier	#####	spk2	23.22	23.69	0.87	_
20091112_RATP_SCD_0754	7	37	donc	NULL	coo	NULL	B_NULL	ROOT	0	idtext0017	donc	#####	spk2	24.56	24.79	0.01	_
20091112_RATP_SCD_0754	7	38	je	NULL	cln	NULL	B_GN	SUJ	39	idtext0017	cln	#1##s##	spk2	24.8	24.88	0.01	_
20091112_RATP_SCD_0754	7	39	voulais	NULL	v	NULL	B_GVf	DEP_COORD	37	idtext0017	vouloir	I#12##s##	spk2	24.89	25.04	0.01	_
20091112_RATP_SCD_0754	7	40	savoir	NULL	vinf	NULL	I_GVf	OBJ	39	idtext0017	savoir	W#####	spk2	25.05	25.43	0.01	_
20091112_RATP_SCD_0754	7	41	on	NULL	cln	NULL	B_GN	SUJ_IMP	44	idtext0017	cln	#3##s##	spk2	25.44	25.52	0.01	_
20091112_RATP_SCD_0754	7	42	m'	NULL	clo	NULL	B_GN	A_OBJ	44	idtext0017	cla	#1##s##	spk2	25.53	25.58	0.01	_
20091112_RATP_SCD_0754	7	43	a	NULL	v	NULL	B_GVf	AUX	44	idtext0017	avoir	P#3##s##	spk2	25.59	25.63	0.01	_
20091112_RATP_SCD_0754	7	44	dit	NULL	vppart	NULL	I_GVf	ROOT	0	idtext0017	dire	J#3##s##	spk2	25.64	25.76	0.01	_
20091112_RATP_SCD_0754	7	45	qu'	NULL	csu	NULL	B_NULL	OBJ	44	idtext0017	qu'	#####	spk2	25.77	25.8	0.01	_
20091112_RATP_SCD_0754	7	46	il	NULL	cln	NULL	B_GN	SUJ_IMP	47	idtext0017	cln	#3#m#s##	spk2	25.81	25.86	0.01	_
20091112_RATP_SCD_0754	7	47	était	NULL	v	NULL	B_GVf	OBJ	45	idtext0017	être	I#3##s##	spk2	25.87	26.04	0.01	_
20091112_RATP_SCD_0754	7	48	possible	NULL	adj	NULL	B_GADJ	ATS	47	idtext0017	possible	###s##	spk2	26.05	26.31	0.01	_
20091112_RATP_SCD_0754	7	49	d'	NULL	prep	NULL	B_GP	DEP	48	idtext0017	d'	#####	spk2	26.32	26.37	0.01	_
20091112_RATP_SCD_0754	7	50	être	NULL	vinf	NULL	I_GP	AUX	51	idtext0017	être	W#####	spk2	26.38	26.57	0.01	_
20091112_RATP_SCD_0754	7	51	remboursée	NULL	vppart	NULL	I_GP	OBJ	49	idtext0017	rembourser	K##f#s##	spk2	26.58	27.35	0.17	_
20091112_RATP_SCD_0754	7	52	de	NULL	prep	NULL	B_NULL	NOLINK	0	idtext0018	de	#####	spk2	27.52	27.56	0.01	_
20091112_RATP_SCD_0754	7	53	la	NULL	det	NULL	B_NULL	NOLINK	0	idtext0018	le	##m#s##d	spk2	27.57	27.74	?	_

20091112_RATP_SCD_0754	8	1	carte	NULL	nc	B_PRD	B_GN	NOLINK	0	idtext0019	carte	##f#s##	spk2	27.78	28.02	0.01	_
20091112_RATP_SCD_0754	8	2	Orange	NULL	np	I_PRD	I_GN	MOD	1	idtext0019	Orange	##m#s##	spk2	28.03	29.09	?	//

20091112_RATP_SCD_0754	9	1	cette	NULL	det	NULL	B_GN	DET	2	idtext0020	cet	##f#s##e	spk1	27.79	27.87	0.01	_
20091112_RATP_SCD_0754	9	2	carte	NULL	nc	NULL	I_GN	OBJ	6	idtext0020	carte	##f#s##	spk1	27.88	28.01	0.01	_
20091112_RATP_SCD_0754	9	3	vous	NULL	cln	NULL	B_GN	SUJ	6	idtext0020	cln	#2##p##	spk1	28.02	28.1	0.01	_
20091112_RATP_SCD_0754	9	4	l'	NULL	clo	NULL	B_GN	OBJ	6	idtext0020	cla	#3##s##	spk1	28.11	28.13	0.01	_
20091112_RATP_SCD_0754	9	5	avez	NULL	v	NULL	B_GVf	AUX	6	idtext0020	avoir	P#2##p##	spk1	28.14	28.56	0.01	_
20091112_RATP_SCD_0754	9	6	prise	NULL	vppart	NULL	I_GVf	ROOT	0	idtext0020	prendre	K##f#s##	spk1	28.57	28.81	0.01	_
20091112_RATP_SCD_0754	9	7	quand	NULL	adv	NULL	B_GADV	MOD	6	idtext0020	quand	#####	spk1	28.82	29.09	?	_

20091112_RATP_SCD_0754	10	1	comment	NULL	adv	NULL	B_GADV	NOLINK	0	idtext0021	comment	#####	spk2	29.79	30.13	?	//

20091112_RATP_SCD_0754	11	1	la	NULL	det	NULL	B_GN	DET	2	idtext0022	le	##m#s##d	spk1	30.17	30.27	0.01	_
20091112_RATP_SCD_0754	11	2	carte	NULL	nc	B_PRD	I_GN	ROOT	0	idtext0023	carte	##f#s##	spk1	30.28	30.45	0.01	_
20091112_RATP_SCD_0754	11	3	Orange	NULL	np	I_PRD	I_GN	MOD	2	idtext0023	Orange	##m#s##	spk1	30.46	30.71	0.01	_
20091112_RATP_SCD_0754	11	4	à	NULL	prep	NULL	B_GP	MOD	2	idtext0024	à	#####	spk1	30.72	30.75	0.01	_
20091112_RATP_SCD_0754	11	5	la	NULL	det	NULL	I_GP	DET	6	idtext0024	le	##m#s##d	spk1	30.76	30.83	0.01	_
20091112_RATP_SCD_0754	11	6	semaine	NULL	nc	NULL	I_GP	OBJ	4	idtext0024	semaine	##f#s##	spk1	30.84	31.35	?	//

20091112_RATP_SCD_0754	12	1	lundi	NULL	nc	NULL	B_GN	NOLINK	0	idtext0025	lundi	##m#s##	spk2	31.42	31.97	?	//

20091112_RATP_SCD_0754	13	1	alors	NULL	adv	NULL	B_GADV	MOD	2	idtext0026	alors	#####	spk1	33.37	33.71	0.01	_
20091112_RATP_SCD_0754	13	2	normalement	NULL	adv	NULL	I_GADV	ROOT	0	idtext0026	normalement	#####	spk1	33.72	34.42	0.01	_
20091112_RATP_SCD_0754	13	3	quand	NULL	csu	NULL	B_NULL	ROOT	0	idtext0026	quand	#####	spk1	34.43	34.68	0.01	_
20091112_RATP_SCD_0754	13	4	euh	DISF_M	pres	NULL	NULL	NOLINK	0	idtext0026	euh	#####	spk1	34.69	34.96	0.01	_
20091112_RATP_SCD_0754	13	5	on	NULL	cln	NULL	B_GN	SUJ_IMP	6	idtext0026	cln	#3##s##	spk1	34.97	35.06	0.01	_
20091112_RATP_SCD_0754	13	6	fait	NULL	v	NULL	B_GVf	OBJ	3	idtext0026	faire	P#3##s##	spk1	35.07	35.21	0.01	_
20091112_RATP_SCD_0754	13	7	une	NULL	det	NULL	B_GN	DET	8	idtext0027	un	##f#s##i	spk1	35.22	35.27	0.01	_
20091112_RATP_SCD_0754	13	8	demande	NULL	nc	NULL	I_GN	OBJ	6	idtext0027	demande	##f#s##	spk1	35.28	35.87	0.01	_
20091112_RATP_SCD_0754	13	9	de	NULL	prep	NULL	B_GP	DEP	8	idtext0027	de	#####	spk1	35.88	35.91	0.01	_
20091112_RATP_SCD_0754	13	10	remboursement	NULL	nc	NULL	I_GP	OBJ	9	idtext0027	remboursement	##m#s##	spk1	35.92	36.87	0.59	/
20091112_RATP_SCD_0754	13	11	il	NULL	cln	NULL	B_GN	SUJ_IMP	12	idtext0028	cln	#3#m#s##	spk1	37.46	37.52	0.01	_
20091112_RATP_SCD_0754	13	12	faut	NULL	v	NULL	B_GVf	ROOT	0	idtext0028	falloir	P#3##s##	spk1	37.53	37.67	0.01	_
20091112_RATP_SCD_0754	13	13	le	NULL	clo	NULL	B_GN	OBJ	14	idtext0028	cla	#3#m#s##	spk1	37.68	37.72	0.01	_
20091112_RATP_SCD_0754	13	14	faire	NULL	vinf	NULL	B_GVi	OBJ	12	idtext0028	faire	W#####	spk1	37.73	37.89	0.01	_
20091112_RATP_SCD_0754	13	15	le	NULL	det	NULL	B_GN	DET	17	idtext0028	le	##m#s##d	spk1	37.9	38.0	0.01	_
20091112_RATP_SCD_0754	13	16	premier	NULL	adj	NULL	I_GN	MOD	17	idtext0028	premier	##m#s##	spk1	38.01	38.36	0.01	_
20091112_RATP_SCD_0754	13	17	jour	NULL	nc	NULL	I_GN	OBJ	14	idtext0028	jour	##m#s##	spk1	38.37	38.61	0.01	_
20091112_RATP_SCD_0754	13	18	de	NULL	prep	NULL	B_GP	DEP	17	idtext0028	de	#####	spk1	38.62	38.75	0.01	_
20091112_RATP_SCD_0754	13	19	l'	NULL	det	NULL	I_GP	DET	20	idtext0028	le	###s##d	spk1	38.76	38.78	0.01	_
20091112_RATP_SCD_0754	13	20	utilisation	NULL	nc	NULL	I_GP	OBJ	18	idtext0028	utilisation	##f#s##	spk1	38.79	39.4	0.01	_
20091112_RATP_SCD_0754	13	21	même	NULL	adj	NULL	I_GP	MOD	20	idtext0028	même	###s##	spk1	39.41	39.59	0.01	_
20091112_RATP_SCD_0754	13	22	la	NULL	det	NULL	B_GN	DET	23	idtext0028	le	##m#s##d	spk1	39.6	39.7	0.01	_
20091112_RATP_SCD_0754	13	23	veille	NULL	nc	NULL	I_GN	OBJ	14	idtext0028	veille	##f#s##	spk1	39.71	39.92	0.01	_
20091112_RATP_SCD_0754	13	24	du	NULL	prep	NULL	B_GP	DEP	23	idtext0028	du	#####	spk1	39.93	40.05	0.01	_
20091112_RATP_SCD_0754	13	25	premier	NULL	adj	NULL	I_GP	MOD	26	idtext0028	premier	##m#s##	spk1	40.06	40.35	0.01	_
20091112_RATP_SCD_0754	13	26	jour	NULL	nc	NULL	I_GP	OBJ	24	idtext0028	jour	##m#s##	spk1	40.36	40.5	0.01	_
20091112_RATP_SCD_0754	13	27	d'	NULL	prep	NULL	B_GP	DEP	26	idtext0028	d'	#####	spk1	40.51	40.54	0.01	_
20091112_RATP_SCD_0754	13	28	utilisation	NULL	nc	NULL	I_GP	OBJ	27	idtext0028	utilisation	##f#s##	spk1	40.55	41.11	0.01	_
20091112_RATP_SCD_0754	13	29	du	NULL	prep	NULL	B_GP	DEP	28	idtext0028	du	#####	spk1	41.12	41.25	0.01	_
20091112_RATP_SCD_0754	13	30	passe	NULL	nc	NULL	I_GP	OBJ	29	idtext0028	passe	###s##	spk1	41.26	41.48	0.28	_
20091112_RATP_SCD_0754	13	31	du	NULL	prep	NULL	B_GP	ROOT	0	idtext0029	du	#####	spk1	41.76	41.83	0.01	_
20091112_RATP_SCD_0754	13	32	premier	NULL	adj	NULL	I_GP	MOD	33	idtext0029	premier	##m#s##	spk1	41.84	42.11	0.01	_
20091112_RATP_SCD_0754	13	33	jour	NULL	nc	NULL	I_GP	OBJ	31	idtext0029	jour	##m#s##	spk1	42.12	42.24	0.01	_
20091112_RATP_SCD_0754	13	34	de	NULL	prep	NULL	B_GP	ROOT	0	idtext0029	de	#####	spk1	42.25	42.34	0.01	_
20091112_RATP_SCD_0754	13	35	validité	NULL	nc	NULL	I_GP	OBJ	34	idtext0029	validité	##f#s##	spk1	42.35	42.91	0.01	_
20091112_RATP_SCD_0754	13	36	du	NULL	prep	NULL	B_GP	DEP	35	idtext0029	du	#####	spk1	42.92	43.07	0.01	_
20091112_RATP_SCD_0754	13	37	passe	NULL	nc	NULL	I_GP	OBJ	36	idtext0029	passe	###s##	spk1	43.08	43.37	0.28	_
20091112_RATP_SCD_0754	13	38	en+fait	GREF	adv	NULL	B_GADV	NOLINK	0	idtext0030	en+fait	#####	spk1	43.65	43.86	0.01	_
20091112_RATP_SCD_0754	13	39	vous	NULL	cln	NULL	B_GN	SUJ	42	idtext0030	cln	#2##p##	spk1	43.87	43.96	0.01	_
20091112_RATP_SCD_0754	13	40	l'	NULL	clo	NULL	B_GN	OBJ	42	idtext0030	cla	#3##s##	spk1	43.97	44.01	0.01	_
20091112_RATP_SCD_0754	13	41	avez	NULL	v	NULL	B_GVf	AUX	42	idtext0030	avoir	P#2##p##	spk1	44.02	44.2	0.01	_
20091112_RATP_SCD_0754	13	42	chargé	NULL	vppart	NULL	I_GVf	ROOT	0	idtext0030	charger	K##m#s##	spk1	44.21	44.51	0.01	_
20091112_RATP_SCD_0754	13	43	pour	NULL	prep	NULL	B_GP	P_OBJ	42	idtext0030	pour	#####	spk1	44.52	44.63	0.01	_
20091112_RATP_SCD_0754	13	44	la	NULL	det	NULL	I_GP	DET	45	idtext0030	le	##m#s##d	spk1	44.64	44.81	0.01	_
20091112_RATP_SCD_0754	13	45	semaine	NULL	nc	NULL	I_GP	OBJ	43	idtext0030	semaine	##f#s##	spk1	44.82	45.08	0.01	/
20091112_RATP_SCD_0754	13	46	c'	NULL	cln	NULL	B_GN	SUJ_IMP	47	idtext0030	ce	###s##	spk1	45.09	45.12	0.01	_
20091112_RATP_SCD_0754	13	47	est	NULL	v	NULL	B_GVf	ROOT	0	idtext0030	être	P#3##s##	spk1	45.13	45.15	0.01	_
20091112_RATP_SCD_0754	13	48	ça	NULL	pro	NULL	B_GN	ATS	47	idtext0030	ça	#####	spk1	45.16	45.44	?	_

20091112_RATP_SCD_0754	14	1	ouais	NULL	adv	NULL	B_GADV	NOLINK	0	idtext0031	ouais	#####	spk2	45.8	46.18	?	//

20091112_RATP_SCD_0754	15	1	donc	NULL	coo	NULL	B_NULL	ROOT	0	idtext0032	donc	#####	spk1	47.18	47.36	0.01	_
20091112_RATP_SCD_0754	15	2	ça	NULL	pro	NULL	B_GN	SUJ_IMP	3	idtext0032	ça	#####	spk1	47.37	47.47	0.01	_
20091112_RATP_SCD_0754	15	3	va	NULL	v	NULL	B_GVf	DEP_COORD	1	idtext0032	aller	P#3##s##	spk1	47.48	47.59	0.01	_
20091112_RATP_SCD_0754	15	4	être	NULL	vinf	NULL	I_GVf	OBJ	3	idtext0032	être	W#####	spk1	47.6	47.74	0.01	_
20091112_RATP_SCD_0754	15	5	compliqué	NULL	vppart	NULL	B_GVf	ATS	3	idtext0032	compliquer	K##m#s##	spk1	47.75	48.23	0.01	_
20091112_RATP_SCD_0754	15	6	quand+même	NULL	adv	NULL	B_GADV	MOD	5	idtext0032	quand+même	#####	spk1	48.24	48.44	0.01	_
20091112_RATP_SCD_0754	15	7	d'	NULL	prep	NULL	B_GP	DE_OBJ	5	idtext0032	d'	#####	spk1	48.45	48.52	0.01	_
20091112_RATP_SCD_0754	15	8	obtenir	NULL	vinf	NULL	I_GP	OBJ	7	idtext0032	obtenir	W#####	spk1	48.53	48.9	0.01	_
20091112_RATP_SCD_0754	15	9	un	NULL	det	NULL	B_GN	DET	10	idtext0032	un	##m#s##i	spk1	48.91	48.93	0.01	_
20091112_RATP_SCD_0754	15	10	remboursement	NULL	nc	NULL	I_GN	OBJ	8	idtext0032	remboursement	##m#s##	spk1	48.94	49.59	0.18	//
20091112_RATP_SCD_0754	15	11	euh	DISF_M	pres	NULL	NULL	NOLINK	0	idtext0033	euh	#####	spk1	49.77	50.03	0.01	_
20091112_RATP_SCD_0754	15	12	Imagine+R	NULL	np	B_PRD	B_GN	SUJ	16	idtext0034	Imagine+R	#####	spk1	50.04	50.62	0.01	//
20091112_RATP_SCD_0754	15	13	ils	NULL	cln	NULL	B_GN	SUJ	16	idtext0035	cln	#3#m#p##	spk1	50.63	50.75	0.01	_
20091112_RATP_SCD_0754	15	14	vous	NULL	clo	NULL	B_GN	A_OBJ	16	idtext0035	cln	#2##p##	spk1	50.76	50.9	0.01	_
20091112_RATP_SCD_0754	15	15	ont	NULL	v	NULL	B_GVf	AUX	16	idtext0035	avoir	P#3##p##	spk1	50.91	50.95	0.01	_
20091112_RATP_SCD_0754	15	16	envoyé	NULL	vppart	NULL	I_GVf	ROOT	0	idtext0035	envoyer	K##m#s##	spk1	50.96	51.15	0.01	_
20091112_RATP_SCD_0754	15	17	votre	NULL	det	NULL	B_GN	DET	18	idtext0035	votre	###s##o	spk1	51.16	51.36	0.01	_
20091112_RATP_SCD_0754	15	18	passe	NULL	nc	NULL	I_GN	OBJ	16	idtext0035	passe	###s##	spk1	51.37	51.61	0.01	_
20091112_RATP_SCD_0754	15	19	avec	NULL	prep	NULL	B_GP	P_OBJ	18	idtext0035	avec	#####	spk1	51.62	51.76	0.01	_
20091112_RATP_SCD_0754	15	20	beaucoup+de	NULL	det	NULL	I_GP	DET	21	idtext0035	beaucoup+de	#####	spk1	51.77	52.03	0.01	_
20091112_RATP_SCD_0754	15	21	retard	NULL	nc	NULL	I_GP	OBJ	19	idtext0035	retard	##m#s##	spk1	52.04	52.51	?	//

20091112_RATP_SCD_0754	16	1	ah+ben	DISF_M	pres	NULL	NULL	NOLINK	0	idtext0036	ah+ben	#####	spk2	53.13	53.63	0.01	_
20091112_RATP_SCD_0754	16	2	hier	NULL	adv	NULL	B_GADV	NOLINK	0	idtext0036	hier	#####	spk2	53.64	53.98	0.01	/
20091112_RATP_SCD_0754	16	3	quoi	DISF_M	pres	NULL	NULL	NOLINK	0	idtext0036	quoi	#####	spk2	53.99	54.19	0.01	_
20091112_RATP_SCD_0754	16	4	euh	DISF_M	pres	NULL	NULL	NOLINK	0	idtext0036	euh	#####	spk2	54.2	54.38	?	_

20091112_RATP_SCD_0754	17	1	je	NULL	cln	NULL	B_GN	SUJ	3	idtext0037	cln	#1##s##	spk2	54.42	54.44	0.01	_
20091112_RATP_SCD_0754	17	2	l'	NULL	clo	NULL	B_GN	OBJ	3	idtext0037	cla	#3##s##	spk2	54.45	54.47	0.01	_
20091112_RATP_SCD_0754	17	3	attendais	NULL	v	NULL	B_GVf	ROOT	0	idtext0037	attendre	I#12##s##	spk2	54.48	54.85	0.01	_
20091112_RATP_SCD_0754	17	4	pour	NULL	prep	NULL	B_NULL	NOLINK	0	idtext0037	pour	#####	spk2	54.86	55.28	0.01	_
20091112_RATP_SCD_0754	17	5	euh	DISF_M	pres	NULL	NULL	NOLINK	0	idtext0037	euh	#####	spk2	55.29	55.41	?	//

20091112_RATP_SCD_0754	18	1	mais	NULL	coo	NULL	B_NULL	ROOT	0	idtext0038	mais	#####	spk1	54.42	54.49	0.01	_
20091112_RATP_SCD_0754	18	2	par+rapport+à	NULL	prep	NULL	B_NULL	DEP_COORD	1	idtext0038	par+rapport+à	#####	spk1	54.5	55.29	0.01	_
20091112_RATP_SCD_0754	18	3	la	NULL	det	NULL	B_NULL	NOLINK	0	idtext0038	le	##m#s##d	spk1	55.3	55.41	?	_

20091112_RATP_SCD_0754	19	1	demande	NULL	nc	NULL	B_GN	ROOT	0	idtext0039	demande	##f#s##	spk1	55.45	55.72	0.01	_
20091112_RATP_SCD_0754	19	2	que	NULL	prorel	NULL	B_NULL	OBJ	5	idtext0039	que	#####	spk1	55.73	55.78	0.01	_
20091112_RATP_SCD_0754	19	3	vous	NULL	cln	NULL	B_GN	SUJ	5	idtext0039	cln	#2##p##	spk1	55.79	55.99	0.01	_
20091112_RATP_SCD_0754	19	4	avez	NULL	v	NULL	B_GVf	AUX	5	idtext0039	avoir	P#2##p##	spk1	56.0	56.08	0.01	_
20091112_RATP_SCD_0754	19	5	faite	NULL	vppart	NULL	I_GVf	MOD_REL	1	idtext0039	faire	K##f#s##	spk1	56.09	56.36	?	//

20091112_RATP_SCD_0754	20	1	ah	DISF_M	pres	NULL	NULL	NOLINK	0	idtext0040	ah	#####	spk2	56.4	56.63	0.01	_
20091112_RATP_SCD_0754	20	2	la	NULL	det	NULL	B_GN	DET	3	idtext0041	le	##m#s##d	spk2	56.64	56.9	0.01	_
20091112_RATP_SCD_0754	20	3	demande	NULL	nc	NULL	I_GN	OBJ	7	idtext0041	demande	##f#s##	spk2	56.91	57.22	0.01	_
20091112_RATP_SCD_0754	20	4	je	NULL	cln	NULL	B_GN	SUJ	7	idtext0041	cln	#1##s##	spk2	57.23	57.31	0.01	_
20091112_RATP_SCD_0754	20	5	l'	NULL	clo	NULL	B_GN	OBJ	7	idtext0041	cla	#3##s##	spk2	57.32	57.34	0.01	_
20091112_RATP_SCD_0754	20	6	ai	NULL	v	NULL	B_GVf	AUX	7	idtext0041	avoir	P#1##s##	spk2	57.35	57.37	0.01	_
20091112_RATP_SCD_0754	20	7	faite	NULL	vppart	NULL	I_GVf	ROOT	0	idtext0041	faire	K##f#s##	spk2	57.38	57.56	0.01	_
20091112_RATP_SCD_0754	20	8	fin	NULL	nc	NULL	B_GN	OBJ	7	idtext0041	fin	###s##	spk2	57.57	57.7	0.01	_
20091112_RATP_SCD_0754	20	9	septembre	NULL	nc	NULL	I_GN	MOD	8	idtext0041	septembre	##m#s##	spk2	57.71	58.47	?	//

20091112_RATP_SCD_0754	21	1	fin	NULL	nc	NULL	B_GN	ROOT	0	idtext0042	fin	###s##	spk1	58.62	58.77	0.01	_
20091112_RATP_SCD_0754	21	2	septembre	NULL	nc	NULL	I_GN	MOD	1	idtext0042	septembre	##m#s##	spk1	58.78	59.21	?	//

20091112_RATP_SCD_0754	22	1	oui	NULL	adv	NULL	B_GADV	NOLINK	0	idtext0043	oui	#####	spk2	59.55	59.78	?	//

20091112_RATP_SCD_0754	23	1	donc	NULL	coo	NULL	B_NULL	ROOT	0	idtext0044	donc	#####	spk1	59.82	60.46	0.01	_
20091112_RATP_SCD_0754	23	2	euh	DISF_M	pres	NULL	NULL	NOLINK	0	idtext0044	euh	#####	spk1	60.47	60.56	0.01	_
20091112_RATP_SCD_0754	23	3	oui	NULL	adv	NULL	B_GADV	NOLINK	0	idtext0044	oui	#####	spk1	60.57	60.7	0.01	_
20091112_RATP_SCD_0754	23	4	au-delà+de	NULL	prep	NULL	B_GP	DEP_COORD	1	idtext0044	au-delà+de	#####	spk1	60.71	61.0	0.01	_
20091112_RATP_SCD_0754	23	5	trois	NULL	adj	NULL	I_GP	MOD	6	idtext0044	trois	#####	spk1	61.01	61.17	0.01	_
20091112_RATP_SCD_0754	23	6	semaines	NULL	nc	NULL	I_GP	OBJ	4	idtext0044	semaine	##f#p##	spk1	61.18	61.56	?	//

20091112_RATP_SCD_0754	24	1	ouais	NULL	adv	NULL	B_GADV	NOLINK	0	idtext0045	ouais	#####	spk2	61.95	62.17	?	//

20091112_RATP_SCD_0754	25	1	à+ce+moment-là	NULL	adv	NULL	B_GADV	NOLINK	0	idtext0046	à+ce+moment-là	#####	spk1	63.19	63.56	0.01	_
20091112_RATP_SCD_0754	25	2	il	NULL	cln	NULL	B_GN	SUJ_IMP	3	idtext0046	cln	#3#m#s##	spk1	63.57	63.62	0.01	_
20091112_RATP_SCD_0754	25	3	faut	NULL	v	NULL	B_GVf	ROOT	0	idtext0046	falloir	P#3##s##	spk1	63.63	63.77	0.01	_
20091112_RATP_SCD_0754	25	4	voir	NULL	vinf	NULL	I_GVf	OBJ	3	idtext0046	voir	W#####	spk1	63.78	63.92	0.01	_
20091112_RATP_SCD_0754	25	5	avec	NULL	prep	NULL	B_GP	P_OBJ	3	idtext0046	avec	#####	spk1	63.93	64.15	0.01	_
20091112_RATP_SCD_0754	25	6	Imagine+R	NULL	np	B_PRD	I_GP	OBJ	5	idtext0047	Imagine+R	#####	spk1	64.16	64.65	0.01	/
20091112_RATP_SCD_0754	25	7	s'	NULL	csu	NULL	B_NULL	MOD	3	idtext0048	se	#3##p##	spk1	64.66	64.77	0.01	_
20091112_RATP_SCD_0754	25	8	ils	NULL	cln	NULL	B_GN	SUJ	9	idtext0048	cln	#3#m#p##	spk1	64.78	64.86	0.01	_
20091112_RATP_SCD_0754	25	9	peuvent	NULL	v	NULL	B_GVf	OBJ	7	idtext0048	pouvoir	P#3##p##	spk1	64.87	65.01	0.01	_
20091112_RATP_SCD_0754	25	10	vous	NULL	clo	NULL	B_GN	A_OBJ	11	idtext0048	cln	#2##p##	spk1	65.02	65.17	0.01	_
20091112_RATP_SCD_0754	25	11	accorder	NULL	vinf	NULL	B_GVi	OBJ	9	idtext0048	accorder	W#####	spk1	65.18	65.47	0.01	_
20091112_RATP_SCD_0754	25	12	un	NULL	det	NULL	B_GN	DET	13	idtext0048	un	##m#s##i	spk1	65.48	65.53	0.01	_
20091112_RATP_SCD_0754	25	13	geste	NULL	nc	NULL	I_GN	OBJ	11	idtext0048	geste	###s##	spk1	65.54	65.77	0.01	_
20091112_RATP_SCD_0754	25	14	commercial	NULL	adj	NULL	I_GN	MOD	13	idtext0048	commercial	##m#s##	spk1	65.78	66.33	0.04	_
20091112_RATP_SCD_0754	25	15	par+rapport	NULL	prep	NULL	B_NULL	ROOT	0	idtext0049	par+rapport	#####	spk1	66.37	66.73	0.01	_
20091112_RATP_SCD_0754	25	16	au	NULL	prep	NULL	B_GP	OBJ	15	idtext0049	au	#####	spk1	66.74	66.77	0.01	_
20091112_RATP_SCD_0754	25	17	fait	NULL	nc	NULL	I_GP	OBJ	16	idtext0049	fait	##m#s##	spk1	66.78	67.06	0.01	_
20091112_RATP_SCD_0754	25	18	que	NULL	csu	NULL	B_NULL	OBJ	17	idtext0049	que	#####	spk1	67.07	67.29	0.01	_
20091112_RATP_SCD_0754	25	19	vous	NULL	cln	NULL	B_GN	SUJ	21	idtext0049	cln	#2##p##	spk1	67.3	67.47	0.01	_
20091112_RATP_SCD_0754	25	20	avez	NULL	v	NULL	B_GVf	AUX	21	idtext0049	avoir	P#2##p##	spk1	67.48	67.62	0.01	_
20091112_RATP_SCD_0754	25	21	attendu	NULL	vppart	NULL	I_GVf	OBJ	18	idtext0049	attendre	K##m#s##	spk1	67.63	68.01	0.01	_
20091112_RATP_SCD_0754	25	22	au-delà+de	NULL	prep	NULL	B_GP	MOD	21	idtext0049	au-delà+de	#####	spk1	68.02	68.31	0.01	_
20091112_RATP_SCD_0754	25	23	trois	NULL	adj	NULL	I_GP	MOD	24	idtext0049	trois	#####	spk1	68.32	68.45	0.01	_
20091112_RATP_SCD_0754	25	24	semaines	NULL	nc	NULL	I_GP	OBJ	22	idtext0049	semaine	##f#p##	spk1	68.46	68.78	0.04	_
20091112_RATP_SCD_0754	25	25	et	NULL	coo	NULL	B_NULL	ROOT	0	idtext0050	et	#####	spk1	68.82	68.85	0.01	_
20091112_RATP_SCD_0754	25	26	que	NULL	csu	NULL	B_NULL	NOLINK	0	idtext0050	que	#####	spk1	68.86	68.88	0.01	_
20091112_RATP_SCD_0754	25	27	vous	NULL	cln	NULL	B_GN	SUJ	29	idtext0050	cln	#2##p##	spk1	68.89	69.01	0.01	_
20091112_RATP_SCD_0754	25	28	avez	NULL	v	NULL	B_GVf	AUX	29	idtext0050	avoir	P#2##p##	spk1	69.02	69.17	0.01	_
20091112_RATP_SCD_0754	25	29	dû	NULL	vppart	NULL	I_GVf	DEP_COORD	25	idtext0050	devoir	K##m#s##	spk1	69.18	69.33	0.01	_
20091112_RATP_SCD_0754	25	30	acheter	NULL	vinf	NULL	B_GVi	OBJ	29	idtext0050	acheter	W#####	spk1	69.34	69.61	0.01	_
20091112_RATP_SCD_0754	25	31	un	NULL	det	NULL	B_GN	DET	32	idtext0050	un	##m#s##i	spk1	69.62	69.71	0.01	_
20091112_RATP_SCD_0754	25	32	passe+Navigo	NULL	np	B_PRD	I_GN	OBJ	30	idtext0050	passe+Navigo	#####	spk1	69.72	70.37	0.01	_
20091112_RATP_SCD_0754	25	33	Orange	NULL	np	I_PRD	I_GN	MOD	32	idtext0051	Orange	##m#s##	spk1	70.38	70.7	0.01	_
20091112_RATP_SCD_0754	25	34	en	NULL	prep	NULL	B_GP	MOD	30	idtext0052	en	#####	spk1	70.71	70.8	0.01	_
20091112_RATP_SCD_0754	25	35	attendant	NULL	vprespart	NULL	I_GP	OBJ	34	idtext0052	attendre	G#####	spk1	70.81	71.31	?	//

20091112_RATP_SCD_0754	26	1	d'accord	NULL	adv	NULL	B_GADV	NOLINK	0	idtext0053	d'accord	#####	spk2	71.68	72.36	?	//

20091112_RATP_SCD_0754	27	1	il	NULL	cln	NULL	B_GN	SUJ_IMP	3	idtext0054	cln	#3#m#s##	spk1	71.67	71.82	0.01	_
20091112_RATP_SCD_0754	27	2	y	NULL	clo	NULL	B_GN	AFF	3	idtext0054	y	#####	spk1	71.83	71.93	0.01	_
20091112_RATP_SCD_0754	27	3	a	NULL	v	NULL	B_GVf	ROOT	0	idtext0054	avoir	P#3##s##	spk1	71.94	72.09	0.01	_
20091112_RATP_SCD_0754	27	4	que	NULL	advneg	NULL	B_NULL	MOD	5	idtext0054	que	#####	spk1	72.1	72.15	0.01	_
20091112_RATP_SCD_0754	27	5	cette	NULL	det	NULL	B_NULL	OBJ	3	idtext0054	cet	##f#s##e	spk1	72.16	72.36	?	//

20091112_RATP_SCD_0754	28	1	solution	NULL	nc	NULL	B_GN	NOLINK	0	idtext0055	solution	##f#s##	spk1	72.41	72.82	0.01	_
20091112_RATP_SCD_0754	28	2	là	NULL	adv	NULL	B_GADV	NOLINK	0	idtext0055	là	#####	spk1	72.83	72.89	0.01	_
20091112_RATP_SCD_0754	28	3	hein	DISF_M	pres	NULL	NULL	NOLINK	0	idtext0055	hein	#####	spk1	72.9	73.29	?	//

20091112_RATP_SCD_0754	29	1	d'accord	NULL	adv	NULL	B_GADV	NOLINK	0	idtext0056	d'accord	#####	spk2	73.71	74.14	0.01	//
20091112_RATP_SCD_0754	29	2	et	NULL	coo	NULL	B_NULL	ROOT	0	idtext0056	et	#####	spk2	74.15	74.28	0.01	_
20091112_RATP_SCD_0754	29	3	c'	NULL	cln	NULL	B_GN	SUJ_IMP	4	idtext0056	ce	###s##	spk2	74.29	74.31	0.01	_
20091112_RATP_SCD_0754	29	4	est	NULL	v	NULL	B_GVf	DEP_COORD	2	idtext0056	être	P#3##s##	spk2	74.32	74.7	?	//

20091112_RATP_SCD_0754	30	1	le	NULL	det	NULL	B_GN	DET	2	idtext0057	le	##m#s##d	spk2	74.74	74.81	0.01	_
20091112_RATP_SCD_0754	30	2	numéro	NULL	nc	NULL	I_GN	ROOT	0	idtext0057	numéro	##m#s##	spk2	74.82	75.13	0.01	_
20091112_RATP_SCD_0754	30	3	Imagine+R	NULL	np	B_PRD	I_GN	MOD	2	idtext0058	Imagine+R	#####	spk2	75.14	75.68	?	//

20091112_RATP_SCD_0754	31	1	v()	DISF_T	tronc	NULL	NULL	NOLINK	0	idtext0059	v()	#####	spk2	75.75	75.81	0.01	_
20091112_RATP_SCD_0754	31	2	vous	NULL	pro	NULL	B_GN	NOLINK	0	idtext0059	vous	#####	spk2	75.82	76.18	0.01	_
20091112_RATP_SCD_0754	31	3	c'	NULL	cln	NULL	B_GN	SUJ_IMP	4	idtext0059	ce	###s##	spk2	76.19	76.22	0.01	_
20091112_RATP_SCD_0754	31	4	est	NULL	v	NULL	B_GVf	ROOT	0	idtext0059	être	P#3##s##	spk2	76.23	76.34	0.01	_
20091112_RATP_SCD_0754	31	5	gratuit	NULL	adj	NULL	B_GADJ	ATS	4	idtext0059	gratuit	##m#s##	spk2	76.35	76.7	0.01	_
20091112_RATP_SCD_0754	31	6	ou	NULL	coo	NULL	B_NULL	COORD	5	idtext0059	ou	#####	spk2	76.71	76.84	0.01	_
20091112_RATP_SCD_0754	31	7	pas	NULL	advneg	NULL	B_NULL	DEP_COORD	6	idtext0059	pas	#####	spk2	76.85	77.23	?	_

20091112_RATP_SCD_0754	32	1	non	NULL	adv	NULL	B_GADV	NOLINK	0	idtext0060	non	#####	spk1	77.32	77.59	0.12	_
20091112_RATP_SCD_0754	32	2	non	NULL	adv	NULL	B_GADV	NOLINK	0	idtext0061	non	#####	spk1	77.71	77.82	0.01	_
20091112_RATP_SCD_0754	32	3	c'	NULL	cln	NULL	B_GN	SUJ_IMP	4	idtext0061	ce	###s##	spk1	77.83	77.94	0.01	_
20091112_RATP_SCD_0754	32	4	est	NULL	v	NULL	B_GVfn	ROOT	0	idtext0061	être	P#3##s##	spk1	77.95	77.98	0.01	_
20091112_RATP_SCD_0754	32	5	pas	NULL	advneg	NULL	I_GVfn	MOD	4	idtext0061	pas	#####	spk1	77.99	78.11	0.01	_
20091112_RATP_SCD_0754	32	6	un	NULL	det	NULL	B_GN	DET	7	idtext0061	un	##m#s##i	spk1	78.12	78.15	0.01	_
20091112_RATP_SCD_0754	32	7	numéro	NULL	nc	NULL	I_GN	ATS	4	idtext0061	numéro	##m#s##	spk1	78.16	78.51	0.01	_
20091112_RATP_SCD_0754	32	8	gratuit	NULL	adj	NULL	I_GN	MOD	7	idtext0061	gratuit	##m#s##	spk1	78.52	78.81	0.08	_
20091112_RATP_SCD_0754	32	9	par+contre	NULL	adv	NULL	B_GADV	NOLINK	0	idtext0062	par+contre	#####	spk1	78.89	79.24	0.01	_
20091112_RATP_SCD_0754	32	10	essayez	NULL	v	NULL	B_GVf	ROOT	0	idtext0062	essayer	P#2##p##	spk1	79.25	79.48	0.01	_
20091112_RATP_SCD_0754	32	11	de	NULL	prep	NULL	B_GP	OBJ	10	idtext0062	de	#####	spk1	79.49	79.51	0.01	_
20091112_RATP_SCD_0754	32	12	leur	NULL	clo	NULL	I_GP	A_OBJ	13	idtext0062	leur	#####	spk1	79.52	79.65	0.01	_
20091112_RATP_SCD_0754	32	13	envoyer	NULL	vinf	NULL	B_GVi	OBJ	11	idtext0062	envoyer	W#####	spk1	79.66	79.96	0.01	_
20091112_RATP_SCD_0754	32	14	un	NULL	det	NULL	B_GN	DET	15	idtext0062	un	##m#s##i	spk1	79.97	80.07	0.01	_
20091112_RATP_SCD_0754	32	15	mail	NULL	nc	NULL	I_GN	OBJ	13	idtext0062	mail	##m#s##	spk1	80.08	80.44	?	//

20091112_RATP_SCD_0754	33	1	via	NULL	prep	NULL	B_GP	ROOT	0	idtext0063	via	#####	spk1	80.89	81.01	0.01	_
20091112_RATP_SCD_0754	33	2	l'	DISF_R	det	NULL	NULL	NOLINK	0	idtext0063	le	###s##d	spk1	81.02	81.06	0.01	_
20091112_RATP_SCD_0754	33	3	adresse	DISF_R	nc	NULL	NULL	NOLINK	0	idtext0063	adresse	##f#s##	spk1	81.07	81.7	0.01	_
20091112_RATP_SCD_0754	33	4	cont()	DISF_T	tronc	NULL	NULL	NOLINK	0	idtext0063	cont()	#####	spk1	81.71	82.02	0.01	//
20091112_RATP_SCD_0754	33	5	euh	DISF_M	pres	NULL	NULL	NOLINK	0	idtext0063	euh	#####	spk1	82.03	82.22	0.01	_
20091112_RATP_SCD_0754	33	6	l'	NULL	det	NULL	I_GP	DET	7	idtext0063	le	###s##d	spk1	82.23	82.28	0.01	_
20091112_RATP_SCD_0754	33	7	adresse	NULL	nc	NULL	I_GP	OBJ	1	idtext0063	adresse	##f#s##	spk1	82.29	82.62	0.01	_
20091112_RATP_SCD_0754	33	8	clientèle	NULL	nc	NULL	I_GP	MOD	7	idtext0063	clientèle	##f#s##	spk1	82.63	83.43	0.01	_
20091112_RATP_SCD_0754	33	9	voir	NULL	vinf	NULL	B_GVi	NOLINK	0	idtext0063	voir	W#####	spk1	83.44	83.76	0.01	_
20091112_RATP_SCD_0754	33	10	si	NULL	csu	NULL	B_NULL	NOLINK	0	idtext0063	si	#####	spk1	83.77	83.85	0.01	_
20091112_RATP_SCD_0754	33	11	éventuellement	NULL	adv	NULL	B_GADV	NOLINK	0	idtext0063	éventuellement	#####	spk1	83.86	84.66	?	_

20091112_RATP_SCD_0754	34	1	ils	NULL	cln	NULL	B_GN	SUJ	2	idtext0064	cln	#3#m#p##	spk1	85.25	85.36	0.01	_
20091112_RATP_SCD_0754	34	2	peuvent	NULL	v	NULL	B_GVf	ROOT	0	idtext0064	pouvoir	P#3##p##	spk1	85.37	85.53	0.01	_
20091112_RATP_SCD_0754	34	3	vous	NULL	clo	NULL	B_GN	A_OBJ	2	idtext0064	cln	#2##p##	spk1	85.54	86.15	?	_

20091112_RATP_SCD_0754	35	1	est-ce+que	DISF_R	pri	NULL	NULL	NOLINK	0	idtext0065	est-ce+que	#####	spk2	86.61	86.98	0.01	_
20091112_RATP_SCD_0754	35	2	v()	DISF_T	tronc	NULL	NULL	NOLINK	0	idtext0065	v()	#####	spk2	86.99	87.05	0.01	_
20091112_RATP_SCD_0754	35	3	est-ce+que	NULL	pri	NULL	B_NULL	NOLINK	0	idtext0065	est-ce+que	#####	spk2	87.06	87.27	0.01	_
20091112_RATP_SCD_0754	35	4	vous	NULL	cln	NULL	B_GN	SUJ	5	idtext0065	cln	#2##p##	spk2	87.28	87.42	0.01	_
20091112_RATP_SCD_0754	35	5	avez	NULL	v	NULL	B_GVf	ROOT	0	idtext0065	avoir	P#2##p##	spk2	87.43	87.56	0.01	_
20091112_RATP_SCD_0754	35	6	l'	NULL	det	NULL	B_GN	DET	7	idtext0065	le	###s##d	spk2	87.57	87.62	0.01	_
20091112_RATP_SCD_0754	35	7	adresse	NULL	nc	NULL	I_GN	OBJ	5	idtext0065	adresse	##f#s##	spk2	87.63	88.01	?	//

20091112_RATP_SCD_0754	36	1	alors	NULL	adv	NULL	B_GADV	NOLINK	0	idtext0066	alors	#####	spk1	88.08	88.29	0.01	_
20091112_RATP_SCD_0754	36	2	vous	NULL	cln	NULL	B_GN	SUJ	3	idtext0066	cln	#2##p##	spk1	88.3	88.35	0.01	_
20091112_RATP_SCD_0754	36	3	allez	NULL	v	NULL	B_GVf	ROOT	0	idtext0066	aller	P#2##p##	spk1	88.36	88.51	0.01	_
20091112_RATP_SCD_0754	36	4	sur	NULL	prep	NULL	B_GP	P_OBJ_LOC	3	idtext0066	sur	#####	spk1	88.52	88.87	0.01	_
20091112_RATP_SCD_0754	36	5	ti()	DISF_T	tronc	NULL	NULL	NOLINK	0	idtext0066	ti()	#####	spk1	88.88	89.15	0.01	_
20091112_RATP_SCD_0754	36	6	Imagine+R	NULL	np	B_PRD	I_GP	OBJ	4	idtext0067	Imagine+R	#####	spk1	89.16	89.6	0.01	//
20091112_RATP_SCD_0754	36	7	point	NULL	nc	NULL	I_GP	P_OBJ	3	idtext0067	point	##m#s##	spk1	89.61	89.76	0.01	_
20091112_RATP_SCD_0754	36	8	com	NULL	adv	NULL	B_GADV	MOD	3	idtext0067	com	#####	spk1	89.77	90.02	?	//

20091112_RATP_SCD_0754	37	1	d'accord	NULL	adv	NULL	B_GADV	MOD	2	idtext0068	d'accord	#####	spk2	90.43	90.75	0.01	_
20091112_RATP_SCD_0754	37	2	très+bien	NULL	adv	NULL	I_GADV	ROOT	0	idtext0068	très+bien	#####	spk2	90.76	91.3	?	_

20091112_RATP_SCD_0754	38	1	point	NULL	nc	NULL	B_GN	ROOT	0	idtext0069	point	##m#s##	spk1	91.34	91.63	0.01	/
20091112_RATP_SCD_0754	38	2	tiret	NULL	nc	NULL	B_GN	MOD	1	idtext0069	tiret	##m#s##	spk1	91.64	92.02	0.01	_
20091112_RATP_SCD_0754	38	3	point	NULL	nc	NULL	I_GN	MOD	2	idtext0069	point	##m#s##	spk1	92.03	92.15	0.01	_
20091112_RATP_SCD_0754	38	4	trois	NULL	adj	NULL	B_GN	MOD	5	idtext0069	trois	#####	spk1	92.16	92.33	0.01	/
20091112_RATP_SCD_0754	38	5	W	NULL	nc	NULL	I_GN	ROOT	0	idtext0069	W	#####	spk1	92.34	92.61	0.01	_
20091112_RATP_SCD_0754	38	6	point	NULL	nc	NULL	B_GN	ROOT	0	idtext0069	point	##m#s##	spk1	92.62	92.87	0.01	_
20091112_RATP_SCD_0754	38	7	Imagine+R	NULL	np	B_PRD	I_GN	MOD	6	idtext0069	Imagine+R	#####	spk1	92.88	93.69	0.01	_
20091112_RATP_SCD_0754	38	8	Imagine	NULL	nc	B_A	B_GN	ROOT	0	idtext0069	Imagine	#####	spk1	93.7	94.21	0.01	_
20091112_RATP_SCD_0754	38	9	tiret	NULL	nc	NULL	I_GN	MOD	8	idtext0069	tiret	##m#s##	spk1	94.22	94.45	0.01	_
20091112_RATP_SCD_0754	38	10	R	NULL	nc	NULL	B_GN	ROOT	0	idtext0069	R	#####	spk1	94.46	94.67	0.01	/
20091112_RATP_SCD_0754	38	11	point	NULL	nc	NULL	I_GN	MOD	10	idtext0069	point	##m#s##	spk1	94.68	94.82	0.01	_
20091112_RATP_SCD_0754	38	12	com	NULL	adv	NULL	B_GADV	NOLINK	0	idtext0069	com	#####	spk1	94.83	95.17	?	//

20091112_RATP_SCD_0754	39	1	d'accord	NULL	adv	NULL	B_GADV	MOD	2	idtext0070	d'accord	#####	spk2	95.37	95.7	0.01	_
20091112_RATP_SCD_0754	39	2	très+bien	NULL	adv	NULL	I_GADV	ROOT	0	idtext0070	très+bien	#####	spk2	95.71	96.1	?	_

20091112_RATP_SCD_0754	40	1	d'accord	NULL	adv	NULL	B_GADV	NOLINK	0	idtext0071	d'accord	#####	spk1	96.15	96.57	?	//

20091112_RATP_SCD_0754	41	1	merci	NULL	adv	NULL	B_GADV	MOD	2	idtext0072	merci	#####	spk2	96.75	97.0	0.01	_
20091112_RATP_SCD_0754	41	2	beaucoup	NULL	adv	NULL	I_GADV	ROOT	0	idtext0072	beaucoup	#####	spk2	97.01	97.2	?	//

20091112_RATP_SCD_0754	42	1	monsieur	NULL	nc	NULL	B_GN	NOLINK	0	idtext0073	Monsieur	##m#s##	spk2	97.24	97.83	?	//

20091112_RATP_SCD_0754	43	1	je	NULL	cln	NULL	B_GN	SUJ	4	idtext0074	cln	#1##s##	spk1	97.32	97.4	0.01	_
20091112_RATP_SCD_0754	43	2	vous	NULL	clo	NULL	B_GN	OBJ	4	idtext0074	cln	#2##p##	spk1	97.41	97.46	0.01	_
20091112_RATP_SCD_0754	43	3	en	NULL	clo	NULL	B_GN	DE_OBJ	4	idtext0074	en	#####	spk1	97.47	97.52	0.01	_
20091112_RATP_SCD_0754	43	4	prie	NULL	v	NULL	B_GVf	ROOT	0	idtext0074	prier	PS#13##s##	spk1	97.53	97.83	?	//

20091112_RATP_SCD_0754	44	1	au+revoir	NULL	adv	NULL	B_GADV	NOLINK	0	idtext0075	au+revoir	#####	spk2	97.95	98.55	?	//

20091112_RATP_SCD_0754	45	1	bonne	NULL	adj	NULL	B_GN	MOD	2	idtext0076	bon	##f#s##	spk1	97.93	98.27	0.01	_
20091112_RATP_SCD_0754	45	2	journée	NULL	nc	NULL	I_GN	ROOT	0	idtext0076	journée	##f#s##	spk1	98.28	98.43	0.01	_
20091112_RATP_SCD_0754	45	3	à	NULL	prep	NULL	B_NULL	NOLINK	0	idtext0076	à	#####	spk1	98.44	98.55	?	_

20091112_RATP_SCD_0754	46	1	vous	NULL	pro	NULL	B_GN	NOLINK	0	idtext0077	vous	#####	spk1	98.59	98.64	0.01	_
20091112_RATP_SCD_0754	46	2	au+revoir	NULL	adv	NULL	B_GADV	NOLINK	0	idtext0077	au+revoir	#####	spk1	98.65	99.15	?	//

