20091112_RATP_SCD_1339	1	1	NNAAMMEE	NULL	np	B_HU	B_GN	ROOT	0	idtext0000	ANONYM	NULL	spk1	7.17	7.36	0.04	_
20091112_RATP_SCD_1339	1	2	bonsoir	NULL	nc	NULL	B_GN	NOLINK	0	idtext0001	bonsoir	##m#s##	spk1	7.4	7.9	0.01	_
20091112_RATP_SCD_1339	1	3	je	NULL	cln	NULL	B_GN	SUJ	5	idtext0001	cln	#1##s##	spk1	7.91	7.93	0.01	_
20091112_RATP_SCD_1339	1	4	vous	NULL	clo	NULL	B_GN	OBJ	5	idtext0001	cln	#2##p##	spk1	7.94	8.14	0.01	_
20091112_RATP_SCD_1339	1	5	écoute	NULL	v	NULL	B_GVf	ROOT	0	idtext0001	écouter	PS#13##s##	spk1	8.15	9.38	?	//

20091112_RATP_SCD_1339	2	1	oui	NULL	adv	NULL	B_GADV	NOLINK	0	idtext0002	oui	#####	spk2	9.42	9.54	0.01	_
20091112_RATP_SCD_1339	2	2	bonsoir	NULL	nc	NULL	B_GN	NOLINK	0	idtext0002	bonsoir	##m#s##	spk2	9.55	9.95	?	//

20091112_RATP_SCD_1339	3	1	bonsoir	NULL	nc	NULL	B_GN	ROOT	0	idtext0003	bonsoir	##m#s##	spk1	9.99	10.51	0.01	_
20091112_RATP_SCD_1339	3	2	monsieur	NULL	nc	NULL	I_GN	MOD	1	idtext0003	Monsieur	##m#s##	spk1	10.52	11.1	?	//

20091112_RATP_SCD_1339	4	1	je	NULL	cln	NULL	B_GN	SUJ	2	idtext0004	cln	#1##s##	spk2	9.99	10.01	0.01	_
20091112_RATP_SCD_1339	4	2	voudrais	NULL	v	NULL	B_GVf	ROOT	0	idtext0004	vouloir	C#12##s##	spk2	10.02	10.16	0.01	_
20091112_RATP_SCD_1339	4	3	un	NULL	det	NULL	B_GN	DET	5	idtext0004	un	##m#s##i	spk2	10.17	10.26	0.01	_
20091112_RATP_SCD_1339	4	4	petit	NULL	adj	NULL	I_GN	MOD	5	idtext0004	petit	##m#s##	spk2	10.27	10.4	0.01	_
20091112_RATP_SCD_1339	4	5	renseignement	NULL	nc	NULL	I_GN	OBJ	2	idtext0004	renseignement	##m#s##	spk2	10.41	11.1	?	//

20091112_RATP_SCD_1339	5	1	bonsoir	NULL	nc	NULL	B_GN	NOLINK	0	idtext0005	bonsoir	##m#s##	spk2	11.14	11.73	?	//

20091112_RATP_SCD_1339	6	1	je	NULL	cln	NULL	B_GN	SUJ	2	idtext0006	cln	#1##s##	spk2	11.93	12.13	0.01	_
20091112_RATP_SCD_1339	6	2	voudrais	NULL	v	NULL	B_GVf	ROOT	0	idtext0006	vouloir	C#12##s##	spk2	12.14	12.35	0.01	_
20091112_RATP_SCD_1339	6	3	un	NULL	det	NULL	B_GN	DET	5	idtext0006	un	##m#s##i	spk2	12.36	12.4	0.01	_
20091112_RATP_SCD_1339	6	4	petit	NULL	adj	NULL	I_GN	MOD	5	idtext0006	petit	##m#s##	spk2	12.41	12.54	0.01	_
20091112_RATP_SCD_1339	6	5	renseignement	NULL	nc	NULL	I_GN	OBJ	2	idtext0006	renseignement	##m#s##	spk2	12.55	13.06	0.01	_
20091112_RATP_SCD_1339	6	6	concernant	NULL	prep	NULL	B_GP	P_OBJ	5	idtext0006	concernant	#####	spk2	13.07	13.59	0.01	_
20091112_RATP_SCD_1339	6	7	la	NULL	det	NULL	I_GP	DET	8	idtext0006	le	##m#s##d	spk2	13.6	13.71	0.01	_
20091112_RATP_SCD_1339	6	8	ligne	NULL	nc	NULL	I_GP	OBJ	6	idtext0006	ligne	##f#s##	spk2	13.72	13.96	0.01	_
20091112_RATP_SCD_1339	6	9	du	NULL	prep	NULL	B_GP	DEP	8	idtext0006	du	#####	spk2	13.97	14.07	0.01	_
20091112_RATP_SCD_1339	6	10	trois+cent+vingt-cinq	NULL	nc	B_T	I_GP	OBJ	9	idtext0006	trois+cent+vingt-cinq	#####	spk2	14.08	14.99	0.01	_
20091112_RATP_SCD_1339	6	11	en	NULL	prep	NULL	B_GP	MOD	8	idtext0006	en	#####	spk2	15.0	15.21	0.01	_
20091112_RATP_SCD_1339	6	12	direction	NULL	nc	NULL	I_GP	OBJ	11	idtext0006	direction	##f#s##	spk2	15.22	15.57	0.01	_
20091112_RATP_SCD_1339	6	13	du	NULL	prep	NULL	B_GP	DEP	12	idtext0006	du	#####	spk2	15.58	15.67	0.01	_
20091112_RATP_SCD_1339	6	14	Château+de+Vincennes	NULL	nc	B_A	I_GP	OBJ	13	idtext0006	Château+de+Vincennes	#####	spk2	15.68	16.72	?	//

20091112_RATP_SCD_1339	7	1	le	NULL	det	NULL	B_GN	DET	2	idtext0007	le	##m#s##d	spk1	16.76	16.85	0.01	_
20091112_RATP_SCD_1339	7	2	trois+cent+vingt-quatre	NULL	nc	B_T	I_GN	ROOT	0	idtext0007	trois+cent+vingt-quatre	#####	spk1	16.86	18.12	0.01	_
20091112_RATP_SCD_1339	7	3	oui	NULL	adv	NULL	B_GADV	NOLINK	0	idtext0007	oui	#####	spk1	18.13	18.48	0.01	_
20091112_RATP_SCD_1339	7	4	que	NULL	prorel	NULL	B_NULL	OBJ	5	idtext0007	que	#####	spk1	18.49	18.62	0.01	_
20091112_RATP_SCD_1339	7	5	vouliez	NULL	v	NULL	B_GVf	MOD_REL	2	idtext0007	vouloir	I#2##p##	spk1	18.63	18.9	?	_

20091112_RATP_SCD_1339	8	1	oui	NULL	adv	NULL	B_GADV	NOLINK	0	idtext0008	oui	#####	spk2	18.94	19.13	?	//

20091112_RATP_SCD_1339	9	1	vous	NULL	clo	NULL	B_GN	NOLINK	0	idtext0009	cln	#2##p##	spk1	18.94	19.13	?	_

20091112_RATP_SCD_1339	10	1	savoir	NULL	vinf	NULL	B_GVi	ROOT	0	idtext0010	savoir	W#####	spk1	19.17	19.57	0.01	_
20091112_RATP_SCD_1339	10	2	monsieur	NULL	nc	NULL	B_GN	OBJ	1	idtext0010	Monsieur	##m#s##	spk1	19.58	20.5	?	//

20091112_RATP_SCD_1339	11	1	si	NULL	csu	NULL	B_NULL	ROOT	0	idtext0011	si	#####	spk2	20.54	20.6	0.01	_
20091112_RATP_SCD_1339	11	2	il	NULL	cln	NULL	B_GN	SUJ_IMP	4	idtext0011	cln	#3#m#s##	spk2	20.61	20.7	0.01	_
20091112_RATP_SCD_1339	11	3	y	NULL	clo	NULL	B_GN	AFF	4	idtext0011	y	#####	spk2	20.71	20.75	0.01	_
20091112_RATP_SCD_1339	11	4	a	NULL	v	NULL	B_GVf	OBJ	1	idtext0011	avoir	P#3##s##	spk2	20.76	20.81	0.01	_
20091112_RATP_SCD_1339	11	5	pas	NULL	advneg	NULL	B_NULL	NOLINK	0	idtext0011	pas	#####	spk2	20.82	20.99	0.01	_
20091112_RATP_SCD_1339	11	6	grève	NULL	nc	NULL	B_GN	OBJ	4	idtext0011	grève	##f#s##	spk2	21.0	21.2	0.01	_
20091112_RATP_SCD_1339	11	7	demain	NULL	adv	NULL	B_GADV	NOLINK	0	idtext0011	demain	#####	spk2	21.21	21.57	0.01	_
20091112_RATP_SCD_1339	11	8	parce+que	NULL	csu	NULL	B_NULL	MOD	6	idtext0011	parce+que	#####	spk2	21.58	21.84	0.01	_
20091112_RATP_SCD_1339	11	9	euh	DISF_M	pres	NULL	NULL	NOLINK	0	idtext0011	euh	#####	spk2	21.85	21.9	0.01	_
20091112_RATP_SCD_1339	11	10	je	NULL	cln	NULL	B_GN	NOLINK	0	idtext0011	cln	#1##s##	spk2	21.91	22.24	?	_

20091112_RATP_SCD_1339	12	1	non	NULL	adv	NULL	B_GADV	MOD	2	idtext0012	non	#####	spk1	22.28	22.41	0.01	_
20091112_RATP_SCD_1339	12	2	demain	NULL	adv	NULL	I_GADV	MOD	3	idtext0012	demain	#####	spk1	22.42	22.8	0.01	_
20091112_RATP_SCD_1339	12	3	non	NULL	adv	NULL	I_GADV	ROOT	0	idtext0012	non	#####	spk1	22.81	23.33	0.04	_
20091112_RATP_SCD_1339	12	4	demain	NULL	adv	NULL	B_GADV	NOLINK	0	idtext0013	demain	#####	spk1	23.37	23.62	?	_

20091112_RATP_SCD_1339	13	1	c'	NULL	cln	NULL	B_GN	SUJ_IMP	3	idtext0014	ce	###s##	spk1	23.67	23.73	0.01	_
20091112_RATP_SCD_1339	13	2	est	NULL	v	NULL	B_GVf	AUX	3	idtext0014	être	P#3##s##	spk1	23.74	23.81	0.01	_
20091112_RATP_SCD_1339	13	3	fini	NULL	vppart	NULL	I_GVf	ROOT	0	idtext0014	finir	K##m#s##	spk1	23.82	24.02	?	//

20091112_RATP_SCD_1339	14	1	non	NULL	adv	NULL	B_GADV	NOLINK	0	idtext0015	non	#####	spk2	23.66	24.02	?	_

20091112_RATP_SCD_1339	15	1	la	NULL	det	NULL	B_GN	DET	2	idtext0016	le	##m#s##d	spk1	24.06	24.12	0.01	_
20091112_RATP_SCD_1339	15	2	grève	NULL	nc	NULL	I_GN	ROOT	0	idtext0016	grève	##f#s##	spk1	24.13	24.46	0.01	_
20091112_RATP_SCD_1339	15	3	pour	NULL	prep	NULL	B_GP	P_OBJ	2	idtext0016	pour	#####	spk1	24.47	24.6	0.01	_
20091112_RATP_SCD_1339	15	4	le	NULL	det	NULL	I_GP	DET	5	idtext0016	le	##m#s##d	spk1	24.61	24.72	0.01	_
20091112_RATP_SCD_1339	15	5	dépôt	NULL	nc	B_A	I_GP	OBJ	3	idtext0016	dépôt	##m#s##	spk1	24.73	25.02	0.01	_
20091112_RATP_SCD_1339	15	6	de	NULL	prep	I_A	I_GP	DEP	5	idtext0016	de	#####	spk1	25.03	25.11	0.01	_
20091112_RATP_SCD_1339	15	7	Vitry	NULL	np	I_A	I_GP	OBJ	6	idtext0016	Vitry	#####	spk1	25.12	25.43	0.01	_
20091112_RATP_SCD_1339	15	8	une	NULL	det	NULL	B_GN	DET	9	idtext0016	un	##f#s##i	spk1	25.44	25.54	0.01	_
20091112_RATP_SCD_1339	15	9	journée	NULL	nc	NULL	I_GN	ROOT	0	idtext0016	journée	##f#s##	spk1	25.55	26.04	0.01	_
20091112_RATP_SCD_1339	15	10	seulement	NULL	adv	NULL	B_GADV	MOD	9	idtext0016	seulement	#####	spk1	26.05	26.36	0.01	_
20091112_RATP_SCD_1339	15	11	je	NULL	cln	NULL	B_GN	SUJ	12	idtext0016	cln	#1##s##	spk1	26.37	26.44	0.01	_
20091112_RATP_SCD_1339	15	12	crois	NULL	v	NULL	B_GVf	ROOT	0	idtext0016	croire	P#12##s##	spk1	26.45	26.58	0.01	_
20091112_RATP_SCD_1339	15	13	que	NULL	csu	NULL	B_NULL	OBJ	12	idtext0016	que	#####	spk1	26.59	26.69	0.01	_
20091112_RATP_SCD_1339	15	14	ça	NULL	pro	NULL	B_GN	SUJ_IMP	15	idtext0016	ça	#####	spk1	26.7	26.79	0.01	_
20091112_RATP_SCD_1339	15	15	suffit	NULL	v	NULL	B_GVf	OBJ	13	idtext0016	suffire	J#3##s##	spk1	26.8	27.21	0.01	_
20091112_RATP_SCD_1339	15	16	comme+ça	NULL	adv	NULL	B_GADV	MOD	15	idtext0016	comme+ça	#####	spk1	27.22	27.72	0.01	_
20091112_RATP_SCD_1339	15	17	hein	DISF_M	pres	NULL	NULL	NOLINK	0	idtext0016	hein	#####	spk1	27.73	28.12	?	//

20091112_RATP_SCD_1339	16	1	ouais	DISF_R	adv	NULL	NULL	NOLINK	0	idtext0017	ouais	#####	spk2	28.16	28.3	0.01	_
20091112_RATP_SCD_1339	16	2	ouais	NULL	adv	NULL	B_GADV	MOD	4	idtext0017	ouais	#####	spk2	28.31	28.41	0.01	/
20091112_RATP_SCD_1339	16	3	non	DISF_R	adv	NULL	NULL	NOLINK	0	idtext0017	non	#####	spk2	28.42	28.56	0.01	_
20091112_RATP_SCD_1339	16	4	non	NULL	adv	NULL	I_GADV	ROOT	0	idtext0017	non	#####	spk2	28.57	28.78	0.01	_
20091112_RATP_SCD_1339	16	5	c'	NULL	cln	NULL	B_GN	SUJ_IMP	6	idtext0017	ce	###s##	spk2	28.79	28.81	0.01	_
20091112_RATP_SCD_1339	16	6	est	NULL	v	NULL	B_GVf	ROOT	0	idtext0017	être	P#3##s##	spk2	28.82	28.86	0.01	_
20091112_RATP_SCD_1339	16	7	parce+que	NULL	csu	NULL	B_NULL	MOD	6	idtext0017	parce+que	#####	spk2	28.87	29.05	0.01	_
20091112_RATP_SCD_1339	16	8	j'	NULL	cln	NULL	B_GN	SUJ	9	idtext0017	cln	#1##s##	spk2	29.06	29.08	0.01	_
20091112_RATP_SCD_1339	16	9	ai	NULL	v	NULL	B_GVf	OBJ	7	idtext0017	avoir	P#1##s##	spk2	29.09	29.41	0.01	_
20091112_RATP_SCD_1339	16	10	euh	DISF_M	pres	NULL	NULL	NOLINK	0	idtext0017	euh	#####	spk2	29.42	29.44	0.01	_
20091112_RATP_SCD_1339	16	11	ma	NULL	det	NULL	B_GN	DET	12	idtext0017	mon	##f#s##o	spk2	29.45	29.61	0.01	_
20091112_RATP_SCD_1339	16	12	fille	NULL	nc	NULL	I_GN	OBJ	9	idtext0017	fille	##f#s##	spk2	29.62	29.89	0.01	_
20091112_RATP_SCD_1339	16	13	qui	NULL	prorel	NULL	B_NULL	NOLINK	0	idtext0018	qui	#####	spk2	29.9	30.07	0.01	_
20091112_RATP_SCD_1339	16	14	enfin	NULL	adv	NULL	B_GADV	NOLINK	0	idtext0018	enfin	#####	spk2	30.08	30.7	0.04	_
20091112_RATP_SCD_1339	16	15	qu'	NULL	prorel	NULL	B_NULL	SUJ	17	idtext0019	qu'	#####	spk2	30.74	30.76	0.01	_
20091112_RATP_SCD_1339	16	16	a	NULL	v	NULL	B_GVf	AUX	17	idtext0019	avoir	P#3##s##	spk2	30.77	30.79	0.01	_
20091112_RATP_SCD_1339	16	17	retrouvé	NULL	vppart	NULL	I_GVf	ROOT	0	idtext0019	retrouver	K##m#s##	spk2	30.8	31.13	0.01	_
20091112_RATP_SCD_1339	16	18	un	NULL	det	NULL	B_GN	DET	20	idtext0019	un	##m#s##i	spk2	31.14	31.21	0.01	_
20091112_RATP_SCD_1339	16	19	nouvel	NULL	adj	NULL	I_GN	MOD	20	idtext0019	nouveau	##m#s##	spk2	31.22	31.5	0.01	_
20091112_RATP_SCD_1339	16	20	employeur	NULL	nc	NULL	I_GN	OBJ	17	idtext0019	employeur	##m#s##	spk2	31.51	32.06	0.01	_
20091112_RATP_SCD_1339	16	21	à	NULL	prep	NULL	B_GP	MOD	17	idtext0019	à	#####	spk2	32.07	32.09	0.01	_
20091112_RATP_SCD_1339	16	22	Saint-Maurice	NULL	nc	B_A	I_GP	OBJ	21	idtext0019	Saint-Maurice	##m#s##	spk2	32.1	32.59	?	//

20091112_RATP_SCD_1339	17	1	ah	DISF_M	pres	NULL	NULL	NOLINK	0	idtext0020	ah	#####	spk1	32.63	32.99	?	//

20091112_RATP_SCD_1339	18	1	alors	NULL	adv	NULL	B_GADV	NOLINK	0	idtext0021	alors	#####	spk2	32.63	32.92	0.01	_
20091112_RATP_SCD_1339	18	2	euh	DISF_M	pres	NULL	NULL	NOLINK	0	idtext0021	euh	#####	spk2	32.93	32.99	?	//

20091112_RATP_SCD_1339	19	1	ouais	DISF_R	adv	NULL	NULL	NOLINK	0	idtext0022	ouais	#####	spk1	33.03	33.19	0.01	//
20091112_RATP_SCD_1339	19	2	ouais	DISF_R	adv	NULL	NULL	NOLINK	0	idtext0022	ouais	#####	spk1	33.2	33.35	0.01	_
20091112_RATP_SCD_1339	19	3	ouais	DISF_R	adv	NULL	NULL	NOLINK	0	idtext0022	ouais	#####	spk1	33.36	33.51	0.01	_
20091112_RATP_SCD_1339	19	4	ouais	NULL	adv	NULL	B_GADV	NOLINK	0	idtext0022	ouais	#####	spk1	33.52	33.83	0.14	_
20091112_RATP_SCD_1339	19	5	non	DISF_R	adv	NULL	NULL	NOLINK	0	idtext0023	non	#####	spk1	33.97	34.09	0.01	_
20091112_RATP_SCD_1339	19	6	non	NULL	adv	NULL	B_GADV	NOLINK	0	idtext0023	non	#####	spk1	34.1	34.22	0.01	_
20091112_RATP_SCD_1339	19	7	c'	NULL	cln	NULL	B_GN	SUJ_IMP	8	idtext0023	ce	###s##	spk1	34.23	34.26	0.01	_
20091112_RATP_SCD_1339	19	8	est	NULL	v	NULL	B_GVf	ROOT	0	idtext0023	être	P#3##s##	spk1	34.27	34.36	0.01	_
20091112_RATP_SCD_1339	19	9	bon	NULL	adj	NULL	B_GADJ	ATS	8	idtext0023	bon	##m#s##	spk1	34.37	34.52	0.01	_
20091112_RATP_SCD_1339	19	10	demain	NULL	adv	NULL	B_GADV	MOD	12	idtext0023	demain	#####	spk1	34.53	34.94	0.01	_
20091112_RATP_SCD_1339	19	11	c'	NULL	cln	NULL	B_GN	SUJ_IMP	12	idtext0023	ce	###s##	spk1	34.95	34.99	0.01	_
20091112_RATP_SCD_1339	19	12	est	NULL	v	NULL	B_GVf	ROOT	0	idtext0023	être	P#3##s##	spk1	35.0	35.1	?	//

20091112_RATP_SCD_1339	20	1	bon	DISF_M	pres	NULL	NULL	NOLINK	0	idtext0024	bon	#####	spk2	35.17	35.37	0.01	_
20091112_RATP_SCD_1339	20	2	donc	NULL	coo	NULL	B_NULL	NOLINK	0	idtext0024	donc	#####	spk2	35.38	35.54	?	//

20091112_RATP_SCD_1339	21	1	fini	NULL	vppart	NULL	B_GVf	NOLINK	0	idtext0025	finir	K##m#s##	spk1	35.14	35.44	0.01	//
20091112_RATP_SCD_1339	21	2	hein	DISF_M	pres	NULL	NULL	NOLINK	0	idtext0025	hein	#####	spk1	35.45	35.54	?	//

20091112_RATP_SCD_1339	22	1	la	NULL	det	NULL	B_GN	DET	2	idtext0026	le	##m#s##d	spk2	35.58	35.66	0.01	_
20091112_RATP_SCD_1339	22	2	ligne	NULL	nc	NULL	I_GN	ROOT	0	idtext0026	ligne	##f#s##	spk2	35.67	35.8	0.01	_
20091112_RATP_SCD_1339	22	3	du	NULL	prep	NULL	B_GP	DEP	2	idtext0026	du	#####	spk2	35.81	35.94	0.01	_
20091112_RATP_SCD_1339	22	4	trois+cent+vingt-cinq	NULL	nc	B_T	I_GP	OBJ	3	idtext0026	trois+cent+vingt-cinq	#####	spk2	35.95	36.37	?	//

20091112_RATP_SCD_1339	23	1	oui	DISF_R	adv	NULL	NULL	NOLINK	0	idtext0027	oui	#####	spk1	36.45	36.56	0.01	_
20091112_RATP_SCD_1339	23	2	oui	DISF_R	adv	NULL	NULL	NOLINK	0	idtext0027	oui	#####	spk1	36.57	36.89	0.01	_
20091112_RATP_SCD_1339	23	3	oui	NULL	adv	NULL	B_GADV	NOLINK	0	idtext0027	oui	#####	spk1	36.9	37.2	?	_

20091112_RATP_SCD_1339	24	1	tout+le	NULL	det	NULL	B_GN	DET	2	idtext0028	tout+le	#####	spk1	37.24	37.35	0.01	_
20091112_RATP_SCD_1339	24	2	dépôt	NULL	nc	NULL	I_GN	ROOT	0	idtext0028	dépôt	##m#s##	spk1	37.36	37.61	0.01	_
20091112_RATP_SCD_1339	24	3	de	NULL	prep	NULL	B_NULL	NOLINK	0	idtext0028	de	#####	spk1	37.62	37.66	?	_

20091112_RATP_SCD_1339	25	1	Vitry	NULL	nc	B_A	B_GN	NOLINK	0	idtext0029	Vitry	#####	spk1	37.7	38.06	?	//

20091112_RATP_SCD_1339	26	1	reprend	NULL	v	NULL	B_GVf	ROOT	0	idtext0030	reprendre	P#3##s##	spk1	38.1	38.46	0.01	_
20091112_RATP_SCD_1339	26	2	demain	NULL	adv	NULL	B_GADV	MOD	1	idtext0030	demain	#####	spk1	38.47	38.75	0.01	_
20091112_RATP_SCD_1339	26	3	monsieur	NULL	nc	NULL	B_GN	NOLINK	0	idtext0030	Monsieur	##m#s##	spk1	38.76	39.31	?	//

20091112_RATP_SCD_1339	27	1	d'accord	NULL	adv	NULL	B_GADV	MOD	2	idtext0031	d'accord	#####	spk2	39.35	39.64	0.01	_
20091112_RATP_SCD_1339	27	2	OK	NULL	adv	NULL	I_GADV	ROOT	0	idtext0031	ok	#####	spk2	39.65	39.86	0.01	_
20091112_RATP_SCD_1339	27	3	bah	DISF_M	pres	NULL	NULL	NOLINK	0	idtext0031	bah	#####	spk2	39.87	39.97	0.01	_
20091112_RATP_SCD_1339	27	4	je	NULL	cln	NULL	B_GN	SUJ	6	idtext0031	cln	#1##s##	spk2	39.98	40.01	0.01	_
20091112_RATP_SCD_1339	27	5	vous	NULL	clo	NULL	B_GN	OBJ	6	idtext0031	cln	#2##p##	spk2	40.02	40.1	0.01	_
20091112_RATP_SCD_1339	27	6	remercie	NULL	v	NULL	B_GVf	ROOT	0	idtext0031	remercier	PS#13##s##	spk2	40.11	40.59	?	//

20091112_RATP_SCD_1339	28	1	je	NULL	cln	NULL	B_GN	SUJ	4	idtext0032	cln	#1##s##	spk1	40.65	40.67	0.01	_
20091112_RATP_SCD_1339	28	2	vous	NULL	clo	NULL	B_GN	OBJ	4	idtext0032	cln	#2##p##	spk1	40.68	40.8	0.01	_
20091112_RATP_SCD_1339	28	3	en	NULL	clo	NULL	B_GN	DE_OBJ	4	idtext0032	en	#####	spk1	40.81	40.93	0.01	_
20091112_RATP_SCD_1339	28	4	prie	NULL	v	NULL	B_GVf	ROOT	0	idtext0032	prier	PS#13##s##	spk1	40.94	41.36	?	//

20091112_RATP_SCD_1339	29	1	je	NULL	cln	NULL	B_GN	SUJ	4	idtext0033	cln	#1##s##	spk1	41.41	41.43	0.01	_
20091112_RATP_SCD_1339	29	2	vous	NULL	clo	NULL	B_GN	OBJ	4	idtext0033	cln	#2##p##	spk1	41.44	41.5	0.01	_
20091112_RATP_SCD_1339	29	3	en	NULL	clo	NULL	B_GN	DE_OBJ	4	idtext0033	en	#####	spk1	41.51	41.63	0.01	_
20091112_RATP_SCD_1339	29	4	prie	NULL	v	NULL	B_GVf	ROOT	0	idtext0033	prier	PS#13##s##	spk1	41.64	41.84	?	//

20091112_RATP_SCD_1339	30	1	au+revoir	NULL	adv	NULL	B_GADV	NOLINK	0	idtext0034	au+revoir	#####	spk2	41.4	41.84	?	//

20091112_RATP_SCD_1339	31	1	monsieur	NULL	nc	NULL	B_GN	ROOT	0	idtext0035	Monsieur	##m#s##	spk1	42.01	42.12	0.01	_
20091112_RATP_SCD_1339	31	2	bonne	NULL	adj	NULL	I_GN	MOD	1	idtext0035	bon	##f#s##	spk1	42.13	42.39	0.01	_
20091112_RATP_SCD_1339	31	3	soirée	NULL	nc	NULL	B_GN	NOLINK	0	idtext0035	soirée	##f#s##	spk1	42.4	42.72	0.01	_
20091112_RATP_SCD_1339	31	4	monsieur	NULL	nc	NULL	I_GN	MOD	1	idtext0035	Monsieur	##m#s##	spk1	42.73	42.97	?	//

20091112_RATP_SCD_1339	32	1	merci	NULL	adv	NULL	B_GADV	NOLINK	0	idtext0036	merci	#####	spk2	43.01	43.15	0.01	/
20091112_RATP_SCD_1339	32	2	vous	NULL	pro	NULL	B_GN	NOLINK	0	idtext0036	vous	#####	spk2	43.16	43.42	0.01	_
20091112_RATP_SCD_1339	32	3	aussi	NULL	adv	NULL	B_GADV	NOLINK	0	idtext0036	aussi	#####	spk2	43.43	43.7	?	_

20091112_RATP_SCD_1339	33	1	au+revoir	NULL	adv	NULL	B_GADV	NOLINK	0	idtext0037	au+revoir	#####	spk1	43.01	43.7	?	//

20091112_RATP_SCD_1339	34	1	au+revoir	NULL	adv	NULL	B_GADV	NOLINK	0	idtext0038	au+revoir	#####	spk2	43.74	44.0	?	//

