20091112_RATP_SCD_0836	1	1	NNAAMMEE	NULL	np	B_HU	B_GN	ROOT	0	idtext0000	ANONYM	NULL	spk1	3.48	3.67	0.04	_
20091112_RATP_SCD_0836	1	2	bonjour	NULL	adv	NULL	B_GADV	NOLINK	0	idtext0001	bonjour	#####	spk1	3.71	4.28	?	//

20091112_RATP_SCD_0836	2	1	oui	NULL	adv	NULL	B_GADV	MOD	2	idtext0002	oui	#####	spk2	4.35	4.44	0.01	_
20091112_RATP_SCD_0836	2	2	bonjour	NULL	adv	NULL	I_GADV	ROOT	0	idtext0002	bonjour	#####	spk2	4.45	4.73	0.01	_
20091112_RATP_SCD_0836	2	3	madame	NULL	nc	NULL	B_GN	NOLINK	0	idtext0002	Monsieur	##f#s##	spk2	4.74	5.15	?	//

20091112_RATP_SCD_0836	3	1	j'	NULL	cln	NULL	B_GN	SUJ	3	idtext0003	cln	#1##s##	spk2	5.19	5.21	0.01	_
20091112_RATP_SCD_0836	3	2	aurais	NULL	v	NULL	B_GVf	AUX	3	idtext0003	avoir	C#12##s##	spk2	5.22	5.33	0.01	_
20091112_RATP_SCD_0836	3	3	voulu	NULL	vppart	NULL	I_GVf	ROOT	0	idtext0003	vouloir	K##m#s##	spk2	5.34	5.55	0.01	_
20091112_RATP_SCD_0836	3	4	savoir	NULL	vinf	NULL	B_GVi	OBJ	3	idtext0003	savoir	W#####	spk2	5.56	6.02	0.01	_
20091112_RATP_SCD_0836	3	5	si	NULL	csu	NULL	B_NULL	NOLINK	0	idtext0003	si	#####	spk2	6.03	6.11	0.01	_
20091112_RATP_SCD_0836	3	6	le	NULL	det	NULL	B_GN	DET	7	idtext0003	le	##m#s##d	spk2	6.12	6.38	0.01	_
20091112_RATP_SCD_0836	3	7	trafic	NULL	nc	NULL	I_GN	OBJ	4	idtext0003	trafic	##m#s##	spk2	6.39	6.83	0.01	_
20091112_RATP_SCD_0836	3	8	sur	NULL	prep	NULL	B_GP	P_OBJ	7	idtext0003	sur	#####	spk2	6.84	7.03	0.01	_
20091112_RATP_SCD_0836	3	9	le	NULL	det	NULL	I_GP	DET	11	idtext0003	le	##m#s##d	spk2	7.04	7.19	0.01	_
20091112_RATP_SCD_0836	3	10	r()	DISF_T	tronc	NULL	NULL	NOLINK	0	idtext0003	r()	#####	spk2	7.2	7.22	0.01	_
20091112_RATP_SCD_0836	3	11	RER+B	NULL	nc	B_T	I_GP	OBJ	8	idtext0004	RER+B	#####	spk2	7.23	8.54	0.12	_
20091112_RATP_SCD_0836	3	12	c'	NULL	cln	NULL	B_GN	SUJ_IMP	13	idtext0005	ce	###s##	spk2	8.66	8.9	0.01	_
20091112_RATP_SCD_0836	3	13	est	NULL	v	NULL	B_GVf	ROOT	0	idtext0005	être	P#3##s##	spk2	8.91	8.95	0.01	_
20091112_RATP_SCD_0836	3	14	à	NULL	prep	NULL	B_GP	ATS	13	idtext0005	à	#####	spk2	8.96	9.02	0.01	_
20091112_RATP_SCD_0836	3	15	dire	NULL	vinf	NULL	I_GP	OBJ	14	idtext0005	dire	W#####	spk2	9.03	9.49	0.01	_
20091112_RATP_SCD_0836	3	16	Gare+du+Nord	NULL	nc	B_A	B_GN	OBJ	15	idtext0006	Gare+du+Nord	#####	spk2	9.5	10.42	0.01	_
20091112_RATP_SCD_0836	3	17	Châtelet-Les+Halles	NULL	nc	B_A	I_GN	MOD	16	idtext0007	Châtelet-Les+Halles	#####	spk2	10.43	11.65	0.01	_
20091112_RATP_SCD_0836	3	18	marchait	DISF_R	v	I_A	NULL	NOLINK	0	idtext0008	marcher	I#3##s##	spk2	11.66	12.34	0.01	_
20091112_RATP_SCD_0836	3	19	fonctionnait	NULL	v	NULL	B_GVf	NOLINK	0	idtext0008	fonctionner	I#3##s##	spk2	12.35	13.01	?	//

20091112_RATP_SCD_0836	4	1	alors	NULL	adv	NULL	B_GADV	NOLINK	0	idtext0009	alors	#####	spk1	14.04	14.39	0.01	_
20091112_RATP_SCD_0836	4	2	un	NULL	det	NULL	B_GN	DET	3	idtext0009	un	##m#s##i	spk1	14.4	14.55	0.01	_
20091112_RATP_SCD_0836	4	3	instant	NULL	nc	NULL	I_GN	ROOT	0	idtext0009	instant	##m#s##	spk1	14.56	14.89	0.01	_
20091112_RATP_SCD_0836	4	4	s'il+vous+plaît	NULL	adv	NULL	B_GADV	NOLINK	0	idtext0009	s'il+vous+plaît	#####	spk1	14.9	15.49	?	//

20091112_RATP_SCD_0836	5	1	madame	NULL	nc	NULL	B_GN	NOLINK	0	idtext0010	Monsieur	##f#s##	spk1	42.6	43.2	?	//

20091112_RATP_SCD_0836	6	1	allo	NULL	adv	NULL	B_GADV	NOLINK	0	idtext0011	allo	#####	spk2	42.6	43.2	?	//

20091112_RATP_SCD_0836	7	1	madame	NULL	nc	NULL	B_GN	NOLINK	0	idtext0012	Monsieur	##f#s##	spk1	44.11	44.52	?	//

20091112_RATP_SCD_0836	8	1	oui	NULL	adv	NULL	B_GADV	NOLINK	0	idtext0013	oui	#####	spk2	44.56	45.0	?	//

20091112_RATP_SCD_0836	9	1	oui	NULL	adv	NULL	B_GADV	NOLINK	0	idtext0014	oui	#####	spk1	45.04	45.31	0.28	_
20091112_RATP_SCD_0836	9	2	alors	NULL	adv	NULL	B_GADV	NOLINK	0	idtext0015	alors	#####	spk1	45.59	45.97	0.01	_
20091112_RATP_SCD_0836	9	3	le	NULL	det	NULL	B_GN	DET	4	idtext0015	le	##m#s##d	spk1	45.98	46.41	0.01	_
20091112_RATP_SCD_0836	9	4	trafic	NULL	nc	NULL	I_GN	SUJ	7	idtext0015	trafic	##m#s##	spk1	46.42	47.05	0.01	_
20091112_RATP_SCD_0836	9	5	est	DISF_R	v	NULL	NULL	NOLINK	0	idtext0015	être	P#3##s##	spk1	47.06	47.22	0.01	_
20091112_RATP_SCD_0836	9	6	est	NULL	v	NULL	B_GVf	AUX	7	idtext0015	être	P#3##s##	spk1	47.23	47.25	0.01	_
20091112_RATP_SCD_0836	9	7	rétabli	NULL	vppart	NULL	I_GVf	ROOT	0	idtext0015	rétablir	K##m#s##	spk1	47.26	47.66	0.01	_
20091112_RATP_SCD_0836	9	8	enfin	NULL	adv	NULL	B_GADV	MOD	7	idtext0015	enfin	#####	spk1	47.67	48.05	0.01	_
20091112_RATP_SCD_0836	9	9	en	NULL	prep	NULL	B_GP	MOD	7	idtext0015	en	#####	spk1	48.06	48.18	0.01	_
20091112_RATP_SCD_0836	9	10	interconnexion	NULL	nc	NULL	I_GP	OBJ	9	idtext0016	interconnexion	##f#s##	spk1	48.19	48.66	0.01	//
20091112_RATP_SCD_0836	9	11	l'	NULL	det	NULL	B_GN	DET	12	idtext0016	le	###s##d	spk1	48.67	49.0	0.01	_
20091112_RATP_SCD_0836	9	12	interconnexion	NULL	nc	NULL	I_GN	MOD	7	idtext0016	interconnexion	##f#s##	spk1	49.01	50.09	?	//

20091112_RATP_SCD_0836	10	1	est	NULL	v	NULL	B_GVf	AUX	2	idtext0017	être	P#3##s##	spk1	50.32	50.34	0.01	_
20091112_RATP_SCD_0836	10	2	rétablie	NULL	vppart	NULL	I_GVf	ROOT	0	idtext0017	rétablir	K##f#s##	spk1	50.35	51.16	?	//

20091112_RATP_SCD_0836	11	1	oui	NULL	adv	NULL	B_GADV	NOLINK	0	idtext0018	oui	#####	spk2	50.3	51.16	?	//

20091112_RATP_SCD_0836	12	1	et	NULL	coo	NULL	B_NULL	ROOT	0	idtext0019	et	#####	spk1	51.2	51.25	0.01	_
20091112_RATP_SCD_0836	12	2	apparemment	NULL	adv	NULL	B_GADV	MOD	5	idtext0019	apparemment	#####	spk1	51.26	52.03	0.01	_
20091112_RATP_SCD_0836	12	3	avec	NULL	prep	NULL	B_GP	DEP_COORD	1	idtext0019	avec	#####	spk1	52.04	52.28	0.01	_
20091112_RATP_SCD_0836	12	4	les	NULL	det	NULL	I_GP	DET	5	idtext0019	le	###p##d	spk1	52.29	52.45	0.01	_
20091112_RATP_SCD_0836	12	5	infos	NULL	nc	NULL	I_GP	OBJ	3	idtext0019	info	##f#p##	spk1	52.46	52.9	0.01	_
20091112_RATP_SCD_0836	12	6	que	NULL	prorel	NULL	B_NULL	OBJ	8	idtext0019	que	#####	spk1	52.91	53.22	0.01	_
20091112_RATP_SCD_0836	12	7	j'	NULL	cln	NULL	B_GN	SUJ	8	idtext0019	cln	#1##s##	spk1	53.23	53.4	0.01	_
20091112_RATP_SCD_0836	12	8	ai	NULL	v	NULL	B_GVf	ROOT	0	idtext0019	avoir	P#1##s##	spk1	53.41	53.5	0.01	_
20091112_RATP_SCD_0836	12	9	c'	NULL	cln	NULL	B_GN	SUJ_IMP	10	idtext0019	ce	###s##	spk1	53.51	53.73	0.01	_
20091112_RATP_SCD_0836	12	10	est	NULL	v	NULL	B_GVf	ROOT	0	idtext0019	être	P#3##s##	spk1	53.74	54.12	0.01	_
20091112_RATP_SCD_0836	12	11	trois	NULL	adj	NULL	B_GN	ATS	10	idtext0019	trois	#####	spk1	54.13	54.73	0.01	_
20091112_RATP_SCD_0836	12	12	trains	NULL	nc	NULL	I_GN	ATS	10	idtext0019	train	##m#p##	spk1	54.74	55.08	0.01	_
20091112_RATP_SCD_0836	12	13	sur	NULL	prep	NULL	B_NULL	DEP	12	idtext0019	sur	#####	spk1	55.09	55.27	0.01	_
20091112_RATP_SCD_0836	12	14	quatre	NULL	adj	NULL	B_GADJ	OBJ	13	idtext0019	quatre	#####	spk1	55.28	55.83	?	_

20091112_RATP_SCD_0836	13	1	bon	DISF_M	pres	NULL	NULL	NOLINK	0	idtext0020	bon	#####	spk2	57.4	57.49	0.01	_
20091112_RATP_SCD_0836	13	2	oui	NULL	adv	NULL	B_GADV	NOLINK	0	idtext0020	oui	#####	spk2	57.5	57.88	0.01	_
20091112_RATP_SCD_0836	13	3	mais	NULL	coo	NULL	B_NULL	ROOT	0	idtext0020	mais	#####	spk2	57.89	58.35	0.01	_
20091112_RATP_SCD_0836	13	4	je	GREF	cln	NULL	B_GN	SUJ	5	idtext0020	cln	#1##s##	spk2	58.36	58.45	0.01	_
20091112_RATP_SCD_0836	13	5	veux	GREF	v	NULL	B_GVf	DEP_COORD	3	idtext0020	vouloir	P#12##s##	spk2	58.46	58.54	0.01	_
20091112_RATP_SCD_0836	13	6	dire	GREF	vinf	NULL	I_GVf	OBJ	5	idtext0020	dire	W#####	spk2	58.55	58.85	0.01	_
20091112_RATP_SCD_0836	13	7	elle	NULL	pro	NULL	B_GN	SUJ	9	idtext0020	elle	#####	spk2	58.86	58.92	0.01	_
20091112_RATP_SCD_0836	13	8	n'	NULL	clneg	NULL	B_GVfn	MOD	9	idtext0020	n'	#####	spk2	58.93	58.95	0.01	_
20091112_RATP_SCD_0836	13	9	est	NULL	v	NULL	I_GVfn	DEP_COORD	3	idtext0020	être	P#3##s##	spk2	58.96	59.07	0.01	_
20091112_RATP_SCD_0836	13	10	pas	NULL	advneg	NULL	I_GVfn	MOD	9	idtext0020	pas	#####	spk2	59.08	59.16	0.01	_
20091112_RATP_SCD_0836	13	11	reconductible	NULL	adj	NULL	B_GADJ	ATS	9	idtext0020	reconductible	###s##	spk2	59.17	59.96	0.01	_
20091112_RATP_SCD_0836	13	12	la	NULL	det	NULL	B_GN	DET	13	idtext0020	le	##m#s##d	spk2	59.97	60.11	0.01	_
20091112_RATP_SCD_0836	13	13	grève	NULL	nc	NULL	I_GN	SUJ	9	idtext0020	grève	##f#s##	spk2	60.12	60.58	0.01	_
20091112_RATP_SCD_0836	13	14	c'	NULL	cln	NULL	B_GN	SUJ_IMP	16	idtext0020	ce	###s##	spk2	60.59	60.7	0.01	_
20091112_RATP_SCD_0836	13	15	est	NULL	v	NULL	B_GVf	AUX	16	idtext0020	être	P#3##s##	spk2	60.71	60.84	0.01	_
20091112_RATP_SCD_0836	13	16	fini	NULL	vppart	NULL	I_GVf	ROOT	0	idtext0020	finir	K##m#s##	spk2	60.85	61.3	?	//

20091112_RATP_SCD_0836	14	1	c'	NULL	cln	NULL	B_GN	SUJ_IMP	2	idtext0021	ce	###s##	spk1	62.52	62.59	0.01	_
20091112_RATP_SCD_0836	14	2	était	NULL	v	NULL	B_GVf	ROOT	0	idtext0021	être	I#3##s##	spk1	62.6	62.96	0.01	_
20091112_RATP_SCD_0836	14	3	une	NULL	det	NULL	B_GN	DET	4	idtext0021	un	##f#s##i	spk1	62.97	63.14	0.01	_
20091112_RATP_SCD_0836	14	4	grève	NULL	nc	NULL	I_GN	ATS	2	idtext0021	grève	##f#s##	spk1	63.15	63.71	0.01	_
20091112_RATP_SCD_0836	14	5	illimitée	NULL	adj	NULL	I_GN	MOD	4	idtext0021	illimité	##f#s##	spk1	63.72	64.94	?	//

20091112_RATP_SCD_0836	15	1	oui	NULL	adv	NULL	B_GADV	NOLINK	0	idtext0022	oui	#####	spk2	64.99	65.14	0.01	/
20091112_RATP_SCD_0836	15	2	mais	NULL	coo	NULL	B_NULL	ROOT	0	idtext0022	mais	#####	spk2	65.15	65.28	0.01	_
20091112_RATP_SCD_0836	15	3	depuis	DISF_R	prep	NULL	NULL	NOLINK	0	idtext0022	depuis	#####	spk2	65.29	65.75	0.01	_
20091112_RATP_SCD_0836	15	4	voi()	DISF_T	tronc	NULL	NULL	NOLINK	0	idtext0022	voi()	#####	spk2	65.76	65.94	0.01	_
20091112_RATP_SCD_0836	15	5	depuis	NULL	prep	NULL	B_GP	DEP_COORD	2	idtext0022	depuis	#####	spk2	65.95	66.34	0.01	_
20091112_RATP_SCD_0836	15	6	lundi	NULL	nc	NULL	I_GP	OBJ	5	idtext0022	lundi	##m#s##	spk2	66.35	67.09	?	//

20091112_RATP_SCD_0836	16	1	le	NULL	det	NULL	B_GN	DET	2	idtext0023	le	##m#s##d	spk2	67.98	68.21	0.01	_
20091112_RATP_SCD_0836	16	2	RER+A	NULL	nc	B_T	I_GN	SUJ	5	idtext0023	RER+A	#####	spk2	68.22	68.81	0.01	_
20091112_RATP_SCD_0836	16	3	a	NULL	v	NULL	B_GVf	AUX	5	idtext0023	avoir	P#3##s##	spk2	68.82	69.13	0.01	_
20091112_RATP_SCD_0836	16	4	bien	NULL	adv	NULL	I_GVf	MOD	5	idtext0023	bien	#####	spk2	69.14	69.37	0.01	_
20091112_RATP_SCD_0836	16	5	repris	NULL	vppart	NULL	I_GVf	ROOT	0	idtext0023	reprendre	K##m###	spk2	69.38	70.03	?	//

20091112_RATP_SCD_0836	17	1	depuis	NULL	prep	NULL	B_NULL	NOLINK	0	idtext0024	depuis	#####	spk1	69.11	70.03	?	_

20091112_RATP_SCD_0836	18	1	oui	NULL	adv	NULL	B_GADV	NOLINK	0	idtext0025	oui	#####	spk1	70.37	70.58	0.01	/
20091112_RATP_SCD_0836	18	2	mais	NULL	coo	NULL	B_NULL	ROOT	0	idtext0025	mais	#####	spk1	70.59	70.8	0.01	_
20091112_RATP_SCD_0836	18	3	ce	NULL	cln	NULL	B_GN	SUJ_IMP	5	idtext0025	ce	#####	spk1	70.81	70.87	0.01	_
20091112_RATP_SCD_0836	18	4	n'	NULL	clneg	NULL	B_GVfn	MOD	5	idtext0025	n'	#####	spk1	70.88	70.9	0.01	_
20091112_RATP_SCD_0836	18	5	était	NULL	v	NULL	I_GVfn	DEP_COORD	2	idtext0025	être	I#3##s##	spk1	70.91	71.03	0.01	_
20091112_RATP_SCD_0836	18	6	pas	NULL	advneg	NULL	I_GVfn	MOD	5	idtext0025	pas	#####	spk1	71.04	71.19	0.01	_
20091112_RATP_SCD_0836	18	7	une	NULL	det	NULL	B_GN	DET	8	idtext0025	un	##f#s##i	spk1	71.2	71.28	0.01	_
20091112_RATP_SCD_0836	18	8	grève	NULL	nc	NULL	I_GN	ATS	5	idtext0025	grève	##f#s##	spk1	71.29	71.74	0.01	_
20091112_RATP_SCD_0836	18	9	illimitée	NULL	adj	NULL	I_GN	MOD	8	idtext0025	illimité	##f#s##	spk1	71.75	72.54	0.04	//
20091112_RATP_SCD_0836	18	10	c'	NULL	cln	NULL	B_GN	SUJ_IMP	11	idtext0026	ce	###s##	spk1	72.58	72.6	0.01	_
20091112_RATP_SCD_0836	18	11	était	NULL	v	NULL	B_GVf	ROOT	0	idtext0026	être	I#3##s##	spk1	72.61	72.94	0.01	_
20091112_RATP_SCD_0836	18	12	pour	NULL	prep	NULL	B_NULL	ATS	11	idtext0026	pour	#####	spk1	72.95	73.68	0.37	_
20091112_RATP_SCD_0836	18	13	une	NULL	det	NULL	B_GN	DET	14	idtext0027	un	##f#s##i	spk1	74.05	74.19	0.01	_
20091112_RATP_SCD_0836	18	14	journée	NULL	nc	NULL	I_GN	ROOT	0	idtext0027	journée	##f#s##	spk1	74.2	74.81	?	//

20091112_RATP_SCD_0836	19	1	mais	NULL	coo	NULL	B_NULL	ROOT	0	idtext0028	mais	#####	spk2	75.38	75.44	0.01	_
20091112_RATP_SCD_0836	19	2	c'	NULL	cln	NULL	B_GN	SUJ_IMP	3	idtext0028	ce	###s##	spk2	75.45	75.54	0.01	_
20091112_RATP_SCD_0836	19	3	est	NULL	v	NULL	B_GVfn	DEP_COORD	1	idtext0028	être	P#3##s##	spk2	75.55	75.61	0.01	_
20091112_RATP_SCD_0836	19	4	pas	NULL	advneg	NULL	I_GVfn	MOD	3	idtext0028	pas	#####	spk2	75.62	75.77	0.01	_
20091112_RATP_SCD_0836	19	5	vrai	NULL	adj	NULL	B_GADJ	ATS	3	idtext0028	vrai	##m#s##	spk2	75.78	75.96	0.01	_
20091112_RATP_SCD_0836	19	6	là	NULL	adv	NULL	B_GADV	MOD	8	idtext0028	là	#####	spk2	75.97	76.07	0.01	_
20091112_RATP_SCD_0836	19	7	ça	NULL	pro	NULL	B_GN	SUJ_IMP	8	idtext0028	ça	#####	spk2	76.08	76.23	0.01	_
20091112_RATP_SCD_0836	19	8	fait	NULL	v	NULL	B_GVf	ROOT	0	idtext0028	faire	P#3##s##	spk2	76.24	76.43	0.01	_
20091112_RATP_SCD_0836	19	9	quatre	NULL	adj	NULL	B_GN	MOD	10	idtext0028	quatre	#####	spk2	76.44	76.68	0.01	_
20091112_RATP_SCD_0836	19	10	jours	NULL	nc	NULL	I_GN	OBJ	8	idtext0028	jour	##m#p##	spk2	76.69	77.44	?	//

20091112_RATP_SCD_0836	20	1	oui	DISF_R	adv	NULL	NULL	NOLINK	0	idtext0029	oui	#####	spk1	77.79	77.91	0.01	_
20091112_RATP_SCD_0836	20	2	oui	NULL	adv	NULL	B_GADV	NOLINK	0	idtext0029	oui	#####	spk1	77.92	78.19	0.01	_
20091112_RATP_SCD_0836	20	3	je	NULL	cln	NULL	B_GN	SUJ	4	idtext0029	cln	#1##s##	spk1	78.2	78.22	0.01	_
20091112_RATP_SCD_0836	20	4	sais	NULL	v	NULL	B_GVf	ROOT	0	idtext0029	savoir	P#12##s##	spk1	78.23	78.36	0.01	_
20091112_RATP_SCD_0836	20	5	bien	NULL	adv	NULL	B_GADV	MOD	4	idtext0029	bien	#####	spk1	78.37	78.59	0.01	_
20091112_RATP_SCD_0836	20	6	donc	NULL	coo	NULL	B_NULL	COORD	4	idtext0029	donc	#####	spk1	78.6	78.79	0.01	_
20091112_RATP_SCD_0836	20	7	là	NULL	adv	NULL	B_GADV	MOD	10	idtext0029	là	#####	spk1	78.8	78.88	0.01	_
20091112_RATP_SCD_0836	20	8	on	NULL	cln	NULL	B_GN	SUJ	10	idtext0029	cln	#3##s##	spk1	78.89	78.94	0.01	_
20091112_RATP_SCD_0836	20	9	n'	NULL	clneg	NULL	B_GVfn	MOD	10	idtext0029	n'	#####	spk1	78.95	79.02	0.01	_
20091112_RATP_SCD_0836	20	10	a	NULL	v	NULL	I_GVfn	ROOT	0	idtext0029	avoir	P#3##s##	spk1	79.03	79.08	0.01	_
20091112_RATP_SCD_0836	20	11	pas+du+tout	NULL	advneg	NULL	I_GVfn	MOD	10	idtext0029	pas+du+tout	#####	spk1	79.09	79.56	0.01	_
20091112_RATP_SCD_0836	20	12	encore	NULL	adv	NULL	B_GADV	MOD	10	idtext0029	encore	#####	spk1	79.57	79.94	?	_

20091112_RATP_SCD_0836	21	1	les	NULL	det	NULL	B_GN	DET	2	idtext0030	le	###p##d	spk1	79.98	80.16	0.01	_
20091112_RATP_SCD_0836	21	2	informations	NULL	nc	NULL	I_GN	ROOT	0	idtext0030	information	##f#p##	spk1	80.17	81.48	?	//

20091112_RATP_SCD_0836	22	1	non	NULL	adv	NULL	B_GADV	NOLINK	0	idtext0031	non	#####	spk2	79.99	80.11	0.01	/
20091112_RATP_SCD_0836	22	2	parce+que	NULL	csu	NULL	B_NULL	ROOT	0	idtext0031	parce+que	#####	spk2	80.12	80.77	0.01	_
20091112_RATP_SCD_0836	22	3	il	NULL	cln	NULL	B_GN	SUJ_IMP	4	idtext0032	cln	#3#m#s##	spk2	80.78	80.88	0.01	_
20091112_RATP_SCD_0836	22	4	devait	NULL	v	NULL	B_GVf	OBJ	2	idtext0032	devoir	I#3##s##	spk2	80.89	81.12	0.01	_
20091112_RATP_SCD_0836	22	5	y	NULL	clo	NULL	B_GN	AFF	6	idtext0032	y	#####	spk2	81.13	81.22	0.01	_
20091112_RATP_SCD_0836	22	6	avoir	NULL	vinf	NULL	B_GVi	OBJ	4	idtext0032	avoir	W#####	spk2	81.23	81.48	?	//

20091112_RATP_SCD_0836	23	1	des	NULL	det	NULL	B_GN	DET	2	idtext0033	des	###p##i	spk2	81.53	81.65	0.01	_
20091112_RATP_SCD_0836	23	2	assemblées	NULL	nc	NULL	I_GN	ROOT	0	idtext0033	assemblée	##f#p##	spk2	81.66	82.04	0.01	_
20091112_RATP_SCD_0836	23	3	nationales	NULL	adj	NULL	I_GN	MOD	2	idtext0033	national	##f#p##	spk2	82.05	82.75	0.01	/
20091112_RATP_SCD_0836	23	4	ce	NULL	det	NULL	B_GN	DET	5	idtext0033	ce	##m#s##e	spk2	82.76	82.85	0.01	_
20091112_RATP_SCD_0836	23	5	matin	NULL	nc	NULL	I_GN	ROOT	0	idtext0033	matin	##m#s##	spk2	82.86	83.54	?	//

20091112_RATP_SCD_0836	24	1	pour	NULL	prep	NULL	B_NULL	ROOT	0	idtext0034	pour	#####	spk2	84.97	85.12	0.01	_
20091112_RATP_SCD_0836	24	2	euh	DISF_M	pres	NULL	NULL	NOLINK	0	idtext0034	euh	#####	spk2	85.13	85.2	0.01	_
20091112_RATP_SCD_0836	24	3	quoi	DISF_M	pres	NULL	NULL	NOLINK	0	idtext0034	quoi	#####	spk2	85.21	85.45	0.01	_
20091112_RATP_SCD_0836	24	4	pour	NULL	prep	NULL	B_GP	ROOT	0	idtext0034	pour	#####	spk2	85.46	85.69	0.01	_
20091112_RATP_SCD_0836	24	5	décider	NULL	vinf	NULL	I_GP	OBJ	4	idtext0035	décider	W#####	spk2	85.7	86.44	?	_

20091112_RATP_SCD_0836	25	1	pour	NULL	prep	NULL	B_GP	ROOT	0	idtext0036	pour	#####	spk2	86.48	86.56	0.01	_
20091112_RATP_SCD_0836	25	2	décider	NULL	vinf	NULL	I_GP	OBJ	1	idtext0036	décider	W#####	spk2	86.57	87.09	0.01	_
20091112_RATP_SCD_0836	25	3	s'	NULL	csu	NULL	B_NULL	OBJ	2	idtext0036	se	#3##p##	spk2	87.1	87.16	0.01	_
20091112_RATP_SCD_0836	25	4	ils	NULL	cln	NULL	B_GN	SUJ	5	idtext0036	cln	#3#m#p##	spk2	87.17	87.27	0.01	_
20091112_RATP_SCD_0836	25	5	vont	NULL	v	NULL	B_GVf	OBJ	3	idtext0036	aller	P#3##p##	spk2	87.28	87.43	0.01	_
20091112_RATP_SCD_0836	25	6	reprendre	NULL	vinf	NULL	I_GVf	OBJ	5	idtext0036	reprendre	W#####	spk2	87.44	87.9	0.01	/
20091112_RATP_SCD_0836	25	7	ou	NULL	coo	NULL	B_NULL	NOLINK	0	idtext0036	ou	#####	spk2	87.91	87.93	0.01	_
20091112_RATP_SCD_0836	25	8	pas	NULL	advneg	NULL	B_NULL	NOLINK	0	idtext0036	pas	#####	spk2	87.94	88.47	?	_

20091112_RATP_SCD_0836	26	1	ah	DISF_M	pres	NULL	NULL	NOLINK	0	idtext0037	ah	#####	spk1	89.16	89.23	0.01	_
20091112_RATP_SCD_0836	26	2	oui	NULL	adv	NULL	B_GADV	NOLINK	0	idtext0037	oui	#####	spk1	89.24	89.35	0.01	_
20091112_RATP_SCD_0836	26	3	mais	NULL	coo	NULL	B_NULL	NOLINK	0	idtext0037	mais	#####	spk1	89.36	89.48	0.01	_
20091112_RATP_SCD_0836	26	4	là	NULL	adv	NULL	B_GADV	MOD	7	idtext0037	là	#####	spk1	89.49	89.58	0.01	_
20091112_RATP_SCD_0836	26	5	je	NULL	cln	NULL	B_GN	SUJ	7	idtext0037	cln	#1##s##	spk1	89.59	89.76	0.01	_
20091112_RATP_SCD_0836	26	6	ne	NULL	clneg	NULL	B_GVfn	MOD	7	idtext0037	ne	#####	spk1	89.77	89.79	0.01	_
20091112_RATP_SCD_0836	26	7	sais	NULL	v	NULL	I_GVfn	ROOT	0	idtext0037	savoir	P#12##s##	spk1	89.8	89.96	0.01	_
20091112_RATP_SCD_0836	26	8	pas	NULL	advneg	NULL	I_GVfn	MOD	7	idtext0037	pas	#####	spk1	89.97	90.09	0.01	_
20091112_RATP_SCD_0836	26	9	madame	NULL	nc	NULL	B_GN	NOLINK	0	idtext0037	Monsieur	##f#s##	spk1	90.1	90.58	0.01	/
20091112_RATP_SCD_0836	26	10	on	NULL	cln	NULL	B_GN	SUJ	12	idtext0037	cln	#3##s##	spk1	90.59	90.61	0.01	_
20091112_RATP_SCD_0836	26	11	n'	NULL	clneg	NULL	B_GVfn	MOD	12	idtext0037	n'	#####	spk1	90.62	90.64	0.01	_
20091112_RATP_SCD_0836	26	12	a	NULL	v	NULL	I_GVfn	ROOT	0	idtext0037	avoir	P#3##s##	spk1	90.65	90.68	0.01	_
20091112_RATP_SCD_0836	26	13	pas+encore	NULL	adv	NULL	B_GADV	MOD	12	idtext0037	pas+encore	#####	spk1	90.69	91.05	0.01	_
20091112_RATP_SCD_0836	26	14	les	NULL	det	NULL	B_GN	DET	15	idtext0037	le	###p##d	spk1	91.06	91.2	0.01	_
20091112_RATP_SCD_0836	26	15	infos	NULL	nc	NULL	I_GN	OBJ	12	idtext0037	info	##f#p##	spk1	91.21	91.55	?	//

20091112_RATP_SCD_0836	27	1	oui	NULL	adv	NULL	B_GADV	NOLINK	0	idtext0038	oui	#####	spk2	91.59	91.7	0.01	_
20091112_RATP_SCD_0836	27	2	mais+alors	NULL	coo	NULL	B_NULL	ROOT	0	idtext0038	mais+alors	#####	spk2	91.71	91.98	0.01	_
20091112_RATP_SCD_0836	27	3	vous	NULL	cln	NULL	B_GN	SUJ	4	idtext0038	cln	#2##p##	spk2	91.99	92.08	0.01	_
20091112_RATP_SCD_0836	27	4	pouvez	NULL	v	NULL	B_GVfn	DEP_COORD	2	idtext0038	pouvoir	P#2##p##	spk2	92.09	92.31	0.01	_
20091112_RATP_SCD_0836	27	5	pas	NULL	advneg	NULL	I_GVfn	MOD	4	idtext0038	pas	#####	spk2	92.32	92.47	0.01	_
20091112_RATP_SCD_0836	27	6	me	NULL	clo	NULL	B_GN	A_OBJ	7	idtext0038	cla	#1##s##	spk2	92.48	92.52	0.01	_
20091112_RATP_SCD_0836	27	7	dire	NULL	vinf	NULL	B_GVi	OBJ	4	idtext0038	dire	W#####	spk2	92.53	92.78	0.01	_
20091112_RATP_SCD_0836	27	8	si	NULL	adv	NULL	B_GADV	NOLINK	0	idtext0038	si	#####	spk2	92.79	93.03	0.01	_
20091112_RATP_SCD_0836	27	9	ed()	DISF_T	tronc	NULL	NULL	NOLINK	0	idtext0038	ed()	#####	spk2	93.04	93.27	0.01	_
20091112_RATP_SCD_0836	27	10	lundi	NULL	nc	NULL	B_GN	NOLINK	0	idtext0038	lundi	##m#s##	spk2	93.28	93.72	0.01	_
20091112_RATP_SCD_0836	27	11	si	NULL	csu	NULL	B_NULL	ROOT	0	idtext0038	si	#####	spk2	93.73	93.88	0.01	_
20091112_RATP_SCD_0836	27	12	je	NULL	cln	NULL	B_GN	SUJ	13	idtext0038	cln	#1##s##	spk2	93.89	93.96	0.01	_
20091112_RATP_SCD_0836	27	13	prends	NULL	v	NULL	B_GVf	OBJ	11	idtext0038	prendre	P#12##s##	spk2	93.97	94.11	0.01	_
20091112_RATP_SCD_0836	27	14	le	NULL	det	NULL	B_GN	DET	15	idtext0038	le	##m#s##d	spk2	94.12	94.27	0.01	_
20091112_RATP_SCD_0836	27	15	train	NULL	nc	NULL	I_GN	OBJ	13	idtext0038	train	##m#s##	spk2	94.28	94.51	0.01	_
20091112_RATP_SCD_0836	27	16	si	NULL	csu	NULL	B_NULL	MOD	13	idtext0038	si	#####	spk2	94.52	94.66	0.01	_
20091112_RATP_SCD_0836	27	17	ça	NULL	pro	NULL	B_GN	SUJ	18	idtext0038	ça	#####	spk2	94.67	94.82	0.01	_
20091112_RATP_SCD_0836	27	18	marche	NULL	v	NULL	B_GVf	OBJ	16	idtext0038	marcher	PS#13##s##	spk2	94.83	95.09	0.01	_
20091112_RATP_SCD_0836	27	19	ou	NULL	coo	NULL	B_NULL	COORD	18	idtext0038	ou	#####	spk2	95.1	95.18	0.01	_
20091112_RATP_SCD_0836	27	20	pas	NULL	advneg	NULL	B_NULL	MOD	21	idtext0038	pas	#####	spk2	95.19	95.35	0.01	_
20091112_RATP_SCD_0836	27	21	alors	NULL	adv	NULL	B_GADV	DEP_COORD	19	idtext0038	alors	#####	spk2	95.36	95.9	?	_

20091112_RATP_SCD_0836	28	1	je	NULL	cln	NULL	B_GN	SUJ	2	idtext0039	cln	#1##s##	spk1	97.58	97.73	0.01	_
20091112_RATP_SCD_0836	28	2	pense	NULL	v	NULL	B_GVf	ROOT	0	idtext0039	penser	PS#13##s##	spk1	97.74	98.01	0.01	_
20091112_RATP_SCD_0836	28	3	que	NULL	csu	NULL	B_NULL	OBJ	2	idtext0039	que	#####	spk1	98.02	98.14	0.01	_
20091112_RATP_SCD_0836	28	4	lundi	NULL	nc	NULL	B_GN	SUJ	6	idtext0039	lundi	##m#s##	spk1	98.15	98.41	0.01	_
20091112_RATP_SCD_0836	28	5	ça	NULL	pro	NULL	I_GN	SUJ_IMP	6	idtext0039	ça	#####	spk1	98.42	98.53	0.01	_
20091112_RATP_SCD_0836	28	6	fonctionnera	NULL	v	NULL	B_GVf	OBJ	3	idtext0039	fonctionner	F#3##s##	spk1	98.54	99.02	0.01	_
20091112_RATP_SCD_0836	28	7	tout+de+même	NULL	adv	NULL	B_GADV	MOD	6	idtext0039	tout+de+même	#####	spk1	99.03	99.55	?	_

20091112_RATP_SCD_0836	29	1	je	NULL	cln	NULL	B_GN	SUJ	3	idtext0040	cln	#1##s##	spk2	100.58	100.62	0.01	_
20091112_RATP_SCD_0836	29	2	ne	NULL	clneg	NULL	B_GVfn	MOD	3	idtext0040	ne	#####	spk2	100.63	100.65	0.01	_
20091112_RATP_SCD_0836	29	3	sais	NULL	v	NULL	I_GVfn	ROOT	0	idtext0040	savoir	P#12##s##	spk2	100.66	100.75	0.01	_
20091112_RATP_SCD_0836	29	4	pas	NULL	advneg	NULL	I_GVfn	MOD	3	idtext0040	pas	#####	spk2	100.76	100.93	0.01	_
20091112_RATP_SCD_0836	29	5	moi	NULL	pro	NULL	B_GN	SUJ	3	idtext0040	moi	#####	spk2	100.94	101.09	0.01	_
20091112_RATP_SCD_0836	29	6	on	NULL	cln	NULL	B_GN	SUJ_IMP	8	idtext0040	cln	#3##s##	spk2	101.1	101.15	0.01	_
20091112_RATP_SCD_0836	29	7	me	NULL	clo	NULL	B_GN	A_OBJ	8	idtext0040	cla	#1##s##	spk2	101.16	101.19	0.01	_
20091112_RATP_SCD_0836	29	8	dit	NULL	v	NULL	B_GVf	ROOT	0	idtext0040	dire	J#3##s##	spk2	101.2	101.39	0.01	_
20091112_RATP_SCD_0836	29	9	c'	NULL	cln	NULL	B_GN	SUJ_IMP	10	idtext0040	ce	###s##	spk2	101.4	101.45	0.01	_
20091112_RATP_SCD_0836	29	10	est	NULL	v	NULL	B_GVf	ROOT	0	idtext0040	être	P#3##s##	spk2	101.46	101.54	0.01	_
20091112_RATP_SCD_0836	29	11	reconductible	NULL	adj	NULL	B_GN	ATS	10	idtext0040	reconductible	###s##	spk2	101.55	102.46	0.01	/
20091112_RATP_SCD_0836	29	12	ça	NULL	pro	NULL	I_GN	SUJ_IMP	13	idtext0040	ça	#####	spk2	102.47	102.64	0.01	_
20091112_RATP_SCD_0836	29	13	fait	NULL	v	NULL	B_GVf	ROOT	0	idtext0040	faire	P#3##s##	spk2	102.65	102.71	0.01	_
20091112_RATP_SCD_0836	29	14	un	NULL	det	NULL	B_GN	DET	15	idtext0040	un	##m#s##i	spk2	102.72	102.82	0.01	_
20091112_RATP_SCD_0836	29	15	semaine	NULL	nc	NULL	I_GN	OBJ	13	idtext0040	semaine	##f#s##	spk2	102.83	103.15	0.01	_
20091112_RATP_SCD_0836	29	16	que	NULL	csu	NULL	B_NULL	OBJ	15	idtext0040	que	#####	spk2	103.16	103.27	0.01	_
20091112_RATP_SCD_0836	29	17	ça	NULL	pro	NULL	B_GN	SUJ_IMP	18	idtext0040	ça	#####	spk2	103.28	103.47	0.01	_
20091112_RATP_SCD_0836	29	18	dure	NULL	v	NULL	B_GVf	OBJ	16	idtext0040	durer	PS#13##s##	spk2	103.48	104.21	?	//

20091112_RATP_SCD_0836	30	1	ah	DISF_M	pres	NULL	NULL	NOLINK	0	idtext0041	ah	#####	spk1	104.45	104.51	0.01	_
20091112_RATP_SCD_0836	30	2	oui	NULL	adv	NULL	B_GADV	MOD	3	idtext0041	oui	#####	spk1	104.52	104.64	0.01	_
20091112_RATP_SCD_0836	30	3	tout+à+fait	NULL	adv	NULL	I_GADV	ROOT	0	idtext0041	tout+à+fait	#####	spk1	104.65	105.2	?	_

20091112_RATP_SCD_0836	31	1	ben	DISF_M	pres	NULL	NULL	NOLINK	0	idtext0042	ben	#####	spk2	106.6	106.74	0.01	_
20091112_RATP_SCD_0836	31	2	moi	NULL	pro	NULL	B_GN	A_OBJ	6	idtext0042	moi	#####	spk2	106.75	106.93	0.01	_
20091112_RATP_SCD_0836	31	3	elle	NULL	cln	NULL	B_GN	SUJ	6	idtext0042	cln	#3#f#s##	spk2	106.94	107.0	0.01	_
20091112_RATP_SCD_0836	31	4	m'	NULL	clo	NULL	B_GN	A_OBJ	6	idtext0042	cla	#1##s##	spk2	107.01	107.03	0.01	_
20091112_RATP_SCD_0836	31	5	avait	NULL	v	NULL	B_GVf	AUX	6	idtext0042	avoir	I#3##s##	spk2	107.04	107.29	0.01	_
20091112_RATP_SCD_0836	31	6	dit	NULL	vppart	NULL	I_GVf	ROOT	0	idtext0042	dire	J#3##s##	spk2	107.3	107.41	0.01	_
20091112_RATP_SCD_0836	31	7	ce	NULL	det	NULL	B_GN	DET	8	idtext0042	ce	##m#s##e	spk2	107.42	107.46	0.01	_
20091112_RATP_SCD_0836	31	8	matin	NULL	nc	NULL	I_GN	OBJ	6	idtext0042	matin	##m#s##	spk2	107.47	107.76	0.01	_
20091112_RATP_SCD_0836	31	9	que	NULL	csu	NULL	B_NULL	OBJ	8	idtext0042	que	#####	spk2	107.77	107.81	0.01	_
20091112_RATP_SCD_0836	31	10	c'	NULL	cln	NULL	B_GN	SUJ_IMP	11	idtext0042	ce	###s##	spk2	107.82	107.87	0.01	_
20091112_RATP_SCD_0836	31	11	était	NULL	v	NULL	B_GVfn	OBJ	9	idtext0042	être	I#3##s##	spk2	107.88	108.09	0.01	_
20091112_RATP_SCD_0836	31	12	pas	NULL	advneg	NULL	I_GVfn	MOD	11	idtext0042	pas	#####	spk2	108.1	108.21	0.01	_
20091112_RATP_SCD_0836	31	13	reconductible	NULL	adj	NULL	B_GADJ	ATS	11	idtext0042	reconductible	###s##	spk2	108.22	108.98	0.01	_
20091112_RATP_SCD_0836	31	14	sur	NULL	prep	NULL	B_GP	P_OBJ_LOC	13	idtext0042	sur	#####	spk2	108.99	109.15	0.01	_
20091112_RATP_SCD_0836	31	15	le	NULL	det	NULL	I_GP	DET	16	idtext0042	le	##m#s##d	spk2	109.16	109.21	0.01	_
20091112_RATP_SCD_0836	31	16	Transilien	NULL	nc	B_T	I_GP	OBJ	14	idtext0042	Transilien	#####	spk2	109.22	110.02	0.16	//
20091112_RATP_SCD_0836	31	17	elle	NULL	cln	NULL	B_GN	SUJ	20	idtext0043	cln	#3#f#s##	spk2	110.18	110.27	0.01	_
20091112_RATP_SCD_0836	31	18	m'	NULL	clo	NULL	B_GN	A_OBJ	20	idtext0043	cla	#1##s##	spk2	110.28	110.32	0.01	_
20091112_RATP_SCD_0836	31	19	avait	NULL	v	NULL	B_GVf	AUX	20	idtext0043	avoir	I#3##s##	spk2	110.33	110.53	0.01	_
20091112_RATP_SCD_0836	31	20	dit	NULL	vppart	NULL	I_GVf	ROOT	0	idtext0043	dire	J#3##s##	spk2	110.54	110.66	0.01	_
20091112_RATP_SCD_0836	31	21	qu'	NULL	csu	NULL	B_NULL	OBJ	20	idtext0043	qu'	#####	spk2	110.67	110.69	0.01	_
20091112_RATP_SCD_0836	31	22	il	NULL	cln	NULL	B_GN	SUJ_IMP	24	idtext0043	cln	#3#m#s##	spk2	110.7	110.75	0.01	_
20091112_RATP_SCD_0836	31	23	y	NULL	clo	NULL	B_GN	AFF	24	idtext0043	y	#####	spk2	110.76	110.78	0.01	_
20091112_RATP_SCD_0836	31	24	avait	NULL	v	NULL	B_GVf	OBJ	21	idtext0043	avoir	I#3##s##	spk2	110.79	110.89	0.01	_
20091112_RATP_SCD_0836	31	25	un	NULL	det	NULL	B_NULL	OBJ	24	idtext0043	un	##m#s##i	spk2	110.9	111.17	0.01	_
20091112_RATP_SCD_0836	31	26	il	NULL	cln	NULL	B_GN	SUJ_IMP	28	idtext0043	cln	#3#m#s##	spk2	111.18	111.26	0.01	_
20091112_RATP_SCD_0836	31	27	y	NULL	clo	NULL	B_GN	AFF	28	idtext0043	y	#####	spk2	111.27	111.29	0.01	_
20091112_RATP_SCD_0836	31	28	avait	NULL	v	NULL	B_GVf	ROOT	0	idtext0043	avoir	I#3##s##	spk2	111.3	111.62	?	//

20091112_RATP_SCD_0836	32	1	six	NULL	det	NULL	B_GN	DET	2	idtext0044	six	#####	spk2	111.68	111.93	0.01	_
20091112_RATP_SCD_0836	32	2	trains	NULL	nc	NULL	I_GN	ROOT	0	idtext0044	train	##m#p##	spk2	111.94	112.32	0.01	_
20091112_RATP_SCD_0836	32	3	sur	NULL	prep	NULL	B_NULL	ROOT	0	idtext0044	sur	#####	spk2	112.33	112.46	0.01	_
20091112_RATP_SCD_0836	32	4	dix	NULL	adj	NULL	B_GADJ	OBJ	3	idtext0044	dix	#####	spk2	112.47	112.81	?	_

20091112_RATP_SCD_0836	33	1	ah	DISF_M	pres	NULL	NULL	NOLINK	0	idtext0045	ah	#####	spk1	111.66	112.81	?	//

20091112_RATP_SCD_0836	34	1	qui	NULL	prorel	NULL	B_NULL	SUJ	2	idtext0046	qui	#####	spk2	112.85	112.9	0.01	_
20091112_RATP_SCD_0836	34	2	marchaient	NULL	v	NULL	B_GVf	ROOT	0	idtext0046	marcher	I#3##p##	spk2	112.91	113.53	?	_

20091112_RATP_SCD_0836	35	1	six	NULL	adj	NULL	B_GN	MOD	2	idtext0047	six	#####	spk1	114.51	114.61	0.01	_
20091112_RATP_SCD_0836	35	2	trains	NULL	nc	NULL	I_GN	ROOT	0	idtext0047	train	##m#p##	spk1	114.62	114.74	0.01	_
20091112_RATP_SCD_0836	35	3	sur	NULL	prep	NULL	B_NULL	NOLINK	0	idtext0047	sur	#####	spk1	114.75	115.01	0.01	_
20091112_RATP_SCD_0836	35	4	donc	NULL	coo	NULL	B_NULL	COORD	2	idtext0047	donc	#####	spk1	115.02	115.27	0.01	_
20091112_RATP_SCD_0836	35	5	c()	DISF_T	tronc	NULL	NULL	NOLINK	0	idtext0047	c()	#####	spk1	115.28	115.32	0.01	_
20091112_RATP_SCD_0836	35	6	que	NULL	prorel	NULL	B_NULL	DEP_COORD	4	idtext0047	que	#####	spk1	115.33	115.38	0.01	_
20091112_RATP_SCD_0836	35	7	c'	NULL	cln	NULL	B_GN	SUJ_IMP	8	idtext0047	ce	###s##	spk1	115.39	115.43	0.01	_
20091112_RATP_SCD_0836	35	8	était	NULL	v	NULL	B_GVf	OBJ	6	idtext0047	être	I#3##s##	spk1	115.44	115.63	0.01	_
20091112_RATP_SCD_0836	35	9	vraiment	NULL	adv	NULL	B_GADJ	MOD	11	idtext0047	vraiment	#####	spk1	115.64	115.95	0.01	_
20091112_RATP_SCD_0836	35	10	déjà	NULL	adv	NULL	I_GADJ	MOD	11	idtext0047	déjà	#####	spk1	115.96	116.27	0.01	_
20091112_RATP_SCD_0836	35	11	reconductible	NULL	adj	NULL	I_GADJ	ATS	8	idtext0047	reconductible	###s##	spk1	116.28	116.76	0.01	_
20091112_RATP_SCD_0836	35	12	non	DISF_R	adv	NULL	NULL	NOLINK	0	idtext0047	non	#####	spk1	116.77	116.89	0.01	_
20091112_RATP_SCD_0836	35	13	non	NULL	adv	NULL	B_GADV	NOLINK	0	idtext0047	non	#####	spk1	116.9	117.02	0.01	_
20091112_RATP_SCD_0836	35	14	sur	NULL	prep	NULL	B_GP	ATS	19	idtext0047	sur	#####	spk1	117.03	117.34	0.01	_
20091112_RATP_SCD_0836	35	15	euh	DISF_M	pres	NULL	NULL	NOLINK	0	idtext0047	euh	#####	spk1	117.35	117.37	0.01	_
20091112_RATP_SCD_0836	35	16	le	NULL	det	NULL	I_GP	DET	17	idtext0047	le	##m#s##d	spk1	117.38	117.77	0.01	_
20091112_RATP_SCD_0836	35	17	RER+B	NULL	nc	B_T	I_GP	OBJ	14	idtext0048	RER+B	#####	spk1	117.78	118.38	0.01	_
20091112_RATP_SCD_0836	35	18	c'	NULL	cln	NULL	B_GN	SUJ_IMP	19	idtext0049	ce	###s##	spk1	118.39	118.49	0.01	_
20091112_RATP_SCD_0836	35	19	était	NULL	v	NULL	B_GVf	ROOT	0	idtext0049	être	I#3##s##	spk1	118.5	118.65	0.01	_
20091112_RATP_SCD_0836	35	20	reconductible	NULL	adj	NULL	B_GN	ATS	19	idtext0049	reconductible	###s##	spk1	118.66	119.35	0.01	//
20091112_RATP_SCD_0836	35	21	hein	DISF_M	pres	NULL	NULL	NOLINK	0	idtext0049	hein	#####	spk1	119.36	119.42	0.01	_
20091112_RATP_SCD_0836	35	22	madame	NULL	nc	NULL	I_GN	ATS	19	idtext0049	Monsieur	##f#s##	spk1	119.43	119.91	?	_

20091112_RATP_SCD_0836	36	1	ah	DISF_M	pres	NULL	NULL	NOLINK	0	idtext0050	ah	#####	spk2	120.02	120.11	0.01	/
20091112_RATP_SCD_0836	36	2	moi	NULL	pro	NULL	B_GN	A_OBJ	7	idtext0050	moi	#####	spk2	120.12	120.28	0.01	_
20091112_RATP_SCD_0836	36	3	elle	NULL	cln	NULL	B_GN	SUJ	7	idtext0050	cln	#3#f#s##	spk2	120.29	120.38	0.01	_
20091112_RATP_SCD_0836	36	4	m'	NULL	clo	NULL	B_GN	A_OBJ	7	idtext0050	cla	#1##s##	spk2	120.39	120.43	0.01	_
20091112_RATP_SCD_0836	36	5	a	NULL	v	NULL	B_GVfn	AUX	7	idtext0050	avoir	P#3##s##	spk2	120.44	120.56	0.01	_
20091112_RATP_SCD_0836	36	6	pas	NULL	advneg	NULL	I_GVfn	MOD	7	idtext0050	pas	#####	spk2	120.57	120.66	0.01	/
20091112_RATP_SCD_0836	36	7	dit	NULL	vppart	NULL	I_GVfn	ROOT	0	idtext0050	dire	J#3##s##	spk2	120.67	120.91	0.01	_
20091112_RATP_SCD_0836	36	8	ça	NULL	pro	NULL	B_GN	OBJ	7	idtext0050	ça	#####	spk2	120.92	121.0	0.01	_
20091112_RATP_SCD_0836	36	9	hein	DISF_M	pres	NULL	NULL	NOLINK	0	idtext0050	hein	#####	spk2	121.01	121.41	?	//

20091112_RATP_SCD_0836	37	1	dès	NULL	prep	NULL	B_GP	ROOT	0	idtext0051	dès	#####	spk1	119.97	120.31	0.01	_
20091112_RATP_SCD_0836	37	2	le	NULL	det	NULL	I_GP	DET	3	idtext0051	le	##m#s##d	spk1	120.32	120.58	0.01	_
20091112_RATP_SCD_0836	37	3	départ	NULL	nc	NULL	I_GP	OBJ	1	idtext0051	départ	##m#s##	spk1	120.59	121.41	?	//

20091112_RATP_SCD_0836	38	1	c'	NULL	cln	NULL	B_GN	SUJ_IMP	2	idtext0052	ce	###s##	spk1	122.56	122.58	0.01	_
20091112_RATP_SCD_0836	38	2	est	NULL	v	NULL	B_GVf	ROOT	0	idtext0052	être	P#3##s##	spk1	122.59	123.08	0.01	_
20091112_RATP_SCD_0836	38	3	une	NULL	det	NULL	B_GN	DET	4	idtext0052	un	##f#s##i	spk1	123.09	123.16	0.01	_
20091112_RATP_SCD_0836	38	4	grève	NULL	nc	NULL	I_GN	ATS	2	idtext0052	grève	##f#s##	spk1	123.17	123.39	0.01	_
20091112_RATP_SCD_0836	38	5	un	NULL	det	NULL	B_GN	DET	6	idtext0052	un	##m#s##i	spk1	123.4	123.62	0.01	_
20091112_RATP_SCD_0836	38	6	préavis	NULL	nc	NULL	I_GN	ROOT	0	idtext0052	préavis	##m###	spk1	123.63	123.98	0.01	_
20091112_RATP_SCD_0836	38	7	de	NULL	prep	NULL	B_GP	DEP	6	idtext0052	de	#####	spk1	123.99	124.16	0.01	_
20091112_RATP_SCD_0836	38	8	grève	NULL	nc	NULL	I_GP	OBJ	7	idtext0052	grève	##f#s##	spk1	124.17	124.67	0.01	_
20091112_RATP_SCD_0836	38	9	illimitée	NULL	adj	NULL	I_GP	MOD	8	idtext0052	illimité	##f#s##	spk1	124.68	125.22	?	//

20091112_RATP_SCD_0836	39	1	mais	NULL	coo	NULL	B_NULL	ROOT	0	idtext0053	mais	#####	spk2	125.29	125.49	0.01	_
20091112_RATP_SCD_0836	39	2	illimitée	NULL	vppart	NULL	B_GVf	DEP_COORD	1	idtext0053	illimiter	K##f#s##	spk2	125.5	126.08	0.01	_
20091112_RATP_SCD_0836	39	3	jusqu'à	NULL	prep	NULL	B_GP	P_OBJ	2	idtext0053	jusqu'à	#####	spk2	126.09	126.35	0.01	_
20091112_RATP_SCD_0836	39	4	combien+de	NULL	det	NULL	I_GP	DET	5	idtext0053	combien+de	#####	spk2	126.36	126.74	0.01	_
20091112_RATP_SCD_0836	39	5	temps	NULL	nc	NULL	I_GP	OBJ	3	idtext0053	temps	##m###	spk2	126.75	127.19	?	//

20091112_RATP_SCD_0836	40	1	ben	DISF_M	pres	NULL	NULL	NOLINK	0	idtext0054	ben	#####	spk1	128.29	128.61	0.01	_
20091112_RATP_SCD_0836	40	2	j'	NULL	cln	NULL	B_GN	SUJ	3	idtext0054	cln	#1##s##	spk1	128.62	128.67	0.01	_
20091112_RATP_SCD_0836	40	3	espère	NULL	v	NULL	B_GVf	ROOT	0	idtext0054	espérer	PS#13##s##	spk1	128.68	129.01	0.01	_
20091112_RATP_SCD_0836	40	4	le+moins+de	NULL	det	NULL	B_GN	DET	5	idtext0054	le+moins+de	#####	spk1	129.02	129.37	0.01	_
20091112_RATP_SCD_0836	40	5	temps	NULL	nc	NULL	I_GN	OBJ	3	idtext0054	temps	##m###	spk1	129.38	129.55	0.01	_
20091112_RATP_SCD_0836	40	6	possible	NULL	adj	NULL	I_GN	MOD	5	idtext0054	possible	###s##	spk1	129.56	130.11	?	//

20091112_RATP_SCD_0836	41	1	oh+là+là	DISF_M	pres	NULL	NULL	NOLINK	0	idtext0055	oh+là+là	#####	spk2	130.52	131.06	0.01	_
20091112_RATP_SCD_0836	41	2	là	NULL	adv	NULL	B_GADV	NOLINK	0	idtext0055	là	#####	spk2	131.07	131.3	?	_

20091112_RATP_SCD_0836	42	1	la	DISF_R	det	NULL	NULL	NOLINK	0	idtext0056	le	##m#s##d	spk2	131.78	132.38	0.01	_
20091112_RATP_SCD_0836	42	2	la	NULL	det	NULL	B_NULL	NOLINK	0	idtext0056	le	##m#s##d	spk2	132.39	132.67	0.01	_
20091112_RATP_SCD_0836	42	3	là	NULL	adv	NULL	B_GADV	NOLINK	0	idtext0056	là	#####	spk2	132.68	133.09	?	//

20091112_RATP_SCD_0836	43	1	parce+que	NULL	csu	NULL	B_NULL	ROOT	0	idtext0057	parce+que	#####	spk1	131.6	132.05	0.01	_
20091112_RATP_SCD_0836	43	2	ça	NULL	pro	NULL	B_GN	SUJ_IMP	4	idtext0057	ça	#####	spk1	132.06	132.14	0.01	_
20091112_RATP_SCD_0836	43	3	nous	NULL	clo	NULL	B_GN	A_OBJ	4	idtext0057	cln	#1##p##	spk1	132.15	132.33	0.01	_
20091112_RATP_SCD_0836	43	4	embête	NULL	v	NULL	B_GVf	OBJ	1	idtext0057	embêter	PS#13##s##	spk1	132.34	132.58	0.01	_
20091112_RATP_SCD_0836	43	5	bien	NULL	adv	NULL	B_GADJ	MOD	6	idtext0057	bien	#####	spk1	132.59	132.79	0.01	_
20091112_RATP_SCD_0836	43	6	tous	NULL	adj	NULL	I_GADJ	MOD	4	idtext0057	tout	##m#p##	spk1	132.8	133.09	?	//

20091112_RATP_SCD_0836	44	1	euh	DISF_M	pres	NULL	NULL	NOLINK	0	idtext0058	euh	#####	spk2	133.14	133.93	0.01	_
20091112_RATP_SCD_0836	44	2	je	NULL	cln	NULL	B_GN	SUJ	3	idtext0058	cln	#1##s##	spk2	133.94	134.44	0.01	_
20091112_RATP_SCD_0836	44	3	pourrai	NULL	v	NULL	B_GVf	ROOT	0	idtext0058	pouvoir	F#1##s##	spk2	134.45	134.64	0.01	_
20091112_RATP_SCD_0836	44	4	vous	NULL	clo	NULL	B_GN	A_OBJ	5	idtext0058	cln	#2##p##	spk2	134.65	134.78	0.01	_
20091112_RATP_SCD_0836	44	5	retéléphoner	NULL	vinf	NULL	B_GVi	OBJ	3	idtext0058	retéléphoner	W#####	spk2	134.79	135.48	0.01	_
20091112_RATP_SCD_0836	44	6	pour	NULL	prep	NULL	B_GP	MOD	5	idtext0058	pour	#####	spk2	135.49	135.64	0.01	_
20091112_RATP_SCD_0836	44	7	savoir	NULL	vinf	NULL	I_GP	OBJ	6	idtext0058	savoir	W#####	spk2	135.65	136.03	0.01	_
20091112_RATP_SCD_0836	44	8	pour	NULL	prep	NULL	B_GP	P_OBJ	5	idtext0058	pour	#####	spk2	136.04	136.12	0.01	_
20091112_RATP_SCD_0836	44	9	lundi	NULL	nc	NULL	I_GP	OBJ	8	idtext0058	lundi	##m#s##	spk2	136.13	136.57	?	//

20091112_RATP_SCD_0836	45	1	ah+ben	DISF_M	pres	NULL	NULL	NOLINK	0	idtext0059	ah+ben	#####	spk1	136.62	136.83	0.01	_
20091112_RATP_SCD_0836	45	2	bien+sûr	NULL	adv	NULL	B_GADV	NOLINK	0	idtext0059	bien+sûr	#####	spk1	136.84	137.16	0.01	_
20091112_RATP_SCD_0836	45	3	madame	NULL	nc	NULL	B_GN	NOLINK	0	idtext0059	Monsieur	##f#s##	spk1	137.17	137.5	?	//

20091112_RATP_SCD_0836	46	1	oui	NULL	adv	NULL	B_GADV	MOD	2	idtext0060	oui	#####	spk2	137.54	137.64	0.01	_
20091112_RATP_SCD_0836	46	2	merci	NULL	adv	NULL	I_GADV	ROOT	0	idtext0060	merci	#####	spk2	137.65	138.03	0.01	_
20091112_RATP_SCD_0836	46	3	madame	NULL	nc	NULL	B_GN	NOLINK	0	idtext0060	Monsieur	##f#s##	spk2	138.04	138.5	?	//

20091112_RATP_SCD_0836	47	1	je	NULL	cln	NULL	B_GN	SUJ	4	idtext0061	cln	#1##s##	spk1	138.54	138.56	0.01	_
20091112_RATP_SCD_0836	47	2	vous	NULL	clo	NULL	B_GN	OBJ	4	idtext0061	cln	#2##p##	spk1	138.57	138.72	0.01	_
20091112_RATP_SCD_0836	47	3	en	NULL	clo	NULL	B_GN	DE_OBJ	4	idtext0061	en	#####	spk1	138.73	138.79	0.01	_
20091112_RATP_SCD_0836	47	4	prie	NULL	v	NULL	B_GVf	ROOT	0	idtext0061	prier	PS#13##s##	spk1	138.8	138.97	0.01	_
20091112_RATP_SCD_0836	47	5	madame	NULL	nc	NULL	B_GN	NOLINK	0	idtext0061	Monsieur	##f#s##	spk1	138.98	139.51	?	//

20091112_RATP_SCD_0836	48	1	au+revoir	NULL	adv	NULL	B_GADV	NOLINK	0	idtext0062	au+revoir	#####	spk2	138.71	139.51	?	//

20091112_RATP_SCD_0836	49	1	au+revoir	NULL	adv	NULL	B_GN	NOLINK	0	idtext0063	au+revoir	#####	spk1	139.55	139.96	0.01	_
20091112_RATP_SCD_0836	49	2	bonne	NULL	adj	NULL	I_GN	MOD	3	idtext0063	bon	##f#s##	spk1	139.97	140.09	0.01	_
20091112_RATP_SCD_0836	49	3	journée	NULL	nc	NULL	I_GN	ROOT	0	idtext0063	journée	##f#s##	spk1	140.1	140.53	?	//

