20091112_RATP_SCD_0377	1	1	oui	NULL	adv	NULL	B_GADV	NOLINK	0	idtext0000	oui	#####	spk1	2.65	4.12	0.01	_
20091112_RATP_SCD_0377	1	2	NNAAMMEE	NULL	np	B_HU	B_GN	ROOT	0	idtext0001	ANONYM	NULL	spk1	4.13	5.29	?	//

20091112_RATP_SCD_0377	2	1	ouais	DISF_R	adv	NULL	NULL	NOLINK	0	idtext0002	ouais	#####	spk2	5.33	5.38	0.01	_
20091112_RATP_SCD_0377	2	2	ouais	NULL	adv	NULL	B_GADV	NOLINK	0	idtext0002	ouais	#####	spk2	5.39	5.71	?	//

20091112_RATP_SCD_0377	3	1	il	NULL	cln	NULL	B_GN	SUJ	2	idtext0003	cln	#3#m#s##	spk1	5.75	5.83	0.01	_
20091112_RATP_SCD_0377	3	2	était	NULL	v	NULL	B_GVf	ROOT	0	idtext0003	être	I#3##s##	spk1	5.84	6.03	0.01	_
20091112_RATP_SCD_0377	3	3	en	NULL	prep	NULL	B_GP	ATS	2	idtext0003	en	#####	spk1	6.04	6.11	0.01	_
20091112_RATP_SCD_0377	3	4	réunion	NULL	nc	NULL	I_GP	OBJ	3	idtext0003	réunion	##f#s##	spk1	6.12	6.39	0.01	//
20091112_RATP_SCD_0377	3	5	ou	NULL	coo	NULL	B_NULL	COORD	4	idtext0003	ou	#####	spk1	6.4	6.42	0.01	_
20091112_RATP_SCD_0377	3	6	pas	NULL	advneg	NULL	B_NULL	DEP_COORD	5	idtext0003	pas	#####	spk1	6.43	6.83	?	_

20091112_RATP_SCD_0377	4	1	non	NULL	adv	NULL	B_GADV	NOLINK	0	idtext0004	non	#####	spk2	6.87	6.96	0.01	_
20091112_RATP_SCD_0377	4	2	il	NULL	cln	NULL	B_GN	SUJ	5	idtext0004	cln	#3#m#s##	spk2	6.97	7.06	0.01	_
20091112_RATP_SCD_0377	4	3	s'	NULL	clr	NULL	B_GNr	AFF	5	idtext0004	se	#3##p##	spk2	7.07	7.14	0.01	_
20091112_RATP_SCD_0377	4	4	en	NULL	clo	NULL	B_GN	DE_OBJ	5	idtext0004	en	#####	spk2	7.15	7.25	0.01	_
20091112_RATP_SCD_0377	4	5	va	NULL	v	NULL	B_GVf	ROOT	0	idtext0004	aller	P#3##s##	spk2	7.26	7.43	0.01	_
20091112_RATP_SCD_0377	4	6	là	NULL	adv	NULL	B_GADV	NOLINK	0	idtext0004	là	#####	spk2	7.44	7.62	0.01	_
20091112_RATP_SCD_0377	4	7	il	NULL	cln	NULL	B_GN	SUJ	16	idtext0004	cln	#3#m#s##	spk2	7.63	8.14	0.01	_
20091112_RATP_SCD_0377	4	8	s'	NULL	clr	NULL	B_GNr	AFF	16	idtext0004	se	#3##p##	spk2	8.15	8.18	0.01	_
20091112_RATP_SCD_0377	4	9	en	NULL	clo	NULL	B_GN	DE_OBJ	16	idtext0004	en	#####	spk2	8.19	8.25	0.01	_
20091112_RATP_SCD_0377	4	10	va	NULL	v	NULL	B_GVf	NOLINK	0	idtext0004	aller	P#3##s##	spk2	8.26	8.4	0.01	_
20091112_RATP_SCD_0377	4	11	en	NULL	prep	NULL	B_GP	P_OBJ	5	idtext0004	en	#####	spk2	8.41	8.43	0.01	_
20091112_RATP_SCD_0377	4	12	réunion	NULL	nc	NULL	I_GP	OBJ	11	idtext0004	réunion	##f#s##	spk2	8.44	8.73	0.01	_
20091112_RATP_SCD_0377	4	13	il	NULL	cln	NULL	B_GN	SUJ	16	idtext0004	cln	#3#m#s##	spk2	8.74	8.86	0.01	_
20091112_RATP_SCD_0377	4	14	m'	NULL	clo	NULL	B_GN	A_OBJ	16	idtext0004	cla	#1##s##	spk2	8.87	8.91	0.01	_
20091112_RATP_SCD_0377	4	15	a	NULL	v	NULL	B_GVf	AUX	16	idtext0004	avoir	P#3##s##	spk2	8.92	8.99	0.01	_
20091112_RATP_SCD_0377	4	16	dit	NULL	vppart	NULL	I_GVf	ROOT	0	idtext0004	dire	J#3##s##	spk2	9.0	9.48	0.01	_
20091112_RATP_SCD_0377	4	17	tant+pis	NULL	adv	NULL	B_GADV	MOD	18	idtext0004	tant+pis	#####	spk2	9.49	9.86	0.01	_
20091112_RATP_SCD_0377	4	18	trop	NULL	adv	NULL	I_GADV	MOD	19	idtext0004	trop	#####	spk2	9.87	10.05	0.01	_
20091112_RATP_SCD_0377	4	19	tard	NULL	adv	NULL	I_GADV	ROOT	0	idtext0004	tard	#####	spk2	10.06	10.75	0.04	_
20091112_RATP_SCD_0377	4	20	il	NULL	cln	NULL	B_GN	SUJ	21	idtext0005	cln	#3#m#s##	spk2	10.79	10.84	0.01	_
20091112_RATP_SCD_0377	4	21	partait	NULL	v	NULL	B_GVf	ROOT	0	idtext0005	partir	I#3##s##	spk2	10.85	11.08	0.01	_
20091112_RATP_SCD_0377	4	22	dans	NULL	prep	NULL	B_GP	P_OBJ	21	idtext0005	dans	#####	spk2	11.09	11.28	0.01	_
20091112_RATP_SCD_0377	4	23	cinq	NULL	det	NULL	I_GP	DET	24	idtext0005	cinq	#####	spk2	11.29	11.41	0.01	_
20091112_RATP_SCD_0377	4	24	minutes	NULL	nc	NULL	I_GP	OBJ	22	idtext0005	minute	##f#p##	spk2	11.42	13.38	?	//

20091112_RATP_SCD_0377	5	1	euh	DISF_M	pres	NULL	NULL	NOLINK	0	idtext0006	euh	#####	spk1	13.42	13.99	?	//

20091112_RATP_SCD_0377	6	1	t'	NULL	cln	NULL	B_GN	SUJ	2	idtext0007	cln	#2##s##	spk2	14.03	14.05	0.01	_
20091112_RATP_SCD_0377	6	2	es	NULL	v	NULL	B_GVf	ROOT	0	idtext0007	être	P#2##s##	spk2	14.06	14.08	0.01	_
20091112_RATP_SCD_0377	6	3	avec	NULL	prep	NULL	B_NULL	NOLINK	0	idtext0007	avec	#####	spk2	14.09	14.75	0.01	_
20091112_RATP_SCD_0377	6	4	NNAAMMEE	NULL	np	B_HU	B_GN	ROOT	0	idtext0008	ANONYM	NULL	spk2	14.76	14.96	?	//

20091112_RATP_SCD_0377	7	1	non	NULL	adv	NULL	B_GADV	NOLINK	0	idtext0009	non	#####	spk1	15.0	15.15	0.01	_
20091112_RATP_SCD_0377	7	2	parce+que	NULL	csu	NULL	B_NULL	ROOT	0	idtext0009	parce+que	#####	spk1	15.16	15.41	0.01	_
20091112_RATP_SCD_0377	7	3	je	NULL	cln	NULL	B_GN	SUJ	4	idtext0009	cln	#1##s##	spk1	15.42	15.51	0.01	_
20091112_RATP_SCD_0377	7	4	voulais	NULL	v	NULL	B_GVf	OBJ	2	idtext0009	vouloir	I#12##s##	spk1	15.52	15.7	0.01	_
20091112_RATP_SCD_0377	7	5	l'	NULL	clo	NULL	B_GN	OBJ	6	idtext0009	cla	#3##s##	spk1	15.71	15.77	0.01	_
20091112_RATP_SCD_0377	7	6	appeler	NULL	vinf	NULL	B_GVi	OBJ	4	idtext0009	appeler	W#####	spk1	15.78	16.11	0.01	_
20091112_RATP_SCD_0377	7	7	euh	DISF_M	pres	NULL	NULL	NOLINK	0	idtext0009	euh	#####	spk1	16.12	16.2	0.01	_
20091112_RATP_SCD_0377	7	8	NNAAMMEE	NULL	np	B_HU	B_GN	ROOT	0	idtext0010	ANONYM	NULL	spk1	16.21	16.89	0.01	_
20091112_RATP_SCD_0377	7	9	il	NULL	cln	NULL	B_GN	SUJ_IMP	11	idtext0011	cln	#3#m#s##	spk1	16.9	16.95	0.01	_
20091112_RATP_SCD_0377	7	10	y	NULL	clo	NULL	B_GN	AFF	11	idtext0011	y	#####	spk1	16.96	17.0	0.01	_
20091112_RATP_SCD_0377	7	11	a	NULL	v	NULL	B_GVf	OBJ	6	idtext0011	avoir	P#3##s##	spk1	17.01	17.03	0.01	_
20091112_RATP_SCD_0377	7	12	combien+de	NULL	det	NULL	B_GN	DET	13	idtext0011	combien+de	#####	spk1	17.04	17.37	0.01	_
20091112_RATP_SCD_0377	7	13	temps	NULL	nc	NULL	I_GN	OBJ	11	idtext0011	temps	##m###	spk1	17.38	17.53	0.01	_
20091112_RATP_SCD_0377	7	14	il	NULL	cln	NULL	B_GN	SUJ_IMP	16	idtext0011	cln	#3#m#s##	spk1	17.54	17.59	0.01	_
20091112_RATP_SCD_0377	7	15	y	NULL	clo	NULL	B_GN	AFF	16	idtext0011	y	#####	spk1	17.6	17.63	0.01	_
20091112_RATP_SCD_0377	7	16	a	NULL	v	NULL	B_GVf	MOD	13	idtext0011	avoir	P#3##s##	spk1	17.64	17.68	0.01	_
20091112_RATP_SCD_0377	7	17	dix	NULL	adj	NULL	I_GP	MOD	18	idtext0011	dix	#####	spk1	17.69	17.84	0.01	_
20091112_RATP_SCD_0377	7	18	minutes	NULL	nc	NULL	I_GP	OBJ	16	idtext0011	minute	##f#p##	spk1	17.85	18.03	?	//

20091112_RATP_SCD_0377	8	1	ah+bah	DISF_M	pres	NULL	NULL	NOLINK	0	idtext0012	ah+bah	#####	spk2	18.07	18.29	0.01	_
20091112_RATP_SCD_0377	8	2	là	NULL	adv	NULL	B_GADV	NOLINK	0	idtext0012	là	#####	spk2	18.3	18.39	0.01	_
20091112_RATP_SCD_0377	8	3	il	NULL	cln	NULL	B_GN	SUJ_IMP	5	idtext0012	cln	#3#m#s##	spk2	18.4	18.45	0.01	_
20091112_RATP_SCD_0377	8	4	y	NULL	clo	NULL	B_GN	AFF	5	idtext0012	y	#####	spk2	18.46	18.48	0.01	_
20091112_RATP_SCD_0377	8	5	a	NULL	v	NULL	B_GVf	ROOT	0	idtext0012	avoir	P#3##s##	spk2	18.49	18.52	0.01	_
20091112_RATP_SCD_0377	8	6	dix	NULL	adj	NULL	I_GP	MOD	7	idtext0012	dix	#####	spk2	18.53	18.7	0.01	_
20091112_RATP_SCD_0377	8	7	minutes	NULL	nc	NULL	I_GP	OBJ	5	idtext0012	minute	##f#p##	spk2	18.71	19.12	0.01	_
20091112_RATP_SCD_0377	8	8	comme	NULL	adv	NULL	B_GADV	MOD	7	idtext0013	comme	#####	spk2	19.13	19.6	0.01	_
20091112_RATP_SCD_0377	8	9	il	NULL	cln	NULL	B_GN	SUJ	12	idtext0013	cln	#3#m#s##	spk2	19.61	19.9	0.01	_
20091112_RATP_SCD_0377	8	10	m'	NULL	clo	NULL	B_GN	A_OBJ	12	idtext0013	cla	#1##s##	spk2	19.91	19.93	0.01	_
20091112_RATP_SCD_0377	8	11	a	NULL	v	NULL	B_GVf	AUX	12	idtext0013	avoir	P#3##s##	spk2	19.94	20.09	0.01	_
20091112_RATP_SCD_0377	8	12	dit	NULL	vppart	NULL	I_GVf	ROOT	0	idtext0013	dire	J#3##s##	spk2	20.1	20.23	0.01	_
20091112_RATP_SCD_0377	8	13	laisse	NULL	v	NULL	B_GVf	OBJ	8	idtext0013	laisser	PS#13##s##	spk2	20.24	20.7	0.01	_
20091112_RATP_SCD_0377	8	14	tomber	NULL	vinf	NULL	I_GVf	OBJ	13	idtext0013	tomber	W#####	spk2	20.71	21.55	0.01	_
20091112_RATP_SCD_0377	8	15	NNAAMMEE	NULL	np	B_HU	B_GN	ROOT	0	idtext0014	ANONYM	NULL	spk2	21.56	21.9	0.01	_
20091112_RATP_SCD_0377	8	16	je	NULL	cln	NULL	B_GN	SUJ	19	idtext0015	cln	#1##s##	spk2	21.91	21.93	0.01	_
20091112_RATP_SCD_0377	8	17	m'	NULL	clr	NULL	B_GNr	AFF	19	idtext0015	cla	#1##s##	spk2	21.94	21.96	0.01	_
20091112_RATP_SCD_0377	8	18	en	NULL	clo	NULL	B_GN	DE_OBJ	19	idtext0015	en	#####	spk2	21.97	22.71	0.01	_
20091112_RATP_SCD_0377	8	19	vais	NULL	v	NULL	B_GVf	ROOT	0	idtext0015	aller	P#1##s##	spk2	22.72	22.81	0.01	_
20091112_RATP_SCD_0377	8	20	là	NULL	adv	NULL	B_GADV	NOLINK	0	idtext0015	là	#####	spk2	22.82	22.87	0.01	_
20091112_RATP_SCD_0377	8	21	donc	NULL	coo	NULL	B_NULL	NOLINK	0	idtext0015	donc	#####	spk2	22.88	23.0	0.01	_
20091112_RATP_SCD_0377	8	22	euh	DISF_M	pres	NULL	NULL	NOLINK	0	idtext0015	euh	#####	spk2	23.01	23.16	?	//

20091112_RATP_SCD_0377	9	1	merde	DISF_M	pres	NULL	NULL	NOLINK	0	idtext0016	merde	#####	spk1	23.2	23.78	?	//

20091112_RATP_SCD_0377	10	1	bah	DISF_M	pres	NULL	NULL	NOLINK	0	idtext0017	bah	#####	spk2	23.82	23.87	0.01	_
20091112_RATP_SCD_0377	10	2	essaye	NULL	v	NULL	B_GVf	ROOT	0	idtext0017	essayer	PS#13##s##	spk2	23.88	24.31	0.01	//
20091112_RATP_SCD_0377	10	3	hein	DISF_M	pres	NULL	NULL	NOLINK	0	idtext0017	hein	#####	spk2	24.32	24.44	0.01	_
20091112_RATP_SCD_0377	10	4	mais	NULL	coo	NULL	B_NULL	COORD	2	idtext0017	mais	#####	spk2	24.45	24.7	0.01	_
20091112_RATP_SCD_0377	10	5	à	NULL	prep	NULL	B_GP	MOD	10	idtext0017	à	#####	spk2	24.71	24.83	0.01	_
20091112_RATP_SCD_0377	10	6	mon	NULL	det	NULL	I_GP	DET	7	idtext0017	mon	###s##o	spk2	24.84	25.0	0.01	_
20091112_RATP_SCD_0377	10	7	avis	NULL	nc	NULL	I_GP	OBJ	5	idtext0017	avis	##m###	spk2	25.01	25.15	0.01	_
20091112_RATP_SCD_0377	10	8	il	NULL	cln	NULL	B_GN	SUJ	10	idtext0017	cln	#3#m#s##	spk2	25.16	25.22	0.01	_
20091112_RATP_SCD_0377	10	9	est	NULL	v	NULL	B_GVf	AUX	10	idtext0017	être	P#3##s##	spk2	25.23	25.31	0.01	_
20091112_RATP_SCD_0377	10	10	parti	NULL	vppart	NULL	I_GVf	DEP_COORD	4	idtext0017	partir	K##m#s##	spk2	25.32	25.7	0.01	_
20091112_RATP_SCD_0377	10	11	hein	DISF_M	pres	NULL	NULL	NOLINK	0	idtext0017	hein	#####	spk2	25.71	26.86	?	//

20091112_RATP_SCD_0377	11	1	NNAAMMEE	NULL	np	B_HU	B_GN	ROOT	0	idtext0018	ANONYM	NULL	spk1	27.44	27.72	0.01	//
20091112_RATP_SCD_0377	11	2	euh	DISF_M	pres	NULL	NULL	NOLINK	0	idtext0019	euh	#####	spk1	27.73	27.84	0.01	_
20091112_RATP_SCD_0377	11	3	non	NULL	adv	NULL	B_GADV	NOLINK	0	idtext0019	non	#####	spk1	27.85	28.04	0.01	_
20091112_RATP_SCD_0377	11	4	c'	NULL	cln	NULL	B_GN	SUJ_IMP	5	idtext0019	ce	###s##	spk1	28.05	28.12	0.01	_
20091112_RATP_SCD_0377	11	5	est	NULL	v	NULL	B_GVf	ROOT	0	idtext0019	être	P#3##s##	spk1	28.13	28.5	0.01	_
20091112_RATP_SCD_0377	11	6	je	NULL	cln	NULL	B_GN	SUJ	8	idtext0019	cln	#1##s##	spk1	28.51	28.64	0.01	_
20091112_RATP_SCD_0377	11	7	ne	NULL	clneg	NULL	B_GVfn	MOD	8	idtext0019	ne	#####	spk1	28.65	28.67	0.01	_
20091112_RATP_SCD_0377	11	8	sais	NULL	v	NULL	I_GVfn	ROOT	0	idtext0019	savoir	P#12##s##	spk1	28.68	28.75	0.01	_
20091112_RATP_SCD_0377	11	9	plus	NULL	advneg	NULL	I_GVfn	MOD	8	idtext0019	plus	#####	spk1	28.76	28.85	0.01	_
20091112_RATP_SCD_0377	11	10	comment	NULL	adv	NULL	B_GADV	MOD	8	idtext0019	comment	#####	spk1	28.86	29.06	?	_

20091112_RATP_SCD_0377	12	1	euh	DISF_M	pres	NULL	NULL	NOLINK	0	idtext0020	euh	#####	spk2	29.1	29.12	0.01	_
20091112_RATP_SCD_0377	12	2	alors	NULL	adv	NULL	B_GADV	MOD	3	idtext0021	alors	#####	spk2	29.13	29.71	0.01	_
20091112_RATP_SCD_0377	12	3	là	NULL	adv	NULL	I_GADV	ROOT	0	idtext0021	là	#####	spk2	29.72	30.16	0.01	_
20091112_RATP_SCD_0377	12	4	mon	NULL	det	NULL	B_GN	DET	5	idtext0021	mon	###s##o	spk2	30.17	30.73	0.01	_
20091112_RATP_SCD_0377	12	5	pauvre	NULL	adj	NULL	I_GN	SUJ	8	idtext0021	pauvre	###s##	spk2	30.74	31.19	0.01	_
20091112_RATP_SCD_0377	12	6	moi	NULL	pro	NULL	I_GN	SUJ	8	idtext0021	moi	#####	spk2	31.2	31.32	0.01	_
20091112_RATP_SCD_0377	12	7	j'	NULL	cln	NULL	B_GN	SUJ	8	idtext0021	cln	#1##s##	spk2	31.33	31.46	0.01	_
20091112_RATP_SCD_0377	12	8	ai	NULL	v	NULL	B_GVf	ROOT	0	idtext0021	avoir	P#1##s##	spk2	31.47	31.52	0.01	_
20091112_RATP_SCD_0377	12	9	son	NULL	det	NULL	B_NULL	OBJ	8	idtext0021	son	###s##o	spk2	31.53	32.24	0.01	_
20091112_RATP_SCD_0377	12	10	euh	DISF_M	pres	NULL	NULL	NOLINK	0	idtext0021	euh	#####	spk2	32.25	32.29	0.01	_
20091112_RATP_SCD_0377	12	11	mais	NULL	coo	NULL	B_NULL	COORD	8	idtext0021	mais	#####	spk2	32.3	32.42	0.01	_
20091112_RATP_SCD_0377	12	12	il	NULL	cln	NULL	B_GN	SUJ_IMP	14	idtext0021	cln	#3#m#s##	spk2	32.43	32.48	0.01	_
20091112_RATP_SCD_0377	12	13	me	NULL	clo	NULL	B_GN	A_OBJ	14	idtext0021	cla	#1##s##	spk2	32.49	33.44	0.01	_
20091112_RATP_SCD_0377	12	14	semble	NULL	v	NULL	B_GVf	DEP_COORD	11	idtext0021	sembler	PS#13##s##	spk2	33.45	33.81	0.01	_
20091112_RATP_SCD_0377	12	15	qu'	NULL	csu	NULL	B_NULL	OBJ	14	idtext0021	qu'	#####	spk2	33.82	33.98	0.01	_
20091112_RATP_SCD_0377	12	16	il	NULL	cln	NULL	B_GN	SUJ	18	idtext0021	cln	#3#m#s##	spk2	33.99	34.05	0.01	_
20091112_RATP_SCD_0377	12	17	a	NULL	v	NULL	B_GVf	AUX	18	idtext0021	avoir	P#3##s##	spk2	34.06	34.17	0.01	_
20091112_RATP_SCD_0377	12	18	gardé	NULL	vppart	NULL	I_GVf	OBJ	15	idtext0021	garder	K##m#s##	spk2	34.18	34.45	0.01	_
20091112_RATP_SCD_0377	12	19	le	NULL	det	NULL	B_GN	DET	21	idtext0021	le	##m#s##d	spk2	34.46	34.49	0.01	_
20091112_RATP_SCD_0377	12	20	même	NULL	adj	NULL	I_GN	MOD	21	idtext0021	même	###s##	spk2	34.5	34.73	0.01	_
20091112_RATP_SCD_0377	12	21	numéro	NULL	nc	NULL	I_GN	OBJ	18	idtext0021	numéro	##m#s##	spk2	34.74	35.1	0.01	_
20091112_RATP_SCD_0377	12	22	qu'	NULL	prorel	NULL	B_NULL	OBJ	24	idtext0021	qu'	#####	spk2	35.11	35.18	0.01	_
20091112_RATP_SCD_0377	12	23	il	NULL	cln	NULL	B_GN	SUJ	24	idtext0021	cln	#3#m#s##	spk2	35.19	35.26	0.01	_
20091112_RATP_SCD_0377	12	24	avait	NULL	v	NULL	B_GVf	MOD_REL	21	idtext0021	avoir	I#3##s##	spk2	35.27	35.46	0.01	_
20091112_RATP_SCD_0377	12	25	ici	NULL	adv	NULL	B_GADV	MOD	24	idtext0021	ici	#####	spk2	35.47	35.85	0.01	_
20091112_RATP_SCD_0377	12	26	hein	DISF_M	pres	NULL	NULL	NOLINK	0	idtext0021	hein	#####	spk2	35.86	36.17	0.01	_
20091112_RATP_SCD_0377	12	27	NNAAMMEE	NULL	np	B_HU	B_GN	ROOT	0	idtext0022	ANONYM	NULL	spk2	36.18	36.82	0.01	_
20091112_RATP_SCD_0377	12	28	tu	NULL	cln	NULL	B_GN	SUJ	30	idtext0023	cln	#2##s##	spk2	36.83	36.93	0.01	_
20091112_RATP_SCD_0377	12	29	l'	NULL	clo	NULL	B_GN	OBJ	30	idtext0023	cla	#3##s##	spk2	36.94	37.03	0.01	_
20091112_RATP_SCD_0377	12	30	as	NULL	v	NULL	B_GVf	ROOT	0	idtext0023	avoir	P#2##s##	spk2	37.04	37.57	?	//

20091112_RATP_SCD_0377	13	1	oui	NULL	adv	NULL	B_GADV	NOLINK	0	idtext0024	oui	#####	spk1	37.61	37.73	0.01	_
20091112_RATP_SCD_0377	13	2	il	NULL	cln	NULL	B_GN	SUJ_IMP	4	idtext0024	cln	#3#m#s##	spk1	37.74	37.79	0.01	_
20091112_RATP_SCD_0377	13	3	me	NULL	clo	NULL	B_GN	A_OBJ	4	idtext0024	cla	#1##s##	spk1	37.8	37.87	0.01	_
20091112_RATP_SCD_0377	13	4	semble	NULL	v	NULL	B_GVf	ROOT	0	idtext0024	sembler	PS#13##s##	spk1	37.88	38.03	0.01	_
20091112_RATP_SCD_0377	13	5	que	NULL	csu	NULL	B_NULL	OBJ	4	idtext0024	que	#####	spk1	38.04	38.15	0.01	_
20091112_RATP_SCD_0377	13	6	c'	NULL	cln	NULL	B_GN	SUJ_IMP	7	idtext0024	ce	###s##	spk1	38.16	38.18	0.01	_
20091112_RATP_SCD_0377	13	7	est	NULL	v	NULL	B_GVf	OBJ	5	idtext0024	être	P#3##s##	spk1	38.19	38.22	0.01	_
20091112_RATP_SCD_0377	13	8	ça	NULL	pro	NULL	B_GN	ATS	7	idtext0024	ça	#####	spk1	38.23	38.3	?	_

20091112_RATP_SCD_0377	14	1	sinon	NULL	coo	NULL	B_NULL	ROOT	0	idtext0025	sinon	#####	spk2	38.34	38.45	0.01	_
20091112_RATP_SCD_0377	14	2	je	NULL	cln	NULL	B_GN	SUJ	3	idtext0025	cln	#1##s##	spk2	38.46	38.53	0.01	_
20091112_RATP_SCD_0377	14	3	regarde	NULL	v	NULL	B_GVf	DEP_COORD	1	idtext0025	regarder	PS#13##s##	spk2	38.54	38.81	0.01	_
20091112_RATP_SCD_0377	14	4	sur	NULL	prep	NULL	B_GP	P_OBJ	3	idtext0025	sur	#####	spk2	38.82	38.95	0.01	_
20091112_RATP_SCD_0377	14	5	Argos	NULL	nc	B_A	I_GP	OBJ	4	idtext0025	Argos	#####	spk2	38.96	39.32	0.01	_
20091112_RATP_SCD_0377	14	6	c'	NULL	cln	NULL	B_GN	SUJ_IMP	7	idtext0025	ce	###s##	spk2	39.33	39.4	0.01	_
20091112_RATP_SCD_0377	14	7	est	NULL	v	NULL	B_GVf	ROOT	0	idtext0025	être	P#3##s##	spk2	39.41	39.45	0.01	_
20091112_RATP_SCD_0377	14	8	comme	NULL	adv	NULL	B_GADV	ATS	7	idtext0025	comme	#####	spk2	39.46	39.6	0.01	_
20091112_RATP_SCD_0377	14	9	tu	NULL	cln	NULL	B_GN	SUJ	10	idtext0025	cln	#2##s##	spk2	39.61	39.79	0.01	_
20091112_RATP_SCD_0377	14	10	veux	NULL	v	NULL	B_GVf	OBJ	8	idtext0025	vouloir	P#12##s##	spk2	39.8	40.57	?	//

20091112_RATP_SCD_0377	15	1	ouais	NULL	adv	NULL	B_GADV	NOLINK	0	idtext0026	ouais	#####	spk1	40.61	40.74	0.01	_
20091112_RATP_SCD_0377	15	2	bon	DISF_M	pres	NULL	NULL	NOLINK	0	idtext0026	bon	#####	spk1	40.75	40.9	0.01	_
20091112_RATP_SCD_0377	15	3	écoute	DISF_M	pres	NULL	NULL	NOLINK	0	idtext0026	écoute	#####	spk1	40.91	41.13	0.01	_
20091112_RATP_SCD_0377	15	4	je	NULL	cln	NULL	B_GN	SUJ	5	idtext0026	cln	#1##s##	spk1	41.14	41.16	0.01	_
20091112_RATP_SCD_0377	15	5	vais	NULL	v	NULL	B_GVf	ROOT	0	idtext0026	aller	P#1##s##	spk1	41.17	41.22	0.01	_
20091112_RATP_SCD_0377	15	6	essayer	NULL	vinf	NULL	I_GVf	OBJ	5	idtext0026	essayer	W#####	spk1	41.23	41.37	0.01	_
20091112_RATP_SCD_0377	15	7	de	NULL	prep	NULL	B_GP	OBJ	5	idtext0026	de	#####	spk1	41.38	41.4	0.01	_
20091112_RATP_SCD_0377	15	8	l'	NULL	clo	NULL	I_GP	OBJ	9	idtext0026	cla	#3##s##	spk1	41.41	41.43	0.01	_
20091112_RATP_SCD_0377	15	9	appeler	NULL	vinf	NULL	B_GVi	OBJ	7	idtext0026	appeler	W#####	spk1	41.44	41.6	?	//

20091112_RATP_SCD_0377	16	1	tu	NULL	cln	NULL	B_GN	SUJ	2	idtext0027	cln	#2##s##	spk2	41.64	41.69	0.01	_
20091112_RATP_SCD_0377	16	2	veux	NULL	v	NULL	B_GVf	ROOT	0	idtext0027	vouloir	P#12##s##	spk2	41.7	41.75	0.01	_
20091112_RATP_SCD_0377	16	3	que	NULL	csu	NULL	B_NULL	OBJ	2	idtext0027	que	#####	spk2	41.76	41.78	0.01	_
20091112_RATP_SCD_0377	16	4	je	NULL	cln	NULL	B_GN	SUJ	5	idtext0027	cln	#1##s##	spk2	41.79	41.81	0.01	_
20091112_RATP_SCD_0377	16	5	vérifie	NULL	v	NULL	B_GVf	OBJ	3	idtext0027	vérifier	PS#13##s##	spk2	41.82	43.03	?	//

20091112_RATP_SCD_0377	17	1	euh	DISF_M	pres	NULL	NULL	NOLINK	0	idtext0028	euh	#####	spk1	43.11	43.19	?	//

20091112_RATP_SCD_0377	18	1	bah	DISF_M	pres	NULL	NULL	NOLINK	0	idtext0029	bah	#####	spk2	43.23	43.28	0.01	_
20091112_RATP_SCD_0377	18	2	essaye	NULL	v	NULL	B_GVf	ROOT	0	idtext0029	essayer	PS#13##s##	spk2	43.29	43.7	0.01	_
20091112_RATP_SCD_0377	18	3	parce+que	NULL	csu	NULL	B_NULL	MOD	2	idtext0029	parce+que	#####	spk2	43.71	45.31	0.01	_
20091112_RATP_SCD_0377	18	4	enfin	NULL	adv	NULL	B_GADV	NOLINK	0	idtext0030	enfin	#####	spk2	45.32	45.53	0.01	_
20091112_RATP_SCD_0377	18	5	il	NULL	cln	NULL	B_GN	SUJ	8	idtext0030	cln	#3#m#s##	spk2	45.54	45.6	0.01	_
20091112_RATP_SCD_0377	18	6	m'	NULL	clo	NULL	B_GN	A_OBJ	8	idtext0030	cla	#1##s##	spk2	45.61	45.65	0.01	_
20091112_RATP_SCD_0377	18	7	a	NULL	v	NULL	B_GVf	AUX	8	idtext0030	avoir	P#3##s##	spk2	45.66	45.74	0.01	_
20091112_RATP_SCD_0377	18	8	dit	NULL	vppart	NULL	I_GVf	OBJ	3	idtext0030	dire	J#3##s##	spk2	45.75	45.84	0.01	_
20091112_RATP_SCD_0377	18	9	qu'	NULL	csu	NULL	B_NULL	OBJ	8	idtext0030	qu'	#####	spk2	45.85	45.91	0.01	_
20091112_RATP_SCD_0377	18	10	il	NULL	cln	NULL	B_GN	SUJ	11	idtext0030	cln	#3#m#s##	spk2	45.92	45.99	0.01	_
20091112_RATP_SCD_0377	18	11	partait	NULL	v	NULL	B_GVf	OBJ	9	idtext0030	partir	I#3##s##	spk2	46.0	46.63	?	//

20091112_RATP_SCD_0377	19	1	d'accord	NULL	adv	NULL	B_GADV	NOLINK	0	idtext0031	d'accord	#####	spk1	47.09	48.93	?	//

20091112_RATP_SCD_0377	20	1	parce+qu'	NULL	csu	NULL	B_NULL	ROOT	0	idtext0032	parce+qu'	#####	spk2	46.74	46.92	0.01	_
20091112_RATP_SCD_0377	20	2	il	NULL	cln	NULL	B_GN	SUJ	5	idtext0032	cln	#3#m#s##	spk2	46.93	46.98	0.01	_
20091112_RATP_SCD_0377	20	3	m'	NULL	clo	NULL	B_GN	A_OBJ	5	idtext0032	cla	#1##s##	spk2	46.99	47.04	0.01	_
20091112_RATP_SCD_0377	20	4	a	NULL	v	NULL	B_GVf	AUX	5	idtext0032	avoir	P#3##s##	spk2	47.05	47.09	0.01	_
20091112_RATP_SCD_0377	20	5	dit	NULL	vppart	NULL	I_GVf	OBJ	1	idtext0032	dire	J#3##s##	spk2	47.1	47.2	0.01	_
20091112_RATP_SCD_0377	20	6	ne	NULL	clneg	NULL	B_GVfn	MOD	7	idtext0032	ne	#####	spk2	47.21	47.23	0.01	_
20091112_RATP_SCD_0377	20	7	vas	NULL	v	NULL	I_GVfn	ROOT	0	idtext0032	aller	P#2##s##	spk2	47.24	47.37	0.01	_
20091112_RATP_SCD_0377	20	8	pas	NULL	advneg	NULL	I_GVfn	MOD	7	idtext0032	pas	#####	spk2	47.38	47.5	0.01	_
20091112_RATP_SCD_0377	20	9	déranger	NULL	vinf	NULL	B_GVi	OBJ	7	idtext0032	déranger	W#####	spk2	47.51	47.77	0.01	_
20091112_RATP_SCD_0377	20	10	NNAAMMEE	NULL	np	B_HU	B_GN	ROOT	0	idtext0033	ANONYM	NULL	spk2	47.78	48.42	0.01	_
20091112_RATP_SCD_0377	20	11	je	NULL	cln	NULL	B_GN	SUJ	14	idtext0034	cln	#1##s##	spk2	48.43	48.45	0.01	_
20091112_RATP_SCD_0377	20	12	m'	NULL	clr	NULL	B_GNr	AFF	14	idtext0034	cla	#1##s##	spk2	48.46	48.48	0.01	_
20091112_RATP_SCD_0377	20	13	en	NULL	clo	NULL	B_GN	DE_OBJ	14	idtext0034	en	#####	spk2	48.49	48.58	0.01	_
20091112_RATP_SCD_0377	20	14	vais	NULL	v	NULL	B_GVf	ROOT	0	idtext0034	aller	P#1##s##	spk2	48.59	48.67	0.01	_
20091112_RATP_SCD_0377	20	15	de+toute+façon	NULL	adv	NULL	B_GADV	MOD	14	idtext0034	de+toute+façon	#####	spk2	48.68	48.93	?	_

20091112_RATP_SCD_0377	21	1	d'accord	NULL	adv	NULL	B_GADV	MOD	2	idtext0035	d'accord	#####	spk1	48.98	49.27	0.01	_
20091112_RATP_SCD_0377	21	2	OK	NULL	adv	NULL	I_GADV	ROOT	0	idtext0035	ok	#####	spk1	49.28	49.63	0.01	_
20091112_RATP_SCD_0377	21	3	ça	NULL	pro	NULL	B_GN	SUJ_IMP	4	idtext0035	ça	#####	spk1	49.64	49.69	0.01	_
20091112_RATP_SCD_0377	21	4	marche	NULL	v	NULL	B_GVf	ROOT	0	idtext0035	marcher	PS#13##s##	spk1	49.7	50.17	?	_

20091112_RATP_SCD_0377	22	1	essaye	NULL	v	NULL	B_GVf	ROOT	0	idtext0036	essayer	PS#13##s##	spk2	48.97	49.12	0.01	_
20091112_RATP_SCD_0377	22	2	quand+même	NULL	adv	NULL	B_GADV	MOD	1	idtext0036	quand+même	#####	spk2	49.13	50.17	?	_

20091112_RATP_SCD_0377	23	1	bah	DISF_M	pres	NULL	NULL	NOLINK	0	idtext0037	bah	#####	spk1	50.18	50.18	0.00	_
20091112_RATP_SCD_0377	23	2	je	NULL	cln	NULL	B_GN	SUJ	3	idtext0037	cln	#1##s##	spk1	50.18	50.18	0.00	_
20091112_RATP_SCD_0377	23	3	vais	NULL	v	NULL	B_GVf	ROOT	0	idtext0037	aller	P#1##s##	spk1	50.18	50.18	0.00	_
20091112_RATP_SCD_0377	23	4	essayer	NULL	vinf	NULL	I_GVf	OBJ	3	idtext0037	essayer	W#####	spk1	50.18	50.48	?	//

20091112_RATP_SCD_0377	24	1	à+plus	NULL	adv	NULL	B_GADV	NOLINK	0	idtext0038	à+plus	#####	spk2	50.53	50.88	?	//

20091112_RATP_SCD_0377	25	1	je	NULL	cln	NULL	B_GN	SUJ	3	idtext0039	cln	#1##s##	spk1	50.89	50.89	0.00	_
20091112_RATP_SCD_0377	25	2	te	NULL	clo	NULL	B_GN	OBJ	3	idtext0039	cla	#2##s##	spk1	50.89	50.89	0.00	_
20091112_RATP_SCD_0377	25	3	remercie	NULL	v	NULL	B_GVf	ROOT	0	idtext0039	remercier	PS#13##s##	spk1	50.89	51.12	?	//

20091112_RATP_SCD_0377	26	1	ouais	NULL	adv	NULL	B_GADV	MOD	2	idtext0040	ouais	#####	spk2	51.16	51.3	0.01	//
20091112_RATP_SCD_0377	26	2	ciao	NULL	adv	NULL	I_GADV	ROOT	0	idtext0040	ciao	#####	spk2	51.31	52.26	?	_

