20091112_RATP_SCD_0686	1	1	NNAAMMEE	NULL	np	B_HU	B_GN	ROOT	0	idtext0000	ANONYM	NULL	spk1	3.08	3.54	0.10	_
20091112_RATP_SCD_0686	1	2	va	NULL	v	NULL	B_GVf	ROOT	0	idtext0001	aller	P#3##s##	spk1	3.64	3.92	0.01	_
20091112_RATP_SCD_0686	1	3	vous	NULL	clo	NULL	B_GN	A_OBJ	4	idtext0001	cln	#2##p##	spk1	3.93	3.99	0.01	_
20091112_RATP_SCD_0686	1	4	répondre	NULL	vinf	NULL	B_GVi	OBJ	2	idtext0001	répondre	W#####	spk1	4.0	4.51	?	//

20091112_RATP_SCD_0686	2	1	NNAAMMEE	NULL	np	B_HU	B_GN	ROOT	0	idtext0002	ANONYM	NULL	spk2	4.55	5.02	0.04	_
20091112_RATP_SCD_0686	2	2	bonjour	NULL	adv	NULL	B_GADV	NOLINK	0	idtext0003	bonjour	#####	spk2	5.06	5.28	?	//

20091112_RATP_SCD_0686	3	1	s'il+vous+plaît	NULL	adv	NULL	B_GADV	NOLINK	0	idtext0004	s'il+vous+plaît	#####	spk2	6.76	7.24	?	//

20091112_RATP_SCD_0686	4	1	bonjour	NULL	adv	NULL	B_GADV	NOLINK	0	idtext0005	bonjour	#####	spk3	7.84	8.34	?	//

20091112_RATP_SCD_0686	5	1	s'il+vous+plaît	NULL	adv	NULL	B_GADV	NOLINK	0	idtext0006	s'il+vous+plaît	#####	spk2	8.81	9.34	?	//

20091112_RATP_SCD_0686	6	1	NNAAMMEE	NULL	np	B_HU	B_GN	ROOT	0	idtext0007	ANONYM	NULL	spk2	10.9	11.37	0.04	_
20091112_RATP_SCD_0686	6	2	bonjour	NULL	adv	NULL	B_GADV	NOLINK	0	idtext0008	bonjour	#####	spk2	11.41	11.91	?	//

20091112_RATP_SCD_0686	7	1	oui	NULL	adv	NULL	B_GADV	MOD	2	idtext0009	oui	#####	spk3	12.09	12.14	0.01	_
20091112_RATP_SCD_0686	7	2	bonjour	NULL	adv	NULL	I_GADV	ROOT	0	idtext0009	bonjour	#####	spk3	12.15	12.45	0.01	_
20091112_RATP_SCD_0686	7	3	monsieur	NULL	nc	NULL	B_GN	NOLINK	0	idtext0009	Monsieur	##m#s##	spk3	12.46	12.78	?	//

20091112_RATP_SCD_0686	8	1	s'il+vous+plaît	NULL	adv	NULL	B_GADV	NOLINK	0	idtext0010	s'il+vous+plaît	#####	spk2	13.45	14.3	?	//

20091112_RATP_SCD_0686	9	1	oui	NULL	adv	NULL	B_GADV	MOD	2	idtext0011	oui	#####	spk3	14.39	14.44	0.01	_
20091112_RATP_SCD_0686	9	2	allo	NULL	adv	NULL	I_GADV	ROOT	0	idtext0011	allo	#####	spk3	14.45	15.05	?	_

20091112_RATP_SCD_0686	10	1	oui	NULL	adv	NULL	B_GADV	NOLINK	0	idtext0012	oui	#####	spk2	15.18	15.69	0.01	_
20091112_RATP_SCD_0686	10	2	j'	NULL	cln	NULL	B_GN	SUJ	3	idtext0012	cln	#1##s##	spk2	15.7	15.81	0.01	_
20091112_RATP_SCD_0686	10	3	ai	NULL	v	NULL	B_GVf	ROOT	0	idtext0012	avoir	P#1##s##	spk2	15.82	15.84	0.01	_
20091112_RATP_SCD_0686	10	4	du	NULL	prep	NULL	B_GP	P_OBJ_LOC	3	idtext0012	du	#####	spk2	15.85	15.95	0.01	_
20091112_RATP_SCD_0686	10	5	mal	NULL	nc	NULL	I_GP	OBJ	4	idtext0012	mal	##m#s##	spk2	15.96	16.1	0.01	_
20091112_RATP_SCD_0686	10	6	à	NULL	prep	NULL	B_GP	MOD	5	idtext0012	à	#####	spk2	16.11	16.14	0.01	_
20091112_RATP_SCD_0686	10	7	vous	NULL	clo	NULL	I_GP	OBJ	8	idtext0012	cln	#2##p##	spk2	16.15	16.31	0.01	_
20091112_RATP_SCD_0686	10	8	entendre	NULL	vinf	NULL	B_GVi	OBJ	6	idtext0012	entendre	W#####	spk2	16.32	16.69	0.01	_
20091112_RATP_SCD_0686	10	9	hein	DISF_M	pres	NULL	NULL	NOLINK	0	idtext0012	hein	#####	spk2	16.7	16.89	?	//

20091112_RATP_SCD_0686	11	1	oui	NULL	adv	NULL	B_GADV	NOLINK	0	idtext0013	oui	#####	spk2	18.83	19.41	0.01	_
20091112_RATP_SCD_0686	11	2	vous	NULL	cln	NULL	B_GN	SUJ	4	idtext0013	cln	#2##p##	spk2	19.42	19.47	0.01	_
20091112_RATP_SCD_0686	11	3	m'	NULL	clo	NULL	B_GN	OBJ	4	idtext0013	cla	#1##s##	spk2	19.48	19.52	0.01	_
20091112_RATP_SCD_0686	11	4	entendez	NULL	v	NULL	B_GVf	ROOT	0	idtext0013	entendre	P#2##p##	spk2	19.53	20.06	?	//

20091112_RATP_SCD_0686	12	1	moi	DISF_R	pro	NULL	NULL	NOLINK	0	idtext0014	moi	#####	spk3	20.11	20.23	0.01	_
20091112_RATP_SCD_0686	12	2	moi	NULL	pro	NULL	B_GN	SUJ	5	idtext0014	moi	#####	spk3	20.24	20.42	0.01	_
20091112_RATP_SCD_0686	12	3	je	NULL	cln	NULL	B_GN	SUJ	5	idtext0014	cln	#1##s##	spk3	20.43	20.45	0.01	_
20091112_RATP_SCD_0686	12	4	vous	NULL	clo	NULL	B_GN	OBJ	5	idtext0014	cln	#2##p##	spk3	20.46	20.65	0.01	_
20091112_RATP_SCD_0686	12	5	entends	NULL	v	NULL	B_GVf	ROOT	0	idtext0014	entendre	P#12##s##	spk3	20.66	20.86	0.01	_
20091112_RATP_SCD_0686	12	6	parfaitement	NULL	adv	NULL	B_GADV	MOD	5	idtext0014	parfaitement	#####	spk3	20.87	21.51	?	_

20091112_RATP_SCD_0686	13	1	euh	DISF_M	pres	NULL	NULL	NOLINK	0	idtext0015	euh	#####	spk2	21.69	21.79	0.01	_
20091112_RATP_SCD_0686	13	2	d'accord	NULL	adv	NULL	B_GADV	MOD	3	idtext0015	d'accord	#####	spk2	21.8	22.42	0.01	_
20091112_RATP_SCD_0686	13	3	oui	NULL	adv	NULL	I_GADV	ROOT	0	idtext0015	oui	#####	spk2	22.43	22.64	?	_

20091112_RATP_SCD_0686	14	1	oui	NULL	adv	NULL	B_GADV	NOLINK	0	idtext0016	oui	#####	spk3	22.81	22.93	0.01	_
20091112_RATP_SCD_0686	14	2	c'	NULL	cln	NULL	B_GN	SUJ_IMP	3	idtext0016	ce	###s##	spk3	22.94	23.24	0.01	_
20091112_RATP_SCD_0686	14	3	était	NULL	v	NULL	B_GVf	ROOT	0	idtext0016	être	I#3##s##	spk3	23.25	23.57	0.01	_
20091112_RATP_SCD_0686	14	4	pour	DISF_R	prep	NULL	NULL	NOLINK	0	idtext0016	pour	#####	spk3	23.58	23.75	0.01	_
20091112_RATP_SCD_0686	14	5	euh	DISF_M	pres	NULL	NULL	NOLINK	0	idtext0016	euh	#####	spk3	23.76	24.46	0.01	_
20091112_RATP_SCD_0686	14	6	pour	NULL	prep	NULL	B_NULL	ATS	3	idtext0016	pour	#####	spk3	24.47	24.71	0.01	_
20091112_RATP_SCD_0686	14	7	pour	NULL	prep	NULL	B_GP	MOD	3	idtext0016	pour	#####	spk3	24.72	24.8	0.01	_
20091112_RATP_SCD_0686	14	8	savoir	NULL	vinf	NULL	I_GP	OBJ	7	idtext0016	savoir	W#####	spk3	24.81	25.06	0.01	_
20091112_RATP_SCD_0686	14	9	ce+que	NULL	pri	NULL	B_NULL	OBJ	10	idtext0016	ce+que	#####	spk3	25.07	25.12	0.01	_
20091112_RATP_SCD_0686	14	10	au+moment+où	NULL	csu	NULL	B_NULL	OBJ	8	idtext0016	au+moment+où	#####	spk3	25.13	25.45	0.01	_
20091112_RATP_SCD_0686	14	11	il	NULL	cln	NULL	B_GN	SUJ_IMP	13	idtext0016	cln	#3#m#s##	spk3	25.46	25.61	0.01	_
20091112_RATP_SCD_0686	14	12	y	NULL	clo	NULL	B_GN	AFF	13	idtext0016	y	#####	spk3	25.62	25.66	0.01	_
20091112_RATP_SCD_0686	14	13	a	NULL	v	NULL	B_GVf	OBJ	10	idtext0016	avoir	P#3##s##	spk3	25.67	25.77	0.01	_
20091112_RATP_SCD_0686	14	14	les	DISF_R	det	NULL	NULL	NOLINK	0	idtext0016	le	###p##d	spk3	25.78	25.88	0.01	_
20091112_RATP_SCD_0686	14	15	les	DISF_R	det	NULL	NULL	NOLINK	0	idtext0016	le	###p##d	spk3	25.89	25.94	0.01	_
20091112_RATP_SCD_0686	14	16	les	DISF_R	det	NULL	NULL	NOLINK	0	idtext0016	le	###p##d	spk3	25.95	26.03	0.01	_
20091112_RATP_SCD_0686	14	17	les	DISF_R	det	NULL	NULL	NOLINK	0	idtext0016	le	###p##d	spk3	26.04	26.1	0.01	_
20091112_RATP_SCD_0686	14	18	les	DISF_R	det	NULL	NULL	NOLINK	0	idtext0016	le	###p##d	spk3	26.11	26.2	0.01	_
20091112_RATP_SCD_0686	14	19	les	NULL	det	NULL	I_GP	DET	20	idtext0016	le	###p##d	spk3	26.21	26.52	0.01	_
20091112_RATP_SCD_0686	14	20	choses	NULL	nc	NULL	I_GP	OBJ	13	idtext0016	chose	##f#p##	spk3	26.53	26.78	0.01	_
20091112_RATP_SCD_0686	14	21	perdues	NULL	adj	NULL	I_GP	MOD	20	idtext0016	perdre	K##f#p##	spk3	26.79	27.8	0.01	_
20091112_RATP_SCD_0686	14	22	dans	NULL	prep	NULL	B_GP	MOD	13	idtext0016	dans	#####	spk3	27.81	28.54	0.01	_
20091112_RATP_SCD_0686	14	23	les	DISF_R	det	NULL	NULL	NOLINK	0	idtext0016	le	###p##d	spk3	28.55	28.84	0.01	_
20091112_RATP_SCD_0686	14	24	les	NULL	det	NULL	I_GP	DET	25	idtext0016	le	###p##d	spk3	28.85	29.06	0.01	_
20091112_RATP_SCD_0686	14	25	PC	NULL	nc	NULL	I_GP	OBJ	22	idtext0016	PC	#####	spk3	29.07	29.18	0.01	_
20091112_RATP_SCD_0686	14	26	parce+que	NULL	csu	NULL	B_NULL	MOD	8	idtext0016	parce+que	#####	spk3	29.19	29.92	0.01	_
20091112_RATP_SCD_0686	14	27	j'	DISF_R	cln	NULL	NULL	NOLINK	0	idtext0016	cln	#1##s##	spk3	29.93	29.95	0.01	_
20091112_RATP_SCD_0686	14	28	ai	DISF_R	v	NULL	NULL	NOLINK	0	idtext0016	avoir	P#1##s##	spk3	29.96	30.9	0.01	_
20091112_RATP_SCD_0686	14	29	j'	DISF_R	cln	NULL	NULL	NOLINK	0	idtext0016	cln	#1##s##	spk3	30.91	30.98	0.01	_
20091112_RATP_SCD_0686	14	30	ai	DISF_R	v	NULL	NULL	NOLINK	0	idtext0016	avoir	P#1##s##	spk3	30.99	31.29	0.01	_
20091112_RATP_SCD_0686	14	31	perdu	DISF_R	vppart	NULL	NULL	NOLINK	0	idtext0016	perdre	K##m#s##	spk3	31.3	31.59	0.01	_
20091112_RATP_SCD_0686	14	32	j'	NULL	cln	NULL	B_GN	SUJ	34	idtext0016	cln	#1##s##	spk3	31.6	31.73	0.01	_
20091112_RATP_SCD_0686	14	33	ai	NULL	v	NULL	B_GVf	AUX	34	idtext0016	avoir	P#1##s##	spk3	31.74	31.76	0.01	_
20091112_RATP_SCD_0686	14	34	égaré	NULL	vppart	NULL	I_GVf	OBJ	26	idtext0016	égarer	K##m#s##	spk3	31.77	32.08	0.01	_
20091112_RATP_SCD_0686	14	35	ma	NULL	det	NULL	B_GN	DET	36	idtext0016	mon	##f#s##o	spk3	32.09	32.23	0.01	_
20091112_RATP_SCD_0686	14	36	carte	NULL	nc	NULL	I_GN	OBJ	34	idtext0016	carte	##f#s##	spk3	32.24	32.61	0.01	_
20091112_RATP_SCD_0686	14	37	grise	NULL	adj	NULL	I_GN	MOD	36	idtext0016	gris	##f#s##	spk3	32.62	32.93	2.53	//
20091112_RATP_SCD_0686	14	38	il	NULL	cln	NULL	B_GN	SUJ_IMP	40	idtext0017	cln	#3#m#s##	spk3	35.46	35.57	0.01	_
20091112_RATP_SCD_0686	14	39	y	NULL	clo	NULL	B_GN	AFF	40	idtext0017	y	#####	spk3	35.58	35.6	0.01	_
20091112_RATP_SCD_0686	14	40	a	NULL	v	NULL	B_GVf	ROOT	0	idtext0017	avoir	P#3##s##	spk3	35.61	35.66	0.01	_
20091112_RATP_SCD_0686	14	41	à+peu+près	NULL	adv	NULL	I_GP	MOD	43	idtext0017	à+peu+près	#####	spk3	35.67	37.04	0.01	_
20091112_RATP_SCD_0686	14	42	euh	DISF_M	pres	NULL	NULL	NOLINK	0	idtext0017	euh	#####	spk3	37.05	38.59	0.01	_
20091112_RATP_SCD_0686	14	43	trois	NULL	adj	NULL	I_GP	MOD	44	idtext0017	trois	#####	spk3	38.6	38.9	0.01	_
20091112_RATP_SCD_0686	14	44	jours	NULL	nc	NULL	I_GP	OBJ	40	idtext0017	jour	##m#p##	spk3	38.91	39.49	?	//

20091112_RATP_SCD_0686	15	1	oui	NULL	adv	NULL	B_GADV	NOLINK	0	idtext0018	oui	#####	spk2	39.55	39.89	?	//

20091112_RATP_SCD_0686	16	1	et	NULL	coo	NULL	B_NULL	ROOT	0	idtext0019	et	#####	spk3	40.19	40.64	0.01	_
20091112_RATP_SCD_0686	16	2	j'	NULL	cln	NULL	B_GN	SUJ	3	idtext0019	cln	#1##s##	spk3	40.65	40.76	0.01	_
20091112_RATP_SCD_0686	16	3	aimerais	NULL	v	NULL	B_GVf	DEP_COORD	1	idtext0019	aimer	C#12##s##	spk3	40.77	41.72	0.01	_
20091112_RATP_SCD_0686	16	4	savoir	NULL	vinf	NULL	I_GVf	OBJ	3	idtext0019	savoir	W#####	spk3	41.73	42.62	0.01	_
20091112_RATP_SCD_0686	16	5	si	DISF_R	csu	NULL	NULL	NOLINK	0	idtext0019	si	#####	spk3	42.63	42.68	0.01	_
20091112_RATP_SCD_0686	16	6	si	NULL	csu	NULL	B_NULL	OBJ	3	idtext0019	si	#####	spk3	42.69	42.8	0.01	_
20091112_RATP_SCD_0686	16	7	quelqu'un	NULL	pro	NULL	B_GN	SUJ	13	idtext0019	quelqu'un	#####	spk3	42.81	43.02	0.01	_
20091112_RATP_SCD_0686	16	8	ne	NULL	clneg	NULL	B_NULL	MOD	13	idtext0019	ne	#####	spk3	43.03	43.05	0.01	_
20091112_RATP_SCD_0686	16	9	l'	NULL	clo	NULL	B_GN	OBJ	13	idtext0019	cla	#3##s##	spk3	43.06	43.08	0.01	_
20091112_RATP_SCD_0686	16	10	a	NULL	v	NULL	B_GVfn	AUX	13	idtext0019	avoir	P#3##s##	spk3	43.09	43.2	0.01	_
20091112_RATP_SCD_0686	16	11	pas	NULL	advneg	NULL	I_GVfn	MOD	10	idtext0019	pas	#####	spk3	43.21	43.35	0.01	_
20091112_RATP_SCD_0686	16	12	par+hasard	NULL	adv	NULL	I_GVfn	MOD	10	idtext0019	par+hasard	#####	spk3	43.36	43.82	0.01	_
20091112_RATP_SCD_0686	16	13	rendu	NULL	vppart	NULL	I_GVfn	OBJ	6	idtext0019	rendre	K##m#s##	spk3	43.83	44.79	?	//

20091112_RATP_SCD_0686	17	1	c'	DISF_R	cln	NULL	NULL	NOLINK	0	idtext0020	ce	###s##	spk2	44.84	44.86	0.01	_
20091112_RATP_SCD_0686	17	2	est	DISF_R	v	NULL	NULL	NOLINK	0	idtext0020	être	P#3##s##	spk2	44.87	45.04	0.01	_
20091112_RATP_SCD_0686	17	3	c'	DISF_R	cln	NULL	NULL	NOLINK	0	idtext0020	ce	###s##	spk2	45.05	45.09	0.01	_
20091112_RATP_SCD_0686	17	4	est	DISF_R	v	NULL	NULL	NOLINK	0	idtext0020	être	P#3##s##	spk2	45.1	45.36	0.01	_
20091112_RATP_SCD_0686	17	5	c'	NULL	cln	NULL	B_GN	SUJ_IMP	6	idtext0020	ce	###s##	spk2	45.37	45.41	0.01	_
20091112_RATP_SCD_0686	17	6	est	NULL	v	NULL	B_GVf	ROOT	0	idtext0020	être	P#3##s##	spk2	45.42	45.47	0.01	_
20091112_RATP_SCD_0686	17	7	par+rapport	NULL	prep	NULL	B_NULL	ATS	6	idtext0020	par+rapport	#####	spk2	45.48	46.07	0.01	_
20091112_RATP_SCD_0686	17	8	alors	NULL	adv	NULL	B_GADV	NOLINK	0	idtext0020	alors	#####	spk2	46.08	46.31	0.01	_
20091112_RATP_SCD_0686	17	9	j'	DISF_R	cln	NULL	NULL	NOLINK	0	idtext0020	cln	#1##s##	spk2	46.32	46.42	0.01	_
20091112_RATP_SCD_0686	17	10	ai	DISF_R	v	NULL	NULL	NOLINK	0	idtext0020	avoir	P#1##s##	spk2	46.43	46.49	0.01	_
20091112_RATP_SCD_0686	17	11	j'	NULL	cln	NULL	B_GN	SUJ	13	idtext0020	cln	#1##s##	spk2	46.5	46.62	0.01	_
20091112_RATP_SCD_0686	17	12	ai	NULL	v	NULL	B_GVf	AUX	13	idtext0020	avoir	P#1##s##	spk2	46.63	46.7	0.01	_
20091112_RATP_SCD_0686	17	13	eu	NULL	vppart	NULL	I_GVf	ROOT	0	idtext0020	avoir	K##m#s##	spk2	46.71	46.76	0.01	_
20091112_RATP_SCD_0686	17	14	du	NULL	prep	NULL	B_GP	OBJ	13	idtext0020	du	#####	spk2	46.77	46.85	0.01	_
20091112_RATP_SCD_0686	17	15	mal	NULL	nc	NULL	I_GP	OBJ	14	idtext0020	mal	##m#s##	spk2	46.86	47.03	0.01	_
20091112_RATP_SCD_0686	17	16	à	NULL	prep	NULL	B_GP	DEP	15	idtext0020	à	#####	spk2	47.04	47.08	0.01	_
20091112_RATP_SCD_0686	17	17	comprendre	NULL	vinf	NULL	I_GP	OBJ	16	idtext0020	comprendre	W#####	spk2	47.09	47.46	0.01	_
20091112_RATP_SCD_0686	17	18	hein	DISF_M	pres	NULL	NULL	NOLINK	0	idtext0020	hein	#####	spk2	47.47	47.52	0.01	_
20091112_RATP_SCD_0686	17	19	c'	NULL	cln	NULL	B_GN	SUJ_IMP	20	idtext0020	ce	###s##	spk2	47.53	47.62	0.01	_
20091112_RATP_SCD_0686	17	20	est	NULL	v	NULL	B_GVf	ROOT	0	idtext0020	être	P#3##s##	spk2	47.63	47.66	0.01	_
20091112_RATP_SCD_0686	17	21	par+rapport+à	NULL	prep	NULL	B_GP	ATS	20	idtext0020	par+rapport+à	#####	spk2	47.67	48.12	0.01	_
20091112_RATP_SCD_0686	17	22	un	NULL	pro	NULL	I_GP	OBJ	21	idtext0020	un	#####	spk2	48.13	48.62	0.01	_
20091112_RATP_SCD_0686	17	23	à	DISF_R	prep	NULL	NULL	NOLINK	0	idtext0020	à	#####	spk2	48.63	48.68	0.01	_
20091112_RATP_SCD_0686	17	24	un	DISF_R	pro	NULL	NULL	NOLINK	0	idtext0020	un	#####	spk2	48.69	49.12	0.01	_
20091112_RATP_SCD_0686	17	25	à	DISF_R	prep	NULL	NULL	NOLINK	0	idtext0020	à	#####	spk2	49.13	49.15	0.01	_
20091112_RATP_SCD_0686	17	26	un	DISF_R	pro	NULL	NULL	NOLINK	0	idtext0020	un	#####	spk2	49.16	49.6	0.01	_
20091112_RATP_SCD_0686	17	27	objet	NULL	nc	NULL	I_GP	ATS	20	idtext0020	objet	##m#s##	spk2	49.61	49.82	0.01	_
20091112_RATP_SCD_0686	17	28	que	NULL	prorel	NULL	B_NULL	OBJ	31	idtext0020	que	#####	spk2	49.83	49.95	0.01	_
20091112_RATP_SCD_0686	17	29	vous	NULL	cln	NULL	B_GN	SUJ	31	idtext0020	cln	#2##p##	spk2	49.96	50.07	0.01	_
20091112_RATP_SCD_0686	17	30	avez	NULL	v	NULL	B_GVf	AUX	31	idtext0020	avoir	P#2##p##	spk2	50.08	50.23	0.01	_
20091112_RATP_SCD_0686	17	31	perdu	NULL	vppart	NULL	I_GVf	MOD_REL	27	idtext0020	perdre	K##m#s##	spk2	50.24	50.61	0.01	_
20091112_RATP_SCD_0686	17	32	c'	NULL	cln	NULL	B_GN	SUJ_IMP	33	idtext0020	ce	###s##	spk2	50.62	50.65	0.01	_
20091112_RATP_SCD_0686	17	33	est	NULL	v	NULL	B_GVf	ROOT	0	idtext0020	être	P#3##s##	spk2	50.66	50.69	0.01	_
20091112_RATP_SCD_0686	17	34	ça	NULL	pro	NULL	B_GN	ATS	33	idtext0020	ça	#####	spk2	50.7	50.96	?	_

20091112_RATP_SCD_0686	18	1	vous	NULL	cln	NULL	B_GN	SUJ	3	idtext0021	cln	#2##p##	spk2	52.23	52.29	0.01	_
20091112_RATP_SCD_0686	18	2	vous	NULL	clr	NULL	B_GVf	AFF	3	idtext0021	cln	#2##p##	spk2	52.3	52.44	0.01	_
20091112_RATP_SCD_0686	18	3	rappelez	NULL	v	NULL	I_GVf	ROOT	0	idtext0021	rappeler	P#2##p##	spk2	52.45	52.83	0.01	_
20091112_RATP_SCD_0686	18	4	à+peu+près	NULL	adv	NULL	B_GADV	MOD	3	idtext0021	à+peu+près	#####	spk2	52.84	53.14	0.01	_
20091112_RATP_SCD_0686	18	5	de	DISF_R	prep	NULL	NULL	NOLINK	0	idtext0021	de	#####	spk2	53.15	53.24	0.01	_
20091112_RATP_SCD_0686	18	6	sur	NULL	prep	NULL	B_GP	P_OBJ	3	idtext0021	sur	#####	spk2	53.25	53.41	0.01	_
20091112_RATP_SCD_0686	18	7	quelle	NULL	det	NULL	I_GP	DET	8	idtext0021	quel	##f#s##	spk2	53.42	53.64	0.01	_
20091112_RATP_SCD_0686	18	8	ligne	NULL	nc	NULL	I_GP	OBJ	6	idtext0021	ligne	##f#s##	spk2	53.65	54.03	0.01	_
20091112_RATP_SCD_0686	18	9	soit	NULL	coo	NULL	B_NULL	COORD	8	idtext0021	soit	#####	spk2	54.04	54.2	0.01	_
20091112_RATP_SCD_0686	18	10	de	NULL	prep	NULL	B_GP	DEP_COORD	9	idtext0021	de	#####	spk2	54.21	54.34	0.01	_
20091112_RATP_SCD_0686	18	11	bus	NULL	nc	NULL	I_GP	OBJ	10	idtext0021	bus	##m###	spk2	54.35	54.54	0.01	_
20091112_RATP_SCD_0686	18	12	ou	NULL	coo	NULL	B_NULL	COORD	11	idtext0021	ou	#####	spk2	54.55	54.62	0.01	_
20091112_RATP_SCD_0686	18	13	de	NULL	prep	NULL	B_GP	DEP_COORD	12	idtext0021	de	#####	spk2	54.63	54.73	0.01	_
20091112_RATP_SCD_0686	18	14	métro	NULL	nc	NULL	I_GP	OBJ	13	idtext0021	métro	##m#s##	spk2	54.74	55.15	?	//

20091112_RATP_SCD_0686	19	1	je	NULL	cln	NULL	B_GN	SUJ	2	idtext0022	cln	#1##s##	spk3	56.15	56.17	0.01	_
20091112_RATP_SCD_0686	19	2	rappelle	NULL	v	NULL	B_GVf	ROOT	0	idtext0022	rappeler	PS#13##s##	spk3	56.18	56.54	0.01	_
20091112_RATP_SCD_0686	19	3	de	DISF_R	prep	NULL	NULL	NOLINK	0	idtext0022	de	#####	spk3	56.55	56.64	0.01	_
20091112_RATP_SCD_0686	19	4	sur	NULL	prep	NULL	B_GP	P_OBJ_LOC	2	idtext0022	sur	#####	spk3	56.65	56.73	0.01	_
20091112_RATP_SCD_0686	19	5	la	NULL	det	NULL	I_GP	DET	6	idtext0022	le	##m#s##d	spk3	56.74	56.82	0.01	_
20091112_RATP_SCD_0686	19	6	ligne	NULL	nc	NULL	I_GP	OBJ	4	idtext0022	ligne	##f#s##	spk3	56.83	56.95	0.01	_
20091112_RATP_SCD_0686	19	7	de	NULL	prep	NULL	B_NULL	DEP	6	idtext0022	de	#####	spk3	56.96	58.26	?	_

20091112_RATP_SCD_0686	20	1	d'	NULL	prep	NULL	B_GP	ROOT	0	idtext0023	d'	#####	spk3	59.72	59.75	0.01	_
20091112_RATP_SCD_0686	20	2	une	NULL	det	NULL	I_GP	DET	3	idtext0023	un	##f#s##i	spk3	59.76	59.85	0.01	_
20091112_RATP_SCD_0686	20	3	cabine	NULL	nc	NULL	I_GP	OBJ	1	idtext0023	cabine	##f#s##	spk3	59.86	60.09	0.01	_
20091112_RATP_SCD_0686	20	4	téléphonique	NULL	adj	NULL	I_GP	MOD	3	idtext0023	téléphonique	###s##	spk3	60.1	60.45	0.01	_
20091112_RATP_SCD_0686	20	5	publique	NULL	adj	NULL	I_GP	MOD	3	idtext0023	public	##f#s##	spk3	60.46	60.93	?	//

20091112_RATP_SCD_0686	21	1	oui	NULL	adv	NULL	B_GADV	NOLINK	0	idtext0024	oui	#####	spk2	61.85	62.23	?	//

20091112_RATP_SCD_0686	22	1	d'	NULL	prep	NULL	B_NULL	NOLINK	0	idtext0025	d'	#####	spk3	62.35	62.43	0.01	_
20091112_RATP_SCD_0686	22	2	une	NULL	det	NULL	B_NULL	NOLINK	0	idtext0025	un	##f#s##i	spk3	62.44	62.84	0.01	_
20091112_RATP_SCD_0686	22	3	je	NULL	cln	NULL	B_GN	SUJ	5	idtext0025	cln	#1##s##	spk3	62.85	62.98	0.01	_
20091112_RATP_SCD_0686	22	4	vous	NULL	clo	NULL	B_GN	OBJ	5	idtext0025	cln	#2##p##	spk3	62.99	63.1	0.01	_
20091112_RATP_SCD_0686	22	5	rappelle	NULL	v	NULL	B_GVf	ROOT	0	idtext0025	rappeler	PS#13##s##	spk3	63.11	63.46	0.01	_
20091112_RATP_SCD_0686	22	6	d'	NULL	prep	NULL	B_GP	DE_OBJ	5	idtext0025	d'	#####	spk3	63.47	63.49	0.01	_
20091112_RATP_SCD_0686	22	7	une	NULL	det	NULL	I_GP	DET	8	idtext0025	un	##f#s##i	spk3	63.5	63.56	0.01	_
20091112_RATP_SCD_0686	22	8	cabine	NULL	nc	NULL	I_GP	OBJ	6	idtext0025	cabine	##f#s##	spk3	63.57	63.91	0.01	_
20091112_RATP_SCD_0686	22	9	téléphonique	NULL	adj	NULL	I_GP	MOD	8	idtext0025	téléphonique	###s##	spk3	63.92	64.26	0.01	_
20091112_RATP_SCD_0686	22	10	publique	NULL	adj	NULL	I_GP	MOD	8	idtext0025	public	##f#s##	spk3	64.27	64.47	?	//

20091112_RATP_SCD_0686	23	1	d'accord	NULL	adv	NULL	B_GADV	MOD	2	idtext0026	d'accord	#####	spk2	64.53	64.89	0.01	_
20091112_RATP_SCD_0686	23	2	oui	NULL	adv	NULL	I_GADV	ROOT	0	idtext0026	oui	#####	spk2	64.9	65.1	?	_

20091112_RATP_SCD_0686	24	1	allo	NULL	adv	NULL	B_GADV	NOLINK	0	idtext0027	allo	#####	spk3	68.11	68.44	?	//

20091112_RATP_SCD_0686	25	1	oui	NULL	adv	NULL	B_GADV	NOLINK	0	idtext0028	oui	#####	spk2	68.48	68.83	?	//

20091112_RATP_SCD_0686	26	1	oui	NULL	adv	NULL	B_GADV	NOLINK	0	idtext0029	oui	#####	spk3	69.16	69.26	0.01	_
20091112_RATP_SCD_0686	26	2	c'	NULL	cln	NULL	B_GN	SUJ_IMP	3	idtext0029	ce	###s##	spk3	69.27	69.58	0.01	_
20091112_RATP_SCD_0686	26	3	était	NULL	v	NULL	B_GVf	ROOT	0	idtext0029	être	I#3##s##	spk3	69.59	69.77	0.01	_
20091112_RATP_SCD_0686	26	4	pour	NULL	prep	NULL	B_GP	MOD	3	idtext0029	pour	#####	spk3	69.78	69.92	0.01	_
20091112_RATP_SCD_0686	26	5	savoir	NULL	vinf	NULL	I_GP	OBJ	4	idtext0029	savoir	W#####	spk3	69.93	70.39	0.01	_
20091112_RATP_SCD_0686	26	6	comment	NULL	adv	NULL	B_GADV	MOD	8	idtext0029	comment	#####	spk3	70.4	70.83	0.01	_
20091112_RATP_SCD_0686	26	7	on	NULL	cln	NULL	B_GN	SUJ_IMP	8	idtext0029	cln	#3##s##	spk3	70.84	71.14	0.01	_
20091112_RATP_SCD_0686	26	8	gère	NULL	v	NULL	B_GVf	OBJ	5	idtext0029	gérer	PS#13##s##	spk3	71.15	71.36	0.01	_
20091112_RATP_SCD_0686	26	9	euh	DISF_M	pres	NULL	NULL	NOLINK	0	idtext0029	euh	#####	spk3	71.37	71.9	0.01	_
20091112_RATP_SCD_0686	26	10	les	NULL	det	NULL	B_GN	DET	11	idtext0029	le	###p##d	spk3	71.91	72.03	0.01	_
20091112_RATP_SCD_0686	26	11	objets	NULL	nc	NULL	I_GN	OBJ	8	idtext0029	objet	##m#p##	spk3	72.04	72.28	0.01	_
20091112_RATP_SCD_0686	26	12	perdus	NULL	vppart	NULL	B_GVf	MOD	11	idtext0029	perdre	K##m#p##	spk3	72.29	72.8	?	//

20091112_RATP_SCD_0686	27	1	alors	NULL	adv	NULL	B_GADV	NOLINK	0	idtext0030	alors	#####	spk2	72.88	73.07	0.01	/
20091112_RATP_SCD_0686	27	2	moi	NULL	pro	NULL	B_GN	SUJ	7	idtext0030	moi	#####	spk2	73.08	73.17	0.01	_
20091112_RATP_SCD_0686	27	3	je	DISF_R	cln	NULL	NULL	NOLINK	0	idtext0030	cln	#1##s##	spk2	73.18	73.25	0.01	_
20091112_RATP_SCD_0686	27	4	peux	DISF_R	v	NULL	NULL	NOLINK	0	idtext0030	pouvoir	P#12##s##	spk2	73.26	73.39	0.01	_
20091112_RATP_SCD_0686	27	5	me	DISF_R	clr	NULL	NULL	NOLINK	0	idtext0030	cla	#1##s##	spk2	73.4	73.55	0.01	_
20091112_RATP_SCD_0686	27	6	je	NULL	cln	NULL	B_GN	SUJ	7	idtext0030	cln	#1##s##	spk2	73.56	73.63	0.01	_
20091112_RATP_SCD_0686	27	7	peux	NULL	v	NULL	B_GVf	ROOT	0	idtext0030	pouvoir	P#12##s##	spk2	73.64	73.73	0.01	_
20091112_RATP_SCD_0686	27	8	me	NULL	clr	NULL	B_GVi	AFF	9	idtext0030	cla	#1##s##	spk2	73.74	73.8	0.01	_
20091112_RATP_SCD_0686	27	9	renseigner	NULL	vinf	NULL	I_GVi	OBJ	7	idtext0030	renseigner	W#####	spk2	73.81	74.22	0.01	_
20091112_RATP_SCD_0686	27	10	mais	NULL	coo	NULL	B_NULL	COORD	9	idtext0030	mais	#####	spk2	74.23	74.36	0.01	_
20091112_RATP_SCD_0686	27	11	il	NULL	cln	NULL	B_GN	SUJ_IMP	13	idtext0030	cln	#3#m#s##	spk2	74.37	74.42	0.01	_
20091112_RATP_SCD_0686	27	12	me	NULL	clo	NULL	B_GN	A_OBJ	13	idtext0030	cla	#1##s##	spk2	74.43	74.45	0.01	_
20091112_RATP_SCD_0686	27	13	faut	NULL	v	NULL	B_GVf	DEP_COORD	10	idtext0030	falloir	P#3##s##	spk2	74.46	74.99	0.01	/
20091112_RATP_SCD_0686	27	14	soit	NULL	coo	NULL	B_NULL	NOLINK	0	idtext0030	soit	#####	spk2	75.0	75.17	0.01	_
20091112_RATP_SCD_0686	27	15	la	NULL	det	NULL	B_NULL	MOD	9	idtext0030	le	##m#s##d	spk2	75.18	75.43	0.01	_
20091112_RATP_SCD_0686	27	16	par+exemple	NULL	adv	NULL	B_GADV	MOD	9	idtext0030	par+exemple	#####	spk2	75.44	75.93	0.01	_
20091112_RATP_SCD_0686	27	17	si	NULL	csu	NULL	B_NULL	MOD	9	idtext0030	si	#####	spk2	75.94	76.04	0.01	_
20091112_RATP_SCD_0686	27	18	vous	NULL	cln	NULL	B_GN	SUJ	20	idtext0030	cln	#2##p##	spk2	76.05	76.16	0.01	_
20091112_RATP_SCD_0686	27	19	avez	NULL	v	NULL	B_GVf	AUX	20	idtext0030	avoir	P#2##p##	spk2	76.17	76.34	0.01	_
20091112_RATP_SCD_0686	27	20	perdu	NULL	vppart	NULL	I_GVf	OBJ	17	idtext0030	perdre	K##m#s##	spk2	76.35	77.04	0.01	_
20091112_RATP_SCD_0686	27	21	euh	DISF_M	pres	NULL	NULL	NOLINK	0	idtext0030	euh	#####	spk2	77.05	77.2	0.01	_
20091112_RATP_SCD_0686	27	22	sur	NULL	prep	NULL	B_GP	P_OBJ	20	idtext0030	sur	#####	spk2	77.21	77.41	0.01	_
20091112_RATP_SCD_0686	27	23	une	NULL	det	NULL	I_GP	DET	24	idtext0030	un	##f#s##i	spk2	77.42	77.51	0.01	_
20091112_RATP_SCD_0686	27	24	ligne	NULL	nc	NULL	I_GP	OBJ	22	idtext0030	ligne	##f#s##	spk2	77.52	77.66	0.01	_
20091112_RATP_SCD_0686	27	25	de	NULL	prep	NULL	B_GP	DEP	24	idtext0030	de	#####	spk2	77.67	77.79	0.01	_
20091112_RATP_SCD_0686	27	26	bus	NULL	nc	NULL	I_GP	OBJ	25	idtext0030	bus	##m###	spk2	77.8	77.88	0.01	/
20091112_RATP_SCD_0686	27	27	il	DISF_R	cln	NULL	NULL	NOLINK	0	idtext0030	cln	#3#m#s##	spk2	77.89	78.0	0.01	_
20091112_RATP_SCD_0686	27	28	faut	DISF_R	v	NULL	NULL	NOLINK	0	idtext0030	falloir	P#3##s##	spk2	78.01	78.29	0.01	_
20091112_RATP_SCD_0686	27	29	il	NULL	cln	NULL	B_GN	SUJ_IMP	30	idtext0030	cln	#3#m#s##	spk2	78.3	78.47	0.01	_
20091112_RATP_SCD_0686	27	30	faut	NULL	v	NULL	B_GVf	ROOT	0	idtext0030	falloir	P#3##s##	spk2	78.48	78.58	0.01	_
20091112_RATP_SCD_0686	27	31	me	NULL	clo	NULL	B_GN	A_OBJ	32	idtext0030	cla	#1##s##	spk2	78.59	78.66	0.01	_
20091112_RATP_SCD_0686	27	32	dire	NULL	vinf	NULL	B_GVi	OBJ	30	idtext0030	dire	W#####	spk2	78.67	78.83	0.01	_
20091112_RATP_SCD_0686	27	33	à+peu+près	NULL	adv	NULL	B_GADV	MOD	32	idtext0030	à+peu+près	#####	spk2	78.84	79.17	0.01	_
20091112_RATP_SCD_0686	27	34	dans	DISF_R	prep	NULL	NULL	NOLINK	0	idtext0030	dans	#####	spk2	79.18	79.36	0.01	_
20091112_RATP_SCD_0686	27	35	dans	NULL	prep	NULL	B_GP	MOD	20	idtext0030	dans	#####	spk2	79.37	79.53	0.01	_
20091112_RATP_SCD_0686	27	36	quel	NULL	det	NULL	I_GP	DET	37	idtext0030	quel	##m#s##	spk2	79.54	79.75	0.01	_
20091112_RATP_SCD_0686	27	37	bus	NULL	nc	NULL	I_GP	OBJ	35	idtext0030	bus	##m###	spk2	79.76	79.94	0.01	_
20091112_RATP_SCD_0686	27	38	on	NULL	cln	NULL	B_GN	SUJ	39	idtext0030	cln	#3##s##	spk2	79.95	80.03	0.01	_
20091112_RATP_SCD_0686	27	39	va	NULL	v	NULL	B_GVf	ROOT	0	idtext0030	aller	P#3##s##	spk2	80.04	80.11	0.01	_
20091112_RATP_SCD_0686	27	40	dire	NULL	vinf	NULL	I_GVf	OBJ	39	idtext0030	dire	W#####	spk2	80.12	80.41	?	//

20091112_RATP_SCD_0686	28	1	PC3	NULL	nc	NULL	B_GN	SUJ	3	idtext0031	PC3	#####	spk3	80.53	81.1	0.01	/
20091112_RATP_SCD_0686	28	2	c'	NULL	cln	NULL	B_GN	SUJ_IMP	3	idtext0031	ce	###s##	spk3	81.11	81.13	0.01	_
20091112_RATP_SCD_0686	28	3	est	NULL	v	NULL	B_GVf	ROOT	0	idtext0031	être	P#3##s##	spk3	81.14	81.16	0.01	_
20091112_RATP_SCD_0686	28	4	le	NULL	det	NULL	B_GN	DET	5	idtext0031	le	##m#s##d	spk3	81.17	81.2	0.01	_
20091112_RATP_SCD_0686	28	5	PC3	NULL	nc	NULL	I_GN	ATS	3	idtext0031	PC3	#####	spk3	81.21	81.83	?	//

20091112_RATP_SCD_0686	29	1	PC3	NULL	nc	NULL	B_GN	NOLINK	0	idtext0032	PC3	#####	spk2	81.91	82.37	0.01	_
20091112_RATP_SCD_0686	29	2	d'accord	NULL	adv	NULL	B_GADV	NOLINK	0	idtext0032	d'accord	#####	spk2	82.38	82.78	?	//

20091112_RATP_SCD_0686	30	1	oui	NULL	adv	NULL	B_GADV	NOLINK	0	idtext0033	oui	#####	spk3	82.9	83.26	?	//

20091112_RATP_SCD_0686	31	1	alors	NULL	adv	NULL	B_GADV	NOLINK	0	idtext0034	alors	#####	spk2	83.32	83.5	0.01	_
20091112_RATP_SCD_0686	31	2	PC3	NULL	nc	NULL	B_GN	ROOT	0	idtext0034	PC3	#####	spk2	83.51	83.93	0.01	_
20091112_RATP_SCD_0686	31	3	et	NULL	coo	NULL	B_NULL	COORD	2	idtext0034	et	#####	spk2	83.94	83.97	0.01	_
20091112_RATP_SCD_0686	31	4	c'	NULL	cln	NULL	B_GN	SUJ_IMP	5	idtext0034	ce	###s##	spk2	83.98	84.05	0.01	_
20091112_RATP_SCD_0686	31	5	était	NULL	v	NULL	B_GVf	DEP_COORD	3	idtext0034	être	I#3##s##	spk2	84.06	84.24	0.01	_
20091112_RATP_SCD_0686	31	6	quoi	NULL	pri	NULL	B_NULL	ATS	5	idtext0034	quoi	#####	spk2	84.25	84.42	0.01	_
20091112_RATP_SCD_0686	31	7	comme	NULL	adv	NULL	B_GADV	MOD	5	idtext0034	comme	#####	spk2	84.43	84.6	0.01	_
20091112_RATP_SCD_0686	31	8	objet	NULL	nc	NULL	B_GN	OBJ	7	idtext0034	objet	##m#s##	spk2	84.61	84.86	0.01	_
20091112_RATP_SCD_0686	31	9	parce+que	NULL	csu	NULL	B_NULL	MOD	5	idtext0034	parce+que	#####	spk2	84.87	85.05	0.01	_
20091112_RATP_SCD_0686	31	10	je	NULL	cln	NULL	B_GN	OBJ	11	idtext0034	cln	#1##s##	spk2	85.06	85.23	0.01	_
20091112_RATP_SCD_0686	31	11	me	NULL	clr	NULL	B_GNr	OBJ	9	idtext0034	cla	#1##s##	spk2	85.24	85.37	?	_

20091112_RATP_SCD_0686	32	1	c'	NULL	cln	NULL	B_GN	SUJ_IMP	2	idtext0035	ce	###s##	spk3	85.68	85.86	0.01	_
20091112_RATP_SCD_0686	32	2	était	NULL	v	NULL	B_GVf	ROOT	0	idtext0035	être	I#3##s##	spk3	85.87	86.02	0.01	_
20091112_RATP_SCD_0686	32	3	euh	DISF_M	pres	NULL	NULL	NOLINK	0	idtext0035	euh	#####	spk3	86.03	86.34	0.01	_
20091112_RATP_SCD_0686	32	4	la	NULL	det	NULL	B_GN	DET	5	idtext0035	le	##m#s##d	spk3	86.35	86.47	0.01	_
20091112_RATP_SCD_0686	32	5	carte	NULL	nc	NULL	I_GN	ATS	2	idtext0035	carte	##f#s##	spk3	86.48	86.64	0.01	_
20091112_RATP_SCD_0686	32	6	grise	NULL	adj	NULL	I_GN	MOD	5	idtext0035	gris	##f#s##	spk3	86.65	87.35	0.01	_
20091112_RATP_SCD_0686	32	7	d'	NULL	prep	NULL	B_GP	DEP	5	idtext0035	d'	#####	spk3	87.36	87.42	0.01	_
20091112_RATP_SCD_0686	32	8	un	NULL	det	NULL	I_GP	DET	9	idtext0035	un	##m#s##i	spk3	87.43	87.47	0.01	_
20091112_RATP_SCD_0686	32	9	véhicule	NULL	nc	NULL	I_GP	OBJ	7	idtext0035	véhicule	##m#s##	spk3	87.48	87.9	?	//

20091112_RATP_SCD_0686	33	1	carte	DISF_R	nc	NULL	NULL	NOLINK	0	idtext0036	carte	##f#s##	spk2	88.42	88.94	0.01	//
20091112_RATP_SCD_0686	33	2	euh	DISF_M	pres	NULL	NULL	NOLINK	0	idtext0036	euh	#####	spk2	88.95	89.1	0.01	_
20091112_RATP_SCD_0686	33	3	carte	NULL	nc	NULL	B_GN	ROOT	0	idtext0036	carte	##f#s##	spk2	89.11	89.37	0.01	_
20091112_RATP_SCD_0686	33	4	grise	NULL	adj	NULL	I_GN	MOD	3	idtext0036	gris	##f#s##	spk2	89.38	89.65	0.01	_
20091112_RATP_SCD_0686	33	5	hein	DISF_M	pres	NULL	NULL	NOLINK	0	idtext0036	hein	#####	spk2	89.66	89.74	0.01	_
20091112_RATP_SCD_0686	33	6	c'	NULL	cln	NULL	B_GN	SUJ_IMP	7	idtext0036	ce	###s##	spk2	89.75	89.82	0.01	_
20091112_RATP_SCD_0686	33	7	est	NULL	v	NULL	B_GVf	ROOT	0	idtext0036	être	P#3##s##	spk2	89.83	89.86	0.01	_
20091112_RATP_SCD_0686	33	8	ça	NULL	pro	NULL	B_GN	ATS	7	idtext0036	ça	#####	spk2	89.87	90.03	0.01	_
20091112_RATP_SCD_0686	33	9	hein	DISF_M	pres	NULL	NULL	NOLINK	0	idtext0036	hein	#####	spk2	90.04	90.19	?	//

20091112_RATP_SCD_0686	34	1	ouais	NULL	adv	NULL	B_GADV	NOLINK	0	idtext0037	ouais	#####	spk3	90.27	90.37	0.01	_
20091112_RATP_SCD_0686	34	2	j'	NULL	cln	NULL	B_GN	SUJ	3	idtext0037	cln	#1##s##	spk3	90.38	90.61	0.01	_
20091112_RATP_SCD_0686	34	3	ai	NULL	v	NULL	B_GVf	ROOT	0	idtext0037	avoir	P#1##s##	spk3	90.62	90.89	0.01	_
20091112_RATP_SCD_0686	34	4	une	NULL	det	NULL	B_GN	DET	5	idtext0037	un	##f#s##i	spk3	90.9	90.95	0.01	_
20091112_RATP_SCD_0686	34	5	Fiat	NULL	np	B_PRD	I_GN	OBJ	3	idtext0037	Fiat	#####	spk3	90.96	91.2	0.01	_
20091112_RATP_SCD_0686	34	6	moto	NULL	nc	NULL	I_GN	MOD	5	idtext0037	moto	##f#s##	spk3	91.21	91.9	?	//

20091112_RATP_SCD_0686	35	1	d'accord	NULL	adv	NULL	B_GADV	NOLINK	0	idtext0038	d'accord	#####	spk2	91.94	92.4	0.01	_
20091112_RATP_SCD_0686	35	2	et	NULL	coo	NULL	B_NULL	ROOT	0	idtext0038	et	#####	spk2	92.41	92.63	0.01	_
20091112_RATP_SCD_0686	35	3	il	NULL	cln	NULL	B_GN	SUJ_IMP	5	idtext0038	cln	#3#m#s##	spk2	92.64	92.75	0.01	_
20091112_RATP_SCD_0686	35	4	y	NULL	clo	NULL	B_GN	AFF	5	idtext0038	y	#####	spk2	92.76	92.78	0.01	_
20091112_RATP_SCD_0686	35	5	a	NULL	v	NULL	B_GVf	DEP_COORD	2	idtext0038	avoir	P#3##s##	spk2	92.79	92.83	0.01	_
20091112_RATP_SCD_0686	35	6	combien+de	NULL	det	NULL	B_GN	DET	7	idtext0038	combien+de	#####	spk2	92.84	93.12	0.01	_
20091112_RATP_SCD_0686	35	7	temps	NULL	nc	NULL	I_GN	OBJ	5	idtext0038	temps	##m###	spk2	93.13	93.25	0.01	/
20091112_RATP_SCD_0686	35	8	vous	NULL	cln	NULL	B_GN	SUJ	11	idtext0038	cln	#2##p##	spk2	93.26	93.33	0.01	_
20091112_RATP_SCD_0686	35	9	m'	NULL	clo	NULL	B_GN	A_OBJ	11	idtext0038	cla	#1##s##	spk2	93.34	93.43	0.01	_
20091112_RATP_SCD_0686	35	10	avez	NULL	v	NULL	B_GVf	AUX	11	idtext0038	avoir	P#2##p##	spk2	93.44	93.59	0.01	_
20091112_RATP_SCD_0686	35	11	dit	NULL	vppart	NULL	I_GVf	ROOT	0	idtext0038	dire	J#3##s##	spk2	93.6	93.85	?	//

20091112_RATP_SCD_0686	36	1	il	NULL	cln	NULL	B_GN	SUJ_IMP	3	idtext0039	cln	#3#m#s##	spk3	94.75	94.8	0.01	_
20091112_RATP_SCD_0686	36	2	y	NULL	clo	NULL	B_GN	AFF	3	idtext0039	y	#####	spk3	94.81	94.83	0.01	_
20091112_RATP_SCD_0686	36	3	a	NULL	v	NULL	B_GVf	ROOT	0	idtext0039	avoir	P#3##s##	spk3	94.84	95.06	0.01	_
20091112_RATP_SCD_0686	36	4	à+peu+près	NULL	adv	NULL	B_GADV	MOD	3	idtext0039	à+peu+près	#####	spk3	95.07	96.11	?	_

20091112_RATP_SCD_0686	37	1	cinq	NULL	nc	NULL	B_GN	ROOT	0	idtext0040	cinq	##m###	spk3	98.45	98.79	0.01	_
20091112_RATP_SCD_0686	37	2	à	NULL	prep	NULL	B_GP	MOD	1	idtext0040	à	#####	spk3	98.8	98.9	0.01	_
20091112_RATP_SCD_0686	37	3	une	NULL	det	NULL	I_GP	DET	4	idtext0040	un	##f#s##i	spk3	98.91	99.29	0.01	_
20091112_RATP_SCD_0686	37	4	semaine	NULL	nc	NULL	I_GP	OBJ	2	idtext0040	semaine	##f#s##	spk3	99.3	99.73	?	//

20091112_RATP_SCD_0686	38	1	une	NULL	det	NULL	B_GN	DET	2	idtext0041	un	##f#s##i	spk2	100.05	100.15	0.01	_
20091112_RATP_SCD_0686	38	2	semaine	NULL	nc	NULL	I_GN	ROOT	0	idtext0041	semaine	##f#s##	spk2	100.16	100.4	0.01	_
20091112_RATP_SCD_0686	38	3	on	DISF_R	cln	NULL	NULL	NOLINK	0	idtext0041	cln	#3##s##	spk2	100.41	100.44	0.01	_
20091112_RATP_SCD_0686	38	4	voit	DISF_R	v	NULL	NULL	NOLINK	0	idtext0041	voir	P#3##s##	spk2	100.45	100.64	0.01	_
20091112_RATP_SCD_0686	38	5	on	NULL	cln	NULL	B_GN	SUJ	6	idtext0041	cln	#3##s##	spk2	100.65	100.7	0.01	_
20091112_RATP_SCD_0686	38	6	va	NULL	v	NULL	B_GVf	ROOT	0	idtext0041	aller	P#3##s##	spk2	100.71	100.81	0.01	_
20091112_RATP_SCD_0686	38	7	mettre	NULL	vinf	NULL	I_GVf	OBJ	6	idtext0041	mettre	W#####	spk2	100.82	101.0	0.01	_
20091112_RATP_SCD_0686	38	8	une	NULL	det	NULL	B_GN	DET	9	idtext0041	un	##f#s##i	spk2	101.01	101.17	0.01	_
20091112_RATP_SCD_0686	38	9	semaine	NULL	nc	NULL	I_GN	OBJ	7	idtext0041	semaine	##f#s##	spk2	101.18	101.41	0.01	_
20091112_RATP_SCD_0686	38	10	comme+ça	NULL	adv	NULL	B_GADV	MOD	9	idtext0041	comme+ça	#####	spk2	101.42	101.68	0.01	_
20091112_RATP_SCD_0686	38	11	je	NULL	cln	NULL	B_GN	SUJ	12	idtext0041	cln	#1##s##	spk2	101.69	101.76	0.01	_
20091112_RATP_SCD_0686	38	12	vais	NULL	v	NULL	B_GVf	ROOT	0	idtext0041	aller	P#1##s##	spk2	101.77	101.87	0.01	_
20091112_RATP_SCD_0686	38	13	regarder	NULL	vinf	NULL	I_GVf	OBJ	12	idtext0041	regarder	W#####	spk2	101.88	102.18	0.01	_
20091112_RATP_SCD_0686	38	14	le+plus	NULL	adv	NULL	B_GADJ	MOD	15	idtext0041	le+plus	#####	spk2	102.19	102.39	0.01	_
20091112_RATP_SCD_0686	38	15	loin	NULL	adv	NULL	I_GADJ	MOD	16	idtext0041	loin	#####	spk2	102.4	102.59	0.01	_
20091112_RATP_SCD_0686	38	16	possible	NULL	adj	NULL	I_GADJ	MOD	2	idtext0041	possible	###s##	spk2	102.6	102.94	0.01	_
20091112_RATP_SCD_0686	38	17	hein	DISF_M	pres	NULL	NULL	NOLINK	0	idtext0041	hein	#####	spk2	102.95	103.04	?	//

20091112_RATP_SCD_0686	39	1	hm+hm	DISF_M	pres	NULL	NULL	NOLINK	0	idtext0042	hm+hm	#####	spk3	103.13	103.47	?	//

20091112_RATP_SCD_0686	40	1	alors	NULL	adv	NULL	B_GADV	NOLINK	0	idtext0043	alors	#####	spk2	103.51	103.63	0.01	_
20091112_RATP_SCD_0686	40	2	veuillez	NULL	v	NULL	B_GVf	ROOT	0	idtext0043	vouloir	Y#2##p##	spk2	103.64	103.81	0.01	_
20091112_RATP_SCD_0686	40	3	patienter	NULL	vinf	NULL	I_GVf	OBJ	2	idtext0043	patienter	W#####	spk2	103.82	104.14	0.01	//
20091112_RATP_SCD_0686	40	4	je	NULL	cln	NULL	B_GN	SUJ	5	idtext0043	cln	#1##s##	spk2	104.15	104.23	0.01	_
20091112_RATP_SCD_0686	40	5	regarde	NULL	v	NULL	B_GVf	ROOT	0	idtext0043	regarder	PS#13##s##	spk2	104.24	104.61	0.01	_
20091112_RATP_SCD_0686	40	6	hein	DISF_M	pres	NULL	NULL	NOLINK	0	idtext0043	hein	#####	spk2	104.62	104.7	?	//

20091112_RATP_SCD_0686	41	1	OK	NULL	adv	NULL	B_GADV	NOLINK	0	idtext0044	ok	#####	spk3	104.77	105.17	?	_

20091112_RATP_SCD_0686	42	1	s'il+vous+plaît	NULL	adv	NULL	B_GADV	NOLINK	0	idtext0045	s'il+vous+plaît	#####	spk2	163.88	164.29	?	//

20091112_RATP_SCD_0686	43	1	s'il+vous+plaît	NULL	adv	NULL	B_GADV	NOLINK	0	idtext0046	s'il+vous+plaît	#####	spk2	165.49	165.94	?	//

20091112_RATP_SCD_0686	44	1	s'il+vous+plaît	NULL	adv	NULL	B_GADV	NOLINK	0	idtext0047	s'il+vous+plaît	#####	spk2	167.43	168.07	?	//

20091112_RATP_SCD_0686	45	1	oui	NULL	adv	NULL	B_GADV	NOLINK	0	idtext0048	oui	#####	spk3	168.12	168.2	0.01	_
20091112_RATP_SCD_0686	45	2	je	NULL	cln	NULL	B_GN	SUJ	4	idtext0048	cln	#1##s##	spk3	168.21	168.33	0.01	_
20091112_RATP_SCD_0686	45	3	vous	NULL	clo	NULL	B_GN	OBJ	4	idtext0048	cln	#2##p##	spk3	168.34	168.6	0.01	_
20091112_RATP_SCD_0686	45	4	écoute	NULL	v	NULL	B_GVf	ROOT	0	idtext0048	écouter	PS#13##s##	spk3	168.61	168.75	?	//

20091112_RATP_SCD_0686	46	1	je	NULL	cln	NULL	B_GN	SUJ	3	idtext0049	cln	#1##s##	spk3	168.84	168.89	0.01	_
20091112_RATP_SCD_0686	46	2	vous	NULL	clo	NULL	B_GN	OBJ	3	idtext0049	cln	#2##p##	spk3	168.9	169.02	0.01	_
20091112_RATP_SCD_0686	46	3	écoute	NULL	v	NULL	B_GVf	ROOT	0	idtext0049	écouter	PS#13##s##	spk3	169.03	169.3	0.01	_
20091112_RATP_SCD_0686	46	4	monsieur	NULL	nc	NULL	B_GN	NOLINK	0	idtext0049	Monsieur	##m#s##	spk3	169.31	169.66	?	//

20091112_RATP_SCD_0686	47	1	oui	NULL	adv	NULL	B_GADV	MOD	2	idtext0050	oui	#####	spk2	168.86	169.39	0.01	_
20091112_RATP_SCD_0686	47	2	alors	NULL	adv	NULL	I_GADV	ROOT	0	idtext0050	alors	#####	spk2	169.4	169.66	?	_

20091112_RATP_SCD_0686	48	1	euh	DISF_M	pres	NULL	NULL	NOLINK	0	idtext0051	euh	#####	spk2	169.74	169.98	0.01	_
20091112_RATP_SCD_0686	48	2	j'	DISF_R	cln	NULL	NULL	NOLINK	0	idtext0051	cln	#1##s##	spk2	169.99	170.1	0.01	_
20091112_RATP_SCD_0686	48	3	ai	DISF_R	v	NULL	NULL	NOLINK	0	idtext0051	avoir	P#1##s##	spk2	170.11	170.3	0.01	_
20091112_RATP_SCD_0686	48	4	on	NULL	cln	NULL	B_GN	SUJ	5	idtext0051	cln	#3##s##	spk2	170.31	170.5	0.01	_
20091112_RATP_SCD_0686	48	5	a	NULL	v	NULL	B_GVf	ROOT	0	idtext0051	avoir	P#3##s##	spk2	170.51	170.56	0.01	_
20091112_RATP_SCD_0686	48	6	rien	NULL	pro	NULL	B_GN	OBJ	5	idtext0051	rien	#####	spk2	170.57	170.69	0.01	_
20091112_RATP_SCD_0686	48	7	du+tout	NULL	adv	NULL	B_GADV	MOD	9	idtext0051	du+tout	#####	spk2	170.7	170.97	0.01	_
20091112_RATP_SCD_0686	48	8	hein	DISF_M	pres	NULL	NULL	NOLINK	0	idtext0051	hein	#####	spk2	170.98	171.01	0.01	_
20091112_RATP_SCD_0686	48	9	malheureusement	NULL	adv	NULL	I_GADV	MOD	10	idtext0051	malheureusement	#####	spk2	171.02	171.49	0.01	_
20091112_RATP_SCD_0686	48	10	alors	NULL	adv	NULL	I_GADV	ROOT	0	idtext0051	alors	#####	spk2	171.5	171.65	0.01	_
20091112_RATP_SCD_0686	48	11	j'	NULL	cln	NULL	B_GN	SUJ	13	idtext0051	cln	#1##s##	spk2	171.66	171.74	0.01	_
20091112_RATP_SCD_0686	48	12	ai	NULL	v	NULL	B_GVf	AUX	13	idtext0051	avoir	P#1##s##	spk2	171.75	171.78	0.01	_
20091112_RATP_SCD_0686	48	13	cherché	NULL	vppart	NULL	I_GVf	ROOT	0	idtext0051	chercher	K##m#s##	spk2	171.79	172.25	0.01	_
20091112_RATP_SCD_0686	48	14	à	NULL	prep	NULL	B_GP	MOD	13	idtext0051	à	#####	spk2	172.26	172.31	0.01	_
20091112_RATP_SCD_0686	48	15	partir	NULL	vinf	NULL	I_GP	OBJ	14	idtext0051	partir	W#####	spk2	172.32	172.6	0.01	_
20091112_RATP_SCD_0686	48	16	du	NULL	prep	NULL	B_GP	MOD	15	idtext0051	du	#####	spk2	172.61	172.71	0.01	_
20091112_RATP_SCD_0686	48	17	premier	NULL	adj	B_D	I_GP	MOD	18	idtext0051	premier	##m#s##	spk2	172.72	173.15	0.01	_
20091112_RATP_SCD_0686	48	18	novembre	NULL	nc	I_D	I_GP	OBJ	16	idtext0051	novembre	##m#s##	spk2	173.16	173.7	?	//

20091112_RATP_SCD_0686	49	1	ouais	NULL	adv	NULL	B_GADV	NOLINK	0	idtext0052	ouais	#####	spk3	173.9	174.23	?	//

20091112_RATP_SCD_0686	50	1	hein	DISF_M	pres	NULL	NULL	NOLINK	0	idtext0053	hein	#####	spk2	174.28	174.41	0.01	_
20091112_RATP_SCD_0686	50	2	j'	NULL	cln	NULL	B_GN	SUJ	4	idtext0053	cln	#1##s##	spk2	174.42	174.53	0.01	_
20091112_RATP_SCD_0686	50	3	ai	NULL	v	NULL	B_GVf	AUX	4	idtext0053	avoir	P#1##s##	spk2	174.54	174.56	0.01	_
20091112_RATP_SCD_0686	50	4	regardé	NULL	vppart	NULL	I_GVf	ROOT	0	idtext0053	regarder	K##m#s##	spk2	174.57	174.85	0.01	_
20091112_RATP_SCD_0686	50	5	à	NULL	prep	NULL	B_GP	OBJ	4	idtext0053	à	#####	spk2	174.86	174.9	0.01	_
20091112_RATP_SCD_0686	50	6	partir	NULL	vinf	NULL	I_GP	OBJ	5	idtext0053	partir	W#####	spk2	174.91	175.13	0.01	_
20091112_RATP_SCD_0686	50	7	du	NULL	prep	NULL	B_GP	MOD	6	idtext0053	du	#####	spk2	175.14	175.22	0.01	_
20091112_RATP_SCD_0686	50	8	premier	NULL	adj	B_D	I_GP	MOD	9	idtext0053	premier	##m#s##	spk2	175.23	175.46	0.01	_
20091112_RATP_SCD_0686	50	9	novembre	NULL	nc	I_D	I_GP	OBJ	7	idtext0053	novembre	##m#s##	spk2	175.47	175.72	0.01	_
20091112_RATP_SCD_0686	50	10	jusqu'à	NULL	prep	NULL	B_NULL	NOLINK	0	idtext0053	jusqu'à	#####	spk2	175.73	176.01	0.01	_
20091112_RATP_SCD_0686	50	11	aujourd'hui	NULL	adv	NULL	B_GADV	NOLINK	0	idtext0053	aujourd'hui	#####	spk2	176.02	176.51	0.01	_
20091112_RATP_SCD_0686	50	12	hein	DISF_M	pres	NULL	NULL	NOLINK	0	idtext0053	hein	#####	spk2	176.52	176.67	?	//

20091112_RATP_SCD_0686	51	1	et	NULL	coo	NULL	B_NULL	ROOT	0	idtext0054	et	#####	spk2	177.51	177.56	0.01	_
20091112_RATP_SCD_0686	51	2	malheureusement	NULL	adv	NULL	B_GADV	NOLINK	0	idtext0054	malheureusement	#####	spk2	177.57	178.05	0.01	_
20091112_RATP_SCD_0686	51	3	j'	NULL	cln	NULL	B_GN	SUJ	4	idtext0054	cln	#1##s##	spk2	178.06	178.17	0.01	_
20091112_RATP_SCD_0686	51	4	ai	NULL	v	NULL	B_GVfn	DEP_COORD	1	idtext0054	avoir	P#1##s##	spk2	178.18	178.2	0.01	_
20091112_RATP_SCD_0686	51	5	pas	NULL	advneg	NULL	I_GVfn	MOD	4	idtext0054	pas	#####	spk2	178.21	178.35	0.01	_
20091112_RATP_SCD_0686	51	6	de	NULL	det	NULL	B_GN	DET	7	idtext0054	de	###p##i	spk2	178.36	178.46	0.01	_
20091112_RATP_SCD_0686	51	7	carte	NULL	nc	NULL	I_GN	OBJ	4	idtext0054	carte	##f#s##	spk2	178.47	178.86	0.01	_
20091112_RATP_SCD_0686	51	8	euh	DISF_M	pres	NULL	NULL	NOLINK	0	idtext0054	euh	#####	spk2	178.87	178.89	0.01	_
20091112_RATP_SCD_0686	51	9	de	NULL	prep	NULL	B_GP	DEP	7	idtext0054	de	#####	spk2	178.9	179.48	0.01	_
20091112_RATP_SCD_0686	51	10	carte	NULL	nc	NULL	I_GP	OBJ	9	idtext0054	carte	##f#s##	spk2	179.49	179.84	0.01	_
20091112_RATP_SCD_0686	51	11	grise	NULL	adj	NULL	I_GP	MOD	10	idtext0054	gris	##f#s##	spk2	179.85	180.05	0.01	_
20091112_RATP_SCD_0686	51	12	identique	NULL	adj	NULL	I_GP	MOD	14	idtext0054	identique	###s##	spk2	180.06	180.51	0.01	//
20091112_RATP_SCD_0686	51	13	euh	DISF_M	pres	NULL	NULL	NOLINK	0	idtext0054	euh	#####	spk2	180.52	180.55	0.01	_
20091112_RATP_SCD_0686	51	14	carte	NULL	nc	NULL	B_GN	ROOT	0	idtext0054	carte	##f#s##	spk2	180.56	180.88	0.01	_
20091112_RATP_SCD_0686	51	15	grise	NULL	adj	NULL	I_GN	MOD	14	idtext0054	gris	##f#s##	spk2	180.89	181.16	0.01	_
20091112_RATP_SCD_0686	51	16	de	DISF_R	prep	NULL	NULL	NOLINK	0	idtext0054	de	#####	spk2	181.17	181.69	0.01	_
20091112_RATP_SCD_0686	51	17	de	NULL	prep	NULL	B_GP	DEP	14	idtext0054	de	#####	spk2	181.7	181.76	0.01	_
20091112_RATP_SCD_0686	51	18	voiture	NULL	nc	NULL	I_GP	OBJ	17	idtext0054	voiture	##f#s##	spk2	181.77	182.17	?	//

20091112_RATP_SCD_0686	52	1	quel	NULL	det	NULL	B_GN	DET	2	idtext0055	quel	##m#s##	spk3	182.53	182.76	0.01	_
20091112_RATP_SCD_0686	52	2	jour	NULL	nc	NULL	I_GN	ROOT	0	idtext0055	jour	##m#s##	spk3	182.77	183.22	?	//

20091112_RATP_SCD_0686	53	1	non	NULL	adv	NULL	B_GADV	MOD	2	idtext0056	non	#####	spk2	183.26	183.4	0.01	_
20091112_RATP_SCD_0686	53	2	malheureusement	NULL	adv	NULL	I_GADV	MOD	3	idtext0056	malheureusement	#####	spk2	183.41	183.94	0.01	_
20091112_RATP_SCD_0686	53	3	non	NULL	adv	NULL	I_GADV	ROOT	0	idtext0056	non	#####	spk2	183.95	184.1	?	_

20091112_RATP_SCD_0686	54	1	désolé	NULL	vppart	NULL	B_GVf	NOLINK	0	idtext0057	désoler	K##m#s##	spk2	185.85	186.36	?	//

