20091112_RATP_SCD_0152	1	1	NNAAMMEE	NULL	np	B_HU	B_GN	ROOT	0	idtext0000	ANONYM	NULL	spk1	3.48	3.75	0.04	_
20091112_RATP_SCD_0152	1	2	va	NULL	v	NULL	B_GVf	ROOT	0	idtext0001	aller	P#3##s##	spk1	3.79	3.92	0.01	_
20091112_RATP_SCD_0152	1	3	vous	NULL	clo	NULL	B_GN	A_OBJ	4	idtext0001	cln	#2##p##	spk1	3.93	4.1	0.01	_
20091112_RATP_SCD_0152	1	4	répondre	NULL	vinf	NULL	B_GVi	OBJ	2	idtext0001	répondre	W#####	spk1	4.11	4.89	?	//

20091112_RATP_SCD_0152	2	1	NNAAMMEE	NULL	np	B_HU	B_GN	ROOT	0	idtext0002	ANONYM	NULL	spk2	5.21	5.4	0.04	_
20091112_RATP_SCD_0152	2	2	bonjour	NULL	adv	NULL	B_GADV	NOLINK	0	idtext0003	bonjour	#####	spk2	5.44	5.72	?	//

20091112_RATP_SCD_0152	3	1	bonjour	NULL	adv	NULL	B_GADV	NOLINK	0	idtext0004	bonjour	#####	spk3	6.3	6.64	0.01	//
20091112_RATP_SCD_0152	3	2	monsieur	NULL	nc	NULL	B_GN	NOLINK	0	idtext0004	Monsieur	##m#s##	spk3	6.65	7.12	?	//

20091112_RATP_SCD_0152	4	1	monsieur	NULL	nc	NULL	B_GN	NOLINK	0	idtext0005	Monsieur	##m#s##	spk3	7.53	7.87	0.01	/
20091112_RATP_SCD_0152	4	2	j'	NULL	cln	NULL	B_GN	SUJ	3	idtext0005	cln	#1##s##	spk3	7.88	7.98	0.01	_
20091112_RATP_SCD_0152	4	3	ai	NULL	v	NULL	B_GVf	ROOT	0	idtext0005	avoir	P#1##s##	spk3	7.99	8.01	0.01	_
20091112_RATP_SCD_0152	4	4	un	NULL	det	NULL	B_GN	DET	5	idtext0005	un	##m#s##i	spk3	8.02	8.17	0.01	_
20091112_RATP_SCD_0152	4	5	renseignement	NULL	nc	NULL	I_GN	OBJ	3	idtext0005	renseignement	##m#s##	spk3	8.18	8.59	0.01	_
20091112_RATP_SCD_0152	4	6	à	NULL	prep	NULL	B_GP	P_OBJ	5	idtext0005	à	#####	spk3	8.6	8.62	0.01	_
20091112_RATP_SCD_0152	4	7	vous	NULL	clo	NULL	I_GP	A_OBJ	8	idtext0005	cln	#2##p##	spk3	8.63	8.82	0.01	_
20091112_RATP_SCD_0152	4	8	demander	NULL	vinf	NULL	B_GVi	OBJ	6	idtext0005	demander	W#####	spk3	8.83	9.54	?	//

20091112_RATP_SCD_0152	5	1	oui	NULL	adv	NULL	B_GADV	NOLINK	0	idtext0006	oui	#####	spk2	9.74	10.06	?	//

20091112_RATP_SCD_0152	6	1	j'	NULL	cln	NULL	B_GN	SUJ	2	idtext0007	cln	#1##s##	spk3	10.11	10.3	0.01	_
20091112_RATP_SCD_0152	6	2	ai	NULL	v	NULL	B_GVf	ROOT	0	idtext0007	avoir	P#1##s##	spk3	10.31	10.46	0.01	_
20091112_RATP_SCD_0152	6	3	grand	NULL	adj	NULL	B_GN	MOD	4	idtext0007	grand	##m#s##	spk3	10.47	10.68	0.01	_
20091112_RATP_SCD_0152	6	4	garçon	NULL	nc	NULL	I_GN	OBJ	2	idtext0007	garçon	##m#s##	spk3	10.69	11.11	0.01	_
20091112_RATP_SCD_0152	6	5	handicapé	NULL	adj	NULL	I_GN	MOD	4	idtext0007	handicapé	##m#s##	spk3	11.12	11.64	0.01	_
20091112_RATP_SCD_0152	6	6	mental	NULL	adj	NULL	I_GN	MOD	4	idtext0007	mental	##m#s##	spk3	11.65	12.21	0.01	_
20091112_RATP_SCD_0152	6	7	qui	NULL	prorel	NULL	B_NULL	SUJ	8	idtext0007	qui	#####	spk3	12.22	12.37	0.01	_
20091112_RATP_SCD_0152	6	8	a	NULL	v	NULL	B_GVf	MOD_REL	4	idtext0007	avoir	P#3##s##	spk3	12.38	12.44	0.01	_
20091112_RATP_SCD_0152	6	9	une	DISF_R	det	NULL	NULL	NOLINK	0	idtext0007	un	##f#s##i	spk3	12.45	12.94	0.01	_
20091112_RATP_SCD_0152	6	10	un	NULL	det	NULL	B_GN	DET	11	idtext0007	un	##m#s##i	spk3	12.95	13.09	0.01	_
20091112_RATP_SCD_0152	6	11	coupon	NULL	nc	NULL	I_GN	OBJ	8	idtext0007	coupon	##m#s##	spk3	13.1	13.5	0.01	_
20091112_RATP_SCD_0152	6	12	Améthyste	NULL	nc	B_PRD	I_GN	MOD	11	idtext0007	Améthyste	#####	spk3	13.51	14.44	?	//

20091112_RATP_SCD_0152	7	1	hm	DISF_M	pres	NULL	NULL	NOLINK	0	idtext0008	hm	#####	spk2	14.59	14.99	?	//

20091112_RATP_SCD_0152	8	1	bon	DISF_M	pres	NULL	NULL	NOLINK	0	idtext0009	bon	#####	spk3	15.03	15.39	0.01	_
20091112_RATP_SCD_0152	8	2	évidemment	NULL	adv	NULL	B_GADV	NOLINK	0	idtext0009	évidemment	#####	spk3	15.4	16.16	0.01	_
20091112_RATP_SCD_0152	8	3	ça	NULL	pro	NULL	B_GN	SUJ_IMP	5	idtext0009	ça	#####	spk3	16.17	16.25	0.01	_
20091112_RATP_SCD_0152	8	4	ne	NULL	clneg	NULL	B_GVfn	MOD	5	idtext0009	ne	#####	spk3	16.26	16.35	0.01	_
20091112_RATP_SCD_0152	8	5	dure	NULL	v	NULL	I_GVfn	ROOT	0	idtext0009	durer	PS#13##s##	spk3	16.36	16.49	0.01	_
20091112_RATP_SCD_0152	8	6	pas	NULL	advneg	NULL	I_GVfn	MOD	5	idtext0009	pas	#####	spk3	16.5	16.67	0.01	_
20091112_RATP_SCD_0152	8	7	un	NULL	det	NULL	B_GN	DET	8	idtext0009	un	##m#s##i	spk3	16.68	17.01	0.01	_
20091112_RATP_SCD_0152	8	8	an	NULL	nc	NULL	I_GN	OBJ	5	idtext0009	an	##m#s##	spk3	17.02	17.44	0.04	_
20091112_RATP_SCD_0152	8	9	il	NULL	cln	NULL	B_GN	SUJ_IMP	11	idtext0010	cln	#3#m#s##	spk3	17.48	17.62	0.01	_
20091112_RATP_SCD_0152	8	10	se	NULL	clr	NULL	B_GVf	AFF	11	idtext0010	se	#####	spk3	17.63	17.88	0.01	_
20091112_RATP_SCD_0152	8	11	démagnétise	NULL	v	NULL	I_GVf	ROOT	0	idtext0010	démagnétiser	PS#13##s##	spk3	17.89	18.95	0.64	//
20091112_RATP_SCD_0152	8	12	et	NULL	coo	NULL	B_NULL	ROOT	0	idtext0011	et	#####	spk3	19.59	19.95	0.01	_
20091112_RATP_SCD_0152	8	13	avant	NULL	adv	NULL	B_GADV	NOLINK	0	idtext0011	avant	#####	spk3	19.96	20.43	0.01	_
20091112_RATP_SCD_0152	8	14	j'	NULL	cln	NULL	B_GN	SUJ	15	idtext0011	cln	#1##s##	spk3	20.44	20.62	0.01	_
20091112_RATP_SCD_0152	8	15	allais	NULL	v	NULL	B_GVf	DEP_COORD	12	idtext0011	aller	I#12##s##	spk3	20.63	20.92	0.01	_
20091112_RATP_SCD_0152	8	16	euh	DISF_M	pres	NULL	NULL	NOLINK	0	idtext0011	euh	#####	spk3	20.93	21.13	0.01	_
20091112_RATP_SCD_0152	8	17	trente	NULL	nc	B_A	B_GN	P_OBJ_LOC	15	idtext0011	trente	##m###	spk3	21.14	21.5	0.01	_
20091112_RATP_SCD_0152	8	18	rue	NULL	nc	I_A	I_GN	MOD	17	idtext0011	rue	##f#s##	spk3	21.51	21.6	0.01	_
20091112_RATP_SCD_0152	8	19	Championnet	NULL	np	I_A	I_GN	MOD	18	idtext0011	Championnet	#####	spk3	21.61	22.43	?	//

20091112_RATP_SCD_0152	9	1	oui	NULL	adv	NULL	B_GADV	NOLINK	0	idtext0012	oui	#####	spk2	22.78	22.97	?	//

20091112_RATP_SCD_0152	10	1	le	NULL	clo	NULL	B_GN	OBJ	3	idtext0013	cla	#3#m#s##	spk3	23.32	23.42	0.01	_
20091112_RATP_SCD_0152	10	2	faire	NULL	vinf	NULL	B_GVi	ROOT	0	idtext0013	faire	W#####	spk3	23.43	23.65	0.01	_
20091112_RATP_SCD_0152	10	3	changer	NULL	vinf	NULL	B_GVi	OBJ	2	idtext0013	changer	W#####	spk3	23.66	24.38	?	//

20091112_RATP_SCD_0152	11	1	hm	DISF_M	pres	NULL	NULL	NOLINK	0	idtext0014	hm	#####	spk2	24.47	24.75	?	//

20091112_RATP_SCD_0152	12	1	mais	NULL	coo	NULL	B_NULL	ROOT	0	idtext0015	mais	#####	spk3	24.82	25.07	0.01	_
20091112_RATP_SCD_0152	12	2	leur	NULL	det	NULL	B_GN	DET	3	idtext0015	leur	###s##o	spk3	25.08	25.26	0.01	_
20091112_RATP_SCD_0152	12	3	numéro	NULL	nc	NULL	I_GN	SUJ	7	idtext0015	numéro	##m#s##	spk3	25.27	25.77	0.01	_
20091112_RATP_SCD_0152	12	4	de	NULL	prep	NULL	B_GP	DEP	3	idtext0015	de	#####	spk3	25.78	25.95	0.01	_
20091112_RATP_SCD_0152	12	5	téléphone	NULL	nc	NULL	I_GP	OBJ	4	idtext0015	téléphone	##m#s##	spk3	25.96	26.55	0.01	_
20091112_RATP_SCD_0152	12	6	a	NULL	v	NULL	B_GVf	AUX	7	idtext0015	avoir	P#3##s##	spk3	26.56	26.62	0.01	_
20091112_RATP_SCD_0152	12	7	changé	NULL	vppart	NULL	I_GVf	DEP_COORD	1	idtext0015	changer	K##m#s##	spk3	26.63	27.44	0.36	/
20091112_RATP_SCD_0152	12	8	auriez	NULL	v	NULL	B_GVf	ROOT	0	idtext0016	avoir	C#2##p##	spk3	27.8	28.05	0.01	_
20091112_RATP_SCD_0152	12	9	vous	NULL	cln	NULL	B_GN	SUJ	13	idtext0016	cln	#2##p##	spk3	28.06	28.22	0.01	/
20091112_RATP_SCD_0152	12	10	l'	NULL	det	NULL	B_GN	DET	11	idtext0016	le	###s##d	spk3	28.23	28.27	0.01	_
20091112_RATP_SCD_0152	12	11	amabilité	NULL	nc	NULL	I_GN	OBJ	8	idtext0016	amabilité	##f#s##	spk3	28.28	28.9	0.01	_
20091112_RATP_SCD_0152	12	12	de	NULL	prep	NULL	B_GP	DEP	11	idtext0016	de	#####	spk3	28.91	29.08	0.01	_
20091112_RATP_SCD_0152	12	13	lu	NULL	vppart	NULL	I_GP	OBJ	12	idtext0016	lire	K##m#s##	spk3	29.09	29.35	0.01	_
20091112_RATP_SCD_0152	12	14	de	NULL	prep	NULL	B_GP	DEP	13	idtext0016	de	#####	spk3	29.36	29.38	0.01	_
20091112_RATP_SCD_0152	12	15	me	NULL	clo	NULL	I_GP	A_OBJ	16	idtext0016	cla	#1##s##	spk3	29.39	29.48	0.01	_
20091112_RATP_SCD_0152	12	16	donner	NULL	vinf	NULL	B_GVi	OBJ	14	idtext0016	donner	W#####	spk3	29.49	29.8	0.01	_
20091112_RATP_SCD_0152	12	17	le	NULL	det	NULL	B_GN	DET	18	idtext0016	le	##m#s##d	spk3	29.81	29.88	0.01	_
20091112_RATP_SCD_0152	12	18	numéro	NULL	nc	NULL	I_GN	OBJ	16	idtext0016	numéro	##m#s##	spk3	29.89	30.37	0.01	_
20091112_RATP_SCD_0152	12	19	le	NULL	det	NULL	B_GN	DET	21	idtext0016	le	##m#s##d	spk3	30.38	30.51	0.01	_
20091112_RATP_SCD_0152	12	20	nouveau	NULL	adj	NULL	I_GN	MOD	21	idtext0016	nouveau	##m#s##	spk3	30.52	30.82	0.01	_
20091112_RATP_SCD_0152	12	21	numéro	NULL	nc	NULL	I_GN	OBJ	16	idtext0016	numéro	##m#s##	spk3	30.83	31.63	?	//

20091112_RATP_SCD_0152	13	1	alors	NULL	adv	NULL	B_GADV	NOLINK	0	idtext0017	alors	#####	spk2	32.44	32.81	0.01	_
20091112_RATP_SCD_0152	13	2	VGC	NULL	np	B_ORG	B_GN	SUJ	6	idtext0017	VGC	#####	spk2	32.82	33.24	0.01	_
20091112_RATP_SCD_0152	13	3	à	NULL	prep	NULL	B_GP	MOD	6	idtext0017	à	#####	spk2	33.25	33.28	0.01	_
20091112_RATP_SCD_0152	13	4	Championnet	NULL	nc	B_A	I_GP	OBJ	3	idtext0017	Championnet	#####	spk2	33.29	33.85	0.01	_
20091112_RATP_SCD_0152	13	5	c'	NULL	cln	NULL	B_GN	SUJ_IMP	6	idtext0017	ce	###s##	spk2	33.86	33.99	0.01	_
20091112_RATP_SCD_0152	13	6	est	NULL	v	NULL	B_GVf	ROOT	0	idtext0017	être	P#3##s##	spk2	34.0	34.03	0.01	_
20091112_RATP_SCD_0152	13	7	le	NULL	det	NULL	B_GN	DET	8	idtext0017	le	##m#s##d	spk2	34.04	34.2	0.01	_
20091112_RATP_SCD_0152	13	8	zéro+un+cinquante-huit	NULL	nc	B_TEL	I_GN	ATS	6	idtext0017	zéro+un+cinquante-huit	#####	spk2	34.21	35.6	?	//

20091112_RATP_SCD_0152	14	1	oui	NULL	adv	NULL	B_GADV	NOLINK	0	idtext0018	oui	#####	spk3	35.74	36.1	?	//

20091112_RATP_SCD_0152	15	1	soixante-dix-sept	NULL	nc	NULL	B_GN	ROOT	0	idtext0019	soixante-dix-sept	#####	spk2	36.68	37.28	0.01	_
20091112_RATP_SCD_0152	15	2	trois	NULL	det	NULL	I_GN	DET	3	idtext0019	trois	#####	spk2	37.29	37.5	0.01	_
20091112_RATP_SCD_0152	15	3	fois	NULL	nc	NULL	B_GN	NOLINK	0	idtext0019	foi	##f#p##	spk2	37.51	37.88	?	//

20091112_RATP_SCD_0152	16	1	soixante-dix-sept	NULL	nc	NULL	B_GN	ROOT	0	idtext0020	soixante-dix-sept	#####	spk3	38.92	39.79	0.01	_
20091112_RATP_SCD_0152	16	2	trois	NULL	det	NULL	B_GN	DET	3	idtext0020	trois	#####	spk3	39.8	40.0	0.01	_
20091112_RATP_SCD_0152	16	3	fois	NULL	nc	NULL	I_GN	NOLINK	0	idtext0020	foi	##f#p##	spk3	40.01	40.45	?	//

20091112_RATP_SCD_0152	17	1	hm	DISF_M	pres	NULL	NULL	NOLINK	0	idtext0021	hm	#####	spk2	40.5	40.7	?	//

20091112_RATP_SCD_0152	18	1	très+bien	NULL	adv	NULL	B_GADV	NOLINK	0	idtext0022	très+bien	#####	spk3	41.51	42.08	0.01	_
20091112_RATP_SCD_0152	18	2	je	NULL	cln	NULL	B_GN	SUJ	5	idtext0022	cln	#1##s##	spk3	42.09	42.25	0.01	_
20091112_RATP_SCD_0152	18	3	vous	NULL	clo	NULL	B_GN	OBJ	5	idtext0022	cln	#2##p##	spk3	42.26	42.36	0.01	_
20091112_RATP_SCD_0152	18	4	en	NULL	clo	NULL	B_GN	DE_OBJ	5	idtext0022	en	#####	spk3	42.37	42.43	0.01	_
20091112_RATP_SCD_0152	18	5	remercie	NULL	v	NULL	B_GVf	ROOT	0	idtext0022	remercier	PS#13##s##	spk3	42.44	42.97	?	//

20091112_RATP_SCD_0152	19	1	monsieur	NULL	nc	NULL	B_GN	NOLINK	0	idtext0023	Monsieur	##m#s##	spk3	43.01	43.39	?	//

20091112_RATP_SCD_0152	20	1	bonne	NULL	adj	NULL	B_GADJ	NOLINK	0	idtext0024	bon	##f#s##	spk2	43.25	43.39	?	_

20091112_RATP_SCD_0152	21	1	journée	NULL	nc	NULL	B_GN	ROOT	0	idtext0025	journée	##f#s##	spk2	43.43	43.6	0.01	/
20091112_RATP_SCD_0152	21	2	madame	NULL	nc	NULL	I_GN	MOD	1	idtext0025	Monsieur	##f#s##	spk2	43.61	43.83	0.01	_
20091112_RATP_SCD_0152	21	3	au+revoir	NULL	adv	NULL	B_GADV	NOLINK	0	idtext0025	au+revoir	#####	spk2	43.84	44.35	?	//

20091112_RATP_SCD_0152	22	1	au+revoir	NULL	adv	NULL	B_GADV	NOLINK	0	idtext0026	au+revoir	#####	spk3	44.39	45.01	?	//

