20091112_RATP_SCD_0901	1	1	NNAAMMEE	NULL	np	B_HU	B_GN	ROOT	0	idtext0000	ANONYM	NULL	spk1	3.06	3.53	0.06	_
20091112_RATP_SCD_0901	1	2	va	NULL	v	NULL	B_GVf	ROOT	0	idtext0001	aller	P#3##s##	spk1	3.59	3.65	0.01	_
20091112_RATP_SCD_0901	1	3	vous	NULL	clo	NULL	B_GN	A_OBJ	4	idtext0001	cln	#2##p##	spk1	3.66	3.88	0.01	_
20091112_RATP_SCD_0901	1	4	répondre	NULL	vinf	NULL	B_GVi	OBJ	2	idtext0001	répondre	W#####	spk1	3.89	4.47	?	//

20091112_RATP_SCD_0901	2	1	NNAAMMEE	NULL	np	B_HU	B_GN	ROOT	0	idtext0002	ANONYM	NULL	spk2	5.15	5.62	0.04	_
20091112_RATP_SCD_0901	2	2	bonjour	NULL	adv	NULL	B_GADV	NOLINK	0	idtext0003	bonjour	#####	spk2	5.66	6.22	?	//

20091112_RATP_SCD_0901	3	1	bonjour	NULL	adv	NULL	B_GADV	NOLINK	0	idtext0004	bonjour	#####	spk3	6.32	6.99	?	//

20091112_RATP_SCD_0901	4	1	oui	NULL	adv	NULL	B_GADV	MOD	2	idtext0005	oui	#####	spk2	7.03	7.11	0.01	_
20091112_RATP_SCD_0901	4	2	bonjour	NULL	adv	NULL	I_GADV	ROOT	0	idtext0005	bonjour	#####	spk2	7.12	7.49	?	//

20091112_RATP_SCD_0901	5	1	euh	DISF_M	pres	NULL	NULL	NOLINK	0	idtext0006	euh	#####	spk3	7.64	7.9	0.01	_
20091112_RATP_SCD_0901	5	2	je	NULL	cln	NULL	B_GN	SUJ	4	idtext0006	cln	#1##s##	spk3	7.91	8.37	0.01	_
20091112_RATP_SCD_0901	5	3	vous	NULL	clo	NULL	B_GN	A_OBJ	4	idtext0006	cln	#2##p##	spk3	8.38	8.57	0.01	_
20091112_RATP_SCD_0901	5	4	téléphone	NULL	v	NULL	B_GVf	ROOT	0	idtext0006	téléphoner	PS#13##s##	spk3	8.58	8.9	0.01	_
20091112_RATP_SCD_0901	5	5	là	NULL	adv	NULL	B_GADV	MOD	7	idtext0006	là	#####	spk3	8.91	8.98	0.01	_
20091112_RATP_SCD_0901	5	6	pour	NULL	prep	NULL	B_GP	MOD	4	idtext0006	pour	#####	spk3	8.99	9.3	0.01	_
20091112_RATP_SCD_0901	5	7	savoir	NULL	vinf	NULL	I_GP	OBJ	6	idtext0006	savoir	W#####	spk3	9.31	9.7	0.05	_
20091112_RATP_SCD_0901	5	8	sur	NULL	prep	NULL	B_GP	ROOT	0	idtext0007	sur	#####	spk3	9.75	9.97	0.01	_
20091112_RATP_SCD_0901	5	9	les	NULL	det	NULL	I_GP	DET	10	idtext0007	le	###p##d	spk3	9.98	10.13	0.01	_
20091112_RATP_SCD_0901	5	10	zones	NULL	nc	NULL	I_GP	OBJ	8	idtext0007	zone	##f#p##	spk3	10.14	10.5	0.01	_
20091112_RATP_SCD_0901	5	11	euh	DISF_M	pres	NULL	NULL	NOLINK	0	idtext0007	euh	#####	spk3	10.51	10.56	0.01	_
20091112_RATP_SCD_0901	5	12	carte	NULL	nc	B_PRD	I_GP	MOD	10	idtext0007	carte	##f#s##	spk3	10.57	10.87	0.01	_
20091112_RATP_SCD_0901	5	13	Orange	NULL	np	I_PRD	I_GP	MOD	12	idtext0007	Orange	##m#s##	spk3	10.88	11.17	0.01	_
20091112_RATP_SCD_0901	5	14	Découverte	NULL	np	I_PRD	I_GP	MOD	13	idtext0007	Découverte	#####	spk3	11.18	11.75	0.01	_
20091112_RATP_SCD_0901	5	15	euh	DISF_M	pres	I_PRD	NULL	NOLINK	0	idtext0007	euh	#####	spk3	11.76	11.81	0.01	_
20091112_RATP_SCD_0901	5	16	sur	NULL	prep	NULL	B_GP	ROOT	0	idtext0007	sur	#####	spk3	11.82	12.17	0.01	_
20091112_RATP_SCD_0901	5	17	Paris	NULL	nc	B_A	I_GP	OBJ	16	idtext0007	Paris	##m#s##	spk3	12.18	12.62	?	//

20091112_RATP_SCD_0901	6	1	oui	NULL	adv	NULL	B_GADV	NOLINK	0	idtext0008	oui	#####	spk2	12.84	13.12	?	//

20091112_RATP_SCD_0901	7	1	euh	DISF_M	pres	NULL	NULL	NOLINK	0	idtext0009	euh	#####	spk3	13.19	13.48	0.01	_
20091112_RATP_SCD_0901	7	2	hum	DISF_M	pres	NULL	NULL	NOLINK	0	idtext0009	hum	#####	spk3	13.49	14.26	0.38	_
20091112_RATP_SCD_0901	7	3	s()	DISF_T	tronc	NULL	NULL	NOLINK	0	idtext0010	s()	#####	spk3	14.64	14.69	0.01	_
20091112_RATP_SCD_0901	7	4	euh	DISF_M	pres	NULL	NULL	NOLINK	0	idtext0010	euh	#####	spk3	14.7	14.89	0.01	_
20091112_RATP_SCD_0901	7	5	s()	DISF_T	tronc	NULL	NULL	NOLINK	0	idtext0010	s()	#####	spk3	14.9	15.19	0.01	_
20091112_RATP_SCD_0901	7	6	euh	DISF_M	pres	NULL	NULL	NOLINK	0	idtext0010	euh	#####	spk3	15.2	15.25	0.01	_
20091112_RATP_SCD_0901	7	7	je	NULL	cln	NULL	B_GN	SUJ	8	idtext0011	cln	#1##s##	spk3	15.26	15.42	0.01	_
20091112_RATP_SCD_0901	7	8	voudrais	NULL	v	NULL	B_GVf	ROOT	0	idtext0011	vouloir	C#12##s##	spk3	15.43	15.73	0.01	_
20091112_RATP_SCD_0901	7	9	savoir	NULL	vinf	NULL	I_GVf	OBJ	8	idtext0012	savoir	W#####	spk3	15.74	16.08	0.28	_
20091112_RATP_SCD_0901	7	10	dans	NULL	prep	NULL	B_GP	P_OBJ	14	idtext0013	dans	#####	spk3	16.36	16.54	0.01	_
20091112_RATP_SCD_0901	7	11	quelle	NULL	det	NULL	I_GP	DET	12	idtext0013	quel	##f#s##	spk3	16.55	16.8	0.01	_
20091112_RATP_SCD_0901	7	12	zone	NULL	nc	NULL	I_GP	OBJ	10	idtext0013	zone	##f#s##	spk3	16.81	17.01	0.01	_
20091112_RATP_SCD_0901	7	13	est	NULL	v	NULL	B_GVf	AUX	14	idtext0013	être	P#3##s##	spk3	17.02	17.11	0.01	_
20091112_RATP_SCD_0901	7	14	situé	NULL	vppart	NULL	I_GVf	ROOT	0	idtext0013	situer	K##m#s##	spk3	17.12	17.44	0.01	_
20091112_RATP_SCD_0901	7	15	Champigny-sur-Marne	NULL	nc	B_A	B_GN	NOLINK	0	idtext0013	Champigny-sur-Marne	##m#s##	spk3	17.45	18.96	0.13	_
20091112_RATP_SCD_0901	7	16	c'est-à-dire	NULL	coo	NULL	B_NULL	ROOT	0	idtext0014	c'est-à-dire	#####	spk3	19.09	19.69	0.01	_
20091112_RATP_SCD_0901	7	17	si	NULL	csu	NULL	B_NULL	OBJ	16	idtext0014	si	#####	spk3	19.7	19.81	0.01	_
20091112_RATP_SCD_0901	7	18	je	NULL	cln	NULL	B_GN	SUJ	19	idtext0014	cln	#1##s##	spk3	19.82	19.95	0.01	_
20091112_RATP_SCD_0901	7	19	prends	NULL	v	NULL	B_GVf	OBJ	17	idtext0014	prendre	P#12##s##	spk3	19.96	20.3	0.01	_
20091112_RATP_SCD_0901	7	20	une	NULL	det	NULL	B_GN	DET	21	idtext0014	un	##f#s##i	spk3	20.31	20.47	0.01	_
20091112_RATP_SCD_0901	7	21	carte	NULL	nc	B_PRD	I_GN	OBJ	19	idtext0014	carte	##f#s##	spk3	20.48	20.76	0.01	_
20091112_RATP_SCD_0901	7	22	Orange	NULL	np	I_PRD	I_GN	MOD	21	idtext0014	Orange	##m#s##	spk3	20.77	21.16	0.01	_
20091112_RATP_SCD_0901	7	23	à	NULL	prep	NULL	B_GP	MOD	21	idtext0014	à	#####	spk3	21.17	21.26	0.01	_
20091112_RATP_SCD_0901	7	24	trente-sept	NULL	det	B_P	I_GP	DET	25	idtext0014	trente-sept	#####	spk3	21.27	21.8	0.01	_
20091112_RATP_SCD_0901	7	25	euros	NULL	nc	I_P	I_GP	OBJ	23	idtext0014	euro	##m#p##	spk3	21.81	22.17	0.01	_
20091112_RATP_SCD_0901	7	26	vingt	NULL	adj	I_P	I_GP	MOD	25	idtext0014	vingt	#####	spk3	22.18	22.4	0.57	//
20091112_RATP_SCD_0901	7	27	euh	DISF_M	pres	NULL	NULL	NOLINK	0	idtext0015	euh	#####	spk3	22.97	23.33	0.01	_
20091112_RATP_SCD_0901	7	28	pour	NULL	prep	NULL	B_GP	ROOT	0	idtext0015	pour	#####	spk3	23.34	23.53	0.01	_
20091112_RATP_SCD_0901	7	29	la	NULL	det	NULL	I_GP	DET	30	idtext0015	le	##m#s##d	spk3	23.54	23.71	0.01	_
20091112_RATP_SCD_0901	7	30	semaine	NULL	nc	NULL	I_GP	OBJ	28	idtext0015	semaine	##f#s##	spk3	23.72	24.05	0.04	_
20091112_RATP_SCD_0901	7	31	est-ce+que	NULL	pri	NULL	B_NULL	NOLINK	0	idtext0016	est-ce+que	#####	spk3	24.09	24.39	0.01	_
20091112_RATP_SCD_0901	7	32	s()	DISF_T	tronc	NULL	NULL	NOLINK	0	idtext0016	s()	#####	spk3	24.4	24.51	0.01	_
20091112_RATP_SCD_0901	7	33	je	NULL	cln	NULL	B_GN	SUJ	35	idtext0016	cln	#1##s##	spk3	24.52	25.15	0.01	_
20091112_RATP_SCD_0901	7	34	suis	NULL	v	NULL	B_GVf	AUX	35	idtext0016	être	P#1##s##	spk3	25.16	25.45	0.01	_
20091112_RATP_SCD_0901	7	35	desservi	NULL	vppart	NULL	I_GVf	ROOT	0	idtext0016	desservir	K##m#s##	spk3	25.46	25.95	0.01	_
20091112_RATP_SCD_0901	7	36	ou	NULL	coo	NULL	B_NULL	COORD	35	idtext0016	ou	#####	spk3	25.96	26.09	0.01	_
20091112_RATP_SCD_0901	7	37	pas	NULL	advneg	NULL	B_NULL	DEP_COORD	36	idtext0016	pas	#####	spk3	26.1	26.38	?	_

20091112_RATP_SCD_0901	8	1	à	NULL	prep	NULL	B_GP	ROOT	0	idtext0017	à	#####	spk3	26.83	26.87	0.01	_
20091112_RATP_SCD_0901	8	2	Champigny-sur-Marne	NULL	nc	B_A	I_GP	OBJ	1	idtext0017	Champigny-sur-Marne	##m#s##	spk3	26.88	27.95	?	//

20091112_RATP_SCD_0901	9	1	je	NULL	cln	NULL	B_GN	SUJ	2	idtext0018	cln	#1##s##	spk2	27.99	28.17	0.01	_
20091112_RATP_SCD_0901	9	2	vais	NULL	v	NULL	B_GVf	ROOT	0	idtext0018	aller	P#1##s##	spk2	28.18	28.23	0.01	_
20091112_RATP_SCD_0901	9	3	vous	NULL	clo	NULL	B_GN	A_OBJ	4	idtext0018	cln	#2##p##	spk2	28.24	28.29	0.01	_
20091112_RATP_SCD_0901	9	4	dire	NULL	vinf	NULL	B_GVi	OBJ	2	idtext0018	dire	W#####	spk2	28.3	28.57	0.01	_
20091112_RATP_SCD_0901	9	5	ça	NULL	pro	NULL	B_GN	OBJ	4	idtext0018	ça	#####	spk2	28.58	28.9	?	//

20091112_RATP_SCD_0901	10	1	alors	NULL	adv	NULL	B_GADV	NOLINK	0	idtext0019	alors	#####	spk2	29.67	29.96	0.01	_
20091112_RATP_SCD_0901	10	2	Champigny	NULL	nc	B_A	B_GN	NOLINK	0	idtext0020	Champigny	##m#s##	spk2	29.97	30.89	?	//

20091112_RATP_SCD_0901	11	1	et	NULL	coo	NULL	B_NULL	ROOT	0	idtext0021	et	#####	spk2	32.05	32.2	0.01	_
20091112_RATP_SCD_0901	11	2	en+tout	NULL	adv	NULL	B_GADV	NOLINK	0	idtext0021	en+tout	#####	spk2	32.21	32.5	0.01	_
20091112_RATP_SCD_0901	11	3	en	NULL	prep	NULL	B_GP	MOD	9	idtext0021	en	#####	spk2	32.51	32.6	0.01	_
20091112_RATP_SCD_0901	11	4	venant	NULL	vprespart	NULL	I_GP	OBJ	3	idtext0021	venir	G#####	spk2	32.61	32.9	0.01	_
20091112_RATP_SCD_0901	11	5	sur	NULL	prep	NULL	B_GP	P_OBJ_LOC	4	idtext0021	sur	#####	spk2	32.91	33.02	0.01	_
20091112_RATP_SCD_0901	11	6	Paris	NULL	nc	B_A	I_GP	OBJ	5	idtext0021	Paris	##m#s##	spk2	33.03	33.37	0.01	//
20091112_RATP_SCD_0901	11	7	hein	DISF_M	pres	I_A	NULL	NOLINK	0	idtext0021	hein	#####	spk2	33.38	33.46	0.01	_
20091112_RATP_SCD_0901	11	8	on	NULL	cln	NULL	B_GN	SUJ	9	idtext0021	cln	#3##s##	spk2	33.47	33.56	0.01	_
20091112_RATP_SCD_0901	11	9	est	NULL	v	NULL	B_GVf	DEP_COORD	1	idtext0021	être	P#3##s##	spk2	33.57	33.59	0.01	_
20091112_RATP_SCD_0901	11	10	bien	NULL	adv	NULL	B_GADV	MOD	11	idtext0021	bien	#####	spk2	33.6	33.69	0.01	_
20091112_RATP_SCD_0901	11	11	d'accord	NULL	adv	NULL	I_GADV	ATS	9	idtext0021	d'accord	#####	spk2	33.7	34.0	0.01	_
20091112_RATP_SCD_0901	11	12	hein	DISF_M	pres	NULL	NULL	NOLINK	0	idtext0021	hein	#####	spk2	34.01	34.17	?	//

20091112_RATP_SCD_0901	12	1	oui	DISF_R	adv	NULL	NULL	NOLINK	0	idtext0022	oui	#####	spk3	34.26	34.52	0.01	_
20091112_RATP_SCD_0901	12	2	oui	NULL	adv	NULL	B_GADV	NOLINK	0	idtext0022	oui	#####	spk3	34.53	34.77	?	_

20091112_RATP_SCD_0901	13	1	en	NULL	prep	NULL	B_GP	ROOT	0	idtext0023	en	#####	spk3	34.81	34.95	0.01	_
20091112_RATP_SCD_0901	13	2	venant	NULL	vprespart	NULL	I_GP	OBJ	1	idtext0023	venir	G#####	spk3	34.96	35.08	0.01	_
20091112_RATP_SCD_0901	13	3	à	NULL	prep	NULL	B_GP	P_OBJ_LOC	2	idtext0023	à	#####	spk3	35.09	35.16	0.01	_
20091112_RATP_SCD_0901	13	4	Paris	NULL	nc	B_A	I_GP	OBJ	3	idtext0023	Paris	##m#s##	spk3	35.17	35.48	0.01	_
20091112_RATP_SCD_0901	13	5	en	NULL	prep	NULL	B_GP	MOD	4	idtext0023	en	#####	spk3	35.49	35.57	0.01	_
20091112_RATP_SCD_0901	13	6	prenant	NULL	vprespart	NULL	I_GP	OBJ	5	idtext0023	prendre	G#####	spk3	35.58	36.26	0.01	_
20091112_RATP_SCD_0901	13	7	une	NULL	det	NULL	B_GN	DET	8	idtext0023	un	##f#s##i	spk3	36.27	36.46	0.01	_
20091112_RATP_SCD_0901	13	8	carte	NULL	nc	B_PRD	I_GN	OBJ	6	idtext0023	carte	##f#s##	spk3	36.47	37.61	0.01	_
20091112_RATP_SCD_0901	13	9	Orange	NULL	np	I_PRD	I_GN	MOD	8	idtext0023	Orange	##m#s##	spk3	37.62	38.09	?	//

20091112_RATP_SCD_0901	14	1	euh	DISF_M	pres	NULL	NULL	NOLINK	0	idtext0024	euh	#####	spk2	34.81	34.83	0.01	//
20091112_RATP_SCD_0901	14	2	hum	DISF_M	pres	NULL	NULL	NOLINK	0	idtext0024	hum	#####	spk2	34.84	35.01	0.01	_
20091112_RATP_SCD_0901	14	3	d'accord	DISF_R	adv	NULL	NULL	NOLINK	0	idtext0024	d'accord	#####	spk2	35.02	35.74	0.01	_
20091112_RATP_SCD_0901	14	4	hm	DISF_M	pres	NULL	NULL	NOLINK	0	idtext0025	hm	#####	spk2	35.75	36.12	0.01	_
20091112_RATP_SCD_0901	14	5	d'accord	NULL	adv	NULL	B_GADV	NOLINK	0	idtext0025	d'accord	#####	spk2	36.13	38.09	?	//

20091112_RATP_SCD_0901	15	1	hm	DISF_M	pres	NULL	NULL	NOLINK	0	idtext0026	hm	#####	spk2	38.2	38.41	0.15	/
20091112_RATP_SCD_0901	15	2	il	NULL	cln	NULL	B_GN	SUJ_IMP	4	idtext0027	cln	#3#m#s##	spk2	38.56	38.61	0.01	_
20091112_RATP_SCD_0901	15	3	y	NULL	clo	NULL	B_GN	AFF	4	idtext0027	y	#####	spk2	38.62	38.65	0.01	_
20091112_RATP_SCD_0901	15	4	a	NULL	v	NULL	B_GVf	ROOT	0	idtext0027	avoir	P#3##s##	spk2	38.66	38.69	0.01	_
20091112_RATP_SCD_0901	15	5	aucun	NULL	det	NULL	B_GN	DET	6	idtext0027	aucun	##m#s##i	spk2	38.7	38.9	0.01	_
20091112_RATP_SCD_0901	15	6	problème	NULL	nc	NULL	I_GN	OBJ	4	idtext0027	problème	##m#s##	spk2	38.91	39.45	0.70	/
20091112_RATP_SCD_0901	15	7	donc	NULL	coo	NULL	B_NULL	NOLINK	0	idtext0028	donc	#####	spk2	40.15	40.51	0.01	_
20091112_RATP_SCD_0901	15	8	euh	DISF_M	pres	NULL	NULL	NOLINK	0	idtext0028	euh	#####	spk2	40.52	40.69	?	//

20091112_RATP_SCD_0901	16	1	alors	NULL	adv	NULL	B_GADV	NOLINK	0	idtext0029	alors	#####	spk2	44.7	44.99	0.01	_
20091112_RATP_SCD_0901	16	2	vous	NULL	cln	NULL	B_GN	SUJ	3	idtext0029	cln	#2##p##	spk2	45.0	45.15	0.01	_
20091112_RATP_SCD_0901	16	3	êtes	NULL	v	NULL	B_GVf	ROOT	0	idtext0029	être	P#2##p##	spk2	45.16	45.48	0.01	_
20091112_RATP_SCD_0901	16	4	en	NULL	prep	NULL	B_GP	ATS	3	idtext0029	en	#####	spk2	45.49	45.65	0.01	_
20091112_RATP_SCD_0901	16	5	zone	NULL	nc	NULL	I_GP	OBJ	4	idtext0029	zone	##f#s##	spk2	45.66	46.27	0.01	_
20091112_RATP_SCD_0901	16	6	une	NULL	nc	NULL	I_GP	MOD	5	idtext0029	une	##f#s##	spk2	46.28	46.5	0.01	_
20091112_RATP_SCD_0901	16	7	à	NULL	prep	NULL	B_GP	DEP	6	idtext0029	à	#####	spk2	46.51	46.65	0.01	_
20091112_RATP_SCD_0901	16	8	trois	NULL	nc	NULL	I_GP	OBJ	7	idtext0029	trois	##m###	spk2	46.66	47.11	?	//

20091112_RATP_SCD_0901	17	1	c'est-à-dire	NULL	coo	NULL	B_NULL	NOLINK	0	idtext0030	c'est-à-dire	#####	spk2	48.0	48.71	0.04	_
20091112_RATP_SCD_0901	17	2	une	NULL	det	NULL	B_NULL	NOLINK	0	idtext0031	un	##f#s##i	spk2	48.75	48.95	0.01	_
20091112_RATP_SCD_0901	17	3	en	NULL	prep	NULL	B_GP	ROOT	0	idtext0031	en	#####	spk2	48.96	49.2	0.01	_
20091112_RATP_SCD_0901	17	4	trois	NULL	nc	NULL	I_GP	OBJ	3	idtext0031	trois	##m###	spk2	49.21	49.72	0.49	//
20091112_RATP_SCD_0901	17	5	euh	DISF_M	pres	NULL	NULL	NOLINK	0	idtext0032	euh	#####	spk2	50.21	50.68	0.06	_
20091112_RATP_SCD_0901	17	6	hebdomadaire	NULL	adj	NULL	B_GADJ	NOLINK	0	idtext0033	hebdomadaire	###s##	spk2	50.74	51.41	0.01	_
20091112_RATP_SCD_0901	17	7	c'	NULL	cln	NULL	B_GN	SUJ_IMP	8	idtext0033	ce	###s##	spk2	51.42	51.48	0.01	_
20091112_RATP_SCD_0901	17	8	est	NULL	v	NULL	B_GVf	ROOT	0	idtext0033	être	P#3##s##	spk2	51.49	51.53	0.01	_
20091112_RATP_SCD_0901	17	9	vingt-sept	NULL	nc	B_P	B_GN	ATS	8	idtext0033	vingt-sept	#####	spk2	51.54	52.1	0.01	_
20091112_RATP_SCD_0901	17	10	quatre-vingt-dix	NULL	nc	I_P	I_GN	MOD	9	idtext0033	quatre-vingt-dix	##m###	spk2	52.11	53.28	?	//

20091112_RATP_SCD_0901	18	1	oui	NULL	adv	NULL	B_GADV	NOLINK	0	idtext0034	oui	#####	spk3	53.86	54.34	?	//

20091112_RATP_SCD_0901	19	1	euh	DISF_M	pres	NULL	NULL	NOLINK	0	idtext0035	euh	#####	spk2	54.02	54.34	?	//

20091112_RATP_SCD_0901	20	1	une	NULL	det	NULL	B_NULL	DET	5	idtext0036	un	##f#s##i	spk2	54.38	54.54	0.01	_
20091112_RATP_SCD_0901	20	2	à	NULL	prep	NULL	B_GP	ROOT	0	idtext0036	à	#####	spk2	54.55	54.6	0.01	_
20091112_RATP_SCD_0901	20	3	trois	NULL	nc	NULL	I_GP	OBJ	2	idtext0036	trois	##m###	spk2	54.61	54.75	0.01	_
20091112_RATP_SCD_0901	20	4	pardon	DISF_M	pres	NULL	NULL	NOLINK	0	idtext0036	pardon	#####	spk2	54.76	55.0	0.01	_
20091112_RATP_SCD_0901	20	5	vingt-deux	NULL	nc	NULL	I_GP	ROOT	0	idtext0036	vingt-deux	#####	spk2	55.01	55.51	0.01	_
20091112_RATP_SCD_0901	20	6	soixante-dix	NULL	nc	NULL	B_GN	MOD	5	idtext0036	soixante-dix	##m###	spk2	55.52	56.12	0.06	_
20091112_RATP_SCD_0901	20	7	pardon	DISF_M	pres	NULL	NULL	NOLINK	0	idtext0037	pardon	#####	spk2	56.18	56.37	0.01	_
20091112_RATP_SCD_0901	20	8	excusez	NULL	v	NULL	B_GVf	ROOT	0	idtext0037	excuser	P#2##p##	spk2	56.38	56.7	0.01	_
20091112_RATP_SCD_0901	20	9	-moi	NULL	clo	NULL	B_GN	OBJ	8	idtext0037	cla	#1##s##	spk2	56.71	56.86	0.01	_
20091112_RATP_SCD_0901	20	10	vingt-deux	NULL	nc	NULL	B_GN	NOLINK	0	idtext0037	vingt-deux	#####	spk2	56.87	57.51	0.42	_
20091112_RATP_SCD_0901	20	11	soixante-dix	NULL	nc	NULL	B_GN	NOLINK	0	idtext0038	soixante-dix	##m###	spk2	57.93	58.92	?	_

20091112_RATP_SCD_0901	21	1	parce+que	NULL	csu	NULL	B_NULL	ROOT	0	idtext0039	parce+que	#####	spk3	59.03	59.26	0.01	_
20091112_RATP_SCD_0901	21	2	moi	NULL	pro	NULL	B_GN	SUJ	5	idtext0039	moi	#####	spk3	59.27	59.4	0.01	_
20091112_RATP_SCD_0901	21	3	j'	NULL	cln	NULL	B_GN	SUJ	5	idtext0039	cln	#1##s##	spk3	59.41	59.48	0.01	_
20091112_RATP_SCD_0901	21	4	en	NULL	clo	NULL	B_GN	OBJ	5	idtext0039	en	#####	spk3	59.49	59.61	0.01	_
20091112_RATP_SCD_0901	21	5	avais	NULL	v	NULL	B_GVf	OBJ	1	idtext0039	avoir	I#12##s##	spk3	59.62	59.93	0.04	_
20091112_RATP_SCD_0901	21	6	j'	NULL	cln	NULL	B_GN	SUJ	7	idtext0040	cln	#1##s##	spk3	59.97	59.99	0.01	_
20091112_RATP_SCD_0901	21	7	avais	NULL	v	NULL	B_GVf	ROOT	0	idtext0040	avoir	I#12##s##	spk3	60.0	60.08	0.01	_
20091112_RATP_SCD_0901	21	8	un	NULL	det	NULL	B_GN	DET	9	idtext0040	un	##m#s##i	spk3	60.09	60.18	0.01	_
20091112_RATP_SCD_0901	21	9	tarif	NULL	nc	NULL	I_GN	OBJ	7	idtext0040	tarif	##m#s##	spk3	60.19	60.48	0.01	//
20091112_RATP_SCD_0901	21	10	là	NULL	adv	NULL	B_GADV	MOD	9	idtext0040	là	#####	spk3	60.49	60.64	0.01	_
20091112_RATP_SCD_0901	21	11	de	NULL	prep	NULL	B_GP	MOD	9	idtext0040	de	#####	spk3	60.65	60.77	0.01	_
20091112_RATP_SCD_0901	21	12	juillet	NULL	nc	B_D	I_GP	OBJ	11	idtext0040	juillet	##m#s##	spk3	60.78	61.14	0.01	_
20091112_RATP_SCD_0901	21	13	deux+mille+neuf	NULL	nc	I_D	I_GP	MOD	12	idtext0040	deux+mille+neuf	#####	spk3	61.15	61.69	0.52	_
20091112_RATP_SCD_0901	21	14	un	NULL	det	NULL	B_NULL	SUJ	18	idtext0041	un	##m#s##i	spk3	62.21	62.44	0.01	_
20091112_RATP_SCD_0901	21	15	à	NULL	prep	NULL	B_GP	DEP	14	idtext0041	à	#####	spk3	62.45	62.69	0.01	_
20091112_RATP_SCD_0901	21	16	trois	NULL	nc	NULL	I_GP	OBJ	15	idtext0041	trois	##m###	spk3	62.7	62.84	0.01	_
20091112_RATP_SCD_0901	21	17	ils	NULL	cln	NULL	B_GN	SUJ	18	idtext0041	cln	#3#m#p##	spk3	62.85	62.9	0.01	_
20091112_RATP_SCD_0901	21	18	mettaient	NULL	v	NULL	B_GVf	ROOT	0	idtext0041	mettre	I#3##p##	spk3	62.91	63.27	0.01	_
20091112_RATP_SCD_0901	21	19	vingt-deux	NULL	nc	NULL	B_GN	OBJ	18	idtext0041	vingt-deux	#####	spk3	63.28	63.65	0.01	_
20091112_RATP_SCD_0901	21	20	trente	NULL	nc	NULL	I_GN	MOD	19	idtext0041	trente	##m###	spk3	63.66	63.92	0.04	_
20091112_RATP_SCD_0901	21	21	c'	NULL	cln	NULL	B_GN	SUJ_IMP	22	idtext0042	ce	###s##	spk3	63.96	63.98	0.01	_
20091112_RATP_SCD_0901	21	22	est	NULL	v	NULL	B_GVf	ROOT	0	idtext0042	être	P#3##s##	spk3	63.99	64.14	0.01	_
20091112_RATP_SCD_0901	21	23	ça	NULL	pro	NULL	B_GN	ATS	22	idtext0042	ça	#####	spk3	64.15	64.28	0.01	_
20091112_RATP_SCD_0901	21	24	a	NULL	v	NULL	B_GVf	AUX	25	idtext0042	avoir	P#3##s##	spk3	64.29	64.32	0.01	_
20091112_RATP_SCD_0901	21	25	augmenté	NULL	vppart	NULL	I_GVf	MOD_REL	23	idtext0042	augmenter	K##m#s##	spk3	64.33	64.68	0.01	_
20091112_RATP_SCD_0901	21	26	peut-être	NULL	adv	NULL	B_GADV	MOD	25	idtext0043	peut-être	#####	spk3	64.69	65.06	?	//

20091112_RATP_SCD_0901	22	1	euh	DISF_M	pres	NULL	NULL	NOLINK	0	idtext0044	euh	#####	spk2	65.61	65.68	0.01	_
20091112_RATP_SCD_0901	22	2	oui	NULL	adv	NULL	B_GADV	NOLINK	0	idtext0044	oui	#####	spk2	65.69	65.81	0.01	_
20091112_RATP_SCD_0901	22	3	c'	NULL	cln	NULL	B_GN	SUJ_IMP	4	idtext0044	ce	###s##	spk2	65.82	65.87	0.01	_
20091112_RATP_SCD_0901	22	4	est	NULL	v	NULL	B_GVf	ROOT	0	idtext0044	être	P#3##s##	spk2	65.88	65.93	0.01	_
20091112_RATP_SCD_0901	22	5	vingt-deux	NULL	nc	B_P	B_GN	ATS	4	idtext0044	vingt-deux	#####	spk2	65.94	66.26	0.01	_
20091112_RATP_SCD_0901	22	6	soixante-dix	NULL	nc	I_P	I_GN	MOD	5	idtext0044	soixante-dix	##m###	spk2	66.27	66.81	0.01	_
20091112_RATP_SCD_0901	22	7	là	NULL	adv	NULL	B_GADV	NOLINK	0	idtext0044	là	#####	spk2	66.82	67.06	?	//

20091112_RATP_SCD_0901	23	1	ça	NULL	pro	NULL	B_GN	SUJ_IMP	3	idtext0045	ça	#####	spk3	67.18	67.23	0.01	_
20091112_RATP_SCD_0901	23	2	a	NULL	v	NULL	B_GVf	AUX	3	idtext0045	avoir	P#3##s##	spk3	67.24	67.28	0.01	_
20091112_RATP_SCD_0901	23	3	augmenté	NULL	vppart	NULL	I_GVf	ROOT	0	idtext0045	augmenter	K##m#s##	spk3	67.29	67.69	0.01	_
20091112_RATP_SCD_0901	23	4	d'accord	NULL	adv	NULL	B_GADV	NOLINK	0	idtext0045	d'accord	#####	spk3	67.7	67.97	?	//

20091112_RATP_SCD_0901	24	1	oui	NULL	adv	NULL	B_GADV	MOD	2	idtext0046	oui	#####	spk2	68.01	68.23	0.01	_
20091112_RATP_SCD_0901	24	2	alors	NULL	adv	NULL	I_GADV	ROOT	0	idtext0046	alors	#####	spk2	68.24	68.47	0.42	_
20091112_RATP_SCD_0901	24	3	plus	NULL	adv	NULL	B_GADV	NOLINK	0	idtext0047	plus	#####	spk2	68.89	69.29	0.14	_
20091112_RATP_SCD_0901	24	4	le	NULL	det	NULL	B_GN	DET	5	idtext0048	le	##m#s##d	spk2	69.43	69.63	0.01	_
20091112_RATP_SCD_0901	24	5	passe	NULL	nc	NULL	I_GN	ROOT	0	idtext0048	passe	###s##	spk2	69.64	70.17	?	//

20091112_RATP_SCD_0901	25	1	euh	DISF_M	pres	NULL	NULL	NOLINK	0	idtext0049	euh	#####	spk2	70.71	70.81	0.01	_
20091112_RATP_SCD_0901	25	2	Navigo+Découverte	NULL	np	B_PRD	B_GN	SUJ	6	idtext0049	Navigo+Découverte	#####	spk2	70.82	71.73	0.01	_
20091112_RATP_SCD_0901	25	3	la	NULL	det	NULL	B_GN	DET	4	idtext0049	le	##m#s##d	spk2	71.74	71.85	0.01	_
20091112_RATP_SCD_0901	25	4	valeur	NULL	nc	NULL	I_GN	SUJ	6	idtext0049	valeur	##f#s##	spk2	71.86	72.13	0.01	_
20091112_RATP_SCD_0901	25	5	c'	NULL	cln	NULL	B_GN	SUJ_IMP	6	idtext0049	ce	###s##	spk2	72.14	72.23	0.01	_
20091112_RATP_SCD_0901	25	6	est	NULL	v	NULL	B_GVf	ROOT	0	idtext0049	être	P#3##s##	spk2	72.24	72.28	0.01	_
20091112_RATP_SCD_0901	25	7	cinq	NULL	det	B_P	B_GN	DET	8	idtext0049	cinq	#####	spk2	72.29	72.58	0.01	_
20091112_RATP_SCD_0901	25	8	euros	NULL	nc	I_P	I_GN	ATS	6	idtext0049	euro	##m#p##	spk2	72.59	72.81	?	//

20091112_RATP_SCD_0901	26	1	euh	DISF_M	pres	NULL	NULL	NOLINK	0	idtext0050	euh	#####	spk3	74.57	74.94	0.01	_
20091112_RATP_SCD_0901	26	2	valable	NULL	adj	NULL	B_GADJ	NOLINK	0	idtext0050	valable	###s##	spk3	74.95	75.26	0.01	_
20091112_RATP_SCD_0901	26	3	une	NULL	det	NULL	B_GN	DET	4	idtext0050	un	##f#s##i	spk3	75.27	75.32	0.01	_
20091112_RATP_SCD_0901	26	4	semaine	NULL	nc	NULL	I_GN	ROOT	0	idtext0050	semaine	##f#s##	spk3	75.33	75.61	0.06	_
20091112_RATP_SCD_0901	26	5	se	NULL	clr	NULL	B_GVi	AFF	6	idtext0051	se	#####	spk3	75.67	75.86	0.01	_
20091112_RATP_SCD_0901	26	6	munir	NULL	vinf	NULL	I_GVi	ROOT	0	idtext0051	munir	W#####	spk3	75.87	76.11	0.01	_
20091112_RATP_SCD_0901	26	7	d'	NULL	prep	NULL	B_GP	DE_OBJ	6	idtext0051	d'	#####	spk3	76.12	76.18	0.01	_
20091112_RATP_SCD_0901	26	8	une	NULL	det	NULL	I_GP	DET	9	idtext0051	un	##f#s##i	spk3	76.19	76.34	0.01	_
20091112_RATP_SCD_0901	26	9	photo	NULL	nc	NULL	I_GP	OBJ	7	idtext0051	photo	##f#s##	spk3	76.35	76.63	0.01	_
20091112_RATP_SCD_0901	26	10	d'	NULL	prep	NULL	B_GP	DEP	9	idtext0051	d'	#####	spk3	76.64	76.68	0.01	_
20091112_RATP_SCD_0901	26	11	identité	NULL	nc	NULL	I_GP	OBJ	10	idtext0051	identité	##f#s##	spk3	76.69	77.24	0.01	/
20091112_RATP_SCD_0901	26	12	pour	NULL	prep	NULL	B_GP	MOD	6	idtext0051	pour	#####	spk3	77.25	77.44	0.01	_
20091112_RATP_SCD_0901	26	13	créer	NULL	vinf	NULL	I_GP	OBJ	12	idtext0051	créer	W#####	spk3	77.45	77.58	0.01	_
20091112_RATP_SCD_0901	26	14	la	NULL	det	NULL	B_GN	DET	15	idtext0051	le	##m#s##d	spk3	77.59	77.7	0.01	_
20091112_RATP_SCD_0901	26	15	carte	NULL	nc	NULL	I_GN	OBJ	13	idtext0051	carte	##f#s##	spk3	77.71	78.01	0.01	_
20091112_RATP_SCD_0901	26	16	qui	NULL	prorel	NULL	B_NULL	SUJ	18	idtext0051	qui	#####	spk3	78.02	78.15	0.01	_
20091112_RATP_SCD_0901	26	17	est	NULL	v	NULL	B_GVf	AUX	18	idtext0051	être	P#3##s##	spk3	78.16	78.21	0.01	_
20091112_RATP_SCD_0901	26	18	vendue	NULL	vppart	NULL	I_GVf	MOD_REL	15	idtext0051	vendre	K##f#s##	spk3	78.22	78.44	0.01	_
20091112_RATP_SCD_0901	26	19	cinq	NULL	det	B_P	B_GN	DET	20	idtext0051	cinq	#####	spk3	78.45	78.75	0.01	_
20091112_RATP_SCD_0901	26	20	euros	NULL	nc	I_P	I_GN	OBJ	18	idtext0051	euro	##m#p##	spk3	78.76	79.02	?	//

20091112_RATP_SCD_0901	27	1	voilà	DISF_M	pres	NULL	NULL	NOLINK	0	idtext0052	voilà	#####	spk2	79.14	79.39	0.01	_
20091112_RATP_SCD_0901	27	2	exactement	NULL	adv	NULL	B_GADV	NOLINK	0	idtext0052	exactement	#####	spk2	79.4	79.82	?	_

20091112_RATP_SCD_0901	28	1	c'	NULL	cln	NULL	B_GN	SUJ_IMP	2	idtext0053	ce	###s##	spk3	79.16	79.18	0.01	_
20091112_RATP_SCD_0901	28	2	est	NULL	v	NULL	B_GVf	ROOT	0	idtext0053	être	P#3##s##	spk3	79.19	79.64	0.01	_
20091112_RATP_SCD_0901	28	3	ça	NULL	pro	NULL	B_GN	ATS	2	idtext0053	ça	#####	spk3	79.65	79.82	?	_

20091112_RATP_SCD_0901	29	1	alors	NULL	adv	NULL	B_GADV	NOLINK	0	idtext0054	alors	#####	spk2	79.86	80.06	0.01	_
20091112_RATP_SCD_0901	29	2	vous	NULL	cln	NULL	B_GN	SUJ	5	idtext0054	cln	#2##p##	spk2	80.07	80.17	0.01	_
20091112_RATP_SCD_0901	29	3	êtes	NULL	v	NULL	B_GVfn	AUX	5	idtext0054	être	P#2##p##	spk2	80.18	80.27	0.01	_
20091112_RATP_SCD_0901	29	4	pas	NULL	advneg	NULL	I_GVfn	MOD	5	idtext0054	pas	#####	spk2	80.28	80.35	0.01	_
20091112_RATP_SCD_0901	29	5	obligé	NULL	vppart	NULL	I_GVfn	ROOT	0	idtext0054	obliger	K##m#s##	spk2	80.36	80.56	0.01	_
20091112_RATP_SCD_0901	29	6	d'	NULL	prep	NULL	B_GP	DE_OBJ	5	idtext0054	d'	#####	spk2	80.57	80.6	0.01	_
20091112_RATP_SCD_0901	29	7	avoir	NULL	vinf	NULL	I_GP	OBJ	6	idtext0054	avoir	W#####	spk2	80.61	80.76	0.01	_
20091112_RATP_SCD_0901	29	8	une	NULL	det	NULL	B_GN	DET	9	idtext0054	un	##f#s##i	spk2	80.77	80.82	0.01	_
20091112_RATP_SCD_0901	29	9	pièce	NULL	nc	NULL	I_GN	OBJ	7	idtext0054	pièce	##f#s##	spk2	80.83	80.95	0.01	_
20091112_RATP_SCD_0901	29	10	d'	NULL	prep	NULL	B_GP	DEP	9	idtext0054	d'	#####	spk2	80.96	80.99	0.01	_
20091112_RATP_SCD_0901	29	11	identité	NULL	nc	NULL	I_GP	OBJ	10	idtext0054	identité	##f#s##	spk2	81.0	81.37	0.01	_
20091112_RATP_SCD_0901	29	12	hein	DISF_M	pres	NULL	NULL	NOLINK	0	idtext0054	hein	#####	spk2	81.38	81.54	0.28	//
20091112_RATP_SCD_0901	29	13	euh	DISF_M	pres	NULL	NULL	NOLINK	0	idtext0055	euh	#####	spk2	81.82	81.93	0.01	_
20091112_RATP_SCD_0901	29	14	vous	NULL	cln	NULL	B_GN	SUJ	15	idtext0055	cln	#2##p##	spk2	81.94	82.1	0.01	_
20091112_RATP_SCD_0901	29	15	venez	NULL	v	NULL	B_GVf	ROOT	0	idtext0055	venir	P#2##p##	spk2	82.11	82.55	0.01	_
20091112_RATP_SCD_0901	29	16	euh	DISF_M	pres	NULL	NULL	NOLINK	0	idtext0055	euh	#####	spk2	82.56	82.59	0.01	_
20091112_RATP_SCD_0901	29	17	occasionnellement	NULL	adv	NULL	B_GADV	MOD	15	idtext0055	occasionnellement	#####	spk2	82.6	83.36	0.01	_
20091112_RATP_SCD_0901	29	18	sur	NULL	prep	NULL	B_GP	P_OBJ	15	idtext0055	sur	#####	spk2	83.37	83.51	0.01	_
20091112_RATP_SCD_0901	29	19	l'	NULL	det	NULL	I_GP	DET	20	idtext0055	le	###s##d	spk2	83.52	83.56	0.01	_
20091112_RATP_SCD_0901	29	20	Île-de-France	NULL	nc	B_A	I_GP	OBJ	18	idtext0055	Île-de-France	#####	spk2	83.57	84.13	?	//

20091112_RATP_SCD_0901	30	1	voilà	DISF_M	pres	NULL	NULL	NOLINK	0	idtext0056	voilà	#####	spk2	84.17	84.7	0.01	_
20091112_RATP_SCD_0901	30	2	oui	NULL	adv	NULL	B_GADV	NOLINK	0	idtext0056	oui	#####	spk2	84.71	84.9	?	//

20091112_RATP_SCD_0901	31	1	ou	NULL	coo	NULL	B_NULL	NOLINK	0	idtext0057	ou	#####	spk3	84.18	84.76	0.01	_
20091112_RATP_SCD_0901	31	2	euh	DISF_M	pres	NULL	NULL	NOLINK	0	idtext0057	euh	#####	spk3	84.77	84.9	?	_

20091112_RATP_SCD_0901	32	1	occasionnellement	NULL	adv	NULL	B_GADV	NOLINK	0	idtext0058	occasionnellement	#####	spk3	84.94	85.63	?	//

20091112_RATP_SCD_0901	33	1	d'accord	NULL	adv	NULL	B_GADV	NOLINK	0	idtext0059	d'accord	#####	spk2	85.35	85.63	?	//

20091112_RATP_SCD_0901	34	1	donc	NULL	coo	NULL	B_NULL	ROOT	0	idtext0060	donc	#####	spk2	85.93	86.1	0.01	_
20091112_RATP_SCD_0901	34	2	vous	NULL	cln	NULL	B_GN	SUJ	3	idtext0060	cln	#2##p##	spk2	86.11	86.21	0.01	_
20091112_RATP_SCD_0901	34	3	demandez	NULL	v	NULL	B_GVf	DEP_COORD	1	idtext0060	demander	P#2##p##	spk2	86.22	86.62	0.01	_
20091112_RATP_SCD_0901	34	4	dans	NULL	prep	NULL	B_GP	P_OBJ_LOC	3	idtext0060	dans	#####	spk2	86.63	86.75	0.01	_
20091112_RATP_SCD_0901	34	5	n'+importe+quelle	NULL	det	NULL	I_GP	DET	6	idtext0060	n'+importe+quelle	#####	spk2	86.76	87.29	0.01	_
20091112_RATP_SCD_0901	34	6	station	NULL	nc	NULL	I_GP	OBJ	4	idtext0060	station	##f#s##	spk2	87.3	87.63	0.04	_
20091112_RATP_SCD_0901	34	7	soit	NULL	coo	NULL	B_NULL	NOLINK	0	idtext0061	soit	#####	spk2	87.67	87.84	0.01	_
20091112_RATP_SCD_0901	34	8	de	NULL	prep	NULL	B_GP	ROOT	0	idtext0061	de	#####	spk2	87.85	88.01	0.01	_
20091112_RATP_SCD_0901	34	9	RER	NULL	nc	B_T	I_GP	OBJ	8	idtext0061	RER	#####	spk2	88.02	88.47	0.01	_
20091112_RATP_SCD_0901	34	10	ou	NULL	coo	NULL	B_NULL	COORD	9	idtext0061	ou	#####	spk2	88.48	88.58	0.01	_
20091112_RATP_SCD_0901	34	11	de	NULL	prep	NULL	B_GP	DEP_COORD	10	idtext0061	de	#####	spk2	88.59	88.69	0.01	_
20091112_RATP_SCD_0901	34	12	métro	NULL	nc	NULL	I_GP	OBJ	11	idtext0061	métro	##m#s##	spk2	88.7	89.19	0.24	_
20091112_RATP_SCD_0901	34	13	un	NULL	det	NULL	B_GN	DET	14	idtext0062	un	##m#s##i	spk2	89.43	89.58	0.01	_
20091112_RATP_SCD_0901	34	14	passe+Navigo	NULL	np	B_PRD	I_GN	ROOT	0	idtext0062	passe+Navigo	#####	spk2	89.59	90.19	0.01	_
20091112_RATP_SCD_0901	34	15	Découverte	NULL	np	I_PRD	I_GN	MOD	14	idtext0062	Découverte	#####	spk2	90.2	91.05	?	//

20091112_RATP_SCD_0901	35	1	oui	NULL	adv	NULL	B_GADV	NOLINK	0	idtext0063	oui	#####	spk3	91.17	91.38	0.10	_
20091112_RATP_SCD_0901	35	2	alors	NULL	adv	NULL	B_GADV	NOLINK	0	idtext0064	alors	#####	spk3	91.48	91.66	0.01	_
20091112_RATP_SCD_0901	35	3	le	NULL	det	NULL	B_GN	DET	4	idtext0064	le	##m#s##d	spk3	91.67	91.81	0.01	_
20091112_RATP_SCD_0901	35	4	prix	NULL	nc	NULL	I_GN	SUJ	6	idtext0064	prix	##m###	spk3	91.82	92.01	0.01	_
20091112_RATP_SCD_0901	35	5	c'	NULL	cln	NULL	B_GN	SUJ_IMP	6	idtext0064	ce	###s##	spk3	92.02	92.09	0.01	_
20091112_RATP_SCD_0901	35	6	est	NULL	v	NULL	B_GVf	ROOT	0	idtext0064	être	P#3##s##	spk3	92.1	92.15	0.01	_
20091112_RATP_SCD_0901	35	7	cinq	NULL	det	B_P	B_GN	DET	8	idtext0064	cinq	#####	spk3	92.16	92.44	0.01	_
20091112_RATP_SCD_0901	35	8	euros	NULL	nc	I_P	I_GN	ATS	6	idtext0064	euro	##m#p##	spk3	92.45	92.67	0.29	//
20091112_RATP_SCD_0901	35	9	vous	NULL	cln	NULL	B_GN	SUJ	10	idtext0065	cln	#2##p##	spk3	92.96	93.11	0.01	_
20091112_RATP_SCD_0901	35	10	collez	NULL	v	NULL	B_GVf	ROOT	0	idtext0065	coller	P#2##p##	spk3	93.12	93.39	0.01	_
20091112_RATP_SCD_0901	35	11	votre	NULL	det	NULL	B_GN	DET	12	idtext0065	votre	###s##o	spk3	93.4	93.66	0.01	_
20091112_RATP_SCD_0901	35	12	photo	NULL	nc	NULL	I_GN	OBJ	10	idtext0065	photo	##f#s##	spk3	93.67	94.1	0.01	_
20091112_RATP_SCD_0901	35	13	sur	NULL	prep	NULL	B_GP	P_OBJ	12	idtext0065	sur	#####	spk3	94.11	94.38	0.01	_
20091112_RATP_SCD_0901	35	14	ce	NULL	det	NULL	I_GP	DET	15	idtext0065	ce	##m#s##e	spk3	94.39	94.56	0.01	_
20091112_RATP_SCD_0901	35	15	passe	NULL	nc	NULL	I_GP	OBJ	13	idtext0065	passe	###s##	spk3	94.57	95.03	0.34	/
20091112_RATP_SCD_0901	35	16	et	NULL	coo	NULL	B_NULL	ROOT	0	idtext0066	et	#####	spk3	95.37	95.43	0.01	_
20091112_RATP_SCD_0901	35	17	vous	NULL	cln	NULL	B_GN	SUJ	18	idtext0066	cln	#2##p##	spk3	95.44	95.6	0.01	_
20091112_RATP_SCD_0901	35	18	rechargez	NULL	v	NULL	B_GVf	DEP_COORD	16	idtext0066	recharger	P#2##p##	spk3	95.61	96.04	0.01	_
20091112_RATP_SCD_0901	35	19	ce	NULL	det	NULL	B_GN	DET	20	idtext0066	ce	##m#s##e	spk3	96.05	96.24	0.01	_
20091112_RATP_SCD_0901	35	20	passe	NULL	nc	NULL	I_GN	OBJ	18	idtext0066	passe	###s##	spk3	96.25	96.52	0.01	_
20091112_RATP_SCD_0901	35	21	par	NULL	prep	NULL	B_GP	P_OBJ	20	idtext0066	par	#####	spk3	96.53	96.67	0.01	_
20091112_RATP_SCD_0901	35	22	la	NULL	det	NULL	I_GP	DET	23	idtext0066	le	##m#s##d	spk3	96.68	96.78	0.01	_
20091112_RATP_SCD_0901	35	23	suite	NULL	nc	NULL	I_GP	OBJ	21	idtext0066	suite	##f#s##	spk3	96.79	97.04	0.33	_
20091112_RATP_SCD_0901	35	24	alors	NULL	adv	NULL	B_GADV	NOLINK	0	idtext0067	alors	#####	spk3	97.37	97.62	0.01	_
20091112_RATP_SCD_0901	35	25	une	NULL	pro	NULL	B_GN	DET	30	idtext0067	une	#####	spk3	97.63	97.78	0.01	_
20091112_RATP_SCD_0901	35	26	à	NULL	prep	NULL	B_GP	DEP	25	idtext0067	à	#####	spk3	97.79	97.85	0.01	_
20091112_RATP_SCD_0901	35	27	trois	NULL	nc	NULL	I_GP	OBJ	26	idtext0067	trois	##m###	spk3	97.86	98.13	0.01	_
20091112_RATP_SCD_0901	35	28	c'	NULL	cln	NULL	B_GN	SUJ_IMP	29	idtext0067	ce	###s##	spk3	98.14	98.24	0.01	_
20091112_RATP_SCD_0901	35	29	est	NULL	v	NULL	B_GVf	ROOT	0	idtext0067	être	P#3##s##	spk3	98.25	98.29	0.01	_
20091112_RATP_SCD_0901	35	30	vingt-deux	NULL	nc	B_P	B_GN	ATS	29	idtext0067	vingt-deux	#####	spk3	98.3	98.66	0.01	_
20091112_RATP_SCD_0901	35	31	soixante-dix	NULL	nc	I_P	I_GN	MOD	30	idtext0067	soixante-dix	##m###	spk3	98.67	99.18	0.06	_
20091112_RATP_SCD_0901	35	32	alors	NULL	adv	NULL	B_GADJ	NOLINK	0	idtext0068	alors	#####	spk3	99.24	99.4	0.01	_
20091112_RATP_SCD_0901	35	33	valable	NULL	adj	NULL	I_GADJ	ROOT	0	idtext0068	valable	###s##	spk3	99.41	99.68	0.01	_
20091112_RATP_SCD_0901	35	34	du	NULL	prep	NULL	B_GP	DEP	33	idtext0068	du	#####	spk3	99.69	99.79	0.01	_
20091112_RATP_SCD_0901	35	35	lundi	NULL	nc	NULL	I_GP	OBJ	34	idtext0068	lundi	##m#s##	spk3	99.8	100.04	0.01	_
20091112_RATP_SCD_0901	35	36	matin	NULL	nc	NULL	I_GP	MOD	35	idtext0068	matin	##m#s##	spk3	100.05	100.5	0.01	_
20091112_RATP_SCD_0901	35	37	au	NULL	prep	NULL	B_GP	ROOT	0	idtext0068	au	#####	spk3	100.51	100.54	0.01	_
20091112_RATP_SCD_0901	35	38	dimanche	NULL	nc	NULL	I_GP	OBJ	37	idtext0068	dimanche	##m#s##	spk3	100.55	100.79	0.01	_
20091112_RATP_SCD_0901	35	39	soir	NULL	nc	NULL	I_GP	MOD	38	idtext0068	soir	##m#s##	spk3	100.8	101.04	?	//

20091112_RATP_SCD_0901	36	1	hum	DISF_M	pres	NULL	NULL	NOLINK	0	idtext0069	hum	#####	spk3	101.34	101.6	0.01	_
20091112_RATP_SCD_0901	36	2	d'accord	NULL	adv	NULL	B_GADV	NOLINK	0	idtext0069	d'accord	#####	spk3	101.61	101.92	0.19	_
20091112_RATP_SCD_0901	36	3	et+alors	NULL	coo	NULL	B_NULL	ROOT	0	idtext0070	et+alors	#####	spk3	102.11	102.57	0.01	_
20091112_RATP_SCD_0901	36	4	c'	NULL	cln	NULL	B_GN	SUJ_IMP	5	idtext0070	ce	###s##	spk3	102.58	102.6	0.01	_
20091112_RATP_SCD_0901	36	5	est	NULL	v	NULL	B_GVf	DEP_COORD	3	idtext0070	être	P#3##s##	spk3	102.61	102.77	0.01	_
20091112_RATP_SCD_0901	36	6	valable	NULL	adj	NULL	B_GADJ	ATS	5	idtext0070	valable	###s##	spk3	102.78	103.14	0.04	//
20091112_RATP_SCD_0901	36	7	euh	DISF_M	pres	NULL	NULL	NOLINK	0	idtext0071	euh	#####	spk3	103.18	103.21	0.01	_
20091112_RATP_SCD_0901	36	8	que	NULL	csu	NULL	B_NULL	ROOT	0	idtext0071	que	#####	spk3	103.22	103.72	0.01	_
20091112_RATP_SCD_0901	36	9	sur	NULL	prep	NULL	B_GP	OBJ	8	idtext0071	sur	#####	spk3	103.73	103.95	0.01	_
20091112_RATP_SCD_0901	36	10	le	NULL	det	NULL	I_GP	DET	11	idtext0071	le	##m#s##d	spk3	103.96	103.98	0.01	_
20091112_RATP_SCD_0901	36	11	métro	NULL	nc	NULL	I_GP	OBJ	9	idtext0071	métro	##m#s##	spk3	103.99	104.27	0.01	//
20091112_RATP_SCD_0901	36	12	ou	NULL	coo	NULL	B_NULL	COORD	11	idtext0071	ou	#####	spk3	104.28	104.34	0.01	_
20091112_RATP_SCD_0901	36	13	sur	NULL	prep	NULL	B_GP	DEP_COORD	12	idtext0071	sur	#####	spk3	104.35	104.56	0.01	_
20091112_RATP_SCD_0901	36	14	les	NULL	det	NULL	I_GP	DET	15	idtext0071	le	###p##d	spk3	104.57	104.65	0.01	_
20091112_RATP_SCD_0901	36	15	bus	NULL	nc	NULL	I_GP	OBJ	13	idtext0071	bus	##m###	spk3	104.66	104.91	0.01	_
20091112_RATP_SCD_0901	36	16	aussi	NULL	adv	NULL	B_GADV	NOLINK	0	idtext0071	aussi	#####	spk3	104.92	105.07	?	//

20091112_RATP_SCD_0901	37	1	alors	NULL	adv	NULL	B_GADV	NOLINK	0	idtext0072	alors	#####	spk2	105.13	105.52	0.01	_
20091112_RATP_SCD_0901	37	2	vous	NULL	cln	NULL	B_GN	SUJ	3	idtext0072	cln	#2##p##	spk2	105.53	105.59	0.01	_
20091112_RATP_SCD_0901	37	3	avez	NULL	v	NULL	B_GVf	ROOT	0	idtext0072	avoir	P#2##p##	spk2	105.6	105.76	0.01	_
20091112_RATP_SCD_0901	37	4	le	NULL	det	NULL	B_GN	DET	5	idtext0072	le	##m#s##d	spk2	105.77	105.81	0.01	_
20091112_RATP_SCD_0901	37	5	droit	NULL	nc	NULL	I_GN	OBJ	3	idtext0072	droit	##m#s##	spk2	105.82	106.28	0.01	_
20091112_RATP_SCD_0901	37	6	d()	DISF_T	tronc	NULL	NULL	NOLINK	0	idtext0072	d()	#####	spk2	106.29	106.42	0.05	_
20091112_RATP_SCD_0901	37	7	pendant	NULL	prep	NULL	B_GP	ROOT	0	idtext0073	pendant	#####	spk2	106.47	106.74	0.01	_
20091112_RATP_SCD_0901	37	8	la	NULL	det	NULL	I_GP	DET	9	idtext0073	le	##m#s##d	spk2	106.75	106.89	0.01	_
20091112_RATP_SCD_0901	37	9	zone	NULL	nc	NULL	I_GP	OBJ	7	idtext0073	zone	##f#s##	spk2	106.9	107.41	0.01	_
20091112_RATP_SCD_0901	37	10	une	NULL	nc	NULL	I_GP	NOLINK	0	idtext0073	une	##f#s##	spk2	107.42	107.61	0.01	_
20091112_RATP_SCD_0901	37	11	à	NULL	prep	NULL	B_GP	ROOT	0	idtext0073	à	#####	spk2	107.62	107.7	0.01	_
20091112_RATP_SCD_0901	37	12	trois	NULL	nc	NULL	I_GP	OBJ	11	idtext0073	trois	##m###	spk2	107.71	108.22	0.05	_
20091112_RATP_SCD_0901	37	13	métro	NULL	nc	NULL	B_GN	NOLINK	0	idtext0074	métro	##m#s##	spk2	108.27	109.04	0.04	_
20091112_RATP_SCD_0901	37	14	bus	NULL	nc	NULL	B_GN	NOLINK	0	idtext0075	bus	##m###	spk2	109.08	109.52	0.07	_
20091112_RATP_SCD_0901	37	15	et	NULL	coo	NULL	B_NULL	ROOT	0	idtext0076	et	#####	spk2	109.59	109.62	0.01	_
20091112_RATP_SCD_0901	37	16	RER	NULL	nc	B_T	B_GN	DEP_COORD	15	idtext0076	RER	#####	spk2	109.63	110.19	?	_

20091112_RATP_SCD_0901	38	1	et	NULL	coo	NULL	B_NULL	ROOT	0	idtext0077	et	#####	spk3	110.59	110.7	0.01	_
20091112_RATP_SCD_0901	38	2	RER	NULL	nc	B_T	B_GN	DEP_COORD	1	idtext0077	RER	#####	spk3	110.71	111.19	0.01	_
20091112_RATP_SCD_0901	38	3	d'accord	NULL	adv	NULL	B_GADV	NOLINK	0	idtext0077	d'accord	#####	spk3	111.2	111.88	?	//

20091112_RATP_SCD_0901	39	1	hm	DISF_M	pres	NULL	NULL	NOLINK	0	idtext0078	hm	#####	spk2	111.96	112.18	?	//

20091112_RATP_SCD_0901	40	1	bon	DISF_M	pres	NULL	NULL	NOLINK	0	idtext0079	bon	#####	spk3	112.75	113.02	0.01	_
20091112_RATP_SCD_0901	40	2	tant+que	NULL	csu	NULL	B_NULL	ROOT	0	idtext0079	tant+que	#####	spk3	113.03	113.7	0.01	_
20091112_RATP_SCD_0901	40	3	je	NULL	cln	NULL	B_GN	SUJ	4	idtext0079	cln	#1##s##	spk3	113.71	113.82	0.01	_
20091112_RATP_SCD_0901	40	4	vois	NULL	v	NULL	B_GVf	OBJ	2	idtext0079	voir	P#12##s##	spk3	113.83	114.0	0.01	_
20091112_RATP_SCD_0901	40	5	que	NULL	csu	NULL	B_NULL	OBJ	4	idtext0079	que	#####	spk3	114.01	114.07	0.01	_
20091112_RATP_SCD_0901	40	6	vous	NULL	cln	NULL	B_GN	SUJ	7	idtext0079	cln	#2##p##	spk3	114.08	114.21	0.01	_
20091112_RATP_SCD_0901	40	7	êtes	NULL	v	NULL	B_GVf	OBJ	5	idtext0079	être	P#2##p##	spk3	114.22	114.35	0.01	_
20091112_RATP_SCD_0901	40	8	très	NULL	adv	NULL	B_GADJ	MOD	9	idtext0079	très	#####	spk3	114.36	114.61	0.01	_
20091112_RATP_SCD_0901	40	9	aimable	NULL	adj	NULL	I_GADJ	ATS	7	idtext0079	aimable	###s##	spk3	114.62	115.03	0.41	//
20091112_RATP_SCD_0901	40	10	est-ce+que	NULL	pri	NULL	B_NULL	NOLINK	0	idtext0080	est-ce+que	#####	spk3	115.44	115.78	0.01	_
20091112_RATP_SCD_0901	40	11	vous	NULL	cln	NULL	B_GN	SUJ	12	idtext0080	cln	#2##p##	spk3	115.79	116.04	0.01	_
20091112_RATP_SCD_0901	40	12	auriez	NULL	v	NULL	B_GVf	ROOT	0	idtext0080	avoir	C#2##p##	spk3	116.05	116.33	0.01	_
20091112_RATP_SCD_0901	40	13	des	NULL	det	NULL	B_GN	DET	14	idtext0080	des	###p##i	spk3	116.34	116.49	0.01	_
20091112_RATP_SCD_0901	40	14	cartes	NULL	nc	NULL	I_GN	OBJ	12	idtext0080	carte	##f#p##	spk3	116.5	117.02	0.01	_
20091112_RATP_SCD_0901	40	15	euh	DISF_M	pres	NULL	NULL	NOLINK	0	idtext0080	euh	#####	spk3	117.03	117.07	0.01	_
20091112_RATP_SCD_0901	40	16	de	NULL	prep	NULL	B_GP	DEP	14	idtext0080	de	#####	spk3	117.08	117.7	0.01	_
20091112_RATP_SCD_0901	40	17	RATP	NULL	np	B_ORG	I_GP	OBJ	16	idtext0080	RATP	##f#s##	spk3	117.71	118.36	0.01	_
20091112_RATP_SCD_0901	40	18	Transilien	NULL	nc	B_T	I_GP	NOLINK	0	idtext0080	Transilien	#####	spk3	118.37	119.07	0.01	_
20091112_RATP_SCD_0901	40	19	là	NULL	adv	NULL	B_GADV	NOLINK	0	idtext0080	là	#####	spk3	119.08	119.25	?	//

20091112_RATP_SCD_0901	41	1	alors	NULL	adv	NULL	B_GADV	NOLINK	0	idtext0081	alors	#####	spk2	119.93	120.16	0.01	_
20091112_RATP_SCD_0901	41	2	il	NULL	cln	NULL	B_GN	SUJ_IMP	3	idtext0081	cln	#3#m#s##	spk2	120.17	120.23	0.01	_
20091112_RATP_SCD_0901	41	3	faudra	NULL	v	NULL	B_GVf	ROOT	0	idtext0081	falloir	F#3##s##	spk2	120.24	120.56	0.01	_
20091112_RATP_SCD_0901	41	4	demander	NULL	vinf	NULL	I_GVf	OBJ	3	idtext0081	demander	W#####	spk2	120.57	121.11	0.01	_
20091112_RATP_SCD_0901	41	5	dans	NULL	prep	NULL	B_NULL	P_OBJ_LOC	3	idtext0081	dans	#####	spk2	121.12	121.34	0.12	_
20091112_RATP_SCD_0901	41	6	quand	NULL	csu	NULL	B_NULL	ROOT	0	idtext0082	quand	#####	spk2	121.46	121.61	0.01	_
20091112_RATP_SCD_0901	41	7	vous	NULL	cln	NULL	B_GN	SUJ	8	idtext0082	cln	#2##p##	spk2	121.62	121.77	0.01	_
20091112_RATP_SCD_0901	41	8	arrivez	NULL	v	NULL	B_GVf	OBJ	6	idtext0082	arriver	P#2##p##	spk2	121.78	122.08	0.01	_
20091112_RATP_SCD_0901	41	9	par+exemple	NULL	adv	NULL	B_GADV	MOD	8	idtext0082	par+exemple	#####	spk2	122.09	122.52	0.01	_
20091112_RATP_SCD_0901	41	10	hein	DISF_M	pres	NULL	NULL	NOLINK	0	idtext0082	hein	#####	spk2	122.53	122.66	0.04	_
20091112_RATP_SCD_0901	41	11	quand	NULL	csu	NULL	B_NULL	ROOT	0	idtext0083	quand	#####	spk2	122.7	122.77	0.01	_
20091112_RATP_SCD_0901	41	12	vous	NULL	cln	NULL	B_GN	SUJ	13	idtext0083	cln	#2##p##	spk2	122.78	122.91	0.01	_
20091112_RATP_SCD_0901	41	13	arrivez	NULL	v	NULL	B_GVf	OBJ	11	idtext0083	arriver	P#2##p##	spk2	122.92	123.12	0.01	_
20091112_RATP_SCD_0901	41	14	dans	NULL	prep	NULL	B_GP	P_OBJ_LOC	13	idtext0083	dans	#####	spk2	123.13	123.23	0.01	_
20091112_RATP_SCD_0901	41	15	la	NULL	det	NULL	I_GP	DET	16	idtext0083	le	##m#s##d	spk2	123.24	123.29	0.01	_
20091112_RATP_SCD_0901	41	16	région	NULL	nc	NULL	I_GP	OBJ	14	idtext0083	région	##f#s##	spk2	123.3	123.52	0.01	_
20091112_RATP_SCD_0901	41	17	d'	NULL	prep	NULL	B_GP	DEP	16	idtext0083	d'	#####	spk2	123.53	123.58	0.01	_
20091112_RATP_SCD_0901	41	18	Île-de-France	NULL	nc	B_A	I_GP	OBJ	17	idtext0083	Île-de-France	#####	spk2	123.59	124.28	?	//

20091112_RATP_SCD_0901	42	1	ouais	NULL	adv	NULL	B_GADV	NOLINK	0	idtext0084	ouais	#####	spk3	124.44	124.61	?	//

20091112_RATP_SCD_0901	43	1	vous	NULL	cln	NULL	B_GN	SUJ	2	idtext0085	cln	#2##p##	spk2	124.65	124.74	0.01	_
20091112_RATP_SCD_0901	43	2	demandez	NULL	v	NULL	B_GVf	ROOT	0	idtext0085	demander	P#2##p##	spk2	124.75	125.06	0.01	_
20091112_RATP_SCD_0901	43	3	un	NULL	det	NULL	B_GN	DET	4	idtext0085	un	##m#s##i	spk2	125.07	125.19	0.01	_
20091112_RATP_SCD_0901	43	4	plan	NULL	nc	NULL	I_GN	OBJ	2	idtext0085	plan	##m#s##	spk2	125.2	125.39	?	//

20091112_RATP_SCD_0901	44	1	ah	DISF_M	pres	NULL	NULL	NOLINK	0	idtext0086	ah	#####	spk3	125.77	125.83	0.01	_
20091112_RATP_SCD_0901	44	2	d'accord	NULL	adv	NULL	B_GADV	NOLINK	0	idtext0086	d'accord	#####	spk3	125.84	126.25	?	_

20091112_RATP_SCD_0901	45	1	hein	DISF_M	pres	NULL	NULL	NOLINK	0	idtext0087	hein	#####	spk2	126.29	126.43	0.01	_
20091112_RATP_SCD_0901	45	2	non	NULL	adv	NULL	B_GADV	NOLINK	0	idtext0087	non	#####	spk2	126.44	126.64	0.01	_
20091112_RATP_SCD_0901	45	3	il	NULL	cln	NULL	B_GN	SUJ_IMP	5	idtext0087	cln	#3#m#s##	spk2	126.65	126.76	0.01	_
20091112_RATP_SCD_0901	45	4	y	NULL	clo	NULL	B_GN	AFF	5	idtext0087	y	#####	spk2	126.77	126.81	0.01	_
20091112_RATP_SCD_0901	45	5	a	NULL	v	NULL	B_GVf	ROOT	0	idtext0087	avoir	P#3##s##	spk2	126.82	126.84	0.01	_
20091112_RATP_SCD_0901	45	6	aucun	NULL	det	NULL	B_GN	DET	7	idtext0087	aucun	##m#s##i	spk2	126.85	127.08	0.01	_
20091112_RATP_SCD_0901	45	7	problème	NULL	nc	NULL	I_GN	OBJ	5	idtext0087	problème	##m#s##	spk2	127.09	127.4	0.01	_
20091112_RATP_SCD_0901	45	8	si	NULL	csu	NULL	B_NULL	MOD	12	idtext0087	si	#####	spk2	127.41	127.53	0.01	_
20091112_RATP_SCD_0901	45	9	vous	NULL	cln	NULL	B_GN	SUJ	10	idtext0087	cln	#2##p##	spk2	127.54	127.63	0.01	_
20091112_RATP_SCD_0901	45	10	demandez	NULL	v	NULL	B_GVf	OBJ	8	idtext0087	demander	P#2##p##	spk2	127.64	127.97	0.01	_
20091112_RATP_SCD_0901	45	11	il	NULL	cln	NULL	B_GN	SUJ	12	idtext0087	cln	#3#m#s##	spk2	127.98	128.07	0.01	_
20091112_RATP_SCD_0901	45	12	est	NULL	v	NULL	B_GVf	ROOT	0	idtext0087	être	P#3##s##	spk2	128.08	128.23	0.01	_
20091112_RATP_SCD_0901	45	13	c'	NULL	cln	NULL	B_GN	SUJ_IMP	14	idtext0087	ce	###s##	spk2	128.24	128.32	0.01	_
20091112_RATP_SCD_0901	45	14	est	NULL	v	NULL	B_GVf	ROOT	0	idtext0087	être	P#3##s##	spk2	128.33	128.36	0.01	_
20091112_RATP_SCD_0901	45	15	gratuit	NULL	adj	NULL	B_GADJ	ATS	14	idtext0087	gratuit	##m#s##	spk2	128.37	128.82	0.01	_
20091112_RATP_SCD_0901	45	16	hein	DISF_M	pres	NULL	NULL	NOLINK	0	idtext0087	hein	#####	spk2	128.83	129.0	?	//

20091112_RATP_SCD_0901	46	1	parce+que	NULL	csu	NULL	B_NULL	ROOT	0	idtext0088	parce+que	#####	spk3	129.05	129.21	0.01	_
20091112_RATP_SCD_0901	46	2	vous	NULL	cln	NULL	B_GN	SUJ	6	idtext0089	cln	#2##p##	spk3	129.22	129.27	0.01	_
20091112_RATP_SCD_0901	46	3	n'	NULL	clneg	NULL	B_NULL	MOD	6	idtext0089	n'	#####	spk3	129.28	129.3	0.01	_
20091112_RATP_SCD_0901	46	4	en	NULL	clo	NULL	B_GN	OBJ	6	idtext0089	en	#####	spk3	129.31	129.41	0.01	_
20091112_RATP_SCD_0901	46	5	n'	NULL	clneg	NULL	B_GVfn	MOD	6	idtext0089	n'	#####	spk3	129.42	129.44	0.01	_
20091112_RATP_SCD_0901	46	6	envoyez	NULL	v	NULL	I_GVfn	OBJ	1	idtext0089	envoyer	P#2##p##	spk3	129.45	129.75	0.01	_
20091112_RATP_SCD_0901	46	7	pas	NULL	advneg	NULL	I_GVfn	MOD	6	idtext0090	pas	#####	spk3	129.76	129.88	0.01	_
20091112_RATP_SCD_0901	46	8	par	NULL	prep	NULL	B_GP	P_OBJ	6	idtext0090	par	#####	spk3	129.89	130.02	0.01	_
20091112_RATP_SCD_0901	46	9	la	NULL	det	NULL	I_GP	DET	10	idtext0090	le	##m#s##d	spk3	130.03	130.08	0.01	_
20091112_RATP_SCD_0901	46	10	poste	NULL	nc	NULL	I_GP	OBJ	8	idtext0090	poste	###s##	spk3	130.09	130.47	?	//

20091112_RATP_SCD_0901	47	1	non	NULL	adv	NULL	B_GADV	MOD	2	idtext0091	non	#####	spk2	130.54	130.82	0.01	_
20091112_RATP_SCD_0901	47	2	malheureusement	NULL	adv	NULL	I_GADV	ROOT	0	idtext0091	malheureusement	#####	spk2	130.83	131.13	0.01	_
20091112_RATP_SCD_0901	47	3	on	NULL	cln	NULL	B_GN	SUJ_IMP	5	idtext0091	cln	#3##s##	spk2	131.14	131.23	0.01	_
20091112_RATP_SCD_0901	47	4	le	NULL	clo	NULL	B_GN	OBJ	5	idtext0091	cla	#3#m#s##	spk2	131.24	131.26	0.01	_
20091112_RATP_SCD_0901	47	5	faisait	NULL	v	NULL	B_GVf	ROOT	0	idtext0091	faire	I#3##s##	spk2	131.27	131.54	0.01	_
20091112_RATP_SCD_0901	47	6	auparavant	NULL	adv	NULL	B_GADV	MOD	5	idtext0091	auparavant	#####	spk2	131.55	132.03	?	_

20091112_RATP_SCD_0901	48	1	oui	NULL	adv	NULL	B_GADV	NOLINK	0	idtext0092	oui	#####	spk3	132.34	132.45	?	//

20091112_RATP_SCD_0901	49	1	euh	DISF_M	pres	NULL	NULL	NOLINK	0	idtext0093	euh	#####	spk2	132.51	132.92	0.04	_
20091112_RATP_SCD_0901	49	2	le	NULL	det	NULL	B_GN	DET	3	idtext0094	le	##m#s##d	spk2	132.96	133.03	0.01	_
20091112_RATP_SCD_0901	49	3	service	NULL	nc	NULL	I_GN	ROOT	0	idtext0094	service	##m#s##	spk2	133.04	133.52	0.01	_
20091112_RATP_SCD_0901	49	4	enfin	NULL	adv	NULL	B_GADV	NOLINK	0	idtext0094	enfin	#####	spk2	133.53	133.85	0.01	_
20091112_RATP_SCD_0901	49	5	je	NULL	cln	NULL	B_GN	SUJ	6	idtext0094	cln	#1##s##	spk2	133.86	133.97	0.01	_
20091112_RATP_SCD_0901	49	6	sais	NULL	v	NULL	B_GVfn	ROOT	0	idtext0094	savoir	P#12##s##	spk2	133.98	134.04	0.01	_
20091112_RATP_SCD_0901	49	7	pas	NULL	advneg	NULL	I_GVfn	MOD	6	idtext0094	pas	#####	spk2	134.05	134.42	0.06	_
20091112_RATP_SCD_0901	49	8	c'	NULL	cln	NULL	B_GN	SUJ_IMP	9	idtext0095	ce	###s##	spk2	134.48	134.51	0.01	_
20091112_RATP_SCD_0901	49	9	est	NULL	v	NULL	B_GVf	ROOT	0	idtext0095	être	P#3##s##	spk2	134.52	134.57	0.01	_
20091112_RATP_SCD_0901	49	10	toujours	NULL	adv	NULL	B_GADV	MOD	13	idtext0095	toujours	#####	spk2	134.58	134.87	0.01	_
20091112_RATP_SCD_0901	49	11	des	DISF_R	det	NULL	NULL	NOLINK	0	idtext0095	des	###p##i	spk2	134.88	135.14	0.01	_
20091112_RATP_SCD_0901	49	12	des	NULL	det	NULL	B_GN	DET	13	idtext0095	des	###p##i	spk2	135.15	135.29	0.01	_
20091112_RATP_SCD_0901	49	13	gains	NULL	nc	NULL	I_GN	ATS	9	idtext0095	gain	##m#p##	spk2	135.3	135.76	0.05	_
20091112_RATP_SCD_0901	49	14	a+priori	NULL	adv	NULL	B_GADV	NOLINK	0	idtext0096	a+priori	#####	spk2	135.81	136.3	0.01	_
20091112_RATP_SCD_0901	49	15	hein	DISF_M	pres	NULL	NULL	NOLINK	0	idtext0096	hein	#####	spk2	136.31	136.5	0.01	_
20091112_RATP_SCD_0901	49	16	des	DISF_R	det	NULL	NULL	NOLINK	0	idtext0096	des	###p##i	spk2	136.51	136.79	0.01	_
20091112_RATP_SCD_0901	49	17	des	NULL	det	NULL	B_GN	DET	18	idtext0096	des	###p##i	spk2	136.8	137.0	0.01	_
20091112_RATP_SCD_0901	49	18	économies	NULL	nc	NULL	I_GN	ROOT	0	idtext0096	économie	##f#p##	spk2	137.01	137.4	0.01	_
20091112_RATP_SCD_0901	49	19	qu'	NULL	prorel	NULL	B_NULL	OBJ	21	idtext0096	qu'	#####	spk2	137.41	137.47	0.01	_
20091112_RATP_SCD_0901	49	20	ils	NULL	cln	NULL	B_GN	SUJ	21	idtext0096	cln	#3#m#p##	spk2	137.48	137.53	0.01	_
20091112_RATP_SCD_0901	49	21	veulent	NULL	v	NULL	B_GVf	MOD_REL	18	idtext0096	vouloir	P#3##p##	spk2	137.54	137.75	0.01	_
20091112_RATP_SCD_0901	49	22	faire	NULL	vinf	NULL	I_GVf	OBJ	21	idtext0096	faire	W#####	spk2	137.76	138.25	0.10	_
20091112_RATP_SCD_0901	49	23	donc	NULL	coo	NULL	B_NULL	ROOT	0	idtext0097	donc	#####	spk2	138.35	138.52	0.01	_
20091112_RATP_SCD_0901	49	24	maintenant	NULL	adv	NULL	B_GADV	MOD	27	idtext0097	maintenant	#####	spk2	138.53	138.74	0.01	_
20091112_RATP_SCD_0901	49	25	on	NULL	cln	NULL	B_GN	SUJ_IMP	27	idtext0097	cln	#3##s##	spk2	138.75	138.77	0.01	_
20091112_RATP_SCD_0901	49	26	n'	NULL	clneg	NULL	B_GVfn	MOD	27	idtext0097	n'	#####	spk2	138.78	138.85	0.01	_
20091112_RATP_SCD_0901	49	27	expédie	NULL	v	NULL	I_GVfn	DEP_COORD	23	idtext0097	expédier	PS#13##s##	spk2	138.86	139.23	0.01	_
20091112_RATP_SCD_0901	49	28	plus	NULL	advneg	NULL	I_GVfn	MOD	27	idtext0097	plus	#####	spk2	139.24	139.4	0.01	_
20091112_RATP_SCD_0901	49	29	malheureusement	NULL	adv	NULL	B_GADV	MOD	27	idtext0097	malheureusement	#####	spk2	139.41	140.05	?	_

20091112_RATP_SCD_0901	50	1	ah	DISF_M	pres	NULL	NULL	NOLINK	0	idtext0098	ah	#####	spk3	140.09	140.2	0.01	_
20091112_RATP_SCD_0901	50	2	d'accord	NULL	adv	NULL	B_GADV	NOLINK	0	idtext0098	d'accord	#####	spk3	140.21	140.54	0.01	_
20091112_RATP_SCD_0901	50	3	parce+que	NULL	csu	NULL	B_NULL	ROOT	0	idtext0098	parce+que	#####	spk3	140.55	140.89	0.01	_
20091112_RATP_SCD_0901	50	4	oui	NULL	adv	NULL	B_GADV	NOLINK	0	idtext0098	oui	#####	spk3	140.9	141.05	0.01	_
20091112_RATP_SCD_0901	50	5	il	NULL	cln	NULL	B_GN	SUJ_IMP	6	idtext0098	cln	#3#m#s##	spk3	141.06	141.21	0.01	_
20091112_RATP_SCD_0901	50	6	faut	NULL	v	NULL	B_GVf	OBJ	3	idtext0098	falloir	P#3##s##	spk3	141.22	141.32	0.01	_
20091112_RATP_SCD_0901	50	7	économiser	NULL	vinf	NULL	I_GVf	OBJ	6	idtext0098	économiser	W#####	spk3	141.33	141.83	0.01	_
20091112_RATP_SCD_0901	50	8	partout	NULL	adv	NULL	B_GADV	MOD	6	idtext0098	partout	#####	spk3	141.84	142.23	?	//

20091112_RATP_SCD_0901	51	1	je	NULL	cln	NULL	B_GN	SUJ	2	idtext0099	cln	#1##s##	spk2	142.62	142.8	0.01	_
20091112_RATP_SCD_0901	51	2	pense	NULL	v	NULL	B_GVf	ROOT	0	idtext0099	penser	PS#13##s##	spk2	142.81	143.3	?	//

20091112_RATP_SCD_0901	52	1	ben	DISF_M	pres	NULL	NULL	NOLINK	0	idtext0100	ben	#####	spk3	145.18	145.26	0.01	_
20091112_RATP_SCD_0901	52	2	écoutez	DISF_M	pres	NULL	NULL	NOLINK	0	idtext0100	écoutez	#####	spk3	145.27	145.66	?	//

20091112_RATP_SCD_0901	53	1	certains	NULL	pro	NULL	B_GN	NOLINK	0	idtext0101	certains	#####	spk3	146.41	146.83	0.01	_
20091112_RATP_SCD_0901	53	2	dont	NULL	prorel	NULL	B_NULL	NOLINK	0	idtext0101	dont	#####	spk3	146.84	146.95	0.01	_
20091112_RATP_SCD_0901	53	3	je	NULL	cln	NULL	B_GN	SUJ	4	idtext0101	cln	#1##s##	spk3	146.96	147.11	0.01	_
20091112_RATP_SCD_0901	53	4	citerai	NULL	v	NULL	B_GVfn	ROOT	0	idtext0101	citer	F#1##s##	spk3	147.12	147.46	0.01	_
20091112_RATP_SCD_0901	53	5	pas	NULL	advneg	NULL	I_GVfn	MOD	4	idtext0101	pas	#####	spk3	147.47	147.64	0.01	_
20091112_RATP_SCD_0901	53	6	le	NULL	det	NULL	B_GN	DET	7	idtext0101	le	##m#s##d	spk3	147.65	147.77	0.01	_
20091112_RATP_SCD_0901	53	7	nom	NULL	nc	NULL	I_GN	OBJ	4	idtext0101	nom	##m#s##	spk3	147.78	147.98	0.04	_
20091112_RATP_SCD_0901	53	8	qui	NULL	prorel	NULL	B_NULL	SUJ	9	idtext0102	qui	#####	spk3	148.02	148.08	0.01	_
20091112_RATP_SCD_0901	53	9	dépensent	NULL	v	NULL	B_GVf	ROOT	0	idtext0102	dépenser	PS#3##p##	spk3	148.09	148.67	?	_

20091112_RATP_SCD_0901	54	1	voilà	DISF_M	pres	NULL	NULL	NOLINK	0	idtext0103	voilà	#####	spk2	148.71	149.03	0.10	_
20091112_RATP_SCD_0901	54	2	mais	NULL	coo	NULL	B_NULL	ROOT	0	idtext0104	mais	#####	spk2	149.13	149.28	0.01	_
20091112_RATP_SCD_0901	54	3	quand	NULL	csu	NULL	B_NULL	NOLINK	0	idtext0104	quand	#####	spk2	149.29	149.43	0.01	_
20091112_RATP_SCD_0901	54	4	vous	NULL	cln	NULL	B_GN	SUJ	5	idtext0104	cln	#2##p##	spk2	149.44	149.6	0.01	_
20091112_RATP_SCD_0901	54	5	arriverez	NULL	v	NULL	B_GVf	DEP_COORD	2	idtext0104	arriver	F#2##p##	spk2	149.61	149.81	0.01	_
20091112_RATP_SCD_0901	54	6	en	NULL	prep	NULL	B_GP	P_OBJ_LOC	5	idtext0104	en	#####	spk2	149.82	150.0	0.01	_
20091112_RATP_SCD_0901	54	7	Île-de-France	NULL	nc	B_A	I_GP	OBJ	6	idtext0104	Île-de-France	#####	spk2	150.01	150.55	0.43	/
20091112_RATP_SCD_0901	54	8	on	NULL	cln	NULL	B_GN	NOLINK	0	idtext0105	cln	#3##s##	spk2	150.98	151.03	0.01	_
20091112_RATP_SCD_0901	54	9	vous	NULL	pro	NULL	B_GN	NOLINK	0	idtext0105	vous	#####	spk2	151.04	151.18	0.01	_
20091112_RATP_SCD_0901	54	10	euh	DISF_M	pres	NULL	NULL	NOLINK	0	idtext0105	euh	#####	spk2	151.19	151.49	0.06	_
20091112_RATP_SCD_0901	54	11	dans	NULL	prep	NULL	B_GP	ROOT	0	idtext0106	dans	#####	spk2	151.55	151.74	0.01	_
20091112_RATP_SCD_0901	54	12	une	NULL	det	NULL	I_GP	DET	13	idtext0106	un	##f#s##i	spk2	151.75	151.85	0.01	_
20091112_RATP_SCD_0901	54	13	station	NULL	nc	NULL	I_GP	OBJ	11	idtext0106	station	##f#s##	spk2	151.86	152.41	0.01	_
20091112_RATP_SCD_0901	54	14	aussi+bien	NULL	adv	NULL	B_GADV	NOLINK	0	idtext0106	aussi+bien	#####	spk2	152.42	152.85	0.01	_
20091112_RATP_SCD_0901	54	15	de	NULL	prep	NULL	B_GP	ROOT	0	idtext0106	de	#####	spk2	152.86	152.96	0.01	_
20091112_RATP_SCD_0901	54	16	RER	NULL	nc	B_T	I_GP	OBJ	15	idtext0106	RER	#####	spk2	152.97	153.41	0.01	_
20091112_RATP_SCD_0901	54	17	que	NULL	csu	NULL	B_NULL	ROOT	0	idtext0106	que	#####	spk2	153.42	153.49	0.01	_
20091112_RATP_SCD_0901	54	18	de	NULL	prep	NULL	B_GP	OBJ	17	idtext0106	de	#####	spk2	153.5	153.57	0.01	_
20091112_RATP_SCD_0901	54	19	métro	NULL	nc	NULL	I_GP	OBJ	18	idtext0106	métro	##m#s##	spk2	153.58	153.95	0.04	_
20091112_RATP_SCD_0901	54	20	on	NULL	cln	NULL	B_GN	SUJ_IMP	22	idtext0107	cln	#3##s##	spk2	153.99	154.01	0.01	_
20091112_RATP_SCD_0901	54	21	vous	NULL	clo	NULL	B_GN	A_OBJ	22	idtext0107	cln	#2##p##	spk2	154.02	154.09	0.01	_
20091112_RATP_SCD_0901	54	22	donnera	NULL	v	NULL	B_GVf	ROOT	0	idtext0107	donner	F#3##s##	spk2	154.1	154.65	0.01	_
20091112_RATP_SCD_0901	54	23	un	NULL	det	NULL	B_GN	DET	24	idtext0107	un	##m#s##i	spk2	154.66	154.81	0.01	_
20091112_RATP_SCD_0901	54	24	plan	NULL	nc	NULL	I_GN	OBJ	22	idtext0107	plan	##m#s##	spk2	154.82	155.04	0.01	_
20091112_RATP_SCD_0901	54	25	gratuitement	NULL	adv	NULL	B_GADV	MOD	22	idtext0107	gratuitement	#####	spk2	155.05	155.72	?	//

20091112_RATP_SCD_0901	55	1	hm	DISF_M	pres	NULL	NULL	NOLINK	0	idtext0108	hm	#####	spk3	155.83	156.02	0.01	_
20091112_RATP_SCD_0901	55	2	d'accord	NULL	adv	NULL	B_GADV	NOLINK	0	idtext0108	d'accord	#####	spk3	156.03	156.51	?	//

20091112_RATP_SCD_0901	56	1	je	NULL	cln	NULL	B_GN	SUJ	3	idtext0109	cln	#1##s##	spk3	156.91	157.12	0.01	_
20091112_RATP_SCD_0901	56	2	vous	NULL	clo	NULL	B_GN	OBJ	3	idtext0109	cln	#2##p##	spk3	157.13	157.28	0.01	_
20091112_RATP_SCD_0901	56	3	remercie	NULL	v	NULL	B_GVf	ROOT	0	idtext0109	remercier	PS#13##s##	spk3	157.29	157.6	?	//

20091112_RATP_SCD_0901	57	1	pour	NULL	prep	NULL	B_GP	ROOT	0	idtext0110	pour	#####	spk3	157.76	157.87	0.01	_
20091112_RATP_SCD_0901	57	2	votre	NULL	det	NULL	I_GP	DET	3	idtext0110	votre	###s##o	spk3	157.88	158.15	0.01	_
20091112_RATP_SCD_0901	57	3	amabilité	NULL	nc	NULL	I_GP	OBJ	1	idtext0110	amabilité	##f#s##	spk3	158.16	158.75	?	//

20091112_RATP_SCD_0901	58	1	mais	NULL	coo	NULL	B_NULL	ROOT	0	idtext0111	mais	#####	spk2	157.65	157.85	0.01	_
20091112_RATP_SCD_0901	58	2	je	NULL	cln	NULL	B_GN	SUJ	5	idtext0111	cln	#1##s##	spk2	157.86	158.1	0.01	_
20091112_RATP_SCD_0901	58	3	vous	NULL	clo	NULL	B_GN	OBJ	5	idtext0111	cln	#2##p##	spk2	158.11	158.27	0.01	_
20091112_RATP_SCD_0901	58	4	en	NULL	clo	NULL	B_GN	DE_OBJ	5	idtext0111	en	#####	spk2	158.28	158.55	0.01	_
20091112_RATP_SCD_0901	58	5	prie	NULL	v	NULL	B_GVf	DEP_COORD	1	idtext0111	prier	PS#13##s##	spk2	158.56	158.75	?	//

20091112_RATP_SCD_0901	59	1	je	NULL	cln	NULL	B_GN	SUJ	4	idtext0112	cln	#1##s##	spk2	158.8	158.85	0.01	_
20091112_RATP_SCD_0901	59	2	vous	NULL	clo	NULL	B_GN	OBJ	4	idtext0112	cln	#2##p##	spk2	158.86	159.05	0.01	_
20091112_RATP_SCD_0901	59	3	en	NULL	clo	NULL	B_GN	DE_OBJ	4	idtext0112	en	#####	spk2	159.06	159.15	0.01	_
20091112_RATP_SCD_0901	59	4	prie	NULL	v	NULL	B_GVf	ROOT	0	idtext0112	prier	PS#13##s##	spk2	159.16	159.32	0.01	_
20091112_RATP_SCD_0901	59	5	bonne	NULL	adj	NULL	B_GN	MOD	6	idtext0112	bon	##f#s##	spk2	159.33	159.5	0.01	_
20091112_RATP_SCD_0901	59	6	fin	NULL	nc	NULL	I_GN	ROOT	0	idtext0112	fin	###s##	spk2	159.51	159.57	0.01	_
20091112_RATP_SCD_0901	59	7	de	NULL	prep	NULL	B_GP	DEP	6	idtext0112	de	#####	spk2	159.58	159.6	0.01	_
20091112_RATP_SCD_0901	59	8	journée	NULL	nc	NULL	I_GP	OBJ	7	idtext0112	journée	##f#s##	spk2	159.61	159.79	0.01	_
20091112_RATP_SCD_0901	59	9	au+revoir	NULL	adv	NULL	B_GADV	NOLINK	0	idtext0112	au+revoir	#####	spk2	159.8	160.2	?	//

20091112_RATP_SCD_0901	60	1	au+revoir	NULL	adv	NULL	B_GADV	NOLINK	0	idtext0113	au+revoir	#####	spk3	158.88	160.2	?	//

