20091112_RATP_SCD_0890	1	1	NNAAMMEE	NULL	np	B_HU	B_GN	ROOT	0	idtext0000	ANONYM	NULL	spk1	3.57	4.01	0.05	_
20091112_RATP_SCD_0890	1	2	bonjour	NULL	adv	NULL	B_GADV	NOLINK	0	idtext0001	bonjour	#####	spk1	4.06	4.43	?	//

20091112_RATP_SCD_0890	2	1	NNAAMMEE	NULL	np	B_HU	B_GN	ROOT	0	idtext0002	ANONYM	NULL	spk1	6.28	6.72	0.04	_
20091112_RATP_SCD_0890	2	2	bonjour	NULL	adv	NULL	B_GADV	NOLINK	0	idtext0003	bonjour	#####	spk1	6.76	6.98	?	//

20091112_RATP_SCD_0890	3	1	oui	NULL	adv	NULL	B_GADV	MOD	2	idtext0004	oui	#####	spk2	7.66	7.88	0.01	_
20091112_RATP_SCD_0890	3	2	bonjour	NULL	adv	NULL	I_GADV	ROOT	0	idtext0004	bonjour	#####	spk2	7.89	8.34	?	//

20091112_RATP_SCD_0890	4	1	ce	NULL	cln	NULL	B_GN	SUJ_IMP	2	idtext0005	ce	#####	spk2	8.39	8.47	0.01	_
20091112_RATP_SCD_0890	4	2	serait	NULL	v	NULL	B_GVf	ROOT	0	idtext0005	être	C#3##s##	spk2	8.48	8.67	0.01	_
20091112_RATP_SCD_0890	4	3	pour	NULL	prep	NULL	B_GP	ATS	2	idtext0005	pour	#####	spk2	8.68	8.82	0.01	_
20091112_RATP_SCD_0890	4	4	avoir	NULL	vinf	NULL	I_GP	OBJ	3	idtext0005	avoir	W#####	spk2	8.83	9.05	0.01	_
20091112_RATP_SCD_0890	4	5	un	NULL	det	NULL	B_GN	DET	6	idtext0005	un	##m#s##i	spk2	9.06	9.17	0.01	_
20091112_RATP_SCD_0890	4	6	prix	NULL	nc	NULL	I_GN	OBJ	4	idtext0005	prix	##m###	spk2	9.18	9.44	0.01	_
20091112_RATP_SCD_0890	4	7	s'il+vous+plaît	NULL	adv	NULL	B_GADV	MOD	4	idtext0005	s'il+vous+plaît	#####	spk2	9.45	10.22	?	//

20091112_RATP_SCD_0890	5	1	je	NULL	cln	NULL	B_GN	SUJ	4	idtext0006	cln	#1##s##	spk1	10.26	10.38	0.01	_
20091112_RATP_SCD_0890	5	2	vous	NULL	clo	NULL	B_GN	OBJ	4	idtext0006	cln	#2##p##	spk1	10.39	10.44	0.01	_
20091112_RATP_SCD_0890	5	3	en	NULL	clo	NULL	B_GN	DE_OBJ	4	idtext0006	en	#####	spk1	10.45	10.49	0.01	_
20091112_RATP_SCD_0890	5	4	prie	NULL	v	NULL	B_GVf	ROOT	0	idtext0006	prier	PS#13##s##	spk1	10.5	10.78	?	//

20091112_RATP_SCD_0890	6	1	pour	NULL	prep	NULL	B_GP	ROOT	0	idtext0007	pour	#####	spk2	10.82	11.3	0.01	_
20091112_RATP_SCD_0890	6	2	euh	DISF_M	pres	NULL	NULL	NOLINK	0	idtext0007	euh	#####	spk2	11.31	11.39	0.01	_
20091112_RATP_SCD_0890	6	3	Bourg-la-Reine	NULL	nc	B_A	I_GP	OBJ	1	idtext0007	Bourg-la-Reine	##m#s##	spk2	11.4	12.13	0.01	_
20091112_RATP_SCD_0890	6	4	Paris	NULL	nc	B_A	I_GP	NOLINK	0	idtext0007	Paris	##m#s##	spk2	12.14	13.24	?	//

20091112_RATP_SCD_0890	7	1	alors	NULL	adv	NULL	B_GADV	NOLINK	0	idtext0008	alors	#####	spk1	13.31	13.59	0.01	_
20091112_RATP_SCD_0890	7	2	Bourg-la-Reine	NULL	nc	B_A	B_GN	ROOT	0	idtext0008	Bourg-la-Reine	##m#s##	spk1	13.6	14.21	0.01	_
20091112_RATP_SCD_0890	7	3	Paris	NULL	nc	B_A	I_GN	MOD	2	idtext0008	Paris	##m#s##	spk1	14.22	14.68	?	//

20091112_RATP_SCD_0890	8	1	je	NULL	cln	NULL	B_GN	SUJ	2	idtext0009	cln	#1##s##	spk1	14.72	14.82	0.01	_
20091112_RATP_SCD_0890	8	2	vais	NULL	v	NULL	B_GVf	ROOT	0	idtext0009	aller	P#1##s##	spk1	14.83	14.88	0.01	_
20091112_RATP_SCD_0890	8	3	vous	NULL	clo	NULL	B_GN	A_OBJ	4	idtext0009	cln	#2##p##	spk1	14.89	14.94	0.01	_
20091112_RATP_SCD_0890	8	4	dire	NULL	vinf	NULL	B_GVi	OBJ	2	idtext0009	dire	W#####	spk1	14.95	15.16	0.01	_
20091112_RATP_SCD_0890	8	5	ça	NULL	pro	NULL	B_GN	OBJ	4	idtext0009	ça	#####	spk1	15.17	15.83	?	//

20091112_RATP_SCD_0890	9	1	hm+hm	DISF_M	pres	NULL	NULL	NOLINK	0	idtext0010	hm+hm	#####	spk2	15.09	15.83	?	//

20091112_RATP_SCD_0890	10	1	veuillez	NULL	v	NULL	B_GVf	ROOT	0	idtext0011	vouloir	Y#2##p##	spk1	15.89	16.07	0.01	_
20091112_RATP_SCD_0890	10	2	patienter	NULL	vinf	NULL	I_GVf	OBJ	1	idtext0011	patienter	W#####	spk1	16.08	16.38	0.01	_
20091112_RATP_SCD_0890	10	3	je	NULL	cln	NULL	B_GN	SUJ	4	idtext0011	cln	#1##s##	spk1	16.39	16.49	0.01	_
20091112_RATP_SCD_0890	10	4	regarde	NULL	v	NULL	B_GVf	ROOT	0	idtext0011	regarder	PS#13##s##	spk1	16.5	16.82	0.01	_
20091112_RATP_SCD_0890	10	5	hein	DISF_M	pres	NULL	NULL	NOLINK	0	idtext0011	hein	#####	spk1	16.83	17.16	?	//

20091112_RATP_SCD_0890	11	1	merci	NULL	adv	NULL	B_GADV	NOLINK	0	idtext0012	merci	#####	spk2	17.21	17.72	?	//

20091112_RATP_SCD_0890	12	1	s'il+vous+plaît	NULL	adv	NULL	B_GADV	NOLINK	0	idtext0013	s'il+vous+plaît	#####	spk1	31.83	32.69	?	//

20091112_RATP_SCD_0890	13	1	allo	NULL	adv	NULL	B_GADV	NOLINK	0	idtext0014	allo	#####	spk2	32.73	33.1	?	//

20091112_RATP_SCD_0890	14	1	oui	NULL	adv	NULL	B_GADV	NOLINK	0	idtext0015	oui	#####	spk1	33.14	33.53	?	//

20091112_RATP_SCD_0890	15	1	deux	NULL	nc	B_P	B_GN	NOLINK	0	idtext0016	deux	##m###	spk1	33.61	33.85	0.01	_
20091112_RATP_SCD_0890	15	2	vingt-cinq	NULL	nc	I_P	I_GN	MOD	1	idtext0016	vingt-cinq	#####	spk1	33.86	34.39	?	_

20091112_RATP_SCD_0890	16	1	oui	NULL	adv	NULL	B_GADV	NOLINK	0	idtext0017	oui	#####	spk2	33.73	34.39	?	//

20091112_RATP_SCD_0890	17	1	le	NULL	det	NULL	B_GN	DET	2	idtext0018	le	##m#s##d	spk1	34.46	34.55	0.01	_
20091112_RATP_SCD_0890	17	2	billet	NULL	nc	NULL	I_GN	ROOT	0	idtext0018	billet	##m#s##	spk1	34.56	34.81	0.01	_
20091112_RATP_SCD_0890	17	3	aller	NULL	vinf	NULL	B_GVi	NOLINK	0	idtext0018	aller	W#####	spk1	34.82	35.5	?	//

20091112_RATP_SCD_0890	18	1	OK	NULL	adv	NULL	B_GADV	NOLINK	0	idtext0019	ok	#####	spk2	35.55	36.03	?	_

20091112_RATP_SCD_0890	19	1	bah	DISF_M	pres	NULL	NULL	NOLINK	0	idtext0020	bah	#####	spk2	36.07	36.18	0.01	_
20091112_RATP_SCD_0890	19	2	je	NULL	cln	NULL	B_GN	SUJ	4	idtext0020	cln	#1##s##	spk2	36.19	36.22	0.01	_
20091112_RATP_SCD_0890	19	3	vous	NULL	clo	NULL	B_GN	OBJ	4	idtext0020	cln	#2##p##	spk2	36.23	36.28	0.01	_
20091112_RATP_SCD_0890	19	4	remercie	NULL	v	NULL	B_GVf	ROOT	0	idtext0020	remercier	PS#13##s##	spk2	36.29	36.71	?	//

20091112_RATP_SCD_0890	20	1	et	NULL	coo	NULL	B_NULL	ROOT	0	idtext0021	et	#####	spk1	36.75	36.79	0.01	_
20091112_RATP_SCD_0890	20	2	je	NULL	cln	NULL	B_GN	SUJ	5	idtext0021	cln	#1##s##	spk1	36.8	36.88	0.01	_
20091112_RATP_SCD_0890	20	3	vous	NULL	clo	NULL	B_GN	OBJ	5	idtext0021	cln	#2##p##	spk1	36.89	36.99	0.01	_
20091112_RATP_SCD_0890	20	4	en	NULL	clo	NULL	B_GN	DE_OBJ	5	idtext0021	en	#####	spk1	37.0	37.05	0.01	_
20091112_RATP_SCD_0890	20	5	prie	NULL	v	NULL	B_GVf	DEP_COORD	1	idtext0021	prier	PS#13##s##	spk1	37.06	37.25	0.01	_
20091112_RATP_SCD_0890	20	6	bonne	NULL	adj	NULL	B_GN	MOD	7	idtext0021	bon	##f#s##	spk1	37.26	37.38	0.01	_
20091112_RATP_SCD_0890	20	7	journée	NULL	nc	NULL	I_GN	ROOT	0	idtext0021	journée	##f#s##	spk1	37.39	37.7	?	//

20091112_RATP_SCD_0890	21	1	au+revoir	NULL	adv	NULL	B_GADV	NOLINK	0	idtext0022	au+revoir	#####	spk2	37.74	38.41	?	//

20091112_RATP_SCD_0890	22	1	au+revoir	NULL	adv	NULL	B_GADV	NOLINK	0	idtext0023	au+revoir	#####	spk1	37.74	38.41	?	//

