20091112_RATP_SCD_0784	1	1	NNAAMMEE	NULL	np	B_HU	B_GN	ROOT	0	idtext0000	ANONYM	NULL	spk1	3.48	3.87	0.12	_
20091112_RATP_SCD_0784	1	2	va	NULL	v	NULL	B_GVf	ROOT	0	idtext0001	aller	P#3##s##	spk1	3.99	4.04	0.01	_
20091112_RATP_SCD_0784	1	3	vous	NULL	clo	NULL	B_GN	A_OBJ	4	idtext0001	cln	#2##p##	spk1	4.05	4.34	0.01	_
20091112_RATP_SCD_0784	1	4	répondre	NULL	vinf	NULL	B_GVi	OBJ	2	idtext0001	répondre	W#####	spk1	4.35	4.89	?	//

20091112_RATP_SCD_0784	2	1	NNAAMMEE	NULL	np	B_HU	B_GN	ROOT	0	idtext0002	ANONYM	NULL	spk2	6.69	6.88	0.35	_
20091112_RATP_SCD_0784	2	2	bonjour	NULL	adv	NULL	B_GADV	NOLINK	0	idtext0003	bonjour	#####	spk2	7.23	7.76	?	//

20091112_RATP_SCD_0784	3	1	oui	NULL	adv	NULL	B_GADV	MOD	2	idtext0004	oui	#####	spk3	7.83	8.12	0.01	_
20091112_RATP_SCD_0784	3	2	bonjour	NULL	adv	NULL	I_GADV	ROOT	0	idtext0004	bonjour	#####	spk3	8.13	8.89	?	//

20091112_RATP_SCD_0784	4	1	j'	NULL	cln	NULL	B_GN	SUJ	3	idtext0005	cln	#1##s##	spk3	8.93	8.98	0.01	_
20091112_RATP_SCD_0784	4	2	aurais	NULL	v	NULL	B_GVf	AUX	3	idtext0005	avoir	C#12##s##	spk3	8.99	9.25	0.01	_
20091112_RATP_SCD_0784	4	3	aimé	NULL	vppart	NULL	I_GVf	ROOT	0	idtext0005	aimer	K##m#s##	spk3	9.26	9.55	0.01	_
20091112_RATP_SCD_0784	4	4	savoir	NULL	vinf	NULL	B_GVi	OBJ	3	idtext0005	savoir	W#####	spk3	9.56	10.1	0.01	_
20091112_RATP_SCD_0784	4	5	au+départ+de	NULL	prep	NULL	B_GP	P_OBJ_LOC	4	idtext0005	au+départ+de	#####	spk3	10.11	10.72	0.01	_
20091112_RATP_SCD_0784	4	6	la	NULL	det	NULL	I_GP	DET	7	idtext0005	le	##m#s##d	spk3	10.73	10.87	0.01	_
20091112_RATP_SCD_0784	4	7	gare	NULL	nc	B_A	I_GP	OBJ	5	idtext0005	gare	##f#s##	spk3	10.88	11.19	0.01	_
20091112_RATP_SCD_0784	4	8	de	NULL	prep	I_A	I_GP	DEP	7	idtext0005	de	#####	spk3	11.2	11.44	0.01	_
20091112_RATP_SCD_0784	4	9	Sarcelles-Saint-Brice	NULL	np	I_A	I_GP	OBJ	8	idtext0005	Sarcelles-Saint-Brice	#####	spk3	11.45	12.69	?	//

20091112_RATP_SCD_0784	5	1	oui	NULL	adv	NULL	B_GADV	NOLINK	0	idtext0006	oui	#####	spk2	12.94	13.09	?	//

20091112_RATP_SCD_0784	6	1	le	NULL	det	NULL	B_GN	DET	2	idtext0007	le	##m#s##d	spk3	13.13	13.3	0.01	_
20091112_RATP_SCD_0784	6	2	bus	NULL	nc	NULL	I_GN	ROOT	0	idtext0007	bus	##m###	spk3	13.31	13.69	0.01	_
20091112_RATP_SCD_0784	6	3	euh	DISF_M	pres	NULL	NULL	NOLINK	0	idtext0007	euh	#####	spk3	13.7	13.88	0.01	_
20091112_RATP_SCD_0784	6	4	cent	NULL	nc	NULL	I_GN	MOD	2	idtext0007	cent	##m#p##	spk3	13.89	14.02	0.01	_
20091112_RATP_SCD_0784	6	5	trente-trois	NULL	nc	NULL	B_GN	NOLINK	0	idtext0007	trente-trois	#####	spk3	14.03	14.68	0.01	_
20091112_RATP_SCD_0784	6	6	euh	DISF_M	pres	NULL	NULL	NOLINK	0	idtext0008	euh	#####	spk3	14.69	15.27	0.01	_
20091112_RATP_SCD_0784	6	7	je	NULL	cln	NULL	B_GN	SUJ	8	idtext0008	cln	#1##s##	spk3	15.28	16.35	0.01	_
20091112_RATP_SCD_0784	6	8	vais	NULL	v	NULL	B_GVf	ROOT	0	idtext0008	aller	P#1##s##	spk3	16.36	16.59	0.01	_
20091112_RATP_SCD_0784	6	9	arriver	NULL	vinf	NULL	I_GVf	OBJ	8	idtext0008	arriver	W#####	spk3	16.6	17.03	0.01	_
20091112_RATP_SCD_0784	6	10	aux	NULL	prep	NULL	B_GP	A_OBJ	8	idtext0008	aux	#####	spk3	17.04	17.22	0.01	_
20091112_RATP_SCD_0784	6	11	alentours	NULL	nc	NULL	I_GP	OBJ	10	idtext0008	alentour	##m#p##	spk3	17.23	17.75	0.01	_
20091112_RATP_SCD_0784	6	12	de	NULL	prep	NULL	B_GP	DEP	11	idtext0008	de	#####	spk3	17.76	18.13	0.01	_
20091112_RATP_SCD_0784	6	13	seize	NULL	det	B_H	I_GP	DET	14	idtext0008	seize	#####	spk3	18.14	18.42	0.01	_
20091112_RATP_SCD_0784	6	14	heures	NULL	nc	I_H	I_GP	OBJ	12	idtext0008	heure	##f#p##	spk3	18.43	18.58	0.01	//
20091112_RATP_SCD_0784	6	15	quarante-cinq	NULL	adj	I_H	I_GP	MOD	14	idtext0008	quarante-cinq	#####	spk3	18.59	19.44	0.01	_
20091112_RATP_SCD_0784	6	16	vous	NULL	cln	NULL	B_GN	SUJ	17	idtext0008	cln	#2##p##	spk3	19.45	19.58	0.01	_
20091112_RATP_SCD_0784	6	17	pouvez	NULL	v	NULL	B_GVf	ROOT	0	idtext0008	pouvoir	P#2##p##	spk3	19.59	19.84	0.01	_
20091112_RATP_SCD_0784	6	18	me	NULL	clo	NULL	B_GN	A_OBJ	19	idtext0008	cla	#1##s##	spk3	19.85	19.95	0.01	_
20091112_RATP_SCD_0784	6	19	dire	NULL	vinf	NULL	B_GVi	OBJ	17	idtext0008	dire	W#####	spk3	19.96	20.18	0.01	_
20091112_RATP_SCD_0784	6	20	à	NULL	prep	NULL	B_GP	OBJ	19	idtext0008	à	#####	spk3	20.19	20.26	0.01	_
20091112_RATP_SCD_0784	6	21	quelle	NULL	det	NULL	I_GP	DET	22	idtext0008	quel	##f#s##	spk3	20.27	20.54	0.01	_
20091112_RATP_SCD_0784	6	22	heure	NULL	nc	NULL	I_GP	OBJ	20	idtext0008	heure	##f#s##	spk3	20.55	20.69	0.01	_
20091112_RATP_SCD_0784	6	23	il	NULL	cln	NULL	B_GN	SUJ_IMP	26	idtext0008	cln	#3#m#s##	spk3	20.7	20.75	0.01	_
20091112_RATP_SCD_0784	6	24	y	NULL	clo	NULL	B_GN	AFF	26	idtext0008	y	#####	spk3	20.76	20.78	0.01	_
20091112_RATP_SCD_0784	6	25	en	NULL	clo	NULL	B_GN	OBJ	26	idtext0008	en	#####	spk3	20.79	20.94	0.01	_
20091112_RATP_SCD_0784	6	26	a	NULL	v	NULL	B_GVf	MOD	22	idtext0008	avoir	P#3##s##	spk3	20.95	21.11	0.01	_
20091112_RATP_SCD_0784	6	27	un	NULL	det	NULL	B_GN	OBJ	26	idtext0008	un	##m#s##i	spk3	21.12	21.38	?	_

20091112_RATP_SCD_0784	7	1	alors	NULL	adv	NULL	B_GADV	ROOT	0	idtext0009	alors	#####	spk2	22.19	22.53	0.01	_
20091112_RATP_SCD_0784	7	2	de	NULL	prep	NULL	B_GP	DEP	1	idtext0009	de	#####	spk2	22.54	22.76	0.01	_
20091112_RATP_SCD_0784	7	3	Sarcelles-Saint-Brice	NULL	nc	B_A	I_GP	OBJ	2	idtext0009	Sarcelles-Saint-Brice	#####	spk2	22.77	24.03	0.01	_
20091112_RATP_SCD_0784	7	4	euh	DISF_M	pres	I_A	NULL	NOLINK	0	idtext0009	euh	#####	spk2	24.04	24.13	0.01	_
20091112_RATP_SCD_0784	7	5	cent	NULL	nc	NULL	I_GP	MOD	3	idtext0009	cent	##m#p##	spk2	24.14	24.29	0.01	_
20091112_RATP_SCD_0784	7	6	quel	NULL	det	NULL	B_NULL	NOLINK	0	idtext0009	quel	##m#s##	spk2	24.3	24.51	0.01	_
20091112_RATP_SCD_0784	7	7	et	NULL	coo	NULL	B_NULL	COORD	1	idtext0009	et	#####	spk2	24.52	24.62	0.01	_
20091112_RATP_SCD_0784	7	8	le	DISF_R	det	NULL	NULL	NOLINK	0	idtext0009	le	##m#s##d	spk2	24.63	24.87	0.01	_
20091112_RATP_SCD_0784	7	9	pour	NULL	prep	NULL	B_GP	DEP_COORD	7	idtext0009	pour	#####	spk2	24.88	25.04	0.01	_
20091112_RATP_SCD_0784	7	10	le	NULL	det	NULL	I_GP	DET	11	idtext0009	le	##m#s##d	spk2	25.05	25.12	0.01	_
20091112_RATP_SCD_0784	7	11	cent+trente-trois	NULL	nc	B_T	I_GP	OBJ	9	idtext0009	cent+trente-trois	#####	spk2	25.13	25.77	0.01	//
20091112_RATP_SCD_0784	7	12	hein	DISF_M	pres	I_T	NULL	NOLINK	0	idtext0009	hein	#####	spk2	25.78	25.85	0.01	_
20091112_RATP_SCD_0784	7	13	c'	NULL	cln	NULL	B_GN	SUJ_IMP	14	idtext0009	ce	###s##	spk2	25.86	25.9	0.01	_
20091112_RATP_SCD_0784	7	14	est	NULL	v	NULL	B_GVf	ROOT	0	idtext0009	être	P#3##s##	spk2	25.91	25.95	0.01	_
20091112_RATP_SCD_0784	7	15	ça	NULL	pro	NULL	B_GN	ATS	14	idtext0009	ça	#####	spk2	25.96	26.24	?	_

20091112_RATP_SCD_0784	8	1	ouais	NULL	adv	NULL	B_GADV	NOLINK	0	idtext0010	ouais	#####	spk3	26.3	26.7	?	//

20091112_RATP_SCD_0784	9	1	pour	NULL	prep	NULL	B_GP	ROOT	0	idtext0011	pour	#####	spk2	27.36	27.44	0.01	_
20091112_RATP_SCD_0784	9	2	aller	NULL	vinf	NULL	I_GP	OBJ	1	idtext0011	aller	W#####	spk2	27.45	27.56	0.01	_
20091112_RATP_SCD_0784	9	3	où	NULL	adv	NULL	B_GADV	P_OBJ_LOC	2	idtext0011	où	#####	spk2	27.57	27.84	0.01	_
20091112_RATP_SCD_0784	9	4	le	NULL	det	NULL	B_GN	DET	5	idtext0011	le	##m#s##d	spk2	27.85	27.9	0.01	_
20091112_RATP_SCD_0784	9	5	cent+trente-trois	NULL	nc	B_T	I_GN	ROOT	0	idtext0011	cent+trente-trois	#####	spk2	27.91	28.73	?	//

20091112_RATP_SCD_0784	10	1	euh	DISF_M	pres	NULL	NULL	NOLINK	0	idtext0012	euh	#####	spk3	28.97	29.18	0.01	_
20091112_RATP_SCD_0784	10	2	c'	NULL	cln	NULL	B_GN	SUJ_IMP	3	idtext0012	ce	###s##	spk3	29.19	29.29	0.01	_
20091112_RATP_SCD_0784	10	3	est	NULL	v	NULL	B_GVf	ROOT	0	idtext0012	être	P#3##s##	spk3	29.3	29.37	0.01	_
20091112_RATP_SCD_0784	10	4	pour	NULL	prep	NULL	B_GP	ATS	3	idtext0012	pour	#####	spk3	29.38	29.56	0.01	_
20091112_RATP_SCD_0784	10	5	aller	NULL	vinf	NULL	I_GP	OBJ	4	idtext0012	aller	W#####	spk3	29.57	29.85	0.01	_
20091112_RATP_SCD_0784	10	6	sur	NULL	prep	NULL	B_GP	P_OBJ_LOC	5	idtext0012	sur	#####	spk3	29.86	30.14	0.01	_
20091112_RATP_SCD_0784	10	7	euh	DISF_M	pres	NULL	NULL	NOLINK	0	idtext0012	euh	#####	spk3	30.15	30.35	0.01	_
20091112_RATP_SCD_0784	10	8	Les+Lochères	NULL	nc	B_A	I_GP	OBJ	6	idtext0012	Les+Lochères	#####	spk3	30.36	31.32	?	//

20091112_RATP_SCD_0784	11	1	Les+Lochères	NULL	nc	B_A	B_GN	NOLINK	0	idtext0013	Les+Lochères	#####	spk2	32.47	33.52	?	//

20091112_RATP_SCD_0784	12	1	Les+Lochères	NULL	nc	B_A	B_GN	NOLINK	0	idtext0014	Les+Lochères	#####	spk2	37.03	37.83	0.01	_
20091112_RATP_SCD_0784	12	2	d'accord	NULL	adv	NULL	B_GADV	NOLINK	0	idtext0014	d'accord	#####	spk2	37.84	38.63	0.01	_
20091112_RATP_SCD_0784	12	3	et	NULL	coo	NULL	B_NULL	ROOT	0	idtext0014	et	#####	spk2	38.64	38.86	0.01	_
20091112_RATP_SCD_0784	12	4	c'	NULL	cln	NULL	B_GN	SUJ_IMP	5	idtext0014	ce	###s##	spk2	38.87	38.9	0.01	_
20091112_RATP_SCD_0784	12	5	est	NULL	v	NULL	B_GVf	DEP_COORD	3	idtext0014	être	P#3##s##	spk2	38.91	39.1	0.01	_
20091112_RATP_SCD_0784	12	6	pour	NULL	prep	NULL	B_GP	ATS	5	idtext0014	pour	#####	spk2	39.11	39.44	0.01	_
20091112_RATP_SCD_0784	12	7	seize	NULL	det	B_H	I_GP	DET	8	idtext0014	seize	#####	spk2	39.45	39.69	0.01	_
20091112_RATP_SCD_0784	12	8	heures	NULL	nc	I_H	I_GP	OBJ	6	idtext0014	heure	##f#p##	spk2	39.7	40.0	?	//

20091112_RATP_SCD_0784	13	1	euh	DISF_M	pres	NULL	NULL	NOLINK	0	idtext0015	euh	#####	spk3	40.6	40.71	0.01	_
20091112_RATP_SCD_0784	13	2	j'	NULL	cln	NULL	B_GN	SUJ	3	idtext0015	cln	#1##s##	spk3	40.72	40.75	0.01	_
20091112_RATP_SCD_0784	13	3	arriverai	NULL	v	NULL	B_GVf	ROOT	0	idtext0015	arriver	F#1##s##	spk3	40.76	41.15	0.01	_
20091112_RATP_SCD_0784	13	4	vers	NULL	prep	NULL	B_GP	MOD	3	idtext0015	vers	#####	spk3	41.16	41.42	0.01	_
20091112_RATP_SCD_0784	13	5	seize	NULL	det	B_H	I_GP	DET	6	idtext0015	seize	#####	spk3	41.43	41.58	0.01	_
20091112_RATP_SCD_0784	13	6	heures	NULL	nc	I_H	I_GP	OBJ	4	idtext0015	heure	##f#p##	spk3	41.59	41.66	0.01	_
20091112_RATP_SCD_0784	13	7	quarante-cinq	NULL	adj	I_H	I_GP	MOD	6	idtext0015	quarante-cinq	#####	spk3	41.67	42.45	0.01	_
20091112_RATP_SCD_0784	13	8	à	NULL	prep	NULL	B_GP	MOD	6	idtext0015	à	#####	spk3	42.46	42.56	0.01	_
20091112_RATP_SCD_0784	13	9	la	NULL	det	NULL	I_GP	DET	10	idtext0015	le	##m#s##d	spk3	42.57	42.69	0.01	_
20091112_RATP_SCD_0784	13	10	gare	NULL	nc	B_A	I_GP	OBJ	8	idtext0015	gare	##f#s##	spk3	42.7	42.95	0.01	_
20091112_RATP_SCD_0784	13	11	de	NULL	prep	I_A	I_GP	DEP	10	idtext0015	de	#####	spk3	42.96	43.2	0.01	_
20091112_RATP_SCD_0784	13	12	Sarcelles-Saint-Brice	NULL	np	I_A	I_GP	OBJ	11	idtext0015	Sarcelles-Saint-Brice	#####	spk3	43.21	43.92	?	//

20091112_RATP_SCD_0784	14	1	d'accord	NULL	adv	NULL	B_GADV	NOLINK	0	idtext0016	d'accord	#####	spk2	44.08	44.58	0.01	_
20091112_RATP_SCD_0784	14	2	je	NULL	cln	NULL	B_GN	SUJ	4	idtext0016	cln	#1##s##	spk2	44.59	44.65	0.01	_
20091112_RATP_SCD_0784	14	3	vous	NULL	clo	NULL	B_GN	OBJ	4	idtext0016	cln	#2##p##	spk2	44.66	44.71	0.01	_
20091112_RATP_SCD_0784	14	4	prie	NULL	v	NULL	B_GVf	ROOT	0	idtext0016	prier	PS#13##s##	spk2	44.72	44.83	0.01	_
20091112_RATP_SCD_0784	14	5	de	NULL	prep	NULL	B_GP	DE_OBJ	4	idtext0016	de	#####	spk2	44.84	44.86	0.01	_
20091112_RATP_SCD_0784	14	6	patienter	NULL	vinf	NULL	I_GP	OBJ	5	idtext0016	patienter	W#####	spk2	44.87	45.29	?	_

20091112_RATP_SCD_0784	15	1	oui	NULL	adv	NULL	B_GADV	MOD	2	idtext0017	oui	#####	spk3	45.39	45.67	0.01	_
20091112_RATP_SCD_0784	15	2	merci	NULL	adv	NULL	I_GADV	ROOT	0	idtext0017	merci	#####	spk3	45.68	46.16	?	//

20091112_RATP_SCD_0784	16	1	s'il+vous+plaît	NULL	adv	NULL	B_GADV	NOLINK	0	idtext0018	s'il+vous+plaît	#####	spk2	52.63	53.14	?	//

20091112_RATP_SCD_0784	17	1	oui	NULL	adv	NULL	B_GADV	NOLINK	0	idtext0019	oui	#####	spk3	53.31	53.65	?	//

20091112_RATP_SCD_0784	18	1	alors	NULL	adv	NULL	B_GADV	NOLINK	0	idtext0020	alors	#####	spk2	53.69	53.91	0.01	_
20091112_RATP_SCD_0784	18	2	vous	NULL	cln	NULL	B_GN	SUJ	4	idtext0020	cln	#2##p##	spk2	53.92	53.97	0.01	_
20091112_RATP_SCD_0784	18	3	en	NULL	clo	NULL	B_GN	DE_OBJ	4	idtext0020	en	#####	spk2	53.98	54.09	0.01	_
20091112_RATP_SCD_0784	18	4	aurez	NULL	v	NULL	B_GVf	ROOT	0	idtext0020	avoir	F#2##p##	spk2	54.1	54.3	0.01	_
20091112_RATP_SCD_0784	18	5	un	NULL	nc	NULL	B_GN	OBJ	4	idtext0020	un	##m#s##	spk2	54.31	54.34	0.01	_
20091112_RATP_SCD_0784	18	6	à	NULL	prep	NULL	B_GP	MOD	5	idtext0020	à	#####	spk2	54.35	54.67	0.01	_
20091112_RATP_SCD_0784	18	7	seize	NULL	det	B_H	I_GP	DET	8	idtext0020	seize	#####	spk2	54.68	54.91	0.01	_
20091112_RATP_SCD_0784	18	8	heures	NULL	nc	I_H	I_GP	OBJ	6	idtext0020	heure	##f#p##	spk2	54.92	55.0	0.01	_
20091112_RATP_SCD_0784	18	9	cinquante-cinq	NULL	adj	I_H	I_GP	MOD	8	idtext0020	cinquante-cinq	#####	spk2	55.01	55.9	?	//

20091112_RATP_SCD_0784	19	1	seize	NULL	det	B_H	B_GN	DET	2	idtext0021	seize	#####	spk3	56.47	56.65	0.01	_
20091112_RATP_SCD_0784	19	2	heures	NULL	nc	I_H	I_GN	NOLINK	0	idtext0021	heure	##f#p##	spk3	56.66	56.82	0.01	_
20091112_RATP_SCD_0784	19	3	cinquante-cinq	NULL	adj	I_H	I_GN	MOD	2	idtext0021	cinquante-cinq	#####	spk3	56.83	57.57	?	//

20091112_RATP_SCD_0784	20	1	et	NULL	coo	NULL	B_NULL	NOLINK	0	idtext0022	et	#####	spk2	58.22	58.27	0.01	_
20091112_RATP_SCD_0784	20	2	sinon	NULL	coo	NULL	B_NULL	NOLINK	0	idtext0022	sinon	#####	spk2	58.28	58.52	0.01	_
20091112_RATP_SCD_0784	20	3	l'autre	NULL	pro	NULL	B_GN	ROOT	0	idtext0022	l'autre	#####	spk2	58.53	58.69	0.01	_
20091112_RATP_SCD_0784	20	4	d'+après	NULL	prep	NULL	B_GP	MOD	3	idtext0022	d'+après	#####	spk2	58.7	59.02	0.01	_
20091112_RATP_SCD_0784	20	5	dix-sept	NULL	det	B_H	I_GP	DET	6	idtext0022	dix-sept	#####	spk2	59.03	59.4	0.01	_
20091112_RATP_SCD_0784	20	6	heures	NULL	nc	I_H	I_GP	OBJ	4	idtext0022	heure	##f#p##	spk2	59.41	59.5	0.01	_
20091112_RATP_SCD_0784	20	7	douze	NULL	adj	I_H	I_GP	MOD	6	idtext0022	douze	#####	spk2	59.51	60.01	?	//

20091112_RATP_SCD_0784	21	1	d'accord	NULL	adv	NULL	B_GADV	NOLINK	0	idtext0023	d'accord	#####	spk3	60.92	61.26	0.01	_
20091112_RATP_SCD_0784	21	2	donc	NULL	coo	NULL	B_NULL	ROOT	0	idtext0023	donc	#####	spk3	61.27	61.54	0.01	_
20091112_RATP_SCD_0784	21	3	il	NULL	cln	NULL	B_GN	SUJ_IMP	4	idtext0023	cln	#3#m#s##	spk3	61.55	61.6	0.01	_
20091112_RATP_SCD_0784	21	4	faut	NULL	v	NULL	B_GVfn	DEP_COORD	2	idtext0023	falloir	P#3##s##	spk3	61.61	61.66	0.01	_
20091112_RATP_SCD_0784	21	5	pas	NULL	advneg	NULL	I_GVfn	MOD	4	idtext0023	pas	#####	spk3	61.67	61.79	0.01	_
20091112_RATP_SCD_0784	21	6	que	NULL	csu	NULL	B_NULL	OBJ	4	idtext0023	que	#####	spk3	61.8	61.82	0.01	_
20091112_RATP_SCD_0784	21	7	je	NULL	cln	NULL	B_GN	SUJ	8	idtext0023	cln	#1##s##	spk3	61.83	61.95	0.01	_
20091112_RATP_SCD_0784	21	8	loupe	NULL	v	NULL	B_GVf	OBJ	6	idtext0023	louper	PS#13##s##	spk3	61.96	62.22	0.01	_
20091112_RATP_SCD_0784	21	9	celui	NULL	pro	NULL	B_GN	OBJ	8	idtext0023	celui	#####	spk3	62.23	62.45	0.01	_
20091112_RATP_SCD_0784	21	10	de	NULL	prep	NULL	B_GP	DEP	9	idtext0023	de	#####	spk3	62.46	62.57	0.01	_
20091112_RATP_SCD_0784	21	11	seize	NULL	det	B_H	I_GP	DET	12	idtext0023	seize	#####	spk3	62.58	62.74	0.01	_
20091112_RATP_SCD_0784	21	12	heures	NULL	nc	I_H	I_GP	OBJ	10	idtext0023	heure	##f#p##	spk3	62.75	62.92	0.01	_
20091112_RATP_SCD_0784	21	13	cinquante-cinq	NULL	adj	I_H	I_GP	MOD	12	idtext0023	cinquante-cinq	#####	spk3	62.93	63.51	0.01	//
20091112_RATP_SCD_0784	21	14	alors	NULL	adv	NULL	B_GADV	COORD	8	idtext0023	alors	#####	spk3	63.52	63.71	0.01	_
20091112_RATP_SCD_0784	21	15	il	DISF_R	cln	NULL	NULL	NOLINK	0	idtext0023	cln	#3#m#s##	spk3	63.72	63.77	0.01	_
20091112_RATP_SCD_0784	21	16	met	DISF_R	v	NULL	NULL	NOLINK	0	idtext0023	mettre	P#3##s##	spk3	63.78	64.0	0.01	/
20091112_RATP_SCD_0784	21	17	il	NULL	cln	NULL	B_GN	SUJ	18	idtext0023	cln	#3#m#s##	spk3	64.01	64.1	0.01	_
20091112_RATP_SCD_0784	21	18	met	NULL	v	NULL	B_GVf	DEP_COORD	14	idtext0023	mettre	P#3##s##	spk3	64.11	64.28	0.01	_
20091112_RATP_SCD_0784	21	19	à+peu+près	NULL	adv	NULL	B_GADV	MOD	20	idtext0023	à+peu+près	#####	spk3	64.29	64.77	0.01	_
20091112_RATP_SCD_0784	21	20	quoi	NULL	pri	NULL	B_NULL	OBJ	18	idtext0023	quoi	#####	spk3	64.78	65.11	?	_

20091112_RATP_SCD_0784	22	1	euh	DISF_M	pres	NULL	NULL	NOLINK	0	idtext0024	euh	#####	spk3	65.15	65.59	?	//

20091112_RATP_SCD_0784	23	1	il	NULL	cln	NULL	B_GN	SUJ	2	idtext0025	cln	#3#m#s##	spk2	65.15	65.26	0.01	_
20091112_RATP_SCD_0784	23	2	met	NULL	v	NULL	B_GVf	ROOT	0	idtext0025	mettre	P#3##s##	spk2	65.27	65.59	?	//

20091112_RATP_SCD_0784	24	1	un	NULL	det	NULL	B_GN	DET	2	idtext0026	un	##m#s##i	spk2	65.63	65.69	0.01	_
20091112_RATP_SCD_0784	24	2	quart	NULL	nc	NULL	I_GN	ROOT	0	idtext0026	quart	##m#s##	spk2	65.7	65.88	0.01	_
20091112_RATP_SCD_0784	24	3	d'	NULL	prep	NULL	B_GP	DEP	2	idtext0026	d'	#####	spk2	65.89	65.94	0.01	_
20091112_RATP_SCD_0784	24	4	heure	NULL	nc	NULL	I_GP	OBJ	3	idtext0026	heure	##f#s##	spk2	65.95	66.25	?	//

20091112_RATP_SCD_0784	25	1	un	NULL	det	NULL	B_GN	DET	2	idtext0027	un	##m#s##i	spk3	66.42	66.57	0.01	_
20091112_RATP_SCD_0784	25	2	quart	NULL	nc	NULL	I_GN	ROOT	0	idtext0027	quart	##m#s##	spk3	66.58	66.75	0.01	_
20091112_RATP_SCD_0784	25	3	d'	NULL	prep	NULL	B_GP	DEP	2	idtext0027	d'	#####	spk3	66.76	66.79	0.01	_
20091112_RATP_SCD_0784	25	4	heure	NULL	nc	NULL	I_GP	OBJ	3	idtext0027	heure	##f#s##	spk3	66.8	66.87	0.01	_
20091112_RATP_SCD_0784	25	5	pour	NULL	prep	NULL	B_GP	MOD	4	idtext0027	pour	#####	spk3	66.88	67.05	0.01	_
20091112_RATP_SCD_0784	25	6	arriver	NULL	vinf	NULL	I_GP	OBJ	5	idtext0027	arriver	W#####	spk3	67.06	67.39	0.01	_
20091112_RATP_SCD_0784	25	7	aux	NULL	prep	NULL	B_NULL	NOLINK	0	idtext0027	aux	#####	spk3	67.4	67.44	?	_

20091112_RATP_SCD_0784	26	1	Lochères	NULL	nc	B_A	B_GN	NOLINK	0	idtext0028	Lochères	#####	spk3	67.49	68.05	?	_

20091112_RATP_SCD_0784	27	1	aux	NULL	prep	NULL	B_NULL	NOLINK	0	idtext0029	aux	#####	spk2	67.55	67.82	0.01	_
20091112_RATP_SCD_0784	27	2	oui	NULL	adv	NULL	B_GADV	NOLINK	0	idtext0029	oui	#####	spk2	67.83	68.05	?	//

20091112_RATP_SCD_0784	28	1	tout+à+fait	NULL	adv	NULL	B_GADV	NOLINK	0	idtext0030	tout+à+fait	#####	spk2	68.11	68.6	?	//

20091112_RATP_SCD_0784	29	1	OK	NULL	adv	NULL	B_GADV	MOD	2	idtext0031	ok	#####	spk3	68.83	69.22	0.01	_
20091112_RATP_SCD_0784	29	2	d'accord	NULL	adv	NULL	I_GADV	ROOT	0	idtext0031	d'accord	#####	spk3	69.23	69.6	?	//

20091112_RATP_SCD_0784	30	1	merci	NULL	adv	NULL	B_GADV	MOD	2	idtext0032	merci	#####	spk3	69.67	69.97	0.01	_
20091112_RATP_SCD_0784	30	2	beaucoup	NULL	adv	NULL	I_GADV	ROOT	0	idtext0032	beaucoup	#####	spk3	69.98	70.39	?	//

20091112_RATP_SCD_0784	31	1	je	NULL	cln	NULL	B_GN	SUJ	4	idtext0033	cln	#1##s##	spk2	70.43	70.45	0.01	_
20091112_RATP_SCD_0784	31	2	vous	NULL	clo	NULL	B_GN	OBJ	4	idtext0033	cln	#2##p##	spk2	70.46	70.51	0.01	_
20091112_RATP_SCD_0784	31	3	en	NULL	clo	NULL	B_GN	DE_OBJ	4	idtext0033	en	#####	spk2	70.52	70.55	0.01	_
20091112_RATP_SCD_0784	31	4	prie	NULL	v	NULL	B_GVf	ROOT	0	idtext0033	prier	PS#13##s##	spk2	70.56	70.79	?	//

20091112_RATP_SCD_0784	32	1	au+revoir	NULL	adv	NULL	B_GADV	NOLINK	0	idtext0034	au+revoir	#####	spk3	70.92	71.24	?	//

20091112_RATP_SCD_0784	33	1	bonne	NULL	adj	NULL	B_GN	MOD	2	idtext0035	bon	##f#s##	spk2	71.28	71.4	0.01	_
20091112_RATP_SCD_0784	33	2	journée	NULL	nc	NULL	I_GN	ROOT	0	idtext0035	journée	##f#s##	spk2	71.41	71.61	0.01	_
20091112_RATP_SCD_0784	33	3	au+revoir	NULL	adv	NULL	B_GADV	NOLINK	0	idtext0035	au+revoir	#####	spk2	71.62	72.16	?	//

