20091112_RATP_SCD_0767	1	1	NNAAMMEE	NULL	np	B_HU	B_GN	ROOT	0	idtext0000	ANONYM	NULL	spk1	2.89	3.35	0.06	_
20091112_RATP_SCD_0767	1	2	va	NULL	v	NULL	B_GVf	ROOT	0	idtext0001	aller	P#3##s##	spk1	3.41	3.46	0.01	_
20091112_RATP_SCD_0767	1	3	vous	NULL	clo	NULL	B_GN	A_OBJ	4	idtext0001	cln	#2##p##	spk1	3.47	3.52	0.01	_
20091112_RATP_SCD_0767	1	4	répondre	NULL	vinf	NULL	B_GVi	OBJ	2	idtext0001	répondre	W#####	spk1	3.53	4.14	?	//

20091112_RATP_SCD_0767	2	1	NNAAMMEE	NULL	np	B_HU	B_GN	ROOT	0	idtext0002	ANONYM	NULL	spk2	4.21	4.67	0.04	_
20091112_RATP_SCD_0767	2	2	bonjour	NULL	adv	NULL	B_GADV	NOLINK	0	idtext0003	bonjour	#####	spk2	4.71	5.01	?	//

20091112_RATP_SCD_0767	3	1	oui	NULL	adv	NULL	B_GADV	MOD	2	idtext0004	oui	#####	spk3	5.46	5.62	0.01	_
20091112_RATP_SCD_0767	3	2	bonjour	NULL	adv	NULL	I_GADV	ROOT	0	idtext0004	bonjour	#####	spk3	5.63	6.23	?	//

20091112_RATP_SCD_0767	4	1	bonjour	NULL	adv	NULL	B_GADV	NOLINK	0	idtext0005	bonjour	#####	spk2	6.27	6.47	0.01	//
20091112_RATP_SCD_0767	4	2	monsieur	NULL	nc	NULL	B_GN	NOLINK	0	idtext0005	Monsieur	##m#s##	spk2	6.48	6.67	?	//

20091112_RATP_SCD_0767	5	1	euh	DISF_M	pres	NULL	NULL	NOLINK	0	idtext0006	euh	#####	spk3	6.35	6.67	?	//

20091112_RATP_SCD_0767	6	1	je	NULL	cln	NULL	B_GN	SUJ	3	idtext0007	cln	#1##s##	spk3	6.71	6.8	0.01	_
20091112_RATP_SCD_0767	6	2	vous	NULL	clo	NULL	B_GN	OBJ	3	idtext0007	cln	#2##p##	spk3	6.81	6.97	0.01	_
20091112_RATP_SCD_0767	6	3	appelle	NULL	v	NULL	B_GVf	ROOT	0	idtext0007	appeler	PS#13##s##	spk3	6.98	7.19	0.01	_
20091112_RATP_SCD_0767	6	4	en+fait	GREF	adv	NULL	B_GADV	NOLINK	0	idtext0007	en+fait	#####	spk3	7.2	7.48	0.01	_
20091112_RATP_SCD_0767	6	5	j'	NULL	cln	NULL	B_GN	SUJ	7	idtext0007	cln	#1##s##	spk3	7.49	7.58	0.01	_
20091112_RATP_SCD_0767	6	6	aurais	NULL	v	NULL	B_GVf	AUX	7	idtext0007	avoir	C#12##s##	spk3	7.59	7.74	0.01	_
20091112_RATP_SCD_0767	6	7	désiré	NULL	vppart	NULL	I_GVf	ROOT	0	idtext0007	désirer	K##m#s##	spk3	7.75	8.04	0.01	_
20091112_RATP_SCD_0767	6	8	prendre	NULL	vinf	NULL	B_GVi	OBJ	7	idtext0007	prendre	W#####	spk3	8.05	8.27	0.01	_
20091112_RATP_SCD_0767	6	9	des	NULL	det	NULL	B_GN	DET	10	idtext0007	des	###p##i	spk3	8.28	8.37	0.01	_
20091112_RATP_SCD_0767	6	10	renseignements	NULL	nc	NULL	I_GN	OBJ	8	idtext0007	renseignement	##m#p##	spk3	8.38	8.82	0.01	_
20091112_RATP_SCD_0767	6	11	par+rapport+à	NULL	prep	NULL	B_NULL	P_OBJ	10	idtext0007	par+rapport+à	#####	spk3	8.83	9.87	0.38	_
20091112_RATP_SCD_0767	6	12	un	NULL	det	NULL	B_GN	DET	13	idtext0008	un	##m#s##i	spk3	10.25	10.31	0.01	_
20091112_RATP_SCD_0767	6	13	contrat	NULL	nc	NULL	I_GN	ROOT	0	idtext0008	contrat	##m#s##	spk3	10.32	10.59	0.01	_
20091112_RATP_SCD_0767	6	14	de	NULL	prep	NULL	B_GP	DEP	13	idtext0008	de	#####	spk3	10.6	10.62	0.01	_
20091112_RATP_SCD_0767	6	15	professionnalisation	NULL	nc	NULL	I_GP	OBJ	14	idtext0008	professionnalisation	##f#s##	spk3	10.63	11.45	0.01	_
20091112_RATP_SCD_0767	6	16	pour	NULL	prep	NULL	B_GP	MOD	15	idtext0008	pour	#####	spk3	11.46	11.6	0.01	_
20091112_RATP_SCD_0767	6	17	passer	NULL	vinf	NULL	I_GP	OBJ	16	idtext0008	passer	W#####	spk3	11.61	11.81	0.01	_
20091112_RATP_SCD_0767	6	18	un	NULL	det	NULL	B_GN	DET	19	idtext0008	un	##m#s##i	spk3	11.82	11.97	0.01	_
20091112_RATP_SCD_0767	6	19	permis	NULL	nc	NULL	I_GN	OBJ	17	idtext0008	permis	##m###	spk3	11.98	12.42	0.01	_
20091112_RATP_SCD_0767	6	20	euh	DISF_M	pres	NULL	NULL	NOLINK	0	idtext0008	euh	#####	spk3	12.43	12.91	0.01	_
20091112_RATP_SCD_0767	6	21	autocar	NULL	nc	NULL	I_GN	MOD	19	idtext0008	autocar	##m#s##	spk3	12.92	13.41	?	//

20091112_RATP_SCD_0767	7	1	hm+hm	DISF_M	pres	NULL	NULL	NOLINK	0	idtext0009	hm+hm	#####	spk2	14.07	14.32	?	//

20091112_RATP_SCD_0767	8	1	et	NULL	coo	NULL	B_NULL	ROOT	0	idtext0010	et	#####	spk3	15.61	15.63	0.01	_
20091112_RATP_SCD_0767	8	2	je	NULL	cln	NULL	B_GN	SUJ	3	idtext0010	cln	#1##s##	spk3	15.64	15.66	0.01	_
20091112_RATP_SCD_0767	8	3	voulais	NULL	v	NULL	B_GVf	DEP_COORD	1	idtext0010	vouloir	I#12##s##	spk3	15.67	15.78	0.01	_
20091112_RATP_SCD_0767	8	4	savoir	NULL	vinf	NULL	I_GVf	OBJ	3	idtext0010	savoir	W#####	spk3	15.79	16.51	0.01	_
20091112_RATP_SCD_0767	8	5	l()	DISF_T	tronc	NULL	NULL	NOLINK	0	idtext0010	l()	#####	spk3	16.52	16.8	?	//

20091112_RATP_SCD_0767	9	1	à	NULL	prep	NULL	B_GP	ROOT	0	idtext0011	à	#####	spk2	15.84	15.93	0.01	_
20091112_RATP_SCD_0767	9	2	la	NULL	det	NULL	I_GP	DET	3	idtext0011	le	##m#s##d	spk2	15.94	16.1	0.01	_
20091112_RATP_SCD_0767	9	3	RATP	NULL	np	B_ORG	I_GP	OBJ	1	idtext0011	RATP	##f#s##	spk2	16.11	16.8	?	//

20091112_RATP_SCD_0767	10	1	euh	DISF_M	pres	NULL	NULL	NOLINK	0	idtext0012	euh	#####	spk3	17.47	17.87	0.01	_
20091112_RATP_SCD_0767	10	2	à	DISF_R	prep	NULL	NULL	NOLINK	0	idtext0012	à	#####	spk3	17.88	17.97	0.01	_
20091112_RATP_SCD_0767	10	3	la	DISF_R	det	NULL	NULL	NOLINK	0	idtext0012	le	##m#s##d	spk3	17.98	18.34	0.01	_
20091112_RATP_SCD_0767	10	4	à	NULL	prep	NULL	B_GP	ROOT	0	idtext0013	à	#####	spk3	18.35	18.64	0.01	_
20091112_RATP_SCD_0767	10	5	la	NULL	det	NULL	I_GP	DET	6	idtext0013	le	##m#s##d	spk3	18.65	18.79	0.01	_
20091112_RATP_SCD_0767	10	6	RATP	NULL	np	B_ORG	I_GP	OBJ	4	idtext0013	RATP	##f#s##	spk3	18.8	19.25	0.01	_
20091112_RATP_SCD_0767	10	7	pourquoi	NULL	adv	NULL	B_GADV	MOD	8	idtext0013	pourquoi	#####	spk3	19.26	19.51	0.01	_
20091112_RATP_SCD_0767	10	8	pas	NULL	advneg	NULL	B_NULL	ROOT	0	idtext0013	pas	#####	spk3	19.52	19.66	0.01	_
20091112_RATP_SCD_0767	10	9	oui	NULL	adv	NULL	B_GADV	NOLINK	0	idtext0013	oui	#####	spk3	19.67	19.93	?	_

20091112_RATP_SCD_0767	11	1	euh	DISF_M	pres	NULL	NULL	NOLINK	0	idtext0014	euh	#####	spk2	20.15	21.23	?	//

20091112_RATP_SCD_0767	12	1	alors	NULL	adv	NULL	B_GADV	MOD	2	idtext0015	alors	#####	spk2	22.15	22.43	0.01	_
20091112_RATP_SCD_0767	12	2	normalement	NULL	adv	NULL	I_GADV	ROOT	0	idtext0015	normalement	#####	spk2	22.44	23.18	?	_

20091112_RATP_SCD_0767	13	1	euh	DISF_M	pres	NULL	NULL	NOLINK	0	idtext0016	euh	#####	spk2	23.61	24.11	0.04	_
20091112_RATP_SCD_0767	13	2	il	NULL	cln	NULL	B_GN	SUJ_IMP	3	idtext0017	cln	#3#m#s##	spk2	24.15	24.2	0.01	_
20091112_RATP_SCD_0767	13	3	faut	NULL	v	NULL	B_GVf	ROOT	0	idtext0017	falloir	P#3##s##	spk2	24.21	24.26	0.01	_
20091112_RATP_SCD_0767	13	4	faire	NULL	vinf	NULL	I_GVf	OBJ	3	idtext0017	faire	W#####	spk2	24.27	24.46	0.01	_
20091112_RATP_SCD_0767	13	5	une	NULL	det	NULL	B_GN	DET	6	idtext0017	un	##f#s##i	spk2	24.47	24.56	0.01	_
20091112_RATP_SCD_0767	13	6	demande	NULL	nc	NULL	I_GN	OBJ	4	idtext0017	demande	##f#s##	spk2	24.57	24.92	0.01	_
20091112_RATP_SCD_0767	13	7	via	NULL	prep	NULL	B_GP	MOD	6	idtext0017	via	#####	spk2	24.93	25.09	0.01	_
20091112_RATP_SCD_0767	13	8	internet	NULL	nc	NULL	I_GP	OBJ	7	idtext0017	internet	##m#s##	spk2	25.1	25.76	?	//

20091112_RATP_SCD_0767	14	1	ou	NULL	coo	NULL	B_NULL	NOLINK	0	idtext0018	ou	#####	spk2	26.23	26.38	0.01	_
20091112_RATP_SCD_0767	14	2	éventuellement	NULL	adv	NULL	B_GADV	NOLINK	0	idtext0018	éventuellement	#####	spk2	26.39	27.04	?	_

20091112_RATP_SCD_0767	15	1	euh	DISF_M	pres	NULL	NULL	NOLINK	0	idtext0019	euh	#####	spk2	28.03	28.53	0.04	_
20091112_RATP_SCD_0767	15	2	en	NULL	prep	NULL	B_GP	ROOT	0	idtext0020	en	#####	spk2	28.57	28.6	0.01	_
20091112_RATP_SCD_0767	15	3	envoyant	NULL	vprespart	NULL	I_GP	OBJ	2	idtext0020	envoyer	G#####	spk2	28.61	28.84	0.01	_
20091112_RATP_SCD_0767	15	4	votre	NULL	det	NULL	B_GN	DET	5	idtext0020	votre	###s##o	spk2	28.85	29.04	0.01	_
20091112_RATP_SCD_0767	15	5	candidature	NULL	nc	NULL	I_GN	OBJ	3	idtext0020	candidature	##f#s##	spk2	29.05	29.77	0.01	_
20091112_RATP_SCD_0767	15	6	par	NULL	prep	NULL	B_GP	P_OBJ	5	idtext0020	par	#####	spk2	29.78	29.94	0.01	_
20091112_RATP_SCD_0767	15	7	courrier	NULL	nc	NULL	I_GP	OBJ	6	idtext0020	courrier	##m#s##	spk2	29.95	30.38	?	//

20091112_RATP_SCD_0767	16	1	d'accord	NULL	adv	NULL	B_GADV	NOLINK	0	idtext0021	d'accord	#####	spk3	31.0	31.47	?	//

20091112_RATP_SCD_0767	17	1	euh	DISF_M	pres	NULL	NULL	NOLINK	0	idtext0022	euh	#####	spk2	31.99	32.9	0.04	_
20091112_RATP_SCD_0767	17	2	donc	NULL	coo	NULL	B_NULL	NOLINK	0	idtext0023	donc	#####	spk2	32.94	33.14	0.01	_
20091112_RATP_SCD_0767	17	3	si	NULL	csu	NULL	B_NULL	ROOT	0	idtext0023	si	#####	spk2	33.15	33.34	0.01	_
20091112_RATP_SCD_0767	17	4	vous	NULL	cln	NULL	B_GN	SUJ	5	idtext0023	cln	#2##p##	spk2	33.35	33.6	0.01	_
20091112_RATP_SCD_0767	17	5	envoyez	NULL	v	NULL	B_GVf	OBJ	3	idtext0023	envoyer	P#2##p##	spk2	33.61	33.87	0.01	_
20091112_RATP_SCD_0767	17	6	votre	NULL	det	NULL	B_GN	DET	7	idtext0023	votre	###s##o	spk2	33.88	34.19	0.01	_
20091112_RATP_SCD_0767	17	7	candidature	NULL	nc	NULL	I_GN	OBJ	5	idtext0023	candidature	##f#s##	spk2	34.2	34.76	0.01	_
20091112_RATP_SCD_0767	17	8	par	NULL	prep	NULL	B_GP	P_OBJ	7	idtext0023	par	#####	spk2	34.77	34.98	0.01	_
20091112_RATP_SCD_0767	17	9	courrier	NULL	nc	NULL	I_GP	OBJ	8	idtext0023	courrier	##m#s##	spk2	34.99	35.33	0.01	//
20091112_RATP_SCD_0767	17	10	je	NULL	cln	NULL	B_GN	SUJ	11	idtext0023	cln	#1##s##	spk2	35.34	35.46	0.01	_
20091112_RATP_SCD_0767	17	11	vais	NULL	v	NULL	B_GVf	ROOT	0	idtext0023	aller	P#1##s##	spk2	35.47	35.52	0.01	_
20091112_RATP_SCD_0767	17	12	vous	NULL	clo	NULL	B_GN	A_OBJ	13	idtext0023	cln	#2##p##	spk2	35.53	35.58	0.01	_
20091112_RATP_SCD_0767	17	13	donner	NULL	vinf	NULL	B_GVi	OBJ	11	idtext0023	donner	W#####	spk2	35.59	35.83	0.01	_
20091112_RATP_SCD_0767	17	14	l'	NULL	det	NULL	B_GN	DET	15	idtext0023	le	###s##d	spk2	35.84	35.89	0.01	_
20091112_RATP_SCD_0767	17	15	adresse	NULL	nc	NULL	I_GN	OBJ	13	idtext0023	adresse	##f#s##	spk2	35.9	36.32	0.63	/
20091112_RATP_SCD_0767	17	16	sinon	NULL	coo	NULL	B_NULL	ROOT	0	idtext0024	sinon	#####	spk2	36.95	37.17	0.01	_
20091112_RATP_SCD_0767	17	17	vous	NULL	cln	NULL	B_GN	SUJ	18	idtext0024	cln	#2##p##	spk2	37.18	37.23	0.01	_
20091112_RATP_SCD_0767	17	18	pouvez	NULL	v	NULL	B_GVf	DEP_COORD	16	idtext0024	pouvoir	P#2##p##	spk2	37.24	37.45	0.01	_
20091112_RATP_SCD_0767	17	19	le	NULL	clo	NULL	B_GN	OBJ	20	idtext0024	cla	#3#m#s##	spk2	37.46	37.5	0.01	_
20091112_RATP_SCD_0767	17	20	faire	NULL	vinf	NULL	B_GVi	OBJ	18	idtext0024	faire	W#####	spk2	37.51	37.74	0.01	_
20091112_RATP_SCD_0767	17	21	par	NULL	prep	NULL	B_GP	P_OBJ	20	idtext0024	par	#####	spk2	37.75	37.9	0.01	_
20091112_RATP_SCD_0767	17	22	internet	NULL	nc	NULL	I_GP	OBJ	21	idtext0024	internet	##m#s##	spk2	37.91	38.41	0.01	_
20091112_RATP_SCD_0767	17	23	également	NULL	adv	NULL	B_GADV	NOLINK	0	idtext0024	également	#####	spk2	38.42	38.95	?	//

20091112_RATP_SCD_0767	18	1	d'accord	NULL	adv	NULL	B_GADV	NOLINK	0	idtext0025	d'accord	#####	spk3	39.05	39.56	0.04	_
20091112_RATP_SCD_0767	18	2	donc	NULL	coo	NULL	B_NULL	ROOT	0	idtext0026	donc	#####	spk3	39.6	39.92	0.01	_
20091112_RATP_SCD_0767	18	3	euh	DISF_M	pres	NULL	NULL	NOLINK	0	idtext0026	euh	#####	spk3	39.93	39.97	0.01	_
20091112_RATP_SCD_0767	18	4	je	NULL	cln	NULL	B_GN	SUJ	5	idtext0026	cln	#1##s##	spk3	39.98	40.06	0.01	_
20091112_RATP_SCD_0767	18	5	peux	NULL	v	NULL	B_GVf	DEP_COORD	2	idtext0026	pouvoir	P#12##s##	spk3	40.07	40.21	0.01	_
20091112_RATP_SCD_0767	18	6	avoir	NULL	vinf	NULL	I_GVf	OBJ	5	idtext0026	avoir	W#####	spk3	40.22	40.41	0.01	_
20091112_RATP_SCD_0767	18	7	l()	DISF_T	tronc	NULL	NULL	NOLINK	0	idtext0026	l()	#####	spk3	40.42	40.46	?	//

20091112_RATP_SCD_0767	19	1	vous	NULL	cln	NULL	B_GN	SUJ	2	idtext0027	cln	#2##p##	spk2	40.5	40.61	0.01	_
20091112_RATP_SCD_0767	19	2	avez	NULL	v	NULL	B_GVf	ROOT	0	idtext0027	avoir	P#2##p##	spk2	40.62	40.8	0.01	_
20091112_RATP_SCD_0767	19	3	un	NULL	det	NULL	B_GN	DET	4	idtext0027	un	##m#s##i	spk2	40.81	40.9	0.01	_
20091112_RATP_SCD_0767	19	4	permis	NULL	nc	NULL	I_GN	OBJ	2	idtext0027	permis	##m###	spk2	40.91	41.28	0.01	_
20091112_RATP_SCD_0767	19	5	déjà	NULL	adv	NULL	B_GADV	MOD	2	idtext0027	déjà	#####	spk2	41.29	41.71	?	//

20091112_RATP_SCD_0767	20	1	permis	NULL	nc	NULL	B_GN	ROOT	0	idtext0028	permis	##m###	spk2	41.76	42.03	0.01	_
20091112_RATP_SCD_0767	20	2	voiture	NULL	nc	NULL	I_GN	MOD	1	idtext0028	voiture	##f#s##	spk2	42.04	42.53	?	//

20091112_RATP_SCD_0767	21	1	oui	NULL	adv	NULL	B_GADV	NOLINK	0	idtext0029	oui	#####	spk3	42.57	42.81	0.01	_
20091112_RATP_SCD_0767	21	2	permis	NULL	nc	NULL	B_GN	ROOT	0	idtext0029	permis	##m###	spk3	42.82	43.17	0.01	_
20091112_RATP_SCD_0767	21	3	B	NULL	nc	NULL	I_GN	MOD	2	idtext0029	B	#####	spk3	43.18	43.38	0.01	_
20091112_RATP_SCD_0767	21	4	oui	NULL	adv	NULL	B_GADV	NOLINK	0	idtext0029	oui	#####	spk3	43.39	43.65	?	//

20091112_RATP_SCD_0767	22	1	d'accord	NULL	adv	NULL	B_GADV	NOLINK	0	idtext0030	d'accord	#####	spk2	43.78	44.17	?	//

20091112_RATP_SCD_0767	23	1	donc	NULL	coo	NULL	B_NULL	ROOT	0	idtext0031	donc	#####	spk2	44.57	44.68	0.01	_
20091112_RATP_SCD_0767	23	2	dans+ce+cas-là	NULL	adv	NULL	B_GADV	NOLINK	0	idtext0031	dans+ce+cas-là	#####	spk2	44.69	45.12	0.01	_
20091112_RATP_SCD_0767	23	3	je	NULL	cln	NULL	B_GN	SUJ	4	idtext0031	cln	#1##s##	spk2	45.13	45.27	0.01	_
20091112_RATP_SCD_0767	23	4	vais	NULL	v	NULL	B_GVf	DEP_COORD	1	idtext0031	aller	P#1##s##	spk2	45.28	45.33	0.01	_
20091112_RATP_SCD_0767	23	5	vous	NULL	clo	NULL	B_GN	A_OBJ	6	idtext0031	cln	#2##p##	spk2	45.34	45.39	0.01	_
20091112_RATP_SCD_0767	23	6	donner	NULL	vinf	NULL	B_GVi	OBJ	4	idtext0031	donner	W#####	spk2	45.4	45.63	0.01	_
20091112_RATP_SCD_0767	23	7	l'	NULL	det	NULL	B_GN	DET	8	idtext0031	le	###s##d	spk2	45.64	45.67	0.01	_
20091112_RATP_SCD_0767	23	8	adresse	NULL	nc	NULL	I_GN	OBJ	6	idtext0031	adresse	##f#s##	spk2	45.68	46.02	0.01	_
20091112_RATP_SCD_0767	23	9	où	NULL	prorel	NULL	B_NULL	P_OBJ_LOC	10	idtext0031	où	#####	spk2	46.03	46.14	0.01	_
20091112_RATP_SCD_0767	23	10	écrire	NULL	vinf	NULL	B_GVi	MOD_REL	8	idtext0031	écrire	W#####	spk2	46.15	46.64	?	_

20091112_RATP_SCD_0767	24	1	oui	NULL	adv	NULL	B_GADV	NOLINK	0	idtext0032	oui	#####	spk3	46.96	47.19	?	//

20091112_RATP_SCD_0767	25	1	et+puis	NULL	coo	NULL	B_NULL	NOLINK	0	idtext0033	et+puis	#####	spk2	47.67	47.92	0.01	_
20091112_RATP_SCD_0767	25	2	également	NULL	adv	NULL	B_GADV	NOLINK	0	idtext0033	également	#####	spk2	47.93	48.34	0.01	_
20091112_RATP_SCD_0767	25	3	le	NULL	det	NULL	B_NULL	NOLINK	0	idtext0033	le	##m#s##d	spk2	48.35	49.81	0.07	_
20091112_RATP_SCD_0767	25	4	internet	NULL	nc	NULL	B_GN	ROOT	0	idtext0034	internet	##m#s##	spk2	49.88	50.27	0.01	_
20091112_RATP_SCD_0767	25	5	comment	NULL	adv	NULL	B_GADV	MOD	4	idtext0034	comment	#####	spk2	50.28	51.04	?	//

20091112_RATP_SCD_0767	26	1	parce+que	NULL	csu	NULL	B_NULL	ROOT	0	idtext0035	parce+que	#####	spk2	51.61	51.75	0.01	_
20091112_RATP_SCD_0767	26	2	vous	NULL	cln	NULL	B_GN	SUJ	3	idtext0035	cln	#2##p##	spk2	51.76	51.84	0.01	_
20091112_RATP_SCD_0767	26	3	pouvez	NULL	v	NULL	B_GVf	OBJ	1	idtext0035	pouvoir	P#2##p##	spk2	51.85	51.96	0.01	_
20091112_RATP_SCD_0767	26	4	le	NULL	clo	NULL	B_GN	OBJ	5	idtext0035	cla	#3#m#s##	spk2	51.97	51.99	0.01	_
20091112_RATP_SCD_0767	26	5	faire	NULL	vinf	NULL	B_GVi	OBJ	3	idtext0035	faire	W#####	spk2	52.0	52.08	0.01	_
20091112_RATP_SCD_0767	26	6	par	NULL	prep	NULL	B_GP	P_OBJ	5	idtext0035	par	#####	spk2	52.09	52.17	0.01	_
20091112_RATP_SCD_0767	26	7	internet	NULL	nc	NULL	I_GP	OBJ	6	idtext0035	internet	##m#s##	spk2	52.18	52.55	0.01	//
20091112_RATP_SCD_0767	26	8	aussi	NULL	adv	NULL	B_GADV	NOLINK	0	idtext0035	aussi	#####	spk2	52.56	52.79	0.01	_
20091112_RATP_SCD_0767	26	9	hein	DISF_M	pres	NULL	NULL	NOLINK	0	idtext0035	hein	#####	spk2	52.8	52.88	0.01	_
20091112_RATP_SCD_0767	26	10	c'	NULL	cln	NULL	B_GN	SUJ_IMP	11	idtext0035	ce	###s##	spk2	52.89	52.98	0.01	_
20091112_RATP_SCD_0767	26	11	est	NULL	v	NULL	B_GVf	ROOT	0	idtext0035	être	P#3##s##	spk2	52.99	53.01	0.01	_
20091112_RATP_SCD_0767	26	12	aussi	NULL	adv	NULL	B_GADJ	MOD	13	idtext0035	aussi	#####	spk2	53.02	53.17	0.01	_
20091112_RATP_SCD_0767	26	13	rapide	NULL	adj	NULL	I_GADJ	ATS	11	idtext0035	rapide	###s##	spk2	53.18	53.55	0.01	_
20091112_RATP_SCD_0767	26	14	hein	DISF_M	pres	NULL	NULL	NOLINK	0	idtext0035	hein	#####	spk2	53.56	53.82	?	//

20091112_RATP_SCD_0767	27	1	hm	DISF_M	pres	NULL	NULL	NOLINK	0	idtext0036	hm	#####	spk3	53.89	54.03	0.01	_
20091112_RATP_SCD_0767	27	2	d'accord	NULL	adv	NULL	B_GADV	NOLINK	0	idtext0036	d'accord	#####	spk3	54.04	54.54	?	//

20091112_RATP_SCD_0767	28	1	c'	NULL	cln	NULL	B_GN	SUJ_IMP	2	idtext0037	ce	###s##	spk2	54.6	54.62	0.01	_
20091112_RATP_SCD_0767	28	2	est	NULL	v	NULL	B_GVf	ROOT	0	idtext0037	être	P#3##s##	spk2	54.63	54.67	0.01	_
20091112_RATP_SCD_0767	28	3	aussi	NULL	adv	NULL	B_GADJ	MOD	4	idtext0037	aussi	#####	spk2	54.68	54.83	0.01	_
20091112_RATP_SCD_0767	28	4	rapide	NULL	adj	NULL	I_GADJ	ATS	2	idtext0037	rapide	###s##	spk2	54.84	55.13	0.01	_
20091112_RATP_SCD_0767	28	5	vous	NULL	cln	NULL	B_GN	SUJ	6	idtext0037	cln	#2##p##	spk2	55.14	55.2	0.01	_
20091112_RATP_SCD_0767	28	6	voulez	NULL	v	NULL	B_GVf	ROOT	0	idtext0037	vouloir	P#2##p##	spk2	55.21	55.32	0.01	_
20091112_RATP_SCD_0767	28	7	que	NULL	csu	NULL	B_NULL	OBJ	6	idtext0037	que	#####	spk2	55.33	55.35	0.01	_
20091112_RATP_SCD_0767	28	8	je	NULL	cln	NULL	B_GN	SUJ	10	idtext0037	cln	#1##s##	spk2	55.36	55.43	0.01	_
20091112_RATP_SCD_0767	28	9	vous	NULL	clo	NULL	B_GN	A_OBJ	10	idtext0037	cln	#2##p##	spk2	55.44	55.51	0.01	_
20091112_RATP_SCD_0767	28	10	donne	NULL	v	NULL	B_GVf	OBJ	7	idtext0037	donner	PS#13##s##	spk2	55.52	55.69	0.01	_
20091112_RATP_SCD_0767	28	11	les	NULL	det	NULL	B_GN	DET	12	idtext0037	le	###p##d	spk2	55.7	55.78	0.01	_
20091112_RATP_SCD_0767	28	12	deux	NULL	nc	NULL	I_GN	OBJ	10	idtext0037	deux	##m###	spk2	55.79	56.13	?	_

20091112_RATP_SCD_0767	29	1	les	NULL	det	NULL	B_GN	DET	2	idtext0038	le	###p##d	spk3	56.18	56.33	0.01	_
20091112_RATP_SCD_0767	29	2	deux	NULL	nc	NULL	I_GN	ROOT	0	idtext0038	deux	##m###	spk3	56.34	56.48	0.01	_
20091112_RATP_SCD_0767	29	3	s'il+vous+plaît	NULL	adv	NULL	B_GADV	NOLINK	0	idtext0038	s'il+vous+plaît	#####	spk3	56.49	57.01	?	//

20091112_RATP_SCD_0767	30	1	alors	NULL	adv	NULL	B_GADV	NOLINK	0	idtext0039	alors	#####	spk2	57.22	57.37	0.01	_
20091112_RATP_SCD_0767	30	2	je	NULL	cln	NULL	B_GN	SUJ	4	idtext0039	cln	#1##s##	spk2	57.38	57.45	0.01	_
20091112_RATP_SCD_0767	30	3	vous	NULL	clo	NULL	B_GN	A_OBJ	4	idtext0039	cln	#2##p##	spk2	57.46	57.51	0.01	_
20091112_RATP_SCD_0767	30	4	donne	NULL	v	NULL	B_GVf	ROOT	0	idtext0039	donner	PS#13##s##	spk2	57.52	57.66	0.01	_
20091112_RATP_SCD_0767	30	5	l'	NULL	det	NULL	B_GN	DET	6	idtext0039	le	###s##d	spk2	57.67	57.69	0.01	_
20091112_RATP_SCD_0767	30	6	adresse	NULL	nc	NULL	I_GN	OBJ	4	idtext0039	adresse	##f#s##	spk2	57.7	58.08	0.01	_
20091112_RATP_SCD_0767	30	7	donc	NULL	coo	NULL	B_NULL	COORD	4	idtext0039	donc	#####	spk2	58.09	58.26	0.01	_
20091112_RATP_SCD_0767	30	8	concernant	NULL	prep	NULL	B_GP	DEP_COORD	7	idtext0039	concernant	#####	spk2	58.27	58.69	0.01	_
20091112_RATP_SCD_0767	30	9	le	NULL	det	NULL	I_GP	DET	10	idtext0039	le	##m#s##d	spk2	58.7	58.8	0.01	_
20091112_RATP_SCD_0767	30	10	recrutement	NULL	nc	NULL	I_GP	OBJ	8	idtext0039	recrutement	##m#s##	spk2	58.81	59.46	0.63	/
20091112_RATP_SCD_0767	30	11	donc	NULL	coo	NULL	B_NULL	ROOT	0	idtext0040	donc	#####	spk2	60.09	60.29	0.01	_
20091112_RATP_SCD_0767	30	12	vous	NULL	cln	NULL	B_GN	SUJ	13	idtext0040	cln	#2##p##	spk2	60.3	60.46	0.01	_
20091112_RATP_SCD_0767	30	13	allez	NULL	v	NULL	B_GVf	DEP_COORD	11	idtext0040	aller	P#2##p##	spk2	60.47	60.57	0.01	_
20091112_RATP_SCD_0767	30	14	envoyer	NULL	vinf	NULL	I_GVf	OBJ	13	idtext0040	envoyer	W#####	spk2	60.58	60.86	0.01	_
20091112_RATP_SCD_0767	30	15	votre	NULL	det	NULL	B_GN	DET	16	idtext0040	votre	###s##o	spk2	60.87	61.06	0.01	_
20091112_RATP_SCD_0767	30	16	courrier	NULL	nc	NULL	I_GN	OBJ	14	idtext0040	courrier	##m#s##	spk2	61.07	61.64	0.21	//
20091112_RATP_SCD_0767	30	17	euh	DISF_M	pres	NULL	NULL	NOLINK	0	idtext0041	euh	#####	spk2	61.85	62.17	0.01	_
20091112_RATP_SCD_0767	30	18	donc	NULL	coo	NULL	B_NULL	NOLINK	0	idtext0041	donc	#####	spk2	62.18	62.44	0.07	_
20091112_RATP_SCD_0767	30	19	un	NULL	det	NULL	B_GN	DET	20	idtext0042	un	##m#s##i	spk2	62.51	62.62	0.01	_
20091112_RATP_SCD_0767	30	20	CV	NULL	nc	NULL	I_GN	ROOT	0	idtext0042	curriculum+vitae	##m###	spk2	62.63	63.14	0.01	_
20091112_RATP_SCD_0767	30	21	accompagné	NULL	vppart	NULL	B_GVf	MOD	20	idtext0042	accompagner	K##m#s##	spk2	63.15	63.59	0.01	_
20091112_RATP_SCD_0767	30	22	d'	NULL	prep	NULL	B_GP	DEP	21	idtext0042	d'	#####	spk2	63.6	63.62	0.01	_
20091112_RATP_SCD_0767	30	23	une	NULL	det	NULL	I_GP	DET	24	idtext0042	un	##f#s##i	spk2	63.63	63.76	0.01	_
20091112_RATP_SCD_0767	30	24	lettre	NULL	nc	NULL	I_GP	OBJ	22	idtext0042	lettre	##f#s##	spk2	63.77	63.93	0.01	_
20091112_RATP_SCD_0767	30	25	de	NULL	prep	NULL	B_GP	DEP	24	idtext0042	de	#####	spk2	63.94	64.0	0.01	_
20091112_RATP_SCD_0767	30	26	motivation	NULL	nc	NULL	I_GP	OBJ	25	idtext0042	motivation	##f#s##	spk2	64.01	64.63	?	//

20091112_RATP_SCD_0767	31	1	oui	NULL	adv	NULL	B_GADV	NOLINK	0	idtext0043	oui	#####	spk3	64.85	65.26	?	//

20091112_RATP_SCD_0767	32	1	à	NULL	prep	NULL	B_GP	ROOT	0	idtext0044	à	#####	spk2	65.64	65.7	0.01	_
20091112_RATP_SCD_0767	32	2	l'	NULL	det	NULL	I_GP	DET	3	idtext0044	le	###s##d	spk2	65.71	65.74	0.01	_
20091112_RATP_SCD_0767	32	3	adresse	NULL	nc	NULL	I_GP	OBJ	1	idtext0044	adresse	##f#s##	spk2	65.75	66.03	0.01	_
20091112_RATP_SCD_0767	32	4	suivante	NULL	adj	NULL	I_GP	MOD	3	idtext0044	suivant	##f#s##	spk2	66.04	66.37	0.01	_
20091112_RATP_SCD_0767	32	5	donc	NULL	coo	NULL	B_NULL	COORD	1	idtext0044	donc	#####	spk2	66.38	66.6	0.01	_
20091112_RATP_SCD_0767	32	6	c'	NULL	cln	NULL	B_GN	SUJ_IMP	7	idtext0044	ce	###s##	spk2	66.61	66.64	0.01	_
20091112_RATP_SCD_0767	32	7	est	NULL	v	NULL	B_GVf	DEP_COORD	5	idtext0044	être	P#3##s##	spk2	66.65	66.87	0.12	_
20091112_RATP_SCD_0767	32	8	RATP	NULL	np	B_ORG	B_GN	NOLINK	0	idtext0045	RATP	##f#s##	spk2	66.99	67.71	?	//

20091112_RATP_SCD_0767	33	1	oui	NULL	adv	NULL	B_GADV	NOLINK	0	idtext0046	oui	#####	spk3	68.21	68.53	?	//

20091112_RATP_SCD_0767	34	1	D	NULL	nc	NULL	B_GN	NOLINK	0	idtext0047	D	#####	spk2	69.16	69.44	?	_

20091112_RATP_SCD_0767	35	1	C	NULL	nc	NULL	B_GN	ROOT	0	idtext0048	C	#####	spk2	69.97	70.33	0.01	_
20091112_RATP_SCD_0767	35	2	O	NULL	nc	NULL	I_GN	MOD	1	idtext0048	O	#####	spk2	70.34	70.67	?	//

20091112_RATP_SCD_0767	36	1	D	NULL	nc	NULL	B_GN	NOLINK	0	idtext0049	D	#####	spk2	71.76	72.08	?	_

20091112_RATP_SCD_0767	37	1	C	NULL	nc	NULL	B_GN	NOLINK	0	idtext0050	C	#####	spk2	72.58	72.99	0.18	_
20091112_RATP_SCD_0767	37	2	O	NULL	nc	NULL	B_GN	NOLINK	0	idtext0051	O	#####	spk2	73.17	73.48	?	//

20091112_RATP_SCD_0767	38	1	oui	NULL	adv	NULL	B_GADV	NOLINK	0	idtext0052	oui	#####	spk3	73.71	74.01	?	//

20091112_RATP_SCD_0767	39	1	plus	NULL	adv	NULL	B_GADV	MOD	2	idtext0053	plus	#####	spk2	75.1	75.2	0.01	_
20091112_RATP_SCD_0767	39	2	loin	NULL	adv	NULL	I_GADV	ROOT	0	idtext0053	loin	#####	spk2	75.21	75.75	0.06	_
20091112_RATP_SCD_0767	39	3	donc	NULL	coo	NULL	B_NULL	NOLINK	0	idtext0054	donc	#####	spk2	75.81	76.26	0.04	_
20091112_RATP_SCD_0767	39	4	pôle	NULL	nc	NULL	B_GN	ROOT	0	idtext0055	pôle	##m#s##	spk2	76.3	76.6	0.01	_
20091112_RATP_SCD_0767	39	5	sélection	NULL	nc	NULL	I_GN	MOD	4	idtext0055	sélection	##f#s##	spk2	76.61	77.71	?	//

20091112_RATP_SCD_0767	40	1	oui	NULL	adv	NULL	B_GADV	NOLINK	0	idtext0056	oui	#####	spk3	78.49	78.9	?	//

20091112_RATP_SCD_0767	41	1	et	NULL	coo	NULL	B_NULL	ROOT	0	idtext0057	et	#####	spk2	79.23	79.45	0.01	_
20091112_RATP_SCD_0767	41	2	évaluation	NULL	nc	NULL	B_GN	DEP_COORD	1	idtext0057	évaluation	##f#s##	spk2	79.46	80.47	0.01	_
20091112_RATP_SCD_0767	41	3	des	NULL	prep	NULL	B_GP	DEP	2	idtext0057	des	#####	spk2	80.48	80.6	0.01	_
20091112_RATP_SCD_0767	41	4	compétences	NULL	nc	NULL	I_GP	OBJ	3	idtext0057	compétence	##f#p##	spk2	80.61	81.55	?	//

20091112_RATP_SCD_0767	42	1	pôle	NULL	nc	NULL	B_GN	ROOT	0	idtext0058	pôle	##m#s##	spk2	82.56	83.11	0.01	//
20091112_RATP_SCD_0767	42	2	sélection	NULL	nc	NULL	I_GN	MOD	1	idtext0058	sélection	##f#s##	spk2	83.12	83.87	?	//

20091112_RATP_SCD_0767	43	1	et	NULL	coo	NULL	B_NULL	ROOT	0	idtext0059	et	#####	spk3	84.44	84.58	0.01	_
20091112_RATP_SCD_0767	43	2	évaluation	NULL	nc	NULL	B_GN	DEP_COORD	1	idtext0059	évaluation	##f#s##	spk3	84.59	85.17	0.01	_
20091112_RATP_SCD_0767	43	3	des	NULL	prep	NULL	B_GP	DEP	2	idtext0059	des	#####	spk3	85.18	85.33	0.01	_
20091112_RATP_SCD_0767	43	4	compétences	NULL	nc	NULL	I_GP	OBJ	3	idtext0059	compétence	##f#p##	spk3	85.34	86.07	?	//

20091112_RATP_SCD_0767	44	1	et	NULL	coo	NULL	B_NULL	ROOT	0	idtext0060	et	#####	spk2	84.44	84.58	0.01	_
20091112_RATP_SCD_0767	44	2	évaluation	NULL	nc	NULL	B_GN	DEP_COORD	1	idtext0060	évaluation	##f#s##	spk2	84.59	86.07	?	/

20091112_RATP_SCD_0767	45	1	des	NULL	det	NULL	B_GN	DET	2	idtext0061	des	###p##i	spk2	86.17	86.49	0.01	_
20091112_RATP_SCD_0767	45	2	compétences	NULL	nc	NULL	I_GN	ROOT	0	idtext0061	compétence	##f#p##	spk2	86.5	87.31	?	//

20091112_RATP_SCD_0767	46	1	d'accord	NULL	adv	NULL	B_GADV	NOLINK	0	idtext0062	d'accord	#####	spk3	87.35	87.85	?	//

20091112_RATP_SCD_0767	47	1	vingt-trois	NULL	nc	B_A	B_GN	NOLINK	0	idtext0063	vingt-trois	#####	spk2	88.11	88.53	0.01	_
20091112_RATP_SCD_0767	47	2	rue	NULL	nc	I_A	I_GN	MOD	1	idtext0063	rue	##f#s##	spk2	88.54	88.67	0.01	_
20091112_RATP_SCD_0767	47	3	Belliard	NULL	np	I_A	I_GN	MOD	2	idtext0063	Belliard	#####	spk2	88.68	89.3	?	//

20091112_RATP_SCD_0767	48	1	vingt-trois	NULL	nc	NULL	B_GN	NOLINK	0	idtext0064	vingt-trois	#####	spk2	90.16	90.98	?	//

20091112_RATP_SCD_0767	49	1	vingt-trois	NULL	nc	NULL	B_GN	NOLINK	0	idtext0065	vingt-trois	#####	spk3	90.16	90.98	?	//

20091112_RATP_SCD_0767	50	1	rue	NULL	nc	B_A	B_GN	NOLINK	0	idtext0066	rue	##f#s##	spk3	91.56	92.6	0.01	_
20091112_RATP_SCD_0767	50	2	Belliard	NULL	np	I_A	I_GN	MOD	1	idtext0066	Belliard	#####	spk3	92.61	93.31	?	//

20091112_RATP_SCD_0767	51	1	rue	NULL	nc	B_A	B_GN	NOLINK	0	idtext0067	rue	##f#s##	spk2	91.56	92.6	0.01	_
20091112_RATP_SCD_0767	51	2	Belliard	NULL	np	I_A	I_GN	MOD	1	idtext0067	Belliard	#####	spk2	92.61	93.31	?	//

20091112_RATP_SCD_0767	52	1	oui	NULL	adv	NULL	B_GADV	NOLINK	0	idtext0068	oui	#####	spk3	93.59	93.92	?	//

20091112_RATP_SCD_0767	53	1	soixante-quinze	NULL	nc	NULL	B_GN	NOLINK	0	idtext0069	soixante-quinze	#####	spk2	94.48	95.47	?	//

20091112_RATP_SCD_0767	54	1	huit+cent+quatre-vingt-neuf	NULL	nc	NULL	B_GN	ROOT	0	idtext0070	huit+cent+quatre-vingt-neuf	#####	spk2	95.9	97.62	?	_

20091112_RATP_SCD_0767	55	1	soixante-quinze	NULL	nc	NULL	B_GN	NOLINK	0	idtext0071	soixante-quinze	#####	spk2	98.5	99.5	0.08	_
20091112_RATP_SCD_0767	55	2	huit+cent+quatre-vingt-neuf	NULL	nc	NULL	B_GN	ROOT	0	idtext0072	huit+cent+quatre-vingt-neuf	#####	spk2	99.58	101.05	?	_

20091112_RATP_SCD_0767	56	1	oui	NULL	adv	NULL	B_GADV	NOLINK	0	idtext0073	oui	#####	spk3	101.14	101.4	?	//

20091112_RATP_SCD_0767	57	1	Paris	NULL	nc	B_A	B_GN	NOLINK	0	idtext0074	Paris	##m#s##	spk2	101.85	102.16	?	//

20091112_RATP_SCD_0767	58	1	cedex	NULL	nc	NULL	B_GN	ROOT	0	idtext0075	cedex	##m###	spk2	102.67	103.17	0.01	_
20091112_RATP_SCD_0767	58	2	douze	NULL	adj	NULL	I_GN	MOD	1	idtext0075	douze	#####	spk2	103.18	103.56	?	//

20091112_RATP_SCD_0767	59	1	d'accord	NULL	adv	NULL	B_GADV	NOLINK	0	idtext0076	d'accord	#####	spk3	104.46	105.05	?	//

20091112_RATP_SCD_0767	60	1	Paris	NULL	np	B_A	B_GN	NOLINK	0	idtext0077	Paris	##m#s##	spk2	105.14	105.4	0.01	/
20091112_RATP_SCD_0767	60	2	cedex	NULL	nc	I_A	I_GN	MOD	1	idtext0077	cedex	##m###	spk2	105.41	105.77	0.01	_
20091112_RATP_SCD_0767	60	3	douze	NULL	adj	I_A	I_GN	MOD	2	idtext0077	douze	#####	spk2	105.78	106.11	?	//

20091112_RATP_SCD_0767	61	1	ça	NULL	pro	NULL	B_GN	SUJ_IMP	3	idtext0078	ça	#####	spk3	107.32	107.4	0.01	_
20091112_RATP_SCD_0767	61	2	c'	NULL	cln	NULL	B_GN	SUJ_IMP	3	idtext0078	ce	###s##	spk3	107.41	107.43	0.01	_
20091112_RATP_SCD_0767	61	3	est	NULL	v	NULL	B_GVf	ROOT	0	idtext0078	être	P#3##s##	spk3	107.44	107.58	0.01	_
20091112_RATP_SCD_0767	61	4	pour	NULL	prep	NULL	B_GP	ATS	3	idtext0078	pour	#####	spk3	107.59	107.76	0.01	_
20091112_RATP_SCD_0767	61	5	l'	NULL	det	NULL	I_GP	DET	6	idtext0078	le	###s##d	spk3	107.77	107.8	0.01	_
20091112_RATP_SCD_0767	61	6	adresse	NULL	nc	NULL	I_GP	OBJ	4	idtext0078	adresse	##f#s##	spk3	107.81	108.54	0.05	_
20091112_RATP_SCD_0767	61	7	et	NULL	coo	NULL	B_NULL	ROOT	0	idtext0079	et	#####	spk3	108.59	108.64	0.01	_
20091112_RATP_SCD_0767	61	8	pour	NULL	prep	NULL	B_GP	DEP_COORD	7	idtext0079	pour	#####	spk3	108.65	108.88	0.01	_
20091112_RATP_SCD_0767	61	9	le	NULL	det	NULL	I_GP	DET	10	idtext0080	le	##m#s##d	spk3	108.89	109.14	0.01	_
20091112_RATP_SCD_0767	61	10	lien	NULL	nc	NULL	I_GP	OBJ	8	idtext0080	lien	##m#s##	spk3	109.15	109.36	0.01	_
20091112_RATP_SCD_0767	61	11	internet	NULL	nc	NULL	I_GP	MOD	10	idtext0080	internet	##m#s##	spk3	109.37	109.97	?	//

20091112_RATP_SCD_0767	62	1	alors	NULL	adv	NULL	B_GADV	NOLINK	0	idtext0081	alors	#####	spk2	110.07	110.21	0.01	_
20091112_RATP_SCD_0767	62	2	je	NULL	cln	NULL	B_GN	SUJ	5	idtext0081	cln	#1##s##	spk2	110.22	110.29	0.01	_
20091112_RATP_SCD_0767	62	3	vous	NULL	clo	NULL	B_GN	A_OBJ	5	idtext0081	cln	#2##p##	spk2	110.3	110.35	0.01	_
20091112_RATP_SCD_0767	62	4	ai	NULL	v	NULL	B_GVf	AUX	5	idtext0081	avoir	P#1##s##	spk2	110.36	110.39	0.01	_
20091112_RATP_SCD_0767	62	5	dit	NULL	vppart	NULL	I_GVf	ROOT	0	idtext0081	dire	J#3##s##	spk2	110.4	110.54	0.01	_
20091112_RATP_SCD_0767	62	6	vingt-trois	NULL	nc	B_A	B_GN	OBJ	5	idtext0081	vingt-trois	#####	spk2	110.55	110.84	0.01	_
20091112_RATP_SCD_0767	62	7	rue	NULL	nc	I_A	I_GN	MOD	6	idtext0081	rue	##f#s##	spk2	110.85	110.97	0.01	_
20091112_RATP_SCD_0767	62	8	Belliard	NULL	np	I_A	I_GN	MOD	7	idtext0081	Belliard	#####	spk2	110.98	111.34	0.01	_
20091112_RATP_SCD_0767	62	9	hein	DISF_M	pres	I_A	NULL	NOLINK	0	idtext0081	hein	#####	spk2	111.35	111.39	0.01	_
20091112_RATP_SCD_0767	62	10	vous	NULL	cln	NULL	B_GN	SUJ	13	idtext0081	cln	#2##p##	spk2	111.4	111.45	0.01	_
20091112_RATP_SCD_0767	62	11	avez	NULL	v	NULL	B_GVf	AUX	13	idtext0081	avoir	P#2##p##	spk2	111.46	111.6	0.01	_
20091112_RATP_SCD_0767	62	12	bien	NULL	adv	NULL	I_GVf	MOD	13	idtext0081	bien	#####	spk2	111.61	111.73	0.01	_
20091112_RATP_SCD_0767	62	13	noté	NULL	vppart	NULL	I_GVf	ROOT	0	idtext0081	noter	K##m#s##	spk2	111.74	112.02	0.01	_
20091112_RATP_SCD_0767	62	14	hein	DISF_M	pres	NULL	NULL	NOLINK	0	idtext0081	hein	#####	spk2	112.03	112.09	?	//

20091112_RATP_SCD_0767	63	1	ouais	NULL	adv	NULL	B_GADV	NOLINK	0	idtext0082	ouais	#####	spk3	112.13	112.33	?	//

20091112_RATP_SCD_0767	64	1	d'accord	NULL	adv	NULL	B_GADV	NOLINK	0	idtext0083	d'accord	#####	spk2	112.52	112.81	0.46	_
20091112_RATP_SCD_0767	64	2	alors	NULL	adv	NULL	B_GADV	NOLINK	0	idtext0084	alors	#####	spk2	113.27	113.44	0.01	_
20091112_RATP_SCD_0767	64	3	pour	NULL	prep	NULL	B_GP	MOD	7	idtext0084	pour	#####	spk2	113.45	113.59	0.01	_
20091112_RATP_SCD_0767	64	4	internet	NULL	nc	NULL	I_GP	OBJ	3	idtext0084	internet	##m#s##	spk2	113.6	114.01	0.01	_
20091112_RATP_SCD_0767	64	5	donc	NULL	coo	NULL	B_NULL	ROOT	0	idtext0084	donc	#####	spk2	114.02	114.29	0.01	_
20091112_RATP_SCD_0767	64	6	vous	NULL	cln	NULL	B_GN	SUJ	7	idtext0084	cln	#2##p##	spk2	114.3	114.48	0.01	_
20091112_RATP_SCD_0767	64	7	allez	NULL	v	NULL	B_GVf	DEP_COORD	5	idtext0084	aller	P#2##p##	spk2	114.49	114.64	0.01	_
20091112_RATP_SCD_0767	64	8	sur	NULL	prep	NULL	B_GP	P_OBJ	7	idtext0084	sur	#####	spk2	114.65	114.81	0.01	_
20091112_RATP_SCD_0767	64	9	la	NULL	det	NULL	I_GP	DET	10	idtext0084	le	##m#s##d	spk2	114.82	114.92	0.01	_
20091112_RATP_SCD_0767	64	10	page	NULL	nc	NULL	I_GP	OBJ	8	idtext0084	page	###s##	spk2	114.93	115.24	0.04	_
20091112_RATP_SCD_0767	64	11	euh	DISF_M	pres	NULL	NULL	NOLINK	0	idtext0085	euh	#####	spk2	115.28	115.5	0.01	_
20091112_RATP_SCD_0767	64	12	donc	NULL	coo	NULL	B_NULL	ROOT	0	idtext0085	donc	#####	spk2	115.51	115.67	0.01	_
20091112_RATP_SCD_0767	64	13	sur	NULL	prep	NULL	B_GP	DEP_COORD	12	idtext0085	sur	#####	spk2	115.68	115.8	0.01	_
20091112_RATP_SCD_0767	64	14	le	NULL	det	NULL	I_GP	DET	15	idtext0085	le	##m#s##d	spk2	115.81	115.92	0.01	_
20091112_RATP_SCD_0767	64	15	site	NULL	nc	NULL	I_GP	OBJ	13	idtext0085	site	##m#s##	spk2	115.93	116.16	0.04	_
20091112_RATP_SCD_0767	64	16	trois	NULL	adj	NULL	B_GN	MOD	17	idtext0086	trois	#####	spk2	116.2	116.38	0.01	_
20091112_RATP_SCD_0767	64	17	W	NULL	nc	NULL	I_GN	ROOT	0	idtext0086	W	#####	spk2	116.39	116.87	0.01	_
20091112_RATP_SCD_0767	64	18	point	NULL	nc	NULL	B_GN	ROOT	0	idtext0086	point	##m#s##	spk2	116.88	117.2	0.01	_
20091112_RATP_SCD_0767	64	19	RATP	NULL	np	B_ORG	B_GN	MOD	18	idtext0086	RATP	##f#s##	spk2	117.21	117.78	0.01	/
20091112_RATP_SCD_0767	64	20	point	NULL	nc	NULL	I_GN	MOD	18	idtext0086	point	##m#s##	spk2	117.79	117.99	0.01	_
20091112_RATP_SCD_0767	64	21	fr	NULL	adv	NULL	B_GADV	NOLINK	0	idtext0086	fr	#####	spk2	118.0	118.43	?	//

20091112_RATP_SCD_0767	65	1	trois	NULL	adj	NULL	B_GN	MOD	2	idtext0087	trois	#####	spk2	119.35	119.48	0.01	_
20091112_RATP_SCD_0767	65	2	W	NULL	nc	NULL	I_GN	ROOT	0	idtext0087	W	#####	spk2	119.49	120.16	0.01	_
20091112_RATP_SCD_0767	65	3	point	NULL	nc	NULL	B_GN	NOLINK	0	idtext0087	point	##m#s##	spk2	120.17	120.55	?	//

20091112_RATP_SCD_0767	66	1	RATP	NULL	np	B_ORG	B_GN	NOLINK	0	idtext0088	RATP	##f#s##	spk2	120.67	121.71	0.13	_
20091112_RATP_SCD_0767	66	2	point	NULL	nc	NULL	B_GN	ROOT	0	idtext0090	point	##m#s##	spk2	121.84	122.35	0.01	_
20091112_RATP_SCD_0767	66	3	fr	NULL	adv	NULL	B_GADV	MOD	2	idtext0090	fr	#####	spk2	122.36	122.96	?	//

20091112_RATP_SCD_0767	67	1	RATP	NULL	np	B_ORG	B_GN	NOLINK	0	idtext0089	RATP	##f#s##	spk3	120.67	121.71	0.13	_
20091112_RATP_SCD_0767	67	2	point	NULL	nc	NULL	B_GN	ROOT	0	idtext0091	point	##m#s##	spk3	121.84	122.35	0.01	_
20091112_RATP_SCD_0767	67	3	fr	NULL	adv	NULL	B_GADV	MOD	2	idtext0091	fr	#####	spk3	122.36	122.96	?	//

20091112_RATP_SCD_0767	68	1	quand	NULL	csu	NULL	B_NULL	ROOT	0	idtext0092	quand	#####	spk2	124.37	124.5	0.01	_
20091112_RATP_SCD_0767	68	2	vous	NULL	cln	NULL	B_GN	SUJ	3	idtext0092	cln	#2##p##	spk2	124.51	124.61	0.01	_
20091112_RATP_SCD_0767	68	3	êtes	NULL	v	NULL	B_GVf	OBJ	1	idtext0092	être	P#2##p##	spk2	124.62	124.79	0.01	_
20091112_RATP_SCD_0767	68	4	sur	NULL	prep	NULL	B_GP	ATS	3	idtext0092	sur	#####	spk2	124.8	124.97	0.01	_
20091112_RATP_SCD_0767	68	5	la	NULL	det	NULL	I_GP	DET	6	idtext0092	le	##m#s##d	spk2	124.98	125.07	0.01	_
20091112_RATP_SCD_0767	68	6	page	NULL	nc	NULL	I_GP	OBJ	4	idtext0092	page	###s##	spk2	125.08	125.3	0.01	_
20091112_RATP_SCD_0767	68	7	d'	NULL	prep	NULL	B_GP	DEP	6	idtext0092	d'	#####	spk2	125.31	125.37	0.01	_
20091112_RATP_SCD_0767	68	8	accueil	NULL	nc	NULL	I_GP	OBJ	7	idtext0092	accueil	##m#s##	spk2	125.38	125.85	?	//

20091112_RATP_SCD_0767	69	1	vous	NULL	cln	NULL	B_GN	SUJ	2	idtext0093	cln	#2##p##	spk2	126.67	126.74	0.01	_
20091112_RATP_SCD_0767	69	2	allez	NULL	v	NULL	B_GVf	ROOT	0	idtext0093	aller	P#2##p##	spk2	126.75	127.17	0.01	_
20091112_RATP_SCD_0767	69	3	sur	NULL	prep	NULL	B_NULL	NOLINK	0	idtext0093	sur	#####	spk2	127.18	127.91	0.01	_
20091112_RATP_SCD_0767	69	4	euh	DISF_M	pres	NULL	NULL	NOLINK	0	idtext0093	euh	#####	spk2	127.92	128.19	0.06	_
20091112_RATP_SCD_0767	69	5	tout+en	NULL	prep	NULL	B_NULL	ROOT	0	idtext0094	tout+en	#####	spk2	128.25	128.53	0.01	_
20091112_RATP_SCD_0767	69	6	bas	NULL	adj	NULL	B_GADJ	OBJ	5	idtext0094	bas	##m###	spk2	128.54	128.93	0.67	/
20091112_RATP_SCD_0767	69	7	à+gauche	NULL	adv	NULL	B_GADV	NOLINK	0	idtext0095	à+gauche	#####	spk2	129.6	129.94	0.01	_
20091112_RATP_SCD_0767	69	8	vous	NULL	cln	NULL	B_GN	SUJ	9	idtext0095	cln	#2##p##	spk2	129.95	130.03	0.01	_
20091112_RATP_SCD_0767	69	9	verrez	NULL	v	NULL	B_GVf	ROOT	0	idtext0095	voir	F#2##p##	spk2	130.04	130.35	0.01	_
20091112_RATP_SCD_0767	69	10	espace	NULL	nc	NULL	B_GN	OBJ	9	idtext0095	espace	###s##	spk2	130.36	130.74	0.01	_
20091112_RATP_SCD_0767	69	11	candidat	NULL	nc	NULL	I_GN	MOD	10	idtext0095	candidat	##m#s##	spk2	130.75	131.48	?	//

20091112_RATP_SCD_0767	70	1	ouais	NULL	adv	NULL	B_GADV	NOLINK	0	idtext0096	ouais	#####	spk3	131.64	132.11	?	//

20091112_RATP_SCD_0767	71	1	et	NULL	coo	NULL	B_NULL	ROOT	0	idtext0097	et	#####	spk2	133.35	133.48	0.01	_
20091112_RATP_SCD_0767	71	2	dans	NULL	prep	NULL	B_GP	DEP_COORD	1	idtext0097	dans	#####	spk2	133.49	133.69	0.01	_
20091112_RATP_SCD_0767	71	3	espace	NULL	nc	NULL	I_GP	OBJ	2	idtext0097	espace	###s##	spk2	133.7	134.04	0.01	_
20091112_RATP_SCD_0767	71	4	candidat	NULL	nc	NULL	I_GP	MOD	3	idtext0097	candidat	##m#s##	spk2	134.05	134.6	?	//

20091112_RATP_SCD_0767	72	1	oui	NULL	adv	NULL	B_GADV	NOLINK	0	idtext0098	oui	#####	spk3	135.18	135.44	?	//

20091112_RATP_SCD_0767	73	1	vous	NULL	cln	NULL	B_GN	SUJ	2	idtext0099	cln	#2##p##	spk2	135.48	135.56	0.01	_
20091112_RATP_SCD_0767	73	2	avez	NULL	v	NULL	B_GVf	ROOT	0	idtext0099	avoir	P#2##p##	spk2	135.57	135.65	0.01	_
20091112_RATP_SCD_0767	73	3	la	NULL	det	NULL	B_GN	DET	4	idtext0099	le	##m#s##d	spk2	135.66	135.74	0.01	_
20091112_RATP_SCD_0767	73	4	possibilité	NULL	nc	NULL	I_GN	OBJ	2	idtext0099	possibilité	##f#s##	spk2	135.75	136.35	0.01	_
20091112_RATP_SCD_0767	73	5	de	NULL	prep	NULL	B_GP	DEP	4	idtext0099	de	#####	spk2	136.36	136.38	0.01	_
20091112_RATP_SCD_0767	73	6	choisir	NULL	vinf	NULL	I_GP	OBJ	5	idtext0099	choisir	W#####	spk2	136.39	137.16	0.01	_
20091112_RATP_SCD_0767	73	7	euh	DISF_M	pres	NULL	NULL	NOLINK	0	idtext0099	euh	#####	spk2	137.17	137.34	?	//

20091112_RATP_SCD_0767	74	1	donc	NULL	coo	NULL	B_NULL	ROOT	0	idtext0100	donc	#####	spk2	138.59	138.79	0.01	//
20091112_RATP_SCD_0767	74	2	votre	NULL	det	NULL	B_GN	DET	3	idtext0100	votre	###s##o	spk2	138.8	139.07	0.01	_
20091112_RATP_SCD_0767	74	3	candidature	NULL	nc	NULL	I_GN	DEP_COORD	1	idtext0100	candidature	##f#s##	spk2	139.08	139.99	0.05	_
20091112_RATP_SCD_0767	74	4	en	NULL	prep	NULL	B_GP	MOD	8	idtext0101	en	#####	spk2	140.04	140.06	0.01	_
20091112_RATP_SCD_0767	74	5	fonction	NULL	nc	NULL	I_GP	OBJ	4	idtext0101	fonction	##f#s##	spk2	140.07	140.41	0.01	_
20091112_RATP_SCD_0767	74	6	de	NULL	prep	NULL	B_GP	DEP	5	idtext0101	de	#####	spk2	140.42	140.45	0.01	_
20091112_RATP_SCD_0767	74	7	ce+que	NULL	prorel	NULL	I_GP	OBJ	10	idtext0101	ce+que	#####	spk2	140.46	140.61	0.01	_
20091112_RATP_SCD_0767	74	8	vous	NULL	cln	NULL	B_GN	SUJ	9	idtext0101	cln	#2##p##	spk2	140.62	140.85	0.01	_
20091112_RATP_SCD_0767	74	9	souhaitez	NULL	v	NULL	B_GVf	ROOT	0	idtext0101	souhaiter	P#2##p##	spk2	140.86	141.12	0.01	_
20091112_RATP_SCD_0767	74	10	faire	NULL	vinf	NULL	I_GVf	OBJ	9	idtext0101	faire	W#####	spk2	141.13	141.47	?	//

20091112_RATP_SCD_0767	75	1	d'accord	NULL	adv	NULL	B_GADV	NOLINK	0	idtext0102	d'accord	#####	spk3	141.76	142.17	?	//

20091112_RATP_SCD_0767	76	1	hein	DISF_M	pres	NULL	NULL	NOLINK	0	idtext0103	hein	#####	spk2	142.59	142.83	0.01	_
20091112_RATP_SCD_0767	76	2	donc	NULL	coo	NULL	B_NULL	ROOT	0	idtext0103	donc	#####	spk2	142.84	143.03	0.01	_
20091112_RATP_SCD_0767	76	3	il	NULL	cln	NULL	B_GN	SUJ_IMP	5	idtext0103	cln	#3#m#s##	spk2	143.04	143.1	0.01	_
20091112_RATP_SCD_0767	76	4	y	NULL	clo	NULL	B_GN	AFF	5	idtext0103	y	#####	spk2	143.11	143.14	0.01	_
20091112_RATP_SCD_0767	76	5	a	NULL	v	NULL	B_GVf	DEP_COORD	2	idtext0103	avoir	P#3##s##	spk2	143.15	143.38	0.01	_
20091112_RATP_SCD_0767	76	6	contrat	NULL	nc	NULL	I_GP	OBJ	5	idtext0103	contrat	##m#s##	spk2	143.39	143.72	0.01	_
20091112_RATP_SCD_0767	76	7	de	NULL	prep	NULL	B_GP	DEP	6	idtext0103	de	#####	spk2	143.73	143.76	0.01	_
20091112_RATP_SCD_0767	76	8	pro	DISF_R	pro	NULL	NULL	NOLINK	0	idtext0103	pro	#####	spk2	143.77	144.07	0.01	_
20091112_RATP_SCD_0767	76	9	professionnalisation	NULL	nc	NULL	I_GP	OBJ	7	idtext0103	professionnalisation	##f#s##	spk2	144.08	145.18	0.04	_
20091112_RATP_SCD_0767	76	10	et	NULL	coo	NULL	B_NULL	ROOT	0	idtext0104	et	#####	spk2	145.22	145.24	0.01	_
20091112_RATP_SCD_0767	76	11	conducteur	NULL	nc	NULL	B_GN	DEP_COORD	10	idtext0104	conducteur	##f#s##	spk2	145.25	145.67	0.01	_
20091112_RATP_SCD_0767	76	12	de	NULL	prep	NULL	B_GP	DEP	11	idtext0104	de	#####	spk2	145.68	145.82	0.01	_
20091112_RATP_SCD_0767	76	13	bus	NULL	nc	NULL	I_GP	OBJ	12	idtext0104	bus	##m###	spk2	145.83	146.3	?	//

20091112_RATP_SCD_0767	77	1	d'accord	NULL	adv	NULL	B_GADV	NOLINK	0	idtext0105	d'accord	#####	spk3	146.4	146.93	?	//

20091112_RATP_SCD_0767	78	1	alors	NULL	adv	NULL	B_GADV	NOLINK	0	idtext0106	alors	#####	spk2	146.97	147.11	0.01	_
20091112_RATP_SCD_0767	78	2	vous	NULL	cln	NULL	B_GN	SUJ	3	idtext0106	cln	#2##p##	spk2	147.12	147.29	0.01	_
20091112_RATP_SCD_0767	78	3	cliquez	NULL	v	NULL	B_GVf	ROOT	0	idtext0106	cliquer	P#2##p##	spk2	147.3	147.57	0.01	_
20091112_RATP_SCD_0767	78	4	dessus	NULL	adv	NULL	B_GADV	MOD	3	idtext0106	dessus	#####	spk2	147.58	147.89	0.04	_
20091112_RATP_SCD_0767	78	5	bon	DISF_M	pres	NULL	NULL	NOLINK	0	idtext0107	bon	#####	spk2	147.93	148.21	0.01	_
20091112_RATP_SCD_0767	78	6	vous	NULL	cln	NULL	B_GN	SUJ	7	idtext0107	cln	#2##p##	spk2	148.22	148.29	0.01	_
20091112_RATP_SCD_0767	78	7	verrez	NULL	v	NULL	B_GVf	ROOT	0	idtext0107	voir	F#2##p##	spk2	148.3	148.49	0.01	_
20091112_RATP_SCD_0767	78	8	les	NULL	det	NULL	B_GN	DET	9	idtext0107	le	###p##d	spk2	148.5	148.66	0.01	_
20091112_RATP_SCD_0767	78	9	informations	NULL	nc	NULL	I_GN	OBJ	7	idtext0107	information	##f#p##	spk2	148.67	149.24	0.01	_
20091112_RATP_SCD_0767	78	10	par+rapport+à	NULL	prep	NULL	B_GP	MOD	9	idtext0107	par+rapport+à	#####	spk2	149.25	149.71	0.01	_
20091112_RATP_SCD_0767	78	11	ça	NULL	pro	NULL	I_GP	OBJ	10	idtext0107	ça	#####	spk2	149.72	150.02	?	_

20091112_RATP_SCD_0767	79	1	oui	NULL	adv	NULL	B_GADV	NOLINK	0	idtext0108	oui	#####	spk3	150.41	150.7	?	//

20091112_RATP_SCD_0767	80	1	ça	DISF_R	pro	NULL	NULL	NOLINK	0	idtext0109	ça	#####	spk2	150.88	150.96	0.01	_
20091112_RATP_SCD_0767	80	2	ça	NULL	pro	NULL	B_GN	SUJ_IMP	4	idtext0109	ça	#####	spk2	150.97	151.12	0.01	_
20091112_RATP_SCD_0767	80	3	vous	NULL	clo	NULL	B_GN	A_OBJ	4	idtext0109	cln	#2##p##	spk2	151.13	151.26	0.01	_
20091112_RATP_SCD_0767	80	4	donne	NULL	v	NULL	B_GVf	ROOT	0	idtext0109	donner	PS#13##s##	spk2	151.27	151.45	0.01	_
20091112_RATP_SCD_0767	80	5	une	NULL	det	NULL	B_GN	DET	6	idtext0109	un	##f#s##i	spk2	151.46	151.63	0.01	_
20091112_RATP_SCD_0767	80	6	indication	NULL	nc	NULL	I_GN	OBJ	4	idtext0109	indication	##f#s##	spk2	151.64	152.25	?	//

20091112_RATP_SCD_0767	81	1	en+fait	GREF	adv	NULL	B_GADV	NOLINK	0	idtext0110	en+fait	#####	spk2	153.03	153.19	0.01	_
20091112_RATP_SCD_0767	81	2	du	DISF_R	det	NULL	NULL	NOLINK	0	idtext0110	du	##m#s##i	spk2	153.2	153.42	0.01	_
20091112_RATP_SCD_0767	81	3	du	NULL	det	NULL	B_GN	DET	4	idtext0110	du	##m#s##i	spk2	153.43	153.56	0.01	_
20091112_RATP_SCD_0767	81	4	travail	NULL	nc	NULL	I_GN	ROOT	0	idtext0110	travail	##m#s##	spk2	153.57	154.08	0.01	_
20091112_RATP_SCD_0767	81	5	euh	DISF_M	pres	NULL	NULL	NOLINK	0	idtext0110	euh	#####	spk2	154.09	154.26	0.60	_
20091112_RATP_SCD_0767	81	6	euh	DISF_M	pres	NULL	NULL	NOLINK	0	idtext0111	euh	#####	spk2	154.86	154.98	0.01	_
20091112_RATP_SCD_0767	81	7	du	NULL	prep	NULL	B_GP	ROOT	0	idtext0111	du	#####	spk2	154.99	155.19	0.01	_
20091112_RATP_SCD_0767	81	8	salaire	NULL	nc	NULL	I_GP	OBJ	7	idtext0111	salaire	##m#s##	spk2	155.2	155.48	0.01	_
20091112_RATP_SCD_0767	81	9	etc	NULL	adv	NULL	B_GADV	NOLINK	0	idtext0111	etc	#####	spk2	155.49	156.22	?	_

20091112_RATP_SCD_0767	82	1	d'accord	NULL	adv	NULL	B_GADV	NOLINK	0	idtext0112	d'accord	#####	spk3	156.27	156.76	?	//

20091112_RATP_SCD_0767	83	1	sinon	NULL	coo	NULL	B_NULL	NOLINK	0	idtext0113	sinon	#####	spk2	156.87	157.1	0.01	_
20091112_RATP_SCD_0767	83	2	après	NULL	adv	NULL	B_GADV	NOLINK	0	idtext0113	après	#####	spk2	157.11	157.36	0.01	_
20091112_RATP_SCD_0767	83	3	vous	NULL	cln	NULL	B_GN	SUJ	4	idtext0113	cln	#2##p##	spk2	157.37	157.54	0.01	_
20091112_RATP_SCD_0767	83	4	allez	NULL	v	NULL	B_GVf	ROOT	0	idtext0113	aller	P#2##p##	spk2	157.55	157.73	0.01	_
20091112_RATP_SCD_0767	83	5	cliquer	NULL	vinf	NULL	I_GVf	OBJ	4	idtext0113	cliquer	W#####	spk2	157.74	158.45	0.01	_
20091112_RATP_SCD_0767	83	6	euh	DISF_M	pres	NULL	NULL	NOLINK	0	idtext0113	euh	#####	spk2	158.46	158.64	0.56	_
20091112_RATP_SCD_0767	83	7	sur	NULL	prep	NULL	B_GP	ROOT	0	idtext0114	sur	#####	spk2	159.2	159.37	0.01	_
20091112_RATP_SCD_0767	83	8	candidature	NULL	nc	NULL	I_GP	OBJ	7	idtext0114	candidature	##f#s##	spk2	159.38	159.99	0.01	_
20091112_RATP_SCD_0767	83	9	spontanée	NULL	adj	NULL	I_GP	MOD	8	idtext0114	spontané	##f#s##	spk2	160.0	160.65	?	//

20091112_RATP_SCD_0767	84	1	candidature	NULL	nc	NULL	B_GN	NOLINK	0	idtext0115	candidature	##f#s##	spk3	161.53	163.11	?	//

20091112_RATP_SCD_0767	85	1	pour	NULL	prep	NULL	B_GP	ROOT	0	idtext0116	pour	#####	spk2	161.53	161.92	0.01	_
20091112_RATP_SCD_0767	85	2	envoyer	NULL	vinf	NULL	I_GP	OBJ	1	idtext0116	envoyer	W#####	spk2	161.93	162.36	0.01	_
20091112_RATP_SCD_0767	85	3	votre	NULL	det	NULL	B_GN	DET	4	idtext0116	votre	###s##o	spk2	162.37	162.62	0.01	_
20091112_RATP_SCD_0767	85	4	demande	NULL	nc	NULL	I_GN	OBJ	2	idtext0116	demande	##f#s##	spk2	162.63	163.11	?	//

20091112_RATP_SCD_0767	86	1	et	NULL	coo	NULL	B_NULL	ROOT	0	idtext0117	et	#####	spk2	163.78	163.81	0.01	_
20091112_RATP_SCD_0767	86	2	là	NULL	adv	NULL	B_GADV	NOLINK	0	idtext0117	là	#####	spk2	163.82	163.87	0.01	_
20091112_RATP_SCD_0767	86	3	il	NULL	cln	NULL	B_GN	SUJ_IMP	5	idtext0117	cln	#3#m#s##	spk2	163.88	163.95	0.01	_
20091112_RATP_SCD_0767	86	4	y	NULL	clo	NULL	B_GN	AFF	5	idtext0117	y	#####	spk2	163.96	164.03	0.01	_
20091112_RATP_SCD_0767	86	5	a	NULL	v	NULL	B_GVf	DEP_COORD	1	idtext0117	avoir	P#3##s##	spk2	164.04	164.07	0.01	_
20091112_RATP_SCD_0767	86	6	un	NULL	det	NULL	B_GN	DET	7	idtext0117	un	##m#s##i	spk2	164.08	164.11	0.01	_
20091112_RATP_SCD_0767	86	7	masque	NULL	nc	NULL	I_GN	OBJ	5	idtext0117	masque	##m#s##	spk2	164.12	164.44	0.01	_
20091112_RATP_SCD_0767	86	8	avec	NULL	prep	NULL	B_NULL	NOLINK	0	idtext0117	avec	#####	spk2	164.45	164.71	0.01	_
20091112_RATP_SCD_0767	86	9	euh	DISF_M	pres	NULL	NULL	NOLINK	0	idtext0117	euh	#####	spk2	164.72	165.3	?	//

20091112_RATP_SCD_0767	87	1	et	NULL	coo	NULL	B_NULL	ROOT	0	idtext0118	et	#####	spk3	165.35	165.39	0.01	_
20091112_RATP_SCD_0767	87	2	là	NULL	adv	NULL	B_GADV	NOLINK	0	idtext0118	là	#####	spk3	165.4	165.5	0.01	_
20091112_RATP_SCD_0767	87	3	c'	NULL	cln	NULL	B_GN	SUJ_IMP	4	idtext0118	ce	###s##	spk3	165.51	165.55	0.01	_
20091112_RATP_SCD_0767	87	4	est	NULL	v	NULL	B_GVf	DEP_COORD	1	idtext0118	être	P#3##s##	spk3	165.56	165.66	0.01	_
20091112_RATP_SCD_0767	87	5	pareil	NULL	adj	NULL	B_GADJ	ATS	4	idtext0118	pareil	##m#s##	spk3	165.67	166.01	0.01	_
20091112_RATP_SCD_0767	87	6	on	NULL	cln	NULL	B_GN	SUJ	7	idtext0118	cln	#3##s##	spk3	166.02	166.14	0.01	_
20091112_RATP_SCD_0767	87	7	envoie	NULL	v	NULL	B_GVf	ROOT	0	idtext0118	envoyer	PS#13##s##	spk3	166.15	166.56	0.01	_
20091112_RATP_SCD_0767	87	8	et	NULL	coo	NULL	B_NULL	COORD	7	idtext0118	et	#####	spk3	166.57	166.61	0.01	_
20091112_RATP_SCD_0767	87	9	le	NULL	det	NULL	B_GN	DET	10	idtext0118	le	##m#s##d	spk3	166.62	166.74	0.01	_
20091112_RATP_SCD_0767	87	10	CV	NULL	nc	NULL	I_GN	DEP_COORD	8	idtext0118	curriculum+vitae	##m###	spk3	166.75	167.04	0.01	/
20091112_RATP_SCD_0767	87	11	et	NULL	coo	NULL	B_NULL	COORD	10	idtext0118	et	#####	spk3	167.05	167.07	0.01	_
20091112_RATP_SCD_0767	87	12	la	NULL	det	NULL	B_GN	DET	13	idtext0118	le	##m#s##d	spk3	167.08	167.19	0.01	_
20091112_RATP_SCD_0767	87	13	lettre	NULL	nc	NULL	I_GN	DEP_COORD	11	idtext0118	lettre	##f#s##	spk3	167.2	167.35	?	//

20091112_RATP_SCD_0767	88	1	voilà	DISF_M	pres	NULL	NULL	NOLINK	0	idtext0119	voilà	#####	spk2	167.39	168.06	?	//

20091112_RATP_SCD_0767	89	1	de	NULL	prep	NULL	B_GP	ROOT	0	idtext0120	de	#####	spk3	167.39	167.49	0.01	_
20091112_RATP_SCD_0767	89	2	motivation	NULL	nc	NULL	I_GP	OBJ	1	idtext0120	motivation	##f#s##	spk3	167.5	167.91	0.01	_
20091112_RATP_SCD_0767	89	3	en	NULL	prep	NULL	B_GP	ROOT	0	idtext0120	en	#####	spk3	167.92	167.95	0.01	_
20091112_RATP_SCD_0767	89	4	ligne	NULL	nc	NULL	I_GP	OBJ	3	idtext0120	ligne	##f#s##	spk3	167.96	168.06	?	//

20091112_RATP_SCD_0767	90	1	tout+à+fait	DISF_R	adv	NULL	NULL	NOLINK	0	idtext0121	tout+à+fait	#####	spk2	168.1	168.5	0.01	_
20091112_RATP_SCD_0767	90	2	tout+à+fait	NULL	adv	NULL	B_GADV	NOLINK	0	idtext0121	tout+à+fait	#####	spk2	168.51	169.02	0.17	_
20091112_RATP_SCD_0767	90	3	tout+à+fait	NULL	adv	NULL	B_GADV	NOLINK	0	idtext0122	tout+à+fait	#####	spk2	169.19	169.5	?	_

20091112_RATP_SCD_0767	91	1	entendu	NULL	vppart	NULL	B_GVf	NOLINK	0	idtext0123	entendre	K##m#s##	spk3	169.69	170.25	?	//

20091112_RATP_SCD_0767	92	1	hein	DISF_M	pres	NULL	NULL	NOLINK	0	idtext0124	hein	#####	spk2	169.85	170.25	?	//

20091112_RATP_SCD_0767	93	1	alors	NULL	adv	NULL	B_GADV	MOD	2	idtext0125	alors	#####	spk2	170.68	170.82	0.01	_
20091112_RATP_SCD_0767	93	2	par+contre	NULL	adv	NULL	I_GADV	ROOT	0	idtext0125	par+contre	#####	spk2	170.83	171.28	0.01	_
20091112_RATP_SCD_0767	93	3	euh	DISF_M	pres	NULL	NULL	NOLINK	0	idtext0125	euh	#####	spk2	171.29	171.72	0.56	_
20091112_RATP_SCD_0767	93	4	vous	NULL	cln	NULL	B_GN	SUJ	5	idtext0126	cln	#2##p##	spk2	172.28	172.41	0.01	_
20091112_RATP_SCD_0767	93	5	remplissez	NULL	v	NULL	B_GVf	ROOT	0	idtext0126	remplir	P#2##p##	spk2	172.42	172.89	0.01	_
20091112_RATP_SCD_0767	93	6	le	DISF_R	det	NULL	NULL	NOLINK	0	idtext0126	le	##m#s##d	spk2	172.9	172.92	0.01	_
20091112_RATP_SCD_0767	93	7	c()	DISF_T	tronc	NULL	NULL	NOLINK	0	idtext0126	c()	#####	spk2	172.93	172.95	0.01	_
20091112_RATP_SCD_0767	93	8	le	NULL	det	NULL	B_GN	DET	9	idtext0126	le	##m#s##d	spk2	172.96	173.1	0.01	_
20091112_RATP_SCD_0767	93	9	formulaire	NULL	nc	NULL	I_GN	OBJ	5	idtext0126	formulaire	##m#s##	spk2	173.11	173.52	0.01	_
20091112_RATP_SCD_0767	93	10	de	NULL	prep	NULL	B_GP	DEP	9	idtext0126	de	#####	spk2	173.53	173.55	0.01	_
20091112_RATP_SCD_0767	93	11	candidature	NULL	nc	NULL	I_GP	OBJ	10	idtext0126	candidature	##f#s##	spk2	173.56	174.18	0.01	_
20091112_RATP_SCD_0767	93	12	sur	NULL	prep	NULL	B_GP	P_OBJ	9	idtext0126	sur	#####	spk2	174.19	174.39	0.01	_
20091112_RATP_SCD_0767	93	13	internet	NULL	nc	NULL	I_GP	OBJ	12	idtext0126	internet	##m#s##	spk2	174.4	174.95	0.05	_
20091112_RATP_SCD_0767	93	14	hein	DISF_M	pres	NULL	NULL	NOLINK	0	idtext0127	hein	#####	spk2	175.0	175.35	?	//

20091112_RATP_SCD_0767	94	1	oui	NULL	adv	NULL	B_GADV	NOLINK	0	idtext0128	oui	#####	spk3	175.39	175.71	?	//

20091112_RATP_SCD_0767	95	1	ou	NULL	coo	NULL	B_NULL	NOLINK	0	idtext0129	ou	#####	spk2	176.06	176.16	0.01	_
20091112_RATP_SCD_0767	95	2	sinon	NULL	coo	NULL	B_NULL	NOLINK	0	idtext0129	sinon	#####	spk2	176.17	176.61	?	_

20091112_RATP_SCD_0767	96	1	euh	DISF_M	pres	NULL	NULL	NOLINK	0	idtext0130	euh	#####	spk2	177.26	177.68	0.05	_
20091112_RATP_SCD_0767	96	2	je	NULL	cln	NULL	B_GN	SUJ	4	idtext0131	cln	#1##s##	spk2	177.73	177.76	0.01	_
20091112_RATP_SCD_0767	96	3	vous	NULL	clo	NULL	B_GN	A_OBJ	4	idtext0131	cln	#2##p##	spk2	177.77	177.87	0.01	_
20091112_RATP_SCD_0767	96	4	dis	NULL	v	NULL	B_GVf	ROOT	0	idtext0132	dire	PJ#12##s##	spk2	177.88	177.96	0.01	_
20091112_RATP_SCD_0767	96	5	vous	NULL	cln	NULL	B_GN	SUJ	6	idtext0132	cln	#2##p##	spk2	177.97	178.08	0.01	_
20091112_RATP_SCD_0767	96	6	avez	NULL	v	NULL	B_GVf	ROOT	0	idtext0132	avoir	P#2##p##	spk2	178.09	178.2	0.01	//
20091112_RATP_SCD_0767	96	7	euh	DISF_M	pres	NULL	NULL	NOLINK	0	idtext0132	euh	#####	spk2	178.21	178.52	0.05	_
20091112_RATP_SCD_0767	96	8	vous	NULL	cln	NULL	B_GN	SUJ	9	idtext0133	cln	#2##p##	spk2	178.57	178.76	0.01	_
20091112_RATP_SCD_0767	96	9	adressez	NULL	v	NULL	B_GVf	ROOT	0	idtext0133	adresser	P#2##p##	spk2	178.77	179.15	0.01	_
20091112_RATP_SCD_0767	96	10	une	NULL	det	NULL	B_GN	DET	11	idtext0133	un	##f#s##i	spk2	179.16	179.21	0.01	_
20091112_RATP_SCD_0767	96	11	lettre	NULL	nc	NULL	I_GN	OBJ	9	idtext0133	lettre	##f#s##	spk2	179.22	179.4	0.01	_
20091112_RATP_SCD_0767	96	12	de	NULL	prep	NULL	B_GP	DEP	11	idtext0133	de	#####	spk2	179.41	179.47	0.01	_
20091112_RATP_SCD_0767	96	13	motivation	NULL	nc	NULL	I_GP	OBJ	12	idtext0133	motivation	##f#s##	spk2	179.48	180.13	0.01	_
20091112_RATP_SCD_0767	96	14	avec	NULL	prep	NULL	B_GP	P_OBJ	11	idtext0133	avec	#####	spk2	180.14	180.5	0.01	_
20091112_RATP_SCD_0767	96	15	un	NULL	det	NULL	I_GP	DET	16	idtext0133	un	##m#s##i	spk2	180.51	180.57	0.01	_
20091112_RATP_SCD_0767	96	16	CV	NULL	nc	NULL	I_GP	OBJ	14	idtext0133	curriculum+vitae	##m###	spk2	180.58	181.01	1.04	//
20091112_RATP_SCD_0767	96	17	euh	DISF_M	pres	NULL	NULL	NOLINK	0	idtext0134	euh	#####	spk2	182.05	182.07	0.01	_
20091112_RATP_SCD_0767	96	18	alors	NULL	adv	NULL	B_GADV	NOLINK	0	idtext0134	alors	#####	spk2	182.08	182.6	0.01	_
20091112_RATP_SCD_0767	96	19	vous	NULL	pro	NULL	B_GN	NOLINK	0	idtext0134	vous	#####	spk2	182.61	182.81	0.01	_
20091112_RATP_SCD_0767	96	20	c'	NULL	cln	NULL	B_GN	SUJ_IMP	21	idtext0134	ce	###s##	spk2	182.82	182.91	0.01	_
20091112_RATP_SCD_0767	96	21	est	NULL	v	NULL	B_GVf	ROOT	0	idtext0134	être	P#3##s##	spk2	182.92	183.09	0.01	_
20091112_RATP_SCD_0767	96	22	contrat	NULL	nc	NULL	B_GN	ATS	21	idtext0134	contrat	##m#s##	spk2	183.1	183.44	0.01	_
20091112_RATP_SCD_0767	96	23	de	NULL	prep	NULL	B_GP	DEP	22	idtext0134	de	#####	spk2	183.45	183.55	0.01	_
20091112_RATP_SCD_0767	96	24	professionnalisation	NULL	nc	NULL	I_GP	OBJ	23	idtext0134	professionnalisation	##f#s##	spk2	183.56	184.72	0.01	_
20091112_RATP_SCD_0767	96	25	vous	NULL	clo	NULL	B_GN	NOLINK	0	idtext0134	cln	#2##p##	spk2	184.73	184.88	?	_

20091112_RATP_SCD_0767	97	1	c'	NULL	cln	NULL	B_GN	SUJ_IMP	2	idtext0135	ce	###s##	spk2	185.0	185.04	0.01	_
20091112_RATP_SCD_0767	97	2	est	NULL	v	NULL	B_GVf	ROOT	0	idtext0135	être	P#3##s##	spk2	185.05	185.07	0.01	_
20091112_RATP_SCD_0767	97	3	ça	NULL	pro	NULL	B_GN	ATS	2	idtext0135	ça	#####	spk2	185.08	185.21	0.01	_
20091112_RATP_SCD_0767	97	4	que	NULL	prorel	NULL	B_NULL	OBJ	8	idtext0135	que	#####	spk2	185.22	185.24	0.01	_
20091112_RATP_SCD_0767	97	5	vous	NULL	cln	NULL	B_GN	SUJ	8	idtext0135	cln	#2##p##	spk2	185.25	185.33	0.01	_
20091112_RATP_SCD_0767	97	6	m'	NULL	clo	NULL	B_GN	A_OBJ	8	idtext0135	cla	#1##s##	spk2	185.34	185.39	0.01	_
20091112_RATP_SCD_0767	97	7	avez	NULL	v	NULL	B_GVf	AUX	8	idtext0135	avoir	P#2##p##	spk2	185.4	185.86	0.01	_
20091112_RATP_SCD_0767	97	8	dit	NULL	vppart	NULL	I_GVf	MOD_REL	3	idtext0135	dire	J#3##s##	spk2	185.87	186.13	?	//

20091112_RATP_SCD_0767	98	1	oui	NULL	adv	NULL	B_GADV	NOLINK	0	idtext0136	oui	#####	spk3	185.17	185.56	0.01	_
20091112_RATP_SCD_0767	98	2	c'	NULL	cln	NULL	B_GN	SUJ_IMP	3	idtext0136	ce	###s##	spk3	185.57	185.64	0.01	_
20091112_RATP_SCD_0767	98	3	est	NULL	v	NULL	B_GVf	ROOT	0	idtext0136	être	P#3##s##	spk3	185.65	185.71	0.01	_
20091112_RATP_SCD_0767	98	4	ça	NULL	pro	NULL	B_GN	ATS	3	idtext0136	ça	#####	spk3	185.72	186.13	?	_

20091112_RATP_SCD_0767	99	1	bon	DISF_M	pres	NULL	NULL	NOLINK	0	idtext0137	bon	#####	spk2	186.27	186.52	0.01	_
20091112_RATP_SCD_0767	99	2	alors	NULL	adv	NULL	B_GADV	NOLINK	0	idtext0137	alors	#####	spk2	186.53	186.85	0.01	_
20091112_RATP_SCD_0767	99	3	attendez	NULL	v	NULL	B_GVf	NOLINK	0	idtext0137	attendre	P#2##p##	spk2	186.86	187.25	0.01	_
20091112_RATP_SCD_0767	99	4	alors	NULL	adv	NULL	B_GADV	NOLINK	0	idtext0137	alors	#####	spk2	187.26	187.47	0.01	_
20091112_RATP_SCD_0767	99	5	ce+que	NULL	prorel	NULL	B_NULL	OBJ	7	idtext0137	ce+que	#####	spk2	187.48	187.69	0.01	_
20091112_RATP_SCD_0767	99	6	je	NULL	cln	NULL	B_GN	SUJ	7	idtext0137	cln	#1##s##	spk2	187.7	187.77	0.01	_
20091112_RATP_SCD_0767	99	7	vais	NULL	v	NULL	B_GVf	ROOT	0	idtext0137	aller	P#1##s##	spk2	187.78	187.84	0.01	_
20091112_RATP_SCD_0767	99	8	faire	NULL	vinf	NULL	I_GVf	OBJ	7	idtext0137	faire	W#####	spk2	187.85	188.23	0.49	//
20091112_RATP_SCD_0767	99	9	parce+que	NULL	csu	NULL	B_NULL	ROOT	0	idtext0138	parce+que	#####	spk2	188.72	189.5	0.01	_
20091112_RATP_SCD_0767	99	10	je	NULL	cln	NULL	B_GN	SUJ	11	idtext0138	cln	#1##s##	spk2	189.51	189.6	0.01	_
20091112_RATP_SCD_0767	99	11	vais	NULL	v	NULL	B_GVf	OBJ	9	idtext0138	aller	P#1##s##	spk2	189.61	189.66	0.01	_
20091112_RATP_SCD_0767	99	12	vous	NULL	clo	NULL	B_GN	A_OBJ	13	idtext0138	cln	#2##p##	spk2	189.67	189.72	0.01	_
20091112_RATP_SCD_0767	99	13	donner	NULL	vinf	NULL	B_GVi	OBJ	11	idtext0138	donner	W#####	spk2	189.73	189.86	0.01	_
20091112_RATP_SCD_0767	99	14	une	NULL	det	NULL	B_GN	DET	15	idtext0138	un	##f#s##i	spk2	189.87	190.07	0.01	_
20091112_RATP_SCD_0767	99	15	adresse	NULL	nc	NULL	I_GN	OBJ	13	idtext0138	adresse	##f#s##	spk2	190.08	190.48	0.01	_
20091112_RATP_SCD_0767	99	16	précise	NULL	v	NULL	B_GVf	NOLINK	0	idtext0138	préciser	PS#13##s##	spk2	190.49	190.92	0.04	/
20091112_RATP_SCD_0767	99	17	parce+que	NULL	csu	NULL	B_NULL	ROOT	0	idtext0139	parce+que	#####	spk2	190.96	191.11	0.01	_
20091112_RATP_SCD_0767	99	18	ça	NULL	pro	NULL	B_GN	SUJ_IMP	19	idtext0139	ça	#####	spk2	191.12	191.17	0.01	_
20091112_RATP_SCD_0767	99	19	arrivera	NULL	v	NULL	B_GVf	OBJ	17	idtext0139	arriver	F#3##s##	spk2	191.18	191.48	0.01	_
20091112_RATP_SCD_0767	99	20	quand+même	NULL	adv	NULL	B_GADV	MOD	19	idtext0139	quand+même	#####	spk2	191.49	191.94	0.57	_
20091112_RATP_SCD_0767	99	21	mais	NULL	coo	NULL	B_NULL	ROOT	0	idtext0140	mais	#####	spk2	192.51	192.56	0.01	_
20091112_RATP_SCD_0767	99	22	je	NULL	cln	NULL	B_GN	SUJ	23	idtext0140	cln	#1##s##	spk2	192.57	192.63	0.01	_
20091112_RATP_SCD_0767	99	23	préfère	NULL	v	NULL	B_GVf	DEP_COORD	21	idtext0140	préférer	PS#13##s##	spk2	192.64	192.9	0.01	_
20091112_RATP_SCD_0767	99	24	vous	NULL	clo	NULL	B_GN	A_OBJ	25	idtext0140	cln	#2##p##	spk2	192.91	193.0	0.01	_
20091112_RATP_SCD_0767	99	25	donner	NULL	vinf	NULL	B_GVi	OBJ	23	idtext0140	donner	W#####	spk2	193.01	193.17	0.01	_
20091112_RATP_SCD_0767	99	26	l'	NULL	det	NULL	B_GN	DET	27	idtext0140	le	###s##d	spk2	193.18	193.2	0.01	_
20091112_RATP_SCD_0767	99	27	adresse	NULL	nc	NULL	I_GN	OBJ	25	idtext0140	adresse	##f#s##	spk2	193.21	193.53	0.01	_
20091112_RATP_SCD_0767	99	28	précise	NULL	adj	NULL	I_GN	MOD	27	idtext0140	précis	##f#s##	spk2	193.54	193.92	0.01	_
20091112_RATP_SCD_0767	99	29	du	NULL	prep	NULL	B_GP	DEP	27	idtext0140	du	#####	spk2	193.93	193.99	0.01	_
20091112_RATP_SCD_0767	99	30	secrétariat	NULL	nc	NULL	I_GP	OBJ	29	idtext0140	secrétariat	##m#s##	spk2	194.0	194.69	0.01	_
20091112_RATP_SCD_0767	99	31	des	NULL	prep	NULL	B_GP	DEP	30	idtext0140	des	#####	spk2	194.7	194.82	0.01	_
20091112_RATP_SCD_0767	99	32	contrats	NULL	nc	NULL	I_GP	OBJ	31	idtext0140	contrat	##m#p##	spk2	194.83	195.13	0.01	_
20091112_RATP_SCD_0767	99	33	de	NULL	prep	NULL	B_GP	DEP	32	idtext0140	de	#####	spk2	195.14	195.16	0.01	_
20091112_RATP_SCD_0767	99	34	professionnalisation	NULL	nc	NULL	I_GP	OBJ	33	idtext0140	professionnalisation	##f#s##	spk2	195.17	196.22	?	//

20091112_RATP_SCD_0767	100	1	d'accord	NULL	adv	NULL	B_GADV	NOLINK	0	idtext0141	d'accord	#####	spk3	196.52	196.87	?	//

20091112_RATP_SCD_0767	101	1	comme+ça	NULL	adv	NULL	B_GADV	NOLINK	0	idtext0142	comme+ça	#####	spk2	196.94	197.14	?	//

20091112_RATP_SCD_0767	102	1	parce+que	NULL	csu	NULL	B_NULL	ROOT	0	idtext0143	parce+que	#####	spk2	197.49	197.63	0.01	_
20091112_RATP_SCD_0767	102	2	vous	NULL	cln	NULL	B_GN	SUJ	4	idtext0143	cln	#2##p##	spk2	197.64	197.77	0.01	_
20091112_RATP_SCD_0767	102	3	l'	NULL	clo	NULL	B_GN	OBJ	4	idtext0143	cla	#3##s##	spk2	197.78	197.81	0.01	_
20091112_RATP_SCD_0767	102	4	avez	NULL	v	NULL	B_GVf	OBJ	1	idtext0143	avoir	P#2##p##	spk2	197.82	197.99	0.01	_
20091112_RATP_SCD_0767	102	5	également	NULL	adv	NULL	B_GADV	MOD	4	idtext0143	également	#####	spk2	198.0	198.31	0.01	_
20091112_RATP_SCD_0767	102	6	sur	NULL	prep	NULL	B_GP	P_OBJ	4	idtext0143	sur	#####	spk2	198.32	198.49	0.01	_
20091112_RATP_SCD_0767	102	7	le	NULL	det	NULL	I_GP	DET	8	idtext0143	le	##m#s##d	spk2	198.5	198.56	0.01	_
20091112_RATP_SCD_0767	102	8	site	NULL	nc	NULL	I_GP	OBJ	6	idtext0143	site	##m#s##	spk2	198.57	198.85	0.01	//
20091112_RATP_SCD_0767	102	9	hein	DISF_M	pres	NULL	NULL	NOLINK	0	idtext0143	hein	#####	spk2	198.86	198.91	0.01	_
20091112_RATP_SCD_0767	102	10	cette	NULL	det	NULL	B_GN	DET	11	idtext0143	cet	##f#s##e	spk2	198.92	199.07	0.01	_
20091112_RATP_SCD_0767	102	11	adresse	NULL	nc	NULL	I_GN	OBJ	4	idtext0143	adresse	##f#s##	spk2	199.08	199.49	?	//

20091112_RATP_SCD_0767	103	1	d'accord	NULL	adv	NULL	B_GADV	NOLINK	0	idtext0144	d'accord	#####	spk3	199.82	200.74	?	//

20091112_RATP_SCD_0767	104	1	vous	NULL	cln	NULL	B_GN	SUJ	2	idtext0145	cln	#2##p##	spk2	199.82	199.88	0.01	_
20091112_RATP_SCD_0767	104	2	verrez	NULL	v	NULL	B_GVf	ROOT	0	idtext0145	voir	F#2##p##	spk2	199.89	200.23	0.01	_
20091112_RATP_SCD_0767	104	3	quand	NULL	csu	NULL	B_NULL	MOD	2	idtext0145	quand	#####	spk2	200.24	200.41	0.01	_
20091112_RATP_SCD_0767	104	4	vous	NULL	cln	NULL	B_GN	SUJ	5	idtext0145	cln	#2##p##	spk2	200.42	200.6	0.01	_
20091112_RATP_SCD_0767	104	5	êtes	NULL	v	NULL	B_GVf	OBJ	3	idtext0145	être	P#2##p##	spk2	200.61	200.74	?	//

20091112_RATP_SCD_0767	105	1	sur	NULL	prep	NULL	B_GP	ROOT	0	idtext0146	sur	#####	spk2	200.78	200.86	0.01	_
20091112_RATP_SCD_0767	105	2	la	NULL	det	NULL	I_GP	DET	3	idtext0146	le	##m#s##d	spk2	200.87	200.95	0.01	_
20091112_RATP_SCD_0767	105	3	page	NULL	nc	NULL	I_GP	OBJ	1	idtext0146	page	###s##	spk2	200.96	201.15	0.01	_
20091112_RATP_SCD_0767	105	4	d'	NULL	prep	NULL	B_GP	DEP	3	idtext0146	d'	#####	spk2	201.16	201.18	0.01	_
20091112_RATP_SCD_0767	105	5	accueil	NULL	nc	NULL	I_GP	OBJ	4	idtext0146	accueil	##m#s##	spk2	201.19	201.43	0.01	_
20091112_RATP_SCD_0767	105	6	vous	NULL	cln	NULL	B_GN	SUJ	7	idtext0146	cln	#2##p##	spk2	201.44	201.58	0.01	_
20091112_RATP_SCD_0767	105	7	allez	NULL	v	NULL	B_GVf	ROOT	0	idtext0146	aller	P#2##p##	spk2	201.59	201.73	0.01	_
20091112_RATP_SCD_0767	105	8	sur	NULL	prep	NULL	B_GP	P_OBJ	7	idtext0146	sur	#####	spk2	201.74	201.88	0.01	_
20091112_RATP_SCD_0767	105	9	l'	NULL	det	NULL	I_GP	DET	10	idtext0146	le	###s##d	spk2	201.89	201.91	0.01	_
20091112_RATP_SCD_0767	105	10	espace	NULL	nc	NULL	I_GP	OBJ	8	idtext0146	espace	###s##	spk2	201.92	202.18	0.01	_
20091112_RATP_SCD_0767	105	11	candidat	NULL	nc	NULL	I_GP	MOD	10	idtext0146	candidat	##m#s##	spk2	202.19	202.6	0.04	_
20091112_RATP_SCD_0767	105	12	vous	NULL	cln	NULL	B_GN	SUJ	13	idtext0147	cln	#2##p##	spk2	202.64	202.69	0.01	_
20091112_RATP_SCD_0767	105	13	cliquez	NULL	v	NULL	B_GVf	ROOT	0	idtext0147	cliquer	P#2##p##	spk2	202.7	203.0	0.01	_
20091112_RATP_SCD_0767	105	14	dessus	NULL	adv	NULL	B_GADV	MOD	13	idtext0147	dessus	#####	spk2	203.01	203.22	0.01	_
20091112_RATP_SCD_0767	105	15	vous	NULL	cln	NULL	B_GN	SUJ	17	idtext0147	cln	#2##p##	spk2	203.23	203.36	0.01	_
20091112_RATP_SCD_0767	105	16	verrez	NULL	v	NULL	B_GVf	AUX	17	idtext0147	voir	F#2##p##	spk2	203.37	203.55	0.01	_
20091112_RATP_SCD_0767	105	17	marqué	NULL	vppart	NULL	I_GVf	ROOT	0	idtext0147	marquer	K##m#s##	spk2	203.56	203.85	0.01	_
20091112_RATP_SCD_0767	105	18	en	NULL	prep	NULL	B_NULL	OBJ	17	idtext0147	en	#####	spk2	203.86	203.98	0.01	_
20091112_RATP_SCD_0767	105	19	premier	NULL	adj	NULL	B_GADJ	OBJ	18	idtext0147	premier	##m#s##	spk2	203.99	204.26	0.01	_
20091112_RATP_SCD_0767	105	20	en	DISF_R	prep	NULL	NULL	NOLINK	0	idtext0147	en	#####	spk2	204.27	204.36	0.01	_
20091112_RATP_SCD_0767	105	21	d()	DISF_T	tronc	NULL	NULL	NOLINK	0	idtext0147	d()	#####	spk2	204.37	204.41	0.01	_
20091112_RATP_SCD_0767	105	22	en+haut	NULL	adv	NULL	B_GADV	MOD	23	idtext0147	en+haut	#####	spk2	204.42	204.75	0.01	_
20091112_RATP_SCD_0767	105	23	à+droite	NULL	adv	NULL	I_GADV	ROOT	0	idtext0147	à+droite	#####	spk2	204.76	205.01	0.58	/
20091112_RATP_SCD_0767	105	24	contrat	NULL	nc	NULL	B_GN	ROOT	0	idtext0148	contrat	##m#s##	spk2	205.59	205.84	0.01	_
20091112_RATP_SCD_0767	105	25	de	NULL	prep	NULL	B_GP	DEP	24	idtext0148	de	#####	spk2	205.85	205.95	0.01	_
20091112_RATP_SCD_0767	105	26	professionnalisation	NULL	nc	NULL	I_GP	OBJ	25	idtext0148	professionnalisation	##f#s##	spk2	205.96	206.93	0.04	_
20091112_RATP_SCD_0767	105	27	conducteur	NULL	nc	NULL	B_GN	NOLINK	0	idtext0149	conducteur	##f#s##	spk2	206.97	207.5	0.38	/
20091112_RATP_SCD_0767	105	28	de	NULL	prep	NULL	B_GP	ROOT	0	idtext0150	de	#####	spk2	207.88	208.02	0.01	_
20091112_RATP_SCD_0767	105	29	bus	NULL	nc	NULL	I_GP	OBJ	28	idtext0150	bus	##m###	spk2	208.03	208.46	?	//

20091112_RATP_SCD_0767	106	1	ou	NULL	coo	NULL	B_NULL	ROOT	0	idtext0151	ou	#####	spk2	208.81	208.85	0.01	_
20091112_RATP_SCD_0767	106	2	conductrice	NULL	nc	NULL	B_GN	DEP_COORD	1	idtext0151	conductrice	#####	spk2	208.86	209.31	0.01	_
20091112_RATP_SCD_0767	106	3	de	NULL	prep	NULL	B_GP	DEP	2	idtext0151	de	#####	spk2	209.32	209.4	0.01	_
20091112_RATP_SCD_0767	106	4	bus	NULL	nc	NULL	I_GP	OBJ	3	idtext0151	bus	##m###	spk2	209.41	209.81	?	//

20091112_RATP_SCD_0767	107	1	super	NULL	pres	NULL	B_NULL	NOLINK	0	idtext0152	super	#####	spk3	208.84	209.81	?	_

20091112_RATP_SCD_0767	108	1	donc	NULL	coo	NULL	B_NULL	NOLINK	0	idtext0153	donc	#####	spk2	209.87	210.01	0.01	_
20091112_RATP_SCD_0767	108	2	à+ce+moment-là	NULL	adv	NULL	B_GADV	NOLINK	0	idtext0153	à+ce+moment-là	#####	spk2	210.02	210.6	0.35	_
20091112_RATP_SCD_0767	108	3	quand	NULL	csu	NULL	B_NULL	MOD	8	idtext0154	quand	#####	spk2	210.95	211.03	0.01	_
20091112_RATP_SCD_0767	108	4	vous	NULL	cln	NULL	B_GN	SUJ	5	idtext0154	cln	#2##p##	spk2	211.04	211.14	0.01	_
20091112_RATP_SCD_0767	108	5	cliquez	NULL	v	NULL	B_GVf	OBJ	3	idtext0154	cliquer	P#2##p##	spk2	211.15	211.43	0.01	_
20091112_RATP_SCD_0767	108	6	dessus	NULL	adv	NULL	B_GADV	MOD	5	idtext0154	dessus	#####	spk2	211.44	211.57	0.01	_
20091112_RATP_SCD_0767	108	7	vous	NULL	cln	NULL	B_GN	SUJ	8	idtext0154	cln	#2##p##	spk2	211.58	211.63	0.01	_
20091112_RATP_SCD_0767	108	8	avez	NULL	v	NULL	B_GVf	ROOT	0	idtext0154	avoir	P#2##p##	spk2	211.64	211.79	0.01	_
20091112_RATP_SCD_0767	108	9	l'	NULL	det	NULL	B_GN	DET	10	idtext0154	le	###s##d	spk2	211.8	211.84	0.01	_
20091112_RATP_SCD_0767	108	10	adresse	NULL	nc	NULL	I_GN	OBJ	8	idtext0154	adresse	##f#s##	spk2	211.85	212.31	0.01	_
20091112_RATP_SCD_0767	108	11	et	NULL	coo	NULL	B_NULL	NOLINK	0	idtext0154	et	#####	spk2	212.32	212.57	0.22	_
20091112_RATP_SCD_0767	108	12	tout	NULL	pro	NULL	B_GN	SUJ_IMP	14	idtext0155	tout	#####	spk2	212.79	212.91	0.01	_
20091112_RATP_SCD_0767	108	13	ce+qui	NULL	prorel	NULL	B_NULL	SUJ	14	idtext0155	ce+qui	#####	spk2	212.92	213.09	0.01	_
20091112_RATP_SCD_0767	108	14	est	NULL	v	NULL	B_GVf	ROOT	0	idtext0155	être	P#3##s##	spk2	213.1	213.13	0.01	_
20091112_RATP_SCD_0767	108	15	salaire	NULL	nc	NULL	B_GN	ATS	14	idtext0155	salaire	##m#s##	spk2	213.14	213.49	0.01	_
20091112_RATP_SCD_0767	108	16	etc	NULL	adv	NULL	B_GADV	MOD	15	idtext0155	etc	#####	spk2	213.5	213.9	0.01	_
20091112_RATP_SCD_0767	108	17	les	NULL	det	NULL	B_GN	DET	18	idtext0155	le	###p##d	spk2	213.91	213.98	0.01	_
20091112_RATP_SCD_0767	108	18	conditions	NULL	nc	NULL	I_GN	ROOT	0	idtext0155	condition	##f#p##	spk2	213.99	214.76	0.01	_
20091112_RATP_SCD_0767	108	19	le	NULL	det	NULL	B_GN	DET	20	idtext0155	le	##m#s##d	spk2	214.77	214.87	0.01	_
20091112_RATP_SCD_0767	108	20	niveau	NULL	nc	NULL	I_GN	ROOT	0	idtext0155	niveau	##m#s##	spk2	214.88	215.24	0.01	_
20091112_RATP_SCD_0767	108	21	requis	NULL	adj	NULL	I_GN	MOD	20	idtext0155	requérir	K##m#p##	spk2	215.25	215.42	0.01	//
20091112_RATP_SCD_0767	108	22	tout	NULL	adv	NULL	B_GADV	NOLINK	0	idtext0155	tout	##m#s##	spk2	215.43	215.53	0.01	_
20091112_RATP_SCD_0767	108	23	ça	NULL	pro	NULL	B_GN	NOLINK	0	idtext0155	ça	#####	spk2	215.54	215.78	0.46	/
20091112_RATP_SCD_0767	108	24	et+puis	NULL	coo	NULL	B_NULL	ROOT	0	idtext0156	et+puis	#####	spk2	216.24	216.44	0.01	_
20091112_RATP_SCD_0767	108	25	il	NULL	cln	NULL	B_GN	SUJ_IMP	27	idtext0156	cln	#3#m#s##	spk2	216.45	216.57	0.01	_
20091112_RATP_SCD_0767	108	26	y	NULL	clo	NULL	B_GN	AFF	27	idtext0156	y	#####	spk2	216.58	216.65	0.01	_
20091112_RATP_SCD_0767	108	27	a	NULL	v	NULL	B_GVf	DEP_COORD	24	idtext0156	avoir	P#3##s##	spk2	216.66	216.68	0.01	_
20091112_RATP_SCD_0767	108	28	aussi	NULL	adv	NULL	B_GADV	MOD	27	idtext0156	aussi	#####	spk2	216.69	217.17	0.26	_
20091112_RATP_SCD_0767	108	29	la	NULL	det	NULL	B_GN	DET	30	idtext0157	le	##m#s##d	spk2	217.43	217.6	0.01	_
20091112_RATP_SCD_0767	108	30	candidature	NULL	nc	NULL	I_GN	ROOT	0	idtext0157	candidature	##f#s##	spk2	217.61	218.11	0.01	_
20091112_RATP_SCD_0767	108	31	spontanée	NULL	adj	NULL	I_GN	MOD	30	idtext0157	spontané	##f#s##	spk2	218.12	218.65	?	//

20091112_RATP_SCD_0767	109	1	c'est-à-dire	NULL	coo	NULL	B_NULL	ROOT	0	idtext0158	c'est-à-dire	#####	spk2	219.11	219.28	0.01	_
20091112_RATP_SCD_0767	109	2	on	NULL	cln	NULL	B_GN	SUJ_IMP	3	idtext0159	cln	#3##s##	spk2	219.29	219.31	0.01	_
20091112_RATP_SCD_0767	109	3	peut	NULL	v	NULL	B_GVf	DEP_COORD	1	idtext0159	pouvoir	P#3##s##	spk2	219.32	219.46	0.01	_
20091112_RATP_SCD_0767	109	4	envoyer	NULL	vinf	NULL	I_GVf	OBJ	3	idtext0159	envoyer	W#####	spk2	219.47	219.78	0.01	_
20091112_RATP_SCD_0767	109	5	sa	NULL	det	NULL	B_GN	DET	6	idtext0159	sa	##f#s##o	spk2	219.79	219.93	0.01	_
20091112_RATP_SCD_0767	109	6	candidature	NULL	nc	NULL	I_GN	OBJ	4	idtext0159	candidature	##f#s##	spk2	219.94	220.63	0.26	_
20091112_RATP_SCD_0767	109	7	directement	NULL	adv	NULL	B_GADV	NOLINK	0	idtext0160	directement	#####	spk2	220.89	221.42	0.01	_
20091112_RATP_SCD_0767	109	8	pour	NULL	prep	NULL	B_GP	ROOT	0	idtext0160	pour	#####	spk2	221.43	221.73	0.01	_
20091112_RATP_SCD_0767	109	9	euh	DISF_M	pres	NULL	NULL	NOLINK	0	idtext0160	euh	#####	spk2	221.74	221.84	0.01	_
20091112_RATP_SCD_0767	109	10	un	NULL	det	NULL	I_GP	DET	12	idtext0160	un	##m#s##i	spk2	221.85	222.01	0.01	_
20091112_RATP_SCD_0767	109	11	autre	NULL	adj	NULL	I_GP	MOD	12	idtext0160	autre	###s##	spk2	222.02	222.25	0.01	_
20091112_RATP_SCD_0767	109	12	travail	NULL	nc	NULL	I_GP	OBJ	8	idtext0160	travail	##m#s##	spk2	222.26	222.75	0.47	//
20091112_RATP_SCD_0767	109	13	euh	DISF_M	pres	NULL	NULL	NOLINK	0	idtext0161	euh	#####	spk2	223.22	223.79	0.04	_
20091112_RATP_SCD_0767	109	14	ou	NULL	coo	NULL	B_NULL	ROOT	0	idtext0162	ou	#####	spk2	223.83	223.88	0.01	_
20091112_RATP_SCD_0767	109	15	même	NULL	adv	NULL	B_GADV	DEP_COORD	14	idtext0162	même	###s##	spk2	223.89	224.1	0.01	_
20091112_RATP_SCD_0767	109	16	en+tant+que	NULL	csu	NULL	B_NULL	MOD	15	idtext0162	en+tant+que	#####	spk2	224.11	224.68	0.01	_
20091112_RATP_SCD_0767	109	17	chauffeur	NULL	nc	NULL	B_GN	DEP_COORD	14	idtext0162	chauffeur	##m#s##	spk2	224.69	225.03	0.01	_
20091112_RATP_SCD_0767	109	18	de	NULL	prep	NULL	B_GP	DEP	17	idtext0162	de	#####	spk2	225.04	225.14	0.01	_
20091112_RATP_SCD_0767	109	19	bus	NULL	nc	NULL	I_GP	OBJ	18	idtext0162	bus	##m###	spk2	225.15	225.45	0.01	_
20091112_RATP_SCD_0767	109	20	ou	NULL	coo	NULL	B_NULL	ROOT	0	idtext0162	ou	#####	spk2	225.46	225.65	0.01	_
20091112_RATP_SCD_0767	109	21	être	NULL	vinf	NULL	B_GVi	DEP_COORD	20	idtext0162	être	W#####	spk2	225.66	225.9	0.01	_
20091112_RATP_SCD_0767	109	22	euh	DISF_M	pres	NULL	NULL	NOLINK	0	idtext0162	euh	#####	spk2	225.91	225.93	0.01	_
20091112_RATP_SCD_0767	109	23	au	NULL	prep	NULL	B_GP	P_OBJ_LOC	21	idtext0162	au	#####	spk2	225.94	226.1	0.01	_
20091112_RATP_SCD_0767	109	24	guichet	NULL	nc	NULL	I_GP	OBJ	23	idtext0162	guichet	##m#s##	spk2	226.11	226.48	0.01	_
20091112_RATP_SCD_0767	109	25	au	NULL	prep	NULL	B_GP	MOD	24	idtext0162	au	#####	spk2	226.49	226.54	0.01	_
20091112_RATP_SCD_0767	109	26	contrôle	NULL	nc	NULL	I_GP	OBJ	25	idtext0162	contrôle	##m#s##	spk2	226.55	226.86	0.01	_
20091112_RATP_SCD_0767	109	27	etc	NULL	adv	NULL	B_GADV	NOLINK	0	idtext0162	etc	#####	spk2	226.87	227.25	0.33	_
20091112_RATP_SCD_0767	109	28	mais	NULL	coo	NULL	B_NULL	ROOT	0	idtext0163	mais	#####	spk2	227.58	227.88	0.01	_
20091112_RATP_SCD_0767	109	29	là	NULL	adv	NULL	B_GADV	NOLINK	0	idtext0163	là	#####	spk2	227.89	228.05	0.01	_
20091112_RATP_SCD_0767	109	30	c'	NULL	cln	NULL	B_GN	SUJ_IMP	31	idtext0163	ce	###s##	spk2	228.06	228.18	0.01	_
20091112_RATP_SCD_0767	109	31	est	NULL	v	NULL	B_GVf	DEP_COORD	28	idtext0163	être	P#3##s##	spk2	228.19	228.21	0.01	_
20091112_RATP_SCD_0767	109	32	spécifique	NULL	adj	NULL	B_GADJ	ATS	31	idtext0163	spécifique	###s##	spk2	228.22	228.72	0.01	_
20091112_RATP_SCD_0767	109	33	ce+que	NULL	prorel	NULL	B_NULL	OBJ	35	idtext0163	ce+que	#####	spk2	228.73	228.78	0.01	_
20091112_RATP_SCD_0767	109	34	vous	NULL	cln	NULL	B_GN	SUJ	35	idtext0163	cln	#2##p##	spk2	228.79	228.9	0.01	_
20091112_RATP_SCD_0767	109	35	voulez	NULL	v	NULL	B_GVf	ROOT	0	idtext0163	vouloir	P#2##p##	spk2	228.91	229.14	0.01	_
20091112_RATP_SCD_0767	109	36	faire	NULL	vinf	NULL	I_GVf	OBJ	35	idtext0163	faire	W#####	spk2	229.15	229.41	?	//

20091112_RATP_SCD_0767	110	1	ouais	DISF_R	adv	NULL	NULL	NOLINK	0	idtext0164	ouais	#####	spk3	229.68	229.89	0.01	//
20091112_RATP_SCD_0767	110	2	ouais	NULL	adv	NULL	B_GADV	NOLINK	0	idtext0164	ouais	#####	spk3	229.9	230.11	?	_

20091112_RATP_SCD_0767	111	1	donc	NULL	coo	NULL	B_NULL	NOLINK	0	idtext0165	donc	#####	spk2	230.2	230.45	0.01	_
20091112_RATP_SCD_0767	111	2	là	NULL	adv	NULL	B_GADV	NOLINK	0	idtext0165	là	#####	spk2	230.46	230.68	?	_

20091112_RATP_SCD_0767	112	1	ce+que	NULL	prorel	NULL	B_NULL	OBJ	3	idtext0166	ce+que	#####	spk2	231.49	231.54	0.01	_
20091112_RATP_SCD_0767	112	2	vous	NULL	cln	NULL	B_GN	SUJ	3	idtext0166	cln	#2##p##	spk2	231.55	231.74	0.01	_
20091112_RATP_SCD_0767	112	3	allez	NULL	v	NULL	B_GVf	ROOT	0	idtext0166	aller	P#2##p##	spk2	231.75	231.89	0.01	_
20091112_RATP_SCD_0767	112	4	faire	NULL	vinf	NULL	I_GVf	OBJ	3	idtext0166	faire	W#####	spk2	231.9	232.3	0.09	_
20091112_RATP_SCD_0767	112	5	donc	NULL	coo	NULL	B_NULL	ROOT	0	idtext0167	donc	#####	spk2	232.39	232.67	0.01	_
20091112_RATP_SCD_0767	112	6	vous	NULL	cln	NULL	B_GN	SUJ	7	idtext0167	cln	#2##p##	spk2	232.68	232.82	0.01	_
20091112_RATP_SCD_0767	112	7	allez	NULL	v	NULL	B_GVf	DEP_COORD	5	idtext0167	aller	P#2##p##	spk2	232.83	232.95	0.01	_
20091112_RATP_SCD_0767	112	8	envoyer	NULL	vinf	NULL	I_GVf	OBJ	7	idtext0167	envoyer	W#####	spk2	232.96	233.36	0.01	_
20091112_RATP_SCD_0767	112	9	euh	DISF_M	pres	NULL	NULL	NOLINK	0	idtext0167	euh	#####	spk2	233.37	233.81	0.04	_
20091112_RATP_SCD_0767	112	10	le	NULL	det	NULL	B_GN	DET	11	idtext0168	le	##m#s##d	spk2	233.85	234.15	0.01	_
20091112_RATP_SCD_0767	112	11	CV	NULL	nc	NULL	I_GN	ROOT	0	idtext0168	curriculum+vitae	##m###	spk2	234.16	234.5	0.01	_
20091112_RATP_SCD_0767	112	12	et	NULL	coo	NULL	B_NULL	COORD	11	idtext0168	et	#####	spk2	234.51	234.62	0.01	_
20091112_RATP_SCD_0767	112	13	la	NULL	det	NULL	B_GN	DET	14	idtext0168	le	##m#s##d	spk2	234.63	234.7	0.01	_
20091112_RATP_SCD_0767	112	14	lettre	NULL	nc	NULL	I_GN	DEP_COORD	12	idtext0168	lettre	##f#s##	spk2	234.71	235.02	0.01	_
20091112_RATP_SCD_0767	112	15	à	NULL	prep	NULL	B_GP	P_OBJ	14	idtext0168	à	#####	spk2	235.03	235.08	0.01	_
20091112_RATP_SCD_0767	112	16	l'	NULL	det	NULL	I_GP	DET	17	idtext0168	le	###s##d	spk2	235.09	235.11	0.01	_
20091112_RATP_SCD_0767	112	17	adresse	NULL	nc	NULL	I_GP	OBJ	15	idtext0168	adresse	##f#s##	spk2	235.12	235.37	0.01	_
20091112_RATP_SCD_0767	112	18	suivante	NULL	adj	NULL	I_GP	MOD	17	idtext0168	suivant	##f#s##	spk2	235.38	236.07	0.16	/
20091112_RATP_SCD_0767	112	19	donc	NULL	coo	NULL	B_NULL	ROOT	0	idtext0169	donc	#####	spk2	236.23	236.35	0.01	_
20091112_RATP_SCD_0767	112	20	il	NULL	cln	NULL	B_GN	SUJ_IMP	21	idtext0169	cln	#3#m#s##	spk2	236.36	236.41	0.01	_
20091112_RATP_SCD_0767	112	21	faut	NULL	v	NULL	B_GVf	DEP_COORD	19	idtext0169	falloir	P#3##s##	spk2	236.42	236.52	0.01	_
20091112_RATP_SCD_0767	112	22	préciser	NULL	vinf	NULL	I_GVf	OBJ	21	idtext0169	préciser	W#####	spk2	236.53	236.97	0.01	_
20091112_RATP_SCD_0767	112	23	votre	NULL	det	NULL	B_GN	DET	24	idtext0169	votre	###s##o	spk2	236.98	237.19	0.01	_
20091112_RATP_SCD_0767	112	24	date	NULL	nc	NULL	I_GN	OBJ	22	idtext0169	date	##f#s##	spk2	237.2	237.34	0.01	_
20091112_RATP_SCD_0767	112	25	de	NULL	prep	NULL	B_GP	DEP	24	idtext0169	de	#####	spk2	237.35	237.47	0.01	_
20091112_RATP_SCD_0767	112	26	naissance	NULL	nc	NULL	I_GP	OBJ	25	idtext0169	naissance	##f#s##	spk2	237.48	237.91	0.01	_
20091112_RATP_SCD_0767	112	27	hein	DISF_M	pres	NULL	NULL	NOLINK	0	idtext0169	hein	#####	spk2	237.92	238.06	?	//

20091112_RATP_SCD_0767	113	1	oui	NULL	adv	NULL	B_GADV	NOLINK	0	idtext0170	oui	#####	spk3	238.37	238.77	?	//

20091112_RATP_SCD_0767	114	1	donc	NULL	coo	NULL	B_NULL	ROOT	0	idtext0171	donc	#####	spk2	239.47	239.65	0.01	_
20091112_RATP_SCD_0767	114	2	c'	NULL	cln	NULL	B_GN	SUJ_IMP	3	idtext0171	ce	###s##	spk2	239.66	239.73	0.01	_
20091112_RATP_SCD_0767	114	3	est	NULL	v	NULL	B_GVf	DEP_COORD	1	idtext0171	être	P#3##s##	spk2	239.74	239.99	0.01	_
20091112_RATP_SCD_0767	114	4	RATP	NULL	np	B_ORG	B_GN	ATS	3	idtext0171	RATP	##f#s##	spk2	240.0	240.79	?	//

20091112_RATP_SCD_0767	115	1	donc	NULL	coo	NULL	B_NULL	ROOT	0	idtext0172	donc	#####	spk2	241.22	241.3	0.01	_
20091112_RATP_SCD_0767	115	2	gardez	NULL	v	NULL	B_GVf	DEP_COORD	1	idtext0172	garder	P#2##p##	spk2	241.31	241.57	0.01	_
20091112_RATP_SCD_0767	115	3	la	NULL	det	NULL	B_GN	DET	4	idtext0172	le	##m#s##d	spk2	241.58	241.68	0.01	_
20091112_RATP_SCD_0767	115	4	première	NULL	adj	NULL	I_GN	OBJ	2	idtext0172	premier	##f#s##	spk2	241.69	242.16	0.01	_
20091112_RATP_SCD_0767	115	5	hein	DISF_M	pres	NULL	NULL	NOLINK	0	idtext0172	hein	#####	spk2	242.17	242.28	?	//

20091112_RATP_SCD_0767	116	1	B	NULL	nc	NULL	B_GN	ROOT	0	idtext0173	B	#####	spk3	242.74	243.02	0.01	_
20091112_RATP_SCD_0767	116	2	C	NULL	nc	NULL	I_GN	MOD	1	idtext0173	C	#####	spk3	243.03	243.25	0.01	_
20091112_RATP_SCD_0767	116	3	O	NULL	nc	NULL	B_GN	NOLINK	0	idtext0173	O	#####	spk3	243.26	243.65	?	//

20091112_RATP_SCD_0767	117	1	mais	NULL	coo	NULL	B_NULL	ROOT	0	idtext0174	mais	#####	spk2	242.74	243.02	0.01	_
20091112_RATP_SCD_0767	117	2	c'	NULL	cln	NULL	B_GN	SUJ_IMP	3	idtext0174	ce	###s##	spk2	243.03	243.09	0.01	_
20091112_RATP_SCD_0767	117	3	est	NULL	v	NULL	B_GVf	DEP_COORD	1	idtext0174	être	P#3##s##	spk2	243.1	243.27	0.01	_
20091112_RATP_SCD_0767	117	4	celle-ci	NULL	pro	NULL	B_GN	ATS	3	idtext0174	celle-ci	#####	spk2	243.28	243.65	?	_

20091112_RATP_SCD_0767	118	1	c'	NULL	cln	NULL	B_GN	SUJ_IMP	2	idtext0175	ce	###s##	spk2	243.69	243.75	0.01	_
20091112_RATP_SCD_0767	118	2	est	NULL	v	NULL	B_GVf	ROOT	0	idtext0175	être	P#3##s##	spk2	243.76	243.8	0.01	_
20091112_RATP_SCD_0767	118	3	celle-ci	NULL	pro	NULL	B_GN	ATS	2	idtext0175	celle-ci	#####	spk2	243.81	244.04	0.01	/
20091112_RATP_SCD_0767	118	4	qu'	NULL	prorel	NULL	B_NULL	OBJ	7	idtext0175	qu'	#####	spk2	244.05	244.07	0.01	_
20091112_RATP_SCD_0767	118	5	il	NULL	cln	NULL	B_GN	SUJ_IMP	6	idtext0175	cln	#3#m#s##	spk2	244.08	244.15	0.01	_
20091112_RATP_SCD_0767	118	6	faut	NULL	v	NULL	B_GVf	MOD_REL	3	idtext0175	falloir	P#3##s##	spk2	244.16	244.32	0.01	_
20091112_RATP_SCD_0767	118	7	prendre	NULL	vinf	NULL	I_GVf	OBJ	6	idtext0175	prendre	W#####	spk2	244.33	244.58	0.01	_
20091112_RATP_SCD_0767	118	8	hein	DISF_M	pres	NULL	NULL	NOLINK	0	idtext0175	hein	#####	spk2	244.59	244.79	0.04	_
20091112_RATP_SCD_0767	118	9	non	NULL	adv	NULL	B_GADV	NOLINK	0	idtext0176	non	#####	spk2	244.83	245.0	?	_

20091112_RATP_SCD_0767	119	1	RATP	NULL	np	B_ORG	B_GN	NOLINK	0	idtext0177	RATP	##f#s##	spk2	245.29	246.04	?	//

20091112_RATP_SCD_0767	120	1	d'accord	NULL	adv	NULL	B_GADV	NOLINK	0	idtext0178	d'accord	#####	spk3	245.29	246.04	?	//

20091112_RATP_SCD_0767	121	1	G	NULL	nc	NULL	B_GN	ROOT	0	idtext0179	G	#####	spk2	246.11	246.45	0.01	_
20091112_RATP_SCD_0767	121	2	I	NULL	nc	NULL	I_GN	MOD	1	idtext0179	I	#####	spk2	246.46	246.52	0.01	_
20091112_RATP_SCD_0767	121	3	S	NULL	nc	NULL	B_GN	NOLINK	0	idtext0179	S	#####	spk2	246.53	246.93	?	//

20091112_RATP_SCD_0767	122	1	G	NULL	nc	NULL	B_GN	NOLINK	0	idtext0180	G	#####	spk2	247.4	247.88	0.05	/
20091112_RATP_SCD_0767	122	2	I	NULL	nc	NULL	B_GN	ROOT	0	idtext0182	I	#####	spk2	247.93	248.14	0.01	_
20091112_RATP_SCD_0767	122	3	S	NULL	nc	NULL	I_GN	MOD	2	idtext0182	S	#####	spk2	248.15	248.7	?	//

20091112_RATP_SCD_0767	123	1	G	NULL	nc	NULL	B_GN	NOLINK	0	idtext0181	G	#####	spk3	247.4	247.88	0.05	/
20091112_RATP_SCD_0767	123	2	I	NULL	nc	NULL	B_GN	ROOT	0	idtext0183	I	#####	spk3	247.93	248.14	0.01	_
20091112_RATP_SCD_0767	123	3	S	NULL	nc	NULL	I_GN	MOD	2	idtext0183	S	#####	spk3	248.15	248.7	?	//

20091112_RATP_SCD_0767	124	1	G	NULL	nc	NULL	B_GN	ROOT	0	idtext0184	G	#####	spk2	250.88	251.11	0.01	/
20091112_RATP_SCD_0767	124	2	I	NULL	nc	NULL	I_GN	MOD	1	idtext0184	I	#####	spk2	251.12	251.2	0.01	_
20091112_RATP_SCD_0767	124	3	S	NULL	nc	NULL	B_GN	NOLINK	0	idtext0184	S	#####	spk2	251.21	251.45	?	//

20091112_RATP_SCD_0767	125	1	oui	NULL	adv	NULL	B_GADV	NOLINK	0	idtext0185	oui	#####	spk3	251.51	251.8	?	//

20091112_RATP_SCD_0767	126	1	tiret	NULL	nc	NULL	B_GN	NOLINK	0	idtext0186	tiret	##m#s##	spk2	252.17	252.56	0.16	_
20091112_RATP_SCD_0767	126	2	D	NULL	nc	NULL	B_GN	ROOT	0	idtext0187	D	#####	spk2	252.72	252.97	0.01	_
20091112_RATP_SCD_0767	126	3	C	NULL	nc	NULL	I_GN	MOD	2	idtext0187	C	#####	spk2	252.98	253.13	0.01	_
20091112_RATP_SCD_0767	126	4	O	NULL	nc	NULL	B_GN	NOLINK	0	idtext0187	O	#####	spk2	253.14	253.34	?	//

20091112_RATP_SCD_0767	127	1	oui	NULL	adv	NULL	B_GADV	NOLINK	0	idtext0188	oui	#####	spk3	254.2	254.47	?	//

20091112_RATP_SCD_0767	128	1	tiret	NULL	nc	NULL	B_GN	ROOT	0	idtext0189	tiret	##m#s##	spk2	255.02	255.52	0.01	_
20091112_RATP_SCD_0767	128	2	D	NULL	nc	NULL	I_GN	MOD	1	idtext0189	D	#####	spk2	255.53	255.67	0.01	/
20091112_RATP_SCD_0767	128	3	C	NULL	nc	NULL	B_GN	ROOT	0	idtext0189	C	#####	spk2	255.68	255.92	0.01	_
20091112_RATP_SCD_0767	128	4	O	NULL	nc	NULL	I_GN	MOD	3	idtext0189	O	#####	spk2	255.93	256.22	?	//

20091112_RATP_SCD_0767	129	1	oui	NULL	adv	NULL	B_GADV	NOLINK	0	idtext0190	oui	#####	spk3	256.27	256.55	?	//

20091112_RATP_SCD_0767	130	1	en+dessous	NULL	adv	NULL	B_GADV	NOLINK	0	idtext0191	en+dessous	#####	spk2	256.88	257.36	?	_

20091112_RATP_SCD_0767	131	1	secrétariat	NULL	nc	NULL	B_GN	NOLINK	0	idtext0192	secrétariat	##m#s##	spk2	257.79	258.79	?	//

20091112_RATP_SCD_0767	132	1	des	NULL	det	NULL	B_GN	DET	2	idtext0193	des	###p##i	spk2	259.94	260.03	0.01	_
20091112_RATP_SCD_0767	132	2	contrats	NULL	nc	NULL	I_GN	ROOT	0	idtext0193	contrat	##m#p##	spk2	260.04	260.74	0.01	_
20091112_RATP_SCD_0767	132	3	de	NULL	prep	NULL	B_GP	DEP	2	idtext0193	de	#####	spk2	260.75	260.89	0.01	_
20091112_RATP_SCD_0767	132	4	professionnalisation	NULL	nc	NULL	I_GP	OBJ	3	idtext0193	professionnalisation	##f#s##	spk2	260.9	262.29	?	//

20091112_RATP_SCD_0767	133	1	voilà	DISF_M	pres	NULL	NULL	NOLINK	0	idtext0194	voilà	#####	spk3	262.63	263.45	?	//

20091112_RATP_SCD_0767	134	1	secrétariat	NULL	nc	NULL	B_GN	NOLINK	0	idtext0195	secrétariat	##m#s##	spk2	263.64	264.43	?	//

20091112_RATP_SCD_0767	135	1	des	NULL	det	NULL	B_GN	DET	2	idtext0196	des	###p##i	spk2	264.86	265.0	0.01	_
20091112_RATP_SCD_0767	135	2	contrats	NULL	nc	NULL	I_GN	ROOT	0	idtext0196	contrat	##m#p##	spk2	265.01	265.49	?	//

20091112_RATP_SCD_0767	136	1	de	NULL	prep	NULL	B_GP	ROOT	0	idtext0197	de	#####	spk2	266.17	266.26	0.01	_
20091112_RATP_SCD_0767	136	2	professionnalisation	NULL	nc	NULL	I_GP	OBJ	1	idtext0197	professionnalisation	##f#s##	spk2	266.27	267.61	?	//

20091112_RATP_SCD_0767	137	1	d'accord	NULL	adv	NULL	B_GADV	NOLINK	0	idtext0198	d'accord	#####	spk3	267.9	268.37	?	//

20091112_RATP_SCD_0767	138	1	en+dessous	NULL	adv	NULL	B_GADV	NOLINK	0	idtext0199	en+dessous	#####	spk2	270.38	270.89	0.01	_
20091112_RATP_SCD_0767	138	2	LAC	NULL	nc	NULL	B_GN	NOLINK	0	idtext0199	LAC	#####	spk2	270.9	271.57	0.08	_
20091112_RATP_SCD_0767	138	3	L	NULL	nc	NULL	B_GN	ROOT	0	idtext0200	L	#####	spk2	271.65	271.93	0.01	_
20091112_RATP_SCD_0767	138	4	A	NULL	nc	NULL	I_GN	MOD	3	idtext0200	A	#####	spk2	271.94	272.09	0.01	_
20091112_RATP_SCD_0767	138	5	C	NULL	nc	NULL	B_GN	NOLINK	0	idtext0200	C	#####	spk2	272.1	272.49	?	_

20091112_RATP_SCD_0767	139	1	LAC	NULL	nc	NULL	B_GN	NOLINK	0	idtext0201	LAC	#####	spk2	273.42	273.7	0.01	_
20091112_RATP_SCD_0767	139	2	ça	NULL	pro	NULL	I_GN	SUJ_IMP	3	idtext0201	ça	#####	spk2	273.71	273.76	0.01	_
20091112_RATP_SCD_0767	139	3	veut	NULL	v	NULL	B_GVf	ROOT	0	idtext0201	vouloir	P#3##s##	spk2	273.77	274.0	0.01	_
20091112_RATP_SCD_0767	139	4	dire	NULL	vinf	NULL	I_GVf	OBJ	3	idtext0201	dire	W#####	spk2	274.01	274.17	0.01	_
20091112_RATP_SCD_0767	139	5	lieu	NULL	nc	NULL	B_GN	ROOT	0	idtext0201	lieu	##m#s##	spk2	274.18	274.33	0.01	_
20091112_RATP_SCD_0767	139	6	d'	NULL	prep	NULL	B_GP	DEP	5	idtext0201	d'	#####	spk2	274.34	274.39	0.01	_
20091112_RATP_SCD_0767	139	7	accueil	NULL	nc	NULL	I_GP	OBJ	6	idtext0201	accueil	##m#s##	spk2	274.4	274.71	0.01	_
20091112_RATP_SCD_0767	139	8	courrier	NULL	nc	NULL	I_GP	MOD	7	idtext0201	courrier	##m#s##	spk2	274.72	275.16	?	//

20091112_RATP_SCD_0767	140	1	LAC	NULL	nc	NULL	B_GN	NOLINK	0	idtext0202	LAC	#####	spk2	275.21	276.12	?	//

20091112_RATP_SCD_0767	141	1	d'accord	NULL	adv	NULL	B_GADV	NOLINK	0	idtext0203	d'accord	#####	spk3	275.29	276.12	?	//

20091112_RATP_SCD_0767	142	1	à	NULL	prep	NULL	B_GP	MOD	4	idtext0204	à	#####	spk2	276.28	276.39	0.01	_
20091112_RATP_SCD_0767	142	2	côté	NULL	nc	NULL	I_GP	OBJ	1	idtext0204	côté	##m#s##	spk2	276.4	276.67	0.01	_
20091112_RATP_SCD_0767	142	3	vous	NULL	cln	NULL	B_GN	SUJ	4	idtext0204	cln	#2##p##	spk2	276.68	276.75	0.01	_
20091112_RATP_SCD_0767	142	4	mettez	NULL	v	NULL	B_GVf	ROOT	0	idtext0204	mettre	P#2##p##	spk2	276.76	277.18	0.01	_
20091112_RATP_SCD_0767	142	5	B	NULL	nc	NULL	B_GN	OBJ	4	idtext0204	B	#####	spk2	277.19	277.46	0.01	_
20091112_RATP_SCD_0767	142	6	comme	NULL	adv	NULL	B_GADV	MOD	4	idtext0204	comme	#####	spk2	277.47	277.71	0.01	_
20091112_RATP_SCD_0767	142	7	Benoît	NULL	np	NULL	B_GN	OBJ	6	idtext0204	Benoît	##m#s##	spk2	277.72	278.19	?	//

20091112_RATP_SCD_0767	143	1	oui	NULL	adv	NULL	B_GADV	NOLINK	0	idtext0205	oui	#####	spk3	278.79	279.11	?	//

20091112_RATP_SCD_0767	144	1	deux+cent+quarante-et-un	NULL	nc	B_T	B_GN	NOLINK	0	idtext0206	deux+cent+quarante-et-un	#####	spk2	279.2	280.21	?	_

20091112_RATP_SCD_0767	145	1	euh	DISF_M	pres	NULL	NULL	NOLINK	0	idtext0207	euh	#####	spk2	281.32	281.67	0.01	_
20091112_RATP_SCD_0767	145	2	la	NULL	det	NULL	B_GN	DET	3	idtext0207	le	##m#s##d	spk2	281.68	281.73	0.01	_
20091112_RATP_SCD_0767	145	3	référence	NULL	nc	NULL	I_GN	ROOT	0	idtext0207	référence	##f#s##	spk2	281.74	282.1	0.01	_
20091112_RATP_SCD_0767	145	4	du	NULL	prep	NULL	B_GP	DEP	3	idtext0207	du	#####	spk2	282.11	282.23	0.01	_
20091112_RATP_SCD_0767	145	5	bureau	NULL	nc	NULL	I_GP	OBJ	4	idtext0207	bureau	##m#s##	spk2	282.24	282.84	0.01	//
20091112_RATP_SCD_0767	145	6	hein	DISF_M	pres	NULL	NULL	NOLINK	0	idtext0207	hein	#####	spk2	282.85	282.88	0.01	_
20091112_RATP_SCD_0767	145	7	où	NULL	prorel	NULL	B_NULL	P_OBJ_LOC	8	idtext0207	où	#####	spk2	282.89	283.03	0.01	_
20091112_RATP_SCD_0767	145	8	arrive	NULL	v	NULL	B_GVf	MOD_REL	3	idtext0207	arriver	PS#13##s##	spk2	283.04	283.31	0.01	_
20091112_RATP_SCD_0767	145	9	le	NULL	det	NULL	B_GN	DET	10	idtext0207	le	##m#s##d	spk2	283.32	283.63	0.01	_
20091112_RATP_SCD_0767	145	10	courrier	NULL	nc	NULL	I_GN	OBJ	8	idtext0207	courrier	##m#s##	spk2	283.64	284.23	?	//

20091112_RATP_SCD_0767	146	1	d'accord	NULL	adv	NULL	B_GADV	NOLINK	0	idtext0208	d'accord	#####	spk3	284.27	284.67	?	//

20091112_RATP_SCD_0767	147	1	vingt-trois	NULL	nc	B_A	B_GN	NOLINK	0	idtext0209	vingt-trois	#####	spk2	285.01	285.67	0.01	_
20091112_RATP_SCD_0767	147	2	rue	NULL	nc	I_A	I_GN	MOD	1	idtext0209	rue	##f#s##	spk2	285.68	285.9	0.01	_
20091112_RATP_SCD_0767	147	3	Belliard	NULL	np	I_A	I_GN	MOD	2	idtext0209	Belliard	#####	spk2	285.91	286.57	?	//

20091112_RATP_SCD_0767	148	1	vingt-trois	NULL	nc	NULL	B_GN	ROOT	0	idtext0210	vingt-trois	#####	spk3	287.87	289.06	0.01	_
20091112_RATP_SCD_0767	148	2	rue	NULL	nc	NULL	I_GN	MOD	1	idtext0210	rue	##f#s##	spk3	289.07	289.73	?	//

20091112_RATP_SCD_0767	149	1	vingt-trois	NULL	nc	B_A	B_GN	NOLINK	0	idtext0211	vingt-trois	#####	spk2	287.87	289.06	0.01	_
20091112_RATP_SCD_0767	149	2	rue	NULL	nc	I_A	I_GN	MOD	1	idtext0211	rue	##f#s##	spk2	289.07	289.24	0.01	_
20091112_RATP_SCD_0767	149	3	Belliard	NULL	np	I_A	I_GN	MOD	2	idtext0211	Belliard	#####	spk2	289.25	289.73	?	//

20091112_RATP_SCD_0767	150	1	oui	NULL	adv	NULL	B_GADV	NOLINK	0	idtext0212	oui	#####	spk3	291.81	292.04	?	//

20091112_RATP_SCD_0767	151	1	soixante-quinze+mille+huit+cent+quatre-vingt-neuf	NULL	nc	B_CP	B_GN	NOLINK	0	idtext0213	soixante-quinze+mille+huit+cent+quatre-vingt-neuf	#####	spk2	293.85	295.52	?	//

20091112_RATP_SCD_0767	152	1	soixante-quinze+mille+huit+cent+quatre-vingt-neuf	NULL	nc	B_CP	B_GN	ROOT	0	idtext0214	soixante-quinze+mille+huit+cent+quatre-vingt-neuf	#####	spk3	296.42	298.03	0.01	_
20091112_RATP_SCD_0767	152	2	Paris	NULL	np	B_A	I_GN	MOD	1	idtext0214	Paris	##m#s##	spk3	298.04	298.24	0.01	_
20091112_RATP_SCD_0767	152	3	cedex	NULL	nc	I_A	I_GN	MOD	2	idtext0214	cedex	##m###	spk3	298.25	298.66	0.01	_
20091112_RATP_SCD_0767	152	4	douze	NULL	adj	I_A	I_GN	MOD	3	idtext0214	douze	#####	spk3	298.67	299.05	?	//

20091112_RATP_SCD_0767	153	1	exactement	NULL	adv	NULL	B_GADV	NOLINK	0	idtext0215	exactement	#####	spk2	299.1	299.72	?	//

20091112_RATP_SCD_0767	154	1	euh	DISF_M	pres	NULL	NULL	NOLINK	0	idtext0216	euh	#####	spk2	300.58	300.7	0.01	_
20091112_RATP_SCD_0767	154	2	dix-huit	NULL	nc	NULL	B_GN	NOLINK	0	idtext0216	dix-huit	#####	spk2	300.71	301.35	0.01	_
20091112_RATP_SCD_0767	154	3	non	NULL	adv	NULL	B_GADV	NOLINK	0	idtext0216	non	#####	spk2	301.36	301.46	?	_

20091112_RATP_SCD_0767	155	1	je	NULL	cln	NULL	B_GN	SUJ	2	idtext0217	cln	#1##s##	spk3	300.69	300.86	0.01	_
20091112_RATP_SCD_0767	155	2	peux	NULL	v	NULL	B_GVf	ROOT	0	idtext0217	pouvoir	P#12##s##	spk3	300.87	300.99	0.01	_
20091112_RATP_SCD_0767	155	3	vous	NULL	clo	NULL	B_GN	A_OBJ	2	idtext0217	cln	#2##p##	spk3	301.0	301.08	0.01	_
20091112_RATP_SCD_0767	155	4	répéter	NULL	vinf	NULL	B_GVi	OBJ	2	idtext0217	répéter	W#####	spk3	301.09	301.46	?	//

20091112_RATP_SCD_0767	156	1	non	NULL	adv	NULL	B_GADV	NOLINK	0	idtext0218	non	#####	spk2	301.5	301.63	0.01	_
20091112_RATP_SCD_0767	156	2	dix-huit	NULL	nc	NULL	B_GN	NOLINK	0	idtext0218	dix-huit	#####	spk2	301.64	302.07	0.01	_
20091112_RATP_SCD_0767	156	3	hein	DISF_M	pres	NULL	NULL	NOLINK	0	idtext0218	hein	#####	spk2	302.08	302.17	?	//

20091112_RATP_SCD_0767	157	1	ah	DISF_M	pres	NULL	NULL	NOLINK	0	idtext0219	ah	#####	spk3	302.58	302.62	0.01	_
20091112_RATP_SCD_0767	157	2	oui	NULL	adv	NULL	B_GADV	NOLINK	0	idtext0219	oui	#####	spk3	302.63	302.71	0.01	_
20091112_RATP_SCD_0767	157	3	c'	NULL	cln	NULL	B_GN	SUJ_IMP	4	idtext0219	ce	###s##	spk3	302.72	302.78	0.01	_
20091112_RATP_SCD_0767	157	4	était	NULL	v	NULL	B_GVf	ROOT	0	idtext0219	être	I#3##s##	spk3	302.79	303.27	0.01	_
20091112_RATP_SCD_0767	157	5	dix-huit	NULL	nc	NULL	B_GN	ATS	4	idtext0219	dix-huit	#####	spk3	303.28	303.9	?	//

20091112_RATP_SCD_0767	158	1	soixante-quinze+mille+huit+cent+quatre-vingt-neuf	NULL	nc	B_CP	B_GN	NOLINK	0	idtext0220	soixante-quinze+mille+huit+cent+quatre-vingt-neuf	#####	spk2	302.56	303.9	?	//

20091112_RATP_SCD_0767	159	1	Paris	NULL	np	B_A	B_GN	NOLINK	0	idtext0221	Paris	##m#s##	spk2	303.94	304.08	0.01	_
20091112_RATP_SCD_0767	159	2	cedex	NULL	nc	I_A	I_GN	MOD	1	idtext0221	cedex	##m###	spk2	304.09	304.35	0.01	_
20091112_RATP_SCD_0767	159	3	dix-huit	NULL	adj	I_A	I_GN	MOD	2	idtext0221	dix-huit	#####	spk2	304.36	304.59	?	//

20091112_RATP_SCD_0767	160	1	tout	NULL	adv	NULL	B_GADV	NOLINK	0	idtext0222	tout	##m#s##	spk2	304.76	304.83	0.01	_
20091112_RATP_SCD_0767	160	2	à	NULL	prep	NULL	B_GP	MOD	7	idtext0222	à	#####	spk2	304.84	304.86	0.01	_
20091112_RATP_SCD_0767	160	3	l'	NULL	det	NULL	I_GP	DET	4	idtext0222	le	###s##d	spk2	304.87	304.89	0.01	_
20091112_RATP_SCD_0767	160	4	heure	NULL	nc	NULL	I_GP	OBJ	2	idtext0222	heure	##f#s##	spk2	304.9	304.95	0.01	_
20091112_RATP_SCD_0767	160	5	je	NULL	cln	NULL	B_GN	SUJ	7	idtext0222	cln	#1##s##	spk2	304.96	304.98	0.01	_
20091112_RATP_SCD_0767	160	6	vous	NULL	clo	NULL	B_GN	OBJ	7	idtext0222	cln	#2##p##	spk2	304.99	305.08	0.01	_
20091112_RATP_SCD_0767	160	7	avais	NULL	v	NULL	B_GVf	ROOT	0	idtext0222	avoir	I#12##s##	spk2	305.09	305.28	0.01	_
20091112_RATP_SCD_0767	160	8	du	NULL	prep	NULL	B_GP	MOD	7	idtext0222	du	#####	spk2	305.29	305.41	0.01	_
20091112_RATP_SCD_0767	160	9	je	NULL	cln	NULL	I_GP	SUJ	12	idtext0222	cln	#1##s##	spk2	305.42	305.53	0.01	_
20091112_RATP_SCD_0767	160	10	vous	NULL	clo	NULL	B_GN	A_OBJ	12	idtext0222	cln	#2##p##	spk2	305.54	305.64	0.01	_
20091112_RATP_SCD_0767	160	11	avais	NULL	v	NULL	B_GVf	AUX	12	idtext0222	avoir	I#12##s##	spk2	305.65	305.79	0.01	_
20091112_RATP_SCD_0767	160	12	dit	NULL	vppart	NULL	I_GVf	ROOT	0	idtext0222	dire	J#3##s##	spk2	305.8	305.92	0.01	_
20091112_RATP_SCD_0767	160	13	douze	NULL	nc	NULL	B_GN	OBJ	12	idtext0222	douze	##m###	spk2	305.93	306.29	?	//

20091112_RATP_SCD_0767	161	1	ouais	NULL	adv	NULL	B_GADV	NOLINK	0	idtext0223	ouais	#####	spk3	306.34	306.51	?	//

20091112_RATP_SCD_0767	162	1	c'	NULL	cln	NULL	B_GN	SUJ_IMP	2	idtext0224	ce	###s##	spk2	306.6	306.64	0.01	_
20091112_RATP_SCD_0767	162	2	est	NULL	v	NULL	B_GVf	ROOT	0	idtext0224	être	P#3##s##	spk2	306.65	306.69	0.01	_
20091112_RATP_SCD_0767	162	3	dix-huit	NULL	nc	NULL	B_GN	ATS	2	idtext0224	dix-huit	#####	spk2	306.7	307.04	0.01	_
20091112_RATP_SCD_0767	162	4	hein	DISF_M	pres	NULL	NULL	NOLINK	0	idtext0224	hein	#####	spk2	307.05	307.12	0.01	_
20091112_RATP_SCD_0767	162	5	pardon	DISF_M	pres	NULL	NULL	NOLINK	0	idtext0224	pardon	#####	spk2	307.13	307.46	?	//

20091112_RATP_SCD_0767	163	1	donc	NULL	coo	NULL	B_NULL	ROOT	0	idtext0225	donc	#####	spk3	307.74	307.98	0.01	_
20091112_RATP_SCD_0767	163	2	je	DISF_R	cln	NULL	NULL	NOLINK	0	idtext0225	cln	#1##s##	spk3	307.99	308.18	0.01	_
20091112_RATP_SCD_0767	163	3	je	NULL	cln	NULL	B_GN	SUJ	4	idtext0225	cln	#1##s##	spk3	308.19	308.31	0.01	_
20091112_RATP_SCD_0767	163	4	récapitule	NULL	v	NULL	B_GVf	DEP_COORD	1	idtext0225	récapituler	PS#13##s##	spk3	308.32	309.04	0.05	_
20091112_RATP_SCD_0767	163	5	RATP	NULL	np	B_ORG	B_GN	OBJ	7	idtext0226	RATP	##f#s##	spk3	309.09	309.87	0.01	_
20091112_RATP_SCD_0767	163	6	G	NULL	nc	NULL	I_GN	MOD	5	idtext0226	G	#####	spk3	309.88	310.07	0.01	_
20091112_RATP_SCD_0767	163	7	I	NULL	nc	NULL	B_GN	ROOT	0	idtext0226	I	#####	spk3	310.08	310.23	0.01	_
20091112_RATP_SCD_0767	163	8	S	NULL	nc	NULL	I_GN	MOD	7	idtext0226	S	#####	spk3	310.24	310.51	0.04	_
20091112_RATP_SCD_0767	163	9	tiret	NULL	nc	NULL	B_GN	ROOT	0	idtext0227	tiret	##m#s##	spk3	310.55	310.87	0.01	_
20091112_RATP_SCD_0767	163	10	B	NULL	nc	NULL	I_GN	MOD	9	idtext0227	B	#####	spk3	310.88	311.12	0.01	_
20091112_RATP_SCD_0767	163	11	C	NULL	nc	NULL	B_GN	ROOT	0	idtext0227	C	#####	spk3	311.13	311.24	0.01	_
20091112_RATP_SCD_0767	163	12	O	NULL	nc	NULL	I_GN	MOD	11	idtext0227	O	#####	spk3	311.25	311.42	0.72	_
20091112_RATP_SCD_0767	163	13	secrétariat	NULL	nc	NULL	B_GN	ROOT	0	idtext0228	secrétariat	##m#s##	spk3	312.14	312.71	0.01	_
20091112_RATP_SCD_0767	163	14	des	NULL	prep	NULL	B_GP	DEP	13	idtext0228	des	#####	spk3	312.72	312.84	0.01	_
20091112_RATP_SCD_0767	163	15	contrats	NULL	nc	NULL	I_GP	OBJ	14	idtext0228	contrat	##m#p##	spk3	312.85	313.13	0.01	_
20091112_RATP_SCD_0767	163	16	de	NULL	prep	NULL	B_GP	DEP	15	idtext0228	de	#####	spk3	313.14	313.16	0.01	_
20091112_RATP_SCD_0767	163	17	professionnalisation	NULL	nc	NULL	I_GP	OBJ	16	idtext0228	professionnalisation	##f#s##	spk3	313.17	314.21	0.48	//
20091112_RATP_SCD_0767	163	18	LAC	NULL	nc	NULL	B_GN	NOLINK	0	idtext0229	LAC	#####	spk3	314.69	315.2	0.26	_
20091112_RATP_SCD_0767	163	19	B	NULL	nc	NULL	B_GN	ROOT	0	idtext0230	B	#####	spk3	315.46	315.73	0.01	_
20091112_RATP_SCD_0767	163	20	deux+cent+quarante-et-un	NULL	nc	NULL	I_GN	MOD	19	idtext0230	deux+cent+quarante-et-un	#####	spk3	315.74	316.6	0.83	_
20091112_RATP_SCD_0767	163	21	vingt-trois	NULL	nc	B_A	B_GN	NOLINK	0	idtext0231	vingt-trois	#####	spk3	317.43	317.79	0.01	_
20091112_RATP_SCD_0767	163	22	rue	NULL	nc	I_A	I_GN	MOD	21	idtext0231	rue	##f#s##	spk3	317.8	317.94	0.01	_
20091112_RATP_SCD_0767	163	23	Belliard	NULL	np	I_A	I_GN	MOD	22	idtext0231	Belliard	#####	spk3	317.95	318.39	?	//

20091112_RATP_SCD_0767	164	1	vingt-trois	NULL	nc	B_A	B_GN	NOLINK	0	idtext0232	vingt-trois	#####	spk2	318.52	318.87	0.01	_
20091112_RATP_SCD_0767	164	2	rue	NULL	nc	I_A	I_GN	MOD	1	idtext0232	rue	##f#s##	spk2	318.88	319.03	0.01	_
20091112_RATP_SCD_0767	164	3	Belliard	NULL	np	I_A	I_GN	MOD	2	idtext0232	Belliard	#####	spk2	319.04	319.54	0.08	/
20091112_RATP_SCD_0767	164	4	soixante-quinze+mille+huit+cent+quatre-vingt-neuf	NULL	nc	B_CP	B_GN	ROOT	0	idtext0233	soixante-quinze+mille+huit+cent+quatre-vingt-neuf	#####	spk2	319.62	320.89	0.01	_
20091112_RATP_SCD_0767	164	5	Paris	NULL	np	B_A	I_GN	MOD	4	idtext0233	Paris	##m#s##	spk2	320.9	321.09	0.01	_
20091112_RATP_SCD_0767	164	6	cedex	NULL	nc	I_A	I_GN	MOD	5	idtext0233	cedex	##m###	spk2	321.1	321.51	0.01	_
20091112_RATP_SCD_0767	164	7	dix-huit	NULL	adj	I_A	I_GN	MOD	6	idtext0233	dix-huit	#####	spk2	321.52	321.99	?	//

20091112_RATP_SCD_0767	165	1	d'accord	NULL	adv	NULL	B_GADV	NOLINK	0	idtext0234	d'accord	#####	spk3	322.06	322.44	0.01	_
20091112_RATP_SCD_0767	165	2	super	NULL	pres	NULL	B_NULL	NOLINK	0	idtext0234	super	#####	spk3	322.45	322.76	?	//

20091112_RATP_SCD_0767	166	1	je	NULL	cln	NULL	B_GN	SUJ	4	idtext0235	cln	#1##s##	spk2	323.19	323.22	0.01	_
20091112_RATP_SCD_0767	166	2	vous	NULL	clo	NULL	B_GN	OBJ	4	idtext0235	cln	#2##p##	spk2	323.23	323.33	0.01	_
20091112_RATP_SCD_0767	166	3	en	NULL	clo	NULL	B_GN	DE_OBJ	4	idtext0235	en	#####	spk2	323.34	323.41	0.01	_
20091112_RATP_SCD_0767	166	4	prie	NULL	v	NULL	B_GVf	ROOT	0	idtext0235	prier	PS#13##s##	spk2	323.42	323.64	?	//

20091112_RATP_SCD_0767	167	1	je	NULL	cln	NULL	B_GN	SUJ	3	idtext0236	cln	#1##s##	spk3	324.0	324.08	0.01	_
20091112_RATP_SCD_0767	167	2	vous	NULL	clo	NULL	B_GN	OBJ	3	idtext0236	cln	#2##p##	spk3	324.09	324.18	0.01	_
20091112_RATP_SCD_0767	167	3	remercie	NULL	v	NULL	B_GVf	ROOT	0	idtext0236	remercier	PS#13##s##	spk3	324.19	324.43	0.01	_
20091112_RATP_SCD_0767	167	4	encore	NULL	adv	NULL	B_GADV	MOD	3	idtext0236	encore	#####	spk3	324.44	325.29	?	_

20091112_RATP_SCD_0767	168	1	bonne	NULL	adj	NULL	B_GN	MOD	2	idtext0237	bon	##f#s##	spk2	324.01	324.33	0.01	_
20091112_RATP_SCD_0767	168	2	journée	NULL	nc	NULL	I_GN	ROOT	0	idtext0237	journée	##f#s##	spk2	324.34	324.81	0.01	_
20091112_RATP_SCD_0767	168	3	monsieur	NULL	nc	NULL	B_GN	NOLINK	0	idtext0237	Monsieur	##m#s##	spk2	324.82	325.02	0.01	_
20091112_RATP_SCD_0767	168	4	au+revoir	NULL	adv	NULL	B_GADV	NOLINK	0	idtext0237	au+revoir	#####	spk2	325.03	325.29	?	//

20091112_RATP_SCD_0767	169	1	pareillement	NULL	adv	NULL	B_GADV	MOD	2	idtext0238	pareillement	#####	spk3	325.42	325.87	0.01	_
20091112_RATP_SCD_0767	169	2	au+revoir	NULL	adv	NULL	I_GADV	ROOT	0	idtext0238	au+revoir	#####	spk3	325.88	326.15	?	_

20091112_RATP_SCD_0767	170	1	au+revoir	NULL	adv	NULL	B_GADV	NOLINK	0	idtext0239	au+revoir	#####	spk2	326.19	326.55	?	//

