20091112_RATP_SCD_0356	1	1	NNAAMMEE	NULL	np	B_HU	B_GN	ROOT	0	idtext0000	ANONYM	NULL	spk1	4.47	5.06	0.01	_
20091112_RATP_SCD_0356	1	2	bonjour	NULL	adv	NULL	B_GADV	NOLINK	0	idtext0001	bonjour	#####	spk1	5.07	5.33	?	//

20091112_RATP_SCD_0356	2	1	bonjour	NULL	adv	NULL	B_GADV	NOLINK	0	idtext0002	bonjour	#####	spk2	5.44	5.79	0.01	/
20091112_RATP_SCD_0356	2	2	c'	NULL	cln	NULL	B_GN	SUJ_IMP	3	idtext0002	ce	###s##	spk2	5.8	5.84	0.01	_
20091112_RATP_SCD_0356	2	3	était	NULL	v	NULL	B_GVf	ROOT	0	idtext0002	être	I#3##s##	spk2	5.85	5.93	0.01	_
20091112_RATP_SCD_0356	2	4	pour	NULL	prep	NULL	B_GP	MOD	3	idtext0002	pour	#####	spk2	5.94	6.07	0.01	_
20091112_RATP_SCD_0356	2	5	savoir	NULL	vinf	NULL	I_GP	OBJ	4	idtext0002	savoir	W#####	spk2	6.08	6.55	0.01	_
20091112_RATP_SCD_0356	2	6	le	NULL	det	NULL	B_GN	DET	7	idtext0002	le	##m#s##d	spk2	6.56	6.9	0.01	_
20091112_RATP_SCD_0356	2	7	prix	NULL	nc	NULL	I_GN	OBJ	5	idtext0002	prix	##m###	spk2	6.91	7.22	0.01	_
20091112_RATP_SCD_0356	2	8	d'	NULL	prep	NULL	B_GP	DEP	7	idtext0002	d'	#####	spk2	7.23	7.29	0.01	_
20091112_RATP_SCD_0356	2	9	un	NULL	det	NULL	I_GP	DET	10	idtext0002	un	##m#s##i	spk2	7.3	7.41	0.01	_
20091112_RATP_SCD_0356	2	10	billet	NULL	nc	NULL	I_GP	OBJ	8	idtext0002	billet	##m#s##	spk2	7.42	7.61	0.01	_
20091112_RATP_SCD_0356	2	11	de	NULL	prep	NULL	B_GP	DEP	10	idtext0002	de	#####	spk2	7.62	7.68	0.01	_
20091112_RATP_SCD_0356	2	12	train	NULL	nc	NULL	I_GP	OBJ	11	idtext0002	train	##m#s##	spk2	7.69	7.92	0.01	_
20091112_RATP_SCD_0356	2	13	pour	NULL	prep	NULL	B_GP	MOD	12	idtext0002	pour	#####	spk2	7.93	8.27	0.01	_
20091112_RATP_SCD_0356	2	14	euh	DISF_M	pres	NULL	NULL	NOLINK	0	idtext0002	euh	#####	spk2	8.28	8.56	0.01	_
20091112_RATP_SCD_0356	2	15	Paris	NULL	nc	B_A	I_GP	DEP	7	idtext0002	Paris	##m#s##	spk2	8.57	8.78	0.01	_
20091112_RATP_SCD_0356	2	16	Montereau	NULL	nc	B_A	I_GP	DEP	7	idtext0002	Montereau	##m#s##	spk2	8.79	9.21	0.01	_
20091112_RATP_SCD_0356	2	17	s'il+vous+plaît	NULL	adv	NULL	B_GADV	MOD	5	idtext0002	s'il+vous+plaît	#####	spk2	9.22	10.55	?	//

20091112_RATP_SCD_0356	3	1	Paris	NULL	nc	B_A	B_GN	ROOT	0	idtext0003	Paris	##m#s##	spk1	10.59	10.87	0.01	_
20091112_RATP_SCD_0356	3	2	Montereau	NULL	nc	B_A	I_GN	MOD	1	idtext0003	Montereau	##m#s##	spk1	10.88	11.47	0.01	_
20091112_RATP_SCD_0356	3	3	un	NULL	det	NULL	B_GN	DET	4	idtext0003	un	##m#s##i	spk1	11.48	11.64	0.01	_
20091112_RATP_SCD_0356	3	4	instant	NULL	nc	NULL	I_GN	ROOT	0	idtext0003	instant	##m#s##	spk1	11.65	11.95	0.01	_
20091112_RATP_SCD_0356	3	5	s'il+vous+plaît	NULL	adv	NULL	B_GADV	NOLINK	0	idtext0003	s'il+vous+plaît	#####	spk1	11.96	13.44	?	//

20091112_RATP_SCD_0356	4	1	oui	NULL	adv	NULL	B_GADV	NOLINK	0	idtext0004	oui	#####	spk2	10.92	13.44	?	//

20091112_RATP_SCD_0356	5	1	s'il+vous+plaît	NULL	adv	NULL	B_GADV	NOLINK	0	idtext0005	s'il+vous+plaît	#####	spk1	25.38	25.86	0.01	_
20091112_RATP_SCD_0356	5	2	huit	NULL	det	B_P	B_GN	DET	3	idtext0005	huit	#####	spk1	25.87	26.01	0.01	_
20091112_RATP_SCD_0356	5	3	euros	NULL	nc	I_P	I_GN	NOLINK	0	idtext0005	euro	##m#p##	spk1	26.02	26.68	0.01	_
20091112_RATP_SCD_0356	5	4	cinquante	NULL	adj	I_P	I_GN	MOD	3	idtext0005	cinquante	#####	spk1	26.69	27.1	?	//

20091112_RATP_SCD_0356	6	1	huit	NULL	det	B_P	B_GN	DET	2	idtext0006	huit	#####	spk2	27.21	27.37	0.01	_
20091112_RATP_SCD_0356	6	2	euros	NULL	nc	I_P	I_GN	NOLINK	0	idtext0006	euro	##m#p##	spk2	27.38	27.59	0.01	_
20091112_RATP_SCD_0356	6	3	cinquante	NULL	adj	I_P	I_GN	MOD	2	idtext0006	cinquante	#####	spk2	27.6	28.47	0.01	_
20091112_RATP_SCD_0356	6	4	d'accord	NULL	adv	NULL	B_GADV	NOLINK	0	idtext0007	d'accord	#####	spk2	28.48	28.88	0.01	_
20091112_RATP_SCD_0356	6	5	et	NULL	coo	NULL	B_NULL	ROOT	0	idtext0007	et	#####	spk2	28.89	29.1	0.01	_
20091112_RATP_SCD_0356	6	6	je	NULL	cln	NULL	B_GN	SUJ	7	idtext0007	cln	#1##s##	spk2	29.11	29.18	0.01	_
20091112_RATP_SCD_0356	6	7	voudrais	NULL	v	NULL	B_GVf	DEP_COORD	5	idtext0007	vouloir	C#12##s##	spk2	29.19	29.33	0.01	_
20091112_RATP_SCD_0356	6	8	savoir	NULL	vinf	NULL	I_GVf	OBJ	7	idtext0007	savoir	W#####	spk2	29.34	29.61	0.01	_
20091112_RATP_SCD_0356	6	9	s'	NULL	csu	NULL	B_NULL	OBJ	8	idtext0007	se	#3##p##	spk2	29.62	29.64	0.01	_
20091112_RATP_SCD_0356	6	10	il	NULL	cln	NULL	B_GN	SUJ_IMP	12	idtext0007	cln	#3#m#s##	spk2	29.65	29.7	0.01	_
20091112_RATP_SCD_0356	6	11	y	NULL	clo	NULL	B_GN	AFF	12	idtext0007	y	#####	spk2	29.71	29.73	0.01	_
20091112_RATP_SCD_0356	6	12	a	NULL	v	NULL	B_GVf	OBJ	9	idtext0007	avoir	P#3##s##	spk2	29.74	29.76	0.01	_
20091112_RATP_SCD_0356	6	13	des	NULL	det	NULL	B_GN	DET	14	idtext0007	des	###p##i	spk2	29.77	29.89	0.01	_
20091112_RATP_SCD_0356	6	14	changements	NULL	nc	NULL	I_GN	OBJ	12	idtext0007	changement	##m#p##	spk2	29.9	30.48	0.01	_
20091112_RATP_SCD_0356	6	15	à	NULL	prep	NULL	B_GP	DEP	14	idtext0007	à	#####	spk2	30.49	30.51	0.01	_
20091112_RATP_SCD_0356	6	16	faire	NULL	vinf	NULL	I_GP	OBJ	15	idtext0007	faire	W#####	spk2	30.52	31.82	?	_

20091112_RATP_SCD_0356	7	1	ah+bah	DISF_M	pres	NULL	NULL	NOLINK	0	idtext0008	ah+bah	#####	spk1	32.06	32.22	0.01	_
20091112_RATP_SCD_0356	7	2	c'	NULL	cln	NULL	B_GN	SUJ_IMP	3	idtext0008	ce	###s##	spk1	32.23	32.31	0.01	_
20091112_RATP_SCD_0356	7	3	est	NULL	v	NULL	B_GVf	ROOT	0	idtext0008	être	P#3##s##	spk1	32.32	32.38	0.01	_
20091112_RATP_SCD_0356	7	4	Gare+de+Lyon	NULL	nc	B_A	B_GN	ATS	3	idtext0008	Gare+de+Lyon	#####	spk1	32.39	33.19	0.01	_
20091112_RATP_SCD_0356	7	5	le	NULL	det	NULL	B_GN	DET	6	idtext0008	le	##m#s##d	spk1	33.2	33.31	0.01	_
20091112_RATP_SCD_0356	7	6	train	NULL	nc	NULL	I_GN	SUJ	3	idtext0008	train	##m#s##	spk1	33.32	33.62	0.01	_
20091112_RATP_SCD_0356	7	7	Gare+de+Lyon	NULL	nc	B_A	I_GN	MOD	6	idtext0008	Gare+de+Lyon	#####	spk1	33.63	34.39	?	//

20091112_RATP_SCD_0356	8	1	Gare+de+Lyon	NULL	nc	B_A	B_GN	ROOT	0	idtext0009	Gare+de+Lyon	#####	spk2	34.66	35.16	0.01	//
20091112_RATP_SCD_0356	8	2	et	NULL	coo	NULL	B_NULL	COORD	1	idtext0009	et	#####	spk2	35.17	35.22	0.01	_
20091112_RATP_SCD_0356	8	3	après	NULL	adv	NULL	B_GADV	NOLINK	0	idtext0009	après	#####	spk2	35.23	35.41	0.01	_
20091112_RATP_SCD_0356	8	4	c'	NULL	cln	NULL	B_GN	SUJ_IMP	5	idtext0009	ce	###s##	spk2	35.42	35.53	0.01	_
20091112_RATP_SCD_0356	8	5	est	NULL	v	NULL	B_GVf	DEP_COORD	2	idtext0009	être	P#3##s##	spk2	35.54	35.59	0.01	_
20091112_RATP_SCD_0356	8	6	direct	NULL	adj	NULL	B_GADJ	ATS	5	idtext0009	direct	##m#s##	spk2	35.6	35.97	?	//

20091112_RATP_SCD_0356	9	1	tout+à+fait	NULL	adv	NULL	B_GADV	NOLINK	0	idtext0010	tout+à+fait	#####	spk1	36.01	36.47	0.01	_
20091112_RATP_SCD_0356	9	2	Laroche	NULL	nc	B_A	B_GN	ROOT	0	idtext0010	Laroche	#####	spk1	36.48	36.9	0.01	_
20091112_RATP_SCD_0356	9	3	direction	NULL	nc	NULL	I_GN	MOD	2	idtext0010	direction	##f#s##	spk1	36.91	37.39	0.01	_
20091112_RATP_SCD_0356	9	4	Laroche-Migennes	NULL	nc	B_A	B_GN	NOLINK	0	idtext0010	Laroche-Migennes	#####	spk1	37.4	38.75	?	//

20091112_RATP_SCD_0356	10	1	hm	DISF_M	pres	NULL	NULL	NOLINK	0	idtext0011	hm	#####	spk2	38.8	39.03	0.01	_
20091112_RATP_SCD_0356	10	2	d'accord	NULL	adv	NULL	B_GADV	NOLINK	0	idtext0011	d'accord	#####	spk2	39.04	39.59	0.01	_
20091112_RATP_SCD_0356	10	3	bah	DISF_M	pres	NULL	NULL	NOLINK	0	idtext0011	bah	#####	spk2	39.6	39.72	0.01	_
20091112_RATP_SCD_0356	10	4	je	NULL	cln	NULL	B_GN	SUJ	6	idtext0011	cln	#1##s##	spk2	39.73	39.79	0.01	_
20091112_RATP_SCD_0356	10	5	vous	NULL	clo	NULL	B_GN	OBJ	6	idtext0011	cln	#2##p##	spk2	39.8	39.87	0.01	_
20091112_RATP_SCD_0356	10	6	remercie	NULL	v	NULL	B_GVf	ROOT	0	idtext0011	remercier	PS#13##s##	spk2	39.88	40.17	?	//

20091112_RATP_SCD_0356	11	1	mais	NULL	coo	NULL	B_NULL	ROOT	0	idtext0012	mais	#####	spk1	40.21	40.28	0.01	_
20091112_RATP_SCD_0356	11	2	je	NULL	cln	NULL	B_GN	SUJ	5	idtext0012	cln	#1##s##	spk1	40.29	40.31	0.01	_
20091112_RATP_SCD_0356	11	3	vous	NULL	clo	NULL	B_GN	OBJ	5	idtext0012	cln	#2##p##	spk1	40.32	40.43	0.01	_
20091112_RATP_SCD_0356	11	4	en	NULL	clo	NULL	B_GN	DE_OBJ	5	idtext0012	en	#####	spk1	40.44	40.5	0.01	_
20091112_RATP_SCD_0356	11	5	prie	NULL	v	NULL	B_GVf	DEP_COORD	1	idtext0012	prier	PS#13##s##	spk1	40.51	40.64	0.01	_
20091112_RATP_SCD_0356	11	6	monsieur	NULL	nc	NULL	B_GN	NOLINK	0	idtext0012	Monsieur	##m#s##	spk1	40.65	41.06	?	//

20091112_RATP_SCD_0356	12	1	bonne	NULL	adj	NULL	B_GN	MOD	2	idtext0013	bon	##f#s##	spk1	41.1	41.21	0.01	_
20091112_RATP_SCD_0356	12	2	journée	NULL	nc	NULL	I_GN	ROOT	0	idtext0013	journée	##f#s##	spk1	41.22	41.52	0.01	_
20091112_RATP_SCD_0356	12	3	au+revoir	NULL	adv	NULL	B_GADV	NOLINK	0	idtext0013	au+revoir	#####	spk1	41.53	60.34	?	//

20091112_RATP_SCD_0356	13	1	au+revoir	NULL	adv	NULL	B_GADV	NOLINK	0	idtext0014	au+revoir	#####	spk2	41.14	60.34	?	//

