20091112_RATP_SCD_1277	1	1	NNAAMMEE	NULL	np	B_HU	B_GN	ROOT	0	idtext0000	ANONYM	NULL	spk1	7.79	8.03	0.04	_
20091112_RATP_SCD_1277	1	2	bonjour	NULL	adv	NULL	B_GADV	NOLINK	0	idtext0001	bonjour	#####	spk1	8.07	8.86	?	//

20091112_RATP_SCD_1277	2	1	oui	NULL	adv	NULL	B_GADV	MOD	2	idtext0002	oui	#####	spk2	9.24	9.51	0.01	_
20091112_RATP_SCD_1277	2	2	bonjour	NULL	adv	NULL	I_GADV	ROOT	0	idtext0002	bonjour	#####	spk2	9.52	9.81	0.01	_
20091112_RATP_SCD_1277	2	3	madame	NULL	nc	NULL	B_GN	NOLINK	0	idtext0002	Monsieur	##f#s##	spk2	9.82	10.11	0.01	_
20091112_RATP_SCD_1277	2	4	excusez	NULL	v	NULL	B_GVf	ROOT	0	idtext0002	excuser	P#2##p##	spk2	10.12	10.51	0.01	_
20091112_RATP_SCD_1277	2	5	-moi	NULL	clo	NULL	B_GN	OBJ	4	idtext0002	cla	#1##s##	spk2	10.52	10.63	0.01	_
20091112_RATP_SCD_1277	2	6	de	NULL	prep	NULL	B_GP	DE_OBJ	4	idtext0002	de	#####	spk2	10.64	10.69	0.01	_
20091112_RATP_SCD_1277	2	7	vous	NULL	clo	NULL	I_GP	OBJ	8	idtext0002	cln	#2##p##	spk2	10.7	10.78	0.01	_
20091112_RATP_SCD_1277	2	8	déranger	NULL	vinf	NULL	B_GVi	OBJ	6	idtext0002	déranger	W#####	spk2	10.79	11.17	0.04	//
20091112_RATP_SCD_1277	2	9	j'	NULL	cln	NULL	B_GN	SUJ	11	idtext0003	cln	#1##s##	spk2	11.21	11.23	0.01	_
20091112_RATP_SCD_1277	2	10	aurais	NULL	v	NULL	B_GVf	AUX	11	idtext0003	avoir	C#12##s##	spk2	11.24	11.38	0.01	_
20091112_RATP_SCD_1277	2	11	voulu	NULL	vppart	NULL	I_GVf	ROOT	0	idtext0003	vouloir	K##m#s##	spk2	11.39	11.58	0.01	_
20091112_RATP_SCD_1277	2	12	avoir	NULL	vinf	NULL	B_GVi	OBJ	11	idtext0003	avoir	W#####	spk2	11.59	11.79	0.01	_
20091112_RATP_SCD_1277	2	13	un	NULL	det	NULL	B_GN	DET	15	idtext0003	un	##m#s##i	spk2	11.8	11.89	0.01	_
20091112_RATP_SCD_1277	2	14	petit	NULL	adj	NULL	I_GN	MOD	15	idtext0003	petit	##m#s##	spk2	11.9	11.99	0.01	_
20091112_RATP_SCD_1277	2	15	renseignement	NULL	nc	NULL	I_GN	OBJ	12	idtext0003	renseignement	##m#s##	spk2	12.0	12.73	?	//

20091112_RATP_SCD_1277	3	1	oui	NULL	adv	NULL	B_GADV	NOLINK	0	idtext0004	oui	#####	spk1	12.92	13.17	?	//

20091112_RATP_SCD_1277	4	1	euh	DISF_M	pres	NULL	NULL	NOLINK	0	idtext0005	euh	#####	spk2	13.39	13.57	0.01	_
20091112_RATP_SCD_1277	4	2	actuellement	NULL	adv	NULL	B_GADV	NOLINK	0	idtext0005	actuellement	#####	spk2	13.58	14.17	0.01	_
20091112_RATP_SCD_1277	4	3	sur	NULL	prep	NULL	B_GP	P_OBJ	13	idtext0005	sur	#####	spk2	14.18	14.31	0.01	_
20091112_RATP_SCD_1277	4	4	la	NULL	det	NULL	I_GP	DET	5	idtext0005	le	##m#s##d	spk2	14.32	14.42	0.01	_
20091112_RATP_SCD_1277	4	5	ligne	NULL	nc	B_T	I_GP	OBJ	3	idtext0005	ligne	##f#s##	spk2	14.43	14.74	0.01	_
20091112_RATP_SCD_1277	4	6	B	NULL	adj	I_T	I_GP	MOD	5	idtext0005	B	#####	spk2	14.75	14.94	0.01	_
20091112_RATP_SCD_1277	4	7	je	NULL	cln	NULL	B_GN	SUJ	8	idtext0005	cln	#1##s##	spk2	14.95	15.0	0.01	_
20091112_RATP_SCD_1277	4	8	voulais	NULL	v	NULL	B_GVf	ROOT	0	idtext0005	vouloir	I#12##s##	spk2	15.01	15.18	0.01	_
20091112_RATP_SCD_1277	4	9	savoir	NULL	vinf	NULL	I_GVf	OBJ	8	idtext0005	savoir	W#####	spk2	15.19	15.48	0.01	_
20091112_RATP_SCD_1277	4	10	s'	NULL	csu	NULL	B_NULL	OBJ	9	idtext0005	se	#3##p##	spk2	15.49	15.53	0.01	_
20091112_RATP_SCD_1277	4	11	il	NULL	cln	NULL	B_GN	SUJ_IMP	13	idtext0005	cln	#3#m#s##	spk2	15.54	15.59	0.01	_
20091112_RATP_SCD_1277	4	12	y	NULL	clo	NULL	B_GN	AFF	13	idtext0005	y	#####	spk2	15.6	15.63	0.01	_
20091112_RATP_SCD_1277	4	13	avait	NULL	v	NULL	B_GVf	OBJ	10	idtext0005	avoir	I#3##s##	spk2	15.64	15.79	0.01	_
20091112_RATP_SCD_1277	4	14	des	NULL	det	NULL	B_GN	DET	15	idtext0005	des	###p##i	spk2	15.8	15.88	0.01	_
20091112_RATP_SCD_1277	4	15	RER	NULL	nc	B_T	I_GN	OBJ	13	idtext0005	RER	#####	spk2	15.89	17.39	?	_

20091112_RATP_SCD_1277	5	1	alors	NULL	adv	NULL	B_GADV	MOD	2	idtext0006	alors	#####	spk1	17.44	17.72	0.01	_
20091112_RATP_SCD_1277	5	2	là	NULL	adv	NULL	I_GADV	ROOT	0	idtext0006	là	#####	spk1	17.73	17.97	0.01	_
20091112_RATP_SCD_1277	5	3	il	NULL	cln	NULL	B_GN	SUJ_IMP	5	idtext0006	cln	#3#m#s##	spk1	17.98	18.03	0.01	_
20091112_RATP_SCD_1277	5	4	y	NULL	clo	NULL	B_GN	AFF	5	idtext0006	y	#####	spk1	18.04	18.06	0.01	_
20091112_RATP_SCD_1277	5	5	a	NULL	v	NULL	B_GVf	ROOT	0	idtext0006	avoir	P#3##s##	spk1	18.07	18.11	0.01	_
20091112_RATP_SCD_1277	5	6	des	NULL	det	NULL	B_GN	DET	7	idtext0006	des	###p##i	spk1	18.12	18.36	0.01	_
20091112_RATP_SCD_1277	5	7	RER	NULL	nc	B_T	I_GN	OBJ	5	idtext0006	RER	#####	spk1	18.37	18.52	0.01	_
20091112_RATP_SCD_1277	5	8	il	NULL	cln	NULL	B_GN	SUJ_IMP	10	idtext0006	cln	#3#m#s##	spk1	18.53	18.61	0.01	_
20091112_RATP_SCD_1277	5	9	y	NULL	clo	NULL	B_GN	AFF	10	idtext0006	y	#####	spk1	18.62	18.67	0.01	_
20091112_RATP_SCD_1277	5	10	a	NULL	v	NULL	B_GVfn	ROOT	0	idtext0006	avoir	P#3##s##	spk1	18.68	18.71	0.01	_
20091112_RATP_SCD_1277	5	11	pas	NULL	advneg	NULL	I_GVfn	MOD	10	idtext0006	pas	#####	spk1	18.72	18.9	0.01	_
20091112_RATP_SCD_1277	5	12	beaucoup+de	NULL	det	NULL	B_GN	DET	13	idtext0006	beaucoup+de	#####	spk1	18.91	19.29	0.01	_
20091112_RATP_SCD_1277	5	13	RER	NULL	nc	B_T	I_GN	OBJ	10	idtext0006	RER	#####	spk1	19.3	19.67	0.01	_
20091112_RATP_SCD_1277	5	14	hein	DISF_M	pres	I_T	NULL	NOLINK	0	idtext0006	hein	#####	spk1	19.68	19.77	0.01	_
20091112_RATP_SCD_1277	5	15	il	NULL	cln	NULL	B_GN	SUJ_IMP	17	idtext0006	cln	#3#m#s##	spk1	19.78	19.83	0.01	_
20091112_RATP_SCD_1277	5	16	y	NULL	clo	NULL	B_GN	AFF	17	idtext0006	y	#####	spk1	19.84	19.88	0.01	_
20091112_RATP_SCD_1277	5	17	a	NULL	v	NULL	B_GVf	MOD	13	idtext0006	avoir	P#3##s##	spk1	19.89	19.92	0.01	_
20091112_RATP_SCD_1277	5	18	beaucoup+de	NULL	det	NULL	B_GN	DET	19	idtext0006	beaucoup+de	#####	spk1	19.93	20.18	0.01	_
20091112_RATP_SCD_1277	5	19	retard	NULL	nc	NULL	I_GN	OBJ	17	idtext0006	retard	##m#s##	spk1	20.19	20.65	?	//

20091112_RATP_SCD_1277	6	1	il	NULL	cln	NULL	B_GN	SUJ_IMP	3	idtext0007	cln	#3#m#s##	spk2	21.37	21.42	0.01	_
20091112_RATP_SCD_1277	6	2	y	NULL	clo	NULL	B_GN	AFF	3	idtext0007	y	#####	spk2	21.43	21.45	0.01	_
20091112_RATP_SCD_1277	6	3	a	NULL	v	NULL	B_GVf	ROOT	0	idtext0007	avoir	P#3##s##	spk2	21.46	21.48	0.01	_
20091112_RATP_SCD_1277	6	4	beaucoup+de	NULL	det	NULL	B_GN	DET	5	idtext0007	beaucoup+de	#####	spk2	21.49	21.74	0.01	_
20091112_RATP_SCD_1277	6	5	retard	NULL	nc	NULL	I_GN	OBJ	3	idtext0007	retard	##m#s##	spk2	21.75	22.16	?	//

20091112_RATP_SCD_1277	7	1	oui	NULL	adv	NULL	B_GADV	NOLINK	0	idtext0008	oui	#####	spk1	22.21	22.39	?	//

20091112_RATP_SCD_1277	8	1	comme	NULL	adv	NULL	B_GADV	NOLINK	0	idtext0009	comme	#####	spk1	23.11	23.26	0.01	_
20091112_RATP_SCD_1277	8	2	cette	NULL	det	NULL	B_GN	DET	3	idtext0009	cet	##f#s##e	spk1	23.27	23.43	0.01	_
20091112_RATP_SCD_1277	8	3	semaine	NULL	nc	NULL	I_GN	ROOT	0	idtext0009	semaine	##f#s##	spk1	23.44	23.78	?	//

20091112_RATP_SCD_1277	9	1	d'accord	NULL	adv	NULL	B_GADV	NOLINK	0	idtext0010	d'accord	#####	spk2	24.69	25.81	0.73	//
20091112_RATP_SCD_1277	9	2	euh	DISF_M	pres	NULL	NULL	NOLINK	0	idtext0011	euh	#####	spk2	26.54	26.81	0.01	_
20091112_RATP_SCD_1277	9	3	mais	NULL	coo	NULL	B_NULL	ROOT	0	idtext0011	mais	#####	spk2	26.82	26.94	0.01	_
20091112_RATP_SCD_1277	9	4	il	NULL	cln	NULL	B_GN	SUJ_IMP	7	idtext0011	cln	#3#m#s##	spk2	26.95	27.0	0.01	_
20091112_RATP_SCD_1277	9	5	y	NULL	clo	NULL	B_GN	AFF	7	idtext0011	y	#####	spk2	27.01	27.04	0.01	_
20091112_RATP_SCD_1277	9	6	en	NULL	clo	NULL	B_GN	OBJ	7	idtext0011	en	#####	spk2	27.05	27.13	0.01	_
20091112_RATP_SCD_1277	9	7	a	NULL	v	NULL	B_GVf	DEP_COORD	3	idtext0011	avoir	P#3##s##	spk2	27.14	27.22	0.01	_
20091112_RATP_SCD_1277	9	8	quand+même	NULL	adv	NULL	B_GADV	MOD	7	idtext0011	quand+même	#####	spk2	27.23	28.28	?	_

20091112_RATP_SCD_1277	10	1	il	NULL	cln	NULL	B_GN	SUJ_IMP	4	idtext0012	cln	#3#m#s##	spk1	28.32	28.46	0.01	_
20091112_RATP_SCD_1277	10	2	y	NULL	clo	NULL	B_GN	AFF	4	idtext0012	y	#####	spk1	28.47	28.51	0.01	_
20091112_RATP_SCD_1277	10	3	en	NULL	clo	NULL	B_GN	OBJ	4	idtext0012	en	#####	spk1	28.52	28.83	0.01	_
20091112_RATP_SCD_1277	10	4	a	NULL	v	NULL	B_GVf	NOLINK	0	idtext0012	avoir	P#3##s##	spk1	28.84	28.92	0.01	_
20091112_RATP_SCD_1277	10	5	alors	NULL	adv	NULL	B_GADV	NOLINK	0	idtext0012	alors	#####	spk1	28.93	29.13	0.01	_
20091112_RATP_SCD_1277	10	6	ne	NULL	clneg	NULL	B_GVfn	MOD	7	idtext0012	ne	#####	spk1	29.14	29.21	0.01	_
20091112_RATP_SCD_1277	10	7	quittez	NULL	v	NULL	I_GVfn	ROOT	0	idtext0012	quitter	P#2##p##	spk1	29.22	29.5	0.01	_
20091112_RATP_SCD_1277	10	8	pas	NULL	advneg	NULL	I_GVfn	MOD	7	idtext0012	pas	#####	spk1	29.51	29.66	0.01	_
20091112_RATP_SCD_1277	10	9	je	NULL	cln	NULL	B_GN	SUJ	10	idtext0012	cln	#1##s##	spk1	29.67	29.76	0.01	_
20091112_RATP_SCD_1277	10	10	vais	NULL	v	NULL	B_GVf	ROOT	0	idtext0012	aller	P#1##s##	spk1	29.77	29.82	0.01	_
20091112_RATP_SCD_1277	10	11	regarder	NULL	vinf	NULL	I_GVf	OBJ	10	idtext0012	regarder	W#####	spk1	29.83	30.26	0.01	_
20091112_RATP_SCD_1277	10	12	vraiment	NULL	adv	NULL	B_GADV	MOD	7	idtext0012	vraiment	#####	spk1	30.27	30.58	0.01	_
20091112_RATP_SCD_1277	10	13	hein	DISF_M	pres	NULL	NULL	NOLINK	0	idtext0012	hein	#####	spk1	30.59	30.72	?	//

20091112_RATP_SCD_1277	11	1	hm	DISF_M	pres	NULL	NULL	NOLINK	0	idtext0013	hm	#####	spk2	31.49	31.64	?	//

20091112_RATP_SCD_1277	12	1	s'il+vous+plaît	NULL	adv	NULL	B_GADV	NOLINK	0	idtext0014	s'il+vous+plaît	#####	spk1	57.16	58.04	0.01	_
20091112_RATP_SCD_1277	12	2	vous	NULL	cln	NULL	B_GN	SUJ	3	idtext0014	cln	#2##p##	spk1	58.05	58.1	0.01	_
20091112_RATP_SCD_1277	12	3	allez	NULL	v	NULL	B_GVf	ROOT	0	idtext0014	aller	P#2##p##	spk1	58.11	58.25	0.01	_
20091112_RATP_SCD_1277	12	4	dans	NULL	prep	NULL	B_GP	P_OBJ	3	idtext0014	dans	#####	spk1	58.26	58.31	0.01	_
20091112_RATP_SCD_1277	12	5	quelle	NULL	det	NULL	I_GP	DET	6	idtext0014	quel	##f#s##	spk1	58.32	58.46	0.01	_
20091112_RATP_SCD_1277	12	6	direction	NULL	nc	NULL	I_GP	OBJ	4	idtext0014	direction	##f#s##	spk1	58.47	59.11	?	//

20091112_RATP_SCD_1277	13	1	euh	DISF_M	pres	NULL	NULL	NOLINK	0	idtext0015	euh	#####	spk2	59.17	59.2	0.01	_
20091112_RATP_SCD_1277	13	2	c'	NULL	cln	NULL	B_GN	SUJ_IMP	3	idtext0015	ce	###s##	spk2	59.21	59.3	0.01	_
20091112_RATP_SCD_1277	13	3	est	NULL	v	NULL	B_GVf	ROOT	0	idtext0015	être	P#3##s##	spk2	59.31	60.01	0.01	_
20091112_RATP_SCD_1277	13	4	ma	NULL	det	NULL	B_GN	DET	5	idtext0015	mon	##f#s##o	spk2	60.02	60.17	0.01	_
20091112_RATP_SCD_1277	13	5	fille	NULL	nc	NULL	I_GN	ATS	3	idtext0015	fille	##f#s##	spk2	60.18	60.47	0.01	_
20091112_RATP_SCD_1277	13	6	qui	NULL	prorel	NULL	B_NULL	SUJ	7	idtext0015	qui	#####	spk2	60.48	60.62	0.01	_
20091112_RATP_SCD_1277	13	7	vient	NULL	v	NULL	B_GVf	MOD_REL	5	idtext0015	venir	P#3##s##	spk2	60.63	60.75	0.01	_
20091112_RATP_SCD_1277	13	8	de	NULL	prep	NULL	B_GP	P_OBJ_LOC	7	idtext0015	de	#####	spk2	60.76	60.78	0.01	_
20091112_RATP_SCD_1277	13	9	la	NULL	det	NULL	I_GP	DET	10	idtext0015	le	##m#s##d	spk2	60.79	60.86	0.01	_
20091112_RATP_SCD_1277	13	10	clinique+Monceau	NULL	nc	NULL	I_GP	OBJ	8	idtext0015	clinique+Monceau	#####	spk2	60.87	61.68	0.01	_
20091112_RATP_SCD_1277	13	11	alors	NULL	adv	NULL	B_GADV	NOLINK	0	idtext0015	alors	#####	spk2	61.69	62.22	0.01	_
20091112_RATP_SCD_1277	13	12	euh	DISF_M	pres	NULL	NULL	NOLINK	0	idtext0015	euh	#####	spk2	62.23	62.35	0.01	_
20091112_RATP_SCD_1277	13	13	la	NULL	det	NULL	B_GN	DET	14	idtext0015	le	##m#s##d	spk2	62.36	62.5	0.01	_
20091112_RATP_SCD_1277	13	14	station	NULL	nc	NULL	I_GN	OBJ	19	idtext0015	station	##f#s##	spk2	62.51	62.92	0.01	_
20091112_RATP_SCD_1277	13	15	je	NULL	cln	NULL	B_GN	SUJ	19	idtext0015	cln	#1##s##	spk2	62.93	63.05	0.01	_
20091112_RATP_SCD_1277	13	16	ne	NULL	clneg	NULL	B_NULL	MOD	19	idtext0015	ne	#####	spk2	63.06	63.12	0.01	_
20091112_RATP_SCD_1277	13	17	m'	NULL	clr	NULL	B_GNr	AFF	19	idtext0015	cla	#1##s##	spk2	63.13	63.18	0.01	_
20091112_RATP_SCD_1277	13	18	en	NULL	clo	NULL	B_GN	DE_OBJ	19	idtext0015	en	#####	spk2	63.19	63.25	0.01	_
20091112_RATP_SCD_1277	13	19	rappelle	NULL	v	NULL	B_GVfn	ROOT	0	idtext0015	rappeler	PS#13##s##	spk2	63.26	63.54	0.01	_
20091112_RATP_SCD_1277	13	20	plus	NULL	advneg	NULL	I_GVfn	MOD	19	idtext0015	plus	#####	spk2	63.55	63.77	0.01	_
20091112_RATP_SCD_1277	13	21	par+contre	NULL	adv	NULL	I_GADV	MOD	19	idtext0015	par+contre	#####	spk2	63.78	64.58	0.34	_
20091112_RATP_SCD_1277	13	22	et	NULL	coo	NULL	B_NULL	ROOT	0	idtext0016	et	#####	spk2	64.92	65.08	0.01	_
20091112_RATP_SCD_1277	13	23	elle	NULL	cln	NULL	B_GN	SUJ	24	idtext0016	cln	#3#f#s##	spk2	65.09	65.14	0.01	_
20091112_RATP_SCD_1277	13	24	vient	NULL	v	NULL	B_GVf	DEP_COORD	22	idtext0016	venir	P#3##s##	spk2	65.15	65.33	0.01	_
20091112_RATP_SCD_1277	13	25	sur	NULL	prep	NULL	B_GP	P_OBJ_LOC	24	idtext0016	sur	#####	spk2	65.34	65.48	0.01	_
20091112_RATP_SCD_1277	13	26	Antony	NULL	nc	B_A	I_GP	OBJ	25	idtext0016	Antony	##m#s##	spk2	65.49	66.13	0.01	//
20091112_RATP_SCD_1277	13	27	elle	NULL	cln	NULL	B_GN	SUJ	29	idtext0016	cln	#3#f#s##	spk2	66.14	66.2	0.01	_
20091112_RATP_SCD_1277	13	28	s'	NULL	clr	NULL	B_GVf	AFF	29	idtext0016	se	#3##p##	spk2	66.21	66.26	0.01	_
20091112_RATP_SCD_1277	13	29	arrête	NULL	v	NULL	I_GVf	ROOT	0	idtext0016	arrêter	PS#13##s##	spk2	66.27	66.48	0.01	_
20091112_RATP_SCD_1277	13	30	au	NULL	prep	NULL	B_GP	P_OBJ_LOC	29	idtext0016	au	#####	spk2	66.49	66.54	0.01	_
20091112_RATP_SCD_1277	13	31	parc	NULL	nc	B_A	I_GP	OBJ	30	idtext0016	parc	##m#s##	spk2	66.55	66.72	0.01	_
20091112_RATP_SCD_1277	13	32	de	NULL	prep	I_A	I_GP	DEP	31	idtext0016	de	#####	spk2	66.73	66.87	0.01	_
20091112_RATP_SCD_1277	13	33	Sceaux	NULL	np	I_A	I_GP	OBJ	32	idtext0016	Sceaux	##m#s##	spk2	66.88	67.78	?	//

20091112_RATP_SCD_1277	14	1	elle	NULL	cln	NULL	B_GN	SUJ	3	idtext0017	cln	#3#f#s##	spk1	67.86	67.99	0.01	_
20091112_RATP_SCD_1277	14	2	s'	NULL	clr	NULL	B_GVf	AFF	3	idtext0017	se	#3##p##	spk1	68.0	68.13	0.01	_
20091112_RATP_SCD_1277	14	3	arrête	NULL	v	NULL	I_GVf	ROOT	0	idtext0017	arrêter	PS#13##s##	spk1	68.14	68.42	0.01	_
20091112_RATP_SCD_1277	14	4	au	NULL	prep	NULL	B_GP	P_OBJ_LOC	3	idtext0017	au	#####	spk1	68.43	68.62	0.01	_
20091112_RATP_SCD_1277	14	5	parc	NULL	nc	B_A	I_GP	OBJ	4	idtext0017	parc	##m#s##	spk1	68.63	68.94	0.01	/
20091112_RATP_SCD_1277	14	6	de	NULL	prep	I_A	I_GP	DEP	5	idtext0017	de	#####	spk1	68.95	69.11	0.01	_
20091112_RATP_SCD_1277	14	7	Sceaux	NULL	np	I_A	I_GP	OBJ	6	idtext0017	Sceaux	##m#s##	spk1	69.12	69.42	?	//

20091112_RATP_SCD_1277	15	1	oh+là+là	DISF_M	pres	NULL	NULL	NOLINK	0	idtext0018	oh+là+là	#####	spk1	72.85	74.01	0.04	_
20091112_RATP_SCD_1277	15	2	là	NULL	adv	NULL	B_GADV	NOLINK	0	idtext0019	là	#####	spk1	74.05	74.16	0.01	_
20091112_RATP_SCD_1277	15	3	il	NULL	cln	NULL	B_GN	SUJ_IMP	6	idtext0019	cln	#3#m#s##	spk1	74.17	74.37	0.01	_
20091112_RATP_SCD_1277	15	4	y	NULL	clo	NULL	B_GN	AFF	6	idtext0019	y	#####	spk1	74.38	74.46	0.01	_
20091112_RATP_SCD_1277	15	5	en	NULL	clo	NULL	B_GN	OBJ	6	idtext0019	en	#####	spk1	74.47	74.66	0.01	_
20091112_RATP_SCD_1277	15	6	a	NULL	v	NULL	B_GVfn	ROOT	0	idtext0019	avoir	P#3##s##	spk1	74.67	74.97	0.01	_
20091112_RATP_SCD_1277	15	7	pas	NULL	advneg	NULL	I_GVfn	MOD	6	idtext0019	pas	#####	spk1	74.98	75.62	0.01	_
20091112_RATP_SCD_1277	15	8	Massy	NULL	nc	B_A	B_GN	OBJ	6	idtext0020	Massy	##m#s##	spk1	75.63	76.54	0.14	//
20091112_RATP_SCD_1277	15	9	mais	NULL	coo	NULL	B_NULL	ROOT	0	idtext0021	mais	#####	spk1	76.68	76.82	0.01	_
20091112_RATP_SCD_1277	15	10	est-ce+qu'	NULL	pri	NULL	B_NULL	NOLINK	0	idtext0021	est-ce+qu'	#####	spk1	76.83	77.07	0.01	_
20091112_RATP_SCD_1277	15	11	il	NULL	cln	NULL	B_GN	SUJ	12	idtext0021	cln	#3#m#s##	spk1	77.08	77.18	0.01	_
20091112_RATP_SCD_1277	15	12	avance	NULL	v	NULL	B_GVf	DEP_COORD	9	idtext0021	avancer	PS#13##s##	spk1	77.19	77.67	0.01	_
20091112_RATP_SCD_1277	15	13	celui-là	NULL	pro	NULL	B_GN	OBJ	12	idtext0021	celui-là	#####	spk1	77.68	80.12	?	_

20091112_RATP_SCD_1277	16	1	c'	NULL	cln	NULL	B_GN	SUJ_IMP	2	idtext0022	ce	###s##	spk2	80.21	80.23	0.01	_
20091112_RATP_SCD_1277	16	2	est	NULL	v	NULL	B_GVf	ROOT	0	idtext0022	être	P#3##s##	spk2	80.24	80.26	0.01	_
20091112_RATP_SCD_1277	16	3	quoi	NULL	pri	NULL	B_NULL	ATS	2	idtext0022	quoi	#####	spk2	80.27	80.4	0.01	_
20091112_RATP_SCD_1277	16	4	la	NULL	det	NULL	B_GN	DET	5	idtext0022	le	##m#s##d	spk2	80.41	80.62	0.01	_
20091112_RATP_SCD_1277	16	5	station	NULL	nc	NULL	I_GN	SUJ	2	idtext0022	station	##f#s##	spk2	80.63	80.91	0.01	_
20091112_RATP_SCD_1277	16	6	à	NULL	prep	NULL	B_NULL	NOLINK	0	idtext0022	à	#####	spk2	80.92	80.96	?	_

20091112_RATP_SCD_1277	17	1	là	NULL	adv	NULL	B_GADV	NOLINK	0	idtext0023	là	#####	spk1	81.0	81.07	0.01	_
20091112_RATP_SCD_1277	17	2	j'	NULL	cln	NULL	B_GN	SUJ	4	idtext0023	cln	#1##s##	spk1	81.08	81.19	0.01	_
20091112_RATP_SCD_1277	17	3	en	NULL	clo	NULL	B_GN	OBJ	4	idtext0023	en	#####	spk1	81.2	81.33	0.01	_
20091112_RATP_SCD_1277	17	4	ai	NULL	v	NULL	B_GVf	ROOT	0	idtext0023	avoir	P#1##s##	spk1	81.34	81.51	0.01	_
20091112_RATP_SCD_1277	17	5	un	NULL	pro	NULL	B_GN	OBJ	4	idtext0023	un	#####	spk1	81.52	82.15	0.01	_
20091112_RATP_SCD_1277	17	6	à	NULL	prep	NULL	B_NULL	NOLINK	0	idtext0023	à	#####	spk1	82.16	82.18	0.01	_
20091112_RATP_SCD_1277	17	7	euh	DISF_M	pres	NULL	NULL	NOLINK	0	idtext0023	euh	#####	spk1	82.19	82.38	?	//

20091112_RATP_SCD_1277	18	1	j'	NULL	cln	NULL	B_GN	SUJ	3	idtext0024	cln	#1##s##	spk1	84.21	84.3	0.01	_
20091112_RATP_SCD_1277	18	2	en	NULL	clo	NULL	B_GN	OBJ	3	idtext0024	en	#####	spk1	84.31	84.33	0.01	_
20091112_RATP_SCD_1277	18	3	ai	NULL	v	NULL	B_GVf	ROOT	0	idtext0024	avoir	P#1##s##	spk1	84.34	84.46	0.01	_
20091112_RATP_SCD_1277	18	4	un	NULL	pro	NULL	B_GN	OBJ	3	idtext0024	un	#####	spk1	84.47	84.57	0.01	_
20091112_RATP_SCD_1277	18	5	qui	NULL	prorel	NULL	B_NULL	SUJ	6	idtext0024	qui	#####	spk1	84.58	84.68	0.01	_
20091112_RATP_SCD_1277	18	6	va	NULL	v	NULL	B_GVf	MOD_REL	4	idtext0024	aller	P#3##s##	spk1	84.69	84.84	0.01	_
20091112_RATP_SCD_1277	18	7	arriver	NULL	vinf	NULL	I_GVf	OBJ	6	idtext0024	arriver	W#####	spk1	84.85	85.43	0.01	_
20091112_RATP_SCD_1277	18	8	à	NULL	prep	NULL	B_NULL	P_OBJ_LOC	6	idtext0024	à	#####	spk1	85.44	85.97	0.01	_
20091112_RATP_SCD_1277	18	9	bah	DISF_M	pres	NULL	NULL	NOLINK	0	idtext0024	bah	#####	spk1	85.98	86.13	0.01	_
20091112_RATP_SCD_1277	18	10	non	NULL	adv	NULL	B_GADV	NOLINK	0	idtext0024	non	#####	spk1	86.14	86.31	0.01	_
20091112_RATP_SCD_1277	18	11	parce+qu'	NULL	csu	NULL	B_NULL	MOD	6	idtext0024	parce+qu'	#####	spk1	86.32	86.49	0.01	_
20091112_RATP_SCD_1277	18	12	il	DISF_R	cln	NULL	NULL	NOLINK	0	idtext0024	cln	#3#m#s##	spk1	86.5	86.68	0.01	_
20091112_RATP_SCD_1277	18	13	il	NULL	cln	NULL	B_GN	SUJ	14	idtext0024	cln	#3#m#s##	spk1	86.69	86.82	0.01	_
20091112_RATP_SCD_1277	18	14	a	NULL	v	NULL	B_GVf	OBJ	11	idtext0024	avoir	P#3##s##	spk1	86.83	87.41	0.04	_
20091112_RATP_SCD_1277	18	15	c'	NULL	cln	NULL	B_GN	SUJ_IMP	16	idtext0025	ce	###s##	spk1	87.45	87.47	0.01	_
20091112_RATP_SCD_1277	18	16	est	NULL	v	NULL	B_GVf	ROOT	0	idtext0025	être	P#3##s##	spk1	87.48	87.5	0.01	_
20091112_RATP_SCD_1277	18	17	le	NULL	det	NULL	B_GN	DET	18	idtext0025	le	##m#s##d	spk1	87.51	87.53	0.01	_
20091112_RATP_SCD_1277	18	18	parc	NULL	nc	B_A	I_GN	ATS	16	idtext0025	parc	##m#s##	spk1	87.54	87.69	0.01	_
20091112_RATP_SCD_1277	18	19	de	NULL	prep	I_A	I_GN	DEP	18	idtext0025	de	#####	spk1	87.7	87.85	0.01	_
20091112_RATP_SCD_1277	18	20	Sceaux	NULL	np	I_A	I_GN	OBJ	19	idtext0025	Sceaux	##m#s##	spk1	87.86	88.13	0.01	_
20091112_RATP_SCD_1277	18	21	c'	NULL	cln	NULL	B_GN	SUJ_IMP	22	idtext0025	ce	###s##	spk1	88.14	88.22	0.01	_
20091112_RATP_SCD_1277	18	22	est	NULL	v	NULL	B_GVf	ROOT	0	idtext0025	être	P#3##s##	spk1	88.23	88.33	0.01	_
20091112_RATP_SCD_1277	18	23	ça	NULL	pro	NULL	B_GN	ATS	22	idtext0025	ça	#####	spk1	88.34	88.42	0.01	_
20091112_RATP_SCD_1277	18	24	hein	DISF_M	pres	NULL	NULL	NOLINK	0	idtext0025	hein	#####	spk1	88.43	88.94	0.04	_
20091112_RATP_SCD_1277	18	25	là	NULL	adv	NULL	B_GADV	NOLINK	0	idtext0026	là	#####	spk1	88.98	89.04	0.01	_
20091112_RATP_SCD_1277	18	26	j'	NULL	cln	NULL	B_GN	SUJ	28	idtext0026	cln	#1##s##	spk1	89.05	89.09	0.01	_
20091112_RATP_SCD_1277	18	27	en	NULL	clo	NULL	B_GN	OBJ	28	idtext0026	en	#####	spk1	89.1	89.21	0.01	_
20091112_RATP_SCD_1277	18	28	ai	NULL	v	NULL	B_GVf	ROOT	0	idtext0026	avoir	P#1##s##	spk1	89.22	89.26	0.01	_
20091112_RATP_SCD_1277	18	29	un	NULL	det	NULL	B_NULL	NOLINK	0	idtext0026	un	##m#s##i	spk1	89.27	89.36	?	_

20091112_RATP_SCD_1277	19	1	ouais	NULL	adv	NULL	B_GADV	NOLINK	0	idtext0027	ouais	#####	spk2	89.4	89.57	?	//

20091112_RATP_SCD_1277	20	1	qui	NULL	prorel	NULL	B_NULL	SUJ	2	idtext0028	qui	#####	spk1	89.4	89.45	0.01	_
20091112_RATP_SCD_1277	20	2	vient	NULL	v	NULL	B_GVf	ROOT	0	idtext0028	venir	P#3##s##	spk1	89.46	89.57	?	_

20091112_RATP_SCD_1277	21	1	d'	NULL	prep	NULL	B_GP	ROOT	0	idtext0029	d'	#####	spk1	89.61	89.63	0.01	_
20091112_RATP_SCD_1277	21	2	arriver	NULL	vinf	NULL	I_GP	OBJ	1	idtext0029	arriver	W#####	spk1	89.64	89.89	0.01	_
20091112_RATP_SCD_1277	21	3	au	NULL	prep	NULL	B_GP	P_OBJ_LOC	2	idtext0029	au	#####	spk1	89.9	89.94	0.01	_
20091112_RATP_SCD_1277	21	4	parc	NULL	nc	B_A	I_GP	OBJ	3	idtext0029	parc	##m#s##	spk1	89.95	90.12	0.01	_
20091112_RATP_SCD_1277	21	5	de	NULL	prep	I_A	I_GP	DEP	4	idtext0029	de	#####	spk1	90.13	90.27	0.01	_
20091112_RATP_SCD_1277	21	6	Sceaux	NULL	np	I_A	I_GP	OBJ	5	idtext0029	Sceaux	##m#s##	spk1	90.28	90.47	?	//

20091112_RATP_SCD_1277	22	1	OK	NULL	adv	NULL	B_GADV	NOLINK	0	idtext0030	ok	#####	spk2	91.94	92.28	0.01	/
20091112_RATP_SCD_1277	22	2	parce+que	NULL	csu	NULL	B_NULL	NOLINK	0	idtext0030	parce+que	#####	spk2	92.29	92.57	0.01	_
20091112_RATP_SCD_1277	22	3	là	NULL	adv	NULL	B_GADV	NOLINK	0	idtext0030	là	#####	spk2	92.58	93.07	0.01	_
20091112_RATP_SCD_1277	22	4	euh	DISF_M	pres	NULL	NULL	NOLINK	0	idtext0030	euh	#####	spk2	93.08	93.1	0.01	_
20091112_RATP_SCD_1277	22	5	et	NULL	coo	NULL	B_NULL	ROOT	0	idtext0030	et	#####	spk2	93.11	93.4	0.01	_
20091112_RATP_SCD_1277	22	6	la	DISF_R	det	NULL	NULL	NOLINK	0	idtext0030	le	##m#s##d	spk2	93.41	93.61	0.01	_
20091112_RATP_SCD_1277	22	7	la	NULL	det	NULL	B_GN	DET	8	idtext0030	le	##m#s##d	spk2	93.62	93.76	0.01	_
20091112_RATP_SCD_1277	22	8	clinique+Monceau	NULL	nc	NULL	I_GN	SUJ	12	idtext0030	clinique+Monceau	#####	spk2	93.77	94.44	0.01	/
20091112_RATP_SCD_1277	22	9	c'	DISF_R	cln	NULL	NULL	NOLINK	0	idtext0030	ce	###s##	spk2	94.45	94.53	0.01	_
20091112_RATP_SCD_1277	22	10	est	DISF_R	v	NULL	NULL	NOLINK	0	idtext0030	être	P#3##s##	spk2	94.54	94.74	0.01	_
20091112_RATP_SCD_1277	22	11	c'	NULL	cln	NULL	B_GN	SUJ_IMP	12	idtext0030	ce	###s##	spk2	94.75	94.92	0.01	_
20091112_RATP_SCD_1277	22	12	est	NULL	v	NULL	B_GVf	DEP_COORD	5	idtext0030	être	P#3##s##	spk2	94.93	94.99	0.01	_
20091112_RATP_SCD_1277	22	13	quel	NULL	det	NULL	B_GN	DET	14	idtext0030	quel	##m#s##	spk2	95.0	95.19	0.01	_
20091112_RATP_SCD_1277	22	14	arrêt	NULL	nc	NULL	I_GN	ATS	12	idtext0030	arrêt	##m#s##	spk2	95.2	95.39	0.01	_
20091112_RATP_SCD_1277	22	15	déjà	NULL	adv	NULL	B_GADV	NOLINK	0	idtext0030	déjà	#####	spk2	95.4	96.05	?	//

20091112_RATP_SCD_1277	23	1	et	NULL	coo	NULL	B_NULL	ROOT	0	idtext0031	et	#####	spk1	96.09	96.15	0.01	_
20091112_RATP_SCD_1277	23	2	là	NULL	adv	NULL	B_GADV	NOLINK	0	idtext0031	là	#####	spk1	96.16	96.3	0.01	_
20091112_RATP_SCD_1277	23	3	j'	NULL	cln	NULL	B_GN	SUJ	5	idtext0031	cln	#1##s##	spk1	96.31	96.39	0.01	_
20091112_RATP_SCD_1277	23	4	en	NULL	clo	NULL	B_GN	OBJ	5	idtext0031	en	#####	spk1	96.4	96.51	0.01	_
20091112_RATP_SCD_1277	23	5	ai	NULL	v	NULL	B_GVf	DEP_COORD	1	idtext0031	avoir	P#1##s##	spk1	96.52	96.72	0.01	_
20091112_RATP_SCD_1277	23	6	un	NULL	pro	NULL	B_GN	OBJ	5	idtext0031	un	#####	spk1	96.73	97.03	0.01	_
20091112_RATP_SCD_1277	23	7	qui	NULL	prorel	NULL	B_NULL	SUJ	8	idtext0031	qui	#####	spk1	97.04	97.24	0.01	_
20091112_RATP_SCD_1277	23	8	est	NULL	v	NULL	B_GVf	MOD_REL	6	idtext0031	être	P#3##s##	spk1	97.25	97.28	0.01	_
20091112_RATP_SCD_1277	23	9	en	NULL	prep	NULL	B_GP	ATS	8	idtext0031	en	#####	spk1	97.29	97.36	0.01	_
20091112_RATP_SCD_1277	23	10	direction	NULL	nc	NULL	I_GP	OBJ	9	idtext0031	direction	##f#s##	spk1	97.37	97.76	0.01	_
20091112_RATP_SCD_1277	23	11	de	NULL	prep	NULL	B_GP	DEP	10	idtext0031	de	#####	spk1	97.77	97.84	0.01	_
20091112_RATP_SCD_1277	23	12	Saint-Rémy-lès-Chevreuse	NULL	nc	B_A	I_GP	OBJ	11	idtext0031	Saint-Rémy-lès-Chevreuse	#####	spk1	97.85	98.76	?	//

20091112_RATP_SCD_1277	24	1	non	NULL	adv	NULL	B_GADV	NOLINK	0	idtext0032	non	#####	spk2	99.98	100.12	0.01	_
20091112_RATP_SCD_1277	24	2	elle	NULL	cln	NULL	B_GN	SUJ	3	idtext0032	cln	#3#f#s##	spk2	100.13	100.26	0.01	_
20091112_RATP_SCD_1277	24	3	vient	NULL	v	NULL	B_GVf	ROOT	0	idtext0032	venir	P#3##s##	spk2	100.27	100.43	0.01	_
20091112_RATP_SCD_1277	24	4	de	NULL	prep	NULL	B_GP	P_OBJ_LOC	3	idtext0032	de	#####	spk2	100.44	100.51	0.01	_
20091112_RATP_SCD_1277	24	5	Paris	NULL	nc	B_A	I_GP	OBJ	4	idtext0032	Paris	##m#s##	spk2	100.52	100.88	0.01	/
20091112_RATP_SCD_1277	24	6	elle	NULL	pro	NULL	I_GP	SUJ	3	idtext0032	elle	#####	spk2	100.89	101.16	0.01	_
20091112_RATP_SCD_1277	24	7	sur	DISF_R	prep	NULL	NULL	NOLINK	0	idtext0032	sur	#####	spk2	101.17	101.47	0.01	_
20091112_RATP_SCD_1277	24	8	euh	DISF_M	pres	NULL	NULL	NOLINK	0	idtext0032	euh	#####	spk2	101.48	101.52	0.01	_
20091112_RATP_SCD_1277	24	9	sur	NULL	prep	NULL	B_GP	P_OBJ_LOC	3	idtext0032	sur	#####	spk2	101.53	101.71	0.01	_
20091112_RATP_SCD_1277	24	10	le	NULL	det	NULL	I_GP	DET	11	idtext0032	le	##m#s##d	spk2	101.72	101.83	0.01	_
20091112_RATP_SCD_1277	24	11	parc	NULL	nc	NULL	I_GP	OBJ	9	idtext0032	parc	##m#s##	spk2	101.84	102.19	?	//

20091112_RATP_SCD_1277	25	1	oui	NULL	adv	NULL	B_GADV	NOLINK	0	idtext0033	oui	#####	spk1	103.51	103.91	0.01	_
20091112_RATP_SCD_1277	25	2	donc	NULL	coo	NULL	B_NULL	ROOT	0	idtext0034	donc	#####	spk1	103.92	104.07	0.01	_
20091112_RATP_SCD_1277	25	3	euh	DISF_M	pres	NULL	NULL	NOLINK	0	idtext0034	euh	#####	spk1	104.08	104.17	0.01	_
20091112_RATP_SCD_1277	25	4	elle	NULL	cln	NULL	B_GN	SUJ	5	idtext0034	cln	#3#f#s##	spk1	104.18	104.94	0.01	_
20091112_RATP_SCD_1277	25	5	vient	NULL	v	NULL	B_GVf	DEP_COORD	2	idtext0034	venir	P#3##s##	spk1	104.95	105.05	0.01	_
20091112_RATP_SCD_1277	25	6	de	NULL	prep	NULL	B_NULL	NOLINK	0	idtext0034	de	#####	spk1	105.06	105.23	?	_

20091112_RATP_SCD_1277	26	1	je	NULL	cln	NULL	B_GN	SUJ	2	idtext0035	cln	#1##s##	spk2	105.3	105.41	0.01	_
20091112_RATP_SCD_1277	26	2	sais	NULL	v	NULL	B_GVf	ROOT	0	idtext0035	savoir	P#12##s##	spk2	105.42	105.55	0.01	_
20091112_RATP_SCD_1277	26	3	qu'	NULL	csu	NULL	B_NULL	OBJ	2	idtext0035	qu'	#####	spk2	105.56	105.63	0.01	_
20091112_RATP_SCD_1277	26	4	elle	NULL	cln	NULL	B_GN	SUJ	5	idtext0035	cln	#3#f#s##	spk2	105.64	105.69	0.01	_
20091112_RATP_SCD_1277	26	5	prend	NULL	v	NULL	B_GVf	OBJ	3	idtext0035	prendre	P#3##s##	spk2	105.7	105.87	0.01	_
20091112_RATP_SCD_1277	26	6	le	NULL	det	NULL	B_GN	DET	7	idtext0035	le	##m#s##d	spk2	105.88	105.92	0.01	_
20091112_RATP_SCD_1277	26	7	RER+A	NULL	nc	B_T	I_GN	OBJ	5	idtext0035	RER+A	#####	spk2	105.93	106.65	0.01	_
20091112_RATP_SCD_1277	26	8	avant	NULL	prep	NULL	B_NULL	NOLINK	0	idtext0035	avant	#####	spk2	106.66	107.6	?	_

20091112_RATP_SCD_1277	27	1	oui	NULL	adv	NULL	B_GADV	NOLINK	0	idtext0036	oui	#####	spk1	107.67	107.97	?	//

20091112_RATP_SCD_1277	28	1	de	NULL	prep	NULL	B_GP	ROOT	0	idtext0037	de	#####	spk2	108.06	108.08	0.01	_
20091112_RATP_SCD_1277	28	2	la	NULL	det	NULL	I_GP	DET	3	idtext0037	le	##m#s##d	spk2	108.09	108.2	0.01	_
20091112_RATP_SCD_1277	28	3	station	NULL	nc	NULL	I_GP	OBJ	1	idtext0037	station	##f#s##	spk2	108.21	108.59	0.01	_
20091112_RATP_SCD_1277	28	4	par+contre	NULL	adv	NULL	B_GADV	NOLINK	0	idtext0037	par+contre	#####	spk2	108.6	109.08	?	_

20091112_RATP_SCD_1277	29	1	là	NULL	adv	NULL	B_GADV	NOLINK	0	idtext0038	là	#####	spk1	110.67	110.75	0.01	_
20091112_RATP_SCD_1277	29	2	il	NULL	cln	NULL	B_GN	SUJ_IMP	5	idtext0038	cln	#3#m#s##	spk1	110.76	110.81	0.01	_
20091112_RATP_SCD_1277	29	3	y	NULL	clo	NULL	B_GN	AFF	5	idtext0038	y	#####	spk1	110.82	110.84	0.01	_
20091112_RATP_SCD_1277	29	4	en	NULL	clo	NULL	B_GN	OBJ	5	idtext0038	en	#####	spk1	110.85	110.92	0.01	_
20091112_RATP_SCD_1277	29	5	a	NULL	v	NULL	B_GVfn	ROOT	0	idtext0038	avoir	P#3##s##	spk1	110.93	110.96	0.01	_
20091112_RATP_SCD_1277	29	6	pas	NULL	advneg	NULL	I_GVfn	MOD	5	idtext0038	pas	#####	spk1	110.97	111.08	0.01	_
20091112_RATP_SCD_1277	29	7	beaucoup	NULL	adv	NULL	B_GADV	MOD	5	idtext0038	beaucoup	#####	spk1	111.09	111.52	0.01	_
20091112_RATP_SCD_1277	29	8	hein	DISF_M	pres	NULL	NULL	NOLINK	0	idtext0038	hein	#####	spk1	111.53	112.07	?	//

20091112_RATP_SCD_1277	30	1	il	NULL	cln	NULL	B_GN	SUJ_IMP	4	idtext0039	cln	#3#m#s##	spk2	112.11	112.16	0.01	_
20091112_RATP_SCD_1277	30	2	y	NULL	clo	NULL	B_GN	AFF	4	idtext0039	y	#####	spk2	112.17	112.19	0.01	_
20091112_RATP_SCD_1277	30	3	en	NULL	clo	NULL	B_GN	OBJ	4	idtext0039	en	#####	spk2	112.2	112.22	0.01	_
20091112_RATP_SCD_1277	30	4	a	NULL	v	NULL	B_GVfn	ROOT	0	idtext0039	avoir	P#3##s##	spk2	112.23	112.25	0.01	_
20091112_RATP_SCD_1277	30	5	pas	NULL	advneg	NULL	I_GVfn	MOD	4	idtext0039	pas	#####	spk2	112.26	112.41	?	_

20091112_RATP_SCD_1277	31	1	non	NULL	adv	NULL	B_GADV	NOLINK	0	idtext0040	non	#####	spk1	112.48	112.97	?	_

20091112_RATP_SCD_1277	32	1	beaucoup	NULL	adv	NULL	B_GADV	NOLINK	0	idtext0041	beaucoup	#####	spk2	112.45	112.97	?	//

20091112_RATP_SCD_1277	33	1	non	NULL	adv	NULL	B_GADV	NOLINK	0	idtext0042	non	#####	spk1	113.05	113.64	?	_

20091112_RATP_SCD_1277	34	1	mais	NULL	coo	NULL	B_NULL	ROOT	0	idtext0043	mais	#####	spk2	113.68	113.76	0.01	_
20091112_RATP_SCD_1277	34	2	il	NULL	cln	NULL	B_GN	SUJ_IMP	5	idtext0043	cln	#3#m#s##	spk2	113.77	113.82	0.01	_
20091112_RATP_SCD_1277	34	3	y	NULL	clo	NULL	B_GN	AFF	5	idtext0043	y	#####	spk2	113.83	113.86	0.01	_
20091112_RATP_SCD_1277	34	4	en	NULL	clo	NULL	B_GN	OBJ	5	idtext0043	en	#####	spk2	113.87	113.96	0.01	_
20091112_RATP_SCD_1277	34	5	a	NULL	v	NULL	B_GVf	DEP_COORD	1	idtext0043	avoir	P#3##s##	spk2	113.97	114.04	0.01	_
20091112_RATP_SCD_1277	34	6	quand+même	NULL	adv	NULL	B_GADV	MOD	5	idtext0043	quand+même	#####	spk2	114.05	114.37	0.01	_
20091112_RATP_SCD_1277	34	7	un	NULL	det	NULL	B_NULL	NOLINK	0	idtext0043	un	##m#s##i	spk2	114.38	114.53	?	_

20091112_RATP_SCD_1277	35	1	mais	NULL	coo	NULL	B_NULL	ROOT	0	idtext0044	mais	#####	spk1	114.58	114.63	0.01	_
20091112_RATP_SCD_1277	35	2	il	NULL	cln	NULL	B_GN	SUJ_IMP	5	idtext0044	cln	#3#m#s##	spk1	114.64	114.69	0.01	_
20091112_RATP_SCD_1277	35	3	y	NULL	clo	NULL	B_GN	AFF	5	idtext0044	y	#####	spk1	114.7	114.75	0.01	_
20091112_RATP_SCD_1277	35	4	en	NULL	clo	NULL	B_GN	OBJ	5	idtext0044	en	#####	spk1	114.76	114.83	0.01	_
20091112_RATP_SCD_1277	35	5	a	NULL	v	NULL	B_GVf	DEP_COORD	1	idtext0044	avoir	P#3##s##	spk1	114.84	114.92	?	//

20091112_RATP_SCD_1277	36	1	petit	NULL	adj	NULL	B_GADJ	NOLINK	0	idtext0045	petit	##m#s##	spk2	114.57	114.75	0.01	_
20091112_RATP_SCD_1277	36	2	peu	NULL	adv	NULL	B_GADV	NOLINK	0	idtext0045	peu	#####	spk2	114.76	114.92	?	//

20091112_RATP_SCD_1277	37	1	un+petit+peu	NULL	adv	NULL	B_GADV	MOD	2	idtext0046	un+petit+peu	#####	spk1	114.96	115.22	0.01	_
20091112_RATP_SCD_1277	37	2	quand+même	NULL	adv	NULL	I_GADV	MOD	3	idtext0046	quand+même	#####	spk1	115.23	115.55	0.01	_
20091112_RATP_SCD_1277	37	3	oui	NULL	adv	NULL	I_GADV	ROOT	0	idtext0046	oui	#####	spk1	115.56	116.31	?	_

20091112_RATP_SCD_1277	38	1	ouais	NULL	adv	NULL	B_GADV	NOLINK	0	idtext0047	ouais	#####	spk2	116.35	116.46	0.01	//
20091112_RATP_SCD_1277	38	2	parce+que	NULL	csu	NULL	B_NULL	NOLINK	0	idtext0047	parce+que	#####	spk2	116.47	116.89	?	_

20091112_RATP_SCD_1277	39	1	elle	NULL	cln	NULL	B_GN	SUJ	2	idtext0048	cln	#3#f#s##	spk1	117.01	117.08	0.01	_
20091112_RATP_SCD_1277	39	2	risque	NULL	v	NULL	B_GVf	ROOT	0	idtext0048	risquer	PS#13##s##	spk1	117.09	117.28	0.01	_
20091112_RATP_SCD_1277	39	3	d'	NULL	prep	NULL	B_GP	OBJ	2	idtext0048	d'	#####	spk1	117.29	117.33	0.01	_
20091112_RATP_SCD_1277	39	4	avoir	NULL	vinf	NULL	I_GP	OBJ	3	idtext0048	avoir	W#####	spk1	117.34	117.6	0.01	_
20091112_RATP_SCD_1277	39	5	du	NULL	prep	NULL	B_GP	P_OBJ_LOC	4	idtext0048	du	#####	spk1	117.61	117.66	0.01	_
20091112_RATP_SCD_1277	39	6	retard	NULL	nc	NULL	I_GP	OBJ	5	idtext0048	retard	##m#s##	spk1	117.67	118.64	?	//

20091112_RATP_SCD_1277	40	1	on	NULL	cln	NULL	B_GN	SUJ	3	idtext0049	cln	#3##s##	spk2	116.93	116.95	0.01	_
20091112_RATP_SCD_1277	40	2	a	NULL	v	NULL	B_GVf	AUX	3	idtext0049	avoir	P#3##s##	spk2	116.96	117.04	0.01	_
20091112_RATP_SCD_1277	40	3	eu	NULL	vppart	NULL	I_GVf	ROOT	0	idtext0049	avoir	K##m#s##	spk2	117.05	117.08	0.01	_
20091112_RATP_SCD_1277	40	4	quelqu'un	NULL	pro	NULL	B_GN	OBJ	3	idtext0049	quelqu'un	#####	spk2	117.09	117.55	0.01	_
20091112_RATP_SCD_1277	40	5	qui	NULL	prorel	NULL	B_NULL	OBJ	8	idtext0049	qui	#####	spk2	117.56	117.67	0.01	_
20091112_RATP_SCD_1277	40	6	nous	NULL	cln	NULL	B_GN	SUJ	8	idtext0049	cln	#1##p##	spk2	117.68	117.73	0.01	_
20091112_RATP_SCD_1277	40	7	a	NULL	v	NULL	B_GVf	AUX	8	idtext0049	avoir	P#3##s##	spk2	117.74	117.9	0.01	_
20091112_RATP_SCD_1277	40	8	appelé	NULL	vppart	NULL	I_GVf	MOD_REL	4	idtext0049	appeler	K##m#s##	spk2	117.91	118.64	?	//

20091112_RATP_SCD_1277	41	1	ouais	NULL	adv	NULL	B_GADV	NOLINK	0	idtext0050	ouais	#####	spk2	118.68	119.0	0.01	_
20091112_RATP_SCD_1277	41	2	on	NULL	cln	NULL	B_GN	SUJ	3	idtext0050	cln	#3##s##	spk2	119.01	119.15	0.01	_
20091112_RATP_SCD_1277	41	3	a	NULL	v	NULL	B_GVf	ROOT	0	idtext0050	avoir	P#3##s##	spk2	119.16	119.2	0.01	_
20091112_RATP_SCD_1277	41	4	quelqu'un	NULL	pro	NULL	B_GN	OBJ	3	idtext0050	quelqu'un	#####	spk2	119.21	119.63	0.01	_
20091112_RATP_SCD_1277	41	5	il	NULL	cln	NULL	B_GN	SUJ	7	idtext0050	cln	#3#m#s##	spk2	119.64	119.7	0.01	_
20091112_RATP_SCD_1277	41	6	nous	NULL	clo	NULL	B_GN	A_OBJ	7	idtext0050	cln	#1##p##	spk2	119.71	119.77	0.01	_
20091112_RATP_SCD_1277	41	7	dit	NULL	v	NULL	B_GVf	ROOT	0	idtext0050	dire	J#3##s##	spk2	119.78	119.89	0.01	_
20091112_RATP_SCD_1277	41	8	que	NULL	csu	NULL	B_NULL	OBJ	7	idtext0050	que	#####	spk2	119.9	120.21	0.01	_
20091112_RATP_SCD_1277	41	9	euh	DISF_M	pres	NULL	NULL	NOLINK	0	idtext0050	euh	#####	spk2	120.22	120.27	0.01	_
20091112_RATP_SCD_1277	41	10	toutes+les	NULL	det	NULL	B_GN	DET	11	idtext0050	toutes+les	#####	spk2	120.28	120.52	0.01	_
20091112_RATP_SCD_1277	41	11	lignes	NULL	nc	NULL	I_GN	SUJ	17	idtext0050	ligne	##f#p##	spk2	120.53	120.76	0.01	_
20091112_RATP_SCD_1277	41	12	de	NULL	prep	NULL	B_GP	DEP	11	idtext0050	de	#####	spk2	120.77	120.97	0.01	_
20091112_RATP_SCD_1277	41	13	la	NULL	det	NULL	I_GP	DET	14	idtext0050	le	##m#s##d	spk2	120.98	121.09	0.01	_
20091112_RATP_SCD_1277	41	14	ligne	NULL	nc	B_T	I_GP	OBJ	12	idtext0050	ligne	##f#s##	spk2	121.1	121.31	0.01	_
20091112_RATP_SCD_1277	41	15	B	NULL	adj	I_T	I_GP	MOD	14	idtext0050	B	#####	spk2	121.32	121.43	0.01	_
20091112_RATP_SCD_1277	41	16	était	NULL	v	NULL	B_GVf	AUX	17	idtext0050	être	I#3##s##	spk2	121.44	121.72	0.01	_
20091112_RATP_SCD_1277	41	17	fermée	NULL	vppart	NULL	I_GVf	OBJ	8	idtext0050	fermer	K##f#s##	spk2	121.73	122.11	0.01	_
20091112_RATP_SCD_1277	41	18	donc	NULL	coo	NULL	B_NULL	COORD	17	idtext0050	donc	#####	spk2	122.12	122.26	0.01	_
20091112_RATP_SCD_1277	41	19	c'	NULL	cln	NULL	B_GN	SUJ_IMP	20	idtext0050	ce	###s##	spk2	122.27	122.33	0.01	_
20091112_RATP_SCD_1277	41	20	est	NULL	v	NULL	B_GVf	DEP_COORD	18	idtext0050	être	P#3##s##	spk2	122.34	122.38	0.01	_
20091112_RATP_SCD_1277	41	21	pour	NULL	prep	NULL	B_GP	ATS	20	idtext0050	pour	#####	spk2	122.39	122.53	0.01	_
20091112_RATP_SCD_1277	41	22	ça	NULL	pro	NULL	I_GP	OBJ	21	idtext0050	ça	#####	spk2	122.54	122.65	0.01	_
20091112_RATP_SCD_1277	41	23	on	NULL	cln	NULL	B_GN	SUJ	25	idtext0050	cln	#3##s##	spk2	122.66	122.74	0.01	_
20091112_RATP_SCD_1277	41	24	a	NULL	v	NULL	B_GVf	AUX	25	idtext0050	avoir	P#3##s##	spk2	122.75	122.96	0.01	_
20091112_RATP_SCD_1277	41	25	paniqué	NULL	vppart	NULL	I_GVf	ROOT	0	idtext0050	paniquer	K##m#s##	spk2	122.97	123.32	0.01	_
20091112_RATP_SCD_1277	41	26	un+petit+peu	NULL	adv	NULL	B_GADV	MOD	27	idtext0050	un+petit+peu	#####	spk2	123.33	123.73	0.01	_
20091112_RATP_SCD_1277	41	27	là	NULL	adv	NULL	I_GADV	ROOT	0	idtext0050	là	#####	spk2	123.74	123.99	?	_

20091112_RATP_SCD_1277	42	1	non	DISF_R	adv	NULL	NULL	NOLINK	0	idtext0051	non	#####	spk1	124.12	124.22	0.01	_
20091112_RATP_SCD_1277	42	2	non	DISF_R	adv	NULL	NULL	NOLINK	0	idtext0051	non	#####	spk1	124.23	124.34	0.01	_
20091112_RATP_SCD_1277	42	3	non	NULL	adv	NULL	B_GADV	NOLINK	0	idtext0051	non	#####	spk1	124.35	124.54	?	_

20091112_RATP_SCD_1277	43	1	donc	NULL	coo	NULL	B_NULL	ROOT	0	idtext0052	donc	#####	spk2	124.59	124.69	0.01	_
20091112_RATP_SCD_1277	43	2	j'	NULL	cln	NULL	B_GN	SUJ	4	idtext0052	cln	#1##s##	spk2	124.7	124.73	0.01	_
20091112_RATP_SCD_1277	43	3	ai	NULL	v	NULL	B_GVf	AUX	4	idtext0052	avoir	P#1##s##	spk2	124.74	124.79	0.01	_
20091112_RATP_SCD_1277	43	4	préféré	NULL	vppart	NULL	I_GVf	DEP_COORD	1	idtext0052	préférer	K##m#s##	spk2	124.8	125.18	0.01	_
20091112_RATP_SCD_1277	43	5	appeler	NULL	vinf	NULL	B_GVi	OBJ	4	idtext0052	appeler	W#####	spk2	125.19	125.46	?	//

20091112_RATP_SCD_1277	44	1	pour	NULL	prep	NULL	B_GP	ROOT	0	idtext0053	pour	#####	spk2	125.5	125.58	0.01	_
20091112_RATP_SCD_1277	44	2	avoir	NULL	vinf	NULL	I_GP	OBJ	1	idtext0053	avoir	W#####	spk2	125.59	125.8	0.01	_
20091112_RATP_SCD_1277	44	3	confirmation	NULL	nc	NULL	B_GN	OBJ	2	idtext0053	confirmation	##f#s##	spk2	125.81	126.24	?	//

20091112_RATP_SCD_1277	45	1	il	NULL	cln	NULL	B_GN	SUJ_IMP	4	idtext0054	cln	#3#m#s##	spk1	126.28	126.37	0.01	_
20091112_RATP_SCD_1277	45	2	y	NULL	clo	NULL	B_GN	AFF	4	idtext0054	y	#####	spk1	126.38	126.51	0.01	_
20091112_RATP_SCD_1277	45	3	en	NULL	clo	NULL	B_GN	OBJ	4	idtext0054	en	#####	spk1	126.52	126.54	0.01	_
20091112_RATP_SCD_1277	45	4	a	NULL	v	NULL	B_GVf	ROOT	0	idtext0054	avoir	P#3##s##	spk1	126.55	126.67	0.01	_
20091112_RATP_SCD_1277	45	5	un+petit+peu	NULL	adv	NULL	B_GADV	MOD	6	idtext0054	un+petit+peu	#####	spk1	126.68	127.05	0.01	_
20091112_RATP_SCD_1277	45	6	quand+même	NULL	adv	NULL	I_GADV	MOD	4	idtext0054	quand+même	#####	spk1	127.06	127.37	0.01	_
20091112_RATP_SCD_1277	45	7	mais	NULL	coo	NULL	B_NULL	COORD	4	idtext0054	mais	#####	spk1	127.38	127.58	0.01	_
20091112_RATP_SCD_1277	45	8	bon	DISF_M	pres	NULL	NULL	NOLINK	0	idtext0054	bon	#####	spk1	127.59	127.74	0.01	_
20091112_RATP_SCD_1277	45	9	c'	NULL	cln	NULL	B_GN	SUJ_IMP	10	idtext0054	ce	###s##	spk1	127.75	127.84	0.01	_
20091112_RATP_SCD_1277	45	10	est	NULL	v	NULL	B_GVfn	DEP_COORD	7	idtext0054	être	P#3##s##	spk1	127.85	127.89	0.01	_
20091112_RATP_SCD_1277	45	11	pas	DISF_R	advneg	NULL	NULL	NOLINK	0	idtext0054	pas	#####	spk1	127.9	128.52	0.01	_
20091112_RATP_SCD_1277	45	12	pas	NULL	advneg	NULL	I_GVfn	MOD	10	idtext0054	pas	#####	spk1	128.53	128.64	0.01	_
20091112_RATP_SCD_1277	45	13	beaucoup	NULL	adv	NULL	B_GADV	MOD	4	idtext0054	beaucoup	#####	spk1	128.65	128.97	0.01	_
20091112_RATP_SCD_1277	45	14	hein	DISF_M	pres	NULL	NULL	NOLINK	0	idtext0054	hein	#####	spk1	128.98	129.59	?	//

20091112_RATP_SCD_1277	46	1	ouais	NULL	adv	NULL	B_GADV	NOLINK	0	idtext0055	ouais	#####	spk2	129.63	130.2	?	//

20091112_RATP_SCD_1277	47	1	hm	DISF_M	pres	NULL	NULL	NOLINK	0	idtext0056	hm	#####	spk1	130.31	130.88	?	//

20091112_RATP_SCD_1277	48	1	bah	DISF_M	pres	NULL	NULL	NOLINK	0	idtext0057	bah	#####	spk1	131.05	131.34	?	//

20091112_RATP_SCD_1277	49	1	d'accord	NULL	adv	NULL	B_GADV	NOLINK	0	idtext0058	d'accord	#####	spk2	130.98	131.34	?	//

20091112_RATP_SCD_1277	50	1	c'est-à-dire	NULL	coo	NULL	B_NULL	ROOT	0	idtext0059	c'est-à-dire	#####	spk1	131.39	131.74	0.01	_
20091112_RATP_SCD_1277	50	2	que	NULL	csu	NULL	B_NULL	OBJ	1	idtext0059	que	#####	spk1	131.75	131.84	0.01	_
20091112_RATP_SCD_1277	50	3	des+fois	NULL	adv	NULL	B_GADV	MOD	5	idtext0059	des+fois	#####	spk1	131.85	132.24	0.01	_
20091112_RATP_SCD_1277	50	4	ils	NULL	cln	NULL	B_GN	SUJ	5	idtext0059	cln	#3#m#p##	spk1	132.25	132.33	0.01	_
20091112_RATP_SCD_1277	50	5	ferment	NULL	v	NULL	B_GVf	OBJ	2	idtext0059	fermer	PS#3##p##	spk1	132.34	132.69	0.01	_
20091112_RATP_SCD_1277	50	6	voilà	DISF_M	pres	NULL	NULL	NOLINK	0	idtext0059	voilà	#####	spk1	132.7	132.98	0.01	_
20091112_RATP_SCD_1277	50	7	tout+à+fait	NULL	adv	NULL	B_GADV	NOLINK	0	idtext0059	tout+à+fait	#####	spk1	132.99	133.48	0.04	_
20091112_RATP_SCD_1277	50	8	c'	NULL	cln	NULL	B_GN	SUJ_IMP	9	idtext0060	ce	###s##	spk1	133.52	133.54	0.01	_
20091112_RATP_SCD_1277	50	9	est	NULL	v	NULL	B_GVf	ROOT	0	idtext0060	être	P#3##s##	spk1	133.55	133.57	0.01	_
20091112_RATP_SCD_1277	50	10	vrai	NULL	adj	NULL	B_GADJ	ATS	9	idtext0060	vrai	##m#s##	spk1	133.58	133.66	0.01	_
20091112_RATP_SCD_1277	50	11	qu'	NULL	csu	NULL	B_NULL	OBJ	10	idtext0060	qu'	#####	spk1	133.67	133.72	0.01	_
20091112_RATP_SCD_1277	50	12	ils	NULL	cln	NULL	B_GN	SUJ	13	idtext0060	cln	#3#m#p##	spk1	133.73	133.79	0.01	_
20091112_RATP_SCD_1277	50	13	ferment	NULL	v	NULL	B_GVf	OBJ	11	idtext0060	fermer	PS#3##p##	spk1	133.8	134.04	0.01	_
20091112_RATP_SCD_1277	50	14	les	NULL	det	NULL	B_GN	DET	15	idtext0060	le	###p##d	spk1	134.05	134.1	0.01	_
20091112_RATP_SCD_1277	50	15	stations	NULL	nc	NULL	I_GN	OBJ	13	idtext0060	station	##f#p##	spk1	134.11	134.51	0.01	_
20091112_RATP_SCD_1277	50	16	parce+que	NULL	csu	NULL	B_NULL	MOD	13	idtext0060	parce+que	#####	spk1	134.52	134.82	0.01	_
20091112_RATP_SCD_1277	50	17	comme	NULL	adv	NULL	B_GADV	MOD	20	idtext0060	comme	#####	spk1	134.83	134.95	0.01	_
20091112_RATP_SCD_1277	50	18	il	NULL	cln	NULL	B_GN	SUJ_IMP	20	idtext0060	cln	#3#m#s##	spk1	134.96	135.01	0.01	_
20091112_RATP_SCD_1277	50	19	y	NULL	clo	NULL	B_GN	AFF	20	idtext0060	y	#####	spk1	135.02	135.04	0.01	_
20091112_RATP_SCD_1277	50	20	a	NULL	v	NULL	B_GVfn	OBJ	16	idtext0060	avoir	P#3##s##	spk1	135.05	135.09	0.01	_
20091112_RATP_SCD_1277	50	21	pas	NULL	advneg	NULL	I_GVfn	MOD	20	idtext0060	pas	#####	spk1	135.1	135.22	0.01	_
20091112_RATP_SCD_1277	50	22	de	NULL	det	NULL	B_GN	DET	23	idtext0060	de	###p##i	spk1	135.23	135.3	0.01	_
20091112_RATP_SCD_1277	50	23	train	NULL	nc	NULL	I_GN	OBJ	20	idtext0060	train	##m#s##	spk1	135.31	135.84	0.04	_
20091112_RATP_SCD_1277	50	24	après	NULL	adv	NULL	B_GADV	NOLINK	0	idtext0061	après	#####	spk1	135.88	136.14	0.01	_
20091112_RATP_SCD_1277	50	25	c'	NULL	cln	NULL	B_GN	SUJ_IMP	26	idtext0061	ce	###s##	spk1	136.15	136.18	0.01	_
20091112_RATP_SCD_1277	50	26	est	NULL	v	NULL	B_GVf	ROOT	0	idtext0061	être	P#3##s##	spk1	136.19	136.23	0.01	_
20091112_RATP_SCD_1277	50	27	dangereux	NULL	adj	NULL	B_GADJ	ATS	26	idtext0061	dangereux	##m###	spk1	136.24	136.62	0.01	_
20091112_RATP_SCD_1277	50	28	par+rapport	NULL	prep	NULL	B_NULL	ROOT	0	idtext0061	par+rapport	#####	spk1	136.63	137.16	0.01	_
20091112_RATP_SCD_1277	50	29	euh	DISF_M	pres	NULL	NULL	NOLINK	0	idtext0061	euh	#####	spk1	137.17	137.88	0.01	_
20091112_RATP_SCD_1277	50	30	aux	NULL	prep	NULL	B_GP	OBJ	28	idtext0061	aux	#####	spk1	137.89	137.98	0.01	_
20091112_RATP_SCD_1277	50	31	voies	NULL	nc	NULL	I_GP	OBJ	30	idtext0061	voie	##f#p##	spk1	137.99	138.98	?	//

20091112_RATP_SCD_1277	51	1	ouais	NULL	adv	NULL	B_GADV	NOLINK	0	idtext0062	ouais	#####	spk2	139.02	139.17	?	//

20091112_RATP_SCD_1277	52	1	donc	NULL	coo	NULL	B_NULL	NOLINK	0	idtext0063	donc	#####	spk1	139.02	139.17	?	//

20091112_RATP_SCD_1277	53	1	ils	NULL	cln	NULL	B_GN	SUJ	3	idtext0064	cln	#3#m#p##	spk1	139.21	139.3	0.01	_
20091112_RATP_SCD_1277	53	2	sont	NULL	v	NULL	B_GVf	AUX	3	idtext0064	être	P#3##p##	spk1	139.31	139.37	0.01	_
20091112_RATP_SCD_1277	53	3	obligés	NULL	vppart	NULL	I_GVf	ROOT	0	idtext0064	obliger	K##m#p##	spk1	139.38	139.58	0.01	_
20091112_RATP_SCD_1277	53	4	de	NULL	prep	NULL	B_GP	OBJ	3	idtext0064	de	#####	spk1	139.59	139.61	0.01	_
20091112_RATP_SCD_1277	53	5	fermer	NULL	vinf	NULL	I_GP	OBJ	4	idtext0064	fermer	W#####	spk1	139.62	139.87	0.01	_
20091112_RATP_SCD_1277	53	6	les	NULL	det	NULL	B_GN	DET	7	idtext0064	le	###p##d	spk1	139.88	139.95	0.01	_
20091112_RATP_SCD_1277	53	7	stations	NULL	nc	NULL	I_GN	OBJ	5	idtext0064	station	##f#p##	spk1	139.96	140.91	?	//

20091112_RATP_SCD_1277	54	1	hm	DISF_M	pres	NULL	NULL	NOLINK	0	idtext0065	hm	#####	spk2	140.96	140.99	0.01	_
20091112_RATP_SCD_1277	54	2	à	NULL	prep	NULL	B_GP	ROOT	0	idtext0065	à	#####	spk2	141.0	141.04	0.01	_
20091112_RATP_SCD_1277	54	3	mon	NULL	det	NULL	I_GP	DET	4	idtext0065	mon	###s##o	spk2	141.05	141.4	0.01	_
20091112_RATP_SCD_1277	54	4	avis	NULL	nc	NULL	I_GP	OBJ	2	idtext0065	avis	##m###	spk2	141.41	141.59	0.01	_
20091112_RATP_SCD_1277	54	5	les	NULL	det	NULL	B_GN	DET	7	idtext0065	le	###p##d	spk2	141.6	141.75	0.01	_
20091112_RATP_SCD_1277	54	6	petites	NULL	adj	NULL	I_GN	MOD	7	idtext0065	petit	##f#p##	spk2	141.76	141.9	0.01	_
20091112_RATP_SCD_1277	54	7	stations	NULL	nc	NULL	I_GN	SUJ	8	idtext0065	station	##f#p##	spk2	141.91	142.27	0.01	_
20091112_RATP_SCD_1277	54	8	sont	NULL	v	NULL	B_GVf	ROOT	0	idtext0065	être	P#3##p##	spk2	142.28	142.37	0.01	_
20091112_RATP_SCD_1277	54	9	fermées	NULL	adj	NULL	B_GADJ	ATS	8	idtext0065	fermé	##f#p##	spk2	142.38	142.77	0.01	_
20091112_RATP_SCD_1277	54	10	mais	NULL	coo	NULL	B_NULL	COORD	8	idtext0065	mais	#####	spk2	142.78	142.85	0.01	_
20091112_RATP_SCD_1277	54	11	il	NULL	cln	NULL	B_GN	SUJ_IMP	13	idtext0065	cln	#3#m#s##	spk2	142.86	142.91	0.01	_
20091112_RATP_SCD_1277	54	12	y	NULL	clo	NULL	B_GN	AFF	13	idtext0065	y	#####	spk2	142.92	142.95	0.01	_
20091112_RATP_SCD_1277	54	13	a	NULL	v	NULL	B_GVf	DEP_COORD	10	idtext0065	avoir	P#3##s##	spk2	142.96	143.01	0.01	_
20091112_RATP_SCD_1277	54	14	que	NULL	advneg	NULL	B_NULL	MOD	13	idtext0065	que	#####	spk2	143.02	143.09	0.01	_
20091112_RATP_SCD_1277	54	15	les	NULL	det	NULL	B_GN	DET	16	idtext0065	le	###p##d	spk2	143.1	143.17	0.01	_
20091112_RATP_SCD_1277	54	16	grandes	NULL	adj	NULL	I_GN	OBJ	13	idtext0065	grand	##f#p##	spk2	143.18	143.41	0.01	_
20091112_RATP_SCD_1277	54	17	qui	NULL	prorel	NULL	B_NULL	SUJ	18	idtext0065	qui	#####	spk2	143.42	143.5	0.01	_
20091112_RATP_SCD_1277	54	18	doivent	NULL	v	NULL	B_GVf	MOD_REL	4	idtext0065	devoir	PS#3##p##	spk2	143.51	143.66	0.01	_
20091112_RATP_SCD_1277	54	19	être	NULL	vinf	NULL	B_GVi	AUX	20	idtext0065	être	W#####	spk2	143.67	143.79	0.01	_
20091112_RATP_SCD_1277	54	20	ouvertes	NULL	vppart	NULL	I_GVi	OBJ	18	idtext0065	ouvrir	K##f#p##	spk2	143.8	144.11	0.01	_
20091112_RATP_SCD_1277	54	21	je	NULL	cln	NULL	B_GN	SUJ	22	idtext0065	cln	#1##s##	spk2	144.12	144.2	0.01	_
20091112_RATP_SCD_1277	54	22	pense	NULL	v	NULL	B_GVf	ROOT	0	idtext0065	penser	PS#13##s##	spk2	144.21	145.14	?	//

20091112_RATP_SCD_1277	55	1	mais	NULL	coo	NULL	B_NULL	ROOT	0	idtext0066	mais	#####	spk1	145.18	145.26	0.01	_
20091112_RATP_SCD_1277	55	2	là	NULL	adv	NULL	B_GADV	MOD	4	idtext0066	là	#####	spk1	145.27	145.43	0.01	_
20091112_RATP_SCD_1277	55	3	je	NULL	cln	NULL	B_GN	SUJ	4	idtext0066	cln	#1##s##	spk1	145.44	145.57	0.01	_
20091112_RATP_SCD_1277	55	4	vois	NULL	v	NULL	B_GVf	DEP_COORD	1	idtext0066	voir	P#12##s##	spk1	145.58	145.73	0.01	_
20091112_RATP_SCD_1277	55	5	il	NULL	cln	NULL	B_GN	SUJ_IMP	8	idtext0066	cln	#3#m#s##	spk1	145.74	145.79	0.01	_
20091112_RATP_SCD_1277	55	6	y	NULL	clo	NULL	B_GN	AFF	8	idtext0066	y	#####	spk1	145.8	145.82	0.01	_
20091112_RATP_SCD_1277	55	7	en	NULL	clo	NULL	B_GN	OBJ	8	idtext0066	en	#####	spk1	145.83	145.92	0.01	_
20091112_RATP_SCD_1277	55	8	a	NULL	v	NULL	B_GVf	P_OBJ	4	idtext0066	avoir	P#3##s##	spk1	145.93	145.95	0.01	_
20091112_RATP_SCD_1277	55	9	un	NULL	pro	NULL	B_GN	OBJ	8	idtext0066	un	#####	spk1	145.96	146.01	0.01	_
20091112_RATP_SCD_1277	55	10	qui	DISF_R	prorel	NULL	NULL	NOLINK	0	idtext0066	qui	#####	spk1	146.02	146.18	0.01	_
20091112_RATP_SCD_1277	55	11	va	DISF_R	v	NULL	NULL	NOLINK	0	idtext0066	aller	P#3##s##	spk1	146.19	146.45	0.01	/
20091112_RATP_SCD_1277	55	12	qui	NULL	prorel	NULL	B_NULL	SUJ	13	idtext0066	qui	#####	spk1	146.46	146.57	0.01	_
20091112_RATP_SCD_1277	55	13	arrive	NULL	v	NULL	B_GVf	MOD_REL	9	idtext0066	arriver	PS#13##s##	spk1	146.58	146.81	0.01	_
20091112_RATP_SCD_1277	55	14	à	NULL	prep	NULL	B_GP	P_OBJ_LOC	13	idtext0066	à	#####	spk1	146.82	146.84	0.01	_
20091112_RATP_SCD_1277	55	15	Antony	NULL	nc	B_A	I_GP	OBJ	14	idtext0066	Antony	##m#s##	spk1	146.85	147.25	0.01	_
20091112_RATP_SCD_1277	55	16	il	NULL	cln	NULL	B_GN	SUJ_IMP	19	idtext0066	cln	#3#m#s##	spk1	147.26	147.39	0.01	_
20091112_RATP_SCD_1277	55	17	y	NULL	clo	NULL	B_GN	AFF	19	idtext0066	y	#####	spk1	147.4	147.42	0.01	_
20091112_RATP_SCD_1277	55	18	en	NULL	clo	NULL	B_GN	OBJ	19	idtext0066	en	#####	spk1	147.43	147.52	0.01	_
20091112_RATP_SCD_1277	55	19	a	NULL	v	NULL	B_GVf	P_OBJ	15	idtext0066	avoir	P#3##s##	spk1	147.53	147.55	0.01	_
20091112_RATP_SCD_1277	55	20	un	NULL	pro	NULL	B_GN	OBJ	19	idtext0066	un	#####	spk1	147.56	147.7	0.01	_
20091112_RATP_SCD_1277	55	21	qu'	NULL	prorel	NULL	B_NULL	SUJ	23	idtext0066	qu'	#####	spk1	147.71	147.77	0.01	_
20091112_RATP_SCD_1277	55	22	est	NULL	v	NULL	B_GVf	AUX	23	idtext0066	être	P#3##s##	spk1	147.78	147.84	0.01	_
20091112_RATP_SCD_1277	55	23	arrivé	NULL	vppart	NULL	I_GVf	MOD_REL	20	idtext0066	arriver	K##m#s##	spk1	147.85	148.33	0.01	_
20091112_RATP_SCD_1277	55	24	aussi	NULL	adv	NULL	B_GADV	MOD	23	idtext0066	aussi	#####	spk1	148.34	148.76	0.01	_
20091112_RATP_SCD_1277	55	25	là	NULL	adv	NULL	I_GADV	MOD	23	idtext0066	là	#####	spk1	148.77	149.09	0.01	_
20091112_RATP_SCD_1277	55	26	donc	NULL	coo	NULL	B_NULL	NOLINK	0	idtext0066	donc	#####	spk1	149.1	149.37	0.01	_
20091112_RATP_SCD_1277	55	27	euh	DISF_M	pres	NULL	NULL	NOLINK	0	idtext0066	euh	#####	spk1	149.38	150.42	0.43	_
20091112_RATP_SCD_1277	55	28	et	NULL	coo	NULL	B_NULL	ROOT	0	idtext0067	et	#####	spk1	150.85	150.9	0.01	_
20091112_RATP_SCD_1277	55	29	là	NULL	adv	NULL	B_GADV	NOLINK	0	idtext0067	là	#####	spk1	150.91	151.01	0.01	_
20091112_RATP_SCD_1277	55	30	j'	NULL	cln	NULL	B_GN	SUJ	32	idtext0067	cln	#1##s##	spk1	151.02	151.08	0.01	_
20091112_RATP_SCD_1277	55	31	en	NULL	clo	NULL	B_GN	OBJ	32	idtext0067	en	#####	spk1	151.09	151.17	0.01	_
20091112_RATP_SCD_1277	55	32	ai	NULL	v	NULL	B_GVf	DEP_COORD	28	idtext0067	avoir	P#1##s##	spk1	151.18	151.22	0.01	_
20091112_RATP_SCD_1277	55	33	un	NULL	det	NULL	B_GN	DET	34	idtext0067	un	##m#s##i	spk1	151.23	151.29	0.01	_
20091112_RATP_SCD_1277	55	34	arrivée	NULL	nc	NULL	I_GN	OBJ	32	idtext0067	arrivée	##f#s##	spk1	151.3	151.53	0.01	_
20091112_RATP_SCD_1277	55	35	un	NULL	pro	NULL	I_GN	ROOT	0	idtext0067	un	#####	spk1	151.54	151.67	0.01	/
20091112_RATP_SCD_1277	55	36	qui	NULL	prorel	NULL	B_NULL	SUJ	37	idtext0067	qui	#####	spk1	151.68	151.79	0.01	_
20091112_RATP_SCD_1277	55	37	va	NULL	v	NULL	B_GVf	MOD_REL	35	idtext0067	aller	P#3##s##	spk1	151.8	151.91	0.01	_
20091112_RATP_SCD_1277	55	38	arriver	NULL	vinf	NULL	I_GVf	OBJ	37	idtext0067	arriver	W#####	spk1	151.92	152.27	0.01	_
20091112_RATP_SCD_1277	55	39	au	NULL	prep	NULL	B_GP	P_OBJ_LOC	38	idtext0067	au	#####	spk1	152.28	152.31	0.01	_
20091112_RATP_SCD_1277	55	40	parc	NULL	nc	B_A	I_GP	OBJ	39	idtext0067	parc	##m#s##	spk1	152.32	152.49	0.01	_
20091112_RATP_SCD_1277	55	41	de	NULL	prep	I_A	I_GP	DEP	40	idtext0067	de	#####	spk1	152.5	152.6	0.01	_
20091112_RATP_SCD_1277	55	42	Sceaux	NULL	np	I_A	I_GP	OBJ	41	idtext0067	Sceaux	##m#s##	spk1	152.61	152.91	0.01	_
20091112_RATP_SCD_1277	55	43	qui	NULL	prorel	NULL	B_NULL	SUJ	44	idtext0067	qui	#####	spk1	152.92	153.05	0.01	_
20091112_RATP_SCD_1277	55	44	est	NULL	v	NULL	B_GVf	MOD_REL	35	idtext0067	être	P#3##s##	spk1	153.06	153.14	0.01	_
20091112_RATP_SCD_1277	55	45	à	NULL	prep	NULL	B_GP	P_OBJ_LOC	44	idtext0067	à	#####	spk1	153.15	153.25	0.01	_
20091112_RATP_SCD_1277	55	46	Bourg-la-Reine	NULL	nc	B_A	I_GP	OBJ	45	idtext0067	Bourg-la-Reine	##m#s##	spk1	153.26	153.8	0.01	_
20091112_RATP_SCD_1277	55	47	en	NULL	prep	NULL	B_GP	MOD	44	idtext0067	en	#####	spk1	153.81	153.94	0.01	_
20091112_RATP_SCD_1277	55	48	ce	NULL	det	NULL	I_GP	DET	49	idtext0067	ce	##m#s##e	spk1	153.95	153.98	0.01	_
20091112_RATP_SCD_1277	55	49	moment	NULL	nc	NULL	I_GP	OBJ	47	idtext0067	moment	##m#s##	spk1	153.99	154.97	?	//

20091112_RATP_SCD_1277	56	1	ouais	NULL	adv	NULL	B_GADV	NOLINK	0	idtext0068	ouais	#####	spk2	155.01	155.26	?	//

20091112_RATP_SCD_1277	57	1	donc	NULL	coo	NULL	B_NULL	ROOT	0	idtext0069	donc	#####	spk1	155.55	155.76	0.01	_
20091112_RATP_SCD_1277	57	2	à	NULL	prep	NULL	B_GP	DEP_COORD	1	idtext0069	à	#####	spk1	155.77	155.79	0.01	_
20091112_RATP_SCD_1277	57	3	mon	NULL	det	NULL	I_GP	DET	4	idtext0069	mon	###s##o	spk1	155.8	155.99	0.01	_
20091112_RATP_SCD_1277	57	4	avis	NULL	nc	NULL	I_GP	OBJ	2	idtext0069	avis	##m###	spk1	156.0	156.36	?	//

20091112_RATP_SCD_1277	58	1	mais	NULL	coo	NULL	B_NULL	ROOT	0	idtext0070	mais	#####	spk1	156.4	156.47	0.01	_
20091112_RATP_SCD_1277	58	2	elle	DISF_R	pro	NULL	NULL	NOLINK	0	idtext0070	elle	#####	spk1	156.48	156.7	0.01	_
20091112_RATP_SCD_1277	58	3	elle	NULL	pro	NULL	B_GN	NOLINK	0	idtext0070	elle	#####	spk1	156.71	156.79	0.01	_
20091112_RATP_SCD_1277	58	4	le	NULL	det	NULL	B_GN	DET	5	idtext0070	le	##m#s##d	spk1	156.8	156.88	0.01	_
20091112_RATP_SCD_1277	58	5	problème	NULL	nc	NULL	I_GN	SUJ	7	idtext0070	problème	##m#s##	spk1	156.89	157.25	0.01	_
20091112_RATP_SCD_1277	58	6	c'	NULL	cln	NULL	B_GN	SUJ_IMP	7	idtext0070	ce	###s##	spk1	157.26	157.3	0.01	_
20091112_RATP_SCD_1277	58	7	est	NULL	v	NULL	B_GVf	DEP_COORD	1	idtext0070	être	P#3##s##	spk1	157.31	157.35	0.01	_
20091112_RATP_SCD_1277	58	8	qu'	NULL	csu	NULL	B_NULL	ATS	7	idtext0070	qu'	#####	spk1	157.36	157.41	0.01	_
20091112_RATP_SCD_1277	58	9	elle	NULL	cln	NULL	B_GN	SUJ	10	idtext0070	cln	#3#f#s##	spk1	157.42	157.55	0.01	_
20091112_RATP_SCD_1277	58	10	est	NULL	v	NULL	B_GVf	OBJ	8	idtext0070	être	P#3##s##	spk1	157.56	157.71	0.01	_
20091112_RATP_SCD_1277	58	11	encore	NULL	adv	NULL	B_GADV	MOD	17	idtext0070	encore	#####	spk1	157.72	158.08	0.01	_
20091112_RATP_SCD_1277	58	12	sur	DISF_R	prep	NULL	NULL	NOLINK	0	idtext0070	sur	#####	spk1	158.09	158.29	0.01	_
20091112_RATP_SCD_1277	58	13	euh	DISF_M	pres	NULL	NULL	NOLINK	0	idtext0070	euh	#####	spk1	158.3	158.61	0.01	_
20091112_RATP_SCD_1277	58	14	de	NULL	prep	NULL	B_GP	MOD	17	idtext0070	de	#####	spk1	158.62	158.64	0.01	_
20091112_RATP_SCD_1277	58	15	l'	NULL	det	NULL	I_GP	DET	17	idtext0070	le	###s##d	spk1	158.65	158.68	0.01	_
20091112_RATP_SCD_1277	58	16	autre	NULL	adj	NULL	I_GP	MOD	17	idtext0070	autre	###s##	spk1	158.69	158.78	0.01	_
20091112_RATP_SCD_1277	58	17	côté	NULL	nc	NULL	I_GP	ATS	10	idtext0070	côté	##m#s##	spk1	158.79	159.65	?	//

20091112_RATP_SCD_1277	59	1	ouais	NULL	adv	NULL	B_GADV	NOLINK	0	idtext0071	ouais	#####	spk2	159.69	159.87	0.01	_
20091112_RATP_SCD_1277	59	2	elle	NULL	cln	NULL	B_GN	SUJ	3	idtext0071	cln	#3#f#s##	spk2	159.88	159.93	0.01	_
20091112_RATP_SCD_1277	59	3	est	NULL	v	NULL	B_GVf	ROOT	0	idtext0071	être	P#3##s##	spk2	159.94	159.97	0.01	_
20091112_RATP_SCD_1277	59	4	de	NULL	prep	NULL	B_GP	ATS	3	idtext0071	de	#####	spk2	159.98	160.01	0.01	_
20091112_RATP_SCD_1277	59	5	l'	NULL	det	NULL	I_GP	DET	7	idtext0071	le	###s##d	spk2	160.02	160.04	0.01	_
20091112_RATP_SCD_1277	59	6	autre	NULL	adj	NULL	I_GP	MOD	7	idtext0071	autre	###s##	spk2	160.05	160.14	0.01	_
20091112_RATP_SCD_1277	59	7	côté	NULL	nc	NULL	I_GP	OBJ	4	idtext0071	côté	##m#s##	spk2	160.15	160.34	0.01	_
20091112_RATP_SCD_1277	59	8	et+puis	NULL	coo	NULL	B_NULL	COORD	3	idtext0071	et+puis	#####	spk2	160.35	160.48	0.01	_
20091112_RATP_SCD_1277	59	9	elle	NULL	cln	NULL	B_GN	SUJ	10	idtext0071	cln	#3#f#s##	spk2	160.49	160.56	0.01	_
20091112_RATP_SCD_1277	59	10	finit	NULL	v	NULL	B_GVf	DEP_COORD	8	idtext0071	finir	J#3##s##	spk2	160.57	160.76	0.01	_
20091112_RATP_SCD_1277	59	11	à	NULL	prep	NULL	B_GP	MOD	10	idtext0071	à	#####	spk2	160.77	160.83	0.01	_
20091112_RATP_SCD_1277	59	12	huit	NULL	det	B_H	I_GP	DET	13	idtext0071	huit	#####	spk2	160.84	161.05	0.01	_
20091112_RATP_SCD_1277	59	13	heures	NULL	nc	I_H	I_GP	OBJ	11	idtext0071	heure	##f#p##	spk2	161.06	161.98	?	//

20091112_RATP_SCD_1277	60	1	oui	NULL	adv	NULL	B_GADV	NOLINK	0	idtext0072	oui	#####	spk1	162.03	162.51	0.01	_
20091112_RATP_SCD_1277	60	2	donc	NULL	coo	NULL	B_NULL	ROOT	0	idtext0072	donc	#####	spk1	162.52	162.78	0.01	_
20091112_RATP_SCD_1277	60	3	euh	DISF_M	pres	NULL	NULL	NOLINK	0	idtext0072	euh	#####	spk1	162.79	163.0	0.01	_
20091112_RATP_SCD_1277	60	4	mais	NULL	coo	NULL	B_NULL	COORD	2	idtext0072	mais	#####	spk1	163.01	163.09	0.01	_
20091112_RATP_SCD_1277	60	5	elle	NULL	cln	NULL	B_GN	SUJ	6	idtext0072	cln	#3#f#s##	spk1	163.1	163.31	0.01	_
20091112_RATP_SCD_1277	60	6	risque	NULL	v	NULL	B_GVf	DEP_COORD	4	idtext0072	risquer	PS#13##s##	spk1	163.32	163.55	0.01	_
20091112_RATP_SCD_1277	60	7	d'	NULL	prep	NULL	B_GP	OBJ	6	idtext0072	d'	#####	spk1	163.56	163.61	0.01	_
20091112_RATP_SCD_1277	60	8	avoir	NULL	vinf	NULL	I_GP	OBJ	7	idtext0072	avoir	W#####	spk1	163.62	163.8	0.01	_
20091112_RATP_SCD_1277	60	9	du	NULL	prep	NULL	B_GP	P_OBJ_LOC	8	idtext0072	du	#####	spk1	163.81	163.9	0.01	_
20091112_RATP_SCD_1277	60	10	retard	NULL	nc	NULL	I_GP	OBJ	9	idtext0072	retard	##m#s##	spk1	163.91	164.2	0.01	/
20091112_RATP_SCD_1277	60	11	quand+même	NULL	adv	NULL	B_GADV	MOD	8	idtext0072	quand+même	#####	spk1	164.21	164.57	0.01	_
20091112_RATP_SCD_1277	60	12	hein	DISF_M	pres	NULL	NULL	NOLINK	0	idtext0072	hein	#####	spk1	164.58	165.25	?	//

20091112_RATP_SCD_1277	61	1	ouais	NULL	adv	NULL	B_GADV	MOD	2	idtext0073	ouais	#####	spk2	165.29	165.73	0.01	_
20091112_RATP_SCD_1277	61	2	d'accord	NULL	adv	NULL	I_GADV	ROOT	0	idtext0073	d'accord	#####	spk2	165.74	166.33	?	_

20091112_RATP_SCD_1277	62	1	voilà	DISF_M	pres	NULL	NULL	NOLINK	0	idtext0074	voilà	#####	spk1	166.37	167.15	?	//

20091112_RATP_SCD_1277	63	1	OK	NULL	adv	NULL	B_GADV	NOLINK	0	idtext0075	ok	#####	spk2	167.19	167.35	0.01	_
20091112_RATP_SCD_1277	63	2	c'	NULL	cln	NULL	B_GN	SUJ_IMP	3	idtext0075	ce	###s##	spk2	167.36	167.38	0.01	_
20091112_RATP_SCD_1277	63	3	était	NULL	v	NULL	B_GVf	ROOT	0	idtext0075	être	I#3##s##	spk2	167.39	167.54	0.01	_
20091112_RATP_SCD_1277	63	4	juste	NULL	adv	NULL	B_GADV	MOD	8	idtext0075	juste	###s##	spk2	167.55	167.73	0.01	_
20091112_RATP_SCD_1277	63	5	pour	NULL	prep	NULL	B_GP	MOD	3	idtext0075	pour	#####	spk2	167.74	167.83	0.01	_
20091112_RATP_SCD_1277	63	6	la	NULL	clo	NULL	I_GP	OBJ	7	idtext0075	cla	#3#f#s##	spk2	167.84	167.94	0.01	_
20091112_RATP_SCD_1277	63	7	prévenir	NULL	vinf	NULL	B_GVi	OBJ	5	idtext0075	prévenir	W#####	spk2	167.95	168.63	0.01	_
20091112_RATP_SCD_1277	63	8	savoir	NULL	vinf	NULL	B_GVi	OBJ	5	idtext0075	savoir	W#####	spk2	168.64	169.04	0.01	_
20091112_RATP_SCD_1277	63	9	si	NULL	csu	NULL	B_NULL	OBJ	8	idtext0075	si	#####	spk2	169.05	169.16	0.01	_
20091112_RATP_SCD_1277	63	10	on	NULL	cln	NULL	B_GN	SUJ_IMP	11	idtext0075	cln	#3##s##	spk2	169.17	169.28	0.01	_
20091112_RATP_SCD_1277	63	11	devait	NULL	v	NULL	B_GVf	OBJ	9	idtext0075	devoir	I#3##s##	spk2	169.29	169.61	0.01	_
20091112_RATP_SCD_1277	63	12	se	NULL	clr	NULL	B_GVi	AFF	13	idtext0075	se	#####	spk2	169.62	169.64	0.01	_
20091112_RATP_SCD_1277	63	13	déplacer	NULL	vinf	NULL	I_GVi	OBJ	11	idtext0075	déplacer	W#####	spk2	169.65	170.11	0.01	_
20091112_RATP_SCD_1277	63	14	jusqu'à	NULL	prep	NULL	B_NULL	P_OBJ_LOC	13	idtext0075	jusqu'à	#####	spk2	170.12	170.39	0.01	_
20091112_RATP_SCD_1277	63	15	là-bas	NULL	adv	NULL	B_GADV	OBJ	14	idtext0075	là-bas	#####	spk2	170.4	170.58	0.01	_
20091112_RATP_SCD_1277	63	16	en	NULL	prep	NULL	B_GP	MOD	13	idtext0075	en	#####	spk2	170.59	170.7	0.01	_
20091112_RATP_SCD_1277	63	17	voiture	NULL	nc	NULL	I_GP	OBJ	16	idtext0075	voiture	##f#s##	spk2	170.71	170.99	0.01	_
20091112_RATP_SCD_1277	63	18	pour	NULL	prep	NULL	B_GP	MOD	17	idtext0075	pour	#####	spk2	171.0	171.13	0.01	_
20091112_RATP_SCD_1277	63	19	aller	NULL	vinf	NULL	I_GP	OBJ	18	idtext0075	aller	W#####	spk2	171.14	171.27	0.01	_
20091112_RATP_SCD_1277	63	20	la	NULL	clo	NULL	B_GN	OBJ	21	idtext0075	cla	#3#f#s##	spk2	171.28	171.37	0.01	_
20091112_RATP_SCD_1277	63	21	chercher	NULL	vinf	NULL	B_GVi	OBJ	19	idtext0075	chercher	W#####	spk2	171.38	171.88	0.01	_
20091112_RATP_SCD_1277	63	22	ou	NULL	coo	NULL	B_NULL	NOLINK	0	idtext0075	ou	#####	spk2	171.89	172.15	0.01	_
20091112_RATP_SCD_1277	63	23	euh	DISF_M	pres	NULL	NULL	NOLINK	0	idtext0075	euh	#####	spk2	172.16	172.77	?	_

20091112_RATP_SCD_1277	64	1	bah	DISF_M	pres	NULL	NULL	NOLINK	0	idtext0076	bah	#####	spk1	172.85	173.01	0.01	//
20091112_RATP_SCD_1277	64	2	le	NULL	det	NULL	B_GN	DET	3	idtext0076	le	##m#s##d	spk1	173.02	173.12	0.01	_
20091112_RATP_SCD_1277	64	3	problème	NULL	nc	NULL	I_GN	SUJ	5	idtext0076	problème	##m#s##	spk1	173.13	173.51	0.01	//
20091112_RATP_SCD_1277	64	4	c'	NULL	cln	NULL	B_GN	SUJ_IMP	5	idtext0076	ce	###s##	spk1	173.52	173.56	0.01	_
20091112_RATP_SCD_1277	64	5	est	NULL	v	NULL	B_GVf	ROOT	0	idtext0076	être	P#3##s##	spk1	173.57	173.6	0.01	_
20091112_RATP_SCD_1277	64	6	qu'	NULL	csu	NULL	B_NULL	ATS	5	idtext0076	qu'	#####	spk1	173.61	173.67	0.01	_
20091112_RATP_SCD_1277	64	7	après	NULL	prep	NULL	B_GP	MOD	9	idtext0076	après	#####	spk1	173.68	173.96	0.01	_
20091112_RATP_SCD_1277	64	8	ça	NULL	pro	NULL	I_GP	OBJ	7	idtext0076	ça	#####	spk1	173.97	174.06	0.01	_
20091112_RATP_SCD_1277	64	9	dépend	NULL	v	NULL	B_GVf	ATS	5	idtext0076	dépendre	P#3##s##	spk1	174.07	174.31	0.01	_
20091112_RATP_SCD_1277	64	10	des	NULL	det	NULL	B_GN	DET	11	idtext0076	des	###p##i	spk1	174.32	174.4	0.01	_
20091112_RATP_SCD_1277	64	11	conducteurs	NULL	nc	NULL	I_GN	OBJ	9	idtext0076	conducteur	##f#p##	spk1	174.41	174.89	0.01	//
20091112_RATP_SCD_1277	64	12	c'	NULL	cln	NULL	B_GN	SUJ_IMP	13	idtext0076	ce	###s##	spk1	174.9	174.97	0.01	_
20091112_RATP_SCD_1277	64	13	est	NULL	v	NULL	B_GVf	ROOT	0	idtext0076	être	P#3##s##	spk1	174.98	175.01	0.01	_
20091112_RATP_SCD_1277	64	14	ça	NULL	pro	NULL	B_GN	ATS	13	idtext0076	ça	#####	spk1	175.02	175.17	0.01	_
20091112_RATP_SCD_1277	64	15	le	NULL	det	NULL	B_GN	DET	16	idtext0076	le	##m#s##d	spk1	175.18	175.25	0.01	_
20091112_RATP_SCD_1277	64	16	souci	NULL	nc	NULL	I_GN	ATS	13	idtext0076	souci	##m#s##	spk1	175.26	175.55	0.01	_
20091112_RATP_SCD_1277	64	17	donc	NULL	coo	NULL	B_NULL	COORD	13	idtext0076	donc	#####	spk1	175.56	175.82	0.01	/
20091112_RATP_SCD_1277	64	18	euh	DISF_M	pres	NULL	NULL	NOLINK	0	idtext0076	euh	#####	spk1	175.83	175.92	0.01	_
20091112_RATP_SCD_1277	64	19	vous	NULL	cln	NULL	B_GN	SUJ	20	idtext0076	cln	#2##p##	spk1	175.93	176.07	0.01	_
20091112_RATP_SCD_1277	64	20	confirmez	NULL	v	NULL	B_GVf	DEP_COORD	17	idtext0076	confirmer	P#2##p##	spk1	176.08	176.58	0.01	_
20091112_RATP_SCD_1277	64	21	c'	NULL	cln	NULL	B_GN	SUJ_IMP	22	idtext0076	ce	###s##	spk1	176.59	176.67	0.01	_
20091112_RATP_SCD_1277	64	22	est	NULL	v	NULL	B_GVf	ROOT	0	idtext0076	être	P#3##s##	spk1	176.68	176.7	0.01	_
20091112_RATP_SCD_1277	64	23	un+peu	NULL	adv	NULL	B_GADV	ATS	22	idtext0076	un+peu	#####	spk1	176.71	177.12	0.01	_
20091112_RATP_SCD_1277	64	24	euh	DISF_M	pres	NULL	NULL	NOLINK	0	idtext0076	euh	#####	spk1	177.13	177.86	?	//

20091112_RATP_SCD_1277	65	1	ouais	NULL	adv	NULL	B_GADV	NOLINK	0	idtext0077	ouais	#####	spk2	178.08	178.76	?	//

20091112_RATP_SCD_1277	66	1	c'	NULL	cln	NULL	B_GN	SUJ_IMP	2	idtext0078	ce	###s##	spk1	178.8	178.82	0.01	_
20091112_RATP_SCD_1277	66	2	est	NULL	v	NULL	B_GVf	ROOT	0	idtext0078	être	P#3##s##	spk1	178.83	178.85	0.01	_
20091112_RATP_SCD_1277	66	3	ça	NULL	pro	NULL	B_GN	ATS	2	idtext0078	ça	#####	spk1	178.86	179.43	?	_

20091112_RATP_SCD_1277	67	1	c'	NULL	cln	NULL	B_GN	SUJ_IMP	2	idtext0079	ce	###s##	spk1	179.47	179.51	0.01	_
20091112_RATP_SCD_1277	67	2	est	NULL	v	NULL	B_GVf	ROOT	0	idtext0079	être	P#3##s##	spk1	179.52	179.54	0.01	_
20091112_RATP_SCD_1277	67	3	ça	NULL	pro	NULL	B_GN	ATS	2	idtext0079	ça	#####	spk1	179.55	179.6	0.01	_
20091112_RATP_SCD_1277	67	4	le	NULL	det	NULL	B_GN	DET	5	idtext0079	le	##m#s##d	spk1	179.61	179.63	0.01	_
20091112_RATP_SCD_1277	67	5	problème	NULL	nc	NULL	I_GN	ATS	2	idtext0079	problème	##m#s##	spk1	179.64	180.14	?	//

20091112_RATP_SCD_1277	68	1	hm	DISF_M	pres	NULL	NULL	NOLINK	0	idtext0080	hm	#####	spk2	179.61	180.14	?	//

20091112_RATP_SCD_1277	69	1	hm	DISF_M	pres	NULL	NULL	NOLINK	0	idtext0081	hm	#####	spk1	181.44	181.74	?	//

20091112_RATP_SCD_1277	70	1	j'	NULL	cln	NULL	B_GN	SUJ	3	idtext0082	cln	#1##s##	spk2	181.78	181.88	0.01	_
20091112_RATP_SCD_1277	70	2	ai	NULL	v	NULL	B_GVf	AUX	3	idtext0082	avoir	P#1##s##	spk2	181.89	182.11	0.01	_
20091112_RATP_SCD_1277	70	3	regardé	NULL	vppart	NULL	I_GVf	ROOT	0	idtext0082	regarder	K##m#s##	spk2	182.12	182.5	0.01	_
20091112_RATP_SCD_1277	70	4	sur	NULL	prep	NULL	B_GP	P_OBJ	3	idtext0082	sur	#####	spk2	182.51	182.59	0.01	_
20091112_RATP_SCD_1277	70	5	le	NULL	det	NULL	I_GP	DET	6	idtext0082	le	##m#s##d	spk2	182.6	182.68	0.01	_
20091112_RATP_SCD_1277	70	6	site	NULL	nc	NULL	I_GP	OBJ	4	idtext0082	site	##m#s##	spk2	182.69	182.79	0.01	_
20091112_RATP_SCD_1277	70	7	de	NULL	prep	NULL	B_GP	DEP	6	idtext0082	de	#####	spk2	182.8	182.87	0.01	_
20091112_RATP_SCD_1277	70	8	la	NULL	det	NULL	I_GP	DET	9	idtext0082	le	##m#s##d	spk2	182.88	182.93	0.01	_
20091112_RATP_SCD_1277	70	9	RATP	NULL	np	B_ORG	I_GP	OBJ	7	idtext0082	RATP	##f#s##	spk2	182.94	183.55	0.01	_
20091112_RATP_SCD_1277	70	10	sur	NULL	prep	NULL	B_GP	P_OBJ_LOC	9	idtext0082	sur	#####	spk2	183.56	183.67	0.01	_
20091112_RATP_SCD_1277	70	11	internet	NULL	nc	NULL	I_GP	OBJ	10	idtext0082	internet	##m#s##	spk2	183.68	184.16	0.01	_
20091112_RATP_SCD_1277	70	12	mais	NULL	coo	NULL	B_NULL	COORD	9	idtext0082	mais	#####	spk2	184.17	184.37	0.01	_
20091112_RATP_SCD_1277	70	13	euh	DISF_M	pres	NULL	NULL	NOLINK	0	idtext0082	euh	#####	spk2	184.38	184.53	0.01	_
20091112_RATP_SCD_1277	70	14	c'	NULL	cln	NULL	B_GN	SUJ_IMP	17	idtext0082	ce	###s##	spk2	184.54	184.57	0.01	_
20091112_RATP_SCD_1277	70	15	est	NULL	v	NULL	B_GVfn	AUX	17	idtext0082	être	P#3##s##	spk2	184.58	184.61	0.01	_
20091112_RATP_SCD_1277	70	16	pas	NULL	advneg	NULL	I_GVfn	MOD	17	idtext0082	pas	#####	spk2	184.62	184.74	0.01	_
20091112_RATP_SCD_1277	70	17	précisé	NULL	vppart	NULL	I_GVfn	DEP_COORD	12	idtext0082	préciser	K##m#s##	spk2	184.75	185.22	0.01	_
20091112_RATP_SCD_1277	70	18	quoi	DISF_M	pres	NULL	NULL	NOLINK	0	idtext0082	quoi	#####	spk2	185.23	185.42	0.01	_
20091112_RATP_SCD_1277	70	19	il	NULL	cln	NULL	B_GN	SUJ	20	idtext0082	cln	#3#m#s##	spk2	185.43	185.55	0.01	_
20091112_RATP_SCD_1277	70	20	marque	NULL	v	NULL	B_GVf	ROOT	0	idtext0082	marquer	PS#13##s##	spk2	185.56	185.96	0.01	_
20091112_RATP_SCD_1277	70	21	trois	NULL	nc	NULL	B_GN	OBJ	20	idtext0082	trois	##m###	spk2	185.97	186.44	0.01	_
20091112_RATP_SCD_1277	70	22	euh	DISF_M	pres	NULL	NULL	NOLINK	0	idtext0082	euh	#####	spk2	186.45	186.51	?	//

20091112_RATP_SCD_1277	71	1	voilà	DISF_M	pres	NULL	NULL	NOLINK	0	idtext0083	voilà	#####	spk1	186.55	186.75	0.01	_
20091112_RATP_SCD_1277	71	2	ils	NULL	cln	NULL	B_GN	SUJ	3	idtext0083	cln	#3#m#p##	spk1	186.76	186.81	0.01	_
20091112_RATP_SCD_1277	71	3	mettent	NULL	v	NULL	B_GVf	ROOT	0	idtext0083	mettre	PS#3##p##	spk1	186.82	186.98	0.01	_
20091112_RATP_SCD_1277	71	4	trois	NULL	adj	NULL	B_GADJ	ATS	3	idtext0083	trois	#####	spk1	186.99	187.2	0.01	_
20091112_RATP_SCD_1277	71	5	sur	NULL	prep	NULL	B_NULL	ROOT	0	idtext0083	sur	#####	spk1	187.21	187.4	0.01	_
20091112_RATP_SCD_1277	71	6	quatre	NULL	adj	NULL	B_GADJ	OBJ	5	idtext0083	quatre	#####	spk1	187.41	187.75	0.01	_
20091112_RATP_SCD_1277	71	7	et	NULL	coo	NULL	B_NULL	NOLINK	0	idtext0083	et	#####	spk1	187.76	187.84	0.01	_
20091112_RATP_SCD_1277	71	8	en+fait	GREF	adv	NULL	B_GADV	NOLINK	0	idtext0083	en+fait	#####	spk1	187.85	188.5	?	_

20091112_RATP_SCD_1277	72	1	trains	NULL	nc	NULL	B_GN	NOLINK	0	idtext0084	train	##m#p##	spk2	186.65	186.98	0.01	_
20091112_RATP_SCD_1277	72	2	sur	NULL	prep	NULL	B_NULL	ROOT	0	idtext0084	sur	#####	spk2	186.99	187.4	0.01	_
20091112_RATP_SCD_1277	72	3	quatre	NULL	adj	NULL	B_GADJ	OBJ	2	idtext0084	quatre	#####	spk2	187.41	188.11	0.01	_
20091112_RATP_SCD_1277	72	4	euh	DISF_M	pres	NULL	NULL	NOLINK	0	idtext0084	euh	#####	spk2	188.12	188.18	0.01	_
20091112_RATP_SCD_1277	72	5	ouais	NULL	adv	NULL	B_GADV	NOLINK	0	idtext0084	ouais	#####	spk2	188.19	188.5	?	//

20091112_RATP_SCD_1277	73	1	des+fois	NULL	adv	NULL	B_GADV	MOD	3	idtext0085	des+fois	#####	spk1	188.54	188.81	0.01	_
20091112_RATP_SCD_1277	73	2	c'	NULL	cln	NULL	B_GN	SUJ_IMP	3	idtext0085	ce	###s##	spk1	188.82	188.98	0.01	_
20091112_RATP_SCD_1277	73	3	est	NULL	v	NULL	B_GVf	ROOT	0	idtext0085	être	P#3##s##	spk1	188.99	189.04	0.01	_
20091112_RATP_SCD_1277	73	4	moins	NULL	adv	NULL	B_GADV	MOD	6	idtext0085	moins	#####	spk1	189.05	189.27	0.01	_
20091112_RATP_SCD_1277	73	5	que	NULL	csu	NULL	B_NULL	ARG_COMP	4	idtext0085	que	#####	spk1	189.28	189.39	0.01	_
20091112_RATP_SCD_1277	73	6	ça	NULL	pro	NULL	B_GN	ATS	3	idtext0085	ça	#####	spk1	189.4	190.3	?	_

20091112_RATP_SCD_1277	74	1	ouais	NULL	adv	NULL	B_GADV	NOLINK	0	idtext0086	ouais	#####	spk2	190.34	190.79	?	//

20091112_RATP_SCD_1277	75	1	hein	DISF_M	pres	NULL	NULL	NOLINK	0	idtext0087	hein	#####	spk1	190.83	191.39	?	//

20091112_RATP_SCD_1277	76	1	d'accord	NULL	adv	NULL	B_GADV	NOLINK	0	idtext0088	d'accord	#####	spk2	191.67	192.22	?	//

20091112_RATP_SCD_1277	77	1	hm	DISF_M	pres	NULL	NULL	NOLINK	0	idtext0089	hm	#####	spk1	192.35	192.65	?	//

20091112_RATP_SCD_1277	78	1	OK	NULL	adv	NULL	B_GADV	NOLINK	0	idtext0090	ok	#####	spk2	193.29	193.72	0.01	_
20091112_RATP_SCD_1277	78	2	bon	DISF_M	pres	NULL	NULL	NOLINK	0	idtext0090	bon	#####	spk2	193.73	193.91	0.01	_
20091112_RATP_SCD_1277	78	3	on	NULL	cln	NULL	B_GN	SUJ_IMP	4	idtext0090	cln	#3##s##	spk2	193.92	193.94	0.01	_
20091112_RATP_SCD_1277	78	4	va	NULL	v	NULL	B_GVf	ROOT	0	idtext0090	aller	P#3##s##	spk2	193.95	194.06	0.01	_
20091112_RATP_SCD_1277	78	5	patienter	NULL	vinf	NULL	I_GVf	OBJ	4	idtext0090	patienter	W#####	spk2	194.07	194.59	0.01	_
20091112_RATP_SCD_1277	78	6	alors	NULL	adv	NULL	B_GADV	NOLINK	0	idtext0090	alors	#####	spk2	194.6	195.45	?	//

20091112_RATP_SCD_1277	79	1	bah	DISF_M	pres	NULL	NULL	NOLINK	0	idtext0091	bah	#####	spk2	196.71	196.76	0.01	_
20091112_RATP_SCD_1277	79	2	je	NULL	cln	NULL	B_GN	SUJ	4	idtext0091	cln	#1##s##	spk2	196.77	196.79	0.01	_
20091112_RATP_SCD_1277	79	3	vous	NULL	clo	NULL	B_GN	OBJ	4	idtext0091	cln	#2##p##	spk2	196.8	196.85	0.01	_
20091112_RATP_SCD_1277	79	4	remercie	NULL	v	NULL	B_GVf	ROOT	0	idtext0091	remercier	PS#13##s##	spk2	196.86	197.2	0.01	_
20091112_RATP_SCD_1277	79	5	beaucoup	NULL	adv	NULL	B_GADV	MOD	4	idtext0091	beaucoup	#####	spk2	197.21	197.54	?	_

20091112_RATP_SCD_1277	80	1	bah	DISF_M	pres	NULL	NULL	NOLINK	0	idtext0092	bah	#####	spk1	197.58	197.63	0.01	_
20091112_RATP_SCD_1277	80	2	je	NULL	cln	NULL	B_GN	SUJ	5	idtext0092	cln	#1##s##	spk1	197.64	197.72	0.01	_
20091112_RATP_SCD_1277	80	3	vous	NULL	clo	NULL	B_GN	OBJ	5	idtext0092	cln	#2##p##	spk1	197.73	197.9	0.01	_
20091112_RATP_SCD_1277	80	4	en	NULL	clo	NULL	B_GN	DE_OBJ	5	idtext0092	en	#####	spk1	197.91	197.97	0.01	_
20091112_RATP_SCD_1277	80	5	prie	NULL	v	NULL	B_GVf	ROOT	0	idtext0092	prier	PS#13##s##	spk1	197.98	198.35	?	//

20091112_RATP_SCD_1277	81	1	bonne	NULL	adj	NULL	B_GN	MOD	2	idtext0093	bon	##f#s##	spk2	197.63	197.81	0.01	_
20091112_RATP_SCD_1277	81	2	soirée	NULL	nc	NULL	I_GN	ROOT	0	idtext0093	soirée	##f#s##	spk2	197.82	198.35	?	//

20091112_RATP_SCD_1277	82	1	bonne	NULL	adj	NULL	B_GN	MOD	2	idtext0094	bon	##f#s##	spk1	198.39	198.54	0.01	_
20091112_RATP_SCD_1277	82	2	soirée	NULL	nc	NULL	I_GN	ROOT	0	idtext0094	soirée	##f#s##	spk1	198.55	198.83	?	//

20091112_RATP_SCD_1277	83	1	au+revoir	NULL	adv	NULL	B_GADV	NOLINK	0	idtext0095	au+revoir	#####	spk2	198.89	199.3	?	//

20091112_RATP_SCD_1277	84	1	au+revoir	NULL	adv	NULL	B_GADV	NOLINK	0	idtext0096	au+revoir	#####	spk1	198.89	199.3	?	//

