20091112_RATP_SCD_0341	1	1	NNAAMMEE	NULL	np	B_HU	B_GN	ROOT	0	idtext0000	ANONYM	NULL	spk1	1.65	2.57	0.01	_
20091112_RATP_SCD_0341	1	2	bonjour	NULL	adv	NULL	B_GADV	NOLINK	0	idtext0001	bonjour	#####	spk1	2.58	3.96	?	//

20091112_RATP_SCD_0341	2	1	oui	NULL	adv	NULL	B_GADV	MOD	2	idtext0002	oui	#####	spk2	4.0	4.17	0.01	_
20091112_RATP_SCD_0341	2	2	bonjour	NULL	adv	NULL	I_GADV	ROOT	0	idtext0002	bonjour	#####	spk2	4.18	4.54	0.01	_
20091112_RATP_SCD_0341	2	3	madame	NULL	nc	NULL	B_GN	NOLINK	0	idtext0002	Monsieur	##f#s##	spk2	4.55	5.08	0.01	_
20091112_RATP_SCD_0341	2	4	euh	DISF_M	pres	NULL	NULL	NOLINK	0	idtext0002	euh	#####	spk2	5.09	5.23	0.01	_
20091112_RATP_SCD_0341	2	5	excusez	NULL	v	NULL	B_GVf	ROOT	0	idtext0002	excuser	P#2##p##	spk2	5.24	5.57	0.01	_
20091112_RATP_SCD_0341	2	6	-moi	NULL	clo	NULL	B_GN	OBJ	5	idtext0002	cla	#1##s##	spk2	5.58	5.7	0.01	_
20091112_RATP_SCD_0341	2	7	j'	NULL	cln	NULL	B_GN	SUJ	9	idtext0002	cln	#1##s##	spk2	5.71	5.79	0.01	_
20091112_RATP_SCD_0341	2	8	ai	NULL	v	NULL	B_GVf	AUX	9	idtext0002	avoir	P#1##s##	spk2	5.8	5.87	0.01	_
20091112_RATP_SCD_0341	2	9	oublié	NULL	vppart	NULL	I_GVf	ROOT	0	idtext0002	oublier	K##m#s##	spk2	5.88	6.46	0.01	_
20091112_RATP_SCD_0341	2	10	euh	DISF_M	pres	NULL	NULL	NOLINK	0	idtext0002	euh	#####	spk2	6.47	6.49	0.01	_
20091112_RATP_SCD_0341	2	11	un	NULL	det	NULL	B_GN	DET	12	idtext0002	un	##m#s##i	spk2	6.5	6.95	0.01	_
20091112_RATP_SCD_0341	2	12	pull	NULL	nc	NULL	I_GN	OBJ	9	idtext0002	pull	##m#s##	spk2	6.96	7.09	0.01	_
20091112_RATP_SCD_0341	2	13	dans	NULL	prep	NULL	B_GP	P_OBJ_LOC	9	idtext0002	dans	#####	spk2	7.1	7.21	0.01	_
20091112_RATP_SCD_0341	2	14	le	NULL	det	NULL	I_GP	DET	15	idtext0002	le	##m#s##d	spk2	7.22	7.33	0.01	_
20091112_RATP_SCD_0341	2	15	bus	NULL	nc	B_T	I_GP	OBJ	13	idtext0002	bus	##m###	spk2	7.34	7.55	0.01	_
20091112_RATP_SCD_0341	2	16	deux+cent+quatre-vingt-un	NULL	adj	I_T	I_GP	MOD	15	idtext0002	deux+cent+quatre-vingt-un	#####	spk2	7.56	8.39	0.01	_
20091112_RATP_SCD_0341	2	17	je	NULL	cln	NULL	B_GN	SUJ	18	idtext0002	cln	#1##s##	spk2	8.4	8.52	0.01	_
20091112_RATP_SCD_0341	2	18	sais	NULL	v	NULL	B_GVfn	ROOT	0	idtext0002	savoir	P#12##s##	spk2	8.53	8.64	0.01	_
20091112_RATP_SCD_0341	2	19	pas	NULL	advneg	NULL	I_GVfn	MOD	18	idtext0002	pas	#####	spk2	8.65	8.86	0.01	_
20091112_RATP_SCD_0341	2	20	si	NULL	csu	NULL	B_NULL	OBJ	18	idtext0002	si	#####	spk2	8.87	8.94	0.01	_
20091112_RATP_SCD_0341	2	21	c'	NULL	cln	NULL	B_GN	SUJ_IMP	22	idtext0002	ce	###s##	spk2	8.95	9.07	0.01	_
20091112_RATP_SCD_0341	2	22	est	NULL	v	NULL	B_GVf	OBJ	20	idtext0002	être	P#3##s##	spk2	9.08	9.18	0.01	_
20091112_RATP_SCD_0341	2	23	chez	NULL	prep	NULL	B_GP	ATS	22	idtext0002	chez	#####	spk2	9.19	9.36	0.01	_
20091112_RATP_SCD_0341	2	24	vous	NULL	pro	NULL	I_GP	OBJ	23	idtext0002	vous	#####	spk2	9.37	9.51	0.01	/
20091112_RATP_SCD_0341	2	25	qu'	NULL	prorel	NULL	B_NULL	OBJ	27	idtext0002	qu'	#####	spk2	9.52	9.58	0.01	_
20091112_RATP_SCD_0341	2	26	il	NULL	cln	NULL	B_GN	SUJ_IMP	27	idtext0002	cln	#3#m#s##	spk2	9.59	9.64	0.01	_
20091112_RATP_SCD_0341	2	27	faut	NULL	v	NULL	B_GVf	MOD_REL	24	idtext0002	falloir	P#3##s##	spk2	9.65	9.81	0.01	_
20091112_RATP_SCD_0341	2	28	s'	NULL	clr	NULL	B_GVi	AFF	29	idtext0002	se	#3##p##	spk2	9.82	9.84	0.01	_
20091112_RATP_SCD_0341	2	29	adresser	NULL	vinf	NULL	I_GVi	OBJ	27	idtext0002	adresser	W#####	spk2	9.85	10.23	0.01	_
20091112_RATP_SCD_0341	2	30	ou	NULL	coo	NULL	B_NULL	COORD	29	idtext0002	ou	#####	spk2	10.24	10.31	0.01	_
20091112_RATP_SCD_0341	2	31	pas	NULL	advneg	NULL	B_NULL	DEP_COORD	30	idtext0002	pas	#####	spk2	10.32	10.98	?	_

20091112_RATP_SCD_0341	3	1	le	NULL	det	NULL	B_GN	DET	2	idtext0003	le	##m#s##d	spk1	11.05	11.07	0.01	_
20091112_RATP_SCD_0341	3	2	pull	NULL	nc	NULL	I_GN	OBJ	6	idtext0003	pull	##m#s##	spk1	11.08	11.45	0.01	/
20091112_RATP_SCD_0341	3	3	vous	NULL	cln	NULL	B_GN	SUJ	6	idtext0003	cln	#2##p##	spk1	11.46	11.7	0.01	_
20091112_RATP_SCD_0341	3	4	l'	NULL	clo	NULL	B_GN	OBJ	6	idtext0003	cla	#3##s##	spk1	11.71	11.75	0.01	_
20091112_RATP_SCD_0341	3	5	avez	NULL	v	NULL	B_GVf	AUX	6	idtext0003	avoir	P#2##p##	spk1	11.76	11.89	0.01	_
20091112_RATP_SCD_0341	3	6	oublié	NULL	vppart	NULL	I_GVf	ROOT	0	idtext0003	oublier	K##m#s##	spk1	11.9	12.21	0.01	_
20091112_RATP_SCD_0341	3	7	quand	NULL	adv	NULL	B_GADV	MOD	6	idtext0003	quand	#####	spk1	12.22	12.59	0.01	_
20091112_RATP_SCD_0341	3	8	vers	NULL	prep	NULL	B_GP	MOD	6	idtext0003	vers	#####	spk1	12.6	12.74	0.01	_
20091112_RATP_SCD_0341	3	9	quelle	NULL	det	NULL	I_GP	DET	10	idtext0003	quel	##f#s##	spk1	12.75	12.86	0.01	_
20091112_RATP_SCD_0341	3	10	heure	NULL	nc	NULL	I_GP	OBJ	8	idtext0003	heure	##f#s##	spk1	12.87	12.97	?	//

20091112_RATP_SCD_0341	4	1	dimanche	DISF_R	nc	NULL	NULL	NOLINK	0	idtext0004	dimanche	##m#s##	spk2	13.16	13.37	0.01	_
20091112_RATP_SCD_0341	4	2	dimanche	NULL	nc	NULL	B_GN	ROOT	0	idtext0004	dimanche	##m#s##	spk2	13.38	13.73	0.01	_
20091112_RATP_SCD_0341	4	3	après-midi	NULL	nc	NULL	I_GN	MOD	2	idtext0004	après-midi	###s##	spk2	13.74	14.53	?	//

20091112_RATP_SCD_0341	5	1	d'accord	NULL	adv	NULL	B_GADV	NOLINK	0	idtext0005	d'accord	#####	spk1	14.58	15.2	0.01	_
20091112_RATP_SCD_0341	5	2	dimanche	NULL	nc	NULL	B_GN	ROOT	0	idtext0005	dimanche	##m#s##	spk1	15.21	16.24	0.01	_
20091112_RATP_SCD_0341	5	3	et	NULL	coo	NULL	B_NULL	COORD	2	idtext0006	et	#####	spk1	16.25	16.33	0.01	_
20091112_RATP_SCD_0341	5	4	est-ce+que	NULL	pri	NULL	B_NULL	NOLINK	0	idtext0006	est-ce+que	#####	spk1	16.34	16.76	0.01	_
20091112_RATP_SCD_0341	5	5	vous	NULL	cln	NULL	B_GN	SUJ	6	idtext0006	cln	#2##p##	spk1	16.77	16.86	0.01	_
20091112_RATP_SCD_0341	5	6	pouvez	NULL	v	NULL	B_GVf	DEP_COORD	3	idtext0006	pouvoir	P#2##p##	spk1	16.87	17.03	0.01	_
20091112_RATP_SCD_0341	5	7	me	NULL	clo	NULL	B_GN	A_OBJ	9	idtext0006	cla	#1##s##	spk1	17.04	17.09	0.01	_
20091112_RATP_SCD_0341	5	8	le	NULL	clo	NULL	B_GN	OBJ	9	idtext0006	cla	#3#m#s##	spk1	17.1	17.18	0.01	_
20091112_RATP_SCD_0341	5	9	décrire	NULL	vinf	NULL	B_GVi	OBJ	6	idtext0006	décrire	W#####	spk1	17.19	17.58	0.01	_
20091112_RATP_SCD_0341	5	10	s'il+vous+plaît	NULL	adv	NULL	B_GADV	MOD	9	idtext0006	s'il+vous+plaît	#####	spk1	17.59	18.49	?	//

20091112_RATP_SCD_0341	6	1	comment	NULL	adv	NULL	B_GADV	NOLINK	0	idtext0007	comment	#####	spk2	18.53	18.89	?	//

20091112_RATP_SCD_0341	7	1	est-ce+que	NULL	pri	NULL	B_NULL	NOLINK	0	idtext0008	est-ce+que	#####	spk1	18.98	19.34	0.01	_
20091112_RATP_SCD_0341	7	2	vous	NULL	cln	NULL	B_GN	SUJ	3	idtext0008	cln	#2##p##	spk1	19.35	19.46	0.01	_
20091112_RATP_SCD_0341	7	3	pouvez	NULL	v	NULL	B_GVf	ROOT	0	idtext0008	pouvoir	P#2##p##	spk1	19.47	19.68	0.01	_
20091112_RATP_SCD_0341	7	4	me	NULL	clo	NULL	B_GN	A_OBJ	6	idtext0008	cla	#1##s##	spk1	19.69	19.74	0.01	_
20091112_RATP_SCD_0341	7	5	le	NULL	clo	NULL	B_GN	OBJ	6	idtext0008	cla	#3#m#s##	spk1	19.75	19.87	0.01	_
20091112_RATP_SCD_0341	7	6	décrire	NULL	vinf	NULL	B_GVi	OBJ	3	idtext0008	décrire	W#####	spk1	19.88	20.39	0.01	_
20091112_RATP_SCD_0341	7	7	le	NULL	det	NULL	B_GN	DET	8	idtext0008	le	##m#s##d	spk1	20.4	20.51	0.01	_
20091112_RATP_SCD_0341	7	8	pull	NULL	nc	NULL	I_GN	OBJ	6	idtext0008	pull	##m#s##	spk1	20.52	20.86	?	//

20091112_RATP_SCD_0341	8	1	c'	NULL	cln	NULL	B_GN	SUJ_IMP	2	idtext0009	ce	###s##	spk2	20.9	21.3	0.01	_
20091112_RATP_SCD_0341	8	2	était	NULL	v	NULL	B_GVf	ROOT	0	idtext0009	être	I#3##s##	spk2	21.31	21.64	0.01	_
20091112_RATP_SCD_0341	8	3	un	NULL	det	NULL	B_GN	DET	4	idtext0009	un	##m#s##i	spk2	21.65	22.04	0.01	_
20091112_RATP_SCD_0341	8	4	gilet	NULL	nc	NULL	I_GN	ATS	2	idtext0009	gilet	##m#s##	spk2	22.05	22.16	0.01	_
20091112_RATP_SCD_0341	8	5	euh	DISF_M	pres	NULL	NULL	NOLINK	0	idtext0009	euh	#####	spk2	22.17	22.19	0.01	_
20091112_RATP_SCD_0341	8	6	noir	NULL	adj	NULL	I_GN	MOD	4	idtext0009	noir	##m#s##	spk2	22.2	22.75	?	//

20091112_RATP_SCD_0341	9	1	oui	NULL	adv	NULL	B_GADV	NOLINK	0	idtext0010	oui	#####	spk1	22.83	23.07	?	//

20091112_RATP_SCD_0341	10	1	avec	NULL	prep	NULL	B_GP	ROOT	0	idtext0011	avec	#####	spk2	23.11	23.33	0.01	_
20091112_RATP_SCD_0341	10	2	une	NULL	det	NULL	I_GP	DET	3	idtext0011	un	##f#s##i	spk2	23.34	23.66	0.01	_
20091112_RATP_SCD_0341	10	3	fermeture	NULL	nc	NULL	I_GP	OBJ	1	idtext0011	fermeture	##f#s##	spk2	23.67	24.2	0.01	_
20091112_RATP_SCD_0341	10	4	devant	NULL	prep	NULL	B_NULL	MOD	3	idtext0011	devant	#####	spk2	24.21	24.65	0.01	_
20091112_RATP_SCD_0341	10	5	et	NULL	coo	NULL	B_NULL	COORD	3	idtext0011	et	#####	spk2	24.66	24.98	0.01	_
20091112_RATP_SCD_0341	10	6	une	NULL	det	NULL	B_GN	DET	7	idtext0011	un	##f#s##i	spk2	24.99	25.08	0.01	_
20091112_RATP_SCD_0341	10	7	capuche	NULL	nc	NULL	I_GN	DEP_COORD	5	idtext0011	capuche	##f#s##	spk2	25.09	25.3	?	//

20091112_RATP_SCD_0341	11	1	d'accord	NULL	adv	NULL	B_GADV	NOLINK	0	idtext0012	d'accord	#####	spk1	25.34	26.48	?	//

20091112_RATP_SCD_0341	12	1	le	NULL	det	NULL	B_GN	DET	2	idtext0013	le	##m#s##d	spk2	26.8	27.44	0.01	_
20091112_RATP_SCD_0341	12	2	pull	NULL	nc	NULL	I_GN	ROOT	0	idtext0013	pull	##m#s##	spk2	27.45	27.67	0.01	_
20091112_RATP_SCD_0341	12	3	euh	DISF_M	pres	NULL	NULL	NOLINK	0	idtext0013	euh	#####	spk2	27.68	27.73	0.01	_
20091112_RATP_SCD_0341	12	4	euh	DISF_M	pres	NULL	NULL	NOLINK	0	idtext0013	euh	#####	spk2	27.74	27.76	0.01	_
20091112_RATP_SCD_0341	12	5	en	DISF_R	prep	NULL	NULL	NOLINK	0	idtext0013	en	#####	spk2	27.77	28.14	0.01	_
20091112_RATP_SCD_0341	12	6	par	NULL	prep	NULL	B_GP	P_OBJ	2	idtext0013	par	#####	spk2	28.15	28.81	0.01	_
20091112_RATP_SCD_0341	12	7	le	NULL	det	NULL	I_GP	DET	8	idtext0013	le	##m#s##d	spk2	28.82	28.96	0.01	_
20091112_RATP_SCD_0341	12	8	deux+cent+quatre-vingt-un	NULL	nc	B_T	I_GP	OBJ	6	idtext0013	deux+cent+quatre-vingt-un	#####	spk2	28.97	30.19	0.01	_
20091112_RATP_SCD_0341	12	9	en	NULL	prep	NULL	B_GP	MOD	2	idtext0013	en	#####	spk2	30.2	30.34	0.01	_
20091112_RATP_SCD_0341	12	10	direction	NULL	nc	NULL	I_GP	OBJ	9	idtext0013	direction	##f#s##	spk2	30.35	30.71	0.01	_
20091112_RATP_SCD_0341	12	11	de	NULL	prep	NULL	B_GP	DEP	10	idtext0013	de	#####	spk2	30.72	30.74	0.01	_
20091112_RATP_SCD_0341	12	12	Joinville	NULL	nc	B_A	I_GP	OBJ	11	idtext0013	Joinville	##m#s##	spk2	30.75	31.24	?	//

20091112_RATP_SCD_0341	13	1	d'accord	NULL	adv	NULL	B_GADV	NOLINK	0	idtext0014	d'accord	#####	spk1	31.61	32.32	0.01	_
20091112_RATP_SCD_0341	13	2	donc	NULL	coo	NULL	B_NULL	ROOT	0	idtext0014	donc	#####	spk1	32.33	32.59	0.01	_
20091112_RATP_SCD_0341	13	3	là	NULL	adv	NULL	B_GADV	NOLINK	0	idtext0014	là	#####	spk1	32.6	32.71	0.01	_
20091112_RATP_SCD_0341	13	4	vous	NULL	cln	NULL	B_GN	SUJ	6	idtext0014	cln	#2##p##	spk1	32.72	32.84	0.01	_
20091112_RATP_SCD_0341	13	5	m'	NULL	clo	NULL	B_GN	A_OBJ	6	idtext0014	cla	#1##s##	spk1	32.85	32.89	0.01	_
20091112_RATP_SCD_0341	13	6	indiquez	NULL	v	NULL	B_GVf	DEP_COORD	2	idtext0014	indiquer	P#2##p##	spk1	32.9	33.23	0.01	_
20091112_RATP_SCD_0341	13	7	dans+tous+les+cas	NULL	adv	NULL	B_GVi	MOD	8	idtext0014	dans+tous+les+cas	#####	spk1	33.24	33.76	0.01	_
20091112_RATP_SCD_0341	13	8	avoir	NULL	vinf	NULL	I_GVi	OBJ	6	idtext0014	avoir	W#####	spk1	33.77	34.0	0.01	_
20091112_RATP_SCD_0341	13	9	perdu	NULL	vppart	NULL	B_GVf	OBJ	8	idtext0014	perdre	K##m#s##	spk1	34.01	34.35	0.01	_
20091112_RATP_SCD_0341	13	10	sur	NULL	prep	NULL	B_GP	P_OBJ	8	idtext0014	sur	#####	spk1	34.36	34.5	0.01	_
20091112_RATP_SCD_0341	13	11	la	NULL	det	NULL	I_GP	DET	12	idtext0014	le	##m#s##d	spk1	34.51	34.62	0.01	_
20091112_RATP_SCD_0341	13	12	ligne	NULL	nc	B_T	I_GP	OBJ	10	idtext0014	ligne	##f#s##	spk1	34.63	34.74	0.01	_
20091112_RATP_SCD_0341	13	13	deux+cent+quatre-vingt-un	NULL	adj	I_T	I_GP	MOD	12	idtext0014	deux+cent+quatre-vingt-un	#####	spk1	34.75	35.8	0.01	/
20091112_RATP_SCD_0341	13	14	dimanche	NULL	nc	NULL	B_GN	MOD	12	idtext0014	dimanche	##m#s##	spk1	35.81	36.23	0.01	_
20091112_RATP_SCD_0341	13	15	dernier	NULL	adj	NULL	I_GN	MOD	14	idtext0014	dernier	##m#s##	spk1	36.24	36.99	0.01	/
20091112_RATP_SCD_0341	13	16	un	NULL	det	NULL	B_GN	DET	17	idtext0014	un	##m#s##i	spk1	37.0	37.14	0.01	_
20091112_RATP_SCD_0341	13	17	pull	NULL	nc	NULL	I_GN	OBJ	9	idtext0014	pull	##m#s##	spk1	37.15	37.42	0.01	_
20091112_RATP_SCD_0341	13	18	sous	NULL	prep	NULL	B_GP	P_OBJ	17	idtext0014	sous	#####	spk1	37.43	37.56	0.01	_
20091112_RATP_SCD_0341	13	19	forme	NULL	nc	NULL	I_GP	OBJ	18	idtext0014	forme	##f#s##	spk1	37.57	37.77	0.01	_
20091112_RATP_SCD_0341	13	20	de	NULL	prep	NULL	B_GP	DEP	19	idtext0014	de	#####	spk1	37.78	37.89	0.01	_
20091112_RATP_SCD_0341	13	21	gilet	NULL	nc	NULL	I_GP	OBJ	20	idtext0014	gilet	##m#s##	spk1	37.9	38.18	0.01	_
20091112_RATP_SCD_0341	13	22	à	NULL	prep	NULL	B_GP	DEP	21	idtext0014	à	#####	spk1	38.19	38.32	0.01	_
20091112_RATP_SCD_0341	13	23	fermeture	NULL	nc	NULL	I_GP	OBJ	22	idtext0014	fermeture	##f#s##	spk1	38.33	38.84	0.01	_
20091112_RATP_SCD_0341	13	24	c'	NULL	cln	NULL	B_GN	SUJ_IMP	25	idtext0014	ce	###s##	spk1	38.85	38.91	0.01	_
20091112_RATP_SCD_0341	13	25	est	NULL	v	NULL	B_GVf	ROOT	0	idtext0014	être	P#3##s##	spk1	38.92	39.08	0.01	_
20091112_RATP_SCD_0341	13	26	ça	NULL	pro	NULL	B_GN	ATS	25	idtext0014	ça	#####	spk1	39.09	39.42	?	_

20091112_RATP_SCD_0341	14	1	oui	NULL	adv	NULL	B_GADV	NOLINK	0	idtext0015	oui	#####	spk2	39.46	39.59	0.01	_
20091112_RATP_SCD_0341	14	2	c'	NULL	cln	NULL	B_GN	SUJ_IMP	3	idtext0015	ce	###s##	spk2	39.6	39.63	0.01	_
20091112_RATP_SCD_0341	14	3	est	NULL	v	NULL	B_GVf	ROOT	0	idtext0015	être	P#3##s##	spk2	39.64	39.67	0.01	_
20091112_RATP_SCD_0341	14	4	ça	NULL	pro	NULL	B_GN	ATS	3	idtext0015	ça	#####	spk2	39.68	39.95	?	_

20091112_RATP_SCD_0341	15	1	je	NULL	cln	NULL	B_GN	SUJ	2	idtext0016	cln	#1##s##	spk1	39.99	40.03	0.01	_
20091112_RATP_SCD_0341	15	2	recherche	NULL	v	NULL	B_GVf	ROOT	0	idtext0016	rechercher	PS#13##s##	spk1	40.04	40.52	0.01	_
20091112_RATP_SCD_0341	15	3	un	NULL	det	NULL	B_GN	DET	4	idtext0016	un	##m#s##i	spk1	40.53	40.6	0.01	_
20091112_RATP_SCD_0341	15	4	instant	NULL	nc	NULL	I_GN	OBJ	2	idtext0016	instant	##m#s##	spk1	40.61	41.02	0.01	_
20091112_RATP_SCD_0341	15	5	s'il+vous+plaît	NULL	adv	NULL	B_GADV	MOD	2	idtext0016	s'il+vous+plaît	#####	spk1	41.03	41.4	?	//

20091112_RATP_SCD_0341	16	1	d'accord	NULL	adv	NULL	B_GADV	MOD	2	idtext0017	d'accord	#####	spk2	41.48	41.76	0.01	_
20091112_RATP_SCD_0341	16	2	merci	NULL	adv	NULL	I_GADV	ROOT	0	idtext0017	merci	#####	spk2	41.77	42.45	?	//

20091112_RATP_SCD_0341	17	1	madame	NULL	nc	NULL	B_GN	NOLINK	0	idtext0018	Monsieur	##f#s##	spk1	89.62	90.75	?	//

20091112_RATP_SCD_0341	18	1	oui	NULL	adv	NULL	B_GADV	NOLINK	0	idtext0019	oui	#####	spk2	90.79	91.13	?	//

20091112_RATP_SCD_0341	19	1	depuis	NULL	prep	NULL	B_NULL	ROOT	0	idtext0020	depuis	#####	spk1	91.17	91.49	0.01	_
20091112_RATP_SCD_0341	19	2	sur	NULL	prep	NULL	B_GP	MOD	11	idtext0020	sur	#####	spk1	91.5	91.76	0.01	_
20091112_RATP_SCD_0341	19	3	la	NULL	det	NULL	I_GP	DET	4	idtext0020	le	##m#s##d	spk1	91.77	91.9	0.01	_
20091112_RATP_SCD_0341	19	4	ligne	NULL	nc	B_T	I_GP	OBJ	2	idtext0020	ligne	##f#s##	spk1	91.91	92.0	0.01	_
20091112_RATP_SCD_0341	19	5	deux+cent+quatre-vingt-un	NULL	adj	I_T	I_GP	MOD	4	idtext0020	deux+cent+quatre-vingt-un	#####	spk1	92.01	93.07	0.01	_
20091112_RATP_SCD_0341	19	6	aucun	NULL	det	NULL	B_GN	DET	7	idtext0020	aucun	##m#s##i	spk1	93.08	93.36	0.01	_
20091112_RATP_SCD_0341	19	7	pull	NULL	nc	NULL	I_GN	SUJ	11	idtext0020	pull	##m#s##	spk1	93.37	93.59	0.01	_
20091112_RATP_SCD_0341	19	8	n'	NULL	clneg	NULL	B_GVfn	MOD	9	idtext0020	n'	#####	spk1	93.6	93.62	0.01	_
20091112_RATP_SCD_0341	19	9	a	NULL	v	NULL	I_GVfn	AUX	10	idtext0020	avoir	P#3##s##	spk1	93.63	93.69	0.01	_
20091112_RATP_SCD_0341	19	10	été	NULL	vppart	NULL	I_GVfn	AUX	11	idtext0020	être	K#####	spk1	93.7	93.84	0.01	_
20091112_RATP_SCD_0341	19	11	retrouvé	NULL	vppart	NULL	I_GVfn	OBJ	1	idtext0020	retrouver	K##m#s##	spk1	93.85	94.53	?	//

20091112_RATP_SCD_0341	20	1	sur	DISF_R	prep	NULL	NULL	NOLINK	0	idtext0021	sur	#####	spk2	94.84	95.1	0.01	_
20091112_RATP_SCD_0341	20	2	en	NULL	prep	NULL	B_GP	ROOT	0	idtext0021	en	#####	spk2	95.11	95.13	0.01	_
20091112_RATP_SCD_0341	20	3	direction	NULL	nc	NULL	I_GP	OBJ	2	idtext0021	direction	##f#s##	spk2	95.14	95.6	0.01	_
20091112_RATP_SCD_0341	20	4	de	NULL	prep	NULL	B_GP	DEP	3	idtext0021	de	#####	spk2	95.61	95.95	0.01	_
20091112_RATP_SCD_0341	20	5	Joinville	NULL	nc	B_A	I_GP	OBJ	4	idtext0021	Joinville	##m#s##	spk2	95.96	96.62	0.01	_
20091112_RATP_SCD_0341	20	6	euh	DISF_M	pres	I_A	NULL	NOLINK	0	idtext0021	euh	#####	spk2	96.63	96.65	0.01	_
20091112_RATP_SCD_0341	20	7	le	NULL	det	NULL	B_GN	DET	8	idtext0021	le	##m#s##d	spk2	96.66	96.78	0.01	_
20091112_RATP_SCD_0341	20	8	pont	NULL	nc	NULL	I_GN	ROOT	0	idtext0021	pont	##m#s##	spk2	96.79	97.03	?	//

20091112_RATP_SCD_0341	21	1	dans	NULL	prep	NULL	B_GP	ROOT	0	idtext0022	dans	#####	spk1	97.38	97.55	0.01	_
20091112_RATP_SCD_0341	21	2	les	NULL	det	NULL	I_GP	DET	4	idtext0022	le	###p##d	spk1	97.56	97.68	0.01	_
20091112_RATP_SCD_0341	21	3	deux	NULL	adj	NULL	I_GP	MOD	4	idtext0022	deux	#####	spk1	97.69	97.83	0.01	_
20091112_RATP_SCD_0341	21	4	directions	NULL	nc	NULL	I_GP	OBJ	1	idtext0022	direction	##f#p##	spk1	97.84	98.79	?	//

20091112_RATP_SCD_0341	22	1	d'accord	NULL	adv	NULL	B_GADV	NOLINK	0	idtext0023	d'accord	#####	spk2	98.86	99.23	0.01	_
20091112_RATP_SCD_0341	22	2	et	NULL	coo	NULL	B_NULL	ROOT	0	idtext0023	et	#####	spk2	99.24	99.31	0.01	_
20091112_RATP_SCD_0341	22	3	dans	NULL	prep	NULL	B_GP	DEP_COORD	2	idtext0023	dans	#####	spk2	99.32	99.44	0.01	_
20091112_RATP_SCD_0341	22	4	le	NULL	det	NULL	I_GP	DET	5	idtext0023	le	##m#s##d	spk2	99.45	99.6	0.01	_
20091112_RATP_SCD_0341	22	5	cent+soixante-douze	NULL	nc	B_T	I_GP	OBJ	3	idtext0023	cent+soixante-douze	#####	spk2	99.61	100.32	0.01	_
20091112_RATP_SCD_0341	22	6	parce+que	NULL	csu	NULL	B_NULL	ROOT	0	idtext0023	parce+que	#####	spk2	100.33	100.57	0.01	_
20091112_RATP_SCD_0341	22	7	c'	NULL	cln	NULL	B_GN	SUJ_IMP	8	idtext0023	ce	###s##	spk2	100.58	100.6	0.01	_
20091112_RATP_SCD_0341	22	8	est	NULL	v	NULL	B_GVf	OBJ	6	idtext0023	être	P#3##s##	spk2	100.61	100.64	0.01	_
20091112_RATP_SCD_0341	22	9	les	NULL	det	NULL	B_GN	DET	11	idtext0023	le	###p##d	spk2	100.65	100.72	0.01	_
20091112_RATP_SCD_0341	22	10	deux	NULL	adj	NULL	I_GN	MOD	11	idtext0023	deux	#####	spk2	100.73	100.98	0.01	_
20091112_RATP_SCD_0341	22	11	bus	NULL	nc	NULL	I_GN	ATS	8	idtext0023	bus	##m###	spk2	100.99	101.18	0.01	_
20091112_RATP_SCD_0341	22	12	que	NULL	prorel	NULL	B_NULL	OBJ	15	idtext0023	que	#####	spk2	101.19	101.29	0.01	_
20091112_RATP_SCD_0341	22	13	j'	NULL	cln	NULL	B_GN	SUJ	15	idtext0023	cln	#1##s##	spk2	101.3	101.35	0.01	_
20091112_RATP_SCD_0341	22	14	ai	NULL	v	NULL	B_GVf	AUX	15	idtext0023	avoir	P#1##s##	spk2	101.36	101.39	0.01	_
20091112_RATP_SCD_0341	22	15	pris	NULL	vppart	NULL	I_GVf	MOD_REL	11	idtext0023	prendre	K##m###	spk2	101.4	101.58	0.01	_
20091112_RATP_SCD_0341	22	16	dimanche	NULL	nc	NULL	B_GN	OBJ	15	idtext0023	dimanche	##m#s##	spk2	101.59	102.22	?	//

20091112_RATP_SCD_0341	23	1	d'accord	NULL	adv	NULL	B_GADV	NOLINK	0	idtext0024	d'accord	#####	spk1	102.26	102.71	0.01	_
20091112_RATP_SCD_0341	23	2	donc	NULL	coo	NULL	B_NULL	ROOT	0	idtext0024	donc	#####	spk1	102.72	102.87	0.01	_
20091112_RATP_SCD_0341	23	3	ça	NULL	pro	NULL	B_GN	SUJ_IMP	4	idtext0024	ça	#####	spk1	102.88	103.06	0.01	_
20091112_RATP_SCD_0341	23	4	serait	NULL	v	NULL	B_GVf	DEP_COORD	2	idtext0024	être	C#3##s##	spk1	103.07	103.2	0.01	_
20091112_RATP_SCD_0341	23	5	aussi+bien	NULL	adv	NULL	B_GADV	MOD	4	idtext0024	aussi+bien	#####	spk1	103.21	103.7	0.01	_
20091112_RATP_SCD_0341	23	6	sur	NULL	prep	NULL	B_GP	ATS	4	idtext0024	sur	#####	spk1	103.71	103.88	0.01	_
20091112_RATP_SCD_0341	23	7	la	NULL	det	NULL	I_GP	DET	8	idtext0024	le	##m#s##d	spk1	103.89	103.99	0.01	_
20091112_RATP_SCD_0341	23	8	ligne	NULL	nc	B_T	I_GP	OBJ	6	idtext0024	ligne	##f#s##	spk1	104.0	104.12	0.01	_
20091112_RATP_SCD_0341	23	9	cent+soixante-douze	NULL	adj	I_T	I_GP	MOD	8	idtext0024	cent+soixante-douze	#####	spk1	104.13	105.49	?	//

20091112_RATP_SCD_0341	24	1	cent+soixante-douze	NULL	nc	B_T	B_GN	ROOT	0	idtext0025	cent+soixante-douze	#####	spk2	105.54	105.89	0.01	_
20091112_RATP_SCD_0341	24	2	dans	NULL	prep	NULL	B_GP	MOD	1	idtext0025	dans	#####	spk2	105.9	106.01	0.01	_
20091112_RATP_SCD_0341	24	3	la	NULL	det	NULL	I_GP	DET	4	idtext0025	le	##m#s##d	spk2	106.02	106.11	0.01	_
20091112_RATP_SCD_0341	24	4	direction	NULL	nc	NULL	I_GP	OBJ	2	idtext0025	direction	##f#s##	spk2	106.12	106.58	0.01	_
20091112_RATP_SCD_0341	24	5	Créteil	NULL	nc	B_A	I_GP	MOD	4	idtext0025	Créteil	#####	spk2	106.59	106.81	0.01	_
20091112_RATP_SCD_0341	24	6	le	NULL	det	NULL	B_NULL	NOLINK	0	idtext0025	le	##m#s##d	spk2	106.82	106.93	?	_

20091112_RATP_SCD_0341	25	1	d'accord	NULL	adv	NULL	B_GADV	NOLINK	0	idtext0026	d'accord	#####	spk1	107.01	107.53	0.01	_
20091112_RATP_SCD_0341	25	2	cent+soixante-douze	NULL	nc	B_T	B_GN	NOLINK	0	idtext0026	cent+soixante-douze	#####	spk1	107.54	108.6	0.01	//
20091112_RATP_SCD_0341	25	3	je	NULL	cln	NULL	B_GN	SUJ	4	idtext0026	cln	#1##s##	spk1	108.61	108.7	0.01	_
20091112_RATP_SCD_0341	25	4	recherche	NULL	v	NULL	B_GVf	ROOT	0	idtext0026	rechercher	PS#13##s##	spk1	108.71	109.2	0.01	_
20091112_RATP_SCD_0341	25	5	un	NULL	det	NULL	B_GN	DET	6	idtext0026	un	##m#s##i	spk1	109.21	109.32	0.01	_
20091112_RATP_SCD_0341	25	6	instant	NULL	nc	NULL	I_GN	ROOT	0	idtext0026	instant	##m#s##	spk1	109.33	109.63	0.01	_
20091112_RATP_SCD_0341	25	7	s'il+vous+plaît	NULL	adv	NULL	B_GADV	NOLINK	0	idtext0026	s'il+vous+plaît	#####	spk1	109.64	110.18	?	//

20091112_RATP_SCD_0341	26	1	merci	NULL	adv	NULL	B_GADV	NOLINK	0	idtext0027	merci	#####	spk2	110.25	110.91	?	//

20091112_RATP_SCD_0341	27	1	madame	NULL	nc	NULL	B_GN	NOLINK	0	idtext0028	Monsieur	##f#s##	spk1	145.57	145.84	?	//

20091112_RATP_SCD_0341	28	1	oui	NULL	adv	NULL	B_GADV	NOLINK	0	idtext0029	oui	#####	spk2	146.21	146.37	?	//

20091112_RATP_SCD_0341	29	1	sur	NULL	prep	NULL	B_GP	ROOT	0	idtext0030	sur	#####	spk1	146.41	146.5	0.01	_
20091112_RATP_SCD_0341	29	2	la	NULL	det	NULL	I_GP	DET	3	idtext0030	le	##m#s##d	spk1	146.51	146.57	0.01	_
20091112_RATP_SCD_0341	29	3	ligne	NULL	nc	B_T	I_GP	OBJ	1	idtext0030	ligne	##f#s##	spk1	146.58	146.71	0.01	_
20091112_RATP_SCD_0341	29	4	cent+soixante-douze	NULL	adj	I_T	I_GP	MOD	3	idtext0030	cent+soixante-douze	#####	spk1	146.72	147.45	0.01	/
20091112_RATP_SCD_0341	29	5	de+même	NULL	adv	NULL	B_GADV	MOD	3	idtext0030	de+même	#####	spk1	147.46	147.85	0.01	_
20091112_RATP_SCD_0341	29	6	hein	DISF_M	pres	NULL	NULL	NOLINK	0	idtext0030	hein	#####	spk1	147.86	147.99	0.01	_
20091112_RATP_SCD_0341	29	7	aucun	NULL	det	NULL	B_GN	DET	8	idtext0030	aucun	##m#s##i	spk1	148.0	148.25	0.01	_
20091112_RATP_SCD_0341	29	8	gilet	NULL	nc	NULL	I_GN	OBJ	3	idtext0030	gilet	##m#s##	spk1	148.26	148.51	0.01	_
20091112_RATP_SCD_0341	29	9	de	NULL	prep	NULL	B_GP	DEP	8	idtext0030	de	#####	spk1	148.52	148.62	0.01	_
20091112_RATP_SCD_0341	29	10	retrouvé	NULL	vppart	NULL	I_GP	OBJ	9	idtext0030	retrouver	K##m#s##	spk1	148.63	149.32	?	//

20091112_RATP_SCD_0341	30	1	oh+là+là	DISF_M	pres	NULL	NULL	NOLINK	0	idtext0031	oh+là+là	#####	spk2	149.6	150.7	0.01	//
20091112_RATP_SCD_0341	30	2	et	NULL	coo	NULL	B_NULL	ROOT	0	idtext0031	et	#####	spk2	150.71	150.82	0.01	_
20091112_RATP_SCD_0341	30	3	pourtant	NULL	adv	NULL	B_GADV	MOD	5	idtext0031	pourtant	#####	spk2	150.83	151.16	0.01	_
20091112_RATP_SCD_0341	30	4	c'	NULL	cln	NULL	B_GN	SUJ_IMP	5	idtext0031	ce	###s##	spk2	151.17	151.2	0.01	_
20091112_RATP_SCD_0341	30	5	était	NULL	v	NULL	B_GVf	DEP_COORD	2	idtext0031	être	I#3##s##	spk2	151.21	151.38	0.01	_
20091112_RATP_SCD_0341	30	6	bien	NULL	adv	NULL	B_GADV	ATS	5	idtext0031	bien	#####	spk2	151.39	151.52	0.01	_
20091112_RATP_SCD_0341	30	7	j'	NULL	cln	NULL	B_GN	SUJ	9	idtext0031	cln	#1##s##	spk2	151.53	151.55	0.01	_
20091112_RATP_SCD_0341	30	8	ai	NULL	v	NULL	B_GVf	AUX	9	idtext0031	avoir	P#1##s##	spk2	151.56	151.78	0.01	_
20091112_RATP_SCD_0341	30	9	pris	NULL	vppart	NULL	I_GVf	ROOT	0	idtext0031	prendre	K##m###	spk2	151.79	151.99	0.01	_
20091112_RATP_SCD_0341	30	10	le	NULL	det	NULL	B_GN	DET	11	idtext0031	le	##m#s##d	spk2	152.0	152.34	0.01	_
20091112_RATP_SCD_0341	30	11	cent+soixante-douze	NULL	nc	B_T	I_GN	OBJ	9	idtext0031	cent+soixante-douze	#####	spk2	152.35	153.79	0.01	_
20091112_RATP_SCD_0341	30	12	jusqu'à	NULL	prep	NULL	B_GP	P_OBJ	11	idtext0031	jusqu'à	#####	spk2	153.8	154.05	0.01	_
20091112_RATP_SCD_0341	30	13	euh	DISF_M	pres	NULL	NULL	NOLINK	0	idtext0031	euh	#####	spk2	154.06	154.16	0.01	_
20091112_RATP_SCD_0341	30	14	à	DISF_R	prep	NULL	NULL	NOLINK	0	idtext0031	à	#####	spk2	154.17	154.23	0.01	_
20091112_RATP_SCD_0341	30	15	la	NULL	det	NULL	I_GP	DET	16	idtext0031	le	##m#s##d	spk2	154.24	154.4	0.01	_
20091112_RATP_SCD_0341	30	16	caisse	NULL	nc	B_ORG	I_GP	OBJ	12	idtext0031	caisse	##f#s##	spk2	154.41	154.54	0.01	_
20091112_RATP_SCD_0341	30	17	des	NULL	prep	I_ORG	I_GP	DEP	16	idtext0031	des	#####	spk2	154.55	154.71	0.01	_
20091112_RATP_SCD_0341	30	18	allocations	NULL	nc	I_ORG	I_GP	OBJ	17	idtext0031	allocation	##f#p##	spk2	154.72	155.22	0.01	_
20091112_RATP_SCD_0341	30	19	familiales	NULL	adj	I_ORG	I_GP	MOD	18	idtext0031	familial	##f#p##	spk2	155.23	155.98	0.01	//
20091112_RATP_SCD_0341	30	20	ensuite	NULL	adv	NULL	B_GADV	MOD	23	idtext0031	ensuite	#####	spk2	155.99	156.3	0.01	_
20091112_RATP_SCD_0341	30	21	j'	NULL	cln	NULL	B_GN	SUJ	23	idtext0031	cln	#1##s##	spk2	156.31	156.33	0.01	_
20091112_RATP_SCD_0341	30	22	ai	NULL	v	NULL	B_GVf	AUX	23	idtext0031	avoir	P#1##s##	spk2	156.34	156.41	0.01	_
20091112_RATP_SCD_0341	30	23	pris	NULL	vppart	NULL	I_GVf	ROOT	0	idtext0031	prendre	K##m###	spk2	156.42	156.56	0.01	_
20091112_RATP_SCD_0341	30	24	le	NULL	det	NULL	B_GN	DET	25	idtext0031	le	##m#s##d	spk2	156.57	156.65	0.01	_
20091112_RATP_SCD_0341	30	25	deux+cent+quatre-vingt-un	NULL	nc	B_T	I_GN	OBJ	23	idtext0031	deux+cent+quatre-vingt-un	#####	spk2	156.66	157.42	0.01	_
20091112_RATP_SCD_0341	30	26	dimanche	NULL	nc	NULL	B_GN	MOD	25	idtext0031	dimanche	##m#s##	spk2	157.43	157.87	0.01	_
20091112_RATP_SCD_0341	30	27	après-midi	NULL	nc	NULL	I_GN	MOD	26	idtext0031	après-midi	###s##	spk2	157.88	158.66	?	//

20091112_RATP_SCD_0341	31	1	et	NULL	coo	NULL	B_NULL	NOLINK	0	idtext0032	et	#####	spk1	158.95	159.15	0.01	_
20091112_RATP_SCD_0341	31	2	oui	NULL	adv	NULL	B_GADV	NOLINK	0	idtext0032	oui	#####	spk1	159.16	159.35	0.01	_
20091112_RATP_SCD_0341	31	3	donc	NULL	coo	NULL	B_NULL	NOLINK	0	idtext0032	donc	#####	spk1	159.36	159.63	0.01	_
20091112_RATP_SCD_0341	31	4	là	NULL	adv	NULL	B_GADV	NOLINK	0	idtext0032	là	#####	spk1	159.64	159.75	0.01	_
20091112_RATP_SCD_0341	31	5	depuis	DISF_R	prep	NULL	NULL	NOLINK	0	idtext0032	depuis	#####	spk1	159.76	160.25	0.01	_
20091112_RATP_SCD_0341	31	6	hein	DISF_M	pres	NULL	NULL	NOLINK	0	idtext0032	hein	#####	spk1	160.26	160.42	0.01	/
20091112_RATP_SCD_0341	31	7	en	NULL	prep	NULL	B_GP	MOD	14	idtext0032	en	#####	spk1	160.43	160.57	0.01	_
20091112_RATP_SCD_0341	31	8	remontant	NULL	vprespart	NULL	I_GP	OBJ	7	idtext0032	remonter	G#####	spk1	160.58	161.02	0.01	_
20091112_RATP_SCD_0341	31	9	même	NULL	adv	NULL	B_GADV	MOD	8	idtext0032	même	###s##	spk1	161.03	161.18	0.01	_
20091112_RATP_SCD_0341	31	10	jusqu'à	NULL	prep	NULL	B_GP	MOD	14	idtext0032	jusqu'à	#####	spk1	161.19	161.49	0.01	_
20091112_RATP_SCD_0341	31	11	samedi	NULL	nc	NULL	I_GP	OBJ	10	idtext0032	samedi	##m#s##	spk1	161.5	162.25	0.01	_
20091112_RATP_SCD_0341	31	12	je	NULL	cln	NULL	B_GN	SUJ	14	idtext0032	cln	#1##s##	spk1	162.26	162.38	0.01	_
20091112_RATP_SCD_0341	31	13	n'	NULL	clneg	NULL	B_GVfn	MOD	14	idtext0032	n'	#####	spk1	162.39	162.41	0.01	_
20091112_RATP_SCD_0341	31	14	ai	NULL	v	NULL	I_GVfn	ROOT	0	idtext0032	avoir	P#1##s##	spk1	162.42	162.5	0.01	_
20091112_RATP_SCD_0341	31	15	aucun	NULL	det	NULL	B_GN	DET	16	idtext0032	aucun	##m#s##i	spk1	162.51	162.8	0.01	_
20091112_RATP_SCD_0341	31	16	pull	NULL	nc	NULL	I_GN	OBJ	14	idtext0032	pull	##m#s##	spk1	162.81	163.18	0.01	_
20091112_RATP_SCD_0341	31	17	de	NULL	prep	NULL	B_GP	DEP	16	idtext0032	de	#####	spk1	163.19	163.31	0.01	_
20091112_RATP_SCD_0341	31	18	retrouvé	NULL	vppart	NULL	I_GP	OBJ	17	idtext0032	retrouver	K##m#s##	spk1	163.32	163.77	0.01	_
20091112_RATP_SCD_0341	31	19	sur	NULL	prep	NULL	B_GP	P_OBJ_LOC	18	idtext0032	sur	#####	spk1	163.78	163.91	0.01	_
20091112_RATP_SCD_0341	31	20	ces	NULL	det	NULL	I_GP	DET	22	idtext0032	ce	###p##e	spk1	163.92	163.97	0.01	_
20091112_RATP_SCD_0341	31	21	deux	NULL	adj	NULL	I_GP	MOD	22	idtext0032	deux	#####	spk1	163.98	164.03	0.01	_
20091112_RATP_SCD_0341	31	22	lignes	NULL	nc	NULL	I_GP	OBJ	19	idtext0032	ligne	##f#p##	spk1	164.04	164.12	0.01	_
20091112_RATP_SCD_0341	31	23	de	NULL	prep	NULL	B_GP	DEP	22	idtext0032	de	#####	spk1	164.13	164.19	0.01	_
20091112_RATP_SCD_0341	31	24	bus	NULL	nc	NULL	I_GP	OBJ	23	idtext0032	bus	##m###	spk1	164.2	164.28	?	//

20091112_RATP_SCD_0341	32	1	c'	NULL	cln	NULL	B_GN	SUJ_IMP	2	idtext0033	ce	###s##	spk2	164.32	164.34	0.01	_
20091112_RATP_SCD_0341	32	2	était	NULL	v	NULL	B_GVfn	ROOT	0	idtext0033	être	I#3##s##	spk2	164.35	164.48	0.01	_
20091112_RATP_SCD_0341	32	3	pas	NULL	advneg	NULL	I_GVfn	MOD	2	idtext0033	pas	#####	spk2	164.49	164.8	0.01	_
20091112_RATP_SCD_0341	32	4	un	NULL	det	NULL	B_GN	DET	5	idtext0033	un	##m#s##i	spk2	164.81	164.85	0.01	_
20091112_RATP_SCD_0341	32	5	pull	NULL	nc	NULL	I_GN	ATS	2	idtext0033	pull	##m#s##	spk2	164.86	164.99	0.01	_
20091112_RATP_SCD_0341	32	6	c'	NULL	cln	NULL	B_GN	SUJ_IMP	7	idtext0033	ce	###s##	spk2	165.0	165.02	0.01	_
20091112_RATP_SCD_0341	32	7	est	NULL	v	NULL	B_GVf	ROOT	0	idtext0033	être	P#3##s##	spk2	165.03	165.14	0.01	_
20091112_RATP_SCD_0341	32	8	un	NULL	det	NULL	B_GN	DET	9	idtext0033	un	##m#s##i	spk2	165.15	165.41	0.01	_
20091112_RATP_SCD_0341	32	9	gilet	NULL	nc	NULL	I_GN	ATS	7	idtext0033	gilet	##m#s##	spk2	165.42	165.67	0.01	_
20091112_RATP_SCD_0341	32	10	avec	NULL	prep	NULL	B_GP	P_OBJ	9	idtext0033	avec	#####	spk2	165.68	165.93	0.01	_
20091112_RATP_SCD_0341	32	11	fermeture	NULL	nc	NULL	I_GP	OBJ	10	idtext0033	fermeture	##f#s##	spk2	165.94	166.33	0.01	_
20091112_RATP_SCD_0341	32	12	devant	NULL	prep	NULL	B_NULL	MOD	11	idtext0033	devant	#####	spk2	166.34	166.68	0.01	/
20091112_RATP_SCD_0341	32	13	et	NULL	coo	NULL	B_NULL	COORD	11	idtext0033	et	#####	spk2	166.69	166.77	0.01	_
20091112_RATP_SCD_0341	32	14	capuche	NULL	nc	NULL	B_GN	DEP_COORD	13	idtext0033	capuche	##f#s##	spk2	166.78	167.71	?	/

20091112_RATP_SCD_0341	33	1	oui	DISF_R	adv	NULL	NULL	NOLINK	0	idtext0034	oui	#####	spk1	167.75	167.8	0.01	_
20091112_RATP_SCD_0341	33	2	oui	NULL	adv	NULL	B_GADV	NOLINK	0	idtext0034	oui	#####	spk1	167.81	167.88	0.01	_
20091112_RATP_SCD_0341	33	3	je	NULL	cln	NULL	B_GN	SUJ	4	idtext0034	cln	#1##s##	spk1	167.89	168.02	0.01	_
20091112_RATP_SCD_0341	33	4	comprends	NULL	v	NULL	B_GVf	ROOT	0	idtext0034	comprendre	P#12##s##	spk1	168.03	168.47	0.01	_
20091112_RATP_SCD_0341	33	5	mais	NULL	coo	NULL	B_NULL	COORD	4	idtext0034	mais	#####	spk1	168.48	168.6	0.01	_
20091112_RATP_SCD_0341	33	6	ce+qu'	NULL	prorel	NULL	B_NULL	OBJ	9	idtext0034	ce+qu'	#####	spk1	168.61	168.74	0.01	_
20091112_RATP_SCD_0341	33	7	il	NULL	cln	NULL	B_GN	SUJ_IMP	9	idtext0034	cln	#3#m#s##	spk1	168.75	168.8	0.01	_
20091112_RATP_SCD_0341	33	8	y	NULL	clo	NULL	B_GN	AFF	9	idtext0034	y	#####	spk1	168.81	168.83	0.01	_
20091112_RATP_SCD_0341	33	9	a	NULL	v	NULL	B_GVf	DEP_COORD	5	idtext0034	avoir	P#3##s##	spk1	168.84	168.9	0.01	_
20091112_RATP_SCD_0341	33	10	c'	NULL	cln	NULL	I_GP	SUJ_IMP	11	idtext0034	ce	###s##	spk1	168.91	168.99	0.01	_
20091112_RATP_SCD_0341	33	11	est	NULL	v	NULL	B_GVf	ROOT	0	idtext0034	être	P#3##s##	spk1	169.0	169.04	0.01	_
20091112_RATP_SCD_0341	33	12	que	NULL	csu	NULL	B_NULL	ATS	11	idtext0034	que	#####	spk1	169.05	169.09	0.01	_
20091112_RATP_SCD_0341	33	13	je	NULL	cln	NULL	B_GN	SUJ	15	idtext0034	cln	#1##s##	spk1	169.1	169.2	0.01	_
20091112_RATP_SCD_0341	33	14	n'	NULL	clneg	NULL	B_GVfn	MOD	15	idtext0034	n'	#####	spk1	169.21	169.24	0.01	_
20091112_RATP_SCD_0341	33	15	ai	NULL	v	NULL	I_GVfn	OBJ	12	idtext0034	avoir	P#1##s##	spk1	169.25	169.31	0.01	_
20091112_RATP_SCD_0341	33	16	aucun	NULL	det	NULL	B_GN	DET	17	idtext0034	aucun	##m#s##i	spk1	169.32	169.57	0.01	_
20091112_RATP_SCD_0341	33	17	vêtement	NULL	nc	NULL	I_GN	OBJ	15	idtext0034	vêtement	##m#s##	spk1	169.58	169.99	0.01	_
20091112_RATP_SCD_0341	33	18	déjà	NULL	adv	NULL	B_GADV	MOD	23	idtext0034	déjà	#####	spk1	170.0	170.3	0.01	_
20091112_RATP_SCD_0341	33	19	à	NULL	prep	NULL	B_GP	MOD	17	idtext0034	à	#####	spk1	170.31	170.39	0.01	_
20091112_RATP_SCD_0341	33	20	la	NULL	det	NULL	I_GP	DET	21	idtext0034	le	##m#s##d	spk1	170.4	170.49	0.01	_
20091112_RATP_SCD_0341	33	21	base	NULL	nc	NULL	I_GP	OBJ	19	idtext0034	base	##f#s##	spk1	170.5	170.69	0.01	_
20091112_RATP_SCD_0341	33	22	de	NULL	prep	NULL	B_GP	DEP	21	idtext0034	de	#####	spk1	170.7	170.78	0.01	_
20091112_RATP_SCD_0341	33	23	retrouvé	NULL	vppart	NULL	I_GP	OBJ	22	idtext0034	retrouver	K##m#s##	spk1	170.79	171.33	?	//

20091112_RATP_SCD_0341	34	1	d'accord	NULL	adv	NULL	B_GADV	NOLINK	0	idtext0035	d'accord	#####	spk2	171.44	171.95	0.01	_
20091112_RATP_SCD_0341	34	2	je	NULL	cln	NULL	B_GN	SUJ	4	idtext0035	cln	#1##s##	spk2	171.96	172.03	0.01	_
20091112_RATP_SCD_0341	34	3	vous	NULL	clo	NULL	B_GN	OBJ	4	idtext0035	cln	#2##p##	spk2	172.04	172.11	0.01	_
20091112_RATP_SCD_0341	34	4	remercie	NULL	v	NULL	B_GVf	ROOT	0	idtext0035	remercier	PS#13##s##	spk2	172.12	172.43	0.01	_
20091112_RATP_SCD_0341	34	5	madame	NULL	nc	NULL	B_GN	NOLINK	0	idtext0035	Monsieur	##f#s##	spk2	172.44	172.85	?	//

20091112_RATP_SCD_0341	35	1	je	NULL	cln	NULL	B_GN	SUJ	4	idtext0036	cln	#1##s##	spk1	172.89	173.03	0.01	_
20091112_RATP_SCD_0341	35	2	vous	NULL	clo	NULL	B_GN	OBJ	4	idtext0036	cln	#2##p##	spk1	173.04	173.09	0.01	_
20091112_RATP_SCD_0341	35	3	en	NULL	clo	NULL	B_GN	DE_OBJ	4	idtext0036	en	#####	spk1	173.1	173.2	0.01	_
20091112_RATP_SCD_0341	35	4	prie	NULL	v	NULL	B_GVf	ROOT	0	idtext0036	prier	PS#13##s##	spk1	173.21	173.5	0.01	_
20091112_RATP_SCD_0341	35	5	bonne	NULL	adj	NULL	B_GN	MOD	6	idtext0036	bon	##f#s##	spk1	173.51	173.6	0.01	/
20091112_RATP_SCD_0341	35	6	journée	NULL	nc	NULL	I_GN	ROOT	0	idtext0036	journée	##f#s##	spk1	173.61	173.76	0.01	_
20091112_RATP_SCD_0341	35	7	au+revoir	NULL	adv	NULL	B_GADV	NOLINK	0	idtext0036	au+revoir	#####	spk1	173.77	174.06	?	//

20091112_RATP_SCD_0341	36	1	bonne	NULL	adj	NULL	B_GN	MOD	2	idtext0037	bon	##f#s##	spk2	174.1	174.36	0.01	_
20091112_RATP_SCD_0341	36	2	journée	NULL	nc	NULL	I_GN	ROOT	0	idtext0037	journée	##f#s##	spk2	174.37	174.56	0.01	_
20091112_RATP_SCD_0341	36	3	au+revoir	NULL	adv	NULL	B_GADV	NOLINK	0	idtext0037	au+revoir	#####	spk2	174.57	193.24	?	//

