20091112_RATP_SCD_1343	1	1	NNAAMMEE	NULL	np	B_HU	B_GN	ROOT	0	idtext0000	ANONYM	NULL	spk1	4.7	5.03	0.04	_
20091112_RATP_SCD_1343	1	2	va	NULL	v	NULL	B_GVf	ROOT	0	idtext0001	aller	P#3##s##	spk1	5.07	5.16	0.01	_
20091112_RATP_SCD_1343	1	3	vous	NULL	clo	NULL	B_GN	A_OBJ	4	idtext0001	cln	#2##p##	spk1	5.17	5.3	0.01	_
20091112_RATP_SCD_1343	1	4	répondre	NULL	vinf	NULL	B_GVi	OBJ	2	idtext0001	répondre	W#####	spk1	5.31	6.12	?	//

20091112_RATP_SCD_1343	2	1	NNAAMMEE	NULL	np	B_HU	B_GN	ROOT	0	idtext0002	ANONYM	NULL	spk2	6.96	7.19	0.04	_
20091112_RATP_SCD_1343	2	2	bonsoir	NULL	nc	NULL	B_GN	NOLINK	0	idtext0003	bonsoir	##m#s##	spk2	7.23	7.81	?	//

20091112_RATP_SCD_1343	3	1	euh	DISF_M	pres	NULL	NULL	NOLINK	0	idtext0004	euh	#####	spk3	8.13	8.31	0.01	_
20091112_RATP_SCD_1343	3	2	oui	NULL	adv	NULL	B_GADV	NOLINK	0	idtext0004	oui	#####	spk3	8.32	8.45	0.01	_
20091112_RATP_SCD_1343	3	3	bonsoir	NULL	nc	NULL	B_GN	NOLINK	0	idtext0004	bonsoir	##m#s##	spk3	8.46	8.82	?	//

20091112_RATP_SCD_1343	4	1	je	NULL	cln	NULL	B_GN	SUJ	3	idtext0005	cln	#1##s##	spk3	8.91	8.97	0.01	_
20091112_RATP_SCD_1343	4	2	vous	NULL	clo	NULL	B_GN	OBJ	3	idtext0005	cln	#2##p##	spk3	8.98	9.11	0.01	_
20091112_RATP_SCD_1343	4	3	appelle	NULL	v	NULL	B_GVf	ROOT	0	idtext0005	appeler	PS#13##s##	spk3	9.12	9.37	0.01	_
20091112_RATP_SCD_1343	4	4	parce+que	NULL	csu	NULL	B_NULL	MOD	3	idtext0005	parce+que	#####	spk3	9.38	9.63	0.01	_
20091112_RATP_SCD_1343	4	5	je	NULL	cln	NULL	B_GN	SUJ	6	idtext0005	cln	#1##s##	spk3	9.64	9.77	0.01	_
20091112_RATP_SCD_1343	4	6	pense	NULL	v	NULL	B_GVf	OBJ	4	idtext0005	penser	PS#13##s##	spk3	9.78	9.97	0.01	_
20091112_RATP_SCD_1343	4	7	que	NULL	csu	NULL	B_NULL	OBJ	6	idtext0005	que	#####	spk3	9.98	10.11	0.01	_
20091112_RATP_SCD_1343	4	8	j'	NULL	cln	NULL	B_GN	SUJ	10	idtext0005	cln	#1##s##	spk3	10.12	10.18	0.01	_
20091112_RATP_SCD_1343	4	9	ai	NULL	v	NULL	B_GVf	AUX	10	idtext0005	avoir	P#1##s##	spk3	10.19	10.25	0.01	_
20091112_RATP_SCD_1343	4	10	perdu	NULL	vppart	NULL	I_GVf	OBJ	7	idtext0005	perdre	K##m#s##	spk3	10.26	10.59	0.01	_
20091112_RATP_SCD_1343	4	11	ma	NULL	det	NULL	B_GN	DET	12	idtext0005	mon	##f#s##o	spk3	10.6	10.74	0.01	_
20091112_RATP_SCD_1343	4	12	carte	NULL	nc	B_PRD	I_GN	OBJ	10	idtext0005	carte	##f#s##	spk3	10.75	11.02	0.01	_
20091112_RATP_SCD_1343	4	13	Imagine+R	NULL	np	I_PRD	I_GN	MOD	12	idtext0005	Imagine+R	#####	spk3	11.03	12.5	?	//

20091112_RATP_SCD_1343	5	1	sur	NULL	prep	NULL	B_GP	ROOT	0	idtext0006	sur	#####	spk2	12.54	12.63	0.01	_
20091112_RATP_SCD_1343	5	2	quel	NULL	det	NULL	I_GP	DET	3	idtext0006	quel	##m#s##	spk2	12.64	12.79	0.01	_
20091112_RATP_SCD_1343	5	3	réseau	NULL	nc	NULL	I_GP	OBJ	1	idtext0006	réseau	##m#s##	spk2	12.8	13.5	?	//

20091112_RATP_SCD_1343	6	1	euh	DISF_M	pres	NULL	NULL	NOLINK	0	idtext0007	euh	#####	spk3	13.54	13.56	0.01	_
20091112_RATP_SCD_1343	6	2	un	NULL	det	NULL	B_GN	DET	3	idtext0007	un	##m#s##i	spk3	13.57	14.73	0.01	_
20091112_RATP_SCD_1343	6	3	cent+soixante-neuf	NULL	nc	B_T	I_GN	ROOT	0	idtext0007	cent+soixante-neuf	#####	spk3	14.74	15.55	0.01	_
20091112_RATP_SCD_1343	6	4	un	NULL	det	NULL	B_GN	DET	5	idtext0007	un	##m#s##i	spk3	15.56	15.75	0.01	_
20091112_RATP_SCD_1343	6	5	bus	NULL	nc	NULL	I_GN	ROOT	0	idtext0007	bus	##m###	spk3	15.76	16.53	?	//

20091112_RATP_SCD_1343	7	1	un	NULL	det	NULL	B_GN	DET	2	idtext0008	un	##m#s##i	spk2	16.57	16.66	0.01	_
20091112_RATP_SCD_1343	7	2	bus	NULL	nc	NULL	I_GN	ROOT	0	idtext0008	bus	##m###	spk2	16.67	16.9	0.01	_
20091112_RATP_SCD_1343	7	3	le	NULL	det	NULL	B_GN	DET	4	idtext0008	le	##m#s##d	spk2	16.91	17.03	0.01	_
20091112_RATP_SCD_1343	7	4	bus	NULL	nc	B_T	I_GN	ROOT	0	idtext0008	bus	##m###	spk2	17.04	17.15	0.01	_
20091112_RATP_SCD_1343	7	5	cent+soixante-neuf	NULL	adj	I_T	I_GN	MOD	4	idtext0008	cent+soixante-neuf	#####	spk2	17.16	17.86	0.01	_
20091112_RATP_SCD_1343	7	6	aujourd'hui	NULL	adv	NULL	B_GADV	NOLINK	0	idtext0008	aujourd'hui	#####	spk2	17.87	18.48	?	//

20091112_RATP_SCD_1343	8	1	euh	DISF_M	pres	NULL	NULL	NOLINK	0	idtext0009	euh	#####	spk3	18.54	18.8	0.01	_
20091112_RATP_SCD_1343	8	2	non	NULL	adv	NULL	B_GADV	NOLINK	0	idtext0009	non	#####	spk3	18.81	19.02	0.01	_
20091112_RATP_SCD_1343	8	3	je	NULL	cln	NULL	B_GN	SUJ	4	idtext0009	cln	#1##s##	spk3	19.03	19.12	0.01	_
20091112_RATP_SCD_1343	8	4	pense	NULL	v	NULL	B_GVf	ROOT	0	idtext0009	penser	PS#13##s##	spk3	19.13	19.42	0.01	_
20091112_RATP_SCD_1343	8	5	hier	NULL	adv	NULL	B_GADV	MOD	4	idtext0009	hier	#####	spk3	19.43	20.53	?	_

20091112_RATP_SCD_1343	9	1	hier	NULL	adv	NULL	B_GADV	MOD	2	idtext0010	hier	#####	spk2	20.57	21.01	0.01	_
20091112_RATP_SCD_1343	9	2	alors	NULL	adv	NULL	I_GADV	ROOT	0	idtext0010	alors	#####	spk2	21.02	21.37	0.01	_
20091112_RATP_SCD_1343	9	3	hum	DISF_M	pres	NULL	NULL	NOLINK	0	idtext0010	hum	#####	spk2	21.38	21.64	0.01	_
20091112_RATP_SCD_1343	9	4	c'	NULL	cln	NULL	B_GN	SUJ_IMP	5	idtext0010	ce	###s##	spk2	21.65	21.71	0.01	_
20091112_RATP_SCD_1343	9	5	est	NULL	v	NULL	B_GVf	ROOT	0	idtext0010	être	P#3##s##	spk2	21.72	21.84	0.01	_
20091112_RATP_SCD_1343	9	6	à	NULL	prep	NULL	B_GP	ATS	5	idtext0010	à	#####	spk2	21.85	21.9	0.01	_
20091112_RATP_SCD_1343	9	7	quel	NULL	det	NULL	I_GP	DET	8	idtext0010	quel	##m#s##	spk2	21.91	22.26	0.01	_
20091112_RATP_SCD_1343	9	8	nom	NULL	nc	NULL	I_GP	OBJ	6	idtext0010	nom	##m#s##	spk2	22.27	22.77	?	//

20091112_RATP_SCD_1343	10	1	euh	DISF_M	pres	NULL	NULL	NOLINK	0	idtext0011	euh	#####	spk3	22.94	23.08	0.53	//
20091112_RATP_SCD_1343	10	2	NNAAMMEE	NULL	np	B_HU	B_GN	ROOT	0	idtext0012	ANONYM	NULL	spk3	23.61	24.31	0.01	_
20091112_RATP_SCD_1343	10	3	NNAAMMEE	NULL	np	B_HU	B_GN	ROOT	0	idtext0013	ANONYM	NULL	spk3	24.32	25.55	0.01	_
20091112_RATP_SCD_1343	10	4	NNAAMMEE	NULL	np	B_HU	B_GN	ROOT	0	idtext0014	ANONYM	NULL	spk3	25.56	25.87	?	//

20091112_RATP_SCD_1343	11	1	NNAAMMEE	NULL	np	B_HU	B_GN	ROOT	0	idtext0015	ANONYM	NULL	spk2	25.92	26.79	0.01	_
20091112_RATP_SCD_1343	11	2	NNAAMMEE	NULL	np	B_HU	B_GN	ROOT	0	idtext0016	ANONYM	NULL	spk2	26.8	27.14	0.08	_
20091112_RATP_SCD_1343	11	3	hein	DISF_M	pres	NULL	NULL	NOLINK	0	idtext0017	hein	#####	spk2	27.22	27.32	0.01	_
20091112_RATP_SCD_1343	11	4	c'	NULL	cln	NULL	B_GN	SUJ_IMP	5	idtext0017	ce	###s##	spk2	27.33	27.35	0.01	_
20091112_RATP_SCD_1343	11	5	est	NULL	v	NULL	B_GVf	ROOT	0	idtext0017	être	P#3##s##	spk2	27.36	27.46	0.01	_
20091112_RATP_SCD_1343	11	6	ça	NULL	pro	NULL	B_GN	ATS	5	idtext0017	ça	#####	spk2	27.47	27.62	?	_

20091112_RATP_SCD_1343	12	1	oui	NULL	adv	NULL	B_GADV	NOLINK	0	idtext0018	oui	#####	spk3	27.84	28.38	?	//

20091112_RATP_SCD_1343	13	1	ne	NULL	clneg	NULL	B_GVfn	MOD	2	idtext0019	ne	#####	spk2	28.45	28.47	0.01	_
20091112_RATP_SCD_1343	13	2	quittez	NULL	v	NULL	I_GVfn	ROOT	0	idtext0019	quitter	P#2##p##	spk2	28.48	28.73	0.01	_
20091112_RATP_SCD_1343	13	3	pas	NULL	advneg	NULL	I_GVfn	MOD	2	idtext0019	pas	#####	spk2	28.74	28.95	0.01	_
20091112_RATP_SCD_1343	13	4	je	DISF_R	cln	NULL	NULL	NOLINK	0	idtext0019	cln	#1##s##	spk2	28.96	28.99	0.01	_
20091112_RATP_SCD_1343	13	5	vais	DISF_R	v	NULL	NULL	NOLINK	0	idtext0019	aller	P#1##s##	spk2	29.0	29.15	0.01	_
20091112_RATP_SCD_1343	13	6	euh	DISF_M	pres	NULL	NULL	NOLINK	0	idtext0019	euh	#####	spk2	29.16	29.35	0.01	_
20091112_RATP_SCD_1343	13	7	je	NULL	cln	NULL	B_GN	SUJ	8	idtext0019	cln	#1##s##	spk2	29.36	29.52	0.01	_
20091112_RATP_SCD_1343	13	8	vais	NULL	v	NULL	B_GVf	ROOT	0	idtext0019	aller	P#1##s##	spk2	29.53	29.61	0.01	_
20091112_RATP_SCD_1343	13	9	me	NULL	clr	NULL	B_GVi	AFF	10	idtext0019	cla	#1##s##	spk2	29.62	29.64	0.01	_
20091112_RATP_SCD_1343	13	10	renseigner	NULL	vinf	NULL	I_GVi	OBJ	8	idtext0019	renseigner	W#####	spk2	29.65	30.13	0.01	_
20091112_RATP_SCD_1343	13	11	hein	DISF_M	pres	NULL	NULL	NOLINK	0	idtext0019	hein	#####	spk2	30.14	30.25	?	//

20091112_RATP_SCD_1343	14	1	merci	NULL	adv	NULL	B_GADV	NOLINK	0	idtext0020	merci	#####	spk3	30.29	30.9	?	//

20091112_RATP_SCD_1343	15	1	s'il+vous+plaît	NULL	adv	NULL	B_GADV	NOLINK	0	idtext0021	s'il+vous+plaît	#####	spk2	52.09	52.71	?	//

20091112_RATP_SCD_1343	16	1	oui	NULL	adv	NULL	B_GADV	NOLINK	0	idtext0022	oui	#####	spk3	52.75	53.13	?	//

20091112_RATP_SCD_1343	17	1	non	NULL	adv	NULL	B_GADV	NOLINK	0	idtext0023	non	#####	spk2	53.2	53.43	0.01	_
20091112_RATP_SCD_1343	17	2	j'	NULL	cln	NULL	B_GN	SUJ	3	idtext0023	cln	#1##s##	spk2	53.44	53.48	0.01	_
20091112_RATP_SCD_1343	17	3	ai	NULL	v	NULL	B_GVf	ROOT	0	idtext0023	avoir	P#1##s##	spk2	53.49	53.51	0.01	_
20091112_RATP_SCD_1343	17	4	rien	NULL	pro	NULL	B_GN	OBJ	3	idtext0023	rien	#####	spk2	53.52	53.67	0.01	_
20091112_RATP_SCD_1343	17	5	qu'	NULL	prorel	NULL	B_NULL	SUJ	8	idtext0023	qu'	#####	spk2	53.68	53.7	0.01	_
20091112_RATP_SCD_1343	17	6	a	NULL	v	NULL	B_GVf	AUX	7	idtext0023	avoir	P#3##s##	spk2	53.71	53.75	0.01	_
20091112_RATP_SCD_1343	17	7	été	NULL	vppart	NULL	I_GVf	AUX	8	idtext0023	être	K#####	spk2	53.76	54.05	0.01	_
20091112_RATP_SCD_1343	17	8	retrouvé	NULL	vppart	NULL	I_GVf	MOD_REL	4	idtext0023	retrouver	K##m#s##	spk2	54.06	54.87	?	//

20091112_RATP_SCD_1343	18	1	vous	NULL	cln	NULL	B_GN	SUJ	2	idtext0024	cln	#2##p##	spk3	54.91	54.97	0.01	_
20091112_RATP_SCD_1343	18	2	avez	NULL	v	NULL	B_GVf	ROOT	0	idtext0024	avoir	P#2##p##	spk3	54.98	55.07	0.01	_
20091112_RATP_SCD_1343	18	3	rien	NULL	pro	NULL	B_GN	OBJ	2	idtext0024	rien	#####	spk3	55.08	55.76	?	_

20091112_RATP_SCD_1343	19	1	alors	NULL	adv	NULL	B_GADV	NOLINK	0	idtext0025	alors	#####	spk2	54.95	55.48	0.01	//
20091112_RATP_SCD_1343	19	2	ce	NULL	det	NULL	B_NULL	NOLINK	0	idtext0025	ce	##m#s##e	spk2	55.49	55.76	?	_

20091112_RATP_SCD_1343	20	1	ce+qu'	NULL	prorel	NULL	B_NULL	OBJ	3	idtext0026	ce+qu'	#####	spk2	55.8	55.85	0.01	_
20091112_RATP_SCD_1343	20	2	il	NULL	cln	NULL	B_GN	SUJ_IMP	3	idtext0026	cln	#3#m#s##	spk2	55.86	55.91	0.01	_
20091112_RATP_SCD_1343	20	3	faudrait	NULL	v	NULL	B_GVf	ROOT	0	idtext0026	falloir	C#3##s##	spk2	55.92	56.2	0.01	_
20091112_RATP_SCD_1343	20	4	faire	NULL	vinf	NULL	I_GVf	OBJ	3	idtext0026	faire	W#####	spk2	56.21	56.54	0.01	_
20091112_RATP_SCD_1343	20	5	c'	NULL	cln	NULL	B_GN	SUJ_IMP	6	idtext0026	ce	###s##	spk2	56.55	56.59	0.01	_
20091112_RATP_SCD_1343	20	6	est	NULL	v	NULL	B_GVf	ROOT	0	idtext0026	être	P#3##s##	spk2	56.6	56.64	0.01	_
20091112_RATP_SCD_1343	20	7	aller	NULL	vinf	NULL	I_GVf	OBJ	6	idtext0026	aller	W#####	spk2	56.65	56.79	0.01	_
20091112_RATP_SCD_1343	20	8	en	NULL	prep	NULL	B_GP	P_OBJ_LOC	6	idtext0026	en	#####	spk2	56.8	56.92	0.01	_
20091112_RATP_SCD_1343	20	9	agence	NULL	nc	NULL	I_GP	OBJ	8	idtext0026	agence	##f#s##	spk2	56.93	57.25	0.01	_
20091112_RATP_SCD_1343	20	10	commerciales	NULL	adj	NULL	I_GP	MOD	9	idtext0026	commercial	##f#p##	spk2	57.26	57.94	0.01	/
20091112_RATP_SCD_1343	20	11	les	NULL	det	NULL	B_GN	DET	12	idtext0026	le	###p##d	spk2	57.95	58.08	0.01	_
20091112_RATP_SCD_1343	20	12	boutiques	NULL	nc	NULL	I_GN	OBJ	3	idtext0026	boutique	##f#p##	spk2	58.09	58.43	0.01	_
20091112_RATP_SCD_1343	20	13	RATP	NULL	np	B_ORG	I_GN	MOD	12	idtext0026	RATP	##f#s##	spk2	58.44	59.23	?	//

20091112_RATP_SCD_1343	21	1	oui	NULL	adv	NULL	B_GADV	NOLINK	0	idtext0027	oui	#####	spk3	59.27	59.49	?	//

20091112_RATP_SCD_1343	22	1	avec	NULL	prep	NULL	B_GP	ROOT	0	idtext0028	avec	#####	spk2	59.65	59.92	0.01	_
20091112_RATP_SCD_1343	22	2	une	NULL	det	NULL	I_GP	DET	3	idtext0028	un	##f#s##i	spk2	59.93	60.01	0.01	_
20091112_RATP_SCD_1343	22	3	pièce	NULL	nc	NULL	I_GP	OBJ	1	idtext0028	pièce	##f#s##	spk2	60.02	60.19	0.01	_
20091112_RATP_SCD_1343	22	4	d'	NULL	prep	NULL	B_GP	DEP	3	idtext0028	d'	#####	spk2	60.2	60.22	0.01	_
20091112_RATP_SCD_1343	22	5	identité	NULL	nc	NULL	I_GP	OBJ	4	idtext0028	identité	##f#s##	spk2	60.23	60.95	0.01	_
20091112_RATP_SCD_1343	22	6	vingt-trois	NULL	det	B_P	I_GP	DET	7	idtext0028	vingt-trois	#####	spk2	60.96	61.38	0.01	_
20091112_RATP_SCD_1343	22	7	euros	NULL	nc	I_P	I_GP	MOD	3	idtext0028	euro	##m#p##	spk2	61.39	61.71	0.01	_
20091112_RATP_SCD_1343	22	8	et	NULL	coo	NULL	B_NULL	COORD	3	idtext0028	et	#####	spk2	61.72	61.74	0.01	_
20091112_RATP_SCD_1343	22	9	on	NULL	cln	NULL	B_GN	SUJ_IMP	11	idtext0028	cln	#3##s##	spk2	61.75	61.81	0.01	_
20091112_RATP_SCD_1343	22	10	vous	NULL	clo	NULL	B_GN	A_OBJ	11	idtext0028	cln	#2##p##	spk2	61.82	61.93	0.01	_
20091112_RATP_SCD_1343	22	11	refabrique	NULL	v	NULL	B_GVf	DEP_COORD	8	idtext0028	refabriquer	PS#13##s##	spk2	61.94	62.42	0.01	_
20091112_RATP_SCD_1343	22	12	le	NULL	det	NULL	B_GN	DET	13	idtext0028	le	##m#s##d	spk2	62.43	62.5	0.01	_
20091112_RATP_SCD_1343	22	13	passe	NULL	nc	NULL	I_GN	OBJ	11	idtext0028	passe	###s##	spk2	62.51	63.46	?	//

20091112_RATP_SCD_1343	23	1	d'accord	NULL	adv	NULL	B_GADV	NOLINK	0	idtext0029	d'accord	#####	spk3	63.5	64.01	?	//

20091112_RATP_SCD_1343	24	1	hein	DISF_M	pres	NULL	NULL	NOLINK	0	idtext0030	hein	#####	spk2	64.05	64.13	?	//

20091112_RATP_SCD_1343	25	1	bon+bah	DISF_M	pres	NULL	NULL	NOLINK	0	idtext0031	bon+bah	#####	spk3	64.17	64.56	0.01	_
20091112_RATP_SCD_1343	25	2	d'acc	NULL	adv	NULL	B_GADV	MOD	3	idtext0031	d'acc	#####	spk3	64.57	64.76	0.01	_
20091112_RATP_SCD_1343	25	3	oui	NULL	adv	NULL	I_GADV	ROOT	0	idtext0031	oui	#####	spk3	64.77	65.13	0.04	_
20091112_RATP_SCD_1343	25	4	et	NULL	coo	NULL	B_NULL	NOLINK	0	idtext0032	et	#####	spk3	65.17	65.19	0.01	_
20091112_RATP_SCD_1343	25	5	est-ce+que	NULL	pri	NULL	B_NULL	NOLINK	0	idtext0032	est-ce+que	#####	spk3	65.2	65.54	0.01	_
20091112_RATP_SCD_1343	25	6	il	NULL	cln	NULL	B_GN	SUJ_IMP	7	idtext0032	cln	#3#m#s##	spk3	65.55	65.8	0.01	_
20091112_RATP_SCD_1343	25	7	faut	NULL	v	NULL	B_GVf	ROOT	0	idtext0032	falloir	P#3##s##	spk3	65.81	66.13	0.01	_
20091112_RATP_SCD_1343	25	8	que	NULL	csu	NULL	B_NULL	OBJ	7	idtext0032	que	#####	spk3	66.14	66.32	0.01	_
20091112_RATP_SCD_1343	25	9	je	NULL	cln	NULL	B_GN	SUJ	10	idtext0032	cln	#1##s##	spk3	66.33	66.4	0.01	_
20091112_RATP_SCD_1343	25	10	ramène	NULL	v	NULL	B_GVf	OBJ	8	idtext0032	ramener	PS#13##s##	spk3	66.41	66.7	0.01	_
20091112_RATP_SCD_1343	25	11	une	NULL	det	NULL	B_GN	DET	12	idtext0032	un	##f#s##i	spk3	66.71	66.82	0.01	_
20091112_RATP_SCD_1343	25	12	photo	NULL	nc	NULL	I_GN	OBJ	10	idtext0032	photo	##f#s##	spk3	66.83	67.22	?	//

20091112_RATP_SCD_1343	26	1	non	DISF_R	adv	NULL	NULL	NOLINK	0	idtext0033	non	#####	spk2	67.31	67.45	0.01	_
20091112_RATP_SCD_1343	26	2	non	NULL	adv	NULL	B_GADV	NOLINK	0	idtext0033	non	#####	spk2	67.46	67.89	?	_

20091112_RATP_SCD_1343	27	1	vous	NULL	cln	NULL	B_GN	SUJ	3	idtext0034	cln	#2##p##	spk3	67.93	67.98	0.01	_
20091112_RATP_SCD_1343	27	2	l'	NULL	clo	NULL	B_GN	OBJ	3	idtext0034	cla	#3##s##	spk3	67.99	68.05	0.01	_
20091112_RATP_SCD_1343	27	3	avez	NULL	v	NULL	B_GVf	ROOT	0	idtext0034	avoir	P#2##p##	spk3	68.06	68.2	0.01	_
20091112_RATP_SCD_1343	27	4	dans	NULL	prep	NULL	B_GP	P_OBJ_LOC	3	idtext0034	dans	#####	spk3	68.21	68.34	0.01	_
20091112_RATP_SCD_1343	27	5	vos	NULL	det	NULL	I_GP	DET	6	idtext0034	votre	###p##o	spk3	68.35	68.42	0.01	_
20091112_RATP_SCD_1343	27	6	fichiers	NULL	nc	NULL	I_GP	OBJ	4	idtext0034	fichier	##m#p##	spk3	68.43	68.69	?	//

20091112_RATP_SCD_1343	28	1	oui	NULL	adv	NULL	B_GADV	MOD	2	idtext0035	oui	#####	spk2	68.73	68.85	0.01	_
20091112_RATP_SCD_1343	28	2	tout+à+fait	NULL	adv	NULL	I_GADV	ROOT	0	idtext0035	tout+à+fait	#####	spk2	68.86	69.53	?	_

20091112_RATP_SCD_1343	29	1	OK	NULL	adv	NULL	B_GADJ	MOD	2	idtext0036	ok	#####	spk3	69.57	69.79	0.01	_
20091112_RATP_SCD_1343	29	2	parfait	NULL	adj	NULL	I_GADJ	ROOT	0	idtext0036	parfait	##m#s##	spk3	69.8	70.17	?	//

20091112_RATP_SCD_1343	30	1	merci	NULL	adv	NULL	B_GADV	MOD	2	idtext0037	merci	#####	spk3	70.21	70.45	0.01	_
20091112_RATP_SCD_1343	30	2	beaucoup	NULL	adv	NULL	I_GADV	ROOT	0	idtext0037	beaucoup	#####	spk3	70.46	70.72	?	//

20091112_RATP_SCD_1343	31	1	je	NULL	cln	NULL	B_GN	SUJ	4	idtext0038	cln	#1##s##	spk2	70.76	70.85	0.01	_
20091112_RATP_SCD_1343	31	2	vous	NULL	clo	NULL	B_GN	OBJ	4	idtext0038	cln	#2##p##	spk2	70.86	70.95	0.01	_
20091112_RATP_SCD_1343	31	3	en	NULL	clo	NULL	B_GN	DE_OBJ	4	idtext0038	en	#####	spk2	70.96	71.06	0.01	_
20091112_RATP_SCD_1343	31	4	prie	NULL	v	NULL	B_GVf	ROOT	0	idtext0038	prier	PS#13##s##	spk2	71.07	71.29	?	//

20091112_RATP_SCD_1343	32	1	au+revoir	NULL	adv	NULL	B_GADV	NOLINK	0	idtext0039	au+revoir	#####	spk3	71.36	71.74	?	//

20091112_RATP_SCD_1343	33	1	bonne	NULL	adj	NULL	B_GN	MOD	2	idtext0040	bon	##f#s##	spk2	71.33	71.46	0.01	_
20091112_RATP_SCD_1343	33	2	soirée	NULL	nc	NULL	I_GN	ROOT	0	idtext0040	soirée	##f#s##	spk2	71.47	71.74	?	//

20091112_RATP_SCD_1343	34	1	au+revoir	NULL	adv	NULL	B_GADV	NOLINK	0	idtext0041	au+revoir	#####	spk2	71.78	72.07	?	//

