
DIALOG=20091112_RATP_SCD_1267

001 spk1>	 NNAAMMEE bonsoir
002 spk2>	 oui bonsoir
003 spk2>	 euh j' aurais aimé avoir un renseignement
004 spk1>	 oui
005 spk2>	 si j' avais euh un
006 spk2>	 problème non ben excusez -moi tout va bien je vous
007 spk2>	 au+revoir
008 spk1>	 hein bonsoir

